{
  "Title": "RHEA-2021:1906: libyang bug fix and enhancement update (Moderate)",
  "Description": "For detailed information on changes in this release, see the Red Hat\nEnterprise Linux 8.4 Release Notes linked from the References section.",
  "Platform": [
    "Red Hat Enterprise Linux 8"
  ],
  "References": [
    {
      "Source": "RHSA",
      "URI": "https://access.redhat.com/errata/RHEA-2021:1906",
      "ID": "RHEA-2021:1906"
    },
    {
      "Source": "CVE",
      "URI": "https://access.redhat.com/security/cve/CVE-2019-20391",
      "ID": "CVE-2019-20391"
    },
    {
      "Source": "CVE",
      "URI": "https://access.redhat.com/security/cve/CVE-2019-20392",
      "ID": "CVE-2019-20392"
    },
    {
      "Source": "CVE",
      "URI": "https://access.redhat.com/security/cve/CVE-2019-20393",
      "ID": "CVE-2019-20393"
    },
    {
      "Source": "CVE",
      "URI": "https://access.redhat.com/security/cve/CVE-2019-20394",
      "ID": "CVE-2019-20394"
    },
    {
      "Source": "CVE",
      "URI": "https://access.redhat.com/security/cve/CVE-2019-20395",
      "ID": "CVE-2019-20395"
    },
    {
      "Source": "CVE",
      "URI": "https://access.redhat.com/security/cve/CVE-2019-20396",
      "ID": "CVE-2019-20396"
    },
    {
      "Source": "CVE",
      "URI": "https://access.redhat.com/security/cve/CVE-2019-20397",
      "ID": "CVE-2019-20397"
    },
    {
      "Source": "CVE",
      "URI": "https://access.redhat.com/security/cve/CVE-2019-20398",
      "ID": "CVE-2019-20398"
    }
  ],
  "Criteria": {
    "Operator": "OR",
    "Criterias": [
      {
        "Operator": "AND",
        "Criterias": [
          {
            "Operator": "OR",
            "Criterias": [

            ],
            "Criterions": [
              {
                "Comment": "Oracle Linux 8 is installed"
              },
              {
                "Comment": "Red Hat CoreOS 4 is installed"
              }
            ]
          }
        ],
        "Criterions": [
          {
            "Comment": "libyang is earlier than 0:1.0.184-1.el8"
          },
          {
            "Comment": "libyang is signed with Red Hat redhatrelease2 key"
          }
        ]
      }
    ],
    "Criterions": [
      {
        "Comment": "Oracle Linux 8 is installed"
      }
    ]
  },
  "Severity": "Moderate",
  "Cves": [
    {
      "Impact": "",
      "Href": "",
      "ID": "CVE-2019-20391"
    },
    {
      "Impact": "",
      "Href": "",
      "ID": "CVE-2019-20392"
    },
    {
      "Impact": "",
      "Href": "",
      "ID": "CVE-2019-20393"
    },
    {
      "Impact": "",
      "Href": "",
      "ID": "CVE-2019-20394"
    },
    {
      "Impact": "",
      "Href": "",
      "ID": "CVE-2019-20395"
    },
    {
      "Impact": "",
      "Href": "",
      "ID": "CVE-2019-20396"
    },
    {
      "Impact": "",
      "Href": "",
      "ID": "CVE-2019-20397"
    },
    {
      "Impact": "",
      "Href": "",
      "ID": "CVE-2019-20398"
    }
  ],
  "Issued": {
    "Date": "2021-05-18"
  }
}