{
  "Title": "RHSA-2021:0996: thunderbird security update (Important)",
  "Description": "Mozilla Thunderbird is a standalone mail and newsgroup client.\nThis update upgrades Thunderbird to version 78.9.0.\nSecurity Fix(es):\n* Mozilla: Texture upload into an unbound backing buffer resulted in an out-of-bound read (CVE-2021-23981)\n* Mozilla: Memory safety bugs fixed in Firefox 87 and Firefox ESR 78.9 (CVE-2021-23987)\n* Mozilla: Internal network hosts could have been probed by a malicious webpage (CVE-2021-23982)\n* Mozilla: Malicious extensions could have spoofed popup information (CVE-2021-23984)\nFor more details about the security issue(s), including the impact, a CVSS score, acknowledgments, and other related information, refer to the CVE page(s) listed in the References section.",
  "Platform": [
    "Red Hat Enterprise Linux 7"
  ],
  "References": [
    {
      "Source": "RHSA",
      "URI": "https://access.redhat.com/errata/RHSA-2021:0996",
      "ID": "RHSA-2021:0996"
    },
    {
      "Source": "CVE",
      "URI": "https://access.redhat.com/security/cve/CVE-2021-23981",
      "ID": "CVE-2021-23981"
    },
    {
      "Source": "CVE",
      "URI": "https://access.redhat.com/security/cve/CVE-2021-23982",
      "ID": "CVE-2021-23982"
    },
    {
      "Source": "CVE",
      "URI": "https://access.redhat.com/security/cve/CVE-2021-23984",
      "ID": "CVE-2021-23984"
    },
    {
      "Source": "CVE",
      "URI": "https://access.redhat.com/security/cve/CVE-2021-23987",
      "ID": "CVE-2021-23987"
    },
    {
      "Source": "CVE",
      "URI": "https://access.redhat.com/security/cve/CVE-2021-4127",
      "ID": "CVE-2021-4127"
    }
  ],
  "Criteria": {
    "Operator": "OR",
    "Criterias": [
      {
        "Operator": "AND",
        "Criterias": [

        ],
        "Criterions": [
          {
            "Comment": "Oracle Linux 7 is installed"
          },
          {
            "Comment": "thunderbird is earlier than 0:78.9.0-3.el7_9"
          },
          {
            "Comment": "thunderbird is signed with Red Hat redhatrelease2 key"
          }
        ]
      }
    ],
    "Criterions": [
      {
        "Comment": "Oracle Linux 7 is installed"
      }
    ]
  },
  "Severity": "Important",
  "Cves": [
    {
      "Impact": "",
      "Href": "",
      "ID": "CVE-2021-23981"
    },
    {
      "Impact": "",
      "Href": "",
      "ID": "CVE-2021-23982"
    },
    {
      "Impact": "",
      "Href": "",
      "ID": "CVE-2021-23984"
    },
    {
      "Impact": "",
      "Href": "",
      "ID": "CVE-2021-23987"
    },
    {
      "Impact": "",
      "Href": "",
      "ID": "CVE-2021-4127"
    }
  ],
  "Issued": {
    "Date": "2021-03-25"
  }
}