{
  "Title": "RHSA-2021:2036: dotnet5.0 security and bugfix update (Important)",
  "Description": ".NET is a managed-software framework. It implements a subset of the .NET framework APIs and several new APIs, and it includes a CLR implementation.\nNew versions of .NET that address a security vulnerability are now available. The updated versions are .NET SDK 5.0.203 and .NET Runtime 5.0.6.\nSecurity Fix(es):\n* dotnet: .NET Core single-file application privilege escalation (CVE-2021-31204)\nIn order for the update to be complete, self-contained applications deployed using previous versions need to be recompiled and redeployed.\nFor more details about the security issue(s), including the impact, a CVSS score, acknowledgments, and other related information, refer to the CVE page(s) listed in the References section.",
  "Platform": [
    "Red Hat Enterprise Linux 8"
  ],
  "References": [
    {
      "Source": "RHSA",
      "URI": "https://access.redhat.com/errata/RHSA-2021:2036",
      "ID": "RHSA-2021:2036"
    },
    {
      "Source": "CVE",
      "URI": "https://access.redhat.com/security/cve/CVE-2021-31204",
      "ID": "CVE-2021-31204"
    }
  ],
  "Criteria": {
    "Operator": "OR",
    "Criterias": [
      {
        "Operator": "AND",
        "Criterias": [
          {
            "Operator": "OR",
            "Criterias": [

            ],
            "Criterions": [
              {
                "Comment": "Oracle Linux 8 is installed"
              },
              {
                "Comment": "Red Hat CoreOS 4 is installed"
              }
            ]
          },
          {
            "Operator": "OR",
            "Criterias": [
              {
                "Operator": "AND",
                "Criterias": [

                ],
                "Criterions": [
                  {
                    "Comment": "aspnetcore-runtime-5.0 is earlier than 0:5.0.6-1.el8_4"
                  },
                  {
                    "Comment": "aspnetcore-runtime-5.0 is signed with Red Hat redhatrelease2 key"
                  }
                ]
              },
              {
                "Operator": "AND",
                "Criterias": [

                ],
                "Criterions": [
                  {
                    "Comment": "aspnetcore-targeting-pack-5.0 is earlier than 0:5.0.6-1.el8_4"
                  },
                  {
                    "Comment": "aspnetcore-targeting-pack-5.0 is signed with Red Hat redhatrelease2 key"
                  }
                ]
              },
              {
                "Operator": "AND",
                "Criterias": [

                ],
                "Criterions": [
                  {
                    "Comment": "dotnet is earlier than 0:5.0.203-1.el8_4"
                  },
                  {
                    "Comment": "dotnet is signed with Red Hat redhatrelease2 key"
                  }
                ]
              },
              {
                "Operator": "AND",
                "Criterias": [

                ],
                "Criterions": [
                  {
                    "Comment": "dotnet-apphost-pack-5.0 is earlier than 0:5.0.6-1.el8_4"
                  },
                  {
                    "Comment": "dotnet-apphost-pack-5.0 is signed with Red Hat redhatrelease2 key"
                  }
                ]
              },
              {
                "Operator": "AND",
                "Criterias": [

                ],
                "Criterions": [
                  {
                    "Comment": "dotnet-host is earlier than 0:5.0.6-1.el8_4"
                  },
                  {
                    "Comment": "dotnet-host is signed with Red Hat redhatrelease2 key"
                  }
                ]
              },
              {
                "Operator": "AND",
                "Criterias": [

                ],
                "Criterions": [
                  {
                    "Comment": "dotnet-hostfxr-5.0 is earlier than 0:5.0.6-1.el8_4"
                  },
                  {
                    "Comment": "dotnet-hostfxr-5.0 is signed with Red Hat redhatrelease2 key"
                  }
                ]
              },
              {
                "Operator": "AND",
                "Criterias": [

                ],
                "Criterions": [
                  {
                    "Comment": "dotnet-runtime-5.0 is earlier than 0:5.0.6-1.el8_4"
                  },
                  {
                    "Comment": "dotnet-runtime-5.0 is signed with Red Hat redhatrelease2 key"
                  }
                ]
              },
              {
                "Operator": "AND",
                "Criterias": [

                ],
                "Criterions": [
                  {
                    "Comment": "dotnet-sdk-5.0 is earlier than 0:5.0.203-1.el8_4"
                  },
                  {
                    "Comment": "dotnet-sdk-5.0 is signed with Red Hat redhatrelease2 key"
                  }
                ]
              },
              {
                "Operator": "AND",
                "Criterias": [

                ],
                "Criterions": [
                  {
                    "Comment": "dotnet-targeting-pack-5.0 is earlier than 0:5.0.6-1.el8_4"
                  },
                  {
                    "Comment": "dotnet-targeting-pack-5.0 is signed with Red Hat redhatrelease2 key"
                  }
                ]
              },
              {
                "Operator": "AND",
                "Criterias": [

                ],
                "Criterions": [
                  {
                    "Comment": "dotnet-templates-5.0 is earlier than 0:5.0.203-1.el8_4"
                  },
                  {
                    "Comment": "dotnet-templates-5.0 is signed with Red Hat redhatrelease2 key"
                  }
                ]
              },
              {
                "Operator": "AND",
                "Criterias": [

                ],
                "Criterions": [
                  {
                    "Comment": "netstandard-targeting-pack-2.1 is earlier than 0:5.0.203-1.el8_4"
                  },
                  {
                    "Comment": "netstandard-targeting-pack-2.1 is signed with Red Hat redhatrelease2 key"
                  }
                ]
              }
            ],
            "Criterions": [

            ]
          }
        ],
        "Criterions": [

        ]
      }
    ],
    "Criterions": [
      {
        "Comment": "Oracle Linux 8 is installed"
      }
    ]
  },
  "Severity": "Important",
  "Cves": [
    {
      "Impact": "",
      "Href": "",
      "ID": "CVE-2021-31204"
    }
  ],
  "Issued": {
    "Date": "2021-05-19"
  }
}