{
  "Title": "RHSA-2021:4374: file security update (Moderate)",
  "Description": "The file command is used to identify a particular file according to the type of data the file contains. It can identify many different file types, including Executable and Linkable Format (ELF) binary files, system libraries, RPM packages, and different graphics formats.\nSecurity Fix(es):\n* file: heap-based buffer overflow in cdf_read_property_info in cdf.c (CVE-2019-18218)\nFor more details about the security issue(s), including the impact, a CVSS score, acknowledgments, and other related information, refer to the CVE page(s) listed in the References section.\nAdditional Changes:\nFor detailed information on changes in this release, see the Red Hat Enterprise Linux 8.5 Release Notes linked from the References section.",
  "Platform": [
    "Red Hat Enterprise Linux 8"
  ],
  "References": [
    {
      "Source": "RHSA",
      "URI": "https://access.redhat.com/errata/RHSA-2021:4374",
      "ID": "RHSA-2021:4374"
    },
    {
      "Source": "CVE",
      "URI": "https://access.redhat.com/security/cve/CVE-2019-18218",
      "ID": "CVE-2019-18218"
    }
  ],
  "Criteria": {
    "Operator": "OR",
    "Criterias": [
      {
        "Operator": "AND",
        "Criterias": [
          {
            "Operator": "OR",
            "Criterias": [

            ],
            "Criterions": [
              {
                "Comment": "Oracle Linux 8 is installed"
              },
              {
                "Comment": "Red Hat CoreOS 4 is installed"
              }
            ]
          },
          {
            "Operator": "OR",
            "Criterias": [
              {
                "Operator": "AND",
                "Criterias": [

                ],
                "Criterions": [
                  {
                    "Comment": "file is earlier than 0:5.33-20.el8"
                  },
                  {
                    "Comment": "file is signed with Red Hat redhatrelease2 key"
                  }
                ]
              },
              {
                "Operator": "AND",
                "Criterias": [

                ],
                "Criterions": [
                  {
                    "Comment": "file-devel is earlier than 0:5.33-20.el8"
                  },
                  {
                    "Comment": "file-devel is signed with Red Hat redhatrelease2 key"
                  }
                ]
              },
              {
                "Operator": "AND",
                "Criterias": [

                ],
                "Criterions": [
                  {
                    "Comment": "file-libs is earlier than 0:5.33-20.el8"
                  },
                  {
                    "Comment": "file-libs is signed with Red Hat redhatrelease2 key"
                  }
                ]
              },
              {
                "Operator": "AND",
                "Criterias": [

                ],
                "Criterions": [
                  {
                    "Comment": "python3-magic is earlier than 0:5.33-20.el8"
                  },
                  {
                    "Comment": "python3-magic is signed with Red Hat redhatrelease2 key"
                  }
                ]
              }
            ],
            "Criterions": [

            ]
          }
        ],
        "Criterions": [

        ]
      }
    ],
    "Criterions": [
      {
        "Comment": "Oracle Linux 8 is installed"
      }
    ]
  },
  "Severity": "Moderate",
  "Cves": [
    {
      "Impact": "",
      "Href": "",
      "ID": "CVE-2019-18218"
    }
  ],
  "Issued": {
    "Date": "2021-11-09"
  }
}