{
  "Title": "RHSA-2021:3440: kernel-rt security and bug fix update (Moderate)",
  "Description": "The kernel-rt packages provide the Real Time Linux Kernel, which enables fine-tuning for systems with extremely high determinism requirements.\nSecurity Fix(es):\n* kernel: slab-out-of-bounds access in xdr_set_page_base() in net/sunrpc/xdr.c (CVE-2021-38201)\nFor more details about the security issue(s), including the impact, a CVSS score, acknowledgments, and other related information, refer to the CVE page(s) listed in the References section.\nBug Fix(es):\n* OSLAT spikes on subset of cpus (BZ#1986063)\n* kernel-rt: update RT source tree to the RHEL-8.4.z source tree (BZ#1990013)\n* Failure to enter full_nohz due to needless SCHED softirqs (BZ#1990272)\n* kernel-rt: Make rcu_normal_after_boot writable (BZ#1995431)",
  "Platform": [
    "Red Hat Enterprise Linux 8"
  ],
  "References": [
    {
      "Source": "RHSA",
      "URI": "https://access.redhat.com/errata/RHSA-2021:3440",
      "ID": "RHSA-2021:3440"
    },
    {
      "Source": "CVE",
      "URI": "https://access.redhat.com/security/cve/CVE-2021-38201",
      "ID": "CVE-2021-38201"
    }
  ],
  "Criteria": {
    "Operator": "OR",
    "Criterias": [
      {
        "Operator": "AND",
        "Criterias": [
          {
            "Operator": "OR",
            "Criterias": [

            ],
            "Criterions": [
              {
                "Comment": "Oracle Linux 8 is installed"
              },
              {
                "Comment": "Red Hat CoreOS 4 is installed"
              }
            ]
          },
          {
            "Operator": "OR",
            "Criterias": [

            ],
            "Criterions": [
              {
                "Comment": "kernel-rt earlier than 0:4.18.0-305.17.1.rt7.89.el8_4 is currently running"
              },
              {
                "Comment": "kernel-rt earlier than 0:4.18.0-305.17.1.rt7.89.el8_4 is set to boot up on next boot"
              }
            ]
          },
          {
            "Operator": "OR",
            "Criterias": [
              {
                "Operator": "AND",
                "Criterias": [

                ],
                "Criterions": [
                  {
                    "Comment": "kernel-rt is earlier than 0:4.18.0-305.17.1.rt7.89.el8_4"
                  },
                  {
                    "Comment": "kernel-rt is signed with Red Hat redhatrelease2 key"
                  }
                ]
              },
              {
                "Operator": "AND",
                "Criterias": [

                ],
                "Criterions": [
                  {
                    "Comment": "kernel-rt-core is earlier than 0:4.18.0-305.17.1.rt7.89.el8_4"
                  },
                  {
                    "Comment": "kernel-rt-core is signed with Red Hat redhatrelease2 key"
                  }
                ]
              },
              {
                "Operator": "AND",
                "Criterias": [

                ],
                "Criterions": [
                  {
                    "Comment": "kernel-rt-debug is earlier than 0:4.18.0-305.17.1.rt7.89.el8_4"
                  },
                  {
                    "Comment": "kernel-rt-debug is signed with Red Hat redhatrelease2 key"
                  }
                ]
              },
              {
                "Operator": "AND",
                "Criterias": [

                ],
                "Criterions": [
                  {
                    "Comment": "kernel-rt-debug-core is earlier than 0:4.18.0-305.17.1.rt7.89.el8_4"
                  },
                  {
                    "Comment": "kernel-rt-debug-core is signed with Red Hat redhatrelease2 key"
                  }
                ]
              },
              {
                "Operator": "AND",
                "Criterias": [

                ],
                "Criterions": [
                  {
                    "Comment": "kernel-rt-debug-devel is earlier than 0:4.18.0-305.17.1.rt7.89.el8_4"
                  },
                  {
                    "Comment": "kernel-rt-debug-devel is signed with Red Hat redhatrelease2 key"
                  }
                ]
              },
              {
                "Operator": "AND",
                "Criterias": [

                ],
                "Criterions": [
                  {
                    "Comment": "kernel-rt-debug-kvm is earlier than 0:4.18.0-305.17.1.rt7.89.el8_4"
                  },
                  {
                    "Comment": "kernel-rt-debug-kvm is signed with Red Hat redhatrelease2 key"
                  }
                ]
              },
              {
                "Operator": "AND",
                "Criterias": [

                ],
                "Criterions": [
                  {
                    "Comment": "kernel-rt-debug-modules is earlier than 0:4.18.0-305.17.1.rt7.89.el8_4"
                  },
                  {
                    "Comment": "kernel-rt-debug-modules is signed with Red Hat redhatrelease2 key"
                  }
                ]
              },
              {
                "Operator": "AND",
                "Criterias": [

                ],
                "Criterions": [
                  {
                    "Comment": "kernel-rt-debug-modules-extra is earlier than 0:4.18.0-305.17.1.rt7.89.el8_4"
                  },
                  {
                    "Comment": "kernel-rt-debug-modules-extra is signed with Red Hat redhatrelease2 key"
                  }
                ]
              },
              {
                "Operator": "AND",
                "Criterias": [

                ],
                "Criterions": [
                  {
                    "Comment": "kernel-rt-devel is earlier than 0:4.18.0-305.17.1.rt7.89.el8_4"
                  },
                  {
                    "Comment": "kernel-rt-devel is signed with Red Hat redhatrelease2 key"
                  }
                ]
              },
              {
                "Operator": "AND",
                "Criterias": [

                ],
                "Criterions": [
                  {
                    "Comment": "kernel-rt-kvm is earlier than 0:4.18.0-305.17.1.rt7.89.el8_4"
                  },
                  {
                    "Comment": "kernel-rt-kvm is signed with Red Hat redhatrelease2 key"
                  }
                ]
              },
              {
                "Operator": "AND",
                "Criterias": [

                ],
                "Criterions": [
                  {
                    "Comment": "kernel-rt-modules is earlier than 0:4.18.0-305.17.1.rt7.89.el8_4"
                  },
                  {
                    "Comment": "kernel-rt-modules is signed with Red Hat redhatrelease2 key"
                  }
                ]
              },
              {
                "Operator": "AND",
                "Criterias": [

                ],
                "Criterions": [
                  {
                    "Comment": "kernel-rt-modules-extra is earlier than 0:4.18.0-305.17.1.rt7.89.el8_4"
                  },
                  {
                    "Comment": "kernel-rt-modules-extra is signed with Red Hat redhatrelease2 key"
                  }
                ]
              }
            ],
            "Criterions": [

            ]
          }
        ],
        "Criterions": [

        ]
      }
    ],
    "Criterions": [
      {
        "Comment": "Oracle Linux 8 is installed"
      }
    ]
  },
  "Severity": "Moderate",
  "Cves": [
    {
      "Impact": "",
      "Href": "",
      "ID": "CVE-2021-38201"
    }
  ],
  "Issued": {
    "Date": "2021-09-07"
  }
}