{
  "Title": "RHSA-2021:2328: qt5-qtimageformats security update (Important)",
  "Description": "The Qt Image Formats in an add-on module for the core Qt Gui library that provides support for additional image formats including MNG, TGA, TIFF, WBMP, and WebP.\nSecurity Fix(es):\n* libwebp: heap-based buffer overflow in PutLE16() (CVE-2018-25011)\n* libwebp: use of uninitialized value in ReadSymbol() (CVE-2018-25014)\n* libwebp: heap-based buffer overflow in WebPDecode*Into functions (CVE-2020-36328)\n* libwebp: use-after-free in EmitFancyRGB() in dec/io_dec.c (CVE-2020-36329)\nFor more details about the security issue(s), including the impact, a CVSS score, acknowledgments, and other related information, refer to the CVE page(s) listed in the References section.",
  "Platform": [
    "Red Hat Enterprise Linux 7"
  ],
  "References": [
    {
      "Source": "RHSA",
      "URI": "https://access.redhat.com/errata/RHSA-2021:2328",
      "ID": "RHSA-2021:2328"
    },
    {
      "Source": "CVE",
      "URI": "https://access.redhat.com/security/cve/CVE-2018-25011",
      "ID": "CVE-2018-25011"
    },
    {
      "Source": "CVE",
      "URI": "https://access.redhat.com/security/cve/CVE-2018-25014",
      "ID": "CVE-2018-25014"
    },
    {
      "Source": "CVE",
      "URI": "https://access.redhat.com/security/cve/CVE-2020-36328",
      "ID": "CVE-2020-36328"
    },
    {
      "Source": "CVE",
      "URI": "https://access.redhat.com/security/cve/CVE-2020-36329",
      "ID": "CVE-2020-36329"
    }
  ],
  "Criteria": {
    "Operator": "OR",
    "Criterias": [
      {
        "Operator": "AND",
        "Criterias": [
          {
            "Operator": "OR",
            "Criterias": [
              {
                "Operator": "AND",
                "Criterias": [

                ],
                "Criterions": [
                  {
                    "Comment": "qt5-qtimageformats is earlier than 0:5.9.7-2.el7_9"
                  },
                  {
                    "Comment": "qt5-qtimageformats is signed with Red Hat redhatrelease2 key"
                  }
                ]
              },
              {
                "Operator": "AND",
                "Criterias": [

                ],
                "Criterions": [
                  {
                    "Comment": "qt5-qtimageformats-doc is earlier than 0:5.9.7-2.el7_9"
                  },
                  {
                    "Comment": "qt5-qtimageformats-doc is signed with Red Hat redhatrelease2 key"
                  }
                ]
              }
            ],
            "Criterions": [

            ]
          }
        ],
        "Criterions": [
          {
            "Comment": "Oracle Linux 7 is installed"
          }
        ]
      }
    ],
    "Criterions": [
      {
        "Comment": "Oracle Linux 7 is installed"
      }
    ]
  },
  "Severity": "Important",
  "Cves": [
    {
      "Impact": "",
      "Href": "",
      "ID": "CVE-2018-25011"
    },
    {
      "Impact": "",
      "Href": "",
      "ID": "CVE-2018-25014"
    },
    {
      "Impact": "",
      "Href": "",
      "ID": "CVE-2020-36328"
    },
    {
      "Impact": "",
      "Href": "",
      "ID": "CVE-2020-36329"
    }
  ],
  "Issued": {
    "Date": "2021-06-08"
  }
}