{
  "Title": "RHSA-2021:4116: firefox security update (Important)",
  "Description": "Mozilla Firefox is an open-source web browser, designed for standards compliance, performance, and portability.\nThis update upgrades Firefox to version 91.3.0 ESR.\nSecurity Fix(es):\n* Mozilla: Use-after-free in HTTP2 Session object\n* Mozilla: Memory safety bugs fixed in Firefox 94 and Firefox ESR 91.3\n* Mozilla: iframe sandbox rules did not apply to XSLT stylesheets (CVE-2021-38503)\n* Mozilla: Use-after-free in file picker dialog (CVE-2021-38504)\n* Mozilla: Firefox could be coaxed into going into fullscreen mode without notification or warning (CVE-2021-38506)\n* Mozilla: Opportunistic Encryption in HTTP2 could be used to bypass the Same-Origin-Policy on services hosted on other ports (CVE-2021-38507)\n* Mozilla: Permission Prompt could be overlaid, resulting in user confusion and potential spoofing (CVE-2021-38508)\n* Mozilla: Javascript alert box could have been spoofed onto an arbitrary domain (CVE-2021-38509)\nFor more details about the security issue(s), including the impact, a CVSS score, acknowledgments, and other related information, refer to the CVE page(s) listed in the References section.",
  "Platform": [
    "Red Hat Enterprise Linux 7"
  ],
  "References": [
    {
      "Source": "RHSA",
      "URI": "https://access.redhat.com/errata/RHSA-2021:4116",
      "ID": "RHSA-2021:4116"
    },
    {
      "Source": "CVE",
      "URI": "https://access.redhat.com/security/cve/CVE-2021-38503",
      "ID": "CVE-2021-38503"
    },
    {
      "Source": "CVE",
      "URI": "https://access.redhat.com/security/cve/CVE-2021-38504",
      "ID": "CVE-2021-38504"
    },
    {
      "Source": "CVE",
      "URI": "https://access.redhat.com/security/cve/CVE-2021-38506",
      "ID": "CVE-2021-38506"
    },
    {
      "Source": "CVE",
      "URI": "https://access.redhat.com/security/cve/CVE-2021-38507",
      "ID": "CVE-2021-38507"
    },
    {
      "Source": "CVE",
      "URI": "https://access.redhat.com/security/cve/CVE-2021-38508",
      "ID": "CVE-2021-38508"
    },
    {
      "Source": "CVE",
      "URI": "https://access.redhat.com/security/cve/CVE-2021-38509",
      "ID": "CVE-2021-38509"
    },
    {
      "Source": "CVE",
      "URI": "https://access.redhat.com/security/cve/CVE-2021-43534",
      "ID": "CVE-2021-43534"
    },
    {
      "Source": "CVE",
      "URI": "https://access.redhat.com/security/cve/CVE-2021-43535",
      "ID": "CVE-2021-43535"
    }
  ],
  "Criteria": {
    "Operator": "OR",
    "Criterias": [
      {
        "Operator": "AND",
        "Criterias": [

        ],
        "Criterions": [
          {
            "Comment": "Oracle Linux 7 is installed"
          },
          {
            "Comment": "firefox is earlier than 0:91.3.0-1.el7_9"
          },
          {
            "Comment": "firefox is signed with Red Hat redhatrelease2 key"
          }
        ]
      }
    ],
    "Criterions": [
      {
        "Comment": "Oracle Linux 7 is installed"
      }
    ]
  },
  "Severity": "Important",
  "Cves": [
    {
      "Impact": "",
      "Href": "",
      "ID": "CVE-2021-38503"
    },
    {
      "Impact": "",
      "Href": "",
      "ID": "CVE-2021-38504"
    },
    {
      "Impact": "",
      "Href": "",
      "ID": "CVE-2021-38506"
    },
    {
      "Impact": "",
      "Href": "",
      "ID": "CVE-2021-38507"
    },
    {
      "Impact": "",
      "Href": "",
      "ID": "CVE-2021-38508"
    },
    {
      "Impact": "",
      "Href": "",
      "ID": "CVE-2021-38509"
    },
    {
      "Impact": "",
      "Href": "",
      "ID": "CVE-2021-43534"
    },
    {
      "Impact": "",
      "Href": "",
      "ID": "CVE-2021-43535"
    }
  ],
  "Issued": {
    "Date": "2021-11-03"
  }
}