{
  "Title": "RHSA-2021:4325: lasso security and enhancement update (Moderate)",
  "Description": "The lasso packages provide the Lasso library that implements the Liberty Alliance Single Sign-On standards, including the SAML and SAML2 specifications. It allows handling of the whole life-cycle of SAML-based federations and provides bindings for multiple languages.\nSecurity Fix(es):\n* lasso: XML signature wrapping vulnerability when parsing SAML responses (CVE-2021-28091)\nFor more details about the security issue(s), including the impact, a CVSS score, acknowledgments, and other related information, refer to the CVE page(s) listed in the References section.\nAdditional Changes:\nFor detailed information on changes in this release, see the Red Hat Enterprise Linux 8.5 Release Notes linked from the References section.",
  "Platform": [
    "Red Hat Enterprise Linux 8"
  ],
  "References": [
    {
      "Source": "RHSA",
      "URI": "https://access.redhat.com/errata/RHSA-2021:4325",
      "ID": "RHSA-2021:4325"
    },
    {
      "Source": "CVE",
      "URI": "https://access.redhat.com/security/cve/CVE-2021-28091",
      "ID": "CVE-2021-28091"
    }
  ],
  "Criteria": {
    "Operator": "OR",
    "Criterias": [
      {
        "Operator": "AND",
        "Criterias": [
          {
            "Operator": "OR",
            "Criterias": [

            ],
            "Criterions": [
              {
                "Comment": "Oracle Linux 8 is installed"
              },
              {
                "Comment": "Red Hat CoreOS 4 is installed"
              }
            ]
          },
          {
            "Operator": "OR",
            "Criterias": [
              {
                "Operator": "AND",
                "Criterias": [

                ],
                "Criterions": [
                  {
                    "Comment": "lasso is earlier than 0:2.6.0-12.el8"
                  },
                  {
                    "Comment": "lasso is signed with Red Hat redhatrelease2 key"
                  }
                ]
              },
              {
                "Operator": "AND",
                "Criterias": [

                ],
                "Criterions": [
                  {
                    "Comment": "lasso-devel is earlier than 0:2.6.0-12.el8"
                  },
                  {
                    "Comment": "lasso-devel is signed with Red Hat redhatrelease2 key"
                  }
                ]
              }
            ],
            "Criterions": [

            ]
          }
        ],
        "Criterions": [

        ]
      }
    ],
    "Criterions": [
      {
        "Comment": "Oracle Linux 8 is installed"
      }
    ]
  },
  "Severity": "Moderate",
  "Cves": [
    {
      "Impact": "",
      "Href": "",
      "ID": "CVE-2021-28091"
    }
  ],
  "Issued": {
    "Date": "2021-11-09"
  }
}