{
  "Title": "RHSA-2021:5236: postgresql:13 security update (Moderate)",
  "Description": "PostgreSQL is an advanced object-relational database management system (DBMS).\nThe following packages have been upgraded to a later upstream version: postgresql (13.5).\nSecurity Fix(es):\n* postgresql: memory disclosure in certain queries (CVE-2021-3677)\n* postgresql: server processes unencrypted bytes from man-in-the-middle (CVE-2021-23214)\nFor more details about the security issue(s), including the impact, a CVSS score, acknowledgments, and other related information, refer to the CVE page(s) listed in the References section.",
  "Platform": [
    "Red Hat Enterprise Linux 8"
  ],
  "References": [
    {
      "Source": "RHSA",
      "URI": "https://access.redhat.com/errata/RHSA-2021:5236",
      "ID": "RHSA-2021:5236"
    },
    {
      "Source": "CVE",
      "URI": "https://access.redhat.com/security/cve/CVE-2021-23214",
      "ID": "CVE-2021-23214"
    },
    {
      "Source": "CVE",
      "URI": "https://access.redhat.com/security/cve/CVE-2021-3677",
      "ID": "CVE-2021-3677"
    }
  ],
  "Criteria": {
    "Operator": "OR",
    "Criterias": [
      {
        "Operator": "AND",
        "Criterias": [
          {
            "Operator": "OR",
            "Criterias": [

            ],
            "Criterions": [
              {
                "Comment": "Oracle Linux 8 is installed"
              },
              {
                "Comment": "Red Hat CoreOS 4 is installed"
              }
            ]
          },
          {
            "Operator": "OR",
            "Criterias": [
              {
                "Operator": "AND",
                "Criterias": [
                  {
                    "Operator": "OR",
                    "Criterias": [
                      {
                        "Operator": "AND",
                        "Criterias": [

                        ],
                        "Criterions": [
                          {
                            "Comment": "pg_repack is earlier than 0:1.4.6-3.module+el8.5.0+11357+bcc62552"
                          },
                          {
                            "Comment": "pg_repack is signed with Red Hat redhatrelease2 key"
                          }
                        ]
                      },
                      {
                        "Operator": "AND",
                        "Criterias": [

                        ],
                        "Criterions": [
                          {
                            "Comment": "pgaudit is earlier than 0:1.5.0-1.module+el8.4.0+8873+b821c30a"
                          },
                          {
                            "Comment": "pgaudit is signed with Red Hat redhatrelease2 key"
                          }
                        ]
                      },
                      {
                        "Operator": "AND",
                        "Criterias": [

                        ],
                        "Criterions": [
                          {
                            "Comment": "postgres-decoderbufs is earlier than 0:0.10.0-2.module+el8.4.0+8873+b821c30a"
                          },
                          {
                            "Comment": "postgres-decoderbufs is signed with Red Hat redhatrelease2 key"
                          }
                        ]
                      },
                      {
                        "Operator": "AND",
                        "Criterias": [

                        ],
                        "Criterions": [
                          {
                            "Comment": "postgresql is earlier than 0:13.5-1.module+el8.5.0+13344+8c0fd184"
                          },
                          {
                            "Comment": "postgresql is signed with Red Hat redhatrelease2 key"
                          }
                        ]
                      },
                      {
                        "Operator": "AND",
                        "Criterias": [

                        ],
                        "Criterions": [
                          {
                            "Comment": "postgresql-contrib is earlier than 0:13.5-1.module+el8.5.0+13344+8c0fd184"
                          },
                          {
                            "Comment": "postgresql-contrib is signed with Red Hat redhatrelease2 key"
                          }
                        ]
                      },
                      {
                        "Operator": "AND",
                        "Criterias": [

                        ],
                        "Criterions": [
                          {
                            "Comment": "postgresql-docs is earlier than 0:13.5-1.module+el8.5.0+13344+8c0fd184"
                          },
                          {
                            "Comment": "postgresql-docs is signed with Red Hat redhatrelease2 key"
                          }
                        ]
                      },
                      {
                        "Operator": "AND",
                        "Criterias": [

                        ],
                        "Criterions": [
                          {
                            "Comment": "postgresql-plperl is earlier than 0:13.5-1.module+el8.5.0+13344+8c0fd184"
                          },
                          {
                            "Comment": "postgresql-plperl is signed with Red Hat redhatrelease2 key"
                          }
                        ]
                      },
                      {
                        "Operator": "AND",
                        "Criterias": [

                        ],
                        "Criterions": [
                          {
                            "Comment": "postgresql-plpython3 is earlier than 0:13.5-1.module+el8.5.0+13344+8c0fd184"
                          },
                          {
                            "Comment": "postgresql-plpython3 is signed with Red Hat redhatrelease2 key"
                          }
                        ]
                      },
                      {
                        "Operator": "AND",
                        "Criterias": [

                        ],
                        "Criterions": [
                          {
                            "Comment": "postgresql-pltcl is earlier than 0:13.5-1.module+el8.5.0+13344+8c0fd184"
                          },
                          {
                            "Comment": "postgresql-pltcl is signed with Red Hat redhatrelease2 key"
                          }
                        ]
                      },
                      {
                        "Operator": "AND",
                        "Criterias": [

                        ],
                        "Criterions": [
                          {
                            "Comment": "postgresql-server is earlier than 0:13.5-1.module+el8.5.0+13344+8c0fd184"
                          },
                          {
                            "Comment": "postgresql-server is signed with Red Hat redhatrelease2 key"
                          }
                        ]
                      },
                      {
                        "Operator": "AND",
                        "Criterias": [

                        ],
                        "Criterions": [
                          {
                            "Comment": "postgresql-server-devel is earlier than 0:13.5-1.module+el8.5.0+13344+8c0fd184"
                          },
                          {
                            "Comment": "postgresql-server-devel is signed with Red Hat redhatrelease2 key"
                          }
                        ]
                      },
                      {
                        "Operator": "AND",
                        "Criterias": [

                        ],
                        "Criterions": [
                          {
                            "Comment": "postgresql-static is earlier than 0:13.5-1.module+el8.5.0+13344+8c0fd184"
                          },
                          {
                            "Comment": "postgresql-static is signed with Red Hat redhatrelease2 key"
                          }
                        ]
                      },
                      {
                        "Operator": "AND",
                        "Criterias": [

                        ],
                        "Criterions": [
                          {
                            "Comment": "postgresql-test is earlier than 0:13.5-1.module+el8.5.0+13344+8c0fd184"
                          },
                          {
                            "Comment": "postgresql-test is signed with Red Hat redhatrelease2 key"
                          }
                        ]
                      },
                      {
                        "Operator": "AND",
                        "Criterias": [

                        ],
                        "Criterions": [
                          {
                            "Comment": "postgresql-test-rpm-macros is earlier than 0:13.5-1.module+el8.5.0+13344+8c0fd184"
                          },
                          {
                            "Comment": "postgresql-test-rpm-macros is signed with Red Hat redhatrelease2 key"
                          }
                        ]
                      },
                      {
                        "Operator": "AND",
                        "Criterias": [

                        ],
                        "Criterions": [
                          {
                            "Comment": "postgresql-upgrade is earlier than 0:13.5-1.module+el8.5.0+13344+8c0fd184"
                          },
                          {
                            "Comment": "postgresql-upgrade is signed with Red Hat redhatrelease2 key"
                          }
                        ]
                      },
                      {
                        "Operator": "AND",
                        "Criterias": [

                        ],
                        "Criterions": [
                          {
                            "Comment": "postgresql-upgrade-devel is earlier than 0:13.5-1.module+el8.5.0+13344+8c0fd184"
                          },
                          {
                            "Comment": "postgresql-upgrade-devel is signed with Red Hat redhatrelease2 key"
                          }
                        ]
                      }
                    ],
                    "Criterions": [

                    ]
                  }
                ],
                "Criterions": [
                  {
                    "Comment": "Module postgresql:13 is enabled"
                  }
                ]
              }
            ],
            "Criterions": [

            ]
          }
        ],
        "Criterions": [

        ]
      }
    ],
    "Criterions": [
      {
        "Comment": "Oracle Linux 8 is installed"
      }
    ]
  },
  "Severity": "Moderate",
  "Cves": [
    {
      "Impact": "",
      "Href": "",
      "ID": "CVE-2021-23214"
    },
    {
      "Impact": "",
      "Href": "",
      "ID": "CVE-2021-3677"
    }
  ],
  "Issued": {
    "Date": "2021-12-21"
  }
}