{
  "Title": "RHSA-2021:1360: firefox security update (Important)",
  "Description": "Mozilla Firefox is an open-source web browser, designed for standards compliance, performance, and portability.\nThis update upgrades Firefox to version 78.10.0 ESR.\nSecurity Fix(es):\n* Mozilla: Out of bound write due to lazy initialization (CVE-2021-23994)\n* Mozilla: Use-after-free in Responsive Design Mode (CVE-2021-23995)\n* Mozilla: More internal network hosts could have been probed by a malicious webpage (CVE-2021-23961)\n* Mozilla: Secure Lock icon could have been spoofed (CVE-2021-23998)\n* Mozilla: Blob URLs may have been granted additional privileges (CVE-2021-23999)\n* Mozilla: Arbitrary FTP command execution on FTP servers using an encoded URL (CVE-2021-24002)\n* Mozilla: Incorrect size computation in WebAssembly JIT could lead to null-reads (CVE-2021-29945)\n* Mozilla: Port blocking could be bypassed (CVE-2021-29946)\nFor more details about the security issue(s), including the impact, a CVSS score, acknowledgments, and other related information, refer to the CVE page(s) listed in the References section.",
  "Platform": [
    "Red Hat Enterprise Linux 8"
  ],
  "References": [
    {
      "Source": "RHSA",
      "URI": "https://access.redhat.com/errata/RHSA-2021:1360",
      "ID": "RHSA-2021:1360"
    },
    {
      "Source": "CVE",
      "URI": "https://access.redhat.com/security/cve/CVE-2021-23961",
      "ID": "CVE-2021-23961"
    },
    {
      "Source": "CVE",
      "URI": "https://access.redhat.com/security/cve/CVE-2021-23994",
      "ID": "CVE-2021-23994"
    },
    {
      "Source": "CVE",
      "URI": "https://access.redhat.com/security/cve/CVE-2021-23995",
      "ID": "CVE-2021-23995"
    },
    {
      "Source": "CVE",
      "URI": "https://access.redhat.com/security/cve/CVE-2021-23998",
      "ID": "CVE-2021-23998"
    },
    {
      "Source": "CVE",
      "URI": "https://access.redhat.com/security/cve/CVE-2021-23999",
      "ID": "CVE-2021-23999"
    },
    {
      "Source": "CVE",
      "URI": "https://access.redhat.com/security/cve/CVE-2021-24002",
      "ID": "CVE-2021-24002"
    },
    {
      "Source": "CVE",
      "URI": "https://access.redhat.com/security/cve/CVE-2021-29945",
      "ID": "CVE-2021-29945"
    },
    {
      "Source": "CVE",
      "URI": "https://access.redhat.com/security/cve/CVE-2021-29946",
      "ID": "CVE-2021-29946"
    }
  ],
  "Criteria": {
    "Operator": "OR",
    "Criterias": [
      {
        "Operator": "AND",
        "Criterias": [
          {
            "Operator": "OR",
            "Criterias": [

            ],
            "Criterions": [
              {
                "Comment": "Oracle Linux 8 is installed"
              },
              {
                "Comment": "Red Hat CoreOS 4 is installed"
              }
            ]
          }
        ],
        "Criterions": [
          {
            "Comment": "firefox is earlier than 0:78.10.0-1.el8_3"
          },
          {
            "Comment": "firefox is signed with Red Hat redhatrelease2 key"
          }
        ]
      }
    ],
    "Criterions": [
      {
        "Comment": "Oracle Linux 8 is installed"
      }
    ]
  },
  "Severity": "Important",
  "Cves": [
    {
      "Impact": "",
      "Href": "",
      "ID": "CVE-2021-23961"
    },
    {
      "Impact": "",
      "Href": "",
      "ID": "CVE-2021-23994"
    },
    {
      "Impact": "",
      "Href": "",
      "ID": "CVE-2021-23995"
    },
    {
      "Impact": "",
      "Href": "",
      "ID": "CVE-2021-23998"
    },
    {
      "Impact": "",
      "Href": "",
      "ID": "CVE-2021-23999"
    },
    {
      "Impact": "",
      "Href": "",
      "ID": "CVE-2021-24002"
    },
    {
      "Impact": "",
      "Href": "",
      "ID": "CVE-2021-29945"
    },
    {
      "Impact": "",
      "Href": "",
      "ID": "CVE-2021-29946"
    }
  ],
  "Issued": {
    "Date": "2021-04-26"
  }
}