{
  "Title": "RHSA-2021:4590: rust-toolset:rhel8 security update (Moderate)",
  "Description": "Rust Toolset provides the Rust programming language compiler rustc, the cargo build tool and dependency manager, and required libraries. \nSecurity Fix(es):\n* Developer environment: Unicode's bidirectional (BiDi) override characters can cause trojan source attacks (CVE-2021-42574)\nThe following changes were introduced in rust in order to facilitate detection of BiDi Unicode characters:\nRust introduces two new lints to detect and reject code containing the affected codepoints. These new deny-by-default lints detect affected codepoints in string literals and comments. The lints will prevent source code file containing these codepoints from being compiled. If your code has legitimate uses for the codepoints we recommend replacing them with the related escape sequence. The error messages will suggest the right escapes to use.\nFor more details about the security issue(s), including the impact, a CVSS score, acknowledgments, and other related information, refer to the CVE page(s) listed in the References section.",
  "Platform": [
    "Red Hat Enterprise Linux 8"
  ],
  "References": [
    {
      "Source": "RHSA",
      "URI": "https://access.redhat.com/errata/RHSA-2021:4590",
      "ID": "RHSA-2021:4590"
    },
    {
      "Source": "CVE",
      "URI": "https://access.redhat.com/security/cve/CVE-2021-42574",
      "ID": "CVE-2021-42574"
    }
  ],
  "Criteria": {
    "Operator": "OR",
    "Criterias": [
      {
        "Operator": "AND",
        "Criterias": [
          {
            "Operator": "OR",
            "Criterias": [

            ],
            "Criterions": [
              {
                "Comment": "Oracle Linux 8 is installed"
              },
              {
                "Comment": "Red Hat CoreOS 4 is installed"
              }
            ]
          },
          {
            "Operator": "OR",
            "Criterias": [
              {
                "Operator": "AND",
                "Criterias": [
                  {
                    "Operator": "OR",
                    "Criterias": [
                      {
                        "Operator": "AND",
                        "Criterias": [

                        ],
                        "Criterions": [
                          {
                            "Comment": "cargo is earlier than 0:1.54.0-3.module+el8.5.0+13074+d655d86c"
                          },
                          {
                            "Comment": "cargo is signed with Red Hat redhatrelease2 key"
                          }
                        ]
                      },
                      {
                        "Operator": "AND",
                        "Criterias": [

                        ],
                        "Criterions": [
                          {
                            "Comment": "cargo-doc is earlier than 0:1.54.0-3.module+el8.5.0+13074+d655d86c"
                          },
                          {
                            "Comment": "cargo-doc is signed with Red Hat redhatrelease2 key"
                          }
                        ]
                      },
                      {
                        "Operator": "AND",
                        "Criterias": [

                        ],
                        "Criterions": [
                          {
                            "Comment": "clippy is earlier than 0:1.54.0-3.module+el8.5.0+13074+d655d86c"
                          },
                          {
                            "Comment": "clippy is signed with Red Hat redhatrelease2 key"
                          }
                        ]
                      },
                      {
                        "Operator": "AND",
                        "Criterias": [

                        ],
                        "Criterions": [
                          {
                            "Comment": "rls is earlier than 0:1.54.0-3.module+el8.5.0+13074+d655d86c"
                          },
                          {
                            "Comment": "rls is signed with Red Hat redhatrelease2 key"
                          }
                        ]
                      },
                      {
                        "Operator": "AND",
                        "Criterias": [

                        ],
                        "Criterions": [
                          {
                            "Comment": "rust is earlier than 0:1.54.0-3.module+el8.5.0+13074+d655d86c"
                          },
                          {
                            "Comment": "rust is signed with Red Hat redhatrelease2 key"
                          }
                        ]
                      },
                      {
                        "Operator": "AND",
                        "Criterias": [

                        ],
                        "Criterions": [
                          {
                            "Comment": "rust-analysis is earlier than 0:1.54.0-3.module+el8.5.0+13074+d655d86c"
                          },
                          {
                            "Comment": "rust-analysis is signed with Red Hat redhatrelease2 key"
                          }
                        ]
                      },
                      {
                        "Operator": "AND",
                        "Criterias": [

                        ],
                        "Criterions": [
                          {
                            "Comment": "rust-debugger-common is earlier than 0:1.54.0-3.module+el8.5.0+13074+d655d86c"
                          },
                          {
                            "Comment": "rust-debugger-common is signed with Red Hat redhatrelease2 key"
                          }
                        ]
                      },
                      {
                        "Operator": "AND",
                        "Criterias": [

                        ],
                        "Criterions": [
                          {
                            "Comment": "rust-doc is earlier than 0:1.54.0-3.module+el8.5.0+13074+d655d86c"
                          },
                          {
                            "Comment": "rust-doc is signed with Red Hat redhatrelease2 key"
                          }
                        ]
                      },
                      {
                        "Operator": "AND",
                        "Criterias": [

                        ],
                        "Criterions": [
                          {
                            "Comment": "rust-gdb is earlier than 0:1.54.0-3.module+el8.5.0+13074+d655d86c"
                          },
                          {
                            "Comment": "rust-gdb is signed with Red Hat redhatrelease2 key"
                          }
                        ]
                      },
                      {
                        "Operator": "AND",
                        "Criterias": [

                        ],
                        "Criterions": [
                          {
                            "Comment": "rust-lldb is earlier than 0:1.54.0-3.module+el8.5.0+13074+d655d86c"
                          },
                          {
                            "Comment": "rust-lldb is signed with Red Hat redhatrelease2 key"
                          }
                        ]
                      },
                      {
                        "Operator": "AND",
                        "Criterias": [

                        ],
                        "Criterions": [
                          {
                            "Comment": "rust-src is earlier than 0:1.54.0-3.module+el8.5.0+13074+d655d86c"
                          },
                          {
                            "Comment": "rust-src is signed with Red Hat redhatrelease2 key"
                          }
                        ]
                      },
                      {
                        "Operator": "AND",
                        "Criterias": [

                        ],
                        "Criterions": [
                          {
                            "Comment": "rust-std-static is earlier than 0:1.54.0-3.module+el8.5.0+13074+d655d86c"
                          },
                          {
                            "Comment": "rust-std-static is signed with Red Hat redhatrelease2 key"
                          }
                        ]
                      },
                      {
                        "Operator": "AND",
                        "Criterias": [

                        ],
                        "Criterions": [
                          {
                            "Comment": "rust-std-static-wasm32-unknown-unknown is earlier than 0:1.54.0-3.module+el8.5.0+13074+d655d86c"
                          },
                          {
                            "Comment": "rust-std-static-wasm32-unknown-unknown is signed with Red Hat redhatrelease2 key"
                          }
                        ]
                      },
                      {
                        "Operator": "AND",
                        "Criterias": [

                        ],
                        "Criterions": [
                          {
                            "Comment": "rust-toolset is earlier than 0:1.54.0-1.module+el8.5.0+12195+effd8a03"
                          },
                          {
                            "Comment": "rust-toolset is signed with Red Hat redhatrelease2 key"
                          }
                        ]
                      },
                      {
                        "Operator": "AND",
                        "Criterias": [

                        ],
                        "Criterions": [
                          {
                            "Comment": "rustfmt is earlier than 0:1.54.0-3.module+el8.5.0+13074+d655d86c"
                          },
                          {
                            "Comment": "rustfmt is signed with Red Hat redhatrelease2 key"
                          }
                        ]
                      }
                    ],
                    "Criterions": [

                    ]
                  }
                ],
                "Criterions": [
                  {
                    "Comment": "Module rust-toolset:rhel8 is enabled"
                  }
                ]
              }
            ],
            "Criterions": [

            ]
          }
        ],
        "Criterions": [

        ]
      }
    ],
    "Criterions": [
      {
        "Comment": "Oracle Linux 8 is installed"
      }
    ]
  },
  "Severity": "Moderate",
  "Cves": [
    {
      "Impact": "",
      "Href": "",
      "ID": "CVE-2021-42574"
    }
  ],
  "Issued": {
    "Date": "2021-11-10"
  }
}