{
  "Title": "RHSA-2021:2260: libwebp security update (Important)",
  "Description": "The libwebp packages provide a library and tools for the WebP graphics format. WebP is an image format with a lossy compression of digital photographic images. WebP consists of a codec based on the VP8 format, and a container based on the Resource Interchange File Format (RIFF). Webmasters, web developers and browser developers can use WebP to compress, archive, and distribute digital images more efficiently.\nSecurity Fix(es):\n* libwebp: heap-based buffer overflow in PutLE16() (CVE-2018-25011)\n* libwebp: heap-based buffer overflow in WebPDecode*Into functions (CVE-2020-36328)\n* libwebp: use-after-free in EmitFancyRGB() in dec/io_dec.c (CVE-2020-36329)\nFor more details about the security issue(s), including the impact, a CVSS score, acknowledgments, and other related information, refer to the CVE page(s) listed in the References section.",
  "Platform": [
    "Red Hat Enterprise Linux 7"
  ],
  "References": [
    {
      "Source": "RHSA",
      "URI": "https://access.redhat.com/errata/RHSA-2021:2260",
      "ID": "RHSA-2021:2260"
    },
    {
      "Source": "CVE",
      "URI": "https://access.redhat.com/security/cve/CVE-2018-25011",
      "ID": "CVE-2018-25011"
    },
    {
      "Source": "CVE",
      "URI": "https://access.redhat.com/security/cve/CVE-2020-36328",
      "ID": "CVE-2020-36328"
    },
    {
      "Source": "CVE",
      "URI": "https://access.redhat.com/security/cve/CVE-2020-36329",
      "ID": "CVE-2020-36329"
    }
  ],
  "Criteria": {
    "Operator": "OR",
    "Criterias": [
      {
        "Operator": "AND",
        "Criterias": [
          {
            "Operator": "OR",
            "Criterias": [
              {
                "Operator": "AND",
                "Criterias": [

                ],
                "Criterions": [
                  {
                    "Comment": "libwebp is earlier than 0:0.3.0-10.el7_9"
                  },
                  {
                    "Comment": "libwebp is signed with Red Hat redhatrelease2 key"
                  }
                ]
              },
              {
                "Operator": "AND",
                "Criterias": [

                ],
                "Criterions": [
                  {
                    "Comment": "libwebp-devel is earlier than 0:0.3.0-10.el7_9"
                  },
                  {
                    "Comment": "libwebp-devel is signed with Red Hat redhatrelease2 key"
                  }
                ]
              },
              {
                "Operator": "AND",
                "Criterias": [

                ],
                "Criterions": [
                  {
                    "Comment": "libwebp-java is earlier than 0:0.3.0-10.el7_9"
                  },
                  {
                    "Comment": "libwebp-java is signed with Red Hat redhatrelease2 key"
                  }
                ]
              },
              {
                "Operator": "AND",
                "Criterias": [

                ],
                "Criterions": [
                  {
                    "Comment": "libwebp-tools is earlier than 0:0.3.0-10.el7_9"
                  },
                  {
                    "Comment": "libwebp-tools is signed with Red Hat redhatrelease2 key"
                  }
                ]
              }
            ],
            "Criterions": [

            ]
          }
        ],
        "Criterions": [
          {
            "Comment": "Oracle Linux 7 is installed"
          }
        ]
      }
    ],
    "Criterions": [
      {
        "Comment": "Oracle Linux 7 is installed"
      }
    ]
  },
  "Severity": "Important",
  "Cves": [
    {
      "Impact": "",
      "Href": "",
      "ID": "CVE-2018-25011"
    },
    {
      "Impact": "",
      "Href": "",
      "ID": "CVE-2020-36328"
    },
    {
      "Impact": "",
      "Href": "",
      "ID": "CVE-2020-36329"
    }
  ],
  "Issued": {
    "Date": "2021-06-07"
  }
}