{
  "Title": "RHSA-2021:4181: mutt security, bug fix, and enhancement update (Moderate)",
  "Description": "Mutt is a low resource, highly configurable, text-based MIME e-mail client. Mutt supports most e-mail storing formats, such as mbox and Maildir, as well as most protocols, including POP3 and IMAP.\nThe following packages have been upgraded to a later upstream version: mutt (2.0.7). (BZ#1912614)\nSecurity Fix(es):\n* mutt: Incorrect handling of invalid initial IMAP responses could lead to an authentication attempt over unencrypted connection (CVE-2020-28896)\n* mutt: Memory leak when parsing rfc822 group addresses (CVE-2021-3181)\nFor more details about the security issue(s), including the impact, a CVSS score, acknowledgments, and other related information, refer to the CVE page(s) listed in the References section.\nAdditional Changes:\nFor detailed information on changes in this release, see the Red Hat Enterprise Linux 8.5 Release Notes linked from the References section.",
  "Platform": [
    "Red Hat Enterprise Linux 8"
  ],
  "References": [
    {
      "Source": "RHSA",
      "URI": "https://access.redhat.com/errata/RHSA-2021:4181",
      "ID": "RHSA-2021:4181"
    },
    {
      "Source": "CVE",
      "URI": "https://access.redhat.com/security/cve/CVE-2020-28896",
      "ID": "CVE-2020-28896"
    },
    {
      "Source": "CVE",
      "URI": "https://access.redhat.com/security/cve/CVE-2021-3181",
      "ID": "CVE-2021-3181"
    }
  ],
  "Criteria": {
    "Operator": "OR",
    "Criterias": [
      {
        "Operator": "AND",
        "Criterias": [
          {
            "Operator": "OR",
            "Criterias": [

            ],
            "Criterions": [
              {
                "Comment": "Oracle Linux 8 is installed"
              },
              {
                "Comment": "Red Hat CoreOS 4 is installed"
              }
            ]
          }
        ],
        "Criterions": [
          {
            "Comment": "mutt is earlier than 5:2.0.7-1.el8"
          },
          {
            "Comment": "mutt is signed with Red Hat redhatrelease2 key"
          }
        ]
      }
    ],
    "Criterions": [
      {
        "Comment": "Oracle Linux 8 is installed"
      }
    ]
  },
  "Severity": "Moderate",
  "Cves": [
    {
      "Impact": "",
      "Href": "",
      "ID": "CVE-2020-28896"
    },
    {
      "Impact": "",
      "Href": "",
      "ID": "CVE-2021-3181"
    }
  ],
  "Issued": {
    "Date": "2021-11-09"
  }
}