{
  "Title": "RHSA-2021:5046: thunderbird security update (Important)",
  "Description": "Mozilla Thunderbird is a standalone mail and newsgroup client.\nThis update upgrades Thunderbird to version 91.4.0.\nSecurity Fix(es):\n* Mozilla: Memory safety bugs fixed in Firefox 95 and Firefox ESR 91.4 (BZ#2030116)\n* Mozilla: URL leakage when navigating while executing asynchronous function (CVE-2021-43536)\n* Mozilla: Heap buffer overflow when using structured clone (CVE-2021-43537)\n* Mozilla: Missing fullscreen and pointer lock notification when requesting both (CVE-2021-43538)\n* Mozilla: GC rooting failure when calling wasm instance methods (CVE-2021-43539)\n* Mozilla: External protocol handler parameters were unescaped (CVE-2021-43541)\n* Mozilla: XMLHttpRequest error codes could have leaked the existence of an external protocol handler (CVE-2021-43542)\n* Mozilla: Bypass of CSP sandbox directive when embedding (CVE-2021-43543)\n* Mozilla: JavaScript unexpectedly enabled for the composition area (CVE-2021-43528)\n* Mozilla: Denial of Service when using the Location API in a loop (CVE-2021-43545)\n* Mozilla: Cursor spoofing could overlay user interface when native cursor is zoomed (CVE-2021-43546)\nFor more details about the security issue(s), including the impact, a CVSS score, acknowledgments, and other related information, refer to the CVE page(s) listed in the References section.",
  "Platform": [
    "Red Hat Enterprise Linux 7"
  ],
  "References": [
    {
      "Source": "RHSA",
      "URI": "https://access.redhat.com/errata/RHSA-2021:5046",
      "ID": "RHSA-2021:5046"
    },
    {
      "Source": "CVE",
      "URI": "https://access.redhat.com/security/cve/CVE-2021-4129",
      "ID": "CVE-2021-4129"
    },
    {
      "Source": "CVE",
      "URI": "https://access.redhat.com/security/cve/CVE-2021-43528",
      "ID": "CVE-2021-43528"
    },
    {
      "Source": "CVE",
      "URI": "https://access.redhat.com/security/cve/CVE-2021-43536",
      "ID": "CVE-2021-43536"
    },
    {
      "Source": "CVE",
      "URI": "https://access.redhat.com/security/cve/CVE-2021-43537",
      "ID": "CVE-2021-43537"
    },
    {
      "Source": "CVE",
      "URI": "https://access.redhat.com/security/cve/CVE-2021-43538",
      "ID": "CVE-2021-43538"
    },
    {
      "Source": "CVE",
      "URI": "https://access.redhat.com/security/cve/CVE-2021-43539",
      "ID": "CVE-2021-43539"
    },
    {
      "Source": "CVE",
      "URI": "https://access.redhat.com/security/cve/CVE-2021-43541",
      "ID": "CVE-2021-43541"
    },
    {
      "Source": "CVE",
      "URI": "https://access.redhat.com/security/cve/CVE-2021-43542",
      "ID": "CVE-2021-43542"
    },
    {
      "Source": "CVE",
      "URI": "https://access.redhat.com/security/cve/CVE-2021-43543",
      "ID": "CVE-2021-43543"
    },
    {
      "Source": "CVE",
      "URI": "https://access.redhat.com/security/cve/CVE-2021-43545",
      "ID": "CVE-2021-43545"
    },
    {
      "Source": "CVE",
      "URI": "https://access.redhat.com/security/cve/CVE-2021-43546",
      "ID": "CVE-2021-43546"
    }
  ],
  "Criteria": {
    "Operator": "OR",
    "Criterias": [
      {
        "Operator": "AND",
        "Criterias": [

        ],
        "Criterions": [
          {
            "Comment": "Oracle Linux 7 is installed"
          },
          {
            "Comment": "thunderbird is earlier than 0:91.4.0-3.el7_9"
          },
          {
            "Comment": "thunderbird is signed with Red Hat redhatrelease2 key"
          }
        ]
      }
    ],
    "Criterions": [
      {
        "Comment": "Oracle Linux 7 is installed"
      }
    ]
  },
  "Severity": "Important",
  "Cves": [
    {
      "Impact": "",
      "Href": "",
      "ID": "CVE-2021-4129"
    },
    {
      "Impact": "",
      "Href": "",
      "ID": "CVE-2021-43528"
    },
    {
      "Impact": "",
      "Href": "",
      "ID": "CVE-2021-43536"
    },
    {
      "Impact": "",
      "Href": "",
      "ID": "CVE-2021-43537"
    },
    {
      "Impact": "",
      "Href": "",
      "ID": "CVE-2021-43538"
    },
    {
      "Impact": "",
      "Href": "",
      "ID": "CVE-2021-43539"
    },
    {
      "Impact": "",
      "Href": "",
      "ID": "CVE-2021-43541"
    },
    {
      "Impact": "",
      "Href": "",
      "ID": "CVE-2021-43542"
    },
    {
      "Impact": "",
      "Href": "",
      "ID": "CVE-2021-43543"
    },
    {
      "Impact": "",
      "Href": "",
      "ID": "CVE-2021-43545"
    },
    {
      "Impact": "",
      "Href": "",
      "ID": "CVE-2021-43546"
    }
  ],
  "Issued": {
    "Date": "2021-12-09"
  }
}