{
  "Title": "RHSA-2021:4201: babel security and bug fix update (Moderate)",
  "Description": "Babel provides tools to build and work with gettext message catalogs, and a Python interface to the CLDR (Common Locale Data Repository), providing access to various locale display names, localized number and date formatting, etc.\nSecurity Fix(es):\n* python-babel: Relative path traversal allows attacker to load arbitrary locale files and execute arbitrary code (CVE-2021-20095, CVE-2021-42771)\nFor more details about the security issue(s), including the impact, a CVSS score, acknowledgments, and other related information, refer to the CVE page(s) listed in the References section.\nAdditional Changes:\nFor detailed information on changes in this release, see the Red Hat Enterprise Linux 8.5 Release Notes linked from the References section.",
  "Platform": [
    "Red Hat Enterprise Linux 8"
  ],
  "References": [
    {
      "Source": "RHSA",
      "URI": "https://access.redhat.com/errata/RHSA-2021:4201",
      "ID": "RHSA-2021:4201"
    },
    {
      "Source": "CVE",
      "URI": "https://access.redhat.com/security/cve/CVE-2021-20095",
      "ID": "CVE-2021-20095"
    },
    {
      "Source": "CVE",
      "URI": "https://access.redhat.com/security/cve/CVE-2021-42771",
      "ID": "CVE-2021-42771"
    }
  ],
  "Criteria": {
    "Operator": "OR",
    "Criterias": [
      {
        "Operator": "AND",
        "Criterias": [
          {
            "Operator": "OR",
            "Criterias": [

            ],
            "Criterions": [
              {
                "Comment": "Oracle Linux 8 is installed"
              },
              {
                "Comment": "Red Hat CoreOS 4 is installed"
              }
            ]
          }
        ],
        "Criterions": [
          {
            "Comment": "python3-babel is earlier than 0:2.5.1-7.el8"
          },
          {
            "Comment": "python3-babel is signed with Red Hat redhatrelease2 key"
          }
        ]
      }
    ],
    "Criterions": [
      {
        "Comment": "Oracle Linux 8 is installed"
      }
    ]
  },
  "Severity": "Moderate",
  "Cves": [
    {
      "Impact": "",
      "Href": "",
      "ID": "CVE-2021-20095"
    },
    {
      "Impact": "",
      "Href": "",
      "ID": "CVE-2021-42771"
    }
  ],
  "Issued": {
    "Date": "2021-11-09"
  }
}