{
  "Title": "RHSA-2021:4044: flatpak security update (Important)",
  "Description": "Flatpak is a system for building, distributing, and running sandboxed desktop applications on Linux.\nSecurity Fix(es):\n* flatpak: Sandbox bypass via recent VFS-manipulating syscalls (CVE-2021-41133)\nFor more details about the security issue(s), including the impact, a CVSS score, acknowledgments, and other related information, refer to the CVE page(s) listed in the References section.",
  "Platform": [
    "Red Hat Enterprise Linux 7"
  ],
  "References": [
    {
      "Source": "RHSA",
      "URI": "https://access.redhat.com/errata/RHSA-2021:4044",
      "ID": "RHSA-2021:4044"
    },
    {
      "Source": "CVE",
      "URI": "https://access.redhat.com/security/cve/CVE-2021-41133",
      "ID": "CVE-2021-41133"
    }
  ],
  "Criteria": {
    "Operator": "OR",
    "Criterias": [
      {
        "Operator": "AND",
        "Criterias": [
          {
            "Operator": "OR",
            "Criterias": [
              {
                "Operator": "AND",
                "Criterias": [

                ],
                "Criterions": [
                  {
                    "Comment": "flatpak is earlier than 0:1.0.9-12.el7_9"
                  },
                  {
                    "Comment": "flatpak is signed with Red Hat redhatrelease2 key"
                  }
                ]
              },
              {
                "Operator": "AND",
                "Criterias": [

                ],
                "Criterions": [
                  {
                    "Comment": "flatpak-builder is earlier than 0:1.0.0-12.el7_9"
                  },
                  {
                    "Comment": "flatpak-builder is signed with Red Hat redhatrelease2 key"
                  }
                ]
              },
              {
                "Operator": "AND",
                "Criterias": [

                ],
                "Criterions": [
                  {
                    "Comment": "flatpak-devel is earlier than 0:1.0.9-12.el7_9"
                  },
                  {
                    "Comment": "flatpak-devel is signed with Red Hat redhatrelease2 key"
                  }
                ]
              },
              {
                "Operator": "AND",
                "Criterias": [

                ],
                "Criterions": [
                  {
                    "Comment": "flatpak-libs is earlier than 0:1.0.9-12.el7_9"
                  },
                  {
                    "Comment": "flatpak-libs is signed with Red Hat redhatrelease2 key"
                  }
                ]
              }
            ],
            "Criterions": [

            ]
          }
        ],
        "Criterions": [
          {
            "Comment": "Oracle Linux 7 is installed"
          }
        ]
      }
    ],
    "Criterions": [
      {
        "Comment": "Oracle Linux 7 is installed"
      }
    ]
  },
  "Severity": "Important",
  "Cves": [
    {
      "Impact": "",
      "Href": "",
      "ID": "CVE-2021-41133"
    }
  ],
  "Issued": {
    "Date": "2021-11-01"
  }
}