{
  "Title": "RHSA-2021:3074: nodejs:14 security, bug fix, and enhancement update (Moderate)",
  "Description": "Node.js is a software development platform for building fast and scalable network applications in the JavaScript programming language. \nThe following packages have been upgraded to a later upstream version: nodejs (14.17.3). (BZ#1978203)\nSecurity Fix(es):\n* nodejs-hosted-git-info: Regular Expression denial of service via shortcutMatch in fromUrl() (CVE-2021-23362)\n* nodejs-ssri: Regular expression DoS (ReDoS) when parsing malicious SRI in strict mode (CVE-2021-27290)\n* libuv: out-of-bounds read in uv__idna_toascii() can lead to information disclosures or crashes (CVE-2021-22918)\nFor more details about the security issue(s), including the impact, a CVSS score, acknowledgments, and other related information, refer to the CVE page(s) listed in the References section.",
  "Platform": [
    "Red Hat Enterprise Linux 8"
  ],
  "References": [
    {
      "Source": "RHSA",
      "URI": "https://access.redhat.com/errata/RHSA-2021:3074",
      "ID": "RHSA-2021:3074"
    },
    {
      "Source": "CVE",
      "URI": "https://access.redhat.com/security/cve/CVE-2021-22918",
      "ID": "CVE-2021-22918"
    },
    {
      "Source": "CVE",
      "URI": "https://access.redhat.com/security/cve/CVE-2021-23362",
      "ID": "CVE-2021-23362"
    },
    {
      "Source": "CVE",
      "URI": "https://access.redhat.com/security/cve/CVE-2021-27290",
      "ID": "CVE-2021-27290"
    }
  ],
  "Criteria": {
    "Operator": "OR",
    "Criterias": [
      {
        "Operator": "AND",
        "Criterias": [
          {
            "Operator": "OR",
            "Criterias": [

            ],
            "Criterions": [
              {
                "Comment": "Oracle Linux 8 is installed"
              },
              {
                "Comment": "Red Hat CoreOS 4 is installed"
              }
            ]
          },
          {
            "Operator": "OR",
            "Criterias": [
              {
                "Operator": "AND",
                "Criterias": [
                  {
                    "Operator": "OR",
                    "Criterias": [
                      {
                        "Operator": "AND",
                        "Criterias": [

                        ],
                        "Criterions": [
                          {
                            "Comment": "nodejs is earlier than 1:14.17.3-2.module+el8.4.0+11738+3bd42762"
                          },
                          {
                            "Comment": "nodejs is signed with Red Hat redhatrelease2 key"
                          }
                        ]
                      },
                      {
                        "Operator": "AND",
                        "Criterias": [

                        ],
                        "Criterions": [
                          {
                            "Comment": "nodejs-devel is earlier than 1:14.17.3-2.module+el8.4.0+11738+3bd42762"
                          },
                          {
                            "Comment": "nodejs-devel is signed with Red Hat redhatrelease2 key"
                          }
                        ]
                      },
                      {
                        "Operator": "AND",
                        "Criterias": [

                        ],
                        "Criterions": [
                          {
                            "Comment": "nodejs-docs is earlier than 1:14.17.3-2.module+el8.4.0+11738+3bd42762"
                          },
                          {
                            "Comment": "nodejs-docs is signed with Red Hat redhatrelease2 key"
                          }
                        ]
                      },
                      {
                        "Operator": "AND",
                        "Criterias": [

                        ],
                        "Criterions": [
                          {
                            "Comment": "nodejs-full-i18n is earlier than 1:14.17.3-2.module+el8.4.0+11738+3bd42762"
                          },
                          {
                            "Comment": "nodejs-full-i18n is signed with Red Hat redhatrelease2 key"
                          }
                        ]
                      },
                      {
                        "Operator": "AND",
                        "Criterias": [

                        ],
                        "Criterions": [
                          {
                            "Comment": "nodejs-nodemon is earlier than 0:2.0.3-1.module+el8.3.0+6519+9f98ed83"
                          },
                          {
                            "Comment": "nodejs-nodemon is signed with Red Hat redhatrelease2 key"
                          }
                        ]
                      },
                      {
                        "Operator": "AND",
                        "Criterias": [

                        ],
                        "Criterions": [
                          {
                            "Comment": "nodejs-packaging is earlier than 0:23-3.module+el8.3.0+6519+9f98ed83"
                          },
                          {
                            "Comment": "nodejs-packaging is signed with Red Hat redhatrelease2 key"
                          }
                        ]
                      },
                      {
                        "Operator": "AND",
                        "Criterias": [

                        ],
                        "Criterions": [
                          {
                            "Comment": "npm is earlier than 1:6.14.13-1.14.17.3.2.module+el8.4.0+11738+3bd42762"
                          },
                          {
                            "Comment": "npm is signed with Red Hat redhatrelease2 key"
                          }
                        ]
                      }
                    ],
                    "Criterions": [

                    ]
                  }
                ],
                "Criterions": [
                  {
                    "Comment": "Module nodejs:14 is enabled"
                  }
                ]
              }
            ],
            "Criterions": [

            ]
          }
        ],
        "Criterions": [

        ]
      }
    ],
    "Criterions": [
      {
        "Comment": "Oracle Linux 8 is installed"
      }
    ]
  },
  "Severity": "Moderate",
  "Cves": [
    {
      "Impact": "",
      "Href": "",
      "ID": "CVE-2021-22918"
    },
    {
      "Impact": "",
      "Href": "",
      "ID": "CVE-2021-23362"
    },
    {
      "Impact": "",
      "Href": "",
      "ID": "CVE-2021-27290"
    }
  ],
  "Issued": {
    "Date": "2021-08-10"
  }
}