{
  "Title": "RHSA-2021:0742: screen security update (Important)",
  "Description": "The screen utility allows users to have multiple logins on a single terminal.\nSecurity Fix(es):\n* screen: crash when processing combining chars (CVE-2021-26937)\nFor more details about the security issue(s), including the impact, a CVSS score, acknowledgments, and other related information, refer to the CVE page(s) listed in the References section.",
  "Platform": [
    "Red Hat Enterprise Linux 7"
  ],
  "References": [
    {
      "Source": "RHSA",
      "URI": "https://access.redhat.com/errata/RHSA-2021:0742",
      "ID": "RHSA-2021:0742"
    },
    {
      "Source": "CVE",
      "URI": "https://access.redhat.com/security/cve/CVE-2021-26937",
      "ID": "CVE-2021-26937"
    }
  ],
  "Criteria": {
    "Operator": "OR",
    "Criterias": [
      {
        "Operator": "AND",
        "Criterias": [

        ],
        "Criterions": [
          {
            "Comment": "Oracle Linux 7 is installed"
          },
          {
            "Comment": "screen is earlier than 0:4.1.0-0.27.20120314git3c2946.el7_9"
          },
          {
            "Comment": "screen is signed with Red Hat redhatrelease2 key"
          }
        ]
      }
    ],
    "Criterions": [
      {
        "Comment": "Oracle Linux 7 is installed"
      }
    ]
  },
  "Severity": "Important",
  "Cves": [
    {
      "Impact": "",
      "Href": "",
      "ID": "CVE-2021-26937"
    }
  ],
  "Issued": {
    "Date": "2021-03-08"
  }
}