{
  "Title": "RHSA-2021:0860: ipa security and bug fix update (Moderate)",
  "Description": "Red Hat Identity Management (IdM) is a centralized authentication, identity management, and authorization solution for both traditional and cloud-based enterprise environments.\nSecurity Fix(es):\n* jquery: Passing HTML containing <option> elements to manipulation methods could result in untrusted code execution (CVE-2020-11023)\nFor more details about the security issue(s), including the impact, a CVSS score, acknowledgments, and other related information, refer to the CVE page(s) listed in the References section.\nBug Fix(es):\n* cannot issue certs with multiple IP addresses corresponding to different hosts (BZ#1846349)\n* CA-less install does not set required permissions on KDC certificate (BZ#1863619)\n* IdM Web UI shows users as disabled (BZ#1884819)\n* Authentication and login times are over several seconds due to unindexed ipaExternalMember (BZ#1892793)\n* improve IPA PKI susbsystem detection by other means than a directory presence, use pki-server subsystem-find (BZ#1895197)\n* IPA WebUI inaccessible after upgrading to RHEL 8.3 - idoverride-memberof.js missing (BZ#1897253)",
  "Platform": [
    "Red Hat Enterprise Linux 7"
  ],
  "References": [
    {
      "Source": "RHSA",
      "URI": "https://access.redhat.com/errata/RHSA-2021:0860",
      "ID": "RHSA-2021:0860"
    },
    {
      "Source": "CVE",
      "URI": "https://access.redhat.com/security/cve/CVE-2020-11023",
      "ID": "CVE-2020-11023"
    }
  ],
  "Criteria": {
    "Operator": "OR",
    "Criterias": [
      {
        "Operator": "AND",
        "Criterias": [
          {
            "Operator": "OR",
            "Criterias": [
              {
                "Operator": "AND",
                "Criterias": [

                ],
                "Criterions": [
                  {
                    "Comment": "ipa-client is earlier than 0:4.6.8-5.el7_9.4"
                  },
                  {
                    "Comment": "ipa-client is signed with Red Hat redhatrelease2 key"
                  }
                ]
              },
              {
                "Operator": "AND",
                "Criterias": [

                ],
                "Criterions": [
                  {
                    "Comment": "ipa-client-common is earlier than 0:4.6.8-5.el7_9.4"
                  },
                  {
                    "Comment": "ipa-client-common is signed with Red Hat redhatrelease2 key"
                  }
                ]
              },
              {
                "Operator": "AND",
                "Criterias": [

                ],
                "Criterions": [
                  {
                    "Comment": "ipa-common is earlier than 0:4.6.8-5.el7_9.4"
                  },
                  {
                    "Comment": "ipa-common is signed with Red Hat redhatrelease2 key"
                  }
                ]
              },
              {
                "Operator": "AND",
                "Criterias": [

                ],
                "Criterions": [
                  {
                    "Comment": "ipa-python-compat is earlier than 0:4.6.8-5.el7_9.4"
                  },
                  {
                    "Comment": "ipa-python-compat is signed with Red Hat redhatrelease2 key"
                  }
                ]
              },
              {
                "Operator": "AND",
                "Criterias": [

                ],
                "Criterions": [
                  {
                    "Comment": "ipa-server is earlier than 0:4.6.8-5.el7_9.4"
                  },
                  {
                    "Comment": "ipa-server is signed with Red Hat redhatrelease2 key"
                  }
                ]
              },
              {
                "Operator": "AND",
                "Criterias": [

                ],
                "Criterions": [
                  {
                    "Comment": "ipa-server-common is earlier than 0:4.6.8-5.el7_9.4"
                  },
                  {
                    "Comment": "ipa-server-common is signed with Red Hat redhatrelease2 key"
                  }
                ]
              },
              {
                "Operator": "AND",
                "Criterias": [

                ],
                "Criterions": [
                  {
                    "Comment": "ipa-server-dns is earlier than 0:4.6.8-5.el7_9.4"
                  },
                  {
                    "Comment": "ipa-server-dns is signed with Red Hat redhatrelease2 key"
                  }
                ]
              },
              {
                "Operator": "AND",
                "Criterias": [

                ],
                "Criterions": [
                  {
                    "Comment": "ipa-server-trust-ad is earlier than 0:4.6.8-5.el7_9.4"
                  },
                  {
                    "Comment": "ipa-server-trust-ad is signed with Red Hat redhatrelease2 key"
                  }
                ]
              },
              {
                "Operator": "AND",
                "Criterias": [

                ],
                "Criterions": [
                  {
                    "Comment": "python2-ipaclient is earlier than 0:4.6.8-5.el7_9.4"
                  },
                  {
                    "Comment": "python2-ipaclient is signed with Red Hat redhatrelease2 key"
                  }
                ]
              },
              {
                "Operator": "AND",
                "Criterias": [

                ],
                "Criterions": [
                  {
                    "Comment": "python2-ipalib is earlier than 0:4.6.8-5.el7_9.4"
                  },
                  {
                    "Comment": "python2-ipalib is signed with Red Hat redhatrelease2 key"
                  }
                ]
              },
              {
                "Operator": "AND",
                "Criterias": [

                ],
                "Criterions": [
                  {
                    "Comment": "python2-ipaserver is earlier than 0:4.6.8-5.el7_9.4"
                  },
                  {
                    "Comment": "python2-ipaserver is signed with Red Hat redhatrelease2 key"
                  }
                ]
              }
            ],
            "Criterions": [

            ]
          }
        ],
        "Criterions": [
          {
            "Comment": "Oracle Linux 7 is installed"
          }
        ]
      }
    ],
    "Criterions": [
      {
        "Comment": "Oracle Linux 7 is installed"
      }
    ]
  },
  "Severity": "Moderate",
  "Cves": [
    {
      "Impact": "",
      "Href": "",
      "ID": "CVE-2020-11023"
    }
  ],
  "Issued": {
    "Date": "2021-03-16"
  }
}