{
  "Title": "RHSA-2021:4373: pcre security update (Low)",
  "Description": "PCRE is a Perl-compatible regular expression library. \nSecurity Fix(es):\n* pcre: Buffer over-read in JIT when UTF is disabled and \\X or \\R has fixed quantifier greater than 1 (CVE-2019-20838)\n* pcre: Integer overflow when parsing callout numeric arguments (CVE-2020-14155)\nFor more details about the security issue(s), including the impact, a CVSS score, acknowledgments, and other related information, refer to the CVE page(s) listed in the References section.\nAdditional Changes:\nFor detailed information on changes in this release, see the Red Hat Enterprise Linux 8.5 Release Notes linked from the References section.",
  "Platform": [
    "Red Hat Enterprise Linux 8"
  ],
  "References": [
    {
      "Source": "RHSA",
      "URI": "https://access.redhat.com/errata/RHSA-2021:4373",
      "ID": "RHSA-2021:4373"
    },
    {
      "Source": "CVE",
      "URI": "https://access.redhat.com/security/cve/CVE-2019-20838",
      "ID": "CVE-2019-20838"
    },
    {
      "Source": "CVE",
      "URI": "https://access.redhat.com/security/cve/CVE-2020-14155",
      "ID": "CVE-2020-14155"
    }
  ],
  "Criteria": {
    "Operator": "OR",
    "Criterias": [
      {
        "Operator": "AND",
        "Criterias": [
          {
            "Operator": "OR",
            "Criterias": [

            ],
            "Criterions": [
              {
                "Comment": "Oracle Linux 8 is installed"
              },
              {
                "Comment": "Red Hat CoreOS 4 is installed"
              }
            ]
          },
          {
            "Operator": "OR",
            "Criterias": [
              {
                "Operator": "AND",
                "Criterias": [

                ],
                "Criterions": [
                  {
                    "Comment": "pcre is earlier than 0:8.42-6.el8"
                  },
                  {
                    "Comment": "pcre is signed with Red Hat redhatrelease2 key"
                  }
                ]
              },
              {
                "Operator": "AND",
                "Criterias": [

                ],
                "Criterions": [
                  {
                    "Comment": "pcre-cpp is earlier than 0:8.42-6.el8"
                  },
                  {
                    "Comment": "pcre-cpp is signed with Red Hat redhatrelease2 key"
                  }
                ]
              },
              {
                "Operator": "AND",
                "Criterias": [

                ],
                "Criterions": [
                  {
                    "Comment": "pcre-devel is earlier than 0:8.42-6.el8"
                  },
                  {
                    "Comment": "pcre-devel is signed with Red Hat redhatrelease2 key"
                  }
                ]
              },
              {
                "Operator": "AND",
                "Criterias": [

                ],
                "Criterions": [
                  {
                    "Comment": "pcre-static is earlier than 0:8.42-6.el8"
                  },
                  {
                    "Comment": "pcre-static is signed with Red Hat redhatrelease2 key"
                  }
                ]
              },
              {
                "Operator": "AND",
                "Criterias": [

                ],
                "Criterions": [
                  {
                    "Comment": "pcre-utf16 is earlier than 0:8.42-6.el8"
                  },
                  {
                    "Comment": "pcre-utf16 is signed with Red Hat redhatrelease2 key"
                  }
                ]
              },
              {
                "Operator": "AND",
                "Criterias": [

                ],
                "Criterions": [
                  {
                    "Comment": "pcre-utf32 is earlier than 0:8.42-6.el8"
                  },
                  {
                    "Comment": "pcre-utf32 is signed with Red Hat redhatrelease2 key"
                  }
                ]
              }
            ],
            "Criterions": [

            ]
          }
        ],
        "Criterions": [

        ]
      }
    ],
    "Criterions": [
      {
        "Comment": "Oracle Linux 8 is installed"
      }
    ]
  },
  "Severity": "Low",
  "Cves": [
    {
      "Impact": "",
      "Href": "",
      "ID": "CVE-2019-20838"
    },
    {
      "Impact": "",
      "Href": "",
      "ID": "CVE-2020-14155"
    }
  ],
  "Issued": {
    "Date": "2021-11-09"
  }
}