{
  "Title": "RHSA-2021:2361: postgresql:10 security update (Important)",
  "Description": "PostgreSQL is an advanced object-relational database management system (DBMS).\nThe following packages have been upgraded to a later upstream version: postgresql (10.17).\nSecurity Fix(es):\n* postgresql: Buffer overrun from integer overflow in array subscripting calculations (CVE-2021-32027)\n* postgresql: Memory disclosure in INSERT ... ON CONFLICT ... DO UPDATE (CVE-2021-32028)\nFor more details about the security issue(s), including the impact, a CVSS score, acknowledgments, and other related information, refer to the CVE page(s) listed in the References section.",
  "Platform": [
    "Red Hat Enterprise Linux 8"
  ],
  "References": [
    {
      "Source": "RHSA",
      "URI": "https://access.redhat.com/errata/RHSA-2021:2361",
      "ID": "RHSA-2021:2361"
    },
    {
      "Source": "CVE",
      "URI": "https://access.redhat.com/security/cve/CVE-2021-32027",
      "ID": "CVE-2021-32027"
    },
    {
      "Source": "CVE",
      "URI": "https://access.redhat.com/security/cve/CVE-2021-32028",
      "ID": "CVE-2021-32028"
    }
  ],
  "Criteria": {
    "Operator": "OR",
    "Criterias": [
      {
        "Operator": "AND",
        "Criterias": [
          {
            "Operator": "OR",
            "Criterias": [

            ],
            "Criterions": [
              {
                "Comment": "Oracle Linux 8 is installed"
              },
              {
                "Comment": "Red Hat CoreOS 4 is installed"
              }
            ]
          },
          {
            "Operator": "OR",
            "Criterias": [
              {
                "Operator": "AND",
                "Criterias": [
                  {
                    "Operator": "OR",
                    "Criterias": [
                      {
                        "Operator": "AND",
                        "Criterias": [

                        ],
                        "Criterions": [
                          {
                            "Comment": "postgresql is earlier than 0:10.17-1.module+el8.4.0+11249+895597ab"
                          },
                          {
                            "Comment": "postgresql is signed with Red Hat redhatrelease2 key"
                          }
                        ]
                      },
                      {
                        "Operator": "AND",
                        "Criterias": [

                        ],
                        "Criterions": [
                          {
                            "Comment": "postgresql-contrib is earlier than 0:10.17-1.module+el8.4.0+11249+895597ab"
                          },
                          {
                            "Comment": "postgresql-contrib is signed with Red Hat redhatrelease2 key"
                          }
                        ]
                      },
                      {
                        "Operator": "AND",
                        "Criterias": [

                        ],
                        "Criterions": [
                          {
                            "Comment": "postgresql-docs is earlier than 0:10.17-1.module+el8.4.0+11249+895597ab"
                          },
                          {
                            "Comment": "postgresql-docs is signed with Red Hat redhatrelease2 key"
                          }
                        ]
                      },
                      {
                        "Operator": "AND",
                        "Criterias": [

                        ],
                        "Criterions": [
                          {
                            "Comment": "postgresql-plperl is earlier than 0:10.17-1.module+el8.4.0+11249+895597ab"
                          },
                          {
                            "Comment": "postgresql-plperl is signed with Red Hat redhatrelease2 key"
                          }
                        ]
                      },
                      {
                        "Operator": "AND",
                        "Criterias": [

                        ],
                        "Criterions": [
                          {
                            "Comment": "postgresql-plpython3 is earlier than 0:10.17-1.module+el8.4.0+11249+895597ab"
                          },
                          {
                            "Comment": "postgresql-plpython3 is signed with Red Hat redhatrelease2 key"
                          }
                        ]
                      },
                      {
                        "Operator": "AND",
                        "Criterias": [

                        ],
                        "Criterions": [
                          {
                            "Comment": "postgresql-pltcl is earlier than 0:10.17-1.module+el8.4.0+11249+895597ab"
                          },
                          {
                            "Comment": "postgresql-pltcl is signed with Red Hat redhatrelease2 key"
                          }
                        ]
                      },
                      {
                        "Operator": "AND",
                        "Criterias": [

                        ],
                        "Criterions": [
                          {
                            "Comment": "postgresql-server is earlier than 0:10.17-1.module+el8.4.0+11249+895597ab"
                          },
                          {
                            "Comment": "postgresql-server is signed with Red Hat redhatrelease2 key"
                          }
                        ]
                      },
                      {
                        "Operator": "AND",
                        "Criterias": [

                        ],
                        "Criterions": [
                          {
                            "Comment": "postgresql-server-devel is earlier than 0:10.17-1.module+el8.4.0+11249+895597ab"
                          },
                          {
                            "Comment": "postgresql-server-devel is signed with Red Hat redhatrelease2 key"
                          }
                        ]
                      },
                      {
                        "Operator": "AND",
                        "Criterias": [

                        ],
                        "Criterions": [
                          {
                            "Comment": "postgresql-static is earlier than 0:10.17-1.module+el8.4.0+11249+895597ab"
                          },
                          {
                            "Comment": "postgresql-static is signed with Red Hat redhatrelease2 key"
                          }
                        ]
                      },
                      {
                        "Operator": "AND",
                        "Criterias": [

                        ],
                        "Criterions": [
                          {
                            "Comment": "postgresql-test is earlier than 0:10.17-1.module+el8.4.0+11249+895597ab"
                          },
                          {
                            "Comment": "postgresql-test is signed with Red Hat redhatrelease2 key"
                          }
                        ]
                      },
                      {
                        "Operator": "AND",
                        "Criterias": [

                        ],
                        "Criterions": [
                          {
                            "Comment": "postgresql-test-rpm-macros is earlier than 0:10.17-1.module+el8.4.0+11249+895597ab"
                          },
                          {
                            "Comment": "postgresql-test-rpm-macros is signed with Red Hat redhatrelease2 key"
                          }
                        ]
                      },
                      {
                        "Operator": "AND",
                        "Criterias": [

                        ],
                        "Criterions": [
                          {
                            "Comment": "postgresql-upgrade is earlier than 0:10.17-1.module+el8.4.0+11249+895597ab"
                          },
                          {
                            "Comment": "postgresql-upgrade is signed with Red Hat redhatrelease2 key"
                          }
                        ]
                      },
                      {
                        "Operator": "AND",
                        "Criterias": [

                        ],
                        "Criterions": [
                          {
                            "Comment": "postgresql-upgrade-devel is earlier than 0:10.17-1.module+el8.4.0+11249+895597ab"
                          },
                          {
                            "Comment": "postgresql-upgrade-devel is signed with Red Hat redhatrelease2 key"
                          }
                        ]
                      }
                    ],
                    "Criterions": [

                    ]
                  }
                ],
                "Criterions": [
                  {
                    "Comment": "Module postgresql:10 is enabled"
                  }
                ]
              }
            ],
            "Criterions": [

            ]
          }
        ],
        "Criterions": [

        ]
      }
    ],
    "Criterions": [
      {
        "Comment": "Oracle Linux 8 is installed"
      }
    ]
  },
  "Severity": "Important",
  "Cves": [
    {
      "Impact": "",
      "Href": "",
      "ID": "CVE-2021-32027"
    },
    {
      "Impact": "",
      "Href": "",
      "ID": "CVE-2021-32028"
    }
  ],
  "Issued": {
    "Date": "2021-06-09"
  }
}