{
  "Title": "RHSA-2021:2566: fwupd security update (Moderate)",
  "Description": "The fwupd packages provide a service that allows session software to update device firmware.\nSecurity Fix(es):\n* grub2: acpi command allows privileged user to load crafted ACPI tables when Secure Boot is enabled (CVE-2020-14372)\n* grub2: Use-after-free in rmmod command (CVE-2020-25632)\n* grub2: Out-of-bounds write in grub_usb_device_initialize() (CVE-2020-25647)\n* grub2: Stack buffer overflow in grub_parser_split_cmdline() (CVE-2020-27749)\n* grub2: cutmem command allows privileged user to remove memory regions when Secure Boot is enabled (CVE-2020-27779)\n* grub2: Heap out-of-bounds write in short form option parser (CVE-2021-20225)\n* grub2: Heap out-of-bounds write due to miscalculation of space required for quoting (CVE-2021-20233)\nFor more details about the security issue(s), including the impact, a CVSS score, acknowledgments, and other related information, refer to the CVE page(s) listed in the References section.",
  "Platform": [
    "Red Hat Enterprise Linux 8"
  ],
  "References": [
    {
      "Source": "RHSA",
      "URI": "https://access.redhat.com/errata/RHSA-2021:2566",
      "ID": "RHSA-2021:2566"
    },
    {
      "Source": "CVE",
      "URI": "https://access.redhat.com/security/cve/CVE-2020-14372",
      "ID": "CVE-2020-14372"
    },
    {
      "Source": "CVE",
      "URI": "https://access.redhat.com/security/cve/CVE-2020-25632",
      "ID": "CVE-2020-25632"
    },
    {
      "Source": "CVE",
      "URI": "https://access.redhat.com/security/cve/CVE-2020-25647",
      "ID": "CVE-2020-25647"
    },
    {
      "Source": "CVE",
      "URI": "https://access.redhat.com/security/cve/CVE-2020-27749",
      "ID": "CVE-2020-27749"
    },
    {
      "Source": "CVE",
      "URI": "https://access.redhat.com/security/cve/CVE-2020-27779",
      "ID": "CVE-2020-27779"
    },
    {
      "Source": "CVE",
      "URI": "https://access.redhat.com/security/cve/CVE-2021-20225",
      "ID": "CVE-2021-20225"
    },
    {
      "Source": "CVE",
      "URI": "https://access.redhat.com/security/cve/CVE-2021-20233",
      "ID": "CVE-2021-20233"
    }
  ],
  "Criteria": {
    "Operator": "OR",
    "Criterias": [
      {
        "Operator": "AND",
        "Criterias": [
          {
            "Operator": "OR",
            "Criterias": [

            ],
            "Criterions": [
              {
                "Comment": "Oracle Linux 8 is installed"
              },
              {
                "Comment": "Red Hat CoreOS 4 is installed"
              }
            ]
          }
        ],
        "Criterions": [
          {
            "Comment": "fwupd is earlier than 0:1.5.9-1.el8_4"
          },
          {
            "Comment": "fwupd is signed with Red Hat redhatrelease2 key"
          }
        ]
      }
    ],
    "Criterions": [
      {
        "Comment": "Oracle Linux 8 is installed"
      }
    ]
  },
  "Severity": "Moderate",
  "Cves": [
    {
      "Impact": "",
      "Href": "",
      "ID": "CVE-2020-14372"
    },
    {
      "Impact": "",
      "Href": "",
      "ID": "CVE-2020-25632"
    },
    {
      "Impact": "",
      "Href": "",
      "ID": "CVE-2020-25647"
    },
    {
      "Impact": "",
      "Href": "",
      "ID": "CVE-2020-27749"
    },
    {
      "Impact": "",
      "Href": "",
      "ID": "CVE-2020-27779"
    },
    {
      "Impact": "",
      "Href": "",
      "ID": "CVE-2021-20225"
    },
    {
      "Impact": "",
      "Href": "",
      "ID": "CVE-2021-20233"
    }
  ],
  "Issued": {
    "Date": "2021-06-29"
  }
}