{
  "Title": "RHSA-2021:4236: tcpdump security and bug fix update (Low)",
  "Description": "The tcpdump packages contain the tcpdump utility for monitoring network traffic. The tcpdump utility can capture and display the packet headers on a particular network interface or on all interfaces.\nSecurity Fix(es):\n* tcpdump: ppp decapsulator can be convinced to allocate a large amount of memory (CVE-2020-8037)\nFor more details about the security issue(s), including the impact, a CVSS score, acknowledgments, and other related information, refer to the CVE page(s) listed in the References section.\nAdditional Changes:\nFor detailed information on changes in this release, see the Red Hat Enterprise Linux 8.5 Release Notes linked from the References section.",
  "Platform": [
    "Red Hat Enterprise Linux 8"
  ],
  "References": [
    {
      "Source": "RHSA",
      "URI": "https://access.redhat.com/errata/RHSA-2021:4236",
      "ID": "RHSA-2021:4236"
    },
    {
      "Source": "CVE",
      "URI": "https://access.redhat.com/security/cve/CVE-2020-8037",
      "ID": "CVE-2020-8037"
    }
  ],
  "Criteria": {
    "Operator": "OR",
    "Criterias": [
      {
        "Operator": "AND",
        "Criterias": [
          {
            "Operator": "OR",
            "Criterias": [

            ],
            "Criterions": [
              {
                "Comment": "Oracle Linux 8 is installed"
              },
              {
                "Comment": "Red Hat CoreOS 4 is installed"
              }
            ]
          }
        ],
        "Criterions": [
          {
            "Comment": "tcpdump is earlier than 14:4.9.3-2.el8"
          },
          {
            "Comment": "tcpdump is signed with Red Hat redhatrelease2 key"
          }
        ]
      }
    ],
    "Criterions": [
      {
        "Comment": "Oracle Linux 8 is installed"
      }
    ]
  },
  "Severity": "Low",
  "Cves": [
    {
      "Impact": "",
      "Href": "",
      "ID": "CVE-2020-8037"
    }
  ],
  "Issued": {
    "Date": "2021-11-09"
  }
}