{
  "Title": "RHSA-2021:4057: python3 security update (Moderate)",
  "Description": "Python is an interpreted, interactive, object-oriented programming language, which includes modules, classes, exceptions, very high level dynamic data types and dynamic typing. Python supports interfaces to many system calls and libraries, as well as to various windowing systems. \nSecurity Fix(es):\n* python: urllib: Regular expression DoS in AbstractBasicAuthHandler (CVE-2021-3733)\nFor more details about the security issue(s), including the impact, a CVSS score, acknowledgments, and other related information, refer to the CVE page(s) listed in the References section.",
  "Platform": [
    "Red Hat Enterprise Linux 8"
  ],
  "References": [
    {
      "Source": "RHSA",
      "URI": "https://access.redhat.com/errata/RHSA-2021:4057",
      "ID": "RHSA-2021:4057"
    },
    {
      "Source": "CVE",
      "URI": "https://access.redhat.com/security/cve/CVE-2021-3733",
      "ID": "CVE-2021-3733"
    }
  ],
  "Criteria": {
    "Operator": "OR",
    "Criterias": [
      {
        "Operator": "AND",
        "Criterias": [
          {
            "Operator": "OR",
            "Criterias": [

            ],
            "Criterions": [
              {
                "Comment": "Oracle Linux 8 is installed"
              },
              {
                "Comment": "Red Hat CoreOS 4 is installed"
              }
            ]
          },
          {
            "Operator": "OR",
            "Criterias": [
              {
                "Operator": "AND",
                "Criterias": [

                ],
                "Criterions": [
                  {
                    "Comment": "platform-python is earlier than 0:3.6.8-39.el8_4"
                  },
                  {
                    "Comment": "platform-python is signed with Red Hat redhatrelease2 key"
                  }
                ]
              },
              {
                "Operator": "AND",
                "Criterias": [

                ],
                "Criterions": [
                  {
                    "Comment": "platform-python-debug is earlier than 0:3.6.8-39.el8_4"
                  },
                  {
                    "Comment": "platform-python-debug is signed with Red Hat redhatrelease2 key"
                  }
                ]
              },
              {
                "Operator": "AND",
                "Criterias": [

                ],
                "Criterions": [
                  {
                    "Comment": "platform-python-devel is earlier than 0:3.6.8-39.el8_4"
                  },
                  {
                    "Comment": "platform-python-devel is signed with Red Hat redhatrelease2 key"
                  }
                ]
              },
              {
                "Operator": "AND",
                "Criterias": [

                ],
                "Criterions": [
                  {
                    "Comment": "python3-idle is earlier than 0:3.6.8-39.el8_4"
                  },
                  {
                    "Comment": "python3-idle is signed with Red Hat redhatrelease2 key"
                  }
                ]
              },
              {
                "Operator": "AND",
                "Criterias": [

                ],
                "Criterions": [
                  {
                    "Comment": "python3-libs is earlier than 0:3.6.8-39.el8_4"
                  },
                  {
                    "Comment": "python3-libs is signed with Red Hat redhatrelease2 key"
                  }
                ]
              },
              {
                "Operator": "AND",
                "Criterias": [

                ],
                "Criterions": [
                  {
                    "Comment": "python3-test is earlier than 0:3.6.8-39.el8_4"
                  },
                  {
                    "Comment": "python3-test is signed with Red Hat redhatrelease2 key"
                  }
                ]
              },
              {
                "Operator": "AND",
                "Criterias": [

                ],
                "Criterions": [
                  {
                    "Comment": "python3-tkinter is earlier than 0:3.6.8-39.el8_4"
                  },
                  {
                    "Comment": "python3-tkinter is signed with Red Hat redhatrelease2 key"
                  }
                ]
              }
            ],
            "Criterions": [

            ]
          }
        ],
        "Criterions": [

        ]
      }
    ],
    "Criterions": [
      {
        "Comment": "Oracle Linux 8 is installed"
      }
    ]
  },
  "Severity": "Moderate",
  "Cves": [
    {
      "Impact": "",
      "Href": "",
      "ID": "CVE-2021-3733"
    }
  ],
  "Issued": {
    "Date": "2021-11-02"
  }
}