{
  "Title": "RHSA-2021:4059: curl security update (Moderate)",
  "Description": "The curl packages provide the libcurl library and the curl utility for downloading files from servers using various protocols, including HTTP, FTP, and LDAP.\nSecurity Fix(es):\n* curl: Requirement to use TLS not properly enforced for IMAP, POP3, and FTP protocols (CVE-2021-22946)\n* curl: Server responses received before STARTTLS processed after TLS handshake (CVE-2021-22947)\nFor more details about the security issue(s), including the impact, a CVSS score, acknowledgments, and other related information, refer to the CVE page(s) listed in the References section.",
  "Platform": [
    "Red Hat Enterprise Linux 8"
  ],
  "References": [
    {
      "Source": "RHSA",
      "URI": "https://access.redhat.com/errata/RHSA-2021:4059",
      "ID": "RHSA-2021:4059"
    },
    {
      "Source": "CVE",
      "URI": "https://access.redhat.com/security/cve/CVE-2021-22946",
      "ID": "CVE-2021-22946"
    },
    {
      "Source": "CVE",
      "URI": "https://access.redhat.com/security/cve/CVE-2021-22947",
      "ID": "CVE-2021-22947"
    }
  ],
  "Criteria": {
    "Operator": "OR",
    "Criterias": [
      {
        "Operator": "AND",
        "Criterias": [
          {
            "Operator": "OR",
            "Criterias": [

            ],
            "Criterions": [
              {
                "Comment": "Oracle Linux 8 is installed"
              },
              {
                "Comment": "Red Hat CoreOS 4 is installed"
              }
            ]
          },
          {
            "Operator": "OR",
            "Criterias": [
              {
                "Operator": "AND",
                "Criterias": [

                ],
                "Criterions": [
                  {
                    "Comment": "curl is earlier than 0:7.61.1-18.el8_4.2"
                  },
                  {
                    "Comment": "curl is signed with Red Hat redhatrelease2 key"
                  }
                ]
              },
              {
                "Operator": "AND",
                "Criterias": [

                ],
                "Criterions": [
                  {
                    "Comment": "libcurl is earlier than 0:7.61.1-18.el8_4.2"
                  },
                  {
                    "Comment": "libcurl is signed with Red Hat redhatrelease2 key"
                  }
                ]
              },
              {
                "Operator": "AND",
                "Criterias": [

                ],
                "Criterions": [
                  {
                    "Comment": "libcurl-devel is earlier than 0:7.61.1-18.el8_4.2"
                  },
                  {
                    "Comment": "libcurl-devel is signed with Red Hat redhatrelease2 key"
                  }
                ]
              },
              {
                "Operator": "AND",
                "Criterias": [

                ],
                "Criterions": [
                  {
                    "Comment": "libcurl-minimal is earlier than 0:7.61.1-18.el8_4.2"
                  },
                  {
                    "Comment": "libcurl-minimal is signed with Red Hat redhatrelease2 key"
                  }
                ]
              }
            ],
            "Criterions": [

            ]
          }
        ],
        "Criterions": [

        ]
      }
    ],
    "Criterions": [
      {
        "Comment": "Oracle Linux 8 is installed"
      }
    ]
  },
  "Severity": "Moderate",
  "Cves": [
    {
      "Impact": "",
      "Href": "",
      "ID": "CVE-2021-22946"
    },
    {
      "Impact": "",
      "Href": "",
      "ID": "CVE-2021-22947"
    }
  ],
  "Issued": {
    "Date": "2021-11-02"
  }
}