{
  "Title": "RHSA-2021:1627: trousers security, bug fix, and enhancement update (Moderate)",
  "Description": "TrouSerS is an implementation of the Trusted Computing Group's Software Stack (TSS) specification. TrouSerS enables the user to write applications that make use of the Trusted Platform Module (TPM) hardware.\nThe following packages have been upgraded to a later upstream version: trousers (0.3.15). (BZ#1725782)\nSecurity Fix(es):\n* trousers: tss user still has read and write access to the /etc/tcsd.conf file if tcsd is started as root (CVE-2020-24331)\n* trousers: tss user can be used to create or corrupt existing files, this could lead to DoS (CVE-2020-24332)\n* trousers: fails to drop the root gid privilege when no longer needed (CVE-2020-24330)\nFor more details about the security issue(s), including the impact, a CVSS score, acknowledgments, and other related information, refer to the CVE page(s) listed in the References section.\nAdditional Changes:\nFor detailed information on changes in this release, see the Red Hat Enterprise Linux 8.4 Release Notes linked from the References section.",
  "Platform": [
    "Red Hat Enterprise Linux 8"
  ],
  "References": [
    {
      "Source": "RHSA",
      "URI": "https://access.redhat.com/errata/RHSA-2021:1627",
      "ID": "RHSA-2021:1627"
    },
    {
      "Source": "CVE",
      "URI": "https://access.redhat.com/security/cve/CVE-2020-24330",
      "ID": "CVE-2020-24330"
    },
    {
      "Source": "CVE",
      "URI": "https://access.redhat.com/security/cve/CVE-2020-24331",
      "ID": "CVE-2020-24331"
    },
    {
      "Source": "CVE",
      "URI": "https://access.redhat.com/security/cve/CVE-2020-24332",
      "ID": "CVE-2020-24332"
    }
  ],
  "Criteria": {
    "Operator": "OR",
    "Criterias": [
      {
        "Operator": "AND",
        "Criterias": [
          {
            "Operator": "OR",
            "Criterias": [

            ],
            "Criterions": [
              {
                "Comment": "Oracle Linux 8 is installed"
              },
              {
                "Comment": "Red Hat CoreOS 4 is installed"
              }
            ]
          },
          {
            "Operator": "OR",
            "Criterias": [
              {
                "Operator": "AND",
                "Criterias": [

                ],
                "Criterions": [
                  {
                    "Comment": "trousers is earlier than 0:0.3.15-1.el8"
                  },
                  {
                    "Comment": "trousers is signed with Red Hat redhatrelease2 key"
                  }
                ]
              },
              {
                "Operator": "AND",
                "Criterias": [

                ],
                "Criterions": [
                  {
                    "Comment": "trousers-devel is earlier than 0:0.3.15-1.el8"
                  },
                  {
                    "Comment": "trousers-devel is signed with Red Hat redhatrelease2 key"
                  }
                ]
              },
              {
                "Operator": "AND",
                "Criterias": [

                ],
                "Criterions": [
                  {
                    "Comment": "trousers-lib is earlier than 0:0.3.15-1.el8"
                  },
                  {
                    "Comment": "trousers-lib is signed with Red Hat redhatrelease2 key"
                  }
                ]
              }
            ],
            "Criterions": [

            ]
          }
        ],
        "Criterions": [

        ]
      }
    ],
    "Criterions": [
      {
        "Comment": "Oracle Linux 8 is installed"
      }
    ]
  },
  "Severity": "Moderate",
  "Cves": [
    {
      "Impact": "",
      "Href": "",
      "ID": "CVE-2020-24330"
    },
    {
      "Impact": "",
      "Href": "",
      "ID": "CVE-2020-24331"
    },
    {
      "Impact": "",
      "Href": "",
      "ID": "CVE-2020-24332"
    }
  ],
  "Issued": {
    "Date": "2021-05-18"
  }
}