{
  "Title": "RHSA-2021:0557: perl security update (Moderate)",
  "Description": "Perl is a high-level programming language that is commonly used for system administration utilities and web programming.\nSecurity Fix(es):\n* perl: corruption of intermediate language state of compiled regular expression due to recursive S_study_chunk() calls leads to DoS (CVE-2020-12723)\nFor more details about the security issue(s), including the impact, a CVSS score, acknowledgments, and other related information, refer to the CVE page(s) listed in the References section.",
  "Platform": [
    "Red Hat Enterprise Linux 8"
  ],
  "References": [
    {
      "Source": "RHSA",
      "URI": "https://access.redhat.com/errata/RHSA-2021:0557",
      "ID": "RHSA-2021:0557"
    },
    {
      "Source": "CVE",
      "URI": "https://access.redhat.com/security/cve/CVE-2020-12723",
      "ID": "CVE-2020-12723"
    }
  ],
  "Criteria": {
    "Operator": "OR",
    "Criterias": [
      {
        "Operator": "AND",
        "Criterias": [
          {
            "Operator": "OR",
            "Criterias": [

            ],
            "Criterions": [
              {
                "Comment": "Oracle Linux 8 is installed"
              },
              {
                "Comment": "Red Hat CoreOS 4 is installed"
              }
            ]
          },
          {
            "Operator": "OR",
            "Criterias": [
              {
                "Operator": "AND",
                "Criterias": [

                ],
                "Criterions": [
                  {
                    "Comment": "perl is earlier than 4:5.26.3-417.el8_3"
                  },
                  {
                    "Comment": "perl is signed with Red Hat redhatrelease2 key"
                  }
                ]
              },
              {
                "Operator": "AND",
                "Criterias": [

                ],
                "Criterions": [
                  {
                    "Comment": "perl-Attribute-Handlers is earlier than 0:0.99-417.el8_3"
                  },
                  {
                    "Comment": "perl-Attribute-Handlers is signed with Red Hat redhatrelease2 key"
                  }
                ]
              },
              {
                "Operator": "AND",
                "Criterias": [

                ],
                "Criterions": [
                  {
                    "Comment": "perl-Devel-Peek is earlier than 0:1.26-417.el8_3"
                  },
                  {
                    "Comment": "perl-Devel-Peek is signed with Red Hat redhatrelease2 key"
                  }
                ]
              },
              {
                "Operator": "AND",
                "Criterias": [

                ],
                "Criterions": [
                  {
                    "Comment": "perl-Devel-SelfStubber is earlier than 0:1.06-417.el8_3"
                  },
                  {
                    "Comment": "perl-Devel-SelfStubber is signed with Red Hat redhatrelease2 key"
                  }
                ]
              },
              {
                "Operator": "AND",
                "Criterias": [

                ],
                "Criterions": [
                  {
                    "Comment": "perl-Errno is earlier than 0:1.28-417.el8_3"
                  },
                  {
                    "Comment": "perl-Errno is signed with Red Hat redhatrelease2 key"
                  }
                ]
              },
              {
                "Operator": "AND",
                "Criterias": [

                ],
                "Criterions": [
                  {
                    "Comment": "perl-ExtUtils-Embed is earlier than 0:1.34-417.el8_3"
                  },
                  {
                    "Comment": "perl-ExtUtils-Embed is signed with Red Hat redhatrelease2 key"
                  }
                ]
              },
              {
                "Operator": "AND",
                "Criterias": [

                ],
                "Criterions": [
                  {
                    "Comment": "perl-ExtUtils-Miniperl is earlier than 0:1.06-417.el8_3"
                  },
                  {
                    "Comment": "perl-ExtUtils-Miniperl is signed with Red Hat redhatrelease2 key"
                  }
                ]
              },
              {
                "Operator": "AND",
                "Criterias": [

                ],
                "Criterions": [
                  {
                    "Comment": "perl-IO is earlier than 0:1.38-417.el8_3"
                  },
                  {
                    "Comment": "perl-IO is signed with Red Hat redhatrelease2 key"
                  }
                ]
              },
              {
                "Operator": "AND",
                "Criterias": [

                ],
                "Criterions": [
                  {
                    "Comment": "perl-IO-Zlib is earlier than 1:1.10-417.el8_3"
                  },
                  {
                    "Comment": "perl-IO-Zlib is signed with Red Hat redhatrelease2 key"
                  }
                ]
              },
              {
                "Operator": "AND",
                "Criterias": [

                ],
                "Criterions": [
                  {
                    "Comment": "perl-Locale-Maketext-Simple is earlier than 1:0.21-417.el8_3"
                  },
                  {
                    "Comment": "perl-Locale-Maketext-Simple is signed with Red Hat redhatrelease2 key"
                  }
                ]
              },
              {
                "Operator": "AND",
                "Criterias": [

                ],
                "Criterions": [
                  {
                    "Comment": "perl-Math-Complex is earlier than 0:1.59-417.el8_3"
                  },
                  {
                    "Comment": "perl-Math-Complex is signed with Red Hat redhatrelease2 key"
                  }
                ]
              },
              {
                "Operator": "AND",
                "Criterias": [

                ],
                "Criterions": [
                  {
                    "Comment": "perl-Memoize is earlier than 0:1.03-417.el8_3"
                  },
                  {
                    "Comment": "perl-Memoize is signed with Red Hat redhatrelease2 key"
                  }
                ]
              },
              {
                "Operator": "AND",
                "Criterias": [

                ],
                "Criterions": [
                  {
                    "Comment": "perl-Module-Loaded is earlier than 1:0.08-417.el8_3"
                  },
                  {
                    "Comment": "perl-Module-Loaded is signed with Red Hat redhatrelease2 key"
                  }
                ]
              },
              {
                "Operator": "AND",
                "Criterias": [

                ],
                "Criterions": [
                  {
                    "Comment": "perl-Net-Ping is earlier than 0:2.55-417.el8_3"
                  },
                  {
                    "Comment": "perl-Net-Ping is signed with Red Hat redhatrelease2 key"
                  }
                ]
              },
              {
                "Operator": "AND",
                "Criterias": [

                ],
                "Criterions": [
                  {
                    "Comment": "perl-Pod-Html is earlier than 0:1.22.02-417.el8_3"
                  },
                  {
                    "Comment": "perl-Pod-Html is signed with Red Hat redhatrelease2 key"
                  }
                ]
              },
              {
                "Operator": "AND",
                "Criterias": [

                ],
                "Criterions": [
                  {
                    "Comment": "perl-SelfLoader is earlier than 0:1.23-417.el8_3"
                  },
                  {
                    "Comment": "perl-SelfLoader is signed with Red Hat redhatrelease2 key"
                  }
                ]
              },
              {
                "Operator": "AND",
                "Criterias": [

                ],
                "Criterions": [
                  {
                    "Comment": "perl-Test is earlier than 0:1.30-417.el8_3"
                  },
                  {
                    "Comment": "perl-Test is signed with Red Hat redhatrelease2 key"
                  }
                ]
              },
              {
                "Operator": "AND",
                "Criterias": [

                ],
                "Criterions": [
                  {
                    "Comment": "perl-Time-Piece is earlier than 0:1.31-417.el8_3"
                  },
                  {
                    "Comment": "perl-Time-Piece is signed with Red Hat redhatrelease2 key"
                  }
                ]
              },
              {
                "Operator": "AND",
                "Criterias": [

                ],
                "Criterions": [
                  {
                    "Comment": "perl-devel is earlier than 4:5.26.3-417.el8_3"
                  },
                  {
                    "Comment": "perl-devel is signed with Red Hat redhatrelease2 key"
                  }
                ]
              },
              {
                "Operator": "AND",
                "Criterias": [

                ],
                "Criterions": [
                  {
                    "Comment": "perl-interpreter is earlier than 4:5.26.3-417.el8_3"
                  },
                  {
                    "Comment": "perl-interpreter is signed with Red Hat redhatrelease2 key"
                  }
                ]
              },
              {
                "Operator": "AND",
                "Criterias": [

                ],
                "Criterions": [
                  {
                    "Comment": "perl-libnetcfg is earlier than 4:5.26.3-417.el8_3"
                  },
                  {
                    "Comment": "perl-libnetcfg is signed with Red Hat redhatrelease2 key"
                  }
                ]
              },
              {
                "Operator": "AND",
                "Criterias": [

                ],
                "Criterions": [
                  {
                    "Comment": "perl-libs is earlier than 4:5.26.3-417.el8_3"
                  },
                  {
                    "Comment": "perl-libs is signed with Red Hat redhatrelease2 key"
                  }
                ]
              },
              {
                "Operator": "AND",
                "Criterias": [

                ],
                "Criterions": [
                  {
                    "Comment": "perl-macros is earlier than 4:5.26.3-417.el8_3"
                  },
                  {
                    "Comment": "perl-macros is signed with Red Hat redhatrelease2 key"
                  }
                ]
              },
              {
                "Operator": "AND",
                "Criterias": [

                ],
                "Criterions": [
                  {
                    "Comment": "perl-open is earlier than 0:1.11-417.el8_3"
                  },
                  {
                    "Comment": "perl-open is signed with Red Hat redhatrelease2 key"
                  }
                ]
              },
              {
                "Operator": "AND",
                "Criterias": [

                ],
                "Criterions": [
                  {
                    "Comment": "perl-tests is earlier than 4:5.26.3-417.el8_3"
                  },
                  {
                    "Comment": "perl-tests is signed with Red Hat redhatrelease2 key"
                  }
                ]
              },
              {
                "Operator": "AND",
                "Criterias": [

                ],
                "Criterions": [
                  {
                    "Comment": "perl-utils is earlier than 0:5.26.3-417.el8_3"
                  },
                  {
                    "Comment": "perl-utils is signed with Red Hat redhatrelease2 key"
                  }
                ]
              }
            ],
            "Criterions": [

            ]
          }
        ],
        "Criterions": [

        ]
      }
    ],
    "Criterions": [
      {
        "Comment": "Oracle Linux 8 is installed"
      }
    ]
  },
  "Severity": "Moderate",
  "Cves": [
    {
      "Impact": "",
      "Href": "",
      "ID": "CVE-2020-12723"
    }
  ],
  "Issued": {
    "Date": "2021-02-16"
  }
}