{
  "Title": "RHSA-2021:2595: 389-ds:1.4 security and bug fix update (Moderate)",
  "Description": "389 Directory Server is an LDAP version 3 (LDAPv3) compliant server. The base packages include the Lightweight Directory Access Protocol (LDAP) server and command-line utilities for server administration. \nSecurity Fix(es):\n* 389-ds-base: sync_repl NULL pointer dereference in sync_create_state_control() (CVE-2021-3514)\nFor more details about the security issue(s), including the impact, a CVSS score, acknowledgments, and other related information, refer to the CVE page(s) listed in the References section.\nBug Fix(es):\n* ACIs are being evaluated against the Replication Manager account in a replication context. (BZ#1968588)\n* A connection can be erroneously flagged as replication conn during evaluation of an aci with ip bind rule (BZ#1970791)\n* Large updates can reset the CLcache to the beginning of the changelog (BZ#1972721)\n* Changelog cache can upload updates from a wrong starting point (CSN) (BZ#1972738)",
  "Platform": [
    "Red Hat Enterprise Linux 8"
  ],
  "References": [
    {
      "Source": "RHSA",
      "URI": "https://access.redhat.com/errata/RHSA-2021:2595",
      "ID": "RHSA-2021:2595"
    },
    {
      "Source": "CVE",
      "URI": "https://access.redhat.com/security/cve/CVE-2021-3514",
      "ID": "CVE-2021-3514"
    }
  ],
  "Criteria": {
    "Operator": "OR",
    "Criterias": [
      {
        "Operator": "AND",
        "Criterias": [
          {
            "Operator": "OR",
            "Criterias": [

            ],
            "Criterions": [
              {
                "Comment": "Oracle Linux 8 is installed"
              },
              {
                "Comment": "Red Hat CoreOS 4 is installed"
              }
            ]
          },
          {
            "Operator": "OR",
            "Criterias": [
              {
                "Operator": "AND",
                "Criterias": [
                  {
                    "Operator": "OR",
                    "Criterias": [
                      {
                        "Operator": "AND",
                        "Criterias": [

                        ],
                        "Criterions": [
                          {
                            "Comment": "389-ds-base is earlier than 0:1.4.3.16-16.module+el8.4.0+11446+fc96bc48"
                          },
                          {
                            "Comment": "389-ds-base is signed with Red Hat redhatrelease2 key"
                          }
                        ]
                      },
                      {
                        "Operator": "AND",
                        "Criterias": [

                        ],
                        "Criterions": [
                          {
                            "Comment": "389-ds-base-devel is earlier than 0:1.4.3.16-16.module+el8.4.0+11446+fc96bc48"
                          },
                          {
                            "Comment": "389-ds-base-devel is signed with Red Hat redhatrelease2 key"
                          }
                        ]
                      },
                      {
                        "Operator": "AND",
                        "Criterias": [

                        ],
                        "Criterions": [
                          {
                            "Comment": "389-ds-base-legacy-tools is earlier than 0:1.4.3.16-16.module+el8.4.0+11446+fc96bc48"
                          },
                          {
                            "Comment": "389-ds-base-legacy-tools is signed with Red Hat redhatrelease2 key"
                          }
                        ]
                      },
                      {
                        "Operator": "AND",
                        "Criterias": [

                        ],
                        "Criterions": [
                          {
                            "Comment": "389-ds-base-libs is earlier than 0:1.4.3.16-16.module+el8.4.0+11446+fc96bc48"
                          },
                          {
                            "Comment": "389-ds-base-libs is signed with Red Hat redhatrelease2 key"
                          }
                        ]
                      },
                      {
                        "Operator": "AND",
                        "Criterias": [

                        ],
                        "Criterions": [
                          {
                            "Comment": "389-ds-base-snmp is earlier than 0:1.4.3.16-16.module+el8.4.0+11446+fc96bc48"
                          },
                          {
                            "Comment": "389-ds-base-snmp is signed with Red Hat redhatrelease2 key"
                          }
                        ]
                      },
                      {
                        "Operator": "AND",
                        "Criterias": [

                        ],
                        "Criterions": [
                          {
                            "Comment": "python3-lib389 is earlier than 0:1.4.3.16-16.module+el8.4.0+11446+fc96bc48"
                          },
                          {
                            "Comment": "python3-lib389 is signed with Red Hat redhatrelease2 key"
                          }
                        ]
                      }
                    ],
                    "Criterions": [

                    ]
                  }
                ],
                "Criterions": [
                  {
                    "Comment": "Module 389-ds:1.4 is enabled"
                  }
                ]
              }
            ],
            "Criterions": [

            ]
          }
        ],
        "Criterions": [

        ]
      }
    ],
    "Criterions": [
      {
        "Comment": "Oracle Linux 8 is installed"
      }
    ]
  },
  "Severity": "Moderate",
  "Cves": [
    {
      "Impact": "",
      "Href": "",
      "ID": "CVE-2021-3514"
    }
  ],
  "Issued": {
    "Date": "2021-06-29"
  }
}