{
  "Title": "RHSA-2021:0655: firefox security update (Critical)",
  "Description": "Mozilla Firefox is an open-source web browser, designed for standards compliance, performance, and portability.\nThis update upgrades Firefox to version 78.8.0 ESR.\nSecurity Fix(es):\n* Mozilla: Content Security Policy violation report could have contained the destination of a redirect (CVE-2021-23968)\n* Mozilla: Content Security Policy violation report could have contained the destination of a redirect (CVE-2021-23969)\n* Mozilla: Memory safety bugs fixed in Firefox 86 and Firefox ESR 78.8 (CVE-2021-23978)\n* Mozilla: MediaError message property could have leaked information about cross-origin resources (CVE-2021-23973)\nFor more details about the security issue(s), including the impact, a CVSS score, acknowledgments, and other related information, refer to the CVE page(s) listed in the References section.",
  "Platform": [
    "Red Hat Enterprise Linux 8"
  ],
  "References": [
    {
      "Source": "RHSA",
      "URI": "https://access.redhat.com/errata/RHSA-2021:0655",
      "ID": "RHSA-2021:0655"
    },
    {
      "Source": "CVE",
      "URI": "https://access.redhat.com/security/cve/CVE-2021-23968",
      "ID": "CVE-2021-23968"
    },
    {
      "Source": "CVE",
      "URI": "https://access.redhat.com/security/cve/CVE-2021-23969",
      "ID": "CVE-2021-23969"
    },
    {
      "Source": "CVE",
      "URI": "https://access.redhat.com/security/cve/CVE-2021-23973",
      "ID": "CVE-2021-23973"
    },
    {
      "Source": "CVE",
      "URI": "https://access.redhat.com/security/cve/CVE-2021-23978",
      "ID": "CVE-2021-23978"
    }
  ],
  "Criteria": {
    "Operator": "OR",
    "Criterias": [
      {
        "Operator": "AND",
        "Criterias": [
          {
            "Operator": "OR",
            "Criterias": [

            ],
            "Criterions": [
              {
                "Comment": "Oracle Linux 8 is installed"
              },
              {
                "Comment": "Red Hat CoreOS 4 is installed"
              }
            ]
          }
        ],
        "Criterions": [
          {
            "Comment": "firefox is earlier than 0:78.8.0-1.el8_3"
          },
          {
            "Comment": "firefox is signed with Red Hat redhatrelease2 key"
          }
        ]
      }
    ],
    "Criterions": [
      {
        "Comment": "Oracle Linux 8 is installed"
      }
    ]
  },
  "Severity": "Critical",
  "Cves": [
    {
      "Impact": "",
      "Href": "",
      "ID": "CVE-2021-23968"
    },
    {
      "Impact": "",
      "Href": "",
      "ID": "CVE-2021-23969"
    },
    {
      "Impact": "",
      "Href": "",
      "ID": "CVE-2021-23973"
    },
    {
      "Impact": "",
      "Href": "",
      "ID": "CVE-2021-23978"
    }
  ],
  "Issued": {
    "Date": "2021-02-24"
  }
}