{
  "Title": "RHSA-2021:3148: .NET 5.0 security and bugfix update (Important)",
  "Description": ".NET is a managed-software framework. It implements a subset of the .NET framework APIs and several new APIs, and it includes a CLR implementation.\nNew versions of .NET that address security vulnerabilities are now available. The updated versions are .NET SDK 5.0.206 and .NET Runtime 5.0.9.\nSecurity Fix(es):\n* dotnet: ASP.NET Core WebSocket frame processing DoS (CVE-2021-26423)\n* dotnet: Dump file created world-readable (CVE-2021-34485)\n* dotnet: ASP.NET Core JWT token logging (CVE-2021-34532)\nFor more details about the security issue(s), including the impact, a CVSS score, acknowledgments, and other related information, refer to the CVE page(s) listed in the References section.",
  "Platform": [
    "Red Hat Enterprise Linux 8"
  ],
  "References": [
    {
      "Source": "RHSA",
      "URI": "https://access.redhat.com/errata/RHSA-2021:3148",
      "ID": "RHSA-2021:3148"
    },
    {
      "Source": "CVE",
      "URI": "https://access.redhat.com/security/cve/CVE-2021-26423",
      "ID": "CVE-2021-26423"
    },
    {
      "Source": "CVE",
      "URI": "https://access.redhat.com/security/cve/CVE-2021-34485",
      "ID": "CVE-2021-34485"
    },
    {
      "Source": "CVE",
      "URI": "https://access.redhat.com/security/cve/CVE-2021-34532",
      "ID": "CVE-2021-34532"
    }
  ],
  "Criteria": {
    "Operator": "OR",
    "Criterias": [
      {
        "Operator": "AND",
        "Criterias": [
          {
            "Operator": "OR",
            "Criterias": [

            ],
            "Criterions": [
              {
                "Comment": "Oracle Linux 8 is installed"
              },
              {
                "Comment": "Red Hat CoreOS 4 is installed"
              }
            ]
          },
          {
            "Operator": "OR",
            "Criterias": [
              {
                "Operator": "AND",
                "Criterias": [

                ],
                "Criterions": [
                  {
                    "Comment": "aspnetcore-runtime-5.0 is earlier than 0:5.0.9-1.el8_4"
                  },
                  {
                    "Comment": "aspnetcore-runtime-5.0 is signed with Red Hat redhatrelease2 key"
                  }
                ]
              },
              {
                "Operator": "AND",
                "Criterias": [

                ],
                "Criterions": [
                  {
                    "Comment": "aspnetcore-targeting-pack-5.0 is earlier than 0:5.0.9-1.el8_4"
                  },
                  {
                    "Comment": "aspnetcore-targeting-pack-5.0 is signed with Red Hat redhatrelease2 key"
                  }
                ]
              },
              {
                "Operator": "AND",
                "Criterias": [

                ],
                "Criterions": [
                  {
                    "Comment": "dotnet is earlier than 0:5.0.206-1.el8_4"
                  },
                  {
                    "Comment": "dotnet is signed with Red Hat redhatrelease2 key"
                  }
                ]
              },
              {
                "Operator": "AND",
                "Criterias": [

                ],
                "Criterions": [
                  {
                    "Comment": "dotnet-apphost-pack-5.0 is earlier than 0:5.0.9-1.el8_4"
                  },
                  {
                    "Comment": "dotnet-apphost-pack-5.0 is signed with Red Hat redhatrelease2 key"
                  }
                ]
              },
              {
                "Operator": "AND",
                "Criterias": [

                ],
                "Criterions": [
                  {
                    "Comment": "dotnet-host is earlier than 0:5.0.9-1.el8_4"
                  },
                  {
                    "Comment": "dotnet-host is signed with Red Hat redhatrelease2 key"
                  }
                ]
              },
              {
                "Operator": "AND",
                "Criterias": [

                ],
                "Criterions": [
                  {
                    "Comment": "dotnet-hostfxr-5.0 is earlier than 0:5.0.9-1.el8_4"
                  },
                  {
                    "Comment": "dotnet-hostfxr-5.0 is signed with Red Hat redhatrelease2 key"
                  }
                ]
              },
              {
                "Operator": "AND",
                "Criterias": [

                ],
                "Criterions": [
                  {
                    "Comment": "dotnet-runtime-5.0 is earlier than 0:5.0.9-1.el8_4"
                  },
                  {
                    "Comment": "dotnet-runtime-5.0 is signed with Red Hat redhatrelease2 key"
                  }
                ]
              },
              {
                "Operator": "AND",
                "Criterias": [

                ],
                "Criterions": [
                  {
                    "Comment": "dotnet-sdk-5.0 is earlier than 0:5.0.206-1.el8_4"
                  },
                  {
                    "Comment": "dotnet-sdk-5.0 is signed with Red Hat redhatrelease2 key"
                  }
                ]
              },
              {
                "Operator": "AND",
                "Criterias": [

                ],
                "Criterions": [
                  {
                    "Comment": "dotnet-targeting-pack-5.0 is earlier than 0:5.0.9-1.el8_4"
                  },
                  {
                    "Comment": "dotnet-targeting-pack-5.0 is signed with Red Hat redhatrelease2 key"
                  }
                ]
              },
              {
                "Operator": "AND",
                "Criterias": [

                ],
                "Criterions": [
                  {
                    "Comment": "dotnet-templates-5.0 is earlier than 0:5.0.206-1.el8_4"
                  },
                  {
                    "Comment": "dotnet-templates-5.0 is signed with Red Hat redhatrelease2 key"
                  }
                ]
              },
              {
                "Operator": "AND",
                "Criterias": [

                ],
                "Criterions": [
                  {
                    "Comment": "netstandard-targeting-pack-2.1 is earlier than 0:5.0.206-1.el8_4"
                  },
                  {
                    "Comment": "netstandard-targeting-pack-2.1 is signed with Red Hat redhatrelease2 key"
                  }
                ]
              }
            ],
            "Criterions": [

            ]
          }
        ],
        "Criterions": [

        ]
      }
    ],
    "Criterions": [
      {
        "Comment": "Oracle Linux 8 is installed"
      }
    ]
  },
  "Severity": "Important",
  "Cves": [
    {
      "Impact": "",
      "Href": "",
      "ID": "CVE-2021-26423"
    },
    {
      "Impact": "",
      "Href": "",
      "ID": "CVE-2021-34485"
    },
    {
      "Impact": "",
      "Href": "",
      "ID": "CVE-2021-34532"
    }
  ],
  "Issued": {
    "Date": "2021-08-12"
  }
}