{
  "Title": "RHSA-2021:2776: java-1.8.0-openjdk security update (Important)",
  "Description": "The java-1.8.0-openjdk packages provide the OpenJDK 8 Java Runtime Environment and the OpenJDK 8 Java Software Development Kit.\nSecurity Fix(es):\n* OpenJDK: Incorrect comparison during range check elimination (Hotspot, 8264066) (CVE-2021-2388)\n* OpenJDK: FTP PASV command response can cause FtpClient to connect to arbitrary host (Networking, 8258432) (CVE-2021-2341)\n* OpenJDK: Incorrect verification of JAR files with multiple MANIFEST.MF files (Library, 8260967) (CVE-2021-2369)\nFor more details about the security issue(s), including the impact, a CVSS score, acknowledgments, and other related information, refer to the CVE page(s) listed in the References section.",
  "Platform": [
    "Red Hat Enterprise Linux 8"
  ],
  "References": [
    {
      "Source": "RHSA",
      "URI": "https://access.redhat.com/errata/RHSA-2021:2776",
      "ID": "RHSA-2021:2776"
    },
    {
      "Source": "CVE",
      "URI": "https://access.redhat.com/security/cve/CVE-2021-2341",
      "ID": "CVE-2021-2341"
    },
    {
      "Source": "CVE",
      "URI": "https://access.redhat.com/security/cve/CVE-2021-2369",
      "ID": "CVE-2021-2369"
    },
    {
      "Source": "CVE",
      "URI": "https://access.redhat.com/security/cve/CVE-2021-2388",
      "ID": "CVE-2021-2388"
    }
  ],
  "Criteria": {
    "Operator": "OR",
    "Criterias": [
      {
        "Operator": "AND",
        "Criterias": [
          {
            "Operator": "OR",
            "Criterias": [

            ],
            "Criterions": [
              {
                "Comment": "Oracle Linux 8 is installed"
              },
              {
                "Comment": "Red Hat CoreOS 4 is installed"
              }
            ]
          },
          {
            "Operator": "OR",
            "Criterias": [
              {
                "Operator": "AND",
                "Criterias": [

                ],
                "Criterions": [
                  {
                    "Comment": "java-1.8.0-openjdk is earlier than 1:1.8.0.302.b08-0.el8_4"
                  },
                  {
                    "Comment": "java-1.8.0-openjdk is signed with Red Hat redhatrelease2 key"
                  }
                ]
              },
              {
                "Operator": "AND",
                "Criterias": [

                ],
                "Criterions": [
                  {
                    "Comment": "java-1.8.0-openjdk-accessibility is earlier than 1:1.8.0.302.b08-0.el8_4"
                  },
                  {
                    "Comment": "java-1.8.0-openjdk-accessibility is signed with Red Hat redhatrelease2 key"
                  }
                ]
              },
              {
                "Operator": "AND",
                "Criterias": [

                ],
                "Criterions": [
                  {
                    "Comment": "java-1.8.0-openjdk-accessibility-fastdebug is earlier than 1:1.8.0.302.b08-0.el8_4"
                  },
                  {
                    "Comment": "java-1.8.0-openjdk-accessibility-fastdebug is signed with Red Hat redhatrelease2 key"
                  }
                ]
              },
              {
                "Operator": "AND",
                "Criterias": [

                ],
                "Criterions": [
                  {
                    "Comment": "java-1.8.0-openjdk-accessibility-slowdebug is earlier than 1:1.8.0.302.b08-0.el8_4"
                  },
                  {
                    "Comment": "java-1.8.0-openjdk-accessibility-slowdebug is signed with Red Hat redhatrelease2 key"
                  }
                ]
              },
              {
                "Operator": "AND",
                "Criterias": [

                ],
                "Criterions": [
                  {
                    "Comment": "java-1.8.0-openjdk-demo is earlier than 1:1.8.0.302.b08-0.el8_4"
                  },
                  {
                    "Comment": "java-1.8.0-openjdk-demo is signed with Red Hat redhatrelease2 key"
                  }
                ]
              },
              {
                "Operator": "AND",
                "Criterias": [

                ],
                "Criterions": [
                  {
                    "Comment": "java-1.8.0-openjdk-demo-fastdebug is earlier than 1:1.8.0.302.b08-0.el8_4"
                  },
                  {
                    "Comment": "java-1.8.0-openjdk-demo-fastdebug is signed with Red Hat redhatrelease2 key"
                  }
                ]
              },
              {
                "Operator": "AND",
                "Criterias": [

                ],
                "Criterions": [
                  {
                    "Comment": "java-1.8.0-openjdk-demo-slowdebug is earlier than 1:1.8.0.302.b08-0.el8_4"
                  },
                  {
                    "Comment": "java-1.8.0-openjdk-demo-slowdebug is signed with Red Hat redhatrelease2 key"
                  }
                ]
              },
              {
                "Operator": "AND",
                "Criterias": [

                ],
                "Criterions": [
                  {
                    "Comment": "java-1.8.0-openjdk-devel is earlier than 1:1.8.0.302.b08-0.el8_4"
                  },
                  {
                    "Comment": "java-1.8.0-openjdk-devel is signed with Red Hat redhatrelease2 key"
                  }
                ]
              },
              {
                "Operator": "AND",
                "Criterias": [

                ],
                "Criterions": [
                  {
                    "Comment": "java-1.8.0-openjdk-devel-fastdebug is earlier than 1:1.8.0.302.b08-0.el8_4"
                  },
                  {
                    "Comment": "java-1.8.0-openjdk-devel-fastdebug is signed with Red Hat redhatrelease2 key"
                  }
                ]
              },
              {
                "Operator": "AND",
                "Criterias": [

                ],
                "Criterions": [
                  {
                    "Comment": "java-1.8.0-openjdk-devel-slowdebug is earlier than 1:1.8.0.302.b08-0.el8_4"
                  },
                  {
                    "Comment": "java-1.8.0-openjdk-devel-slowdebug is signed with Red Hat redhatrelease2 key"
                  }
                ]
              },
              {
                "Operator": "AND",
                "Criterias": [

                ],
                "Criterions": [
                  {
                    "Comment": "java-1.8.0-openjdk-fastdebug is earlier than 1:1.8.0.302.b08-0.el8_4"
                  },
                  {
                    "Comment": "java-1.8.0-openjdk-fastdebug is signed with Red Hat redhatrelease2 key"
                  }
                ]
              },
              {
                "Operator": "AND",
                "Criterias": [

                ],
                "Criterions": [
                  {
                    "Comment": "java-1.8.0-openjdk-headless is earlier than 1:1.8.0.302.b08-0.el8_4"
                  },
                  {
                    "Comment": "java-1.8.0-openjdk-headless is signed with Red Hat redhatrelease2 key"
                  }
                ]
              },
              {
                "Operator": "AND",
                "Criterias": [

                ],
                "Criterions": [
                  {
                    "Comment": "java-1.8.0-openjdk-headless-fastdebug is earlier than 1:1.8.0.302.b08-0.el8_4"
                  },
                  {
                    "Comment": "java-1.8.0-openjdk-headless-fastdebug is signed with Red Hat redhatrelease2 key"
                  }
                ]
              },
              {
                "Operator": "AND",
                "Criterias": [

                ],
                "Criterions": [
                  {
                    "Comment": "java-1.8.0-openjdk-headless-slowdebug is earlier than 1:1.8.0.302.b08-0.el8_4"
                  },
                  {
                    "Comment": "java-1.8.0-openjdk-headless-slowdebug is signed with Red Hat redhatrelease2 key"
                  }
                ]
              },
              {
                "Operator": "AND",
                "Criterias": [

                ],
                "Criterions": [
                  {
                    "Comment": "java-1.8.0-openjdk-javadoc is earlier than 1:1.8.0.302.b08-0.el8_4"
                  },
                  {
                    "Comment": "java-1.8.0-openjdk-javadoc is signed with Red Hat redhatrelease2 key"
                  }
                ]
              },
              {
                "Operator": "AND",
                "Criterias": [

                ],
                "Criterions": [
                  {
                    "Comment": "java-1.8.0-openjdk-javadoc-zip is earlier than 1:1.8.0.302.b08-0.el8_4"
                  },
                  {
                    "Comment": "java-1.8.0-openjdk-javadoc-zip is signed with Red Hat redhatrelease2 key"
                  }
                ]
              },
              {
                "Operator": "AND",
                "Criterias": [

                ],
                "Criterions": [
                  {
                    "Comment": "java-1.8.0-openjdk-slowdebug is earlier than 1:1.8.0.302.b08-0.el8_4"
                  },
                  {
                    "Comment": "java-1.8.0-openjdk-slowdebug is signed with Red Hat redhatrelease2 key"
                  }
                ]
              },
              {
                "Operator": "AND",
                "Criterias": [

                ],
                "Criterions": [
                  {
                    "Comment": "java-1.8.0-openjdk-src is earlier than 1:1.8.0.302.b08-0.el8_4"
                  },
                  {
                    "Comment": "java-1.8.0-openjdk-src is signed with Red Hat redhatrelease2 key"
                  }
                ]
              },
              {
                "Operator": "AND",
                "Criterias": [

                ],
                "Criterions": [
                  {
                    "Comment": "java-1.8.0-openjdk-src-fastdebug is earlier than 1:1.8.0.302.b08-0.el8_4"
                  },
                  {
                    "Comment": "java-1.8.0-openjdk-src-fastdebug is signed with Red Hat redhatrelease2 key"
                  }
                ]
              },
              {
                "Operator": "AND",
                "Criterias": [

                ],
                "Criterions": [
                  {
                    "Comment": "java-1.8.0-openjdk-src-slowdebug is earlier than 1:1.8.0.302.b08-0.el8_4"
                  },
                  {
                    "Comment": "java-1.8.0-openjdk-src-slowdebug is signed with Red Hat redhatrelease2 key"
                  }
                ]
              }
            ],
            "Criterions": [

            ]
          }
        ],
        "Criterions": [

        ]
      }
    ],
    "Criterions": [
      {
        "Comment": "Oracle Linux 8 is installed"
      }
    ]
  },
  "Severity": "Important",
  "Cves": [
    {
      "Impact": "",
      "Href": "",
      "ID": "CVE-2021-2341"
    },
    {
      "Impact": "",
      "Href": "",
      "ID": "CVE-2021-2369"
    },
    {
      "Impact": "",
      "Href": "",
      "ID": "CVE-2021-2388"
    }
  ],
  "Issued": {
    "Date": "2021-07-21"
  }
}