{
  "Title": "RHSA-2021:1072: libldb security update (Important)",
  "Description": "The libldb packages provide an extensible library that implements an LDAP-like API to access remote LDAP servers, or use local TDB databases.\nSecurity Fix(es):\n* samba: Out of bounds read in AD DC LDAP server (CVE-2021-20277)\nFor more details about the security issue(s), including the impact, a CVSS score, acknowledgments, and other related information, refer to the CVE page(s) listed in the References section.",
  "Platform": [
    "Red Hat Enterprise Linux 7"
  ],
  "References": [
    {
      "Source": "RHSA",
      "URI": "https://access.redhat.com/errata/RHSA-2021:1072",
      "ID": "RHSA-2021:1072"
    },
    {
      "Source": "CVE",
      "URI": "https://access.redhat.com/security/cve/CVE-2021-20277",
      "ID": "CVE-2021-20277"
    }
  ],
  "Criteria": {
    "Operator": "OR",
    "Criterias": [
      {
        "Operator": "AND",
        "Criterias": [
          {
            "Operator": "OR",
            "Criterias": [
              {
                "Operator": "AND",
                "Criterias": [

                ],
                "Criterions": [
                  {
                    "Comment": "ldb-tools is earlier than 0:1.5.4-2.el7_9"
                  },
                  {
                    "Comment": "ldb-tools is signed with Red Hat redhatrelease2 key"
                  }
                ]
              },
              {
                "Operator": "AND",
                "Criterias": [

                ],
                "Criterions": [
                  {
                    "Comment": "libldb is earlier than 0:1.5.4-2.el7_9"
                  },
                  {
                    "Comment": "libldb is signed with Red Hat redhatrelease2 key"
                  }
                ]
              },
              {
                "Operator": "AND",
                "Criterias": [

                ],
                "Criterions": [
                  {
                    "Comment": "libldb-devel is earlier than 0:1.5.4-2.el7_9"
                  },
                  {
                    "Comment": "libldb-devel is signed with Red Hat redhatrelease2 key"
                  }
                ]
              },
              {
                "Operator": "AND",
                "Criterias": [

                ],
                "Criterions": [
                  {
                    "Comment": "pyldb is earlier than 0:1.5.4-2.el7_9"
                  },
                  {
                    "Comment": "pyldb is signed with Red Hat redhatrelease2 key"
                  }
                ]
              },
              {
                "Operator": "AND",
                "Criterias": [

                ],
                "Criterions": [
                  {
                    "Comment": "pyldb-devel is earlier than 0:1.5.4-2.el7_9"
                  },
                  {
                    "Comment": "pyldb-devel is signed with Red Hat redhatrelease2 key"
                  }
                ]
              }
            ],
            "Criterions": [

            ]
          }
        ],
        "Criterions": [
          {
            "Comment": "Oracle Linux 7 is installed"
          }
        ]
      }
    ],
    "Criterions": [
      {
        "Comment": "Oracle Linux 7 is installed"
      }
    ]
  },
  "Severity": "Important",
  "Cves": [
    {
      "Impact": "",
      "Href": "",
      "ID": "CVE-2021-20277"
    }
  ],
  "Issued": {
    "Date": "2021-04-06"
  }
}