{
  "Title": "RHSA-2021:1751: mailman:2.1 security update (Moderate)",
  "Description": "Mailman is a program used to help manage e-mail discussion lists.\nSecurity Fix(es):\n* mailman: arbitrary content injection via the options login page (CVE-2020-12108)\n* mailman: arbitrary content injection via the private archive login page (CVE-2020-15011)\nFor more details about the security issue(s), including the impact, a CVSS score, acknowledgments, and other related information, refer to the CVE page(s) listed in the References section.\nAdditional Changes:\nFor detailed information on changes in this release, see the Red Hat Enterprise Linux 8.4 Release Notes linked from the References section.",
  "Platform": [
    "Red Hat Enterprise Linux 8"
  ],
  "References": [
    {
      "Source": "RHSA",
      "URI": "https://access.redhat.com/errata/RHSA-2021:1751",
      "ID": "RHSA-2021:1751"
    },
    {
      "Source": "CVE",
      "URI": "https://access.redhat.com/security/cve/CVE-2020-12108",
      "ID": "CVE-2020-12108"
    },
    {
      "Source": "CVE",
      "URI": "https://access.redhat.com/security/cve/CVE-2020-15011",
      "ID": "CVE-2020-15011"
    }
  ],
  "Criteria": {
    "Operator": "OR",
    "Criterias": [
      {
        "Operator": "AND",
        "Criterias": [
          {
            "Operator": "OR",
            "Criterias": [

            ],
            "Criterions": [
              {
                "Comment": "Oracle Linux 8 is installed"
              },
              {
                "Comment": "Red Hat CoreOS 4 is installed"
              }
            ]
          },
          {
            "Operator": "OR",
            "Criterias": [
              {
                "Operator": "AND",
                "Criterias": [
                  {
                    "Operator": "AND",
                    "Criterias": [

                    ],
                    "Criterions": [
                      {
                        "Comment": "mailman is earlier than 3:2.1.29-11.module+el8.4.0+8277+5e2c6e6e"
                      },
                      {
                        "Comment": "mailman is signed with Red Hat redhatrelease2 key"
                      }
                    ]
                  }
                ],
                "Criterions": [
                  {
                    "Comment": "Module mailman:2.1 is enabled"
                  }
                ]
              }
            ],
            "Criterions": [

            ]
          }
        ],
        "Criterions": [

        ]
      }
    ],
    "Criterions": [
      {
        "Comment": "Oracle Linux 8 is installed"
      }
    ]
  },
  "Severity": "Moderate",
  "Cves": [
    {
      "Impact": "",
      "Href": "",
      "ID": "CVE-2020-12108"
    },
    {
      "Impact": "",
      "Href": "",
      "ID": "CVE-2020-15011"
    }
  ],
  "Issued": {
    "Date": "2021-05-18"
  }
}