{
  "Title": "RHSA-2021:4364: binutils security update (Moderate)",
  "Description": "The binutils packages provide a collection of binary utilities for the manipulation of object code in various object file formats. It includes the ar, as, gprof, ld, nm, objcopy, objdump, ranlib, readelf, size, strings, strip, and addr2line utilities.\nSecurity Fix(es):\n* binutils: Excessive debug section size can cause excessive memory consumption in bfd's dwarf2.c read_section() (CVE-2021-3487)\n* binutils: Race window allows users to own arbitrary files (CVE-2021-20197)\n* binutils: Heap-based buffer overflow in bfd_getl_signed_32() in libbfd.c because sh_entsize is not validated in _bfd_elf_slurp_secondary_reloc_section() in elf.c (CVE-2020-35448)\n* binutils: Heap-based buffer overflow in _bfd_elf_slurp_secondary_reloc_section in elf.c (CVE-2021-20284)\nFor more details about the security issue(s), including the impact, a CVSS score, acknowledgments, and other related information, refer to the CVE page(s) listed in the References section.\nAdditional Changes:\nFor detailed information on changes in this release, see the Red Hat Enterprise Linux 8.5 Release Notes linked from the References section.",
  "Platform": [
    "Red Hat Enterprise Linux 8"
  ],
  "References": [
    {
      "Source": "RHSA",
      "URI": "https://access.redhat.com/errata/RHSA-2021:4364",
      "ID": "RHSA-2021:4364"
    },
    {
      "Source": "CVE",
      "URI": "https://access.redhat.com/security/cve/CVE-2020-35448",
      "ID": "CVE-2020-35448"
    },
    {
      "Source": "CVE",
      "URI": "https://access.redhat.com/security/cve/CVE-2021-20197",
      "ID": "CVE-2021-20197"
    },
    {
      "Source": "CVE",
      "URI": "https://access.redhat.com/security/cve/CVE-2021-20284",
      "ID": "CVE-2021-20284"
    },
    {
      "Source": "CVE",
      "URI": "https://access.redhat.com/security/cve/CVE-2021-3487",
      "ID": "CVE-2021-3487"
    }
  ],
  "Criteria": {
    "Operator": "OR",
    "Criterias": [
      {
        "Operator": "AND",
        "Criterias": [
          {
            "Operator": "OR",
            "Criterias": [

            ],
            "Criterions": [
              {
                "Comment": "Oracle Linux 8 is installed"
              },
              {
                "Comment": "Red Hat CoreOS 4 is installed"
              }
            ]
          },
          {
            "Operator": "OR",
            "Criterias": [
              {
                "Operator": "AND",
                "Criterias": [

                ],
                "Criterions": [
                  {
                    "Comment": "binutils is earlier than 0:2.30-108.el8"
                  },
                  {
                    "Comment": "binutils is signed with Red Hat redhatrelease2 key"
                  }
                ]
              },
              {
                "Operator": "AND",
                "Criterias": [

                ],
                "Criterions": [
                  {
                    "Comment": "binutils-devel is earlier than 0:2.30-108.el8"
                  },
                  {
                    "Comment": "binutils-devel is signed with Red Hat redhatrelease2 key"
                  }
                ]
              }
            ],
            "Criterions": [

            ]
          }
        ],
        "Criterions": [

        ]
      }
    ],
    "Criterions": [
      {
        "Comment": "Oracle Linux 8 is installed"
      }
    ]
  },
  "Severity": "Moderate",
  "Cves": [
    {
      "Impact": "",
      "Href": "",
      "ID": "CVE-2020-35448"
    },
    {
      "Impact": "",
      "Href": "",
      "ID": "CVE-2021-20197"
    },
    {
      "Impact": "",
      "Href": "",
      "ID": "CVE-2021-20284"
    },
    {
      "Impact": "",
      "Href": "",
      "ID": "CVE-2021-3487"
    }
  ],
  "Issued": {
    "Date": "2021-11-09"
  }
}