{
  "Title": "RHSA-2021:3155: thunderbird security update (Important)",
  "Description": "Mozilla Thunderbird is a standalone mail and newsgroup client.\nThis update upgrades Thunderbird to version 78.13.0.\nSecurity Fix(es):\n* Mozilla: Uninitialized memory in a canvas object could have led to memory corruption (CVE-2021-29980)\n* Mozilla: Incorrect instruction reordering during JIT optimization (CVE-2021-29984)\n* Mozilla: Race condition when resolving DNS names could have led to memory corruption (CVE-2021-29986)\n* Mozilla: Memory corruption as a result of incorrect style treatment (CVE-2021-29988)\n* Mozilla: Memory safety bugs fixed in Thunderbird 78.13 (CVE-2021-29989)\n* Mozilla: Use-after-free media channels (CVE-2021-29985)\nFor more details about the security issue(s), including the impact, a CVSS score, acknowledgments, and other related information, refer to the CVE page(s) listed in the References section.",
  "Platform": [
    "Red Hat Enterprise Linux 8"
  ],
  "References": [
    {
      "Source": "RHSA",
      "URI": "https://access.redhat.com/errata/RHSA-2021:3155",
      "ID": "RHSA-2021:3155"
    },
    {
      "Source": "CVE",
      "URI": "https://access.redhat.com/security/cve/CVE-2021-29980",
      "ID": "CVE-2021-29980"
    },
    {
      "Source": "CVE",
      "URI": "https://access.redhat.com/security/cve/CVE-2021-29984",
      "ID": "CVE-2021-29984"
    },
    {
      "Source": "CVE",
      "URI": "https://access.redhat.com/security/cve/CVE-2021-29985",
      "ID": "CVE-2021-29985"
    },
    {
      "Source": "CVE",
      "URI": "https://access.redhat.com/security/cve/CVE-2021-29986",
      "ID": "CVE-2021-29986"
    },
    {
      "Source": "CVE",
      "URI": "https://access.redhat.com/security/cve/CVE-2021-29988",
      "ID": "CVE-2021-29988"
    },
    {
      "Source": "CVE",
      "URI": "https://access.redhat.com/security/cve/CVE-2021-29989",
      "ID": "CVE-2021-29989"
    }
  ],
  "Criteria": {
    "Operator": "OR",
    "Criterias": [
      {
        "Operator": "AND",
        "Criterias": [
          {
            "Operator": "OR",
            "Criterias": [

            ],
            "Criterions": [
              {
                "Comment": "Oracle Linux 8 is installed"
              },
              {
                "Comment": "Red Hat CoreOS 4 is installed"
              }
            ]
          }
        ],
        "Criterions": [
          {
            "Comment": "thunderbird is earlier than 0:78.13.0-1.el8_4"
          },
          {
            "Comment": "thunderbird is signed with Red Hat redhatrelease2 key"
          }
        ]
      }
    ],
    "Criterions": [
      {
        "Comment": "Oracle Linux 8 is installed"
      }
    ]
  },
  "Severity": "Important",
  "Cves": [
    {
      "Impact": "",
      "Href": "",
      "ID": "CVE-2021-29980"
    },
    {
      "Impact": "",
      "Href": "",
      "ID": "CVE-2021-29984"
    },
    {
      "Impact": "",
      "Href": "",
      "ID": "CVE-2021-29985"
    },
    {
      "Impact": "",
      "Href": "",
      "ID": "CVE-2021-29986"
    },
    {
      "Impact": "",
      "Href": "",
      "ID": "CVE-2021-29988"
    },
    {
      "Impact": "",
      "Href": "",
      "ID": "CVE-2021-29989"
    }
  ],
  "Issued": {
    "Date": "2021-08-16"
  }
}