{
  "Title": "RHSA-2021:4432: bluez security update (Moderate)",
  "Description": "The bluez packages contain the following utilities for use in Bluetooth applications: hcitool, hciattach, hciconfig, bluetoothd, l2ping, start scripts (Red Hat), and pcmcia configuration files. \nSecurity Fix(es):\n* bluez: Passkey Entry protocol of the Bluetooth Core is vulnerable to an impersonation attack (CVE-2020-26558)\nFor more details about the security issue(s), including the impact, a CVSS score, acknowledgments, and other related information, refer to the CVE page(s) listed in the References section.\nAdditional Changes:\nFor detailed information on changes in this release, see the Red Hat Enterprise Linux 8.5 Release Notes linked from the References section.",
  "Platform": [
    "Red Hat Enterprise Linux 8"
  ],
  "References": [
    {
      "Source": "RHSA",
      "URI": "https://access.redhat.com/errata/RHSA-2021:4432",
      "ID": "RHSA-2021:4432"
    },
    {
      "Source": "CVE",
      "URI": "https://access.redhat.com/security/cve/CVE-2020-26558",
      "ID": "CVE-2020-26558"
    }
  ],
  "Criteria": {
    "Operator": "OR",
    "Criterias": [
      {
        "Operator": "AND",
        "Criterias": [
          {
            "Operator": "OR",
            "Criterias": [

            ],
            "Criterions": [
              {
                "Comment": "Oracle Linux 8 is installed"
              },
              {
                "Comment": "Red Hat CoreOS 4 is installed"
              }
            ]
          },
          {
            "Operator": "OR",
            "Criterias": [
              {
                "Operator": "AND",
                "Criterias": [

                ],
                "Criterions": [
                  {
                    "Comment": "bluez is earlier than 0:5.56-1.el8"
                  },
                  {
                    "Comment": "bluez is signed with Red Hat redhatrelease2 key"
                  }
                ]
              },
              {
                "Operator": "AND",
                "Criterias": [

                ],
                "Criterions": [
                  {
                    "Comment": "bluez-cups is earlier than 0:5.56-1.el8"
                  },
                  {
                    "Comment": "bluez-cups is signed with Red Hat redhatrelease2 key"
                  }
                ]
              },
              {
                "Operator": "AND",
                "Criterias": [

                ],
                "Criterions": [
                  {
                    "Comment": "bluez-hid2hci is earlier than 0:5.56-1.el8"
                  },
                  {
                    "Comment": "bluez-hid2hci is signed with Red Hat redhatrelease2 key"
                  }
                ]
              },
              {
                "Operator": "AND",
                "Criterias": [

                ],
                "Criterions": [
                  {
                    "Comment": "bluez-libs is earlier than 0:5.56-1.el8"
                  },
                  {
                    "Comment": "bluez-libs is signed with Red Hat redhatrelease2 key"
                  }
                ]
              },
              {
                "Operator": "AND",
                "Criterias": [

                ],
                "Criterions": [
                  {
                    "Comment": "bluez-libs-devel is earlier than 0:5.56-1.el8"
                  },
                  {
                    "Comment": "bluez-libs-devel is signed with Red Hat redhatrelease2 key"
                  }
                ]
              },
              {
                "Operator": "AND",
                "Criterias": [

                ],
                "Criterions": [
                  {
                    "Comment": "bluez-obexd is earlier than 0:5.56-1.el8"
                  },
                  {
                    "Comment": "bluez-obexd is signed with Red Hat redhatrelease2 key"
                  }
                ]
              }
            ],
            "Criterions": [

            ]
          }
        ],
        "Criterions": [

        ]
      }
    ],
    "Criterions": [
      {
        "Comment": "Oracle Linux 8 is installed"
      }
    ]
  },
  "Severity": "Moderate",
  "Cves": [
    {
      "Impact": "",
      "Href": "",
      "ID": "CVE-2020-26558"
    }
  ],
  "Issued": {
    "Date": "2021-11-09"
  }
}