{
  "Title": "RHSA-2021:2264: thunderbird security update (Important)",
  "Description": "Mozilla Thunderbird is a standalone mail and newsgroup client.\nThis update upgrades Thunderbird to version 78.11.0.\nSecurity Fix(es):\n* Mozilla: Memory safety bugs fixed in Firefox 89 and Firefox ESR 78.11 (CVE-2021-29967)\n* Mozilla: Thunderbird stored OpenPGP secret keys without master password protection (CVE-2021-29956)\n* Mozilla: Partial protection of inline OpenPGP message not indicated (CVE-2021-29957)\nFor more details about the security issue(s), including the impact, a CVSS score, acknowledgments, and other related information, refer to the CVE page(s) listed in the References section.",
  "Platform": [
    "Red Hat Enterprise Linux 8"
  ],
  "References": [
    {
      "Source": "RHSA",
      "URI": "https://access.redhat.com/errata/RHSA-2021:2264",
      "ID": "RHSA-2021:2264"
    },
    {
      "Source": "CVE",
      "URI": "https://access.redhat.com/security/cve/CVE-2021-29956",
      "ID": "CVE-2021-29956"
    },
    {
      "Source": "CVE",
      "URI": "https://access.redhat.com/security/cve/CVE-2021-29957",
      "ID": "CVE-2021-29957"
    },
    {
      "Source": "CVE",
      "URI": "https://access.redhat.com/security/cve/CVE-2021-29967",
      "ID": "CVE-2021-29967"
    }
  ],
  "Criteria": {
    "Operator": "OR",
    "Criterias": [
      {
        "Operator": "AND",
        "Criterias": [
          {
            "Operator": "OR",
            "Criterias": [

            ],
            "Criterions": [
              {
                "Comment": "Oracle Linux 8 is installed"
              },
              {
                "Comment": "Red Hat CoreOS 4 is installed"
              }
            ]
          }
        ],
        "Criterions": [
          {
            "Comment": "thunderbird is earlier than 0:78.11.0-1.el8_4"
          },
          {
            "Comment": "thunderbird is signed with Red Hat redhatrelease2 key"
          }
        ]
      }
    ],
    "Criterions": [
      {
        "Comment": "Oracle Linux 8 is installed"
      }
    ]
  },
  "Severity": "Important",
  "Cves": [
    {
      "Impact": "",
      "Href": "",
      "ID": "CVE-2021-29956"
    },
    {
      "Impact": "",
      "Href": "",
      "ID": "CVE-2021-29957"
    },
    {
      "Impact": "",
      "Href": "",
      "ID": "CVE-2021-29967"
    }
  ],
  "Issued": {
    "Date": "2021-06-07"
  }
}