{
  "Title": "RHSA-2021:3081: cloud-init security update (Moderate)",
  "Description": "The cloud-init packages provide a set of init scripts for cloud instances. Cloud instances need special scripts to run during initialization to retrieve and install SSH keys, and to let the user run various scripts.\nSecurity Fix(es):\n* cloud-init: randomly generated passwords logged in clear-text to world-readable file (CVE-2021-3429)\nFor more details about the security issue(s), including the impact, a CVSS score, acknowledgments, and other related information, refer to the CVE page(s) listed in the References section.",
  "Platform": [
    "Red Hat Enterprise Linux 8"
  ],
  "References": [
    {
      "Source": "RHSA",
      "URI": "https://access.redhat.com/errata/RHSA-2021:3081",
      "ID": "RHSA-2021:3081"
    },
    {
      "Source": "CVE",
      "URI": "https://access.redhat.com/security/cve/CVE-2021-3429",
      "ID": "CVE-2021-3429"
    }
  ],
  "Criteria": {
    "Operator": "OR",
    "Criterias": [
      {
        "Operator": "AND",
        "Criterias": [
          {
            "Operator": "OR",
            "Criterias": [

            ],
            "Criterions": [
              {
                "Comment": "Oracle Linux 8 is installed"
              },
              {
                "Comment": "Red Hat CoreOS 4 is installed"
              }
            ]
          }
        ],
        "Criterions": [
          {
            "Comment": "cloud-init is earlier than 0:20.3-10.el8_4.5"
          },
          {
            "Comment": "cloud-init is signed with Red Hat redhatrelease2 key"
          }
        ]
      }
    ],
    "Criterions": [
      {
        "Comment": "Oracle Linux 8 is installed"
      }
    ]
  },
  "Severity": "Moderate",
  "Cves": [
    {
      "Impact": "",
      "Href": "",
      "ID": "CVE-2021-3429"
    }
  ],
  "Issued": {
    "Date": "2021-08-10"
  }
}