{
  "Title": "RHSA-2021:2587: ruby:2.5 security, bug fix, and enhancement update (Moderate)",
  "Description": "Ruby is an extensible, interpreted, object-oriented, scripting language. It has features to process text files and to perform system management tasks.\nThe following packages have been upgraded to a later upstream version: ruby (2.5.9). (BZ#1952626)\nSecurity Fix(es):\n* ruby: NUL injection vulnerability of File.fnmatch and File.fnmatch? (CVE-2019-15845)\n* ruby: Regular expression denial of service vulnerability of WEBrick's Digest authentication (CVE-2019-16201)\n* ruby: Code injection via command argument of Shell#test / Shell#[] (CVE-2019-16255)\n* rubygem-json: Unsafe object creation vulnerability in JSON (CVE-2020-10663)\n* ruby: BasicSocket#read_nonblock method leads to information disclosure (CVE-2020-10933)\n* ruby: Potential HTTP request smuggling in WEBrick (CVE-2020-25613)\n* ruby: XML round-trip vulnerability in REXML (CVE-2021-28965)\n* ruby: HTTP response splitting in WEBrick (CVE-2019-16254)\nFor more details about the security issue(s), including the impact, a CVSS score, acknowledgments, and other related information, refer to the CVE page(s) listed in the References section.",
  "Platform": [
    "Red Hat Enterprise Linux 8"
  ],
  "References": [
    {
      "Source": "RHSA",
      "URI": "https://access.redhat.com/errata/RHSA-2021:2587",
      "ID": "RHSA-2021:2587"
    },
    {
      "Source": "CVE",
      "URI": "https://access.redhat.com/security/cve/CVE-2019-15845",
      "ID": "CVE-2019-15845"
    },
    {
      "Source": "CVE",
      "URI": "https://access.redhat.com/security/cve/CVE-2019-16201",
      "ID": "CVE-2019-16201"
    },
    {
      "Source": "CVE",
      "URI": "https://access.redhat.com/security/cve/CVE-2019-16254",
      "ID": "CVE-2019-16254"
    },
    {
      "Source": "CVE",
      "URI": "https://access.redhat.com/security/cve/CVE-2019-16255",
      "ID": "CVE-2019-16255"
    },
    {
      "Source": "CVE",
      "URI": "https://access.redhat.com/security/cve/CVE-2020-10663",
      "ID": "CVE-2020-10663"
    },
    {
      "Source": "CVE",
      "URI": "https://access.redhat.com/security/cve/CVE-2020-10933",
      "ID": "CVE-2020-10933"
    },
    {
      "Source": "CVE",
      "URI": "https://access.redhat.com/security/cve/CVE-2020-25613",
      "ID": "CVE-2020-25613"
    },
    {
      "Source": "CVE",
      "URI": "https://access.redhat.com/security/cve/CVE-2021-28965",
      "ID": "CVE-2021-28965"
    }
  ],
  "Criteria": {
    "Operator": "OR",
    "Criterias": [
      {
        "Operator": "AND",
        "Criterias": [
          {
            "Operator": "OR",
            "Criterias": [

            ],
            "Criterions": [
              {
                "Comment": "Oracle Linux 8 is installed"
              },
              {
                "Comment": "Red Hat CoreOS 4 is installed"
              }
            ]
          },
          {
            "Operator": "OR",
            "Criterias": [
              {
                "Operator": "AND",
                "Criterias": [
                  {
                    "Operator": "OR",
                    "Criterias": [
                      {
                        "Operator": "AND",
                        "Criterias": [

                        ],
                        "Criterions": [
                          {
                            "Comment": "ruby is earlier than 0:2.5.9-107.module+el8.4.0+10822+fe4fffb1"
                          },
                          {
                            "Comment": "ruby is signed with Red Hat redhatrelease2 key"
                          }
                        ]
                      },
                      {
                        "Operator": "AND",
                        "Criterias": [

                        ],
                        "Criterions": [
                          {
                            "Comment": "ruby-devel is earlier than 0:2.5.9-107.module+el8.4.0+10822+fe4fffb1"
                          },
                          {
                            "Comment": "ruby-devel is signed with Red Hat redhatrelease2 key"
                          }
                        ]
                      },
                      {
                        "Operator": "AND",
                        "Criterias": [

                        ],
                        "Criterions": [
                          {
                            "Comment": "ruby-doc is earlier than 0:2.5.9-107.module+el8.4.0+10822+fe4fffb1"
                          },
                          {
                            "Comment": "ruby-doc is signed with Red Hat redhatrelease2 key"
                          }
                        ]
                      },
                      {
                        "Operator": "AND",
                        "Criterias": [

                        ],
                        "Criterions": [
                          {
                            "Comment": "ruby-irb is earlier than 0:2.5.9-107.module+el8.4.0+10822+fe4fffb1"
                          },
                          {
                            "Comment": "ruby-irb is signed with Red Hat redhatrelease2 key"
                          }
                        ]
                      },
                      {
                        "Operator": "AND",
                        "Criterias": [

                        ],
                        "Criterions": [
                          {
                            "Comment": "ruby-libs is earlier than 0:2.5.9-107.module+el8.4.0+10822+fe4fffb1"
                          },
                          {
                            "Comment": "ruby-libs is signed with Red Hat redhatrelease2 key"
                          }
                        ]
                      },
                      {
                        "Operator": "AND",
                        "Criterias": [

                        ],
                        "Criterions": [
                          {
                            "Comment": "rubygem-abrt is earlier than 0:0.3.0-4.module+el8.1.0+3656+f80bfa1d"
                          },
                          {
                            "Comment": "rubygem-abrt is signed with Red Hat redhatrelease2 key"
                          }
                        ]
                      },
                      {
                        "Operator": "AND",
                        "Criterias": [

                        ],
                        "Criterions": [
                          {
                            "Comment": "rubygem-abrt-doc is earlier than 0:0.3.0-4.module+el8.1.0+3656+f80bfa1d"
                          },
                          {
                            "Comment": "rubygem-abrt-doc is signed with Red Hat redhatrelease2 key"
                          }
                        ]
                      },
                      {
                        "Operator": "AND",
                        "Criterias": [

                        ],
                        "Criterions": [
                          {
                            "Comment": "rubygem-bigdecimal is earlier than 0:1.3.4-107.module+el8.4.0+10822+fe4fffb1"
                          },
                          {
                            "Comment": "rubygem-bigdecimal is signed with Red Hat redhatrelease2 key"
                          }
                        ]
                      },
                      {
                        "Operator": "AND",
                        "Criterias": [

                        ],
                        "Criterions": [
                          {
                            "Comment": "rubygem-bson is earlier than 0:4.3.0-2.module+el8.1.0+3656+f80bfa1d"
                          },
                          {
                            "Comment": "rubygem-bson is signed with Red Hat redhatrelease2 key"
                          }
                        ]
                      },
                      {
                        "Operator": "AND",
                        "Criterias": [

                        ],
                        "Criterions": [
                          {
                            "Comment": "rubygem-bson-doc is earlier than 0:4.3.0-2.module+el8.1.0+3656+f80bfa1d"
                          },
                          {
                            "Comment": "rubygem-bson-doc is signed with Red Hat redhatrelease2 key"
                          }
                        ]
                      },
                      {
                        "Operator": "AND",
                        "Criterias": [

                        ],
                        "Criterions": [
                          {
                            "Comment": "rubygem-bundler is earlier than 0:1.16.1-3.module+el8.1.0+3656+f80bfa1d"
                          },
                          {
                            "Comment": "rubygem-bundler is signed with Red Hat redhatrelease2 key"
                          }
                        ]
                      },
                      {
                        "Operator": "AND",
                        "Criterias": [

                        ],
                        "Criterions": [
                          {
                            "Comment": "rubygem-bundler-doc is earlier than 0:1.16.1-3.module+el8.1.0+3656+f80bfa1d"
                          },
                          {
                            "Comment": "rubygem-bundler-doc is signed with Red Hat redhatrelease2 key"
                          }
                        ]
                      },
                      {
                        "Operator": "AND",
                        "Criterias": [

                        ],
                        "Criterions": [
                          {
                            "Comment": "rubygem-did_you_mean is earlier than 0:1.2.0-107.module+el8.4.0+10822+fe4fffb1"
                          },
                          {
                            "Comment": "rubygem-did_you_mean is signed with Red Hat redhatrelease2 key"
                          }
                        ]
                      },
                      {
                        "Operator": "AND",
                        "Criterias": [

                        ],
                        "Criterions": [
                          {
                            "Comment": "rubygem-io-console is earlier than 0:0.4.6-107.module+el8.4.0+10822+fe4fffb1"
                          },
                          {
                            "Comment": "rubygem-io-console is signed with Red Hat redhatrelease2 key"
                          }
                        ]
                      },
                      {
                        "Operator": "AND",
                        "Criterias": [

                        ],
                        "Criterions": [
                          {
                            "Comment": "rubygem-json is earlier than 0:2.1.0-107.module+el8.4.0+10822+fe4fffb1"
                          },
                          {
                            "Comment": "rubygem-json is signed with Red Hat redhatrelease2 key"
                          }
                        ]
                      },
                      {
                        "Operator": "AND",
                        "Criterias": [

                        ],
                        "Criterions": [
                          {
                            "Comment": "rubygem-minitest is earlier than 0:5.10.3-107.module+el8.4.0+10822+fe4fffb1"
                          },
                          {
                            "Comment": "rubygem-minitest is signed with Red Hat redhatrelease2 key"
                          }
                        ]
                      },
                      {
                        "Operator": "AND",
                        "Criterias": [

                        ],
                        "Criterions": [
                          {
                            "Comment": "rubygem-mongo is earlier than 0:2.5.1-2.module+el8.1.0+3656+f80bfa1d"
                          },
                          {
                            "Comment": "rubygem-mongo is signed with Red Hat redhatrelease2 key"
                          }
                        ]
                      },
                      {
                        "Operator": "AND",
                        "Criterias": [

                        ],
                        "Criterions": [
                          {
                            "Comment": "rubygem-mongo-doc is earlier than 0:2.5.1-2.module+el8.1.0+3656+f80bfa1d"
                          },
                          {
                            "Comment": "rubygem-mongo-doc is signed with Red Hat redhatrelease2 key"
                          }
                        ]
                      },
                      {
                        "Operator": "AND",
                        "Criterias": [

                        ],
                        "Criterions": [
                          {
                            "Comment": "rubygem-mysql2 is earlier than 0:0.4.10-4.module+el8.1.0+3656+f80bfa1d"
                          },
                          {
                            "Comment": "rubygem-mysql2 is signed with Red Hat redhatrelease2 key"
                          }
                        ]
                      },
                      {
                        "Operator": "AND",
                        "Criterias": [

                        ],
                        "Criterions": [
                          {
                            "Comment": "rubygem-mysql2-doc is earlier than 0:0.4.10-4.module+el8.1.0+3656+f80bfa1d"
                          },
                          {
                            "Comment": "rubygem-mysql2-doc is signed with Red Hat redhatrelease2 key"
                          }
                        ]
                      },
                      {
                        "Operator": "AND",
                        "Criterias": [

                        ],
                        "Criterions": [
                          {
                            "Comment": "rubygem-net-telnet is earlier than 0:0.1.1-107.module+el8.4.0+10822+fe4fffb1"
                          },
                          {
                            "Comment": "rubygem-net-telnet is signed with Red Hat redhatrelease2 key"
                          }
                        ]
                      },
                      {
                        "Operator": "AND",
                        "Criterias": [

                        ],
                        "Criterions": [
                          {
                            "Comment": "rubygem-openssl is earlier than 0:2.1.2-107.module+el8.4.0+10822+fe4fffb1"
                          },
                          {
                            "Comment": "rubygem-openssl is signed with Red Hat redhatrelease2 key"
                          }
                        ]
                      },
                      {
                        "Operator": "AND",
                        "Criterias": [

                        ],
                        "Criterions": [
                          {
                            "Comment": "rubygem-pg is earlier than 0:1.0.0-2.module+el8.1.0+3656+f80bfa1d"
                          },
                          {
                            "Comment": "rubygem-pg is signed with Red Hat redhatrelease2 key"
                          }
                        ]
                      },
                      {
                        "Operator": "AND",
                        "Criterias": [

                        ],
                        "Criterions": [
                          {
                            "Comment": "rubygem-pg-doc is earlier than 0:1.0.0-2.module+el8.1.0+3656+f80bfa1d"
                          },
                          {
                            "Comment": "rubygem-pg-doc is signed with Red Hat redhatrelease2 key"
                          }
                        ]
                      },
                      {
                        "Operator": "AND",
                        "Criterias": [

                        ],
                        "Criterions": [
                          {
                            "Comment": "rubygem-power_assert is earlier than 0:1.1.1-107.module+el8.4.0+10822+fe4fffb1"
                          },
                          {
                            "Comment": "rubygem-power_assert is signed with Red Hat redhatrelease2 key"
                          }
                        ]
                      },
                      {
                        "Operator": "AND",
                        "Criterias": [

                        ],
                        "Criterions": [
                          {
                            "Comment": "rubygem-psych is earlier than 0:3.0.2-107.module+el8.4.0+10822+fe4fffb1"
                          },
                          {
                            "Comment": "rubygem-psych is signed with Red Hat redhatrelease2 key"
                          }
                        ]
                      },
                      {
                        "Operator": "AND",
                        "Criterias": [

                        ],
                        "Criterions": [
                          {
                            "Comment": "rubygem-rake is earlier than 0:12.3.3-107.module+el8.4.0+10822+fe4fffb1"
                          },
                          {
                            "Comment": "rubygem-rake is signed with Red Hat redhatrelease2 key"
                          }
                        ]
                      },
                      {
                        "Operator": "AND",
                        "Criterias": [

                        ],
                        "Criterions": [
                          {
                            "Comment": "rubygem-rdoc is earlier than 0:6.0.1.1-107.module+el8.4.0+10822+fe4fffb1"
                          },
                          {
                            "Comment": "rubygem-rdoc is signed with Red Hat redhatrelease2 key"
                          }
                        ]
                      },
                      {
                        "Operator": "AND",
                        "Criterias": [

                        ],
                        "Criterions": [
                          {
                            "Comment": "rubygem-test-unit is earlier than 0:3.2.7-107.module+el8.4.0+10822+fe4fffb1"
                          },
                          {
                            "Comment": "rubygem-test-unit is signed with Red Hat redhatrelease2 key"
                          }
                        ]
                      },
                      {
                        "Operator": "AND",
                        "Criterias": [

                        ],
                        "Criterions": [
                          {
                            "Comment": "rubygem-xmlrpc is earlier than 0:0.3.0-107.module+el8.4.0+10822+fe4fffb1"
                          },
                          {
                            "Comment": "rubygem-xmlrpc is signed with Red Hat redhatrelease2 key"
                          }
                        ]
                      },
                      {
                        "Operator": "AND",
                        "Criterias": [

                        ],
                        "Criterions": [
                          {
                            "Comment": "rubygems is earlier than 0:2.7.6.3-107.module+el8.4.0+10822+fe4fffb1"
                          },
                          {
                            "Comment": "rubygems is signed with Red Hat redhatrelease2 key"
                          }
                        ]
                      },
                      {
                        "Operator": "AND",
                        "Criterias": [

                        ],
                        "Criterions": [
                          {
                            "Comment": "rubygems-devel is earlier than 0:2.7.6.3-107.module+el8.4.0+10822+fe4fffb1"
                          },
                          {
                            "Comment": "rubygems-devel is signed with Red Hat redhatrelease2 key"
                          }
                        ]
                      }
                    ],
                    "Criterions": [

                    ]
                  }
                ],
                "Criterions": [
                  {
                    "Comment": "Module ruby:2.5 is enabled"
                  }
                ]
              }
            ],
            "Criterions": [

            ]
          }
        ],
        "Criterions": [

        ]
      }
    ],
    "Criterions": [
      {
        "Comment": "Oracle Linux 8 is installed"
      }
    ]
  },
  "Severity": "Moderate",
  "Cves": [
    {
      "Impact": "",
      "Href": "",
      "ID": "CVE-2019-15845"
    },
    {
      "Impact": "",
      "Href": "",
      "ID": "CVE-2019-16201"
    },
    {
      "Impact": "",
      "Href": "",
      "ID": "CVE-2019-16254"
    },
    {
      "Impact": "",
      "Href": "",
      "ID": "CVE-2019-16255"
    },
    {
      "Impact": "",
      "Href": "",
      "ID": "CVE-2020-10663"
    },
    {
      "Impact": "",
      "Href": "",
      "ID": "CVE-2020-10933"
    },
    {
      "Impact": "",
      "Href": "",
      "ID": "CVE-2020-25613"
    },
    {
      "Impact": "",
      "Href": "",
      "ID": "CVE-2021-28965"
    }
  ],
  "Issued": {
    "Date": "2021-06-29"
  }
}