{
  "Title": "RHSA-2021:1024: openssl security update (Important)",
  "Description": "OpenSSL is a toolkit that implements the Secure Sockets Layer (SSL) and Transport Layer Security (TLS) protocols, as well as a full-strength general-purpose cryptography library.\nSecurity Fix(es):\n* openssl: NULL pointer dereference in signature_algorithms processing (CVE-2021-3449)\n* openssl: CA certificate check bypass with X509_V_FLAG_X509_STRICT (CVE-2021-3450)\nFor more details about the security issue(s), including the impact, a CVSS score, acknowledgments, and other related information, refer to the CVE page(s) listed in the References section.",
  "Platform": [
    "Red Hat Enterprise Linux 8"
  ],
  "References": [
    {
      "Source": "RHSA",
      "URI": "https://access.redhat.com/errata/RHSA-2021:1024",
      "ID": "RHSA-2021:1024"
    },
    {
      "Source": "CVE",
      "URI": "https://access.redhat.com/security/cve/CVE-2021-3449",
      "ID": "CVE-2021-3449"
    },
    {
      "Source": "CVE",
      "URI": "https://access.redhat.com/security/cve/CVE-2021-3450",
      "ID": "CVE-2021-3450"
    }
  ],
  "Criteria": {
    "Operator": "OR",
    "Criterias": [
      {
        "Operator": "AND",
        "Criterias": [
          {
            "Operator": "OR",
            "Criterias": [

            ],
            "Criterions": [
              {
                "Comment": "Oracle Linux 8 is installed"
              },
              {
                "Comment": "Red Hat CoreOS 4 is installed"
              }
            ]
          },
          {
            "Operator": "OR",
            "Criterias": [
              {
                "Operator": "AND",
                "Criterias": [

                ],
                "Criterions": [
                  {
                    "Comment": "openssl is earlier than 1:1.1.1g-15.el8_3"
                  },
                  {
                    "Comment": "openssl is signed with Red Hat redhatrelease2 key"
                  }
                ]
              },
              {
                "Operator": "AND",
                "Criterias": [

                ],
                "Criterions": [
                  {
                    "Comment": "openssl-devel is earlier than 1:1.1.1g-15.el8_3"
                  },
                  {
                    "Comment": "openssl-devel is signed with Red Hat redhatrelease2 key"
                  }
                ]
              },
              {
                "Operator": "AND",
                "Criterias": [

                ],
                "Criterions": [
                  {
                    "Comment": "openssl-libs is earlier than 1:1.1.1g-15.el8_3"
                  },
                  {
                    "Comment": "openssl-libs is signed with Red Hat redhatrelease2 key"
                  }
                ]
              },
              {
                "Operator": "AND",
                "Criterias": [

                ],
                "Criterions": [
                  {
                    "Comment": "openssl-perl is earlier than 1:1.1.1g-15.el8_3"
                  },
                  {
                    "Comment": "openssl-perl is signed with Red Hat redhatrelease2 key"
                  }
                ]
              }
            ],
            "Criterions": [

            ]
          }
        ],
        "Criterions": [

        ]
      }
    ],
    "Criterions": [
      {
        "Comment": "Oracle Linux 8 is installed"
      }
    ]
  },
  "Severity": "Important",
  "Cves": [
    {
      "Impact": "",
      "Href": "",
      "ID": "CVE-2021-3449"
    },
    {
      "Impact": "",
      "Href": "",
      "ID": "CVE-2021-3450"
    }
  ],
  "Issued": {
    "Date": "2021-03-30"
  }
}