{
  "Title": "RHSA-2021:0736: java-1.8.0-ibm security update (Critical)",
  "Description": "IBM Java SE version 8 includes the IBM Java Runtime Environment and the IBM Java Software Development Kit.\nThis update upgrades IBM Java SE 8 to version 8 SR6-FP25.\nSecurity Fix(es):\n* IBM JDK: Stack-based buffer overflow when converting from UTF-8 characters to platform encoding (CVE-2020-27221)\n* OpenJDK: Unexpected exceptions raised by DOMKeyInfoFactory and DOMXMLSignatureFactory (Security, 8231415) (CVE-2020-2773)\n* OpenJDK: Credentials sent over unencrypted LDAP connection (JNDI, 8237990) (CVE-2020-14781)\n* OpenJDK: Certificate blacklist bypass via alternate certificate encodings (Libraries, 8237995) (CVE-2020-14782)\n* OpenJDK: Race condition in NIO Buffer boundary checks (Libraries, 8244136) (CVE-2020-14803)\nFor more details about the security issue(s), including the impact, a CVSS score, acknowledgments, and other related information, refer to the CVE page(s) listed in the References section.",
  "Platform": [
    "Red Hat Enterprise Linux 8"
  ],
  "References": [
    {
      "Source": "RHSA",
      "URI": "https://access.redhat.com/errata/RHSA-2021:0736",
      "ID": "RHSA-2021:0736"
    },
    {
      "Source": "CVE",
      "URI": "https://access.redhat.com/security/cve/CVE-2020-14781",
      "ID": "CVE-2020-14781"
    },
    {
      "Source": "CVE",
      "URI": "https://access.redhat.com/security/cve/CVE-2020-14782",
      "ID": "CVE-2020-14782"
    },
    {
      "Source": "CVE",
      "URI": "https://access.redhat.com/security/cve/CVE-2020-14803",
      "ID": "CVE-2020-14803"
    },
    {
      "Source": "CVE",
      "URI": "https://access.redhat.com/security/cve/CVE-2020-27221",
      "ID": "CVE-2020-27221"
    },
    {
      "Source": "CVE",
      "URI": "https://access.redhat.com/security/cve/CVE-2020-2773",
      "ID": "CVE-2020-2773"
    }
  ],
  "Criteria": {
    "Operator": "OR",
    "Criterias": [
      {
        "Operator": "AND",
        "Criterias": [
          {
            "Operator": "OR",
            "Criterias": [

            ],
            "Criterions": [
              {
                "Comment": "Oracle Linux 8 is installed"
              },
              {
                "Comment": "Red Hat CoreOS 4 is installed"
              }
            ]
          },
          {
            "Operator": "OR",
            "Criterias": [
              {
                "Operator": "AND",
                "Criterias": [

                ],
                "Criterions": [
                  {
                    "Comment": "java-1.8.0-ibm is earlier than 1:1.8.0.6.25-2.el8_3"
                  },
                  {
                    "Comment": "java-1.8.0-ibm is signed with Red Hat redhatrelease2 key"
                  }
                ]
              },
              {
                "Operator": "AND",
                "Criterias": [

                ],
                "Criterions": [
                  {
                    "Comment": "java-1.8.0-ibm-demo is earlier than 1:1.8.0.6.25-2.el8_3"
                  },
                  {
                    "Comment": "java-1.8.0-ibm-demo is signed with Red Hat redhatrelease2 key"
                  }
                ]
              },
              {
                "Operator": "AND",
                "Criterias": [

                ],
                "Criterions": [
                  {
                    "Comment": "java-1.8.0-ibm-devel is earlier than 1:1.8.0.6.25-2.el8_3"
                  },
                  {
                    "Comment": "java-1.8.0-ibm-devel is signed with Red Hat redhatrelease2 key"
                  }
                ]
              },
              {
                "Operator": "AND",
                "Criterias": [

                ],
                "Criterions": [
                  {
                    "Comment": "java-1.8.0-ibm-headless is earlier than 1:1.8.0.6.25-2.el8_3"
                  },
                  {
                    "Comment": "java-1.8.0-ibm-headless is signed with Red Hat redhatrelease2 key"
                  }
                ]
              },
              {
                "Operator": "AND",
                "Criterias": [

                ],
                "Criterions": [
                  {
                    "Comment": "java-1.8.0-ibm-jdbc is earlier than 1:1.8.0.6.25-2.el8_3"
                  },
                  {
                    "Comment": "java-1.8.0-ibm-jdbc is signed with Red Hat redhatrelease2 key"
                  }
                ]
              },
              {
                "Operator": "AND",
                "Criterias": [

                ],
                "Criterions": [
                  {
                    "Comment": "java-1.8.0-ibm-plugin is earlier than 1:1.8.0.6.25-2.el8_3"
                  },
                  {
                    "Comment": "java-1.8.0-ibm-plugin is signed with Red Hat redhatrelease2 key"
                  }
                ]
              },
              {
                "Operator": "AND",
                "Criterias": [

                ],
                "Criterions": [
                  {
                    "Comment": "java-1.8.0-ibm-src is earlier than 1:1.8.0.6.25-2.el8_3"
                  },
                  {
                    "Comment": "java-1.8.0-ibm-src is signed with Red Hat redhatrelease2 key"
                  }
                ]
              },
              {
                "Operator": "AND",
                "Criterias": [

                ],
                "Criterions": [
                  {
                    "Comment": "java-1.8.0-ibm-webstart is earlier than 1:1.8.0.6.25-2.el8_3"
                  },
                  {
                    "Comment": "java-1.8.0-ibm-webstart is signed with Red Hat redhatrelease2 key"
                  }
                ]
              }
            ],
            "Criterions": [

            ]
          }
        ],
        "Criterions": [

        ]
      }
    ],
    "Criterions": [
      {
        "Comment": "Oracle Linux 8 is installed"
      }
    ]
  },
  "Severity": "Critical",
  "Cves": [
    {
      "Impact": "",
      "Href": "",
      "ID": "CVE-2020-14781"
    },
    {
      "Impact": "",
      "Href": "",
      "ID": "CVE-2020-14782"
    },
    {
      "Impact": "",
      "Href": "",
      "ID": "CVE-2020-14803"
    },
    {
      "Impact": "",
      "Href": "",
      "ID": "CVE-2020-27221"
    },
    {
      "Impact": "",
      "Href": "",
      "ID": "CVE-2020-2773"
    }
  ],
  "Issued": {
    "Date": "2021-03-04"
  }
}