{
  "Title": "RHSA-2021:4158: python-lxml security update (Moderate)",
  "Description": "lxml is an XML processing library providing access to libxml2 and libxslt libraries using the Python ElementTree API. \nSecurity Fix(es):\n* python-lxml: Missing input sanitization for formaction HTML5 attributes may lead to XSS (CVE-2021-28957)\nFor more details about the security issue(s), including the impact, a CVSS score, acknowledgments, and other related information, refer to the CVE page(s) listed in the References section.\nAdditional Changes:\nFor detailed information on changes in this release, see the Red Hat Enterprise Linux 8.5 Release Notes linked from the References section.",
  "Platform": [
    "Red Hat Enterprise Linux 8"
  ],
  "References": [
    {
      "Source": "RHSA",
      "URI": "https://access.redhat.com/errata/RHSA-2021:4158",
      "ID": "RHSA-2021:4158"
    },
    {
      "Source": "CVE",
      "URI": "https://access.redhat.com/security/cve/CVE-2021-28957",
      "ID": "CVE-2021-28957"
    }
  ],
  "Criteria": {
    "Operator": "OR",
    "Criterias": [
      {
        "Operator": "AND",
        "Criterias": [
          {
            "Operator": "OR",
            "Criterias": [

            ],
            "Criterions": [
              {
                "Comment": "Oracle Linux 8 is installed"
              },
              {
                "Comment": "Red Hat CoreOS 4 is installed"
              }
            ]
          }
        ],
        "Criterions": [
          {
            "Comment": "python3-lxml is earlier than 0:4.2.3-3.el8"
          },
          {
            "Comment": "python3-lxml is signed with Red Hat redhatrelease2 key"
          }
        ]
      }
    ],
    "Criterions": [
      {
        "Comment": "Oracle Linux 8 is installed"
      }
    ]
  },
  "Severity": "Moderate",
  "Cves": [
    {
      "Impact": "",
      "Href": "",
      "ID": "CVE-2021-28957"
    }
  ],
  "Issued": {
    "Date": "2021-11-09"
  }
}