{
  "Title": "RHSA-2021:3327: kernel security and bug fix update (Important)",
  "Description": "The kernel packages contain the Linux kernel, the core of any Linux operating system.\nSecurity Fix(es):\n* kernel: out-of-bounds write in xt_compat_target_from_user() in net/netfilter/x_tables.c (CVE-2021-22555)\n* kernel: race condition for removal of the HCI controller (CVE-2021-32399)\n* kernel: powerpc: RTAS calls can be used to compromise kernel integrity (CVE-2020-27777)\n* kernel: Local privilege escalation due to incorrect BPF JIT branch displacement computation (CVE-2021-29154)\n* kernel: lack a full memory barrier upon the assignment of a new table value in net/netfilter/x_tables.c and include/linux/netfilter/x_tables.h may lead to DoS (CVE-2021-29650)\nFor more details about the security issue(s), including the impact, a CVSS score, acknowledgments, and other related information, refer to the CVE page(s) listed in the References section.\nBug Fix(es):\n* SAN Switch rebooted and caused (?) OpenStack compute node to reboot (BZ#1897576)\n* sysfs: cannot create duplicate filename '/class/mdio_bus/ixgbe-8100 (BZ#1915449)\n* XFS: read-only recovery does not update free space accounting in superblock (BZ#1921551)\n* The memcg_params field of kmem_cache struct contains an old slab address that is to small for the current size of memcg_limited_groups_array_size. (BZ#1951810)\n* Backport of upstream patch \"net: Update window_clamp if SOCK_RCVBUF is set \" into rhel-7 (BZ#1962196)\n* Kernel panic in init_cq_frag_buf (BZ#1962499)\n* futex: futex_requeue can potentially free the pi_state structure twice (BZ#1966856)\n* be_poll lockup doing ifenslave when netconsole using bond (BZ#1971744)\n* OCP4.7 nodes panic at BUG_ON in nf_nat_setup_info() (BZ#1972970)",
  "Platform": [
    "Red Hat Enterprise Linux 7"
  ],
  "References": [
    {
      "Source": "RHSA",
      "URI": "https://access.redhat.com/errata/RHSA-2021:3327",
      "ID": "RHSA-2021:3327"
    },
    {
      "Source": "CVE",
      "URI": "https://access.redhat.com/security/cve/CVE-2020-27777",
      "ID": "CVE-2020-27777"
    },
    {
      "Source": "CVE",
      "URI": "https://access.redhat.com/security/cve/CVE-2021-22555",
      "ID": "CVE-2021-22555"
    },
    {
      "Source": "CVE",
      "URI": "https://access.redhat.com/security/cve/CVE-2021-29154",
      "ID": "CVE-2021-29154"
    },
    {
      "Source": "CVE",
      "URI": "https://access.redhat.com/security/cve/CVE-2021-29650",
      "ID": "CVE-2021-29650"
    },
    {
      "Source": "CVE",
      "URI": "https://access.redhat.com/security/cve/CVE-2021-32399",
      "ID": "CVE-2021-32399"
    }
  ],
  "Criteria": {
    "Operator": "OR",
    "Criterias": [
      {
        "Operator": "AND",
        "Criterias": [
          {
            "Operator": "OR",
            "Criterias": [

            ],
            "Criterions": [
              {
                "Comment": "kernel earlier than 0:3.10.0-1160.41.1.el7 is currently running"
              },
              {
                "Comment": "kernel earlier than 0:3.10.0-1160.41.1.el7 is set to boot up on next boot"
              }
            ]
          },
          {
            "Operator": "OR",
            "Criterias": [
              {
                "Operator": "AND",
                "Criterias": [

                ],
                "Criterions": [
                  {
                    "Comment": "bpftool is earlier than 0:3.10.0-1160.41.1.el7"
                  },
                  {
                    "Comment": "bpftool is signed with Red Hat redhatrelease2 key"
                  }
                ]
              },
              {
                "Operator": "AND",
                "Criterias": [

                ],
                "Criterions": [
                  {
                    "Comment": "kernel is earlier than 0:3.10.0-1160.41.1.el7"
                  },
                  {
                    "Comment": "kernel is signed with Red Hat redhatrelease2 key"
                  }
                ]
              },
              {
                "Operator": "AND",
                "Criterias": [

                ],
                "Criterions": [
                  {
                    "Comment": "kernel-abi-whitelists is earlier than 0:3.10.0-1160.41.1.el7"
                  },
                  {
                    "Comment": "kernel-abi-whitelists is signed with Red Hat redhatrelease2 key"
                  }
                ]
              },
              {
                "Operator": "AND",
                "Criterias": [

                ],
                "Criterions": [
                  {
                    "Comment": "kernel-bootwrapper is earlier than 0:3.10.0-1160.41.1.el7"
                  },
                  {
                    "Comment": "kernel-bootwrapper is signed with Red Hat redhatrelease2 key"
                  }
                ]
              },
              {
                "Operator": "AND",
                "Criterias": [

                ],
                "Criterions": [
                  {
                    "Comment": "kernel-debug is earlier than 0:3.10.0-1160.41.1.el7"
                  },
                  {
                    "Comment": "kernel-debug is signed with Red Hat redhatrelease2 key"
                  }
                ]
              },
              {
                "Operator": "AND",
                "Criterias": [

                ],
                "Criterions": [
                  {
                    "Comment": "kernel-debug-devel is earlier than 0:3.10.0-1160.41.1.el7"
                  },
                  {
                    "Comment": "kernel-debug-devel is signed with Red Hat redhatrelease2 key"
                  }
                ]
              },
              {
                "Operator": "AND",
                "Criterias": [

                ],
                "Criterions": [
                  {
                    "Comment": "kernel-devel is earlier than 0:3.10.0-1160.41.1.el7"
                  },
                  {
                    "Comment": "kernel-devel is signed with Red Hat redhatrelease2 key"
                  }
                ]
              },
              {
                "Operator": "AND",
                "Criterias": [

                ],
                "Criterions": [
                  {
                    "Comment": "kernel-doc is earlier than 0:3.10.0-1160.41.1.el7"
                  },
                  {
                    "Comment": "kernel-doc is signed with Red Hat redhatrelease2 key"
                  }
                ]
              },
              {
                "Operator": "AND",
                "Criterias": [

                ],
                "Criterions": [
                  {
                    "Comment": "kernel-kdump is earlier than 0:3.10.0-1160.41.1.el7"
                  },
                  {
                    "Comment": "kernel-kdump is signed with Red Hat redhatrelease2 key"
                  }
                ]
              },
              {
                "Operator": "AND",
                "Criterias": [

                ],
                "Criterions": [
                  {
                    "Comment": "kernel-kdump-devel is earlier than 0:3.10.0-1160.41.1.el7"
                  },
                  {
                    "Comment": "kernel-kdump-devel is signed with Red Hat redhatrelease2 key"
                  }
                ]
              },
              {
                "Operator": "AND",
                "Criterias": [

                ],
                "Criterions": [
                  {
                    "Comment": "kernel-tools is earlier than 0:3.10.0-1160.41.1.el7"
                  },
                  {
                    "Comment": "kernel-tools is signed with Red Hat redhatrelease2 key"
                  }
                ]
              },
              {
                "Operator": "AND",
                "Criterias": [

                ],
                "Criterions": [
                  {
                    "Comment": "kernel-tools-libs is earlier than 0:3.10.0-1160.41.1.el7"
                  },
                  {
                    "Comment": "kernel-tools-libs is signed with Red Hat redhatrelease2 key"
                  }
                ]
              },
              {
                "Operator": "AND",
                "Criterias": [

                ],
                "Criterions": [
                  {
                    "Comment": "kernel-tools-libs-devel is earlier than 0:3.10.0-1160.41.1.el7"
                  },
                  {
                    "Comment": "kernel-tools-libs-devel is signed with Red Hat redhatrelease2 key"
                  }
                ]
              },
              {
                "Operator": "AND",
                "Criterias": [

                ],
                "Criterions": [
                  {
                    "Comment": "perf is earlier than 0:3.10.0-1160.41.1.el7"
                  },
                  {
                    "Comment": "perf is signed with Red Hat redhatrelease2 key"
                  }
                ]
              },
              {
                "Operator": "AND",
                "Criterias": [

                ],
                "Criterions": [
                  {
                    "Comment": "python-perf is earlier than 0:3.10.0-1160.41.1.el7"
                  },
                  {
                    "Comment": "python-perf is signed with Red Hat redhatrelease2 key"
                  }
                ]
              }
            ],
            "Criterions": [

            ]
          }
        ],
        "Criterions": [
          {
            "Comment": "Oracle Linux 7 is installed"
          }
        ]
      }
    ],
    "Criterions": [
      {
        "Comment": "Oracle Linux 7 is installed"
      }
    ]
  },
  "Severity": "Important",
  "Cves": [
    {
      "Impact": "",
      "Href": "",
      "ID": "CVE-2020-27777"
    },
    {
      "Impact": "",
      "Href": "",
      "ID": "CVE-2021-22555"
    },
    {
      "Impact": "",
      "Href": "",
      "ID": "CVE-2021-29154"
    },
    {
      "Impact": "",
      "Href": "",
      "ID": "CVE-2021-29650"
    },
    {
      "Impact": "",
      "Href": "",
      "ID": "CVE-2021-32399"
    }
  ],
  "Issued": {
    "Date": "2021-08-31"
  }
}