{
  "Title": "RHSA-2021:4826: mailman:2.1 security update (Important)",
  "Description": "Mailman is a program used to help manage e-mail discussion lists.\nSecurity Fix(es):\n* mailman: CSRF token bypass allows to perform CSRF attacks and account takeover (CVE-2021-42097)\n* mailman: CSRF token derived from admin password allows offline brute-force attack (CVE-2021-42096)\nFor more details about the security issue(s), including the impact, a CVSS score, acknowledgments, and other related information, refer to the CVE page(s) listed in the References section.",
  "Platform": [
    "Red Hat Enterprise Linux 8"
  ],
  "References": [
    {
      "Source": "RHSA",
      "URI": "https://access.redhat.com/errata/RHSA-2021:4826",
      "ID": "RHSA-2021:4826"
    },
    {
      "Source": "CVE",
      "URI": "https://access.redhat.com/security/cve/CVE-2021-42096",
      "ID": "CVE-2021-42096"
    },
    {
      "Source": "CVE",
      "URI": "https://access.redhat.com/security/cve/CVE-2021-42097",
      "ID": "CVE-2021-42097"
    }
  ],
  "Criteria": {
    "Operator": "OR",
    "Criterias": [
      {
        "Operator": "AND",
        "Criterias": [
          {
            "Operator": "OR",
            "Criterias": [

            ],
            "Criterions": [
              {
                "Comment": "Oracle Linux 8 is installed"
              },
              {
                "Comment": "Red Hat CoreOS 4 is installed"
              }
            ]
          },
          {
            "Operator": "OR",
            "Criterias": [
              {
                "Operator": "AND",
                "Criterias": [
                  {
                    "Operator": "AND",
                    "Criterias": [

                    ],
                    "Criterions": [
                      {
                        "Comment": "mailman is earlier than 3:2.1.29-12.module+el8.5.0+13211+e8845b76.1"
                      },
                      {
                        "Comment": "mailman is signed with Red Hat redhatrelease2 key"
                      }
                    ]
                  }
                ],
                "Criterions": [
                  {
                    "Comment": "Module mailman:2.1 is enabled"
                  }
                ]
              }
            ],
            "Criterions": [

            ]
          }
        ],
        "Criterions": [

        ]
      }
    ],
    "Criterions": [
      {
        "Comment": "Oracle Linux 8 is installed"
      }
    ]
  },
  "Severity": "Important",
  "Cves": [
    {
      "Impact": "",
      "Href": "",
      "ID": "CVE-2021-42096"
    },
    {
      "Impact": "",
      "Href": "",
      "ID": "CVE-2021-42097"
    }
  ],
  "Issued": {
    "Date": "2021-11-23"
  }
}