{
  "Title": "RHSA-2021:1775: pki-core:10.6 and pki-deps:10.6 security, bug fix, and enhancement update (Moderate)",
  "Description": "The Public Key Infrastructure (PKI) Core contains fundamental packages required by Red Hat Certificate System.\nSecurity Fix(es):\n* resteasy: Improper validation of response header in MediaTypeHeaderDelegate.java class (CVE-2020-1695)\nFor more details about the security issue(s), including the impact, a CVSS score, acknowledgments, and other related information, refer to the CVE page(s) listed in the References section.\nAdditional Changes:\nFor detailed information on changes in this release, see the Red Hat Enterprise Linux 8.4 Release Notes linked from the References section.",
  "Platform": [
    "Red Hat Enterprise Linux 8"
  ],
  "References": [
    {
      "Source": "RHSA",
      "URI": "https://access.redhat.com/errata/RHSA-2021:1775",
      "ID": "RHSA-2021:1775"
    },
    {
      "Source": "CVE",
      "URI": "https://access.redhat.com/security/cve/CVE-2020-1695",
      "ID": "CVE-2020-1695"
    }
  ],
  "Criteria": {
    "Operator": "OR",
    "Criterias": [
      {
        "Operator": "AND",
        "Criterias": [
          {
            "Operator": "OR",
            "Criterias": [

            ],
            "Criterions": [
              {
                "Comment": "Oracle Linux 8 is installed"
              },
              {
                "Comment": "Red Hat CoreOS 4 is installed"
              }
            ]
          },
          {
            "Operator": "OR",
            "Criterias": [
              {
                "Operator": "AND",
                "Criterias": [
                  {
                    "Operator": "OR",
                    "Criterias": [
                      {
                        "Operator": "AND",
                        "Criterias": [

                        ],
                        "Criterions": [
                          {
                            "Comment": "apache-commons-collections is earlier than 0:3.2.2-10.module+el8.1.0+3366+6dfb954c"
                          },
                          {
                            "Comment": "apache-commons-collections is signed with Red Hat redhatrelease2 key"
                          }
                        ]
                      },
                      {
                        "Operator": "AND",
                        "Criterias": [

                        ],
                        "Criterions": [
                          {
                            "Comment": "apache-commons-lang is earlier than 0:2.6-21.module+el8.1.0+3366+6dfb954c"
                          },
                          {
                            "Comment": "apache-commons-lang is signed with Red Hat redhatrelease2 key"
                          }
                        ]
                      },
                      {
                        "Operator": "AND",
                        "Criterias": [

                        ],
                        "Criterions": [
                          {
                            "Comment": "apache-commons-net is earlier than 0:3.6-3.module+el8.3.0+6805+72837426"
                          },
                          {
                            "Comment": "apache-commons-net is signed with Red Hat redhatrelease2 key"
                          }
                        ]
                      },
                      {
                        "Operator": "AND",
                        "Criterias": [

                        ],
                        "Criterions": [
                          {
                            "Comment": "bea-stax-api is earlier than 0:1.2.0-16.module+el8.1.0+3366+6dfb954c"
                          },
                          {
                            "Comment": "bea-stax-api is signed with Red Hat redhatrelease2 key"
                          }
                        ]
                      },
                      {
                        "Operator": "AND",
                        "Criterias": [

                        ],
                        "Criterions": [
                          {
                            "Comment": "glassfish-fastinfoset is earlier than 0:1.2.13-9.module+el8.1.0+3366+6dfb954c"
                          },
                          {
                            "Comment": "glassfish-fastinfoset is signed with Red Hat redhatrelease2 key"
                          }
                        ]
                      },
                      {
                        "Operator": "AND",
                        "Criterias": [

                        ],
                        "Criterions": [
                          {
                            "Comment": "glassfish-jaxb-api is earlier than 0:2.2.12-8.module+el8.1.0+3366+6dfb954c"
                          },
                          {
                            "Comment": "glassfish-jaxb-api is signed with Red Hat redhatrelease2 key"
                          }
                        ]
                      },
                      {
                        "Operator": "AND",
                        "Criterias": [

                        ],
                        "Criterions": [
                          {
                            "Comment": "glassfish-jaxb-core is earlier than 0:2.2.11-11.module+el8.1.0+3366+6dfb954c"
                          },
                          {
                            "Comment": "glassfish-jaxb-core is signed with Red Hat redhatrelease2 key"
                          }
                        ]
                      },
                      {
                        "Operator": "AND",
                        "Criterias": [

                        ],
                        "Criterions": [
                          {
                            "Comment": "glassfish-jaxb-runtime is earlier than 0:2.2.11-11.module+el8.1.0+3366+6dfb954c"
                          },
                          {
                            "Comment": "glassfish-jaxb-runtime is signed with Red Hat redhatrelease2 key"
                          }
                        ]
                      },
                      {
                        "Operator": "AND",
                        "Criterias": [

                        ],
                        "Criterions": [
                          {
                            "Comment": "glassfish-jaxb-txw2 is earlier than 0:2.2.11-11.module+el8.1.0+3366+6dfb954c"
                          },
                          {
                            "Comment": "glassfish-jaxb-txw2 is signed with Red Hat redhatrelease2 key"
                          }
                        ]
                      },
                      {
                        "Operator": "AND",
                        "Criterias": [

                        ],
                        "Criterions": [
                          {
                            "Comment": "jackson-annotations is earlier than 0:2.10.0-1.module+el8.2.0+5059+3eb3af25"
                          },
                          {
                            "Comment": "jackson-annotations is signed with Red Hat redhatrelease2 key"
                          }
                        ]
                      },
                      {
                        "Operator": "AND",
                        "Criterias": [

                        ],
                        "Criterions": [
                          {
                            "Comment": "jackson-core is earlier than 0:2.10.0-1.module+el8.2.0+5059+3eb3af25"
                          },
                          {
                            "Comment": "jackson-core is signed with Red Hat redhatrelease2 key"
                          }
                        ]
                      },
                      {
                        "Operator": "AND",
                        "Criterias": [

                        ],
                        "Criterions": [
                          {
                            "Comment": "jackson-databind is earlier than 0:2.10.0-1.module+el8.2.0+5059+3eb3af25"
                          },
                          {
                            "Comment": "jackson-databind is signed with Red Hat redhatrelease2 key"
                          }
                        ]
                      },
                      {
                        "Operator": "AND",
                        "Criterias": [

                        ],
                        "Criterions": [
                          {
                            "Comment": "jackson-jaxrs-json-provider is earlier than 0:2.9.9-1.module+el8.1.0+3832+9784644d"
                          },
                          {
                            "Comment": "jackson-jaxrs-json-provider is signed with Red Hat redhatrelease2 key"
                          }
                        ]
                      },
                      {
                        "Operator": "AND",
                        "Criterias": [

                        ],
                        "Criterions": [
                          {
                            "Comment": "jackson-jaxrs-providers is earlier than 0:2.9.9-1.module+el8.1.0+3832+9784644d"
                          },
                          {
                            "Comment": "jackson-jaxrs-providers is signed with Red Hat redhatrelease2 key"
                          }
                        ]
                      },
                      {
                        "Operator": "AND",
                        "Criterias": [

                        ],
                        "Criterions": [
                          {
                            "Comment": "jackson-module-jaxb-annotations is earlier than 0:2.7.6-4.module+el8.1.0+3366+6dfb954c"
                          },
                          {
                            "Comment": "jackson-module-jaxb-annotations is signed with Red Hat redhatrelease2 key"
                          }
                        ]
                      },
                      {
                        "Operator": "AND",
                        "Criterias": [

                        ],
                        "Criterions": [
                          {
                            "Comment": "jakarta-commons-httpclient is earlier than 1:3.1-28.module+el8.1.0+3366+6dfb954c"
                          },
                          {
                            "Comment": "jakarta-commons-httpclient is signed with Red Hat redhatrelease2 key"
                          }
                        ]
                      },
                      {
                        "Operator": "AND",
                        "Criterias": [

                        ],
                        "Criterions": [
                          {
                            "Comment": "javassist is earlier than 0:3.18.1-8.module+el8.1.0+3366+6dfb954c"
                          },
                          {
                            "Comment": "javassist is signed with Red Hat redhatrelease2 key"
                          }
                        ]
                      },
                      {
                        "Operator": "AND",
                        "Criterias": [

                        ],
                        "Criterions": [
                          {
                            "Comment": "javassist-javadoc is earlier than 0:3.18.1-8.module+el8.1.0+3366+6dfb954c"
                          },
                          {
                            "Comment": "javassist-javadoc is signed with Red Hat redhatrelease2 key"
                          }
                        ]
                      },
                      {
                        "Operator": "AND",
                        "Criterias": [

                        ],
                        "Criterions": [
                          {
                            "Comment": "pki-servlet-4.0-api is earlier than 1:9.0.30-1.module+el8.3.0+6730+8f9c6254"
                          },
                          {
                            "Comment": "pki-servlet-4.0-api is signed with Red Hat redhatrelease2 key"
                          }
                        ]
                      },
                      {
                        "Operator": "AND",
                        "Criterias": [

                        ],
                        "Criterions": [
                          {
                            "Comment": "pki-servlet-engine is earlier than 1:9.0.30-1.module+el8.3.0+6730+8f9c6254"
                          },
                          {
                            "Comment": "pki-servlet-engine is signed with Red Hat redhatrelease2 key"
                          }
                        ]
                      },
                      {
                        "Operator": "AND",
                        "Criterias": [

                        ],
                        "Criterions": [
                          {
                            "Comment": "python-nss-doc is earlier than 0:1.0.1-10.module+el8.1.0+3366+6dfb954c"
                          },
                          {
                            "Comment": "python-nss-doc is signed with Red Hat redhatrelease2 key"
                          }
                        ]
                      },
                      {
                        "Operator": "AND",
                        "Criterias": [

                        ],
                        "Criterions": [
                          {
                            "Comment": "python3-nss is earlier than 0:1.0.1-10.module+el8.1.0+3366+6dfb954c"
                          },
                          {
                            "Comment": "python3-nss is signed with Red Hat redhatrelease2 key"
                          }
                        ]
                      },
                      {
                        "Operator": "AND",
                        "Criterias": [

                        ],
                        "Criterions": [
                          {
                            "Comment": "relaxngDatatype is earlier than 0:2011.1-7.module+el8.1.0+3366+6dfb954c"
                          },
                          {
                            "Comment": "relaxngDatatype is signed with Red Hat redhatrelease2 key"
                          }
                        ]
                      },
                      {
                        "Operator": "AND",
                        "Criterias": [

                        ],
                        "Criterions": [
                          {
                            "Comment": "resteasy is earlier than 0:3.0.26-6.module+el8.4.0+8891+bb8828ef"
                          },
                          {
                            "Comment": "resteasy is signed with Red Hat redhatrelease2 key"
                          }
                        ]
                      },
                      {
                        "Operator": "AND",
                        "Criterias": [

                        ],
                        "Criterions": [
                          {
                            "Comment": "slf4j is earlier than 0:1.7.25-4.module+el8.1.0+3366+6dfb954c"
                          },
                          {
                            "Comment": "slf4j is signed with Red Hat redhatrelease2 key"
                          }
                        ]
                      },
                      {
                        "Operator": "AND",
                        "Criterias": [

                        ],
                        "Criterions": [
                          {
                            "Comment": "slf4j-jdk14 is earlier than 0:1.7.25-4.module+el8.1.0+3366+6dfb954c"
                          },
                          {
                            "Comment": "slf4j-jdk14 is signed with Red Hat redhatrelease2 key"
                          }
                        ]
                      },
                      {
                        "Operator": "AND",
                        "Criterias": [

                        ],
                        "Criterions": [
                          {
                            "Comment": "stax-ex is earlier than 0:1.7.7-8.module+el8.2.0+5723+4574fbff"
                          },
                          {
                            "Comment": "stax-ex is signed with Red Hat redhatrelease2 key"
                          }
                        ]
                      },
                      {
                        "Operator": "AND",
                        "Criterias": [

                        ],
                        "Criterions": [
                          {
                            "Comment": "velocity is earlier than 0:1.7-24.module+el8.1.0+3366+6dfb954c"
                          },
                          {
                            "Comment": "velocity is signed with Red Hat redhatrelease2 key"
                          }
                        ]
                      },
                      {
                        "Operator": "AND",
                        "Criterias": [

                        ],
                        "Criterions": [
                          {
                            "Comment": "xalan-j2 is earlier than 0:2.7.1-38.module+el8.1.0+3366+6dfb954c"
                          },
                          {
                            "Comment": "xalan-j2 is signed with Red Hat redhatrelease2 key"
                          }
                        ]
                      },
                      {
                        "Operator": "AND",
                        "Criterias": [

                        ],
                        "Criterions": [
                          {
                            "Comment": "xerces-j2 is earlier than 0:2.11.0-34.module+el8.1.0+3366+6dfb954c"
                          },
                          {
                            "Comment": "xerces-j2 is signed with Red Hat redhatrelease2 key"
                          }
                        ]
                      },
                      {
                        "Operator": "AND",
                        "Criterias": [

                        ],
                        "Criterions": [
                          {
                            "Comment": "xml-commons-apis is earlier than 0:1.4.01-25.module+el8.1.0+3366+6dfb954c"
                          },
                          {
                            "Comment": "xml-commons-apis is signed with Red Hat redhatrelease2 key"
                          }
                        ]
                      },
                      {
                        "Operator": "AND",
                        "Criterias": [

                        ],
                        "Criterions": [
                          {
                            "Comment": "xml-commons-resolver is earlier than 0:1.2-26.module+el8.1.0+3366+6dfb954c"
                          },
                          {
                            "Comment": "xml-commons-resolver is signed with Red Hat redhatrelease2 key"
                          }
                        ]
                      },
                      {
                        "Operator": "AND",
                        "Criterias": [

                        ],
                        "Criterions": [
                          {
                            "Comment": "xmlstreambuffer is earlier than 0:1.5.4-8.module+el8.2.0+5723+4574fbff"
                          },
                          {
                            "Comment": "xmlstreambuffer is signed with Red Hat redhatrelease2 key"
                          }
                        ]
                      },
                      {
                        "Operator": "AND",
                        "Criterias": [

                        ],
                        "Criterions": [
                          {
                            "Comment": "xsom is earlier than 0:0-19.20110809svn.module+el8.1.0+3366+6dfb954c"
                          },
                          {
                            "Comment": "xsom is signed with Red Hat redhatrelease2 key"
                          }
                        ]
                      }
                    ],
                    "Criterions": [

                    ]
                  }
                ],
                "Criterions": [
                  {
                    "Comment": "Module pki-deps:10.6 is enabled"
                  }
                ]
              },
              {
                "Operator": "AND",
                "Criterias": [
                  {
                    "Operator": "OR",
                    "Criterias": [
                      {
                        "Operator": "AND",
                        "Criterias": [

                        ],
                        "Criterions": [
                          {
                            "Comment": "jss is earlier than 0:4.8.1-2.module+el8.4.0+10451+3e5b5448"
                          },
                          {
                            "Comment": "jss is signed with Red Hat redhatrelease2 key"
                          }
                        ]
                      },
                      {
                        "Operator": "AND",
                        "Criterias": [

                        ],
                        "Criterions": [
                          {
                            "Comment": "jss-javadoc is earlier than 0:4.8.1-2.module+el8.4.0+10451+3e5b5448"
                          },
                          {
                            "Comment": "jss-javadoc is signed with Red Hat redhatrelease2 key"
                          }
                        ]
                      },
                      {
                        "Operator": "AND",
                        "Criterias": [

                        ],
                        "Criterions": [
                          {
                            "Comment": "ldapjdk is earlier than 0:4.22.0-1.module+el8.3.0+6784+6e1e4c62"
                          },
                          {
                            "Comment": "ldapjdk is signed with Red Hat redhatrelease2 key"
                          }
                        ]
                      },
                      {
                        "Operator": "AND",
                        "Criterias": [

                        ],
                        "Criterions": [
                          {
                            "Comment": "ldapjdk-javadoc is earlier than 0:4.22.0-1.module+el8.3.0+6784+6e1e4c62"
                          },
                          {
                            "Comment": "ldapjdk-javadoc is signed with Red Hat redhatrelease2 key"
                          }
                        ]
                      },
                      {
                        "Operator": "AND",
                        "Criterias": [

                        ],
                        "Criterions": [
                          {
                            "Comment": "pki-acme is earlier than 0:10.10.5-2.module+el8.4.0+10466+9830f79e"
                          },
                          {
                            "Comment": "pki-acme is signed with Red Hat redhatrelease2 key"
                          }
                        ]
                      },
                      {
                        "Operator": "AND",
                        "Criterias": [

                        ],
                        "Criterions": [
                          {
                            "Comment": "pki-base is earlier than 0:10.10.5-2.module+el8.4.0+10466+9830f79e"
                          },
                          {
                            "Comment": "pki-base is signed with Red Hat redhatrelease2 key"
                          }
                        ]
                      },
                      {
                        "Operator": "AND",
                        "Criterias": [

                        ],
                        "Criterions": [
                          {
                            "Comment": "pki-base-java is earlier than 0:10.10.5-2.module+el8.4.0+10466+9830f79e"
                          },
                          {
                            "Comment": "pki-base-java is signed with Red Hat redhatrelease2 key"
                          }
                        ]
                      },
                      {
                        "Operator": "AND",
                        "Criterias": [

                        ],
                        "Criterions": [
                          {
                            "Comment": "pki-ca is earlier than 0:10.10.5-2.module+el8.4.0+10466+9830f79e"
                          },
                          {
                            "Comment": "pki-ca is signed with Red Hat redhatrelease2 key"
                          }
                        ]
                      },
                      {
                        "Operator": "AND",
                        "Criterias": [

                        ],
                        "Criterions": [
                          {
                            "Comment": "pki-kra is earlier than 0:10.10.5-2.module+el8.4.0+10466+9830f79e"
                          },
                          {
                            "Comment": "pki-kra is signed with Red Hat redhatrelease2 key"
                          }
                        ]
                      },
                      {
                        "Operator": "AND",
                        "Criterias": [

                        ],
                        "Criterions": [
                          {
                            "Comment": "pki-server is earlier than 0:10.10.5-2.module+el8.4.0+10466+9830f79e"
                          },
                          {
                            "Comment": "pki-server is signed with Red Hat redhatrelease2 key"
                          }
                        ]
                      },
                      {
                        "Operator": "AND",
                        "Criterias": [

                        ],
                        "Criterions": [
                          {
                            "Comment": "pki-symkey is earlier than 0:10.10.5-2.module+el8.4.0+10466+9830f79e"
                          },
                          {
                            "Comment": "pki-symkey is signed with Red Hat redhatrelease2 key"
                          }
                        ]
                      },
                      {
                        "Operator": "AND",
                        "Criterias": [

                        ],
                        "Criterions": [
                          {
                            "Comment": "pki-tools is earlier than 0:10.10.5-2.module+el8.4.0+10466+9830f79e"
                          },
                          {
                            "Comment": "pki-tools is signed with Red Hat redhatrelease2 key"
                          }
                        ]
                      },
                      {
                        "Operator": "AND",
                        "Criterias": [

                        ],
                        "Criterions": [
                          {
                            "Comment": "python3-pki is earlier than 0:10.10.5-2.module+el8.4.0+10466+9830f79e"
                          },
                          {
                            "Comment": "python3-pki is signed with Red Hat redhatrelease2 key"
                          }
                        ]
                      },
                      {
                        "Operator": "AND",
                        "Criterias": [

                        ],
                        "Criterions": [
                          {
                            "Comment": "tomcatjss is earlier than 0:7.6.1-1.module+el8.4.0+8778+d07929ff"
                          },
                          {
                            "Comment": "tomcatjss is signed with Red Hat redhatrelease2 key"
                          }
                        ]
                      }
                    ],
                    "Criterions": [

                    ]
                  }
                ],
                "Criterions": [
                  {
                    "Comment": "Module pki-core:10.6 is enabled"
                  }
                ]
              }
            ],
            "Criterions": [

            ]
          }
        ],
        "Criterions": [

        ]
      }
    ],
    "Criterions": [
      {
        "Comment": "Oracle Linux 8 is installed"
      }
    ]
  },
  "Severity": "Moderate",
  "Cves": [
    {
      "Impact": "",
      "Href": "",
      "ID": "CVE-2020-1695"
    }
  ],
  "Issued": {
    "Date": "2021-05-18"
  }
}