{
  "Title": "RHSA-2021:3623: nodejs:12 security and bug fix update (Important)",
  "Description": "Node.js is a software development platform for building fast and scalable network applications in the JavaScript programming language. \nSecurity Fix(es):\n* nodejs: Use-after-free on close http2 on stream canceling (CVE-2021-22930)\n* nodejs: Use-after-free on close http2 on stream canceling (CVE-2021-22940)\n* c-ares: Missing input validation of host names may lead to domain hijacking (CVE-2021-3672)\n* nodejs: Improper handling of untypical characters in domain names (CVE-2021-22931)\n* nodejs-tar: Insufficient symlink protection allowing arbitrary file creation and overwrite (CVE-2021-32803)\n* nodejs-tar: Insufficient absolute path sanitization allowing arbitrary file creation and overwrite (CVE-2021-32804)\n* nodejs: Incomplete validation of tls rejectUnauthorized parameter (CVE-2021-22939)\n* nodejs-path-parse: ReDoS via splitDeviceRe, splitTailRe and splitPathRe (CVE-2021-23343)\nFor more details about the security issue(s), including the impact, a CVSS score, acknowledgments, and other related information, refer to the CVE page(s) listed in the References section.\nBug Fix(es):\n* nodejs:12/nodejs: Make FIPS options always available (BZ#1993927)",
  "Platform": [
    "Red Hat Enterprise Linux 8"
  ],
  "References": [
    {
      "Source": "RHSA",
      "URI": "https://access.redhat.com/errata/RHSA-2021:3623",
      "ID": "RHSA-2021:3623"
    },
    {
      "Source": "CVE",
      "URI": "https://access.redhat.com/security/cve/CVE-2021-22930",
      "ID": "CVE-2021-22930"
    },
    {
      "Source": "CVE",
      "URI": "https://access.redhat.com/security/cve/CVE-2021-22931",
      "ID": "CVE-2021-22931"
    },
    {
      "Source": "CVE",
      "URI": "https://access.redhat.com/security/cve/CVE-2021-22939",
      "ID": "CVE-2021-22939"
    },
    {
      "Source": "CVE",
      "URI": "https://access.redhat.com/security/cve/CVE-2021-22940",
      "ID": "CVE-2021-22940"
    },
    {
      "Source": "CVE",
      "URI": "https://access.redhat.com/security/cve/CVE-2021-23343",
      "ID": "CVE-2021-23343"
    },
    {
      "Source": "CVE",
      "URI": "https://access.redhat.com/security/cve/CVE-2021-32803",
      "ID": "CVE-2021-32803"
    },
    {
      "Source": "CVE",
      "URI": "https://access.redhat.com/security/cve/CVE-2021-32804",
      "ID": "CVE-2021-32804"
    },
    {
      "Source": "CVE",
      "URI": "https://access.redhat.com/security/cve/CVE-2021-3672",
      "ID": "CVE-2021-3672"
    }
  ],
  "Criteria": {
    "Operator": "OR",
    "Criterias": [
      {
        "Operator": "AND",
        "Criterias": [
          {
            "Operator": "OR",
            "Criterias": [

            ],
            "Criterions": [
              {
                "Comment": "Oracle Linux 8 is installed"
              },
              {
                "Comment": "Red Hat CoreOS 4 is installed"
              }
            ]
          },
          {
            "Operator": "OR",
            "Criterias": [
              {
                "Operator": "AND",
                "Criterias": [
                  {
                    "Operator": "OR",
                    "Criterias": [
                      {
                        "Operator": "AND",
                        "Criterias": [

                        ],
                        "Criterions": [
                          {
                            "Comment": "nodejs is earlier than 1:12.22.5-1.module+el8.4.0+12242+af52a4c7"
                          },
                          {
                            "Comment": "nodejs is signed with Red Hat redhatrelease2 key"
                          }
                        ]
                      },
                      {
                        "Operator": "AND",
                        "Criterias": [

                        ],
                        "Criterions": [
                          {
                            "Comment": "nodejs-devel is earlier than 1:12.22.5-1.module+el8.4.0+12242+af52a4c7"
                          },
                          {
                            "Comment": "nodejs-devel is signed with Red Hat redhatrelease2 key"
                          }
                        ]
                      },
                      {
                        "Operator": "AND",
                        "Criterias": [

                        ],
                        "Criterions": [
                          {
                            "Comment": "nodejs-docs is earlier than 1:12.22.5-1.module+el8.4.0+12242+af52a4c7"
                          },
                          {
                            "Comment": "nodejs-docs is signed with Red Hat redhatrelease2 key"
                          }
                        ]
                      },
                      {
                        "Operator": "AND",
                        "Criterias": [

                        ],
                        "Criterions": [
                          {
                            "Comment": "nodejs-full-i18n is earlier than 1:12.22.5-1.module+el8.4.0+12242+af52a4c7"
                          },
                          {
                            "Comment": "nodejs-full-i18n is signed with Red Hat redhatrelease2 key"
                          }
                        ]
                      },
                      {
                        "Operator": "AND",
                        "Criterias": [

                        ],
                        "Criterions": [
                          {
                            "Comment": "nodejs-nodemon is earlier than 0:2.0.3-1.module+el8.4.0+11732+c668cc9f"
                          },
                          {
                            "Comment": "nodejs-nodemon is signed with Red Hat redhatrelease2 key"
                          }
                        ]
                      },
                      {
                        "Operator": "AND",
                        "Criterias": [

                        ],
                        "Criterions": [
                          {
                            "Comment": "nodejs-packaging is earlier than 0:17-3.module+el8.1.0+3369+37ae6a45"
                          },
                          {
                            "Comment": "nodejs-packaging is signed with Red Hat redhatrelease2 key"
                          }
                        ]
                      },
                      {
                        "Operator": "AND",
                        "Criterias": [

                        ],
                        "Criterions": [
                          {
                            "Comment": "npm is earlier than 1:6.14.14-1.12.22.5.1.module+el8.4.0+12242+af52a4c7"
                          },
                          {
                            "Comment": "npm is signed with Red Hat redhatrelease2 key"
                          }
                        ]
                      }
                    ],
                    "Criterions": [

                    ]
                  }
                ],
                "Criterions": [
                  {
                    "Comment": "Module nodejs:12 is enabled"
                  }
                ]
              }
            ],
            "Criterions": [

            ]
          }
        ],
        "Criterions": [

        ]
      }
    ],
    "Criterions": [
      {
        "Comment": "Oracle Linux 8 is installed"
      }
    ]
  },
  "Severity": "Important",
  "Cves": [
    {
      "Impact": "",
      "Href": "",
      "ID": "CVE-2021-22930"
    },
    {
      "Impact": "",
      "Href": "",
      "ID": "CVE-2021-22931"
    },
    {
      "Impact": "",
      "Href": "",
      "ID": "CVE-2021-22939"
    },
    {
      "Impact": "",
      "Href": "",
      "ID": "CVE-2021-22940"
    },
    {
      "Impact": "",
      "Href": "",
      "ID": "CVE-2021-23343"
    },
    {
      "Impact": "",
      "Href": "",
      "ID": "CVE-2021-32803"
    },
    {
      "Impact": "",
      "Href": "",
      "ID": "CVE-2021-32804"
    },
    {
      "Impact": "",
      "Href": "",
      "ID": "CVE-2021-3672"
    }
  ],
  "Issued": {
    "Date": "2021-09-21"
  }
}