{
  "Title": "RHSA-2021:3338: hivex security update (Low)",
  "Description": "Hivex is a library that can read and write Hive files, undocumented binary files that Windows uses to store the Windows Registry on disk.\nSecurity Fix(es):\n* hivex: stack overflow due to recursive call of _get_children() (CVE-2021-3622)\nFor more details about the security issue(s), including the impact, a CVSS score, acknowledgments, and other related information, refer to the CVE page(s) listed in the References section.",
  "Platform": [
    "Red Hat Enterprise Linux 7"
  ],
  "References": [
    {
      "Source": "RHSA",
      "URI": "https://access.redhat.com/errata/RHSA-2021:3338",
      "ID": "RHSA-2021:3338"
    },
    {
      "Source": "CVE",
      "URI": "https://access.redhat.com/security/cve/CVE-2021-3622",
      "ID": "CVE-2021-3622"
    }
  ],
  "Criteria": {
    "Operator": "OR",
    "Criterias": [
      {
        "Operator": "AND",
        "Criterias": [
          {
            "Operator": "OR",
            "Criterias": [
              {
                "Operator": "AND",
                "Criterias": [

                ],
                "Criterions": [
                  {
                    "Comment": "hivex is earlier than 0:1.3.10-6.12.el7_9"
                  },
                  {
                    "Comment": "hivex is signed with Red Hat redhatrelease2 key"
                  }
                ]
              },
              {
                "Operator": "AND",
                "Criterias": [

                ],
                "Criterions": [
                  {
                    "Comment": "hivex-devel is earlier than 0:1.3.10-6.12.el7_9"
                  },
                  {
                    "Comment": "hivex-devel is signed with Red Hat redhatrelease2 key"
                  }
                ]
              },
              {
                "Operator": "AND",
                "Criterias": [

                ],
                "Criterions": [
                  {
                    "Comment": "ocaml-hivex is earlier than 0:1.3.10-6.12.el7_9"
                  },
                  {
                    "Comment": "ocaml-hivex is signed with Red Hat redhatrelease2 key"
                  }
                ]
              },
              {
                "Operator": "AND",
                "Criterias": [

                ],
                "Criterions": [
                  {
                    "Comment": "ocaml-hivex-devel is earlier than 0:1.3.10-6.12.el7_9"
                  },
                  {
                    "Comment": "ocaml-hivex-devel is signed with Red Hat redhatrelease2 key"
                  }
                ]
              },
              {
                "Operator": "AND",
                "Criterias": [

                ],
                "Criterions": [
                  {
                    "Comment": "perl-hivex is earlier than 0:1.3.10-6.12.el7_9"
                  },
                  {
                    "Comment": "perl-hivex is signed with Red Hat redhatrelease2 key"
                  }
                ]
              },
              {
                "Operator": "AND",
                "Criterias": [

                ],
                "Criterions": [
                  {
                    "Comment": "python-hivex is earlier than 0:1.3.10-6.12.el7_9"
                  },
                  {
                    "Comment": "python-hivex is signed with Red Hat redhatrelease2 key"
                  }
                ]
              },
              {
                "Operator": "AND",
                "Criterias": [

                ],
                "Criterions": [
                  {
                    "Comment": "ruby-hivex is earlier than 0:1.3.10-6.12.el7_9"
                  },
                  {
                    "Comment": "ruby-hivex is signed with Red Hat redhatrelease2 key"
                  }
                ]
              }
            ],
            "Criterions": [

            ]
          }
        ],
        "Criterions": [
          {
            "Comment": "Oracle Linux 7 is installed"
          }
        ]
      }
    ],
    "Criterions": [
      {
        "Comment": "Oracle Linux 7 is installed"
      }
    ]
  },
  "Severity": "Low",
  "Cves": [
    {
      "Impact": "",
      "Href": "",
      "ID": "CVE-2021-3622"
    }
  ],
  "Issued": {
    "Date": "2021-08-31"
  }
}