{
  "Title": "RHSA-2021:3057: kernel security, bug fix, and enhancement update (Important)",
  "Description": "The kernel packages contain the Linux kernel, the core of any Linux operating system.\nSecurity Fix(es):\n* kernel: race condition in net/can/bcm.c leads to local privilege escalation (CVE-2021-3609)\n* kernel: Improper handling of VM_IO|VM_PFNMAP vmas in KVM can bypass RO checks (CVE-2021-22543)\n* kernel: out-of-bounds write in xt_compat_target_from_user() in net/netfilter/x_tables.c (CVE-2021-22555)\nFor more details about the security issue(s), including the impact, a CVSS score, acknowledgments, and other related information, refer to the CVE page(s) listed in the References section.\nBug Fix(es):\n* Urgent: Missing dptf_power.ko module in RHEL8 (BZ#1968381)\n* [mlx5] kdump over NFS fails: mlx5 driver gives error \"Stop room 95 is bigger than the SQ size 64\" (BZ#1969909)\n* BUG: unable to handle kernel NULL pointer dereference at 0000000000000000 in bluetooth  hci_error_reset on intel-tigerlake-h01 (BZ#1972564)\n* Update CIFS to kernel 5.10 (BZ#1973637)\n* Backport \"tick/nohz: Conditionally restart tick on idle exit\" to RHEL 8.5 (BZ#1978710)\n* Significant performance drop starting on kernel-4.18.0-277 visible on mmap benchmark (BZ#1980314)\n* Inaccessible NFS server overloads clients (native_queued_spin_lock_slowpath connotation?) (BZ#1980613)\n* [RHEL8.4 BUG],RialtoMLK, I915 graphic driver failed to boot with one new 120HZ panel (BZ#1981250)\n* act_ct: subject to DNAT tuple collision (BZ#1982494)\nEnhancement(s):\n* [Lenovo 8.5 FEAT] drivers/nvme - Update to the latest upstream (BZ#1965415)",
  "Platform": [
    "Red Hat Enterprise Linux 8"
  ],
  "References": [
    {
      "Source": "RHSA",
      "URI": "https://access.redhat.com/errata/RHSA-2021:3057",
      "ID": "RHSA-2021:3057"
    },
    {
      "Source": "CVE",
      "URI": "https://access.redhat.com/security/cve/CVE-2021-22543",
      "ID": "CVE-2021-22543"
    },
    {
      "Source": "CVE",
      "URI": "https://access.redhat.com/security/cve/CVE-2021-22555",
      "ID": "CVE-2021-22555"
    },
    {
      "Source": "CVE",
      "URI": "https://access.redhat.com/security/cve/CVE-2021-3609",
      "ID": "CVE-2021-3609"
    }
  ],
  "Criteria": {
    "Operator": "OR",
    "Criterias": [
      {
        "Operator": "AND",
        "Criterias": [
          {
            "Operator": "OR",
            "Criterias": [

            ],
            "Criterions": [
              {
                "Comment": "Oracle Linux 8 is installed"
              },
              {
                "Comment": "Red Hat CoreOS 4 is installed"
              }
            ]
          },
          {
            "Operator": "OR",
            "Criterias": [

            ],
            "Criterions": [
              {
                "Comment": "kernel earlier than 0:4.18.0-305.12.1.el8_4 is currently running"
              },
              {
                "Comment": "kernel earlier than 0:4.18.0-305.12.1.el8_4 is set to boot up on next boot"
              }
            ]
          },
          {
            "Operator": "OR",
            "Criterias": [
              {
                "Operator": "AND",
                "Criterias": [

                ],
                "Criterions": [
                  {
                    "Comment": "bpftool is earlier than 0:4.18.0-305.12.1.el8_4"
                  },
                  {
                    "Comment": "bpftool is signed with Red Hat redhatrelease2 key"
                  }
                ]
              },
              {
                "Operator": "AND",
                "Criterias": [

                ],
                "Criterions": [
                  {
                    "Comment": "kernel is earlier than 0:4.18.0-305.12.1.el8_4"
                  },
                  {
                    "Comment": "kernel is signed with Red Hat redhatrelease2 key"
                  }
                ]
              },
              {
                "Operator": "AND",
                "Criterias": [

                ],
                "Criterions": [
                  {
                    "Comment": "kernel-abi-stablelists is earlier than 0:4.18.0-305.12.1.el8_4"
                  },
                  {
                    "Comment": "kernel-abi-stablelists is signed with Red Hat redhatrelease2 key"
                  }
                ]
              },
              {
                "Operator": "AND",
                "Criterias": [

                ],
                "Criterions": [
                  {
                    "Comment": "kernel-core is earlier than 0:4.18.0-305.12.1.el8_4"
                  },
                  {
                    "Comment": "kernel-core is signed with Red Hat redhatrelease2 key"
                  }
                ]
              },
              {
                "Operator": "AND",
                "Criterias": [

                ],
                "Criterions": [
                  {
                    "Comment": "kernel-cross-headers is earlier than 0:4.18.0-305.12.1.el8_4"
                  },
                  {
                    "Comment": "kernel-cross-headers is signed with Red Hat redhatrelease2 key"
                  }
                ]
              },
              {
                "Operator": "AND",
                "Criterias": [

                ],
                "Criterions": [
                  {
                    "Comment": "kernel-debug is earlier than 0:4.18.0-305.12.1.el8_4"
                  },
                  {
                    "Comment": "kernel-debug is signed with Red Hat redhatrelease2 key"
                  }
                ]
              },
              {
                "Operator": "AND",
                "Criterias": [

                ],
                "Criterions": [
                  {
                    "Comment": "kernel-debug-core is earlier than 0:4.18.0-305.12.1.el8_4"
                  },
                  {
                    "Comment": "kernel-debug-core is signed with Red Hat redhatrelease2 key"
                  }
                ]
              },
              {
                "Operator": "AND",
                "Criterias": [

                ],
                "Criterions": [
                  {
                    "Comment": "kernel-debug-devel is earlier than 0:4.18.0-305.12.1.el8_4"
                  },
                  {
                    "Comment": "kernel-debug-devel is signed with Red Hat redhatrelease2 key"
                  }
                ]
              },
              {
                "Operator": "AND",
                "Criterias": [

                ],
                "Criterions": [
                  {
                    "Comment": "kernel-debug-modules is earlier than 0:4.18.0-305.12.1.el8_4"
                  },
                  {
                    "Comment": "kernel-debug-modules is signed with Red Hat redhatrelease2 key"
                  }
                ]
              },
              {
                "Operator": "AND",
                "Criterias": [

                ],
                "Criterions": [
                  {
                    "Comment": "kernel-debug-modules-extra is earlier than 0:4.18.0-305.12.1.el8_4"
                  },
                  {
                    "Comment": "kernel-debug-modules-extra is signed with Red Hat redhatrelease2 key"
                  }
                ]
              },
              {
                "Operator": "AND",
                "Criterias": [

                ],
                "Criterions": [
                  {
                    "Comment": "kernel-devel is earlier than 0:4.18.0-305.12.1.el8_4"
                  },
                  {
                    "Comment": "kernel-devel is signed with Red Hat redhatrelease2 key"
                  }
                ]
              },
              {
                "Operator": "AND",
                "Criterias": [

                ],
                "Criterions": [
                  {
                    "Comment": "kernel-doc is earlier than 0:4.18.0-305.12.1.el8_4"
                  },
                  {
                    "Comment": "kernel-doc is signed with Red Hat redhatrelease2 key"
                  }
                ]
              },
              {
                "Operator": "AND",
                "Criterias": [

                ],
                "Criterions": [
                  {
                    "Comment": "kernel-headers is earlier than 0:4.18.0-305.12.1.el8_4"
                  },
                  {
                    "Comment": "kernel-headers is signed with Red Hat redhatrelease2 key"
                  }
                ]
              },
              {
                "Operator": "AND",
                "Criterias": [

                ],
                "Criterions": [
                  {
                    "Comment": "kernel-modules is earlier than 0:4.18.0-305.12.1.el8_4"
                  },
                  {
                    "Comment": "kernel-modules is signed with Red Hat redhatrelease2 key"
                  }
                ]
              },
              {
                "Operator": "AND",
                "Criterias": [

                ],
                "Criterions": [
                  {
                    "Comment": "kernel-modules-extra is earlier than 0:4.18.0-305.12.1.el8_4"
                  },
                  {
                    "Comment": "kernel-modules-extra is signed with Red Hat redhatrelease2 key"
                  }
                ]
              },
              {
                "Operator": "AND",
                "Criterias": [

                ],
                "Criterions": [
                  {
                    "Comment": "kernel-tools is earlier than 0:4.18.0-305.12.1.el8_4"
                  },
                  {
                    "Comment": "kernel-tools is signed with Red Hat redhatrelease2 key"
                  }
                ]
              },
              {
                "Operator": "AND",
                "Criterias": [

                ],
                "Criterions": [
                  {
                    "Comment": "kernel-tools-libs is earlier than 0:4.18.0-305.12.1.el8_4"
                  },
                  {
                    "Comment": "kernel-tools-libs is signed with Red Hat redhatrelease2 key"
                  }
                ]
              },
              {
                "Operator": "AND",
                "Criterias": [

                ],
                "Criterions": [
                  {
                    "Comment": "kernel-tools-libs-devel is earlier than 0:4.18.0-305.12.1.el8_4"
                  },
                  {
                    "Comment": "kernel-tools-libs-devel is signed with Red Hat redhatrelease2 key"
                  }
                ]
              },
              {
                "Operator": "AND",
                "Criterias": [

                ],
                "Criterions": [
                  {
                    "Comment": "kernel-zfcpdump is earlier than 0:4.18.0-305.12.1.el8_4"
                  },
                  {
                    "Comment": "kernel-zfcpdump is signed with Red Hat redhatrelease2 key"
                  }
                ]
              },
              {
                "Operator": "AND",
                "Criterias": [

                ],
                "Criterions": [
                  {
                    "Comment": "kernel-zfcpdump-core is earlier than 0:4.18.0-305.12.1.el8_4"
                  },
                  {
                    "Comment": "kernel-zfcpdump-core is signed with Red Hat redhatrelease2 key"
                  }
                ]
              },
              {
                "Operator": "AND",
                "Criterias": [

                ],
                "Criterions": [
                  {
                    "Comment": "kernel-zfcpdump-devel is earlier than 0:4.18.0-305.12.1.el8_4"
                  },
                  {
                    "Comment": "kernel-zfcpdump-devel is signed with Red Hat redhatrelease2 key"
                  }
                ]
              },
              {
                "Operator": "AND",
                "Criterias": [

                ],
                "Criterions": [
                  {
                    "Comment": "kernel-zfcpdump-modules is earlier than 0:4.18.0-305.12.1.el8_4"
                  },
                  {
                    "Comment": "kernel-zfcpdump-modules is signed with Red Hat redhatrelease2 key"
                  }
                ]
              },
              {
                "Operator": "AND",
                "Criterias": [

                ],
                "Criterions": [
                  {
                    "Comment": "kernel-zfcpdump-modules-extra is earlier than 0:4.18.0-305.12.1.el8_4"
                  },
                  {
                    "Comment": "kernel-zfcpdump-modules-extra is signed with Red Hat redhatrelease2 key"
                  }
                ]
              },
              {
                "Operator": "AND",
                "Criterias": [

                ],
                "Criterions": [
                  {
                    "Comment": "perf is earlier than 0:4.18.0-305.12.1.el8_4"
                  },
                  {
                    "Comment": "perf is signed with Red Hat redhatrelease2 key"
                  }
                ]
              },
              {
                "Operator": "AND",
                "Criterias": [

                ],
                "Criterions": [
                  {
                    "Comment": "python3-perf is earlier than 0:4.18.0-305.12.1.el8_4"
                  },
                  {
                    "Comment": "python3-perf is signed with Red Hat redhatrelease2 key"
                  }
                ]
              }
            ],
            "Criterions": [

            ]
          }
        ],
        "Criterions": [

        ]
      }
    ],
    "Criterions": [
      {
        "Comment": "Oracle Linux 8 is installed"
      }
    ]
  },
  "Severity": "Important",
  "Cves": [
    {
      "Impact": "",
      "Href": "",
      "ID": "CVE-2021-22543"
    },
    {
      "Impact": "",
      "Href": "",
      "ID": "CVE-2021-22555"
    },
    {
      "Impact": "",
      "Href": "",
      "ID": "CVE-2021-3609"
    }
  ],
  "Issued": {
    "Date": "2021-08-10"
  }
}