{
  "Title": "RHSA-2021:3075: libuv security update (Low)",
  "Description": "libuv is a multi-platform support library with a focus on asynchronous I/O. \nSecurity Fix(es):\n* libuv: out-of-bounds read in uv__idna_toascii() can lead to information disclosures or crashes (CVE-2021-22918)\nFor more details about the security issue(s), including the impact, a CVSS score, acknowledgments, and other related information, refer to the CVE page(s) listed in the References section.",
  "Platform": [
    "Red Hat Enterprise Linux 8"
  ],
  "References": [
    {
      "Source": "RHSA",
      "URI": "https://access.redhat.com/errata/RHSA-2021:3075",
      "ID": "RHSA-2021:3075"
    },
    {
      "Source": "CVE",
      "URI": "https://access.redhat.com/security/cve/CVE-2021-22918",
      "ID": "CVE-2021-22918"
    }
  ],
  "Criteria": {
    "Operator": "OR",
    "Criterias": [
      {
        "Operator": "AND",
        "Criterias": [
          {
            "Operator": "OR",
            "Criterias": [

            ],
            "Criterions": [
              {
                "Comment": "Oracle Linux 8 is installed"
              },
              {
                "Comment": "Red Hat CoreOS 4 is installed"
              }
            ]
          },
          {
            "Operator": "OR",
            "Criterias": [
              {
                "Operator": "AND",
                "Criterias": [

                ],
                "Criterions": [
                  {
                    "Comment": "libuv is earlier than 1:1.41.1-1.el8_4"
                  },
                  {
                    "Comment": "libuv is signed with Red Hat redhatrelease2 key"
                  }
                ]
              },
              {
                "Operator": "AND",
                "Criterias": [

                ],
                "Criterions": [
                  {
                    "Comment": "libuv-devel is earlier than 1:1.41.1-1.el8_4"
                  },
                  {
                    "Comment": "libuv-devel is signed with Red Hat redhatrelease2 key"
                  }
                ]
              }
            ],
            "Criterions": [

            ]
          }
        ],
        "Criterions": [

        ]
      }
    ],
    "Criterions": [
      {
        "Comment": "Oracle Linux 8 is installed"
      }
    ]
  },
  "Severity": "Low",
  "Cves": [
    {
      "Impact": "",
      "Href": "",
      "ID": "CVE-2021-22918"
    }
  ],
  "Issued": {
    "Date": "2021-08-10"
  }
}