{
  "Title": "RHSA-2021:1297: java-11-openjdk security and bug fix update (Moderate)",
  "Description": "The java-11-openjdk packages provide the OpenJDK 11 Java Runtime Environment and the OpenJDK 11 Java Software Development Kit.\nSecurity Fix(es):\n* OpenJDK: Incomplete enforcement of JAR signing disabled algorithms (8249906) (CVE-2021-2163)\nFor more details about the security issue(s), including the impact, a CVSS score, acknowledgments, and other related information, refer to the CVE page(s) listed in the References section.\nBug Fix(es):\n* JNI local refs exceeds capacity warning in NetworkInterface::getAll (BZ#1937736)",
  "Platform": [
    "Red Hat Enterprise Linux 7"
  ],
  "References": [
    {
      "Source": "RHSA",
      "URI": "https://access.redhat.com/errata/RHSA-2021:1297",
      "ID": "RHSA-2021:1297"
    },
    {
      "Source": "CVE",
      "URI": "https://access.redhat.com/security/cve/CVE-2021-2163",
      "ID": "CVE-2021-2163"
    }
  ],
  "Criteria": {
    "Operator": "OR",
    "Criterias": [
      {
        "Operator": "AND",
        "Criterias": [
          {
            "Operator": "OR",
            "Criterias": [
              {
                "Operator": "AND",
                "Criterias": [

                ],
                "Criterions": [
                  {
                    "Comment": "java-11-openjdk is earlier than 1:11.0.11.0.9-1.el7_9"
                  },
                  {
                    "Comment": "java-11-openjdk is signed with Red Hat redhatrelease2 key"
                  }
                ]
              },
              {
                "Operator": "AND",
                "Criterias": [

                ],
                "Criterions": [
                  {
                    "Comment": "java-11-openjdk-demo is earlier than 1:11.0.11.0.9-1.el7_9"
                  },
                  {
                    "Comment": "java-11-openjdk-demo is signed with Red Hat redhatrelease2 key"
                  }
                ]
              },
              {
                "Operator": "AND",
                "Criterias": [

                ],
                "Criterions": [
                  {
                    "Comment": "java-11-openjdk-devel is earlier than 1:11.0.11.0.9-1.el7_9"
                  },
                  {
                    "Comment": "java-11-openjdk-devel is signed with Red Hat redhatrelease2 key"
                  }
                ]
              },
              {
                "Operator": "AND",
                "Criterias": [

                ],
                "Criterions": [
                  {
                    "Comment": "java-11-openjdk-headless is earlier than 1:11.0.11.0.9-1.el7_9"
                  },
                  {
                    "Comment": "java-11-openjdk-headless is signed with Red Hat redhatrelease2 key"
                  }
                ]
              },
              {
                "Operator": "AND",
                "Criterias": [

                ],
                "Criterions": [
                  {
                    "Comment": "java-11-openjdk-javadoc is earlier than 1:11.0.11.0.9-1.el7_9"
                  },
                  {
                    "Comment": "java-11-openjdk-javadoc is signed with Red Hat redhatrelease2 key"
                  }
                ]
              },
              {
                "Operator": "AND",
                "Criterias": [

                ],
                "Criterions": [
                  {
                    "Comment": "java-11-openjdk-javadoc-zip is earlier than 1:11.0.11.0.9-1.el7_9"
                  },
                  {
                    "Comment": "java-11-openjdk-javadoc-zip is signed with Red Hat redhatrelease2 key"
                  }
                ]
              },
              {
                "Operator": "AND",
                "Criterias": [

                ],
                "Criterions": [
                  {
                    "Comment": "java-11-openjdk-jmods is earlier than 1:11.0.11.0.9-1.el7_9"
                  },
                  {
                    "Comment": "java-11-openjdk-jmods is signed with Red Hat redhatrelease2 key"
                  }
                ]
              },
              {
                "Operator": "AND",
                "Criterias": [

                ],
                "Criterions": [
                  {
                    "Comment": "java-11-openjdk-src is earlier than 1:11.0.11.0.9-1.el7_9"
                  },
                  {
                    "Comment": "java-11-openjdk-src is signed with Red Hat redhatrelease2 key"
                  }
                ]
              },
              {
                "Operator": "AND",
                "Criterias": [

                ],
                "Criterions": [
                  {
                    "Comment": "java-11-openjdk-static-libs is earlier than 1:11.0.11.0.9-1.el7_9"
                  },
                  {
                    "Comment": "java-11-openjdk-static-libs is signed with Red Hat redhatrelease2 key"
                  }
                ]
              }
            ],
            "Criterions": [

            ]
          }
        ],
        "Criterions": [
          {
            "Comment": "Oracle Linux 7 is installed"
          }
        ]
      }
    ],
    "Criterions": [
      {
        "Comment": "Oracle Linux 7 is installed"
      }
    ]
  },
  "Severity": "Moderate",
  "Cves": [
    {
      "Impact": "",
      "Href": "",
      "ID": "CVE-2021-2163"
    }
  ],
  "Issued": {
    "Date": "2021-04-20"
  }
}