{
  "Title": "RHSA-2021:3791: firefox security update (Important)",
  "Description": "Mozilla Firefox is an open-source web browser, designed for standards compliance, performance, and portability.\nThis update upgrades Firefox to version 91.2.0 ESR.\nSecurity Fix(es):\n* Mozilla: Use-after-free in MessageTask (CVE-2021-38496)\n* Mozilla: Memory safety bugs fixed in Firefox 93, Firefox ESR 78.15, and Firefox ESR 91.2 (CVE-2021-38500)\n* Mozilla: Memory safety bugs fixed in Firefox 93 and Firefox ESR 91.2 (CVE-2021-38501)\n* rust-crossbeam-deque: race condition may lead to double free (CVE-2021-32810)\n* Mozilla: Validation message could have been overlaid on another origin (CVE-2021-38497)\n* Mozilla: Use-after-free of nsLanguageAtomService object (CVE-2021-38498)\nFor more details about the security issue(s), including the impact, a CVSS score, acknowledgments, and other related information, refer to the CVE page(s) listed in the References section.",
  "Platform": [
    "Red Hat Enterprise Linux 7"
  ],
  "References": [
    {
      "Source": "RHSA",
      "URI": "https://access.redhat.com/errata/RHSA-2021:3791",
      "ID": "RHSA-2021:3791"
    },
    {
      "Source": "CVE",
      "URI": "https://access.redhat.com/security/cve/CVE-2021-32810",
      "ID": "CVE-2021-32810"
    },
    {
      "Source": "CVE",
      "URI": "https://access.redhat.com/security/cve/CVE-2021-38496",
      "ID": "CVE-2021-38496"
    },
    {
      "Source": "CVE",
      "URI": "https://access.redhat.com/security/cve/CVE-2021-38497",
      "ID": "CVE-2021-38497"
    },
    {
      "Source": "CVE",
      "URI": "https://access.redhat.com/security/cve/CVE-2021-38498",
      "ID": "CVE-2021-38498"
    },
    {
      "Source": "CVE",
      "URI": "https://access.redhat.com/security/cve/CVE-2021-38500",
      "ID": "CVE-2021-38500"
    },
    {
      "Source": "CVE",
      "URI": "https://access.redhat.com/security/cve/CVE-2021-38501",
      "ID": "CVE-2021-38501"
    }
  ],
  "Criteria": {
    "Operator": "OR",
    "Criterias": [
      {
        "Operator": "AND",
        "Criterias": [

        ],
        "Criterions": [
          {
            "Comment": "Oracle Linux 7 is installed"
          },
          {
            "Comment": "firefox is earlier than 0:91.2.0-4.el7_9"
          },
          {
            "Comment": "firefox is signed with Red Hat redhatrelease2 key"
          }
        ]
      }
    ],
    "Criterions": [
      {
        "Comment": "Oracle Linux 7 is installed"
      }
    ]
  },
  "Severity": "Important",
  "Cves": [
    {
      "Impact": "",
      "Href": "",
      "ID": "CVE-2021-32810"
    },
    {
      "Impact": "",
      "Href": "",
      "ID": "CVE-2021-38496"
    },
    {
      "Impact": "",
      "Href": "",
      "ID": "CVE-2021-38497"
    },
    {
      "Impact": "",
      "Href": "",
      "ID": "CVE-2021-38498"
    },
    {
      "Impact": "",
      "Href": "",
      "ID": "CVE-2021-38500"
    },
    {
      "Impact": "",
      "Href": "",
      "ID": "CVE-2021-38501"
    }
  ],
  "Issued": {
    "Date": "2021-10-12"
  }
}