{
  "Title": "RHSA-2021:3027: microcode_ctl security, bug fix and enhancement update (Important)",
  "Description": "The microcode_ctl packages provide microcode updates for Intel.\nSecurity Fix(es):\n* hw: Special Register Buffer Data Sampling (SRBDS) (CVE-2020-0543)\n* hw: Vector Register Data Sampling (CVE-2020-0548)\n* hw: L1D Cache Eviction Sampling (CVE-2020-0549)\n* hw: vt-d related privilege escalation (CVE-2020-24489)\n* hw: improper isolation of shared resources in some Intel Processors\n(CVE-2020-24511)\n* hw: observable timing discrepancy in some Intel Processors\n(CVE-2020-24512)\n* hw: Information disclosure issue in Intel SGX via RAPL interface\n(CVE-2020-8695)\n* hw: Vector Register Leakage-Active (CVE-2020-8696)\n* hw: Fast forward store predictor (CVE-2020-8698)",
  "Platform": [
    "Red Hat Enterprise Linux 8"
  ],
  "References": [
    {
      "Source": "RHSA",
      "URI": "https://access.redhat.com/errata/RHSA-2021:3027",
      "ID": "RHSA-2021:3027"
    },
    {
      "Source": "CVE",
      "URI": "https://access.redhat.com/security/cve/CVE-2020-0543",
      "ID": "CVE-2020-0543"
    },
    {
      "Source": "CVE",
      "URI": "https://access.redhat.com/security/cve/CVE-2020-0548",
      "ID": "CVE-2020-0548"
    },
    {
      "Source": "CVE",
      "URI": "https://access.redhat.com/security/cve/CVE-2020-0549",
      "ID": "CVE-2020-0549"
    },
    {
      "Source": "CVE",
      "URI": "https://access.redhat.com/security/cve/CVE-2020-24489",
      "ID": "CVE-2020-24489"
    },
    {
      "Source": "CVE",
      "URI": "https://access.redhat.com/security/cve/CVE-2020-24511",
      "ID": "CVE-2020-24511"
    },
    {
      "Source": "CVE",
      "URI": "https://access.redhat.com/security/cve/CVE-2020-24512",
      "ID": "CVE-2020-24512"
    },
    {
      "Source": "CVE",
      "URI": "https://access.redhat.com/security/cve/CVE-2020-8695",
      "ID": "CVE-2020-8695"
    },
    {
      "Source": "CVE",
      "URI": "https://access.redhat.com/security/cve/CVE-2020-8696",
      "ID": "CVE-2020-8696"
    },
    {
      "Source": "CVE",
      "URI": "https://access.redhat.com/security/cve/CVE-2020-8698",
      "ID": "CVE-2020-8698"
    }
  ],
  "Criteria": {
    "Operator": "OR",
    "Criterias": [
      {
        "Operator": "AND",
        "Criterias": [
          {
            "Operator": "OR",
            "Criterias": [

            ],
            "Criterions": [
              {
                "Comment": "Oracle Linux 8 is installed"
              },
              {
                "Comment": "Red Hat CoreOS 4 is installed"
              }
            ]
          }
        ],
        "Criterions": [
          {
            "Comment": "microcode_ctl is earlier than 4:20210216-1.20210608.1.el8_4"
          },
          {
            "Comment": "microcode_ctl is signed with Red Hat redhatrelease2 key"
          }
        ]
      }
    ],
    "Criterions": [
      {
        "Comment": "Oracle Linux 8 is installed"
      }
    ]
  },
  "Severity": "Important",
  "Cves": [
    {
      "Impact": "",
      "Href": "",
      "ID": "CVE-2020-0543"
    },
    {
      "Impact": "",
      "Href": "",
      "ID": "CVE-2020-0548"
    },
    {
      "Impact": "",
      "Href": "",
      "ID": "CVE-2020-0549"
    },
    {
      "Impact": "",
      "Href": "",
      "ID": "CVE-2020-24489"
    },
    {
      "Impact": "",
      "Href": "",
      "ID": "CVE-2020-24511"
    },
    {
      "Impact": "",
      "Href": "",
      "ID": "CVE-2020-24512"
    },
    {
      "Impact": "",
      "Href": "",
      "ID": "CVE-2020-8695"
    },
    {
      "Impact": "",
      "Href": "",
      "ID": "CVE-2020-8696"
    },
    {
      "Impact": "",
      "Href": "",
      "ID": "CVE-2020-8698"
    }
  ],
  "Issued": {
    "Date": "2021-08-09"
  }
}