{
  "Title": "RHSA-2021:3058: glib2 security update (Moderate)",
  "Description": "GLib provides the core application building blocks for libraries and applications written in C. It provides the core object system used in GNOME, the main loop implementation, and a large set of utility functions for strings and common data structures.\nSecurity Fix(es):\n* glib: integer overflow in g_byte_array_new_take function when called with a buffer of 4GB or more on a 64-bit platform (CVE-2021-27218)\nFor more details about the security issue(s), including the impact, a CVSS score, acknowledgments, and other related information, refer to the CVE page(s) listed in the References section.",
  "Platform": [
    "Red Hat Enterprise Linux 8"
  ],
  "References": [
    {
      "Source": "RHSA",
      "URI": "https://access.redhat.com/errata/RHSA-2021:3058",
      "ID": "RHSA-2021:3058"
    },
    {
      "Source": "CVE",
      "URI": "https://access.redhat.com/security/cve/CVE-2021-27218",
      "ID": "CVE-2021-27218"
    }
  ],
  "Criteria": {
    "Operator": "OR",
    "Criterias": [
      {
        "Operator": "AND",
        "Criterias": [
          {
            "Operator": "OR",
            "Criterias": [

            ],
            "Criterions": [
              {
                "Comment": "Oracle Linux 8 is installed"
              },
              {
                "Comment": "Red Hat CoreOS 4 is installed"
              }
            ]
          },
          {
            "Operator": "OR",
            "Criterias": [
              {
                "Operator": "AND",
                "Criterias": [

                ],
                "Criterions": [
                  {
                    "Comment": "glib2 is earlier than 0:2.56.4-10.el8_4.1"
                  },
                  {
                    "Comment": "glib2 is signed with Red Hat redhatrelease2 key"
                  }
                ]
              },
              {
                "Operator": "AND",
                "Criterias": [

                ],
                "Criterions": [
                  {
                    "Comment": "glib2-devel is earlier than 0:2.56.4-10.el8_4.1"
                  },
                  {
                    "Comment": "glib2-devel is signed with Red Hat redhatrelease2 key"
                  }
                ]
              },
              {
                "Operator": "AND",
                "Criterias": [

                ],
                "Criterions": [
                  {
                    "Comment": "glib2-doc is earlier than 0:2.56.4-10.el8_4.1"
                  },
                  {
                    "Comment": "glib2-doc is signed with Red Hat redhatrelease2 key"
                  }
                ]
              },
              {
                "Operator": "AND",
                "Criterias": [

                ],
                "Criterions": [
                  {
                    "Comment": "glib2-fam is earlier than 0:2.56.4-10.el8_4.1"
                  },
                  {
                    "Comment": "glib2-fam is signed with Red Hat redhatrelease2 key"
                  }
                ]
              },
              {
                "Operator": "AND",
                "Criterias": [

                ],
                "Criterions": [
                  {
                    "Comment": "glib2-static is earlier than 0:2.56.4-10.el8_4.1"
                  },
                  {
                    "Comment": "glib2-static is signed with Red Hat redhatrelease2 key"
                  }
                ]
              },
              {
                "Operator": "AND",
                "Criterias": [

                ],
                "Criterions": [
                  {
                    "Comment": "glib2-tests is earlier than 0:2.56.4-10.el8_4.1"
                  },
                  {
                    "Comment": "glib2-tests is signed with Red Hat redhatrelease2 key"
                  }
                ]
              }
            ],
            "Criterions": [

            ]
          }
        ],
        "Criterions": [

        ]
      }
    ],
    "Criterions": [
      {
        "Comment": "Oracle Linux 8 is installed"
      }
    ]
  },
  "Severity": "Moderate",
  "Cves": [
    {
      "Impact": "",
      "Href": "",
      "ID": "CVE-2021-27218"
    }
  ],
  "Issued": {
    "Date": "2021-08-10"
  }
}