{
  "Title": "RHSA-2021:3336: sssd security and bug fix update (Important)",
  "Description": "The System Security Services Daemon (SSSD) service provides a set of daemons to manage access to remote directories and authentication mechanisms. It also provides the Name Service Switch (NSS) and the Pluggable Authentication Modules (PAM) interfaces toward the system, and a pluggable back-end system to connect to multiple different account sources.\nSecurity Fix(es):\n* sssd: shell command injection in sssctl (CVE-2021-3621)\nFor more details about the security issue(s), including the impact, a CVSS score, acknowledgments, and other related information, refer to the CVE page(s) listed in the References section.\nBug Fix(es):\n* Memory leak in the simple access provider (BZ#1964415)\n* id lookup is failing intermittently (BZ#1968330)\n* SSSD is NOT able to contact the Global Catalog when local site is down (BZ#1973796)\n* Missing search index for `originalADgidNumber` (BZ#1988463)",
  "Platform": [
    "Red Hat Enterprise Linux 7"
  ],
  "References": [
    {
      "Source": "RHSA",
      "URI": "https://access.redhat.com/errata/RHSA-2021:3336",
      "ID": "RHSA-2021:3336"
    },
    {
      "Source": "CVE",
      "URI": "https://access.redhat.com/security/cve/CVE-2021-3621",
      "ID": "CVE-2021-3621"
    }
  ],
  "Criteria": {
    "Operator": "OR",
    "Criterias": [
      {
        "Operator": "AND",
        "Criterias": [
          {
            "Operator": "OR",
            "Criterias": [
              {
                "Operator": "AND",
                "Criterias": [

                ],
                "Criterions": [
                  {
                    "Comment": "libipa_hbac is earlier than 0:1.16.5-10.el7_9.10"
                  },
                  {
                    "Comment": "libipa_hbac is signed with Red Hat redhatrelease2 key"
                  }
                ]
              },
              {
                "Operator": "AND",
                "Criterias": [

                ],
                "Criterions": [
                  {
                    "Comment": "libipa_hbac-devel is earlier than 0:1.16.5-10.el7_9.10"
                  },
                  {
                    "Comment": "libipa_hbac-devel is signed with Red Hat redhatrelease2 key"
                  }
                ]
              },
              {
                "Operator": "AND",
                "Criterias": [

                ],
                "Criterions": [
                  {
                    "Comment": "libsss_autofs is earlier than 0:1.16.5-10.el7_9.10"
                  },
                  {
                    "Comment": "libsss_autofs is signed with Red Hat redhatrelease2 key"
                  }
                ]
              },
              {
                "Operator": "AND",
                "Criterias": [

                ],
                "Criterions": [
                  {
                    "Comment": "libsss_certmap is earlier than 0:1.16.5-10.el7_9.10"
                  },
                  {
                    "Comment": "libsss_certmap is signed with Red Hat redhatrelease2 key"
                  }
                ]
              },
              {
                "Operator": "AND",
                "Criterias": [

                ],
                "Criterions": [
                  {
                    "Comment": "libsss_certmap-devel is earlier than 0:1.16.5-10.el7_9.10"
                  },
                  {
                    "Comment": "libsss_certmap-devel is signed with Red Hat redhatrelease2 key"
                  }
                ]
              },
              {
                "Operator": "AND",
                "Criterias": [

                ],
                "Criterions": [
                  {
                    "Comment": "libsss_idmap is earlier than 0:1.16.5-10.el7_9.10"
                  },
                  {
                    "Comment": "libsss_idmap is signed with Red Hat redhatrelease2 key"
                  }
                ]
              },
              {
                "Operator": "AND",
                "Criterias": [

                ],
                "Criterions": [
                  {
                    "Comment": "libsss_idmap-devel is earlier than 0:1.16.5-10.el7_9.10"
                  },
                  {
                    "Comment": "libsss_idmap-devel is signed with Red Hat redhatrelease2 key"
                  }
                ]
              },
              {
                "Operator": "AND",
                "Criterias": [

                ],
                "Criterions": [
                  {
                    "Comment": "libsss_nss_idmap is earlier than 0:1.16.5-10.el7_9.10"
                  },
                  {
                    "Comment": "libsss_nss_idmap is signed with Red Hat redhatrelease2 key"
                  }
                ]
              },
              {
                "Operator": "AND",
                "Criterias": [

                ],
                "Criterions": [
                  {
                    "Comment": "libsss_nss_idmap-devel is earlier than 0:1.16.5-10.el7_9.10"
                  },
                  {
                    "Comment": "libsss_nss_idmap-devel is signed with Red Hat redhatrelease2 key"
                  }
                ]
              },
              {
                "Operator": "AND",
                "Criterias": [

                ],
                "Criterions": [
                  {
                    "Comment": "libsss_simpleifp is earlier than 0:1.16.5-10.el7_9.10"
                  },
                  {
                    "Comment": "libsss_simpleifp is signed with Red Hat redhatrelease2 key"
                  }
                ]
              },
              {
                "Operator": "AND",
                "Criterias": [

                ],
                "Criterions": [
                  {
                    "Comment": "libsss_simpleifp-devel is earlier than 0:1.16.5-10.el7_9.10"
                  },
                  {
                    "Comment": "libsss_simpleifp-devel is signed with Red Hat redhatrelease2 key"
                  }
                ]
              },
              {
                "Operator": "AND",
                "Criterias": [

                ],
                "Criterions": [
                  {
                    "Comment": "libsss_sudo is earlier than 0:1.16.5-10.el7_9.10"
                  },
                  {
                    "Comment": "libsss_sudo is signed with Red Hat redhatrelease2 key"
                  }
                ]
              },
              {
                "Operator": "AND",
                "Criterias": [

                ],
                "Criterions": [
                  {
                    "Comment": "python-libipa_hbac is earlier than 0:1.16.5-10.el7_9.10"
                  },
                  {
                    "Comment": "python-libipa_hbac is signed with Red Hat redhatrelease2 key"
                  }
                ]
              },
              {
                "Operator": "AND",
                "Criterias": [

                ],
                "Criterions": [
                  {
                    "Comment": "python-libsss_nss_idmap is earlier than 0:1.16.5-10.el7_9.10"
                  },
                  {
                    "Comment": "python-libsss_nss_idmap is signed with Red Hat redhatrelease2 key"
                  }
                ]
              },
              {
                "Operator": "AND",
                "Criterias": [

                ],
                "Criterions": [
                  {
                    "Comment": "python-sss is earlier than 0:1.16.5-10.el7_9.10"
                  },
                  {
                    "Comment": "python-sss is signed with Red Hat redhatrelease2 key"
                  }
                ]
              },
              {
                "Operator": "AND",
                "Criterias": [

                ],
                "Criterions": [
                  {
                    "Comment": "python-sss-murmur is earlier than 0:1.16.5-10.el7_9.10"
                  },
                  {
                    "Comment": "python-sss-murmur is signed with Red Hat redhatrelease2 key"
                  }
                ]
              },
              {
                "Operator": "AND",
                "Criterias": [

                ],
                "Criterions": [
                  {
                    "Comment": "python-sssdconfig is earlier than 0:1.16.5-10.el7_9.10"
                  },
                  {
                    "Comment": "python-sssdconfig is signed with Red Hat redhatrelease2 key"
                  }
                ]
              },
              {
                "Operator": "AND",
                "Criterias": [

                ],
                "Criterions": [
                  {
                    "Comment": "sssd is earlier than 0:1.16.5-10.el7_9.10"
                  },
                  {
                    "Comment": "sssd is signed with Red Hat redhatrelease2 key"
                  }
                ]
              },
              {
                "Operator": "AND",
                "Criterias": [

                ],
                "Criterions": [
                  {
                    "Comment": "sssd-ad is earlier than 0:1.16.5-10.el7_9.10"
                  },
                  {
                    "Comment": "sssd-ad is signed with Red Hat redhatrelease2 key"
                  }
                ]
              },
              {
                "Operator": "AND",
                "Criterias": [

                ],
                "Criterions": [
                  {
                    "Comment": "sssd-client is earlier than 0:1.16.5-10.el7_9.10"
                  },
                  {
                    "Comment": "sssd-client is signed with Red Hat redhatrelease2 key"
                  }
                ]
              },
              {
                "Operator": "AND",
                "Criterias": [

                ],
                "Criterions": [
                  {
                    "Comment": "sssd-common is earlier than 0:1.16.5-10.el7_9.10"
                  },
                  {
                    "Comment": "sssd-common is signed with Red Hat redhatrelease2 key"
                  }
                ]
              },
              {
                "Operator": "AND",
                "Criterias": [

                ],
                "Criterions": [
                  {
                    "Comment": "sssd-common-pac is earlier than 0:1.16.5-10.el7_9.10"
                  },
                  {
                    "Comment": "sssd-common-pac is signed with Red Hat redhatrelease2 key"
                  }
                ]
              },
              {
                "Operator": "AND",
                "Criterias": [

                ],
                "Criterions": [
                  {
                    "Comment": "sssd-dbus is earlier than 0:1.16.5-10.el7_9.10"
                  },
                  {
                    "Comment": "sssd-dbus is signed with Red Hat redhatrelease2 key"
                  }
                ]
              },
              {
                "Operator": "AND",
                "Criterias": [

                ],
                "Criterions": [
                  {
                    "Comment": "sssd-ipa is earlier than 0:1.16.5-10.el7_9.10"
                  },
                  {
                    "Comment": "sssd-ipa is signed with Red Hat redhatrelease2 key"
                  }
                ]
              },
              {
                "Operator": "AND",
                "Criterias": [

                ],
                "Criterions": [
                  {
                    "Comment": "sssd-kcm is earlier than 0:1.16.5-10.el7_9.10"
                  },
                  {
                    "Comment": "sssd-kcm is signed with Red Hat redhatrelease2 key"
                  }
                ]
              },
              {
                "Operator": "AND",
                "Criterias": [

                ],
                "Criterions": [
                  {
                    "Comment": "sssd-krb5 is earlier than 0:1.16.5-10.el7_9.10"
                  },
                  {
                    "Comment": "sssd-krb5 is signed with Red Hat redhatrelease2 key"
                  }
                ]
              },
              {
                "Operator": "AND",
                "Criterias": [

                ],
                "Criterions": [
                  {
                    "Comment": "sssd-krb5-common is earlier than 0:1.16.5-10.el7_9.10"
                  },
                  {
                    "Comment": "sssd-krb5-common is signed with Red Hat redhatrelease2 key"
                  }
                ]
              },
              {
                "Operator": "AND",
                "Criterias": [

                ],
                "Criterions": [
                  {
                    "Comment": "sssd-ldap is earlier than 0:1.16.5-10.el7_9.10"
                  },
                  {
                    "Comment": "sssd-ldap is signed with Red Hat redhatrelease2 key"
                  }
                ]
              },
              {
                "Operator": "AND",
                "Criterias": [

                ],
                "Criterions": [
                  {
                    "Comment": "sssd-libwbclient is earlier than 0:1.16.5-10.el7_9.10"
                  },
                  {
                    "Comment": "sssd-libwbclient is signed with Red Hat redhatrelease2 key"
                  }
                ]
              },
              {
                "Operator": "AND",
                "Criterias": [

                ],
                "Criterions": [
                  {
                    "Comment": "sssd-libwbclient-devel is earlier than 0:1.16.5-10.el7_9.10"
                  },
                  {
                    "Comment": "sssd-libwbclient-devel is signed with Red Hat redhatrelease2 key"
                  }
                ]
              },
              {
                "Operator": "AND",
                "Criterias": [

                ],
                "Criterions": [
                  {
                    "Comment": "sssd-polkit-rules is earlier than 0:1.16.5-10.el7_9.10"
                  },
                  {
                    "Comment": "sssd-polkit-rules is signed with Red Hat redhatrelease2 key"
                  }
                ]
              },
              {
                "Operator": "AND",
                "Criterias": [

                ],
                "Criterions": [
                  {
                    "Comment": "sssd-proxy is earlier than 0:1.16.5-10.el7_9.10"
                  },
                  {
                    "Comment": "sssd-proxy is signed with Red Hat redhatrelease2 key"
                  }
                ]
              },
              {
                "Operator": "AND",
                "Criterias": [

                ],
                "Criterions": [
                  {
                    "Comment": "sssd-tools is earlier than 0:1.16.5-10.el7_9.10"
                  },
                  {
                    "Comment": "sssd-tools is signed with Red Hat redhatrelease2 key"
                  }
                ]
              },
              {
                "Operator": "AND",
                "Criterias": [

                ],
                "Criterions": [
                  {
                    "Comment": "sssd-winbind-idmap is earlier than 0:1.16.5-10.el7_9.10"
                  },
                  {
                    "Comment": "sssd-winbind-idmap is signed with Red Hat redhatrelease2 key"
                  }
                ]
              }
            ],
            "Criterions": [

            ]
          }
        ],
        "Criterions": [
          {
            "Comment": "Oracle Linux 7 is installed"
          }
        ]
      }
    ],
    "Criterions": [
      {
        "Comment": "Oracle Linux 7 is installed"
      }
    ]
  },
  "Severity": "Important",
  "Cves": [
    {
      "Impact": "",
      "Href": "",
      "ID": "CVE-2021-3621"
    }
  ],
  "Issued": {
    "Date": "2021-08-31"
  }
}