{
  "Title": "RHSA-2021:2658: linuxptp security update (Important)",
  "Description": "The linuxptp packages provide Precision Time Protocol (PTP) implementation for Linux according to IEEE standard 1588 for Linux. The dual design goals are to provide a robust implementation of the standard and to use the most relevant and modern Application Programming Interfaces (API) offered by the Linux kernel. \nSecurity Fix(es):\n* linuxptp: missing length check of forwarded messages (CVE-2021-3570)\nFor more details about the security issue(s), including the impact, a CVSS score, acknowledgments, and other related information, refer to the CVE page(s) listed in the References section.",
  "Platform": [
    "Red Hat Enterprise Linux 7"
  ],
  "References": [
    {
      "Source": "RHSA",
      "URI": "https://access.redhat.com/errata/RHSA-2021:2658",
      "ID": "RHSA-2021:2658"
    },
    {
      "Source": "CVE",
      "URI": "https://access.redhat.com/security/cve/CVE-2021-3570",
      "ID": "CVE-2021-3570"
    }
  ],
  "Criteria": {
    "Operator": "OR",
    "Criterias": [
      {
        "Operator": "AND",
        "Criterias": [

        ],
        "Criterions": [
          {
            "Comment": "Oracle Linux 7 is installed"
          },
          {
            "Comment": "linuxptp is earlier than 0:2.0-2.el7_9.1"
          },
          {
            "Comment": "linuxptp is signed with Red Hat redhatrelease2 key"
          }
        ]
      }
    ],
    "Criterions": [
      {
        "Comment": "Oracle Linux 7 is installed"
      }
    ]
  },
  "Severity": "Important",
  "Cves": [
    {
      "Impact": "",
      "Href": "",
      "ID": "CVE-2021-3570"
    }
  ],
  "Issued": {
    "Date": "2021-07-06"
  }
}