{
  "Title": "RHSA-2021:2881: thunderbird security update (Important)",
  "Description": "Mozilla Thunderbird is a standalone mail and newsgroup client.\nThis update upgrades Thunderbird to version 78.12.0.\nSecurity Fix(es):\n* Mozilla: IMAP server responses sent by a MITM prior to STARTTLS could be processed (CVE-2021-29969)\n* Mozilla: Use-after-free in accessibility features of a document (CVE-2021-29970)\n* Mozilla: Memory safety bugs fixed in Firefox 90 and Firefox ESR 78.12 (CVE-2021-29976)\n* chromium-browser: Out of bounds write in ANGLE (CVE-2021-30547)\nFor more details about the security issue(s), including the impact, a CVSS score, acknowledgments, and other related information, refer to the CVE page(s) listed in the References section.",
  "Platform": [
    "Red Hat Enterprise Linux 7"
  ],
  "References": [
    {
      "Source": "RHSA",
      "URI": "https://access.redhat.com/errata/RHSA-2021:2881",
      "ID": "RHSA-2021:2881"
    },
    {
      "Source": "CVE",
      "URI": "https://access.redhat.com/security/cve/CVE-2021-29969",
      "ID": "CVE-2021-29969"
    },
    {
      "Source": "CVE",
      "URI": "https://access.redhat.com/security/cve/CVE-2021-29970",
      "ID": "CVE-2021-29970"
    },
    {
      "Source": "CVE",
      "URI": "https://access.redhat.com/security/cve/CVE-2021-29976",
      "ID": "CVE-2021-29976"
    },
    {
      "Source": "CVE",
      "URI": "https://access.redhat.com/security/cve/CVE-2021-30547",
      "ID": "CVE-2021-30547"
    }
  ],
  "Criteria": {
    "Operator": "OR",
    "Criterias": [
      {
        "Operator": "AND",
        "Criterias": [

        ],
        "Criterions": [
          {
            "Comment": "Oracle Linux 7 is installed"
          },
          {
            "Comment": "thunderbird is earlier than 0:78.12.0-2.el7_9"
          },
          {
            "Comment": "thunderbird is signed with Red Hat redhatrelease2 key"
          }
        ]
      }
    ],
    "Criterions": [
      {
        "Comment": "Oracle Linux 7 is installed"
      }
    ]
  },
  "Severity": "Important",
  "Cves": [
    {
      "Impact": "",
      "Href": "",
      "ID": "CVE-2021-29969"
    },
    {
      "Impact": "",
      "Href": "",
      "ID": "CVE-2021-29970"
    },
    {
      "Impact": "",
      "Href": "",
      "ID": "CVE-2021-29976"
    },
    {
      "Impact": "",
      "Href": "",
      "ID": "CVE-2021-30547"
    }
  ],
  "Issued": {
    "Date": "2021-07-26"
  }
}