{
  "Title": "RHSA-2010:0500: firefox security, bug fix, and enhancement update (Critical)",
  "Description": "Mozilla Firefox is an open source web browser.\nSeveral flaws were found in the processing of malformed web content. A web\npage containing malicious content could cause Firefox to crash or,\npotentially, execute arbitrary code with the privileges of the user running\nFirefox. (CVE-2010-1121, CVE-2010-1200, CVE-2010-1202, CVE-2010-1203)\nA flaw was found in the way browser plug-ins interact. It was possible for\na plug-in to reference the freed memory from a different plug-in, resulting\nin the execution of arbitrary code with the privileges of the user running\nFirefox. (CVE-2010-1198)\nSeveral integer overflow flaws were found in the processing of malformed\nweb content. A web page containing malicious content could cause Firefox to\ncrash or, potentially, execute arbitrary code with the privileges of the\nuser running Firefox. (CVE-2010-1196, CVE-2010-1199)\nA focus stealing flaw was found in the way Firefox handled focus changes. A\nmalicious website could use this flaw to steal sensitive data from a user,\nsuch as usernames and passwords. (CVE-2010-1125)\nA flaw was found in the way Firefox handled the \"Content-Disposition:\nattachment\" HTTP header when the \"Content-Type: multipart\" HTTP header was\nalso present. A website that allows arbitrary uploads and relies on the\n\"Content-Disposition: attachment\" HTTP header to prevent content from being\ndisplayed inline, could be used by an attacker to serve malicious content\nto users. (CVE-2010-1197)\nA flaw was found in the Firefox Math.random() function. This function could\nbe used to identify a browsing session and track a user across different\nwebsites. (CVE-2008-5913)\nA flaw was found in the Firefox XML document loading security checks.\nCertain security checks were not being called when an XML document was\nloaded. This could possibly be leveraged later by an attacker to load\ncertain resources that violate the security policies of the browser or its\nadd-ons. Note that this issue cannot be exploited by only loading an XML\ndocument. (CVE-2010-0182)\nFor technical details regarding these flaws, refer to the Mozilla security\nadvisories for Firefox 3.6.4. You can find a link to the Mozilla advisories\nin the References section of this erratum.\nThis erratum upgrades Firefox from version 3.0.19 to version 3.6.4, and as\nsuch, contains multiple bug fixes and numerous enhancements. Space\nprecludes documenting these changes in this advisory. For details\nconcerning these changes, refer to the Firefox Release Notes links in the\nReferences section of this erratum.\nImportant: Firefox 3.6.4 is not completely backwards-compatible with all\nMozilla Add-ons and Firefox plug-ins that worked with Firefox 3.0.19.\nFirefox 3.6 checks compatibility on first-launch, and, depending on the\nindividual configuration and the installed Add-ons and plug-ins, may\ndisable said Add-ons and plug-ins, or attempt to check for updates and\nupgrade them. Add-ons and plug-ins may have to be manually updated.\nAll Firefox users should upgrade to this updated package, which contains\nFirefox version 3.6.4. After installing the update, Firefox must be\nrestarted for the changes to take effect.",
  "Platform": [
    "Red Hat Enterprise Linux 4"
  ],
  "References": [
    {
      "Source": "RHSA",
      "URI": "https://access.redhat.com/errata/RHSA-2010:0500",
      "ID": "RHSA-2010:0500"
    },
    {
      "Source": "CVE",
      "URI": "https://access.redhat.com/security/cve/CVE-2008-5913",
      "ID": "CVE-2008-5913"
    },
    {
      "Source": "CVE",
      "URI": "https://access.redhat.com/security/cve/CVE-2009-5017",
      "ID": "CVE-2009-5017"
    },
    {
      "Source": "CVE",
      "URI": "https://access.redhat.com/security/cve/CVE-2010-0182",
      "ID": "CVE-2010-0182"
    },
    {
      "Source": "CVE",
      "URI": "https://access.redhat.com/security/cve/CVE-2010-1121",
      "ID": "CVE-2010-1121"
    },
    {
      "Source": "CVE",
      "URI": "https://access.redhat.com/security/cve/CVE-2010-1125",
      "ID": "CVE-2010-1125"
    },
    {
      "Source": "CVE",
      "URI": "https://access.redhat.com/security/cve/CVE-2010-1196",
      "ID": "CVE-2010-1196"
    },
    {
      "Source": "CVE",
      "URI": "https://access.redhat.com/security/cve/CVE-2010-1197",
      "ID": "CVE-2010-1197"
    },
    {
      "Source": "CVE",
      "URI": "https://access.redhat.com/security/cve/CVE-2010-1198",
      "ID": "CVE-2010-1198"
    },
    {
      "Source": "CVE",
      "URI": "https://access.redhat.com/security/cve/CVE-2010-1199",
      "ID": "CVE-2010-1199"
    },
    {
      "Source": "CVE",
      "URI": "https://access.redhat.com/security/cve/CVE-2010-1200",
      "ID": "CVE-2010-1200"
    },
    {
      "Source": "CVE",
      "URI": "https://access.redhat.com/security/cve/CVE-2010-1202",
      "ID": "CVE-2010-1202"
    },
    {
      "Source": "CVE",
      "URI": "https://access.redhat.com/security/cve/CVE-2010-1203",
      "ID": "CVE-2010-1203"
    }
  ],
  "Criteria": {
    "Operator": "OR",
    "Criterias": [
      {
        "Operator": "AND",
        "Criterias": [

        ],
        "Criterions": [
          {
            "Comment": "Oracle Linux 4 is installed"
          },
          {
            "Comment": "firefox is earlier than 0:3.6.4-8.el4"
          },
          {
            "Comment": "firefox is signed with Red Hat redhatrelease2 key"
          }
        ]
      }
    ],
    "Criterions": [
      {
        "Comment": "Oracle Linux 4 is installed"
      }
    ]
  },
  "Severity": "Critical",
  "Cves": [
    {
      "Impact": "",
      "Href": "",
      "ID": "CVE-2008-5913"
    },
    {
      "Impact": "",
      "Href": "",
      "ID": "CVE-2009-5017"
    },
    {
      "Impact": "",
      "Href": "",
      "ID": "CVE-2010-0182"
    },
    {
      "Impact": "",
      "Href": "",
      "ID": "CVE-2010-1121"
    },
    {
      "Impact": "",
      "Href": "",
      "ID": "CVE-2010-1125"
    },
    {
      "Impact": "",
      "Href": "",
      "ID": "CVE-2010-1196"
    },
    {
      "Impact": "",
      "Href": "",
      "ID": "CVE-2010-1197"
    },
    {
      "Impact": "",
      "Href": "",
      "ID": "CVE-2010-1198"
    },
    {
      "Impact": "",
      "Href": "",
      "ID": "CVE-2010-1199"
    },
    {
      "Impact": "",
      "Href": "",
      "ID": "CVE-2010-1200"
    },
    {
      "Impact": "",
      "Href": "",
      "ID": "CVE-2010-1202"
    },
    {
      "Impact": "",
      "Href": "",
      "ID": "CVE-2010-1203"
    }
  ],
  "Issued": {
    "Date": "2010-06-22"
  }
}