{
  "Title": "RHSA-2010:0625: wireshark security update (Moderate)",
  "Description": "Wireshark is a program for monitoring network traffic. Wireshark was\npreviously known as Ethereal.\nMultiple buffer overflow flaws were found in the Wireshark SigComp\nUniversal Decompressor Virtual Machine (UDVM) dissector. If Wireshark read\na malformed packet off a network or opened a malicious dump file, it could\ncrash or, possibly, execute arbitrary code as the user running Wireshark.\n(CVE-2010-2287, CVE-2010-2995)\nSeveral denial of service flaws were found in Wireshark. Wireshark could\ncrash or stop responding if it read a malformed packet off a network, or\nopened a malicious dump file. (CVE-2010-1455, CVE-2010-2283, CVE-2010-2284,\nCVE-2010-2286)\nUsers of Wireshark should upgrade to these updated packages, which contain\nWireshark version 1.0.15, and resolve these issues. All running instances\nof Wireshark must be restarted for the update to take effect.",
  "Platform": [
    "Red Hat Enterprise Linux 4",
    "Red Hat Enterprise Linux 5"
  ],
  "References": [
    {
      "Source": "RHSA",
      "URI": "https://access.redhat.com/errata/RHSA-2010:0625",
      "ID": "RHSA-2010:0625"
    },
    {
      "Source": "CVE",
      "URI": "https://access.redhat.com/security/cve/CVE-2010-1455",
      "ID": "CVE-2010-1455"
    },
    {
      "Source": "CVE",
      "URI": "https://access.redhat.com/security/cve/CVE-2010-2283",
      "ID": "CVE-2010-2283"
    },
    {
      "Source": "CVE",
      "URI": "https://access.redhat.com/security/cve/CVE-2010-2284",
      "ID": "CVE-2010-2284"
    },
    {
      "Source": "CVE",
      "URI": "https://access.redhat.com/security/cve/CVE-2010-2286",
      "ID": "CVE-2010-2286"
    },
    {
      "Source": "CVE",
      "URI": "https://access.redhat.com/security/cve/CVE-2010-2287",
      "ID": "CVE-2010-2287"
    },
    {
      "Source": "CVE",
      "URI": "https://access.redhat.com/security/cve/CVE-2010-2995",
      "ID": "CVE-2010-2995"
    }
  ],
  "Criteria": {
    "Operator": "OR",
    "Criterias": [
      {
        "Operator": "AND",
        "Criterias": [
          {
            "Operator": "OR",
            "Criterias": [
              {
                "Operator": "AND",
                "Criterias": [

                ],
                "Criterions": [
                  {
                    "Comment": "wireshark is earlier than 0:1.0.15-1.el4_8.1"
                  },
                  {
                    "Comment": "wireshark is signed with Red Hat redhatrelease2 key"
                  }
                ]
              },
              {
                "Operator": "AND",
                "Criterias": [

                ],
                "Criterions": [
                  {
                    "Comment": "wireshark-gnome is earlier than 0:1.0.15-1.el4_8.1"
                  },
                  {
                    "Comment": "wireshark-gnome is signed with Red Hat redhatrelease2 key"
                  }
                ]
              }
            ],
            "Criterions": [

            ]
          }
        ],
        "Criterions": [
          {
            "Comment": "Oracle Linux 4 is installed"
          }
        ]
      },
      {
        "Operator": "AND",
        "Criterias": [
          {
            "Operator": "OR",
            "Criterias": [
              {
                "Operator": "AND",
                "Criterias": [

                ],
                "Criterions": [
                  {
                    "Comment": "wireshark is earlier than 0:1.0.15-1.el5_5.1"
                  },
                  {
                    "Comment": "wireshark is signed with Red Hat redhatrelease2 key"
                  }
                ]
              },
              {
                "Operator": "AND",
                "Criterias": [

                ],
                "Criterions": [
                  {
                    "Comment": "wireshark-gnome is earlier than 0:1.0.15-1.el5_5.1"
                  },
                  {
                    "Comment": "wireshark-gnome is signed with Red Hat redhatrelease2 key"
                  }
                ]
              }
            ],
            "Criterions": [

            ]
          }
        ],
        "Criterions": [
          {
            "Comment": "Oracle Linux 5 is installed"
          }
        ]
      }
    ],
    "Criterions": [
      {
        "Comment": "Oracle Linux 4 is installed"
      }
    ]
  },
  "Severity": "Moderate",
  "Cves": [
    {
      "Impact": "",
      "Href": "",
      "ID": "CVE-2010-1455"
    },
    {
      "Impact": "",
      "Href": "",
      "ID": "CVE-2010-2283"
    },
    {
      "Impact": "",
      "Href": "",
      "ID": "CVE-2010-2284"
    },
    {
      "Impact": "",
      "Href": "",
      "ID": "CVE-2010-2286"
    },
    {
      "Impact": "",
      "Href": "",
      "ID": "CVE-2010-2287"
    },
    {
      "Impact": "",
      "Href": "",
      "ID": "CVE-2010-2995"
    }
  ],
  "Issued": {
    "Date": "2010-08-11"
  }
}