{
  "Title": "RHSA-2010:0908: postgresql security update (Moderate)",
  "Description": "PostgreSQL is an advanced object-relational database management system\n(DBMS). PL/Perl and PL/Tcl allow users to write PostgreSQL functions in the\nPerl and Tcl languages. The PostgreSQL SECURITY DEFINER parameter, which\ncan be used when creating a new PostgreSQL function, specifies that the\nfunction will be executed with the privileges of the user that created it.\nIt was discovered that a user could utilize the features of the PL/Perl and\nPL/Tcl languages to modify the behavior of a SECURITY DEFINER function\ncreated by a different user. If the PL/Perl or PL/Tcl language was used to\nimplement a SECURITY DEFINER function, an authenticated database user could\nuse a PL/Perl or PL/Tcl script to modify the behavior of that function\nduring subsequent calls in the same session. This would result in the\nmodified or injected code also being executed with the privileges of the\nuser who created the SECURITY DEFINER function, possibly leading to\nprivilege escalation. (CVE-2010-3433)\nThese updated postgresql packages upgrade PostgreSQL to version 8.4.5.\nRefer to the PostgreSQL Release Notes for a list of changes:\nhttp://www.postgresql.org/docs/8.4/static/release.html\nAll PostgreSQL users are advised to upgrade to these updated packages,\nwhich correct this issue. If the postgresql service is running, it will be\nautomatically restarted after installing this update.",
  "Platform": [
    "Red Hat Enterprise Linux 6"
  ],
  "References": [
    {
      "Source": "RHSA",
      "URI": "https://access.redhat.com/errata/RHSA-2010:0908",
      "ID": "RHSA-2010:0908"
    },
    {
      "Source": "CVE",
      "URI": "https://access.redhat.com/security/cve/CVE-2010-3433",
      "ID": "CVE-2010-3433"
    }
  ],
  "Criteria": {
    "Operator": "OR",
    "Criterias": [
      {
        "Operator": "AND",
        "Criterias": [
          {
            "Operator": "OR",
            "Criterias": [
              {
                "Operator": "AND",
                "Criterias": [

                ],
                "Criterions": [
                  {
                    "Comment": "postgresql is earlier than 0:8.4.5-1.el6_0.2"
                  },
                  {
                    "Comment": "postgresql is signed with Red Hat redhatrelease2 key"
                  }
                ]
              },
              {
                "Operator": "AND",
                "Criterias": [

                ],
                "Criterions": [
                  {
                    "Comment": "postgresql-contrib is earlier than 0:8.4.5-1.el6_0.2"
                  },
                  {
                    "Comment": "postgresql-contrib is signed with Red Hat redhatrelease2 key"
                  }
                ]
              },
              {
                "Operator": "AND",
                "Criterias": [

                ],
                "Criterions": [
                  {
                    "Comment": "postgresql-devel is earlier than 0:8.4.5-1.el6_0.2"
                  },
                  {
                    "Comment": "postgresql-devel is signed with Red Hat redhatrelease2 key"
                  }
                ]
              },
              {
                "Operator": "AND",
                "Criterias": [

                ],
                "Criterions": [
                  {
                    "Comment": "postgresql-docs is earlier than 0:8.4.5-1.el6_0.2"
                  },
                  {
                    "Comment": "postgresql-docs is signed with Red Hat redhatrelease2 key"
                  }
                ]
              },
              {
                "Operator": "AND",
                "Criterias": [

                ],
                "Criterions": [
                  {
                    "Comment": "postgresql-libs is earlier than 0:8.4.5-1.el6_0.2"
                  },
                  {
                    "Comment": "postgresql-libs is signed with Red Hat redhatrelease2 key"
                  }
                ]
              },
              {
                "Operator": "AND",
                "Criterias": [

                ],
                "Criterions": [
                  {
                    "Comment": "postgresql-plperl is earlier than 0:8.4.5-1.el6_0.2"
                  },
                  {
                    "Comment": "postgresql-plperl is signed with Red Hat redhatrelease2 key"
                  }
                ]
              },
              {
                "Operator": "AND",
                "Criterias": [

                ],
                "Criterions": [
                  {
                    "Comment": "postgresql-plpython is earlier than 0:8.4.5-1.el6_0.2"
                  },
                  {
                    "Comment": "postgresql-plpython is signed with Red Hat redhatrelease2 key"
                  }
                ]
              },
              {
                "Operator": "AND",
                "Criterias": [

                ],
                "Criterions": [
                  {
                    "Comment": "postgresql-pltcl is earlier than 0:8.4.5-1.el6_0.2"
                  },
                  {
                    "Comment": "postgresql-pltcl is signed with Red Hat redhatrelease2 key"
                  }
                ]
              },
              {
                "Operator": "AND",
                "Criterias": [

                ],
                "Criterions": [
                  {
                    "Comment": "postgresql-server is earlier than 0:8.4.5-1.el6_0.2"
                  },
                  {
                    "Comment": "postgresql-server is signed with Red Hat redhatrelease2 key"
                  }
                ]
              },
              {
                "Operator": "AND",
                "Criterias": [

                ],
                "Criterions": [
                  {
                    "Comment": "postgresql-test is earlier than 0:8.4.5-1.el6_0.2"
                  },
                  {
                    "Comment": "postgresql-test is signed with Red Hat redhatrelease2 key"
                  }
                ]
              }
            ],
            "Criterions": [

            ]
          }
        ],
        "Criterions": [
          {
            "Comment": "Oracle Linux 6 is installed"
          }
        ]
      }
    ],
    "Criterions": [
      {
        "Comment": "Oracle Linux 6 is installed"
      }
    ]
  },
  "Severity": "Moderate",
  "Cves": [
    {
      "Impact": "",
      "Href": "",
      "ID": "CVE-2010-3433"
    }
  ],
  "Issued": {
    "Date": "2010-11-23"
  }
}