{
  "Title": "RHSA-2010:0981: HelixPlayer removal (Critical)",
  "Description": "Helix Player is a media player.\nMultiple security flaws were discovered in RealPlayer. Helix Player and\nRealPlayer share a common source code base; therefore, some of the flaws\ndiscovered in RealPlayer may also affect Helix Player. Some of these flaws\ncould, when opening, viewing, or playing a malicious media file or stream,\nlead to arbitrary code execution with the privileges of the user running\nHelix Player. (CVE-2010-2997, CVE-2010-4375, CVE-2010-4378, CVE-2010-4379,\nCVE-2010-4382, CVE-2010-4383, CVE-2010-4384, CVE-2010-4385, CVE-2010-4386,\nCVE-2010-4392)\nThe Red Hat Security Response Team is unable to properly determine the\nimpact or fix all of these issues in Helix Player, due to the source code\nfor RealPlayer being unavailable.\nDue to the security concerns this update removes the HelixPlayer package\nfrom Red Hat Enterprise Linux 4. Users wishing to continue to use Helix\nPlayer should download it directly from https://player.helixcommunity.org/",
  "Platform": [
    "Red Hat Enterprise Linux 4"
  ],
  "References": [
    {
      "Source": "RHSA",
      "URI": "https://access.redhat.com/errata/RHSA-2010:0981",
      "ID": "RHSA-2010:0981"
    },
    {
      "Source": "CVE",
      "URI": "https://access.redhat.com/security/cve/CVE-2010-2997",
      "ID": "CVE-2010-2997"
    },
    {
      "Source": "CVE",
      "URI": "https://access.redhat.com/security/cve/CVE-2010-4375",
      "ID": "CVE-2010-4375"
    },
    {
      "Source": "CVE",
      "URI": "https://access.redhat.com/security/cve/CVE-2010-4378",
      "ID": "CVE-2010-4378"
    },
    {
      "Source": "CVE",
      "URI": "https://access.redhat.com/security/cve/CVE-2010-4379",
      "ID": "CVE-2010-4379"
    },
    {
      "Source": "CVE",
      "URI": "https://access.redhat.com/security/cve/CVE-2010-4382",
      "ID": "CVE-2010-4382"
    },
    {
      "Source": "CVE",
      "URI": "https://access.redhat.com/security/cve/CVE-2010-4383",
      "ID": "CVE-2010-4383"
    },
    {
      "Source": "CVE",
      "URI": "https://access.redhat.com/security/cve/CVE-2010-4384",
      "ID": "CVE-2010-4384"
    },
    {
      "Source": "CVE",
      "URI": "https://access.redhat.com/security/cve/CVE-2010-4385",
      "ID": "CVE-2010-4385"
    },
    {
      "Source": "CVE",
      "URI": "https://access.redhat.com/security/cve/CVE-2010-4386",
      "ID": "CVE-2010-4386"
    },
    {
      "Source": "CVE",
      "URI": "https://access.redhat.com/security/cve/CVE-2010-4392",
      "ID": "CVE-2010-4392"
    }
  ],
  "Criteria": {
    "Operator": "OR",
    "Criterias": [
      {
        "Operator": "AND",
        "Criterias": [

        ],
        "Criterions": [
          {
            "Comment": "Oracle Linux 4 is installed"
          },
          {
            "Comment": "HelixPlayer-uninstall is earlier than 1:1.0.6-3.el4_8.1"
          },
          {
            "Comment": "HelixPlayer-uninstall is signed with Red Hat redhatrelease2 key"
          }
        ]
      }
    ],
    "Criterions": [
      {
        "Comment": "Oracle Linux 4 is installed"
      }
    ]
  },
  "Severity": "Critical",
  "Cves": [
    {
      "Impact": "",
      "Href": "",
      "ID": "CVE-2010-2997"
    },
    {
      "Impact": "",
      "Href": "",
      "ID": "CVE-2010-4375"
    },
    {
      "Impact": "",
      "Href": "",
      "ID": "CVE-2010-4378"
    },
    {
      "Impact": "",
      "Href": "",
      "ID": "CVE-2010-4379"
    },
    {
      "Impact": "",
      "Href": "",
      "ID": "CVE-2010-4382"
    },
    {
      "Impact": "",
      "Href": "",
      "ID": "CVE-2010-4383"
    },
    {
      "Impact": "",
      "Href": "",
      "ID": "CVE-2010-4384"
    },
    {
      "Impact": "",
      "Href": "",
      "ID": "CVE-2010-4385"
    },
    {
      "Impact": "",
      "Href": "",
      "ID": "CVE-2010-4386"
    },
    {
      "Impact": "",
      "Href": "",
      "ID": "CVE-2010-4392"
    }
  ],
  "Issued": {
    "Date": "2010-12-14"
  }
}