{
  "Title": "RHSA-2010:0343: krb5 security and bug fix update (Important)",
  "Description": "Kerberos is a network authentication system which allows clients and\nservers to authenticate to each other using symmetric encryption and a\ntrusted third party, the Key Distribution Center (KDC).\nA use-after-free flaw was discovered in the MIT Kerberos administration\ndaemon, kadmind. A remote, authenticated attacker could use this flaw to\ncrash the kadmind daemon. Administrative privileges are not required to\ntrigger this flaw, as any realm user can request information about their\nown principal from kadmind. (CVE-2010-0629)\nThis update also fixes the following bug:\n* when a Kerberos client seeks tickets for use with a service, it must\ncontact the Key Distribution Center (KDC) to obtain them. The client must\nalso determine which realm the service belongs to and it typically does\nthis with a combination of client configuration detail, DNS information and\nguesswork.\nIf the service belongs to a realm other than the client's, cross-realm\nauthentication is required. Using a combination of client configuration and\nguesswork, the client determines the trust relationship sequence which\nforms the trusted path between the client's realm and the service's realm.\nThis may include one or more intermediate realms.\nAnticipating the KDC has better knowledge of extant trust relationships,\nthe client then requests a ticket from the service's KDC, indicating it\nwill accept guidance from the service's KDC by setting a special flag in\nthe request. A KDC which recognizes the flag can, at its option, return a\nticket-granting ticket for the next realm along the trust path the client\nshould be following.\nIf the ticket-granting ticket returned by the service's KDC is for use with\na realm the client has already determined was in the trusted path, the\nclient accepts this as an optimization and continues. If, however, the\nticket is for use in a realm the client is not expecting, the client\nresponds incorrectly: it treats the case as an error rather than continuing\nalong the path suggested by the service's KDC.\nFor this update, the krb5 1.7 modifications which allow the client to trust\nsuch KDCs to send them along the correct path, resulting in the client\nobtaining the tickets it originally desired, were backported to krb 1.6.1\n(the version shipped with Red Hat Enterprise Linux 5.5). (BZ#578540)\nAll krb5 users should upgrade to these updated packages, which contain\nbackported patches to correct these issues. All running KDC services must\nbe restarted for the update to take effect.",
  "Platform": [
    "Red Hat Enterprise Linux 5"
  ],
  "References": [
    {
      "Source": "RHSA",
      "URI": "https://access.redhat.com/errata/RHSA-2010:0343",
      "ID": "RHSA-2010:0343"
    },
    {
      "Source": "CVE",
      "URI": "https://access.redhat.com/security/cve/CVE-2010-0629",
      "ID": "CVE-2010-0629"
    }
  ],
  "Criteria": {
    "Operator": "OR",
    "Criterias": [
      {
        "Operator": "AND",
        "Criterias": [
          {
            "Operator": "OR",
            "Criterias": [
              {
                "Operator": "AND",
                "Criterias": [

                ],
                "Criterions": [
                  {
                    "Comment": "krb5-devel is earlier than 0:1.6.1-36.el5_5.2"
                  },
                  {
                    "Comment": "krb5-devel is signed with Red Hat redhatrelease2 key"
                  }
                ]
              },
              {
                "Operator": "AND",
                "Criterias": [

                ],
                "Criterions": [
                  {
                    "Comment": "krb5-libs is earlier than 0:1.6.1-36.el5_5.2"
                  },
                  {
                    "Comment": "krb5-libs is signed with Red Hat redhatrelease2 key"
                  }
                ]
              },
              {
                "Operator": "AND",
                "Criterias": [

                ],
                "Criterions": [
                  {
                    "Comment": "krb5-server is earlier than 0:1.6.1-36.el5_5.2"
                  },
                  {
                    "Comment": "krb5-server is signed with Red Hat redhatrelease2 key"
                  }
                ]
              },
              {
                "Operator": "AND",
                "Criterias": [

                ],
                "Criterions": [
                  {
                    "Comment": "krb5-workstation is earlier than 0:1.6.1-36.el5_5.2"
                  },
                  {
                    "Comment": "krb5-workstation is signed with Red Hat redhatrelease2 key"
                  }
                ]
              }
            ],
            "Criterions": [

            ]
          }
        ],
        "Criterions": [
          {
            "Comment": "Oracle Linux 5 is installed"
          }
        ]
      }
    ],
    "Criterions": [
      {
        "Comment": "Oracle Linux 5 is installed"
      }
    ]
  },
  "Severity": "Important",
  "Cves": [
    {
      "Impact": "",
      "Href": "",
      "ID": "CVE-2010-0629"
    }
  ],
  "Issued": {
    "Date": "2010-04-06"
  }
}