{
  "Title": "RHSA-2010:0430: postgresql84 security update (Moderate)",
  "Description": "PostgreSQL is an advanced object-relational database management system\n(DBMS). PL/Perl and PL/Tcl allow users to write PostgreSQL functions in the\nPerl and Tcl languages, and are installed in trusted mode by default. In\ntrusted mode, certain operations, such as operating system level access,\nare restricted.\nA flaw was found in the way PostgreSQL enforced permission checks on\nscripts written in PL/Perl. If the PL/Perl procedural language was\nregistered on a particular database, an authenticated database user running\na specially-crafted PL/Perl script could use this flaw to bypass intended\nPL/Perl trusted mode restrictions, allowing them to run arbitrary Perl\nscripts with the privileges of the database server. (CVE-2010-1169)\nRed Hat would like to thank Tim Bunce for responsibly reporting the\nCVE-2010-1169 flaw.\nA flaw was found in the way PostgreSQL enforced permission checks on\nscripts written in PL/Tcl. If the PL/Tcl procedural language was registered\non a particular database, an authenticated database user running a\nspecially-crafted PL/Tcl script could use this flaw to bypass intended\nPL/Tcl trusted mode restrictions, allowing them to run arbitrary Tcl\nscripts with the privileges of the database server. (CVE-2010-1170)\nThese packages upgrade PostgreSQL to version 8.4.4. Refer to the PostgreSQL\nRelease Notes for a list of changes:\nhttp://www.postgresql.org/docs/8.4/static/release.html\nAll PostgreSQL users are advised to upgrade to these updated packages,\nwhich correct these issues. If the postgresql service is running, it will\nbe automatically restarted after installing this update.",
  "Platform": [
    "Red Hat Enterprise Linux 5"
  ],
  "References": [
    {
      "Source": "RHSA",
      "URI": "https://access.redhat.com/errata/RHSA-2010:0430",
      "ID": "RHSA-2010:0430"
    },
    {
      "Source": "CVE",
      "URI": "https://access.redhat.com/security/cve/CVE-2010-1169",
      "ID": "CVE-2010-1169"
    },
    {
      "Source": "CVE",
      "URI": "https://access.redhat.com/security/cve/CVE-2010-1170",
      "ID": "CVE-2010-1170"
    },
    {
      "Source": "CVE",
      "URI": "https://access.redhat.com/security/cve/CVE-2010-1975",
      "ID": "CVE-2010-1975"
    }
  ],
  "Criteria": {
    "Operator": "OR",
    "Criterias": [
      {
        "Operator": "AND",
        "Criterias": [
          {
            "Operator": "OR",
            "Criterias": [
              {
                "Operator": "AND",
                "Criterias": [

                ],
                "Criterions": [
                  {
                    "Comment": "postgresql84 is earlier than 0:8.4.4-1.el5_5.1"
                  },
                  {
                    "Comment": "postgresql84 is signed with Red Hat redhatrelease2 key"
                  }
                ]
              },
              {
                "Operator": "AND",
                "Criterias": [

                ],
                "Criterions": [
                  {
                    "Comment": "postgresql84-contrib is earlier than 0:8.4.4-1.el5_5.1"
                  },
                  {
                    "Comment": "postgresql84-contrib is signed with Red Hat redhatrelease2 key"
                  }
                ]
              },
              {
                "Operator": "AND",
                "Criterias": [

                ],
                "Criterions": [
                  {
                    "Comment": "postgresql84-devel is earlier than 0:8.4.4-1.el5_5.1"
                  },
                  {
                    "Comment": "postgresql84-devel is signed with Red Hat redhatrelease2 key"
                  }
                ]
              },
              {
                "Operator": "AND",
                "Criterias": [

                ],
                "Criterions": [
                  {
                    "Comment": "postgresql84-docs is earlier than 0:8.4.4-1.el5_5.1"
                  },
                  {
                    "Comment": "postgresql84-docs is signed with Red Hat redhatrelease2 key"
                  }
                ]
              },
              {
                "Operator": "AND",
                "Criterias": [

                ],
                "Criterions": [
                  {
                    "Comment": "postgresql84-libs is earlier than 0:8.4.4-1.el5_5.1"
                  },
                  {
                    "Comment": "postgresql84-libs is signed with Red Hat redhatrelease2 key"
                  }
                ]
              },
              {
                "Operator": "AND",
                "Criterias": [

                ],
                "Criterions": [
                  {
                    "Comment": "postgresql84-plperl is earlier than 0:8.4.4-1.el5_5.1"
                  },
                  {
                    "Comment": "postgresql84-plperl is signed with Red Hat redhatrelease2 key"
                  }
                ]
              },
              {
                "Operator": "AND",
                "Criterias": [

                ],
                "Criterions": [
                  {
                    "Comment": "postgresql84-plpython is earlier than 0:8.4.4-1.el5_5.1"
                  },
                  {
                    "Comment": "postgresql84-plpython is signed with Red Hat redhatrelease2 key"
                  }
                ]
              },
              {
                "Operator": "AND",
                "Criterias": [

                ],
                "Criterions": [
                  {
                    "Comment": "postgresql84-pltcl is earlier than 0:8.4.4-1.el5_5.1"
                  },
                  {
                    "Comment": "postgresql84-pltcl is signed with Red Hat redhatrelease2 key"
                  }
                ]
              },
              {
                "Operator": "AND",
                "Criterias": [

                ],
                "Criterions": [
                  {
                    "Comment": "postgresql84-python is earlier than 0:8.4.4-1.el5_5.1"
                  },
                  {
                    "Comment": "postgresql84-python is signed with Red Hat redhatrelease2 key"
                  }
                ]
              },
              {
                "Operator": "AND",
                "Criterias": [

                ],
                "Criterions": [
                  {
                    "Comment": "postgresql84-server is earlier than 0:8.4.4-1.el5_5.1"
                  },
                  {
                    "Comment": "postgresql84-server is signed with Red Hat redhatrelease2 key"
                  }
                ]
              },
              {
                "Operator": "AND",
                "Criterias": [

                ],
                "Criterions": [
                  {
                    "Comment": "postgresql84-tcl is earlier than 0:8.4.4-1.el5_5.1"
                  },
                  {
                    "Comment": "postgresql84-tcl is signed with Red Hat redhatrelease2 key"
                  }
                ]
              },
              {
                "Operator": "AND",
                "Criterias": [

                ],
                "Criterions": [
                  {
                    "Comment": "postgresql84-test is earlier than 0:8.4.4-1.el5_5.1"
                  },
                  {
                    "Comment": "postgresql84-test is signed with Red Hat redhatrelease2 key"
                  }
                ]
              }
            ],
            "Criterions": [

            ]
          }
        ],
        "Criterions": [
          {
            "Comment": "Oracle Linux 5 is installed"
          }
        ]
      }
    ],
    "Criterions": [
      {
        "Comment": "Oracle Linux 5 is installed"
      }
    ]
  },
  "Severity": "Moderate",
  "Cves": [
    {
      "Impact": "",
      "Href": "",
      "ID": "CVE-2010-1169"
    },
    {
      "Impact": "",
      "Href": "",
      "ID": "CVE-2010-1170"
    },
    {
      "Impact": "",
      "Href": "",
      "ID": "CVE-2010-1975"
    }
  ],
  "Issued": {
    "Date": "2010-05-19"
  }
}