{
  "Title": "RHSA-2010:0859: poppler security update (Important)",
  "Description": "Poppler is a Portable Document Format (PDF) rendering library, used by\napplications such as Evince.\nTwo uninitialized pointer use flaws were discovered in poppler. An attacker\ncould create a malicious PDF file that, when opened, would cause\napplications that use poppler (such as Evince) to crash or, potentially,\nexecute arbitrary code. (CVE-2010-3702, CVE-2010-3703)\nAn array index error was found in the way poppler parsed PostScript Type 1\nfonts embedded in PDF documents. An attacker could create a malicious PDF\nfile that, when opened, would cause applications that use poppler (such as\nEvince) to crash or, potentially, execute arbitrary code. (CVE-2010-3704)\nUsers are advised to upgrade to these updated packages, which contain\nbackported patches to correct these issues.",
  "Platform": [
    "Red Hat Enterprise Linux 6"
  ],
  "References": [
    {
      "Source": "RHSA",
      "URI": "https://access.redhat.com/errata/RHSA-2010:0859",
      "ID": "RHSA-2010:0859"
    },
    {
      "Source": "CVE",
      "URI": "https://access.redhat.com/security/cve/CVE-2010-3702",
      "ID": "CVE-2010-3702"
    },
    {
      "Source": "CVE",
      "URI": "https://access.redhat.com/security/cve/CVE-2010-3703",
      "ID": "CVE-2010-3703"
    },
    {
      "Source": "CVE",
      "URI": "https://access.redhat.com/security/cve/CVE-2010-3704",
      "ID": "CVE-2010-3704"
    }
  ],
  "Criteria": {
    "Operator": "OR",
    "Criterias": [
      {
        "Operator": "AND",
        "Criterias": [
          {
            "Operator": "OR",
            "Criterias": [
              {
                "Operator": "AND",
                "Criterias": [

                ],
                "Criterions": [
                  {
                    "Comment": "poppler is earlier than 0:0.12.4-3.el6_0.1"
                  },
                  {
                    "Comment": "poppler is signed with Red Hat redhatrelease2 key"
                  }
                ]
              },
              {
                "Operator": "AND",
                "Criterias": [

                ],
                "Criterions": [
                  {
                    "Comment": "poppler-devel is earlier than 0:0.12.4-3.el6_0.1"
                  },
                  {
                    "Comment": "poppler-devel is signed with Red Hat redhatrelease2 key"
                  }
                ]
              },
              {
                "Operator": "AND",
                "Criterias": [

                ],
                "Criterions": [
                  {
                    "Comment": "poppler-glib is earlier than 0:0.12.4-3.el6_0.1"
                  },
                  {
                    "Comment": "poppler-glib is signed with Red Hat redhatrelease2 key"
                  }
                ]
              },
              {
                "Operator": "AND",
                "Criterias": [

                ],
                "Criterions": [
                  {
                    "Comment": "poppler-glib-devel is earlier than 0:0.12.4-3.el6_0.1"
                  },
                  {
                    "Comment": "poppler-glib-devel is signed with Red Hat redhatrelease2 key"
                  }
                ]
              },
              {
                "Operator": "AND",
                "Criterias": [

                ],
                "Criterions": [
                  {
                    "Comment": "poppler-qt is earlier than 0:0.12.4-3.el6_0.1"
                  },
                  {
                    "Comment": "poppler-qt is signed with Red Hat redhatrelease2 key"
                  }
                ]
              },
              {
                "Operator": "AND",
                "Criterias": [

                ],
                "Criterions": [
                  {
                    "Comment": "poppler-qt-devel is earlier than 0:0.12.4-3.el6_0.1"
                  },
                  {
                    "Comment": "poppler-qt-devel is signed with Red Hat redhatrelease2 key"
                  }
                ]
              },
              {
                "Operator": "AND",
                "Criterias": [

                ],
                "Criterions": [
                  {
                    "Comment": "poppler-qt4 is earlier than 0:0.12.4-3.el6_0.1"
                  },
                  {
                    "Comment": "poppler-qt4 is signed with Red Hat redhatrelease2 key"
                  }
                ]
              },
              {
                "Operator": "AND",
                "Criterias": [

                ],
                "Criterions": [
                  {
                    "Comment": "poppler-qt4-devel is earlier than 0:0.12.4-3.el6_0.1"
                  },
                  {
                    "Comment": "poppler-qt4-devel is signed with Red Hat redhatrelease2 key"
                  }
                ]
              },
              {
                "Operator": "AND",
                "Criterias": [

                ],
                "Criterions": [
                  {
                    "Comment": "poppler-utils is earlier than 0:0.12.4-3.el6_0.1"
                  },
                  {
                    "Comment": "poppler-utils is signed with Red Hat redhatrelease2 key"
                  }
                ]
              }
            ],
            "Criterions": [

            ]
          }
        ],
        "Criterions": [
          {
            "Comment": "Oracle Linux 6 is installed"
          }
        ]
      }
    ],
    "Criterions": [
      {
        "Comment": "Oracle Linux 6 is installed"
      }
    ]
  },
  "Severity": "Important",
  "Cves": [
    {
      "Impact": "",
      "Href": "",
      "ID": "CVE-2010-3702"
    },
    {
      "Impact": "",
      "Href": "",
      "ID": "CVE-2010-3703"
    },
    {
      "Impact": "",
      "Href": "",
      "ID": "CVE-2010-3704"
    }
  ],
  "Issued": {
    "Date": "2010-11-10"
  }
}