{
  "Title": "RHSA-2010:0926: krb5 security update (Moderate)",
  "Description": "Kerberos is a network authentication system which allows clients and\nservers to authenticate to each other using symmetric encryption and a\ntrusted third party, the Key Distribution Center (KDC).\nMultiple checksum validation flaws were discovered in the MIT Kerberos\nimplementation. A remote attacker could use these flaws to tamper with\ncertain Kerberos protocol packets and, possibly, bypass authentication\nmechanisms in certain configurations using Single-use Authentication\nMechanisms. (CVE-2010-1323)\nRed Hat would like to thank the MIT Kerberos Team for reporting these\nissues.\nAll krb5 users should upgrade to these updated packages, which contain a\nbackported patch to correct these issues. After installing the updated\npackages, the krb5kdc daemon will be restarted automatically.",
  "Platform": [
    "Red Hat Enterprise Linux 4",
    "Red Hat Enterprise Linux 5"
  ],
  "References": [
    {
      "Source": "RHSA",
      "URI": "https://access.redhat.com/errata/RHSA-2010:0926",
      "ID": "RHSA-2010:0926"
    },
    {
      "Source": "CVE",
      "URI": "https://access.redhat.com/security/cve/CVE-2010-1323",
      "ID": "CVE-2010-1323"
    }
  ],
  "Criteria": {
    "Operator": "OR",
    "Criterias": [
      {
        "Operator": "AND",
        "Criterias": [
          {
            "Operator": "OR",
            "Criterias": [
              {
                "Operator": "AND",
                "Criterias": [

                ],
                "Criterions": [
                  {
                    "Comment": "krb5-devel is earlier than 0:1.3.4-62.el4_8.3"
                  },
                  {
                    "Comment": "krb5-devel is signed with Red Hat redhatrelease2 key"
                  }
                ]
              },
              {
                "Operator": "AND",
                "Criterias": [

                ],
                "Criterions": [
                  {
                    "Comment": "krb5-libs is earlier than 0:1.3.4-62.el4_8.3"
                  },
                  {
                    "Comment": "krb5-libs is signed with Red Hat redhatrelease2 key"
                  }
                ]
              },
              {
                "Operator": "AND",
                "Criterias": [

                ],
                "Criterions": [
                  {
                    "Comment": "krb5-server is earlier than 0:1.3.4-62.el4_8.3"
                  },
                  {
                    "Comment": "krb5-server is signed with Red Hat redhatrelease2 key"
                  }
                ]
              },
              {
                "Operator": "AND",
                "Criterias": [

                ],
                "Criterions": [
                  {
                    "Comment": "krb5-workstation is earlier than 0:1.3.4-62.el4_8.3"
                  },
                  {
                    "Comment": "krb5-workstation is signed with Red Hat redhatrelease2 key"
                  }
                ]
              }
            ],
            "Criterions": [

            ]
          }
        ],
        "Criterions": [
          {
            "Comment": "Oracle Linux 4 is installed"
          }
        ]
      },
      {
        "Operator": "AND",
        "Criterias": [
          {
            "Operator": "OR",
            "Criterias": [
              {
                "Operator": "AND",
                "Criterias": [

                ],
                "Criterions": [
                  {
                    "Comment": "krb5-devel is earlier than 0:1.6.1-36.el5_5.6"
                  },
                  {
                    "Comment": "krb5-devel is signed with Red Hat redhatrelease2 key"
                  }
                ]
              },
              {
                "Operator": "AND",
                "Criterias": [

                ],
                "Criterions": [
                  {
                    "Comment": "krb5-libs is earlier than 0:1.6.1-36.el5_5.6"
                  },
                  {
                    "Comment": "krb5-libs is signed with Red Hat redhatrelease2 key"
                  }
                ]
              },
              {
                "Operator": "AND",
                "Criterias": [

                ],
                "Criterions": [
                  {
                    "Comment": "krb5-server is earlier than 0:1.6.1-36.el5_5.6"
                  },
                  {
                    "Comment": "krb5-server is signed with Red Hat redhatrelease2 key"
                  }
                ]
              },
              {
                "Operator": "AND",
                "Criterias": [

                ],
                "Criterions": [
                  {
                    "Comment": "krb5-workstation is earlier than 0:1.6.1-36.el5_5.6"
                  },
                  {
                    "Comment": "krb5-workstation is signed with Red Hat redhatrelease2 key"
                  }
                ]
              }
            ],
            "Criterions": [

            ]
          }
        ],
        "Criterions": [
          {
            "Comment": "Oracle Linux 5 is installed"
          }
        ]
      }
    ],
    "Criterions": [
      {
        "Comment": "Oracle Linux 4 is installed"
      }
    ]
  },
  "Severity": "Moderate",
  "Cves": [
    {
      "Impact": "",
      "Href": "",
      "ID": "CVE-2010-1323"
    }
  ],
  "Issued": {
    "Date": "2010-11-30"
  }
}