{
  "Title": "RHSA-2010:0935: java-1.4.2-ibm security update (Moderate)",
  "Description": "The IBM 1.4.2 SR13-FP7 Java release includes the IBM Java 2 Runtime\nEnvironment and the IBM Java 2 Software Development Kit.\nThis update fixes two vulnerabilities in the IBM Java 2 Runtime Environment\nand the IBM Java 2 Software Development Kit. Detailed vulnerability\ndescriptions are linked from the IBM \"Security alerts\" page, listed in the\nReferences section. (CVE-2010-1321, CVE-2010-3574)\nAll users of java-1.4.2-ibm are advised to upgrade to these updated\npackages, which contain the IBM 1.4.2 SR13-FP7 Java release. All running\ninstances of IBM Java must be restarted for this update to take effect.",
  "Platform": [
    "Supplementary for Red Hat Enterprise Linux 5"
  ],
  "References": [
    {
      "Source": "RHSA",
      "URI": "https://rhn.redhat.com/errata/RHSA-2010-0935.html",
      "ID": "RHSA-2010:0935-01"
    },
    {
      "Source": "CVE",
      "URI": "https://access.redhat.com/security/cve/CVE-2010-1321",
      "ID": "CVE-2010-1321"
    },
    {
      "Source": "CVE",
      "URI": "https://access.redhat.com/security/cve/CVE-2010-3574",
      "ID": "CVE-2010-3574"
    }
  ],
  "Criteria": {
    "Operator": "AND",
    "Criterias": [
      {
        "Operator": "OR",
        "Criterias": [
          {
            "Operator": "AND",
            "Criterias": [

            ],
            "Criterions": [
              {
                "Comment": "java-1.4.2-ibm is earlier than 0:1.4.2.13.7-1jpp.3.el5"
              },
              {
                "Comment": "java-1.4.2-ibm is signed with Red Hat redhatrelease key"
              }
            ]
          },
          {
            "Operator": "AND",
            "Criterias": [

            ],
            "Criterions": [
              {
                "Comment": "java-1.4.2-ibm-demo is earlier than 0:1.4.2.13.7-1jpp.3.el5"
              },
              {
                "Comment": "java-1.4.2-ibm-demo is signed with Red Hat redhatrelease key"
              }
            ]
          },
          {
            "Operator": "AND",
            "Criterias": [

            ],
            "Criterions": [
              {
                "Comment": "java-1.4.2-ibm-devel is earlier than 0:1.4.2.13.7-1jpp.3.el5"
              },
              {
                "Comment": "java-1.4.2-ibm-devel is signed with Red Hat redhatrelease key"
              }
            ]
          },
          {
            "Operator": "AND",
            "Criterias": [

            ],
            "Criterions": [
              {
                "Comment": "java-1.4.2-ibm-javacomm is earlier than 0:1.4.2.13.7-1jpp.3.el5"
              },
              {
                "Comment": "java-1.4.2-ibm-javacomm is signed with Red Hat redhatrelease key"
              }
            ]
          },
          {
            "Operator": "AND",
            "Criterias": [

            ],
            "Criterions": [
              {
                "Comment": "java-1.4.2-ibm-jdbc is earlier than 0:1.4.2.13.7-1jpp.3.el5"
              },
              {
                "Comment": "java-1.4.2-ibm-jdbc is signed with Red Hat redhatrelease key"
              }
            ]
          },
          {
            "Operator": "AND",
            "Criterias": [

            ],
            "Criterions": [
              {
                "Comment": "java-1.4.2-ibm-plugin is earlier than 0:1.4.2.13.7-1jpp.3.el5"
              },
              {
                "Comment": "java-1.4.2-ibm-plugin is signed with Red Hat redhatrelease key"
              }
            ]
          },
          {
            "Operator": "AND",
            "Criterias": [

            ],
            "Criterions": [
              {
                "Comment": "java-1.4.2-ibm-src is earlier than 0:1.4.2.13.7-1jpp.3.el5"
              },
              {
                "Comment": "java-1.4.2-ibm-src is signed with Red Hat redhatrelease key"
              }
            ]
          }
        ],
        "Criterions": [

        ]
      }
    ],
    "Criterions": [
      {
        "Comment": "Oracle Linux 5 is installed"
      }
    ]
  },
  "Severity": "Moderate",
  "Cves": [
    {
      "Impact": "",
      "Href": "",
      "ID": "CVE-2010-1321"
    },
    {
      "Impact": "",
      "Href": "",
      "ID": "CVE-2010-3574"
    }
  ],
  "Issued": {
    "Date": "2010-12-01"
  }
}