{
  "Title": "RHSA-2010:0499: seamonkey security update (Critical)",
  "Description": "SeaMonkey is an open source web browser, email and newsgroup client, IRC\nchat client, and HTML editor.\nSeveral flaws were found in the processing of malformed web content. A web\npage containing malicious content could cause SeaMonkey to crash or,\npotentially, execute arbitrary code with the privileges of the user running\nSeaMonkey. (CVE-2010-1200)\nA flaw was found in the way browser plug-ins interact. It was possible for\na plug-in to reference the freed memory from a different plug-in, resulting\nin the execution of arbitrary code with the privileges of the user running\nSeaMonkey. (CVE-2010-1198)\nAn integer overflow flaw was found in the processing of malformed web\ncontent. A web page containing malicious content could cause SeaMonkey to\ncrash or, potentially, execute arbitrary code with the privileges of the\nuser running SeaMonkey. (CVE-2010-1199)\nA flaw was found in the way SeaMonkey processed mail attachments. A\nspecially-crafted mail message could cause SeaMonkey to crash.\n(CVE-2010-0163)\nA flaw was found in the way SeaMonkey handled the \"Content-Disposition:\nattachment\" HTTP header when the \"Content-Type: multipart\" HTTP header was\nalso present. A website that allows arbitrary uploads and relies on the\n\"Content-Disposition: attachment\" HTTP header to prevent content from being\ndisplayed inline, could be used by an attacker to serve malicious content\nto users. (CVE-2010-1197)\nAll SeaMonkey users should upgrade to these updated packages, which correct\nthese issues. After installing the update, SeaMonkey must be restarted for\nthe changes to take effect.",
  "Platform": [
    "Red Hat Enterprise Linux 4"
  ],
  "References": [
    {
      "Source": "RHSA",
      "URI": "https://access.redhat.com/errata/RHSA-2010:0499",
      "ID": "RHSA-2010:0499"
    },
    {
      "Source": "CVE",
      "URI": "https://access.redhat.com/security/cve/CVE-2010-0163",
      "ID": "CVE-2010-0163"
    },
    {
      "Source": "CVE",
      "URI": "https://access.redhat.com/security/cve/CVE-2010-1197",
      "ID": "CVE-2010-1197"
    },
    {
      "Source": "CVE",
      "URI": "https://access.redhat.com/security/cve/CVE-2010-1198",
      "ID": "CVE-2010-1198"
    },
    {
      "Source": "CVE",
      "URI": "https://access.redhat.com/security/cve/CVE-2010-1199",
      "ID": "CVE-2010-1199"
    },
    {
      "Source": "CVE",
      "URI": "https://access.redhat.com/security/cve/CVE-2010-1200",
      "ID": "CVE-2010-1200"
    }
  ],
  "Criteria": {
    "Operator": "OR",
    "Criterias": [
      {
        "Operator": "AND",
        "Criterias": [
          {
            "Operator": "OR",
            "Criterias": [
              {
                "Operator": "AND",
                "Criterias": [

                ],
                "Criterions": [
                  {
                    "Comment": "seamonkey is earlier than 0:1.0.9-58.el4_8"
                  },
                  {
                    "Comment": "seamonkey is signed with Red Hat redhatrelease2 key"
                  }
                ]
              },
              {
                "Operator": "AND",
                "Criterias": [

                ],
                "Criterions": [
                  {
                    "Comment": "seamonkey-chat is earlier than 0:1.0.9-58.el4_8"
                  },
                  {
                    "Comment": "seamonkey-chat is signed with Red Hat redhatrelease2 key"
                  }
                ]
              },
              {
                "Operator": "AND",
                "Criterias": [

                ],
                "Criterions": [
                  {
                    "Comment": "seamonkey-devel is earlier than 0:1.0.9-58.el4_8"
                  },
                  {
                    "Comment": "seamonkey-devel is signed with Red Hat redhatrelease2 key"
                  }
                ]
              },
              {
                "Operator": "AND",
                "Criterias": [

                ],
                "Criterions": [
                  {
                    "Comment": "seamonkey-dom-inspector is earlier than 0:1.0.9-58.el4_8"
                  },
                  {
                    "Comment": "seamonkey-dom-inspector is signed with Red Hat redhatrelease2 key"
                  }
                ]
              },
              {
                "Operator": "AND",
                "Criterias": [

                ],
                "Criterions": [
                  {
                    "Comment": "seamonkey-js-debugger is earlier than 0:1.0.9-58.el4_8"
                  },
                  {
                    "Comment": "seamonkey-js-debugger is signed with Red Hat redhatrelease2 key"
                  }
                ]
              },
              {
                "Operator": "AND",
                "Criterias": [

                ],
                "Criterions": [
                  {
                    "Comment": "seamonkey-mail is earlier than 0:1.0.9-58.el4_8"
                  },
                  {
                    "Comment": "seamonkey-mail is signed with Red Hat redhatrelease2 key"
                  }
                ]
              }
            ],
            "Criterions": [

            ]
          }
        ],
        "Criterions": [
          {
            "Comment": "Oracle Linux 4 is installed"
          }
        ]
      }
    ],
    "Criterions": [
      {
        "Comment": "Oracle Linux 4 is installed"
      }
    ]
  },
  "Severity": "Critical",
  "Cves": [
    {
      "Impact": "",
      "Href": "",
      "ID": "CVE-2010-0163"
    },
    {
      "Impact": "",
      "Href": "",
      "ID": "CVE-2010-1197"
    },
    {
      "Impact": "",
      "Href": "",
      "ID": "CVE-2010-1198"
    },
    {
      "Impact": "",
      "Href": "",
      "ID": "CVE-2010-1199"
    },
    {
      "Impact": "",
      "Href": "",
      "ID": "CVE-2010-1200"
    }
  ],
  "Issued": {
    "Date": "2010-06-22"
  }
}