{
  "Title": "RHSA-2010:0824: mysql security update (Moderate)",
  "Description": "MySQL is a multi-user, multi-threaded SQL database server. It consists of\nthe MySQL server daemon (mysqld) and many client programs and libraries.\nIt was found that the MySQL PolyFromWKB() function did not sanity check\nWell-Known Binary (WKB) data. A remote, authenticated attacker could use\nspecially-crafted WKB data to crash mysqld. This issue only caused a\ntemporary denial of service, as mysqld was automatically restarted after\nthe crash. (CVE-2010-3840)\nA flaw was found in the way MySQL processed certain alternating READ\nrequests provided by HANDLER statements. A remote, authenticated attacker\ncould use this flaw to provide such requests, causing mysqld to crash. This\nissue only caused a temporary denial of service, as mysqld was\nautomatically restarted after the crash. (CVE-2010-3681)\nA directory traversal flaw was found in the way MySQL handled the\nparameters of the MySQL COM_FIELD_LIST network protocol command. A remote,\nauthenticated attacker could use this flaw to obtain descriptions of the\nfields of an arbitrary table using a request with a specially-crafted\ntable name. (CVE-2010-1848)\nAll MySQL users are advised to upgrade to these updated packages, which\ncontain backported patches to correct these issues. After installing this\nupdate, the MySQL server daemon (mysqld) will be restarted automatically.",
  "Platform": [
    "Red Hat Enterprise Linux 4"
  ],
  "References": [
    {
      "Source": "RHSA",
      "URI": "https://access.redhat.com/errata/RHSA-2010:0824",
      "ID": "RHSA-2010:0824"
    },
    {
      "Source": "CVE",
      "URI": "https://access.redhat.com/security/cve/CVE-2010-1848",
      "ID": "CVE-2010-1848"
    },
    {
      "Source": "CVE",
      "URI": "https://access.redhat.com/security/cve/CVE-2010-3681",
      "ID": "CVE-2010-3681"
    },
    {
      "Source": "CVE",
      "URI": "https://access.redhat.com/security/cve/CVE-2010-3840",
      "ID": "CVE-2010-3840"
    }
  ],
  "Criteria": {
    "Operator": "OR",
    "Criterias": [
      {
        "Operator": "AND",
        "Criterias": [
          {
            "Operator": "OR",
            "Criterias": [
              {
                "Operator": "AND",
                "Criterias": [

                ],
                "Criterions": [
                  {
                    "Comment": "mysql is earlier than 0:4.1.22-2.el4_8.4"
                  },
                  {
                    "Comment": "mysql is signed with Red Hat redhatrelease2 key"
                  }
                ]
              },
              {
                "Operator": "AND",
                "Criterias": [

                ],
                "Criterions": [
                  {
                    "Comment": "mysql-bench is earlier than 0:4.1.22-2.el4_8.4"
                  },
                  {
                    "Comment": "mysql-bench is signed with Red Hat redhatrelease2 key"
                  }
                ]
              },
              {
                "Operator": "AND",
                "Criterias": [

                ],
                "Criterions": [
                  {
                    "Comment": "mysql-devel is earlier than 0:4.1.22-2.el4_8.4"
                  },
                  {
                    "Comment": "mysql-devel is signed with Red Hat redhatrelease2 key"
                  }
                ]
              },
              {
                "Operator": "AND",
                "Criterias": [

                ],
                "Criterions": [
                  {
                    "Comment": "mysql-server is earlier than 0:4.1.22-2.el4_8.4"
                  },
                  {
                    "Comment": "mysql-server is signed with Red Hat redhatrelease2 key"
                  }
                ]
              }
            ],
            "Criterions": [

            ]
          }
        ],
        "Criterions": [
          {
            "Comment": "Oracle Linux 4 is installed"
          }
        ]
      }
    ],
    "Criterions": [
      {
        "Comment": "Oracle Linux 4 is installed"
      }
    ]
  },
  "Severity": "Moderate",
  "Cves": [
    {
      "Impact": "",
      "Href": "",
      "ID": "CVE-2010-1848"
    },
    {
      "Impact": "",
      "Href": "",
      "ID": "CVE-2010-3681"
    },
    {
      "Impact": "",
      "Href": "",
      "ID": "CVE-2010-3840"
    }
  ],
  "Issued": {
    "Date": "2010-11-03"
  }
}