{
  "Title": "RHSA-2010:1002: mod_auth_mysql security update (Moderate)",
  "Description": "The mod_auth_mysql package includes an extension module for the Apache HTTP\nServer, which can be used to implement web user authentication against a\nMySQL database.\nA flaw was found in the way mod_auth_mysql escaped certain\nmultibyte-encoded strings. If mod_auth_mysql was configured to use a\nmultibyte character set that allowed a backslash (\"\\\") as part of the\ncharacter encodings, a remote attacker could inject arbitrary SQL commands\ninto a login request. (CVE-2008-2384)\nNote: This flaw only affected non-default installations where\nAuthMySQLCharacterSet is configured to use one of the affected multibyte\ncharacter sets. Installations that did not use the AuthMySQLCharacterSet\nconfiguration option were not vulnerable to this flaw.\nAll mod_auth_mysql users are advised to upgrade to this updated package,\nwhich contains a backported patch to correct this issue. After installing\nthe updated package, the httpd daemon must be restarted for the update to\ntake effect.",
  "Platform": [
    "Red Hat Enterprise Linux 6"
  ],
  "References": [
    {
      "Source": "RHSA",
      "URI": "https://access.redhat.com/errata/RHSA-2010:1002",
      "ID": "RHSA-2010:1002"
    },
    {
      "Source": "CVE",
      "URI": "https://access.redhat.com/security/cve/CVE-2008-2384",
      "ID": "CVE-2008-2384"
    }
  ],
  "Criteria": {
    "Operator": "OR",
    "Criterias": [
      {
        "Operator": "AND",
        "Criterias": [

        ],
        "Criterions": [
          {
            "Comment": "Oracle Linux 6 is installed"
          },
          {
            "Comment": "mod_auth_mysql is earlier than 1:3.0.0-11.el6_0.1"
          },
          {
            "Comment": "mod_auth_mysql is signed with Red Hat redhatrelease2 key"
          }
        ]
      }
    ],
    "Criterions": [
      {
        "Comment": "Oracle Linux 6 is installed"
      }
    ]
  },
  "Severity": "Moderate",
  "Cves": [
    {
      "Impact": "",
      "Href": "",
      "ID": "CVE-2008-2384"
    }
  ],
  "Issued": {
    "Date": "2010-12-21"
  }
}