{
  "Title": "RHSA-2010:0143: cpio security update (Moderate)",
  "Description": "GNU cpio copies files into or out of a cpio or tar archive.\nA heap-based buffer overflow flaw was found in the way cpio expanded\narchive files. If a user were tricked into expanding a specially-crafted\narchive, it could cause the cpio executable to crash or execute arbitrary\ncode with the privileges of the user running cpio. (CVE-2010-0624)\nRed Hat would like to thank Jakob Lell for responsibly reporting this\nissue.\nUsers of cpio are advised to upgrade to this updated package, which\ncontains a backported patch to correct this issue.",
  "Platform": [
    "Red Hat Enterprise Linux 4"
  ],
  "References": [
    {
      "Source": "RHSA",
      "URI": "https://access.redhat.com/errata/RHSA-2010:0143",
      "ID": "RHSA-2010:0143"
    },
    {
      "Source": "CVE",
      "URI": "https://access.redhat.com/security/cve/CVE-2010-0624",
      "ID": "CVE-2010-0624"
    }
  ],
  "Criteria": {
    "Operator": "OR",
    "Criterias": [
      {
        "Operator": "AND",
        "Criterias": [

        ],
        "Criterions": [
          {
            "Comment": "Oracle Linux 4 is installed"
          },
          {
            "Comment": "cpio is earlier than 0:2.5-16.el4_8.1"
          },
          {
            "Comment": "cpio is signed with Red Hat redhatrelease2 key"
          }
        ]
      }
    ],
    "Criterions": [
      {
        "Comment": "Oracle Linux 4 is installed"
      }
    ]
  },
  "Severity": "Moderate",
  "Cves": [
    {
      "Impact": "",
      "Href": "",
      "ID": "CVE-2010-0624"
    }
  ],
  "Issued": {
    "Date": "2010-03-16"
  }
}