{
  "Title": "RHSA-2010:0704: kernel security update (Important)",
  "Description": "The kernel packages contain the Linux kernel, the core of any Linux\noperating system.\nThis update fixes the following security issue:\n* The compat_alloc_user_space() function in the Linux kernel 32/64-bit\ncompatibility layer implementation was missing sanity checks. This function\ncould be abused in other areas of the Linux kernel if its length argument\ncan be controlled from user-space. On 64-bit systems, a local, unprivileged\nuser could use this flaw to escalate their privileges. (CVE-2010-3081,\nImportant)\nRed Hat would like to thank Ben Hawkes for reporting this issue.\nRed Hat is aware that a public exploit for this issue is available. Refer\nto Knowledgebase article DOC-40265 for further details:\nhttps://access.redhat.com/kb/docs/DOC-40265\nUsers should upgrade to these updated packages, which contain a backported\npatch to correct this issue. The system must be rebooted for this update to\ntake effect.",
  "Platform": [
    "Red Hat Enterprise Linux 5"
  ],
  "References": [
    {
      "Source": "RHSA",
      "URI": "https://access.redhat.com/errata/RHSA-2010:0704",
      "ID": "RHSA-2010:0704"
    },
    {
      "Source": "CVE",
      "URI": "https://access.redhat.com/security/cve/CVE-2010-3081",
      "ID": "CVE-2010-3081"
    }
  ],
  "Criteria": {
    "Operator": "OR",
    "Criterias": [
      {
        "Operator": "AND",
        "Criterias": [
          {
            "Operator": "OR",
            "Criterias": [

            ],
            "Criterions": [
              {
                "Comment": "kernel earlier than 0:2.6.18-194.11.4.el5 is currently running"
              },
              {
                "Comment": "kernel earlier than 0:2.6.18-194.11.4.el5 is set to boot up on next boot"
              }
            ]
          },
          {
            "Operator": "OR",
            "Criterias": [
              {
                "Operator": "AND",
                "Criterias": [

                ],
                "Criterions": [
                  {
                    "Comment": "kernel is earlier than 0:2.6.18-194.11.4.el5"
                  },
                  {
                    "Comment": "kernel is signed with Red Hat redhatrelease2 key"
                  }
                ]
              },
              {
                "Operator": "AND",
                "Criterias": [

                ],
                "Criterions": [
                  {
                    "Comment": "kernel-PAE is earlier than 0:2.6.18-194.11.4.el5"
                  },
                  {
                    "Comment": "kernel-PAE is signed with Red Hat redhatrelease2 key"
                  }
                ]
              },
              {
                "Operator": "AND",
                "Criterias": [

                ],
                "Criterions": [
                  {
                    "Comment": "kernel-PAE-devel is earlier than 0:2.6.18-194.11.4.el5"
                  },
                  {
                    "Comment": "kernel-PAE-devel is signed with Red Hat redhatrelease2 key"
                  }
                ]
              },
              {
                "Operator": "AND",
                "Criterias": [

                ],
                "Criterions": [
                  {
                    "Comment": "kernel-debug is earlier than 0:2.6.18-194.11.4.el5"
                  },
                  {
                    "Comment": "kernel-debug is signed with Red Hat redhatrelease2 key"
                  }
                ]
              },
              {
                "Operator": "AND",
                "Criterias": [

                ],
                "Criterions": [
                  {
                    "Comment": "kernel-debug-devel is earlier than 0:2.6.18-194.11.4.el5"
                  },
                  {
                    "Comment": "kernel-debug-devel is signed with Red Hat redhatrelease2 key"
                  }
                ]
              },
              {
                "Operator": "AND",
                "Criterias": [

                ],
                "Criterions": [
                  {
                    "Comment": "kernel-devel is earlier than 0:2.6.18-194.11.4.el5"
                  },
                  {
                    "Comment": "kernel-devel is signed with Red Hat redhatrelease2 key"
                  }
                ]
              },
              {
                "Operator": "AND",
                "Criterias": [

                ],
                "Criterions": [
                  {
                    "Comment": "kernel-doc is earlier than 0:2.6.18-194.11.4.el5"
                  },
                  {
                    "Comment": "kernel-doc is signed with Red Hat redhatrelease2 key"
                  }
                ]
              },
              {
                "Operator": "AND",
                "Criterias": [

                ],
                "Criterions": [
                  {
                    "Comment": "kernel-headers is earlier than 0:2.6.18-194.11.4.el5"
                  },
                  {
                    "Comment": "kernel-headers is signed with Red Hat redhatrelease2 key"
                  }
                ]
              },
              {
                "Operator": "AND",
                "Criterias": [

                ],
                "Criterions": [
                  {
                    "Comment": "kernel-kdump is earlier than 0:2.6.18-194.11.4.el5"
                  },
                  {
                    "Comment": "kernel-kdump is signed with Red Hat redhatrelease2 key"
                  }
                ]
              },
              {
                "Operator": "AND",
                "Criterias": [

                ],
                "Criterions": [
                  {
                    "Comment": "kernel-kdump-devel is earlier than 0:2.6.18-194.11.4.el5"
                  },
                  {
                    "Comment": "kernel-kdump-devel is signed with Red Hat redhatrelease2 key"
                  }
                ]
              },
              {
                "Operator": "AND",
                "Criterias": [

                ],
                "Criterions": [
                  {
                    "Comment": "kernel-xen is earlier than 0:2.6.18-194.11.4.el5"
                  },
                  {
                    "Comment": "kernel-xen is signed with Red Hat redhatrelease2 key"
                  }
                ]
              },
              {
                "Operator": "AND",
                "Criterias": [

                ],
                "Criterions": [
                  {
                    "Comment": "kernel-xen-devel is earlier than 0:2.6.18-194.11.4.el5"
                  },
                  {
                    "Comment": "kernel-xen-devel is signed with Red Hat redhatrelease2 key"
                  }
                ]
              }
            ],
            "Criterions": [

            ]
          }
        ],
        "Criterions": [
          {
            "Comment": "Oracle Linux 5 is installed"
          }
        ]
      }
    ],
    "Criterions": [
      {
        "Comment": "Oracle Linux 5 is installed"
      }
    ]
  },
  "Severity": "Important",
  "Cves": [
    {
      "Impact": "",
      "Href": "",
      "ID": "CVE-2010-3081"
    }
  ],
  "Issued": {
    "Date": "2010-09-21"
  }
}