{
  "Title": "RHSA-2010:0866: cups security update (Important)",
  "Description": "The Common UNIX Printing System (CUPS) provides a portable printing layer\nfor UNIX operating systems.\nAn invalid free flaw was found in the way the CUPS server parsed Internet\nPrinting Protocol (IPP) packets. A malicious user able to send IPP requests\nto the CUPS server could use this flaw to crash the CUPS server.\n(CVE-2010-2941)\nRed Hat would like to thank Emmanuel Bouillon of NATO C3 Agency for\nreporting this issue.\nUsers of cups are advised to upgrade to these updated packages, which\ncontain a backported patch to correct this issue. After installing this\nupdate, the cupsd daemon will be restarted automatically.",
  "Platform": [
    "Red Hat Enterprise Linux 6"
  ],
  "References": [
    {
      "Source": "RHSA",
      "URI": "https://access.redhat.com/errata/RHSA-2010:0866",
      "ID": "RHSA-2010:0866"
    },
    {
      "Source": "CVE",
      "URI": "https://access.redhat.com/security/cve/CVE-2010-2941",
      "ID": "CVE-2010-2941"
    }
  ],
  "Criteria": {
    "Operator": "OR",
    "Criterias": [
      {
        "Operator": "AND",
        "Criterias": [
          {
            "Operator": "OR",
            "Criterias": [
              {
                "Operator": "AND",
                "Criterias": [

                ],
                "Criterions": [
                  {
                    "Comment": "cups is earlier than 1:1.4.2-35.el6_0.1"
                  },
                  {
                    "Comment": "cups is signed with Red Hat redhatrelease2 key"
                  }
                ]
              },
              {
                "Operator": "AND",
                "Criterias": [

                ],
                "Criterions": [
                  {
                    "Comment": "cups-devel is earlier than 1:1.4.2-35.el6_0.1"
                  },
                  {
                    "Comment": "cups-devel is signed with Red Hat redhatrelease2 key"
                  }
                ]
              },
              {
                "Operator": "AND",
                "Criterias": [

                ],
                "Criterions": [
                  {
                    "Comment": "cups-libs is earlier than 1:1.4.2-35.el6_0.1"
                  },
                  {
                    "Comment": "cups-libs is signed with Red Hat redhatrelease2 key"
                  }
                ]
              },
              {
                "Operator": "AND",
                "Criterias": [

                ],
                "Criterions": [
                  {
                    "Comment": "cups-lpd is earlier than 1:1.4.2-35.el6_0.1"
                  },
                  {
                    "Comment": "cups-lpd is signed with Red Hat redhatrelease2 key"
                  }
                ]
              },
              {
                "Operator": "AND",
                "Criterias": [

                ],
                "Criterions": [
                  {
                    "Comment": "cups-php is earlier than 1:1.4.2-35.el6_0.1"
                  },
                  {
                    "Comment": "cups-php is signed with Red Hat redhatrelease2 key"
                  }
                ]
              }
            ],
            "Criterions": [

            ]
          }
        ],
        "Criterions": [
          {
            "Comment": "Oracle Linux 6 is installed"
          }
        ]
      }
    ],
    "Criterions": [
      {
        "Comment": "Oracle Linux 6 is installed"
      }
    ]
  },
  "Severity": "Important",
  "Cves": [
    {
      "Impact": "",
      "Href": "",
      "ID": "CVE-2010-2941"
    }
  ],
  "Issued": {
    "Date": "2010-11-10"
  }
}