{
  "Title": "RHSA-2010:0679: rpm security and bug fix update (Moderate)",
  "Description": "The RPM Package Manager (RPM) is a command line driven package management\nsystem capable of installing, uninstalling, verifying, querying, and\nupdating software packages.\nIt was discovered that RPM did not remove setuid and setgid bits set on\nbinaries when upgrading packages. A local attacker able to create hard\nlinks to binaries could use this flaw to keep those binaries on the system,\nat a specific version level and with the setuid or setgid bit set, even if\nthe package providing them was upgraded by a system administrator. This\ncould have security implications if a package was upgraded because of a\nsecurity flaw in a setuid or setgid program. (CVE-2010-2059)\nThis update also fixes the following bug:\n* A memory leak in the communication between RPM and the Security-Enhanced\nLinux (SELinux) subsystem, which could have caused extensive memory\nconsumption. In reported cases, this issue was triggered by running\nrhn_check when errata were scheduled to be applied. (BZ#627630)\nAll users of rpm are advised to upgrade to these updated packages, which\ncontain backported patches to correct these issues.",
  "Platform": [
    "Red Hat Enterprise Linux 5"
  ],
  "References": [
    {
      "Source": "RHSA",
      "URI": "https://access.redhat.com/errata/RHSA-2010:0679",
      "ID": "RHSA-2010:0679"
    },
    {
      "Source": "CVE",
      "URI": "https://access.redhat.com/security/cve/CVE-2010-2059",
      "ID": "CVE-2010-2059"
    }
  ],
  "Criteria": {
    "Operator": "OR",
    "Criterias": [
      {
        "Operator": "AND",
        "Criterias": [
          {
            "Operator": "OR",
            "Criterias": [
              {
                "Operator": "AND",
                "Criterias": [

                ],
                "Criterions": [
                  {
                    "Comment": "popt is earlier than 0:1.10.2.3-20.el5_5.1"
                  },
                  {
                    "Comment": "popt is signed with Red Hat redhatrelease2 key"
                  }
                ]
              },
              {
                "Operator": "AND",
                "Criterias": [

                ],
                "Criterions": [
                  {
                    "Comment": "rpm is earlier than 0:4.4.2.3-20.el5_5.1"
                  },
                  {
                    "Comment": "rpm is signed with Red Hat redhatrelease2 key"
                  }
                ]
              },
              {
                "Operator": "AND",
                "Criterias": [

                ],
                "Criterions": [
                  {
                    "Comment": "rpm-apidocs is earlier than 0:4.4.2.3-20.el5_5.1"
                  },
                  {
                    "Comment": "rpm-apidocs is signed with Red Hat redhatrelease2 key"
                  }
                ]
              },
              {
                "Operator": "AND",
                "Criterias": [

                ],
                "Criterions": [
                  {
                    "Comment": "rpm-build is earlier than 0:4.4.2.3-20.el5_5.1"
                  },
                  {
                    "Comment": "rpm-build is signed with Red Hat redhatrelease2 key"
                  }
                ]
              },
              {
                "Operator": "AND",
                "Criterias": [

                ],
                "Criterions": [
                  {
                    "Comment": "rpm-devel is earlier than 0:4.4.2.3-20.el5_5.1"
                  },
                  {
                    "Comment": "rpm-devel is signed with Red Hat redhatrelease2 key"
                  }
                ]
              },
              {
                "Operator": "AND",
                "Criterias": [

                ],
                "Criterions": [
                  {
                    "Comment": "rpm-libs is earlier than 0:4.4.2.3-20.el5_5.1"
                  },
                  {
                    "Comment": "rpm-libs is signed with Red Hat redhatrelease2 key"
                  }
                ]
              },
              {
                "Operator": "AND",
                "Criterias": [

                ],
                "Criterions": [
                  {
                    "Comment": "rpm-python is earlier than 0:4.4.2.3-20.el5_5.1"
                  },
                  {
                    "Comment": "rpm-python is signed with Red Hat redhatrelease2 key"
                  }
                ]
              }
            ],
            "Criterions": [

            ]
          }
        ],
        "Criterions": [
          {
            "Comment": "Oracle Linux 5 is installed"
          }
        ]
      }
    ],
    "Criterions": [
      {
        "Comment": "Oracle Linux 5 is installed"
      }
    ]
  },
  "Severity": "Moderate",
  "Cves": [
    {
      "Impact": "",
      "Href": "",
      "ID": "CVE-2010-2059"
    }
  ],
  "Issued": {
    "Date": "2010-09-07"
  }
}