{
  "Title": "RHSA-2010:0501: firefox security, bug fix, and enhancement update (Critical)",
  "Description": "Mozilla Firefox is an open source web browser.\nSeveral flaws were found in the processing of malformed web content. A web\npage containing malicious content could cause Firefox to crash or,\npotentially, execute arbitrary code with the privileges of the user running\nFirefox. (CVE-2010-1121, CVE-2010-1200, CVE-2010-1202, CVE-2010-1203)\nA flaw was found in the way browser plug-ins interact. It was possible for\na plug-in to reference the freed memory from a different plug-in, resulting\nin the execution of arbitrary code with the privileges of the user running\nFirefox. (CVE-2010-1198)\nSeveral integer overflow flaws were found in the processing of malformed\nweb content. A web page containing malicious content could cause Firefox to\ncrash or, potentially, execute arbitrary code with the privileges of the\nuser running Firefox. (CVE-2010-1196, CVE-2010-1199)\nA focus stealing flaw was found in the way Firefox handled focus changes. A\nmalicious website could use this flaw to steal sensitive data from a user,\nsuch as usernames and passwords. (CVE-2010-1125)\nA flaw was found in the way Firefox handled the \"Content-Disposition:\nattachment\" HTTP header when the \"Content-Type: multipart\" HTTP header was\nalso present. A website that allows arbitrary uploads and relies on the\n\"Content-Disposition: attachment\" HTTP header to prevent content from being\ndisplayed inline, could be used by an attacker to serve malicious content\nto users. (CVE-2010-1197)\nA flaw was found in the Firefox Math.random() function. This function could\nbe used to identify a browsing session and track a user across different\nwebsites. (CVE-2008-5913)\nA flaw was found in the Firefox XML document loading security checks.\nCertain security checks were not being called when an XML document was\nloaded. This could possibly be leveraged later by an attacker to load\ncertain resources that violate the security policies of the browser or its\nadd-ons. Note that this issue cannot be exploited by only loading an XML\ndocument. (CVE-2010-0182)\nFor technical details regarding these flaws, refer to the Mozilla security\nadvisories for Firefox 3.6.4. You can find a link to the Mozilla advisories\nin the References section of this erratum.\nThis erratum upgrades Firefox from version 3.0.19 to version 3.6.4. Due to\nthe requirements of Firefox 3.6.4, this erratum also provides a number of\nother updated packages, including esc, totem, and yelp.\nThis erratum also contains multiple bug fixes and numerous enhancements.\nSpace precludes documenting these changes in this advisory. For details\nconcerning these changes, refer to the Firefox Release Notes links in the\nReferences section of this erratum.\nImportant: Firefox 3.6.4 is not completely backwards-compatible with all\nMozilla Add-ons and Firefox plug-ins that worked with Firefox 3.0.19.\nFirefox 3.6 checks compatibility on first-launch, and, depending on the\nindividual configuration and the installed Add-ons and plug-ins, may\ndisable said Add-ons and plug-ins, or attempt to check for updates and\nupgrade them. Add-ons and plug-ins may have to be manually updated.\nAll Firefox users should upgrade to these updated packages, which contain\nFirefox version 3.6.4. After installing the update, Firefox must be\nrestarted for the changes to take effect.",
  "Platform": [
    "Red Hat Enterprise Linux 5"
  ],
  "References": [
    {
      "Source": "RHSA",
      "URI": "https://access.redhat.com/errata/RHSA-2010:0501",
      "ID": "RHSA-2010:0501"
    },
    {
      "Source": "CVE",
      "URI": "https://access.redhat.com/security/cve/CVE-2008-5913",
      "ID": "CVE-2008-5913"
    },
    {
      "Source": "CVE",
      "URI": "https://access.redhat.com/security/cve/CVE-2009-5017",
      "ID": "CVE-2009-5017"
    },
    {
      "Source": "CVE",
      "URI": "https://access.redhat.com/security/cve/CVE-2010-0182",
      "ID": "CVE-2010-0182"
    },
    {
      "Source": "CVE",
      "URI": "https://access.redhat.com/security/cve/CVE-2010-1121",
      "ID": "CVE-2010-1121"
    },
    {
      "Source": "CVE",
      "URI": "https://access.redhat.com/security/cve/CVE-2010-1125",
      "ID": "CVE-2010-1125"
    },
    {
      "Source": "CVE",
      "URI": "https://access.redhat.com/security/cve/CVE-2010-1196",
      "ID": "CVE-2010-1196"
    },
    {
      "Source": "CVE",
      "URI": "https://access.redhat.com/security/cve/CVE-2010-1197",
      "ID": "CVE-2010-1197"
    },
    {
      "Source": "CVE",
      "URI": "https://access.redhat.com/security/cve/CVE-2010-1198",
      "ID": "CVE-2010-1198"
    },
    {
      "Source": "CVE",
      "URI": "https://access.redhat.com/security/cve/CVE-2010-1199",
      "ID": "CVE-2010-1199"
    },
    {
      "Source": "CVE",
      "URI": "https://access.redhat.com/security/cve/CVE-2010-1200",
      "ID": "CVE-2010-1200"
    },
    {
      "Source": "CVE",
      "URI": "https://access.redhat.com/security/cve/CVE-2010-1202",
      "ID": "CVE-2010-1202"
    },
    {
      "Source": "CVE",
      "URI": "https://access.redhat.com/security/cve/CVE-2010-1203",
      "ID": "CVE-2010-1203"
    }
  ],
  "Criteria": {
    "Operator": "OR",
    "Criterias": [
      {
        "Operator": "AND",
        "Criterias": [
          {
            "Operator": "OR",
            "Criterias": [
              {
                "Operator": "AND",
                "Criterias": [

                ],
                "Criterions": [
                  {
                    "Comment": "devhelp is earlier than 0:0.12-21.el5"
                  },
                  {
                    "Comment": "devhelp is signed with Red Hat redhatrelease2 key"
                  }
                ]
              },
              {
                "Operator": "AND",
                "Criterias": [

                ],
                "Criterions": [
                  {
                    "Comment": "devhelp-devel is earlier than 0:0.12-21.el5"
                  },
                  {
                    "Comment": "devhelp-devel is signed with Red Hat redhatrelease2 key"
                  }
                ]
              },
              {
                "Operator": "AND",
                "Criterias": [

                ],
                "Criterions": [
                  {
                    "Comment": "gnome-python2-extras is earlier than 0:2.14.2-7.el5"
                  },
                  {
                    "Comment": "gnome-python2-extras is signed with Red Hat redhatrelease2 key"
                  }
                ]
              },
              {
                "Operator": "AND",
                "Criterias": [

                ],
                "Criterions": [
                  {
                    "Comment": "gnome-python2-gtkhtml2 is earlier than 0:2.14.2-7.el5"
                  },
                  {
                    "Comment": "gnome-python2-gtkhtml2 is signed with Red Hat redhatrelease2 key"
                  }
                ]
              },
              {
                "Operator": "AND",
                "Criterias": [

                ],
                "Criterions": [
                  {
                    "Comment": "gnome-python2-gtkmozembed is earlier than 0:2.14.2-7.el5"
                  },
                  {
                    "Comment": "gnome-python2-gtkmozembed is signed with Red Hat redhatrelease2 key"
                  }
                ]
              },
              {
                "Operator": "AND",
                "Criterias": [

                ],
                "Criterions": [
                  {
                    "Comment": "gnome-python2-gtkspell is earlier than 0:2.14.2-7.el5"
                  },
                  {
                    "Comment": "gnome-python2-gtkspell is signed with Red Hat redhatrelease2 key"
                  }
                ]
              },
              {
                "Operator": "AND",
                "Criterias": [

                ],
                "Criterions": [
                  {
                    "Comment": "gnome-python2-libegg is earlier than 0:2.14.2-7.el5"
                  },
                  {
                    "Comment": "gnome-python2-libegg is signed with Red Hat redhatrelease2 key"
                  }
                ]
              },
              {
                "Operator": "AND",
                "Criterias": [

                ],
                "Criterions": [
                  {
                    "Comment": "esc is earlier than 0:1.1.0-12.el5"
                  },
                  {
                    "Comment": "esc is signed with Red Hat redhatrelease2 key"
                  }
                ]
              },
              {
                "Operator": "AND",
                "Criterias": [

                ],
                "Criterions": [
                  {
                    "Comment": "totem is earlier than 0:2.16.7-7.el5"
                  },
                  {
                    "Comment": "totem is signed with Red Hat redhatrelease2 key"
                  }
                ]
              },
              {
                "Operator": "AND",
                "Criterias": [

                ],
                "Criterions": [
                  {
                    "Comment": "totem-devel is earlier than 0:2.16.7-7.el5"
                  },
                  {
                    "Comment": "totem-devel is signed with Red Hat redhatrelease2 key"
                  }
                ]
              },
              {
                "Operator": "AND",
                "Criterias": [

                ],
                "Criterions": [
                  {
                    "Comment": "totem-mozplugin is earlier than 0:2.16.7-7.el5"
                  },
                  {
                    "Comment": "totem-mozplugin is signed with Red Hat redhatrelease2 key"
                  }
                ]
              },
              {
                "Operator": "AND",
                "Criterias": [

                ],
                "Criterions": [
                  {
                    "Comment": "yelp is earlier than 0:2.16.0-26.el5"
                  },
                  {
                    "Comment": "yelp is signed with Red Hat redhatrelease2 key"
                  }
                ]
              },
              {
                "Operator": "AND",
                "Criterias": [

                ],
                "Criterions": [
                  {
                    "Comment": "firefox is earlier than 0:3.6.4-8.el5"
                  },
                  {
                    "Comment": "firefox is signed with Red Hat redhatrelease2 key"
                  }
                ]
              },
              {
                "Operator": "AND",
                "Criterias": [

                ],
                "Criterions": [
                  {
                    "Comment": "xulrunner is earlier than 0:1.9.2.4-10.el5"
                  },
                  {
                    "Comment": "xulrunner is signed with Red Hat redhatrelease2 key"
                  }
                ]
              },
              {
                "Operator": "AND",
                "Criterias": [

                ],
                "Criterions": [
                  {
                    "Comment": "xulrunner-devel is earlier than 0:1.9.2.4-10.el5"
                  },
                  {
                    "Comment": "xulrunner-devel is signed with Red Hat redhatrelease2 key"
                  }
                ]
              }
            ],
            "Criterions": [

            ]
          }
        ],
        "Criterions": [
          {
            "Comment": "Oracle Linux 5 is installed"
          }
        ]
      }
    ],
    "Criterions": [
      {
        "Comment": "Oracle Linux 5 is installed"
      }
    ]
  },
  "Severity": "Critical",
  "Cves": [
    {
      "Impact": "",
      "Href": "",
      "ID": "CVE-2008-5913"
    },
    {
      "Impact": "",
      "Href": "",
      "ID": "CVE-2009-5017"
    },
    {
      "Impact": "",
      "Href": "",
      "ID": "CVE-2010-0182"
    },
    {
      "Impact": "",
      "Href": "",
      "ID": "CVE-2010-1121"
    },
    {
      "Impact": "",
      "Href": "",
      "ID": "CVE-2010-1125"
    },
    {
      "Impact": "",
      "Href": "",
      "ID": "CVE-2010-1196"
    },
    {
      "Impact": "",
      "Href": "",
      "ID": "CVE-2010-1197"
    },
    {
      "Impact": "",
      "Href": "",
      "ID": "CVE-2010-1198"
    },
    {
      "Impact": "",
      "Href": "",
      "ID": "CVE-2010-1199"
    },
    {
      "Impact": "",
      "Href": "",
      "ID": "CVE-2010-1200"
    },
    {
      "Impact": "",
      "Href": "",
      "ID": "CVE-2010-1202"
    },
    {
      "Impact": "",
      "Href": "",
      "ID": "CVE-2010-1203"
    }
  ],
  "Issued": {
    "Date": "2010-06-22"
  }
}