{
  "Title": "RHSA-2010:0653: ImageMagick security update (Moderate)",
  "Description": "ImageMagick is an image display and manipulation tool for the X Window\nSystem that can read and write multiple image formats.\nAn integer overflow flaw, leading to a heap-based buffer overflow, was\nfound in the ImageMagick routine responsible for creating X11 images. An\nattacker could create a specially-crafted image file that, when opened by a\nvictim, would cause ImageMagick to crash or, potentially, execute arbitrary\ncode. (CVE-2009-1882)\nUsers of ImageMagick are advised to upgrade to these updated packages,\nwhich contain a backported patch to correct this issue. All running\ninstances of ImageMagick must be restarted for this update to take effect.",
  "Platform": [
    "Red Hat Enterprise Linux 4"
  ],
  "References": [
    {
      "Source": "RHSA",
      "URI": "https://access.redhat.com/errata/RHSA-2010:0653",
      "ID": "RHSA-2010:0653"
    },
    {
      "Source": "CVE",
      "URI": "https://access.redhat.com/security/cve/CVE-2009-1882",
      "ID": "CVE-2009-1882"
    }
  ],
  "Criteria": {
    "Operator": "OR",
    "Criterias": [
      {
        "Operator": "AND",
        "Criterias": [
          {
            "Operator": "OR",
            "Criterias": [
              {
                "Operator": "AND",
                "Criterias": [

                ],
                "Criterions": [
                  {
                    "Comment": "ImageMagick is earlier than 0:6.0.7.1-20.el4_8.1"
                  },
                  {
                    "Comment": "ImageMagick is signed with Red Hat redhatrelease2 key"
                  }
                ]
              },
              {
                "Operator": "AND",
                "Criterias": [

                ],
                "Criterions": [
                  {
                    "Comment": "ImageMagick-c++ is earlier than 0:6.0.7.1-20.el4_8.1"
                  },
                  {
                    "Comment": "ImageMagick-c++ is signed with Red Hat redhatrelease2 key"
                  }
                ]
              },
              {
                "Operator": "AND",
                "Criterias": [

                ],
                "Criterions": [
                  {
                    "Comment": "ImageMagick-c++-devel is earlier than 0:6.0.7.1-20.el4_8.1"
                  },
                  {
                    "Comment": "ImageMagick-c++-devel is signed with Red Hat redhatrelease2 key"
                  }
                ]
              },
              {
                "Operator": "AND",
                "Criterias": [

                ],
                "Criterions": [
                  {
                    "Comment": "ImageMagick-devel is earlier than 0:6.0.7.1-20.el4_8.1"
                  },
                  {
                    "Comment": "ImageMagick-devel is signed with Red Hat redhatrelease2 key"
                  }
                ]
              },
              {
                "Operator": "AND",
                "Criterias": [

                ],
                "Criterions": [
                  {
                    "Comment": "ImageMagick-perl is earlier than 0:6.0.7.1-20.el4_8.1"
                  },
                  {
                    "Comment": "ImageMagick-perl is signed with Red Hat redhatrelease2 key"
                  }
                ]
              }
            ],
            "Criterions": [

            ]
          }
        ],
        "Criterions": [
          {
            "Comment": "Oracle Linux 4 is installed"
          }
        ]
      }
    ],
    "Criterions": [
      {
        "Comment": "Oracle Linux 4 is installed"
      }
    ]
  },
  "Severity": "Moderate",
  "Cves": [
    {
      "Impact": "",
      "Href": "",
      "ID": "CVE-2009-1882"
    }
  ],
  "Issued": {
    "Date": "2010-08-25"
  }
}