{
  "Title": "RHSA-2010:0181: brltty security and bug fix update (Low)",
  "Description": "brltty (Braille TTY) is a background process (daemon) which provides access\nto the Linux console (when in text mode) for a blind person using a\nrefreshable braille display. It drives the braille display, and provides\ncomplete screen review functionality.\nIt was discovered that a brltty library had an insecure relative RPATH\n(runtime library search path) set in the ELF (Executable and Linking\nFormat) header. A local user able to convince another user to run an\napplication using brltty in an attacker-controlled directory, could run\narbitrary code with the privileges of the victim. (CVE-2008-3279)\nThese updated packages also provide fixes for the following bugs:\n* the brltty configuration file is documented in the brltty manual page,\nbut there is no separate manual page for the /etc/brltty.conf configuration\nfile: running \"man brltty.conf\" returned \"No manual entry for brltty.conf\"\nrather than opening the brltty manual entry. This update adds brltty.conf.5\nas an alias to the brltty manual page. Consequently, running \"man\nbrltty.conf\" now opens the manual entry documenting the brltty.conf\nspecification. (BZ#530554)\n* previously, the brltty-pm.conf configuration file was installed in the\n/etc/brltty/ directory. This file, which configures Papenmeier Braille\nTerminals for use with Red Hat Enterprise Linux, is optional. As well, it\ndid not come with a corresponding manual page. With this update, the file\nhas been moved to /usr/share/doc/brltty-3.7.2/BrailleDrivers/Papenmeier/.\nThis directory also includes a README document that explains the file's\npurpose and format. (BZ#530554)\n* during the brltty packages installation, the message\nCreating screen inspection device /dev/vcsa...done.\nwas presented at the console. This was inadequate, especially during the\ninitial install of the system. These updated packages do not send any\nmessage to the console during installation. (BZ#529163)\n* although brltty contains ELF objects, the brltty-debuginfo package was\nempty. With this update, the -debuginfo package contains valid debugging\ninformation as expected. (BZ#500545)\n* the MAX_NR_CONSOLES definition was acquired by brltty by #including\nlinux/tty.h in Programs/api_client.c. MAX_NR_CONSOLES has since moved to\nlinux/vt.h but the #include in api_client.c was not updated. Consequently,\nbrltty could not be built from the source RPM against the Red Hat\nEnterprise Linux 5 kernel. This update corrects the #include in\napi_client.c to linux/vt.h and brltty now builds from source as expected.\n(BZ#456247)\nAll brltty users are advised to upgrade to these updated packages, which\nresolve these issues.",
  "Platform": [
    "Red Hat Enterprise Linux 5"
  ],
  "References": [
    {
      "Source": "RHSA",
      "URI": "https://access.redhat.com/errata/RHSA-2010:0181",
      "ID": "RHSA-2010:0181"
    },
    {
      "Source": "CVE",
      "URI": "https://access.redhat.com/security/cve/CVE-2008-3279",
      "ID": "CVE-2008-3279"
    }
  ],
  "Criteria": {
    "Operator": "OR",
    "Criterias": [
      {
        "Operator": "AND",
        "Criterias": [
          {
            "Operator": "OR",
            "Criterias": [
              {
                "Operator": "AND",
                "Criterias": [

                ],
                "Criterions": [
                  {
                    "Comment": "brlapi is earlier than 0:0.4.1-4.el5"
                  },
                  {
                    "Comment": "brlapi is signed with Red Hat redhatrelease2 key"
                  }
                ]
              },
              {
                "Operator": "AND",
                "Criterias": [

                ],
                "Criterions": [
                  {
                    "Comment": "brlapi-devel is earlier than 0:0.4.1-4.el5"
                  },
                  {
                    "Comment": "brlapi-devel is signed with Red Hat redhatrelease2 key"
                  }
                ]
              },
              {
                "Operator": "AND",
                "Criterias": [

                ],
                "Criterions": [
                  {
                    "Comment": "brltty is earlier than 0:3.7.2-4.el5"
                  },
                  {
                    "Comment": "brltty is signed with Red Hat redhatrelease2 key"
                  }
                ]
              }
            ],
            "Criterions": [

            ]
          }
        ],
        "Criterions": [
          {
            "Comment": "Oracle Linux 5 is installed"
          }
        ]
      }
    ],
    "Criterions": [
      {
        "Comment": "Oracle Linux 5 is installed"
      }
    ]
  },
  "Severity": "Low",
  "Cves": [
    {
      "Impact": "",
      "Href": "",
      "ID": "CVE-2008-3279"
    }
  ],
  "Issued": {
    "Date": "2010-03-29"
  }
}