{
  "Title": "RHSA-2010:0968: thunderbird security update (Moderate)",
  "Description": "Mozilla Thunderbird is a standalone mail and newsgroup client.\nSeveral flaws were found in the processing of malformed HTML content. HTML\ncontaining malicious content could cause Thunderbird to crash or,\npotentially, execute arbitrary code with the privileges of the user running\nThunderbird. (CVE-2010-3767, CVE-2010-3772, CVE-2010-3776)\nNote: JavaScript support is disabled by default in Thunderbird. The above\nissues are not exploitable unless JavaScript is enabled.\nAll Thunderbird users should upgrade to this updated package, which\nresolves these issues. All running instances of Thunderbird must be\nrestarted for the update to take effect.",
  "Platform": [
    "Red Hat Enterprise Linux 4",
    "Red Hat Enterprise Linux 5"
  ],
  "References": [
    {
      "Source": "RHSA",
      "URI": "https://access.redhat.com/errata/RHSA-2010:0968",
      "ID": "RHSA-2010:0968"
    },
    {
      "Source": "CVE",
      "URI": "https://access.redhat.com/security/cve/CVE-2010-3767",
      "ID": "CVE-2010-3767"
    },
    {
      "Source": "CVE",
      "URI": "https://access.redhat.com/security/cve/CVE-2010-3772",
      "ID": "CVE-2010-3772"
    },
    {
      "Source": "CVE",
      "URI": "https://access.redhat.com/security/cve/CVE-2010-3776",
      "ID": "CVE-2010-3776"
    }
  ],
  "Criteria": {
    "Operator": "OR",
    "Criterias": [
      {
        "Operator": "AND",
        "Criterias": [

        ],
        "Criterions": [
          {
            "Comment": "Oracle Linux 4 is installed"
          },
          {
            "Comment": "thunderbird is earlier than 0:1.5.0.12-34.el4"
          },
          {
            "Comment": "thunderbird is signed with Red Hat redhatrelease2 key"
          }
        ]
      },
      {
        "Operator": "AND",
        "Criterias": [

        ],
        "Criterions": [
          {
            "Comment": "Oracle Linux 5 is installed"
          },
          {
            "Comment": "thunderbird is earlier than 0:2.0.0.24-13.el5_5"
          },
          {
            "Comment": "thunderbird is signed with Red Hat redhatrelease2 key"
          }
        ]
      }
    ],
    "Criterions": [
      {
        "Comment": "Oracle Linux 4 is installed"
      }
    ]
  },
  "Severity": "Moderate",
  "Cves": [
    {
      "Impact": "",
      "Href": "",
      "ID": "CVE-2010-3767"
    },
    {
      "Impact": "",
      "Href": "",
      "ID": "CVE-2010-3772"
    },
    {
      "Impact": "",
      "Href": "",
      "ID": "CVE-2010-3776"
    }
  ],
  "Issued": {
    "Date": "2010-12-09"
  }
}