{
  "Title": "RHBA-2022:5747: .NET 6.0 bugfix update (Moderate)",
  "Description": ".NET Core is a managed-software framework. It implements a subset of the .NET\nframework APIs and several new APIs, and it includes a CLR implementation.\nBug Fix(es) and Enhancement(s):\n* Update .NET 6.0 to SDK 6.0.107 and Runtime 6.0.7 [rhel-8.6.0.z] (BZ#2105397)",
  "Platform": [
    "Red Hat Enterprise Linux 8"
  ],
  "References": [
    {
      "Source": "RHSA",
      "URI": "https://access.redhat.com/errata/RHBA-2022:5747",
      "ID": "RHBA-2022:5747"
    },
    {
      "Source": "CVE",
      "URI": "https://access.redhat.com/security/cve/CVE-2022-1650",
      "ID": "CVE-2022-1650"
    }
  ],
  "Criteria": {
    "Operator": "OR",
    "Criterias": [
      {
        "Operator": "AND",
        "Criterias": [
          {
            "Operator": "OR",
            "Criterias": [

            ],
            "Criterions": [
              {
                "Comment": "Oracle Linux 8 is installed"
              },
              {
                "Comment": "Red Hat CoreOS 4 is installed"
              }
            ]
          },
          {
            "Operator": "OR",
            "Criterias": [
              {
                "Operator": "AND",
                "Criterias": [

                ],
                "Criterions": [
                  {
                    "Comment": "aspnetcore-runtime-6.0 is earlier than 0:6.0.7-1.el8_6"
                  },
                  {
                    "Comment": "aspnetcore-runtime-6.0 is signed with Red Hat redhatrelease2 key"
                  }
                ]
              },
              {
                "Operator": "AND",
                "Criterias": [

                ],
                "Criterions": [
                  {
                    "Comment": "aspnetcore-targeting-pack-6.0 is earlier than 0:6.0.7-1.el8_6"
                  },
                  {
                    "Comment": "aspnetcore-targeting-pack-6.0 is signed with Red Hat redhatrelease2 key"
                  }
                ]
              },
              {
                "Operator": "AND",
                "Criterias": [

                ],
                "Criterions": [
                  {
                    "Comment": "dotnet is earlier than 0:6.0.107-1.el8_6"
                  },
                  {
                    "Comment": "dotnet is signed with Red Hat redhatrelease2 key"
                  }
                ]
              },
              {
                "Operator": "AND",
                "Criterias": [

                ],
                "Criterions": [
                  {
                    "Comment": "dotnet-apphost-pack-6.0 is earlier than 0:6.0.7-1.el8_6"
                  },
                  {
                    "Comment": "dotnet-apphost-pack-6.0 is signed with Red Hat redhatrelease2 key"
                  }
                ]
              },
              {
                "Operator": "AND",
                "Criterias": [

                ],
                "Criterions": [
                  {
                    "Comment": "dotnet-host is earlier than 0:6.0.7-1.el8_6"
                  },
                  {
                    "Comment": "dotnet-host is signed with Red Hat redhatrelease2 key"
                  }
                ]
              },
              {
                "Operator": "AND",
                "Criterias": [

                ],
                "Criterions": [
                  {
                    "Comment": "dotnet-hostfxr-6.0 is earlier than 0:6.0.7-1.el8_6"
                  },
                  {
                    "Comment": "dotnet-hostfxr-6.0 is signed with Red Hat redhatrelease2 key"
                  }
                ]
              },
              {
                "Operator": "AND",
                "Criterias": [

                ],
                "Criterions": [
                  {
                    "Comment": "dotnet-runtime-6.0 is earlier than 0:6.0.7-1.el8_6"
                  },
                  {
                    "Comment": "dotnet-runtime-6.0 is signed with Red Hat redhatrelease2 key"
                  }
                ]
              },
              {
                "Operator": "AND",
                "Criterias": [

                ],
                "Criterions": [
                  {
                    "Comment": "dotnet-sdk-6.0 is earlier than 0:6.0.107-1.el8_6"
                  },
                  {
                    "Comment": "dotnet-sdk-6.0 is signed with Red Hat redhatrelease2 key"
                  }
                ]
              },
              {
                "Operator": "AND",
                "Criterias": [

                ],
                "Criterions": [
                  {
                    "Comment": "dotnet-sdk-6.0-source-built-artifacts is earlier than 0:6.0.107-1.el8_6"
                  },
                  {
                    "Comment": "dotnet-sdk-6.0-source-built-artifacts is signed with Red Hat redhatrelease2 key"
                  }
                ]
              },
              {
                "Operator": "AND",
                "Criterias": [

                ],
                "Criterions": [
                  {
                    "Comment": "dotnet-targeting-pack-6.0 is earlier than 0:6.0.7-1.el8_6"
                  },
                  {
                    "Comment": "dotnet-targeting-pack-6.0 is signed with Red Hat redhatrelease2 key"
                  }
                ]
              },
              {
                "Operator": "AND",
                "Criterias": [

                ],
                "Criterions": [
                  {
                    "Comment": "dotnet-templates-6.0 is earlier than 0:6.0.107-1.el8_6"
                  },
                  {
                    "Comment": "dotnet-templates-6.0 is signed with Red Hat redhatrelease2 key"
                  }
                ]
              },
              {
                "Operator": "AND",
                "Criterias": [

                ],
                "Criterions": [
                  {
                    "Comment": "netstandard-targeting-pack-2.1 is earlier than 0:6.0.107-1.el8_6"
                  },
                  {
                    "Comment": "netstandard-targeting-pack-2.1 is signed with Red Hat redhatrelease2 key"
                  }
                ]
              }
            ],
            "Criterions": [

            ]
          }
        ],
        "Criterions": [

        ]
      }
    ],
    "Criterions": [
      {
        "Comment": "Oracle Linux 8 is installed"
      }
    ]
  },
  "Severity": "Moderate",
  "Cves": [
    {
      "Impact": "",
      "Href": "",
      "ID": "CVE-2022-1650"
    }
  ],
  "Issued": {
    "Date": "2022-07-28"
  }
}