{
  "Title": "RHEA-2022:5139: nodejs:12 bug fix and enhancement update (Moderate)",
  "Description": "Node.js is a software development platform for building fast and scalable\nnetwork applications in the JavaScript programming language.\nBug Fix(es) and Enhancement(s):\n* nodejs:12/nodejs: rebase to last upstream release (BZ#2084651)",
  "Platform": [
    "Red Hat Enterprise Linux 8"
  ],
  "References": [
    {
      "Source": "RHSA",
      "URI": "https://access.redhat.com/errata/RHEA-2022:5139",
      "ID": "RHEA-2022:5139"
    },
    {
      "Source": "CVE",
      "URI": "https://access.redhat.com/security/cve/CVE-2021-22959",
      "ID": "CVE-2021-22959"
    },
    {
      "Source": "CVE",
      "URI": "https://access.redhat.com/security/cve/CVE-2021-22960",
      "ID": "CVE-2021-22960"
    },
    {
      "Source": "CVE",
      "URI": "https://access.redhat.com/security/cve/CVE-2021-37701",
      "ID": "CVE-2021-37701"
    },
    {
      "Source": "CVE",
      "URI": "https://access.redhat.com/security/cve/CVE-2021-37712",
      "ID": "CVE-2021-37712"
    },
    {
      "Source": "CVE",
      "URI": "https://access.redhat.com/security/cve/CVE-2021-3918",
      "ID": "CVE-2021-3918"
    },
    {
      "Source": "CVE",
      "URI": "https://access.redhat.com/security/cve/CVE-2021-44531",
      "ID": "CVE-2021-44531"
    },
    {
      "Source": "CVE",
      "URI": "https://access.redhat.com/security/cve/CVE-2021-44532",
      "ID": "CVE-2021-44532"
    },
    {
      "Source": "CVE",
      "URI": "https://access.redhat.com/security/cve/CVE-2021-44533",
      "ID": "CVE-2021-44533"
    },
    {
      "Source": "CVE",
      "URI": "https://access.redhat.com/security/cve/CVE-2022-21824",
      "ID": "CVE-2022-21824"
    }
  ],
  "Criteria": {
    "Operator": "OR",
    "Criterias": [
      {
        "Operator": "AND",
        "Criterias": [
          {
            "Operator": "OR",
            "Criterias": [

            ],
            "Criterions": [
              {
                "Comment": "Oracle Linux 8 is installed"
              },
              {
                "Comment": "Red Hat CoreOS 4 is installed"
              }
            ]
          },
          {
            "Operator": "OR",
            "Criterias": [
              {
                "Operator": "AND",
                "Criterias": [
                  {
                    "Operator": "OR",
                    "Criterias": [
                      {
                        "Operator": "AND",
                        "Criterias": [

                        ],
                        "Criterions": [
                          {
                            "Comment": "nodejs is earlier than 1:12.22.12-1.module+el8.6.0+15324+1f2c5d8d"
                          },
                          {
                            "Comment": "nodejs is signed with Red Hat redhatrelease2 key"
                          }
                        ]
                      },
                      {
                        "Operator": "AND",
                        "Criterias": [

                        ],
                        "Criterions": [
                          {
                            "Comment": "nodejs-devel is earlier than 1:12.22.12-1.module+el8.6.0+15324+1f2c5d8d"
                          },
                          {
                            "Comment": "nodejs-devel is signed with Red Hat redhatrelease2 key"
                          }
                        ]
                      },
                      {
                        "Operator": "AND",
                        "Criterias": [

                        ],
                        "Criterions": [
                          {
                            "Comment": "nodejs-docs is earlier than 1:12.22.12-1.module+el8.6.0+15324+1f2c5d8d"
                          },
                          {
                            "Comment": "nodejs-docs is signed with Red Hat redhatrelease2 key"
                          }
                        ]
                      },
                      {
                        "Operator": "AND",
                        "Criterias": [

                        ],
                        "Criterions": [
                          {
                            "Comment": "nodejs-full-i18n is earlier than 1:12.22.12-1.module+el8.6.0+15324+1f2c5d8d"
                          },
                          {
                            "Comment": "nodejs-full-i18n is signed with Red Hat redhatrelease2 key"
                          }
                        ]
                      },
                      {
                        "Operator": "AND",
                        "Criterias": [

                        ],
                        "Criterions": [
                          {
                            "Comment": "nodejs-nodemon is earlier than 0:2.0.3-1.module+el8.4.0+11732+c668cc9f"
                          },
                          {
                            "Comment": "nodejs-nodemon is signed with Red Hat redhatrelease2 key"
                          }
                        ]
                      },
                      {
                        "Operator": "AND",
                        "Criterias": [

                        ],
                        "Criterions": [
                          {
                            "Comment": "nodejs-packaging is earlier than 0:17-3.module+el8.1.0+3369+37ae6a45"
                          },
                          {
                            "Comment": "nodejs-packaging is signed with Red Hat redhatrelease2 key"
                          }
                        ]
                      },
                      {
                        "Operator": "AND",
                        "Criterias": [

                        ],
                        "Criterions": [
                          {
                            "Comment": "npm is earlier than 1:6.14.16-1.12.22.12.1.module+el8.6.0+15324+1f2c5d8d"
                          },
                          {
                            "Comment": "npm is signed with Red Hat redhatrelease2 key"
                          }
                        ]
                      }
                    ],
                    "Criterions": [

                    ]
                  }
                ],
                "Criterions": [
                  {
                    "Comment": "Module nodejs:12 is enabled"
                  }
                ]
              }
            ],
            "Criterions": [

            ]
          }
        ],
        "Criterions": [

        ]
      }
    ],
    "Criterions": [
      {
        "Comment": "Oracle Linux 8 is installed"
      }
    ]
  },
  "Severity": "Moderate",
  "Cves": [
    {
      "Impact": "",
      "Href": "",
      "ID": "CVE-2021-22959"
    },
    {
      "Impact": "",
      "Href": "",
      "ID": "CVE-2021-22960"
    },
    {
      "Impact": "",
      "Href": "",
      "ID": "CVE-2021-37701"
    },
    {
      "Impact": "",
      "Href": "",
      "ID": "CVE-2021-37712"
    },
    {
      "Impact": "",
      "Href": "",
      "ID": "CVE-2021-3918"
    },
    {
      "Impact": "",
      "Href": "",
      "ID": "CVE-2021-44531"
    },
    {
      "Impact": "",
      "Href": "",
      "ID": "CVE-2021-44532"
    },
    {
      "Impact": "",
      "Href": "",
      "ID": "CVE-2021-44533"
    },
    {
      "Impact": "",
      "Href": "",
      "ID": "CVE-2022-21824"
    }
  ],
  "Issued": {
    "Date": "2022-06-21"
  }
}