{
  "Title": "RHSA-2022:7541: redis:6 security, bug fix, and enhancement update (Low)",
  "Description": "Redis is an advanced key-value store. It is often referred to as a data-structure server since keys can contain strings, hashes, lists, sets, and sorted sets. For performance, Redis works with an in-memory data set. You can persist it either by dumping the data set to disk every once in a while, or by appending each command to a log.\nThe following packages have been upgraded to a later upstream version: redis (6.2.7). (BZ#1999873)\nSecurity Fix(es):\n* redis: Code injection via Lua script execution environment (CVE-2022-24735)\n* redis: Malformed Lua script can crash Redis (CVE-2022-24736)\nFor more details about the security issue(s), including the impact, a CVSS score, acknowledgments, and other related information, refer to the CVE page(s) listed in the References section.\nAdditional Changes:\nFor detailed information on changes in this release, see the Red Hat Enterprise Linux 8.7 Release Notes linked from the References section.",
  "Platform": [
    "Red Hat Enterprise Linux 8"
  ],
  "References": [
    {
      "Source": "RHSA",
      "URI": "https://access.redhat.com/errata/RHSA-2022:7541",
      "ID": "RHSA-2022:7541"
    },
    {
      "Source": "CVE",
      "URI": "https://access.redhat.com/security/cve/CVE-2022-24735",
      "ID": "CVE-2022-24735"
    },
    {
      "Source": "CVE",
      "URI": "https://access.redhat.com/security/cve/CVE-2022-24736",
      "ID": "CVE-2022-24736"
    }
  ],
  "Criteria": {
    "Operator": "OR",
    "Criterias": [
      {
        "Operator": "AND",
        "Criterias": [
          {
            "Operator": "OR",
            "Criterias": [

            ],
            "Criterions": [
              {
                "Comment": "Oracle Linux 8 is installed"
              },
              {
                "Comment": "Red Hat CoreOS 4 is installed"
              }
            ]
          },
          {
            "Operator": "OR",
            "Criterias": [
              {
                "Operator": "AND",
                "Criterias": [
                  {
                    "Operator": "OR",
                    "Criterias": [
                      {
                        "Operator": "AND",
                        "Criterias": [

                        ],
                        "Criterions": [
                          {
                            "Comment": "redis is earlier than 0:6.2.7-1.module+el8.7.0+15197+cc495aeb"
                          },
                          {
                            "Comment": "redis is signed with Red Hat redhatrelease2 key"
                          }
                        ]
                      },
                      {
                        "Operator": "AND",
                        "Criterias": [

                        ],
                        "Criterions": [
                          {
                            "Comment": "redis-devel is earlier than 0:6.2.7-1.module+el8.7.0+15197+cc495aeb"
                          },
                          {
                            "Comment": "redis-devel is signed with Red Hat redhatrelease2 key"
                          }
                        ]
                      },
                      {
                        "Operator": "AND",
                        "Criterias": [

                        ],
                        "Criterions": [
                          {
                            "Comment": "redis-doc is earlier than 0:6.2.7-1.module+el8.7.0+15197+cc495aeb"
                          },
                          {
                            "Comment": "redis-doc is signed with Red Hat redhatrelease2 key"
                          }
                        ]
                      }
                    ],
                    "Criterions": [

                    ]
                  }
                ],
                "Criterions": [
                  {
                    "Comment": "Module redis:6 is enabled"
                  }
                ]
              }
            ],
            "Criterions": [

            ]
          }
        ],
        "Criterions": [

        ]
      }
    ],
    "Criterions": [
      {
        "Comment": "Oracle Linux 8 is installed"
      }
    ]
  },
  "Severity": "Low",
  "Cves": [
    {
      "Impact": "",
      "Href": "",
      "ID": "CVE-2022-24735"
    },
    {
      "Impact": "",
      "Href": "",
      "ID": "CVE-2022-24736"
    }
  ],
  "Issued": {
    "Date": "2022-11-08"
  }
}