{
  "Title": "RHSA-2022:1487: java-1.8.0-openjdk security, bug fix, and enhancement update (Important)",
  "Description": "The java-1.8.0-openjdk packages provide the OpenJDK 8 Java Runtime Environment and the OpenJDK 8 Java Software Development Kit.\nSecurity Fix(es):\n* OpenJDK: Defective secure validation in Apache Santuario (Libraries, 8278008) (CVE-2022-21476)\n* OpenJDK: Unbounded memory allocation when compiling crafted XPath expressions (JAXP, 8270504) (CVE-2022-21426)\n* OpenJDK: Improper object-to-string conversion in AnnotationInvocationHandler (Libraries, 8277672) (CVE-2022-21434)\n* OpenJDK: Missing check for negative ObjectIdentifier (Libraries, 8275151) (CVE-2022-21443)\n* OpenJDK: URI parsing inconsistencies (JNDI, 8278972) (CVE-2022-21496)\nFor more details about the security issue(s), including the impact, a CVSS score, acknowledgments, and other related information, refer to the CVE page(s) listed in the References section.",
  "Platform": [
    "Red Hat Enterprise Linux 7"
  ],
  "References": [
    {
      "Source": "RHSA",
      "URI": "https://access.redhat.com/errata/RHSA-2022:1487",
      "ID": "RHSA-2022:1487"
    },
    {
      "Source": "CVE",
      "URI": "https://access.redhat.com/security/cve/CVE-2022-21426",
      "ID": "CVE-2022-21426"
    },
    {
      "Source": "CVE",
      "URI": "https://access.redhat.com/security/cve/CVE-2022-21434",
      "ID": "CVE-2022-21434"
    },
    {
      "Source": "CVE",
      "URI": "https://access.redhat.com/security/cve/CVE-2022-21443",
      "ID": "CVE-2022-21443"
    },
    {
      "Source": "CVE",
      "URI": "https://access.redhat.com/security/cve/CVE-2022-21476",
      "ID": "CVE-2022-21476"
    },
    {
      "Source": "CVE",
      "URI": "https://access.redhat.com/security/cve/CVE-2022-21496",
      "ID": "CVE-2022-21496"
    }
  ],
  "Criteria": {
    "Operator": "OR",
    "Criterias": [
      {
        "Operator": "AND",
        "Criterias": [
          {
            "Operator": "OR",
            "Criterias": [
              {
                "Operator": "AND",
                "Criterias": [

                ],
                "Criterions": [
                  {
                    "Comment": "java-1.8.0-openjdk is earlier than 1:1.8.0.332.b09-1.el7_9"
                  },
                  {
                    "Comment": "java-1.8.0-openjdk is signed with Red Hat redhatrelease2 key"
                  }
                ]
              },
              {
                "Operator": "AND",
                "Criterias": [

                ],
                "Criterions": [
                  {
                    "Comment": "java-1.8.0-openjdk-accessibility is earlier than 1:1.8.0.332.b09-1.el7_9"
                  },
                  {
                    "Comment": "java-1.8.0-openjdk-accessibility is signed with Red Hat redhatrelease2 key"
                  }
                ]
              },
              {
                "Operator": "AND",
                "Criterias": [

                ],
                "Criterions": [
                  {
                    "Comment": "java-1.8.0-openjdk-demo is earlier than 1:1.8.0.332.b09-1.el7_9"
                  },
                  {
                    "Comment": "java-1.8.0-openjdk-demo is signed with Red Hat redhatrelease2 key"
                  }
                ]
              },
              {
                "Operator": "AND",
                "Criterias": [

                ],
                "Criterions": [
                  {
                    "Comment": "java-1.8.0-openjdk-devel is earlier than 1:1.8.0.332.b09-1.el7_9"
                  },
                  {
                    "Comment": "java-1.8.0-openjdk-devel is signed with Red Hat redhatrelease2 key"
                  }
                ]
              },
              {
                "Operator": "AND",
                "Criterias": [

                ],
                "Criterions": [
                  {
                    "Comment": "java-1.8.0-openjdk-headless is earlier than 1:1.8.0.332.b09-1.el7_9"
                  },
                  {
                    "Comment": "java-1.8.0-openjdk-headless is signed with Red Hat redhatrelease2 key"
                  }
                ]
              },
              {
                "Operator": "AND",
                "Criterias": [

                ],
                "Criterions": [
                  {
                    "Comment": "java-1.8.0-openjdk-javadoc is earlier than 1:1.8.0.332.b09-1.el7_9"
                  },
                  {
                    "Comment": "java-1.8.0-openjdk-javadoc is signed with Red Hat redhatrelease2 key"
                  }
                ]
              },
              {
                "Operator": "AND",
                "Criterias": [

                ],
                "Criterions": [
                  {
                    "Comment": "java-1.8.0-openjdk-javadoc-zip is earlier than 1:1.8.0.332.b09-1.el7_9"
                  },
                  {
                    "Comment": "java-1.8.0-openjdk-javadoc-zip is signed with Red Hat redhatrelease2 key"
                  }
                ]
              },
              {
                "Operator": "AND",
                "Criterias": [

                ],
                "Criterions": [
                  {
                    "Comment": "java-1.8.0-openjdk-src is earlier than 1:1.8.0.332.b09-1.el7_9"
                  },
                  {
                    "Comment": "java-1.8.0-openjdk-src is signed with Red Hat redhatrelease2 key"
                  }
                ]
              }
            ],
            "Criterions": [

            ]
          }
        ],
        "Criterions": [
          {
            "Comment": "Oracle Linux 7 is installed"
          }
        ]
      }
    ],
    "Criterions": [
      {
        "Comment": "Oracle Linux 7 is installed"
      }
    ]
  },
  "Severity": "Important",
  "Cves": [
    {
      "Impact": "",
      "Href": "",
      "ID": "CVE-2022-21426"
    },
    {
      "Impact": "",
      "Href": "",
      "ID": "CVE-2022-21434"
    },
    {
      "Impact": "",
      "Href": "",
      "ID": "CVE-2022-21443"
    },
    {
      "Impact": "",
      "Href": "",
      "ID": "CVE-2022-21476"
    },
    {
      "Impact": "",
      "Href": "",
      "ID": "CVE-2022-21496"
    }
  ],
  "Issued": {
    "Date": "2022-04-25"
  }
}