{
  "Title": "RHSA-2022:2129: lynx security update (Moderate)",
  "Description": "Lynx is a text-based Web browser. Lynx does not display any images, but it does support frames, tables, and most other HTML tags.\nSecurity Fix(es):\n* lynx: Disclosure of HTTP authentication credentials via SNI data (CVE-2021-38165)\nFor more details about the security issue(s), including the impact, a CVSS score, acknowledgments, and other related information, refer to the CVE page(s) listed in the References section.\nAdditional Changes:\nFor detailed information on changes in this release, see the Red Hat Enterprise Linux 8.6 Release Notes linked from the References section.",
  "Platform": [
    "Red Hat Enterprise Linux 8"
  ],
  "References": [
    {
      "Source": "RHSA",
      "URI": "https://access.redhat.com/errata/RHSA-2022:2129",
      "ID": "RHSA-2022:2129"
    },
    {
      "Source": "CVE",
      "URI": "https://access.redhat.com/security/cve/CVE-2021-38165",
      "ID": "CVE-2021-38165"
    }
  ],
  "Criteria": {
    "Operator": "OR",
    "Criterias": [
      {
        "Operator": "AND",
        "Criterias": [
          {
            "Operator": "OR",
            "Criterias": [

            ],
            "Criterions": [
              {
                "Comment": "Oracle Linux 8 is installed"
              },
              {
                "Comment": "Red Hat CoreOS 4 is installed"
              }
            ]
          }
        ],
        "Criterions": [
          {
            "Comment": "lynx is earlier than 0:2.8.9-4.el8"
          },
          {
            "Comment": "lynx is signed with Red Hat redhatrelease2 key"
          }
        ]
      }
    ],
    "Criterions": [
      {
        "Comment": "Oracle Linux 8 is installed"
      }
    ]
  },
  "Severity": "Moderate",
  "Cves": [
    {
      "Impact": "",
      "Href": "",
      "ID": "CVE-2021-38165"
    }
  ],
  "Issued": {
    "Date": "2022-05-10"
  }
}