{
  "Title": "RHSA-2022:8062: unbound security, bug fix, and enhancement update (Moderate)",
  "Description": "The unbound packages provide a validating, recursive, and caching DNS or DNSSEC resolver. \nThe following packages have been upgraded to a later upstream version: unbound (1.16.2). (BZ#2087120)\nSecurity Fix(es):\n* unbound: novel ghost domain attack that allows attackers to trigger continued resolvability of malicious domain names (CVE-2022-30698)\n* unbound: novel ghost domain attack that allows attackers to trigger continued resolvability of malicious domain names (CVE-2022-30699)\nFor more details about the security issue(s), including the impact, a CVSS score, acknowledgments, and other related information, refer to the CVE page(s) listed in the References section.\nAdditional Changes:\nFor detailed information on changes in this release, see the Red Hat Enterprise Linux 9.1 Release Notes linked from the References section.",
  "Platform": [
    "Red Hat Enterprise Linux 9"
  ],
  "References": [
    {
      "Source": "RHSA",
      "URI": "https://access.redhat.com/errata/RHSA-2022:8062",
      "ID": "RHSA-2022:8062"
    },
    {
      "Source": "CVE",
      "URI": "https://access.redhat.com/security/cve/CVE-2022-30698",
      "ID": "CVE-2022-30698"
    },
    {
      "Source": "CVE",
      "URI": "https://access.redhat.com/security/cve/CVE-2022-30699",
      "ID": "CVE-2022-30699"
    }
  ],
  "Criteria": {
    "Operator": "OR",
    "Criterias": [
      {
        "Operator": "AND",
        "Criterias": [
          {
            "Operator": "OR",
            "Criterias": [
              {
                "Operator": "AND",
                "Criterias": [

                ],
                "Criterions": [
                  {
                    "Comment": "python3-unbound is earlier than 0:1.16.2-2.el9"
                  },
                  {
                    "Comment": "python3-unbound is signed with Red Hat redhatrelease2 key"
                  }
                ]
              },
              {
                "Operator": "AND",
                "Criterias": [

                ],
                "Criterions": [
                  {
                    "Comment": "unbound is earlier than 0:1.16.2-2.el9"
                  },
                  {
                    "Comment": "unbound is signed with Red Hat redhatrelease2 key"
                  }
                ]
              },
              {
                "Operator": "AND",
                "Criterias": [

                ],
                "Criterions": [
                  {
                    "Comment": "unbound-devel is earlier than 0:1.16.2-2.el9"
                  },
                  {
                    "Comment": "unbound-devel is signed with Red Hat redhatrelease2 key"
                  }
                ]
              },
              {
                "Operator": "AND",
                "Criterias": [

                ],
                "Criterions": [
                  {
                    "Comment": "unbound-libs is earlier than 0:1.16.2-2.el9"
                  },
                  {
                    "Comment": "unbound-libs is signed with Red Hat redhatrelease2 key"
                  }
                ]
              }
            ],
            "Criterions": [

            ]
          }
        ],
        "Criterions": [
          {
            "Comment": "Oracle Linux 9 is installed"
          }
        ]
      }
    ],
    "Criterions": [
      {
        "Comment": "Oracle Linux 9 is installed"
      }
    ]
  },
  "Severity": "Moderate",
  "Cves": [
    {
      "Impact": "",
      "Href": "",
      "ID": "CVE-2022-30698"
    },
    {
      "Impact": "",
      "Href": "",
      "ID": "CVE-2022-30699"
    }
  ],
  "Issued": {
    "Date": "2022-11-15"
  }
}