{
  "Title": "RHSA-2022:5245: curl security update (Moderate)",
  "Description": "The curl packages provide the libcurl library and the curl utility for downloading files from servers using various protocols, including HTTP, FTP, and LDAP.\nSecurity Fix(es):\n* curl: OAUTH2 bearer bypass in connection re-use (CVE-2022-22576)\n* curl: credential leak on redirect (CVE-2022-27774)\n* curl: auth/cookie leak on redirect (CVE-2022-27776)\n* curl: TLS and SSH connection too eager reuse (CVE-2022-27782)\nFor more details about the security issue(s), including the impact, a CVSS score, acknowledgments, and other related information, refer to the CVE page(s) listed in the References section.",
  "Platform": [
    "Red Hat Enterprise Linux 9"
  ],
  "References": [
    {
      "Source": "RHSA",
      "URI": "https://access.redhat.com/errata/RHSA-2022:5245",
      "ID": "RHSA-2022:5245"
    },
    {
      "Source": "CVE",
      "URI": "https://access.redhat.com/security/cve/CVE-2022-22576",
      "ID": "CVE-2022-22576"
    },
    {
      "Source": "CVE",
      "URI": "https://access.redhat.com/security/cve/CVE-2022-27774",
      "ID": "CVE-2022-27774"
    },
    {
      "Source": "CVE",
      "URI": "https://access.redhat.com/security/cve/CVE-2022-27776",
      "ID": "CVE-2022-27776"
    },
    {
      "Source": "CVE",
      "URI": "https://access.redhat.com/security/cve/CVE-2022-27782",
      "ID": "CVE-2022-27782"
    }
  ],
  "Criteria": {
    "Operator": "OR",
    "Criterias": [
      {
        "Operator": "AND",
        "Criterias": [
          {
            "Operator": "OR",
            "Criterias": [
              {
                "Operator": "AND",
                "Criterias": [

                ],
                "Criterions": [
                  {
                    "Comment": "curl is earlier than 0:7.76.1-14.el9_0.4"
                  },
                  {
                    "Comment": "curl is signed with Red Hat redhatrelease2 key"
                  }
                ]
              },
              {
                "Operator": "AND",
                "Criterias": [

                ],
                "Criterions": [
                  {
                    "Comment": "curl-minimal is earlier than 0:7.76.1-14.el9_0.4"
                  },
                  {
                    "Comment": "curl-minimal is signed with Red Hat redhatrelease2 key"
                  }
                ]
              },
              {
                "Operator": "AND",
                "Criterias": [

                ],
                "Criterions": [
                  {
                    "Comment": "libcurl is earlier than 0:7.76.1-14.el9_0.4"
                  },
                  {
                    "Comment": "libcurl is signed with Red Hat redhatrelease2 key"
                  }
                ]
              },
              {
                "Operator": "AND",
                "Criterias": [

                ],
                "Criterions": [
                  {
                    "Comment": "libcurl-devel is earlier than 0:7.76.1-14.el9_0.4"
                  },
                  {
                    "Comment": "libcurl-devel is signed with Red Hat redhatrelease2 key"
                  }
                ]
              },
              {
                "Operator": "AND",
                "Criterias": [

                ],
                "Criterions": [
                  {
                    "Comment": "libcurl-minimal is earlier than 0:7.76.1-14.el9_0.4"
                  },
                  {
                    "Comment": "libcurl-minimal is signed with Red Hat redhatrelease2 key"
                  }
                ]
              }
            ],
            "Criterions": [

            ]
          }
        ],
        "Criterions": [
          {
            "Comment": "Oracle Linux 9 is installed"
          }
        ]
      }
    ],
    "Criterions": [
      {
        "Comment": "Oracle Linux 9 is installed"
      }
    ]
  },
  "Severity": "Moderate",
  "Cves": [
    {
      "Impact": "",
      "Href": "",
      "ID": "CVE-2022-22576"
    },
    {
      "Impact": "",
      "Href": "",
      "ID": "CVE-2022-27774"
    },
    {
      "Impact": "",
      "Href": "",
      "ID": "CVE-2022-27776"
    },
    {
      "Impact": "",
      "Href": "",
      "ID": "CVE-2022-27782"
    }
  ],
  "Issued": {
    "Date": "2022-07-01"
  }
}