{
  "Title": "RHSA-2022:6717: thunderbird security update (Important)",
  "Description": "Mozilla Thunderbird is a standalone mail and newsgroup client.\nThis update upgrades Thunderbird to version 102.3.0.\nSecurity Fix(es):\n* Mozilla: Leaking of sensitive information when composing a response to an HTML email with a META refresh tag (CVE-2022-3033)\n* Mozilla: Bypassing FeaturePolicy restrictions on transient pages (CVE-2022-40959)\n* Mozilla: Data-race when parsing non-UTF-8 URLs in threads (CVE-2022-40960)\n* Mozilla: Memory safety bugs fixed in Firefox 105 and Firefox ESR 102.3 (CVE-2022-40962)\n* Mozilla: Remote content specified in an HTML document that was nested inside an iframe's srcdoc attribute was not blocked (CVE-2022-3032)\n* Mozilla: An iframe element in an HTML email could trigger a network request (CVE-2022-3034)\n* Mozilla: Matrix SDK bundled with Thunderbird vulnerable to denial-of-service attack (CVE-2022-36059)\n* Mozilla: Bypassing Secure Context restriction for cookies with __Host and __Secure prefix (CVE-2022-40958)\n* Mozilla: Content-Security-Policy base-uri bypass (CVE-2022-40956)\n* Mozilla: Incoherent instruction cache when building WASM on ARM64 (CVE-2022-40957)\nFor more details about the security issue(s), including the impact, a CVSS score, acknowledgments, and other related information, refer to the CVE page(s) listed in the References section.",
  "Platform": [
    "Red Hat Enterprise Linux 9"
  ],
  "References": [
    {
      "Source": "RHSA",
      "URI": "https://access.redhat.com/errata/RHSA-2022:6717",
      "ID": "RHSA-2022:6717"
    },
    {
      "Source": "CVE",
      "URI": "https://access.redhat.com/security/cve/CVE-2022-3032",
      "ID": "CVE-2022-3032"
    },
    {
      "Source": "CVE",
      "URI": "https://access.redhat.com/security/cve/CVE-2022-3033",
      "ID": "CVE-2022-3033"
    },
    {
      "Source": "CVE",
      "URI": "https://access.redhat.com/security/cve/CVE-2022-3034",
      "ID": "CVE-2022-3034"
    },
    {
      "Source": "CVE",
      "URI": "https://access.redhat.com/security/cve/CVE-2022-36059",
      "ID": "CVE-2022-36059"
    },
    {
      "Source": "CVE",
      "URI": "https://access.redhat.com/security/cve/CVE-2022-40956",
      "ID": "CVE-2022-40956"
    },
    {
      "Source": "CVE",
      "URI": "https://access.redhat.com/security/cve/CVE-2022-40957",
      "ID": "CVE-2022-40957"
    },
    {
      "Source": "CVE",
      "URI": "https://access.redhat.com/security/cve/CVE-2022-40958",
      "ID": "CVE-2022-40958"
    },
    {
      "Source": "CVE",
      "URI": "https://access.redhat.com/security/cve/CVE-2022-40959",
      "ID": "CVE-2022-40959"
    },
    {
      "Source": "CVE",
      "URI": "https://access.redhat.com/security/cve/CVE-2022-40960",
      "ID": "CVE-2022-40960"
    },
    {
      "Source": "CVE",
      "URI": "https://access.redhat.com/security/cve/CVE-2022-40962",
      "ID": "CVE-2022-40962"
    }
  ],
  "Criteria": {
    "Operator": "OR",
    "Criterias": [
      {
        "Operator": "AND",
        "Criterias": [

        ],
        "Criterions": [
          {
            "Comment": "Oracle Linux 9 is installed"
          },
          {
            "Comment": "thunderbird is earlier than 0:102.3.0-3.el9_0"
          },
          {
            "Comment": "thunderbird is signed with Red Hat redhatrelease2 key"
          }
        ]
      }
    ],
    "Criterions": [
      {
        "Comment": "Oracle Linux 9 is installed"
      }
    ]
  },
  "Severity": "Important",
  "Cves": [
    {
      "Impact": "",
      "Href": "",
      "ID": "CVE-2022-3032"
    },
    {
      "Impact": "",
      "Href": "",
      "ID": "CVE-2022-3033"
    },
    {
      "Impact": "",
      "Href": "",
      "ID": "CVE-2022-3034"
    },
    {
      "Impact": "",
      "Href": "",
      "ID": "CVE-2022-36059"
    },
    {
      "Impact": "",
      "Href": "",
      "ID": "CVE-2022-40956"
    },
    {
      "Impact": "",
      "Href": "",
      "ID": "CVE-2022-40957"
    },
    {
      "Impact": "",
      "Href": "",
      "ID": "CVE-2022-40958"
    },
    {
      "Impact": "",
      "Href": "",
      "ID": "CVE-2022-40959"
    },
    {
      "Impact": "",
      "Href": "",
      "ID": "CVE-2022-40960"
    },
    {
      "Impact": "",
      "Href": "",
      "ID": "CVE-2022-40962"
    }
  ],
  "Issued": {
    "Date": "2022-09-26"
  }
}