{
  "Title": "RHSA-2022:5480: thunderbird security update (Important)",
  "Description": "Mozilla Thunderbird is a standalone mail and newsgroup client.\nThis update upgrades Thunderbird to version 91.11.\nSecurity Fix(es):\n* Mozilla: CSP sandbox header without `allow-scripts` can be bypassed via retargeted javascript: URI (CVE-2022-34468)\n* Mozilla: Use-after-free in nsSHistory (CVE-2022-34470)\n* Mozilla: A popup window could be resized in a way to overlay the address bar with web content (CVE-2022-34479)\n* Mozilla: Memory safety bugs fixed in Firefox 102 and Firefox ESR 91.11 (CVE-2022-34484)\n* Mozilla: Undesired attributes could be set as part of prototype pollution (CVE-2022-2200)\n* Mozilla: An email with a mismatching OpenPGP signature date was accepted as valid (CVE-2022-2226)\n* Mozilla: CSP bypass enabling stylesheet injection (CVE-2022-31744)\n* Mozilla: Unavailable PAC file resulted in OCSP requests being blocked (CVE-2022-34472)\n* Mozilla: Potential integer overflow in ReplaceElementsAt (CVE-2022-34481)\nFor more details about the security issue(s), including the impact, a CVSS score, acknowledgments, and other related information, refer to the CVE page(s) listed in the References section.",
  "Platform": [
    "Red Hat Enterprise Linux 7"
  ],
  "References": [
    {
      "Source": "RHSA",
      "URI": "https://access.redhat.com/errata/RHSA-2022:5480",
      "ID": "RHSA-2022:5480"
    },
    {
      "Source": "CVE",
      "URI": "https://access.redhat.com/security/cve/CVE-2022-2200",
      "ID": "CVE-2022-2200"
    },
    {
      "Source": "CVE",
      "URI": "https://access.redhat.com/security/cve/CVE-2022-2226",
      "ID": "CVE-2022-2226"
    },
    {
      "Source": "CVE",
      "URI": "https://access.redhat.com/security/cve/CVE-2022-31744",
      "ID": "CVE-2022-31744"
    },
    {
      "Source": "CVE",
      "URI": "https://access.redhat.com/security/cve/CVE-2022-34468",
      "ID": "CVE-2022-34468"
    },
    {
      "Source": "CVE",
      "URI": "https://access.redhat.com/security/cve/CVE-2022-34470",
      "ID": "CVE-2022-34470"
    },
    {
      "Source": "CVE",
      "URI": "https://access.redhat.com/security/cve/CVE-2022-34472",
      "ID": "CVE-2022-34472"
    },
    {
      "Source": "CVE",
      "URI": "https://access.redhat.com/security/cve/CVE-2022-34479",
      "ID": "CVE-2022-34479"
    },
    {
      "Source": "CVE",
      "URI": "https://access.redhat.com/security/cve/CVE-2022-34481",
      "ID": "CVE-2022-34481"
    },
    {
      "Source": "CVE",
      "URI": "https://access.redhat.com/security/cve/CVE-2022-34484",
      "ID": "CVE-2022-34484"
    }
  ],
  "Criteria": {
    "Operator": "OR",
    "Criterias": [
      {
        "Operator": "AND",
        "Criterias": [

        ],
        "Criterions": [
          {
            "Comment": "Oracle Linux 7 is installed"
          },
          {
            "Comment": "thunderbird is earlier than 0:91.11.0-2.el7_9"
          },
          {
            "Comment": "thunderbird is signed with Red Hat redhatrelease2 key"
          }
        ]
      }
    ],
    "Criterions": [
      {
        "Comment": "Oracle Linux 7 is installed"
      }
    ]
  },
  "Severity": "Important",
  "Cves": [
    {
      "Impact": "",
      "Href": "",
      "ID": "CVE-2022-2200"
    },
    {
      "Impact": "",
      "Href": "",
      "ID": "CVE-2022-2226"
    },
    {
      "Impact": "",
      "Href": "",
      "ID": "CVE-2022-31744"
    },
    {
      "Impact": "",
      "Href": "",
      "ID": "CVE-2022-34468"
    },
    {
      "Impact": "",
      "Href": "",
      "ID": "CVE-2022-34470"
    },
    {
      "Impact": "",
      "Href": "",
      "ID": "CVE-2022-34472"
    },
    {
      "Impact": "",
      "Href": "",
      "ID": "CVE-2022-34479"
    },
    {
      "Impact": "",
      "Href": "",
      "ID": "CVE-2022-34481"
    },
    {
      "Impact": "",
      "Href": "",
      "ID": "CVE-2022-34484"
    }
  ],
  "Issued": {
    "Date": "2022-07-01"
  }
}