{
  "Title": "RHSA-2022:2202: .NET Core 3.1 security, bug fix, and enhancement update (Important)",
  "Description": ".NET Core is a managed-software framework. It implements a subset of the .NET\nframework APIs and several new APIs, and it includes a CLR implementation.\nNew versions of .NET Core that address a security vulnerability are now available. The updated versions are .NET Core SDK 3.1.419 and .NET Core Runtime 3.1.25.\nSecurity Fix(es):\n* dotnet: excess memory allocation via HttpClient causes DoS (CVE-2022-23267)\n* dotnet: malicious content causes high CPU and memory usage (CVE-2022-29117)\n* dotnet: parsing HTML causes Denial of Service (CVE-2022-29145)\nFor more details about the security issue(s), including the impact, a CVSS score, acknowledgments, and other related information, refer to the CVE page(s) listed in the References section.",
  "Platform": [
    "Red Hat Enterprise Linux 8"
  ],
  "References": [
    {
      "Source": "RHSA",
      "URI": "https://access.redhat.com/errata/RHSA-2022:2202",
      "ID": "RHSA-2022:2202"
    },
    {
      "Source": "CVE",
      "URI": "https://access.redhat.com/security/cve/CVE-2022-23267",
      "ID": "CVE-2022-23267"
    },
    {
      "Source": "CVE",
      "URI": "https://access.redhat.com/security/cve/CVE-2022-29117",
      "ID": "CVE-2022-29117"
    },
    {
      "Source": "CVE",
      "URI": "https://access.redhat.com/security/cve/CVE-2022-29145",
      "ID": "CVE-2022-29145"
    }
  ],
  "Criteria": {
    "Operator": "OR",
    "Criterias": [
      {
        "Operator": "AND",
        "Criterias": [
          {
            "Operator": "OR",
            "Criterias": [

            ],
            "Criterions": [
              {
                "Comment": "Oracle Linux 8 is installed"
              },
              {
                "Comment": "Red Hat CoreOS 4 is installed"
              }
            ]
          },
          {
            "Operator": "OR",
            "Criterias": [
              {
                "Operator": "AND",
                "Criterias": [

                ],
                "Criterions": [
                  {
                    "Comment": "aspnetcore-runtime-3.1 is earlier than 0:3.1.25-1.el8_6"
                  },
                  {
                    "Comment": "aspnetcore-runtime-3.1 is signed with Red Hat redhatrelease2 key"
                  }
                ]
              },
              {
                "Operator": "AND",
                "Criterias": [

                ],
                "Criterions": [
                  {
                    "Comment": "aspnetcore-targeting-pack-3.1 is earlier than 0:3.1.25-1.el8_6"
                  },
                  {
                    "Comment": "aspnetcore-targeting-pack-3.1 is signed with Red Hat redhatrelease2 key"
                  }
                ]
              },
              {
                "Operator": "AND",
                "Criterias": [

                ],
                "Criterions": [
                  {
                    "Comment": "dotnet-apphost-pack-3.1 is earlier than 0:3.1.25-1.el8_6"
                  },
                  {
                    "Comment": "dotnet-apphost-pack-3.1 is signed with Red Hat redhatrelease2 key"
                  }
                ]
              },
              {
                "Operator": "AND",
                "Criterias": [

                ],
                "Criterions": [
                  {
                    "Comment": "dotnet-hostfxr-3.1 is earlier than 0:3.1.25-1.el8_6"
                  },
                  {
                    "Comment": "dotnet-hostfxr-3.1 is signed with Red Hat redhatrelease2 key"
                  }
                ]
              },
              {
                "Operator": "AND",
                "Criterias": [

                ],
                "Criterions": [
                  {
                    "Comment": "dotnet-runtime-3.1 is earlier than 0:3.1.25-1.el8_6"
                  },
                  {
                    "Comment": "dotnet-runtime-3.1 is signed with Red Hat redhatrelease2 key"
                  }
                ]
              },
              {
                "Operator": "AND",
                "Criterias": [

                ],
                "Criterions": [
                  {
                    "Comment": "dotnet-sdk-3.1 is earlier than 0:3.1.419-1.el8_6"
                  },
                  {
                    "Comment": "dotnet-sdk-3.1 is signed with Red Hat redhatrelease2 key"
                  }
                ]
              },
              {
                "Operator": "AND",
                "Criterias": [

                ],
                "Criterions": [
                  {
                    "Comment": "dotnet-sdk-3.1-source-built-artifacts is earlier than 0:3.1.419-1.el8_6"
                  },
                  {
                    "Comment": "dotnet-sdk-3.1-source-built-artifacts is signed with Red Hat redhatrelease2 key"
                  }
                ]
              },
              {
                "Operator": "AND",
                "Criterias": [

                ],
                "Criterions": [
                  {
                    "Comment": "dotnet-targeting-pack-3.1 is earlier than 0:3.1.25-1.el8_6"
                  },
                  {
                    "Comment": "dotnet-targeting-pack-3.1 is signed with Red Hat redhatrelease2 key"
                  }
                ]
              },
              {
                "Operator": "AND",
                "Criterias": [

                ],
                "Criterions": [
                  {
                    "Comment": "dotnet-templates-3.1 is earlier than 0:3.1.419-1.el8_6"
                  },
                  {
                    "Comment": "dotnet-templates-3.1 is signed with Red Hat redhatrelease2 key"
                  }
                ]
              }
            ],
            "Criterions": [

            ]
          }
        ],
        "Criterions": [

        ]
      }
    ],
    "Criterions": [
      {
        "Comment": "Oracle Linux 8 is installed"
      }
    ]
  },
  "Severity": "Important",
  "Cves": [
    {
      "Impact": "",
      "Href": "",
      "ID": "CVE-2022-23267"
    },
    {
      "Impact": "",
      "Href": "",
      "ID": "CVE-2022-29117"
    },
    {
      "Impact": "",
      "Href": "",
      "ID": "CVE-2022-29145"
    }
  ],
  "Issued": {
    "Date": "2022-05-11"
  }
}