{
  "Title": "RHSA-2022:1991: cpio security update (Moderate)",
  "Description": "The cpio packages provide the GNU cpio utility for creating and extracting archives, or copying files from one place to another.\nSecurity Fix(es):\n* cpio: integer overflow in ds_fgetstr() in dstring.c can lead to an out-of-bounds write via a crafted pattern file (CVE-2021-38185)\nFor more details about the security issue(s), including the impact, a CVSS score, acknowledgments, and other related information, refer to the CVE page(s) listed in the References section.\nAdditional Changes:\nFor detailed information on changes in this release, see the Red Hat Enterprise Linux 8.6 Release Notes linked from the References section.",
  "Platform": [
    "Red Hat Enterprise Linux 8"
  ],
  "References": [
    {
      "Source": "RHSA",
      "URI": "https://access.redhat.com/errata/RHSA-2022:1991",
      "ID": "RHSA-2022:1991"
    },
    {
      "Source": "CVE",
      "URI": "https://access.redhat.com/security/cve/CVE-2021-38185",
      "ID": "CVE-2021-38185"
    }
  ],
  "Criteria": {
    "Operator": "OR",
    "Criterias": [
      {
        "Operator": "AND",
        "Criterias": [
          {
            "Operator": "OR",
            "Criterias": [

            ],
            "Criterions": [
              {
                "Comment": "Oracle Linux 8 is installed"
              },
              {
                "Comment": "Red Hat CoreOS 4 is installed"
              }
            ]
          }
        ],
        "Criterions": [
          {
            "Comment": "cpio is earlier than 0:2.12-11.el8"
          },
          {
            "Comment": "cpio is signed with Red Hat redhatrelease2 key"
          }
        ]
      }
    ],
    "Criterions": [
      {
        "Comment": "Oracle Linux 8 is installed"
      }
    ]
  },
  "Severity": "Moderate",
  "Cves": [
    {
      "Impact": "",
      "Href": "",
      "ID": "CVE-2021-38185"
    }
  ],
  "Issued": {
    "Date": "2022-05-10"
  }
}