{
  "Title": "RHSA-2022:1728: java-11-openjdk security update (Important)",
  "Description": "The java-11-openjdk packages provide the OpenJDK 11 Java Runtime Environment and the OpenJDK 11 Java Software Development Kit.\nSecurity Fix(es):\n* OpenJDK: Defective secure validation in Apache Santuario (Libraries, 8278008) (CVE-2022-21476)\n* OpenJDK: Unbounded memory allocation when compiling crafted XPath expressions (JAXP, 8270504) (CVE-2022-21426)\n* OpenJDK: Improper object-to-string conversion in AnnotationInvocationHandler (Libraries, 8277672) (CVE-2022-21434)\n* OpenJDK: Missing check for negative ObjectIdentifier (Libraries, 8275151) (CVE-2022-21443)\n* OpenJDK: URI parsing inconsistencies (JNDI, 8278972) (CVE-2022-21496)\nFor more details about the security issue(s), including the impact, a CVSS score, acknowledgments, and other related information, refer to the CVE page(s) listed in the References section.",
  "Platform": [
    "Red Hat Enterprise Linux 9"
  ],
  "References": [
    {
      "Source": "RHSA",
      "URI": "https://access.redhat.com/errata/RHSA-2022:1728",
      "ID": "RHSA-2022:1728"
    },
    {
      "Source": "CVE",
      "URI": "https://access.redhat.com/security/cve/CVE-2022-21426",
      "ID": "CVE-2022-21426"
    },
    {
      "Source": "CVE",
      "URI": "https://access.redhat.com/security/cve/CVE-2022-21434",
      "ID": "CVE-2022-21434"
    },
    {
      "Source": "CVE",
      "URI": "https://access.redhat.com/security/cve/CVE-2022-21443",
      "ID": "CVE-2022-21443"
    },
    {
      "Source": "CVE",
      "URI": "https://access.redhat.com/security/cve/CVE-2022-21476",
      "ID": "CVE-2022-21476"
    },
    {
      "Source": "CVE",
      "URI": "https://access.redhat.com/security/cve/CVE-2022-21496",
      "ID": "CVE-2022-21496"
    }
  ],
  "Criteria": {
    "Operator": "OR",
    "Criterias": [
      {
        "Operator": "AND",
        "Criterias": [
          {
            "Operator": "OR",
            "Criterias": [
              {
                "Operator": "AND",
                "Criterias": [

                ],
                "Criterions": [
                  {
                    "Comment": "java-11-openjdk is earlier than 1:11.0.15.0.10-1.el9_0"
                  },
                  {
                    "Comment": "java-11-openjdk is signed with Red Hat redhatrelease2 key"
                  }
                ]
              },
              {
                "Operator": "AND",
                "Criterias": [

                ],
                "Criterions": [
                  {
                    "Comment": "java-11-openjdk-demo is earlier than 1:11.0.15.0.10-1.el9_0"
                  },
                  {
                    "Comment": "java-11-openjdk-demo is signed with Red Hat redhatrelease2 key"
                  }
                ]
              },
              {
                "Operator": "AND",
                "Criterias": [

                ],
                "Criterions": [
                  {
                    "Comment": "java-11-openjdk-demo-fastdebug is earlier than 1:11.0.15.0.10-1.el9_0"
                  },
                  {
                    "Comment": "java-11-openjdk-demo-fastdebug is signed with Red Hat redhatrelease2 key"
                  }
                ]
              },
              {
                "Operator": "AND",
                "Criterias": [

                ],
                "Criterions": [
                  {
                    "Comment": "java-11-openjdk-demo-slowdebug is earlier than 1:11.0.15.0.10-1.el9_0"
                  },
                  {
                    "Comment": "java-11-openjdk-demo-slowdebug is signed with Red Hat redhatrelease2 key"
                  }
                ]
              },
              {
                "Operator": "AND",
                "Criterias": [

                ],
                "Criterions": [
                  {
                    "Comment": "java-11-openjdk-devel is earlier than 1:11.0.15.0.10-1.el9_0"
                  },
                  {
                    "Comment": "java-11-openjdk-devel is signed with Red Hat redhatrelease2 key"
                  }
                ]
              },
              {
                "Operator": "AND",
                "Criterias": [

                ],
                "Criterions": [
                  {
                    "Comment": "java-11-openjdk-devel-fastdebug is earlier than 1:11.0.15.0.10-1.el9_0"
                  },
                  {
                    "Comment": "java-11-openjdk-devel-fastdebug is signed with Red Hat redhatrelease2 key"
                  }
                ]
              },
              {
                "Operator": "AND",
                "Criterias": [

                ],
                "Criterions": [
                  {
                    "Comment": "java-11-openjdk-devel-slowdebug is earlier than 1:11.0.15.0.10-1.el9_0"
                  },
                  {
                    "Comment": "java-11-openjdk-devel-slowdebug is signed with Red Hat redhatrelease2 key"
                  }
                ]
              },
              {
                "Operator": "AND",
                "Criterias": [

                ],
                "Criterions": [
                  {
                    "Comment": "java-11-openjdk-fastdebug is earlier than 1:11.0.15.0.10-1.el9_0"
                  },
                  {
                    "Comment": "java-11-openjdk-fastdebug is signed with Red Hat redhatrelease2 key"
                  }
                ]
              },
              {
                "Operator": "AND",
                "Criterias": [

                ],
                "Criterions": [
                  {
                    "Comment": "java-11-openjdk-headless is earlier than 1:11.0.15.0.10-1.el9_0"
                  },
                  {
                    "Comment": "java-11-openjdk-headless is signed with Red Hat redhatrelease2 key"
                  }
                ]
              },
              {
                "Operator": "AND",
                "Criterias": [

                ],
                "Criterions": [
                  {
                    "Comment": "java-11-openjdk-headless-fastdebug is earlier than 1:11.0.15.0.10-1.el9_0"
                  },
                  {
                    "Comment": "java-11-openjdk-headless-fastdebug is signed with Red Hat redhatrelease2 key"
                  }
                ]
              },
              {
                "Operator": "AND",
                "Criterias": [

                ],
                "Criterions": [
                  {
                    "Comment": "java-11-openjdk-headless-slowdebug is earlier than 1:11.0.15.0.10-1.el9_0"
                  },
                  {
                    "Comment": "java-11-openjdk-headless-slowdebug is signed with Red Hat redhatrelease2 key"
                  }
                ]
              },
              {
                "Operator": "AND",
                "Criterias": [

                ],
                "Criterions": [
                  {
                    "Comment": "java-11-openjdk-javadoc is earlier than 1:11.0.15.0.10-1.el9_0"
                  },
                  {
                    "Comment": "java-11-openjdk-javadoc is signed with Red Hat redhatrelease2 key"
                  }
                ]
              },
              {
                "Operator": "AND",
                "Criterias": [

                ],
                "Criterions": [
                  {
                    "Comment": "java-11-openjdk-javadoc-zip is earlier than 1:11.0.15.0.10-1.el9_0"
                  },
                  {
                    "Comment": "java-11-openjdk-javadoc-zip is signed with Red Hat redhatrelease2 key"
                  }
                ]
              },
              {
                "Operator": "AND",
                "Criterias": [

                ],
                "Criterions": [
                  {
                    "Comment": "java-11-openjdk-jmods is earlier than 1:11.0.15.0.10-1.el9_0"
                  },
                  {
                    "Comment": "java-11-openjdk-jmods is signed with Red Hat redhatrelease2 key"
                  }
                ]
              },
              {
                "Operator": "AND",
                "Criterias": [

                ],
                "Criterions": [
                  {
                    "Comment": "java-11-openjdk-jmods-fastdebug is earlier than 1:11.0.15.0.10-1.el9_0"
                  },
                  {
                    "Comment": "java-11-openjdk-jmods-fastdebug is signed with Red Hat redhatrelease2 key"
                  }
                ]
              },
              {
                "Operator": "AND",
                "Criterias": [

                ],
                "Criterions": [
                  {
                    "Comment": "java-11-openjdk-jmods-slowdebug is earlier than 1:11.0.15.0.10-1.el9_0"
                  },
                  {
                    "Comment": "java-11-openjdk-jmods-slowdebug is signed with Red Hat redhatrelease2 key"
                  }
                ]
              },
              {
                "Operator": "AND",
                "Criterias": [

                ],
                "Criterions": [
                  {
                    "Comment": "java-11-openjdk-slowdebug is earlier than 1:11.0.15.0.10-1.el9_0"
                  },
                  {
                    "Comment": "java-11-openjdk-slowdebug is signed with Red Hat redhatrelease2 key"
                  }
                ]
              },
              {
                "Operator": "AND",
                "Criterias": [

                ],
                "Criterions": [
                  {
                    "Comment": "java-11-openjdk-src is earlier than 1:11.0.15.0.10-1.el9_0"
                  },
                  {
                    "Comment": "java-11-openjdk-src is signed with Red Hat redhatrelease2 key"
                  }
                ]
              },
              {
                "Operator": "AND",
                "Criterias": [

                ],
                "Criterions": [
                  {
                    "Comment": "java-11-openjdk-src-fastdebug is earlier than 1:11.0.15.0.10-1.el9_0"
                  },
                  {
                    "Comment": "java-11-openjdk-src-fastdebug is signed with Red Hat redhatrelease2 key"
                  }
                ]
              },
              {
                "Operator": "AND",
                "Criterias": [

                ],
                "Criterions": [
                  {
                    "Comment": "java-11-openjdk-src-slowdebug is earlier than 1:11.0.15.0.10-1.el9_0"
                  },
                  {
                    "Comment": "java-11-openjdk-src-slowdebug is signed with Red Hat redhatrelease2 key"
                  }
                ]
              },
              {
                "Operator": "AND",
                "Criterias": [

                ],
                "Criterions": [
                  {
                    "Comment": "java-11-openjdk-static-libs is earlier than 1:11.0.15.0.10-1.el9_0"
                  },
                  {
                    "Comment": "java-11-openjdk-static-libs is signed with Red Hat redhatrelease2 key"
                  }
                ]
              },
              {
                "Operator": "AND",
                "Criterias": [

                ],
                "Criterions": [
                  {
                    "Comment": "java-11-openjdk-static-libs-fastdebug is earlier than 1:11.0.15.0.10-1.el9_0"
                  },
                  {
                    "Comment": "java-11-openjdk-static-libs-fastdebug is signed with Red Hat redhatrelease2 key"
                  }
                ]
              },
              {
                "Operator": "AND",
                "Criterias": [

                ],
                "Criterions": [
                  {
                    "Comment": "java-11-openjdk-static-libs-slowdebug is earlier than 1:11.0.15.0.10-1.el9_0"
                  },
                  {
                    "Comment": "java-11-openjdk-static-libs-slowdebug is signed with Red Hat redhatrelease2 key"
                  }
                ]
              }
            ],
            "Criterions": [

            ]
          }
        ],
        "Criterions": [
          {
            "Comment": "Oracle Linux 9 is installed"
          }
        ]
      }
    ],
    "Criterions": [
      {
        "Comment": "Oracle Linux 9 is installed"
      }
    ]
  },
  "Severity": "Important",
  "Cves": [
    {
      "Impact": "",
      "Href": "",
      "ID": "CVE-2022-21426"
    },
    {
      "Impact": "",
      "Href": "",
      "ID": "CVE-2022-21434"
    },
    {
      "Impact": "",
      "Href": "",
      "ID": "CVE-2022-21443"
    },
    {
      "Impact": "",
      "Href": "",
      "ID": "CVE-2022-21476"
    },
    {
      "Impact": "",
      "Href": "",
      "ID": "CVE-2022-21496"
    }
  ],
  "Issued": {
    "Date": "2022-05-17"
  }
}