{
  "Title": "RHSA-2022:1842: exiv2 security, bug fix, and enhancement update (Moderate)",
  "Description": "Exiv2 is a C++ library to access image metadata, supporting read and write access to the Exif, IPTC and XMP metadata, Exif MakerNote support, extract and delete methods for Exif thumbnails, classes to access Ifd, and support for various image formats.\nThe following packages have been upgraded to a later upstream version: exiv2 (0.27.5). (BZ#2018422)\nSecurity Fix(es):\n* exiv2: stack exhaustion issue in the printIFDStructure function may lead to DoS (CVE-2020-18898)\nFor more details about the security issue(s), including the impact, a CVSS score, acknowledgments, and other related information, refer to the CVE page(s) listed in the References section.\nAdditional Changes:\nFor detailed information on changes in this release, see the Red Hat Enterprise Linux 8.6 Release Notes linked from the References section.",
  "Platform": [
    "Red Hat Enterprise Linux 8"
  ],
  "References": [
    {
      "Source": "RHSA",
      "URI": "https://access.redhat.com/errata/RHSA-2022:1842",
      "ID": "RHSA-2022:1842"
    },
    {
      "Source": "CVE",
      "URI": "https://access.redhat.com/security/cve/CVE-2020-18898",
      "ID": "CVE-2020-18898"
    }
  ],
  "Criteria": {
    "Operator": "OR",
    "Criterias": [
      {
        "Operator": "AND",
        "Criterias": [
          {
            "Operator": "OR",
            "Criterias": [

            ],
            "Criterions": [
              {
                "Comment": "Oracle Linux 8 is installed"
              },
              {
                "Comment": "Red Hat CoreOS 4 is installed"
              }
            ]
          },
          {
            "Operator": "OR",
            "Criterias": [
              {
                "Operator": "AND",
                "Criterias": [

                ],
                "Criterions": [
                  {
                    "Comment": "exiv2 is earlier than 0:0.27.5-2.el8"
                  },
                  {
                    "Comment": "exiv2 is signed with Red Hat redhatrelease2 key"
                  }
                ]
              },
              {
                "Operator": "AND",
                "Criterias": [

                ],
                "Criterions": [
                  {
                    "Comment": "exiv2-devel is earlier than 0:0.27.5-2.el8"
                  },
                  {
                    "Comment": "exiv2-devel is signed with Red Hat redhatrelease2 key"
                  }
                ]
              },
              {
                "Operator": "AND",
                "Criterias": [

                ],
                "Criterions": [
                  {
                    "Comment": "exiv2-doc is earlier than 0:0.27.5-2.el8"
                  },
                  {
                    "Comment": "exiv2-doc is signed with Red Hat redhatrelease2 key"
                  }
                ]
              },
              {
                "Operator": "AND",
                "Criterias": [

                ],
                "Criterions": [
                  {
                    "Comment": "exiv2-libs is earlier than 0:0.27.5-2.el8"
                  },
                  {
                    "Comment": "exiv2-libs is signed with Red Hat redhatrelease2 key"
                  }
                ]
              }
            ],
            "Criterions": [

            ]
          }
        ],
        "Criterions": [

        ]
      }
    ],
    "Criterions": [
      {
        "Comment": "Oracle Linux 8 is installed"
      }
    ]
  },
  "Severity": "Moderate",
  "Cves": [
    {
      "Impact": "",
      "Href": "",
      "ID": "CVE-2020-18898"
    }
  ],
  "Issued": {
    "Date": "2022-05-10"
  }
}