{
  "Title": "RHSA-2022:7970: protobuf security update (Moderate)",
  "Description": "The protobuf packages provide Protocol Buffers, Google's data interchange format. Protocol Buffers can encode structured data in an efficient yet extensible format, and provide a flexible, efficient, and automated mechanism for serializing structured data.\nSecurity Fix(es):\n* protobuf: Incorrect parsing of nullchar in the proto symbol leads to Nullptr dereference (CVE-2021-22570)\nFor more details about the security issue(s), including the impact, a CVSS score, acknowledgments, and other related information, refer to the CVE page(s) listed in the References section.\nAdditional Changes:\nFor detailed information on changes in this release, see the Red Hat Enterprise Linux 9.1 Release Notes linked from the References section.",
  "Platform": [
    "Red Hat Enterprise Linux 9"
  ],
  "References": [
    {
      "Source": "RHSA",
      "URI": "https://access.redhat.com/errata/RHSA-2022:7970",
      "ID": "RHSA-2022:7970"
    },
    {
      "Source": "CVE",
      "URI": "https://access.redhat.com/security/cve/CVE-2021-22570",
      "ID": "CVE-2021-22570"
    }
  ],
  "Criteria": {
    "Operator": "OR",
    "Criterias": [
      {
        "Operator": "AND",
        "Criterias": [
          {
            "Operator": "OR",
            "Criterias": [
              {
                "Operator": "AND",
                "Criterias": [

                ],
                "Criterions": [
                  {
                    "Comment": "protobuf is earlier than 0:3.14.0-13.el9"
                  },
                  {
                    "Comment": "protobuf is signed with Red Hat redhatrelease2 key"
                  }
                ]
              },
              {
                "Operator": "AND",
                "Criterias": [

                ],
                "Criterions": [
                  {
                    "Comment": "protobuf-compiler is earlier than 0:3.14.0-13.el9"
                  },
                  {
                    "Comment": "protobuf-compiler is signed with Red Hat redhatrelease2 key"
                  }
                ]
              },
              {
                "Operator": "AND",
                "Criterias": [

                ],
                "Criterions": [
                  {
                    "Comment": "protobuf-devel is earlier than 0:3.14.0-13.el9"
                  },
                  {
                    "Comment": "protobuf-devel is signed with Red Hat redhatrelease2 key"
                  }
                ]
              },
              {
                "Operator": "AND",
                "Criterias": [

                ],
                "Criterions": [
                  {
                    "Comment": "protobuf-lite is earlier than 0:3.14.0-13.el9"
                  },
                  {
                    "Comment": "protobuf-lite is signed with Red Hat redhatrelease2 key"
                  }
                ]
              },
              {
                "Operator": "AND",
                "Criterias": [

                ],
                "Criterions": [
                  {
                    "Comment": "protobuf-lite-devel is earlier than 0:3.14.0-13.el9"
                  },
                  {
                    "Comment": "protobuf-lite-devel is signed with Red Hat redhatrelease2 key"
                  }
                ]
              },
              {
                "Operator": "AND",
                "Criterias": [

                ],
                "Criterions": [
                  {
                    "Comment": "python3-protobuf is earlier than 0:3.14.0-13.el9"
                  },
                  {
                    "Comment": "python3-protobuf is signed with Red Hat redhatrelease2 key"
                  }
                ]
              }
            ],
            "Criterions": [

            ]
          }
        ],
        "Criterions": [
          {
            "Comment": "Oracle Linux 9 is installed"
          }
        ]
      }
    ],
    "Criterions": [
      {
        "Comment": "Oracle Linux 9 is installed"
      }
    ]
  },
  "Severity": "Moderate",
  "Cves": [
    {
      "Impact": "",
      "Href": "",
      "ID": "CVE-2021-22570"
    }
  ],
  "Issued": {
    "Date": "2022-11-15"
  }
}