{
  "Title": "RHSA-2022:5716: grafana security update (Important)",
  "Description": "Grafana is an open source, feature rich metrics dashboard and graph editor for\nGraphite, InfluxDB & OpenTSDB.\nSecurity Fix(es):\n* grafana: OAuth account takeover (CVE-2022-31107)\nFor more details about the security issue(s), including the impact, a CVSS\nscore, acknowledgments, and other related information, refer to the CVE page(s)\nlisted in the References section.",
  "Platform": [
    "Red Hat Enterprise Linux 9"
  ],
  "References": [
    {
      "Source": "RHSA",
      "URI": "https://access.redhat.com/errata/RHSA-2022:5716",
      "ID": "RHSA-2022:5716"
    },
    {
      "Source": "CVE",
      "URI": "https://access.redhat.com/security/cve/CVE-2022-31107",
      "ID": "CVE-2022-31107"
    }
  ],
  "Criteria": {
    "Operator": "OR",
    "Criterias": [
      {
        "Operator": "AND",
        "Criterias": [

        ],
        "Criterions": [
          {
            "Comment": "Oracle Linux 9 is installed"
          },
          {
            "Comment": "grafana is earlier than 0:7.5.11-5.el9_0"
          },
          {
            "Comment": "grafana is signed with Red Hat redhatrelease2 key"
          }
        ]
      }
    ],
    "Criterions": [
      {
        "Comment": "Oracle Linux 9 is installed"
      }
    ]
  },
  "Severity": "Important",
  "Cves": [
    {
      "Impact": "",
      "Href": "",
      "ID": "CVE-2022-31107"
    }
  ],
  "Issued": {
    "Date": "2022-07-26"
  }
}