{
  "Title": "RHSA-2022:5163: httpd:2.4 security update (Low)",
  "Description": "The httpd packages provide the Apache HTTP Server, a powerful, efficient, and extensible web server.\nSecurity Fix(es):\n* httpd: mod_proxy NULL pointer dereference (CVE-2020-13950)\nFor more details about the security issue(s), including the impact, a CVSS score, acknowledgments, and other related information, refer to the CVE page(s) listed in the References section.",
  "Platform": [
    "Red Hat Enterprise Linux 8"
  ],
  "References": [
    {
      "Source": "RHSA",
      "URI": "https://access.redhat.com/errata/RHSA-2022:5163",
      "ID": "RHSA-2022:5163"
    },
    {
      "Source": "CVE",
      "URI": "https://access.redhat.com/security/cve/CVE-2020-13950",
      "ID": "CVE-2020-13950"
    }
  ],
  "Criteria": {
    "Operator": "OR",
    "Criterias": [
      {
        "Operator": "AND",
        "Criterias": [
          {
            "Operator": "OR",
            "Criterias": [

            ],
            "Criterions": [
              {
                "Comment": "Oracle Linux 8 is installed"
              },
              {
                "Comment": "Red Hat CoreOS 4 is installed"
              }
            ]
          },
          {
            "Operator": "OR",
            "Criterias": [
              {
                "Operator": "AND",
                "Criterias": [
                  {
                    "Operator": "OR",
                    "Criterias": [
                      {
                        "Operator": "AND",
                        "Criterias": [

                        ],
                        "Criterions": [
                          {
                            "Comment": "httpd is earlier than 0:2.4.37-47.module+el8.6.0+15654+427eba2e.2"
                          },
                          {
                            "Comment": "httpd is signed with Red Hat redhatrelease2 key"
                          }
                        ]
                      },
                      {
                        "Operator": "AND",
                        "Criterias": [

                        ],
                        "Criterions": [
                          {
                            "Comment": "httpd-devel is earlier than 0:2.4.37-47.module+el8.6.0+15654+427eba2e.2"
                          },
                          {
                            "Comment": "httpd-devel is signed with Red Hat redhatrelease2 key"
                          }
                        ]
                      },
                      {
                        "Operator": "AND",
                        "Criterias": [

                        ],
                        "Criterions": [
                          {
                            "Comment": "httpd-filesystem is earlier than 0:2.4.37-47.module+el8.6.0+15654+427eba2e.2"
                          },
                          {
                            "Comment": "httpd-filesystem is signed with Red Hat redhatrelease2 key"
                          }
                        ]
                      },
                      {
                        "Operator": "AND",
                        "Criterias": [

                        ],
                        "Criterions": [
                          {
                            "Comment": "httpd-manual is earlier than 0:2.4.37-47.module+el8.6.0+15654+427eba2e.2"
                          },
                          {
                            "Comment": "httpd-manual is signed with Red Hat redhatrelease2 key"
                          }
                        ]
                      },
                      {
                        "Operator": "AND",
                        "Criterias": [

                        ],
                        "Criterions": [
                          {
                            "Comment": "httpd-tools is earlier than 0:2.4.37-47.module+el8.6.0+15654+427eba2e.2"
                          },
                          {
                            "Comment": "httpd-tools is signed with Red Hat redhatrelease2 key"
                          }
                        ]
                      },
                      {
                        "Operator": "AND",
                        "Criterias": [

                        ],
                        "Criterions": [
                          {
                            "Comment": "mod_http2 is earlier than 0:1.15.7-5.module+el8.6.0+13996+01710940"
                          },
                          {
                            "Comment": "mod_http2 is signed with Red Hat redhatrelease2 key"
                          }
                        ]
                      },
                      {
                        "Operator": "AND",
                        "Criterias": [

                        ],
                        "Criterions": [
                          {
                            "Comment": "mod_ldap is earlier than 0:2.4.37-47.module+el8.6.0+15654+427eba2e.2"
                          },
                          {
                            "Comment": "mod_ldap is signed with Red Hat redhatrelease2 key"
                          }
                        ]
                      },
                      {
                        "Operator": "AND",
                        "Criterias": [

                        ],
                        "Criterions": [
                          {
                            "Comment": "mod_md is earlier than 1:2.0.8-8.module+el8.3.0+6814+67d1e611"
                          },
                          {
                            "Comment": "mod_md is signed with Red Hat redhatrelease2 key"
                          }
                        ]
                      },
                      {
                        "Operator": "AND",
                        "Criterias": [

                        ],
                        "Criterions": [
                          {
                            "Comment": "mod_proxy_html is earlier than 1:2.4.37-47.module+el8.6.0+15654+427eba2e.2"
                          },
                          {
                            "Comment": "mod_proxy_html is signed with Red Hat redhatrelease2 key"
                          }
                        ]
                      },
                      {
                        "Operator": "AND",
                        "Criterias": [

                        ],
                        "Criterions": [
                          {
                            "Comment": "mod_session is earlier than 0:2.4.37-47.module+el8.6.0+15654+427eba2e.2"
                          },
                          {
                            "Comment": "mod_session is signed with Red Hat redhatrelease2 key"
                          }
                        ]
                      },
                      {
                        "Operator": "AND",
                        "Criterias": [

                        ],
                        "Criterions": [
                          {
                            "Comment": "mod_ssl is earlier than 1:2.4.37-47.module+el8.6.0+15654+427eba2e.2"
                          },
                          {
                            "Comment": "mod_ssl is signed with Red Hat redhatrelease2 key"
                          }
                        ]
                      }
                    ],
                    "Criterions": [

                    ]
                  }
                ],
                "Criterions": [
                  {
                    "Comment": "Module httpd:2.4 is enabled"
                  }
                ]
              }
            ],
            "Criterions": [

            ]
          }
        ],
        "Criterions": [

        ]
      }
    ],
    "Criterions": [
      {
        "Comment": "Oracle Linux 8 is installed"
      }
    ]
  },
  "Severity": "Low",
  "Cves": [
    {
      "Impact": "",
      "Href": "",
      "ID": "CVE-2020-13950"
    }
  ],
  "Issued": {
    "Date": "2022-06-22"
  }
}