{
  "Title": "RHSA-2022:8560: hsqldb security update (Important)",
  "Description": "The hsqldb packages provide a relational database management system written in Java. The Hyper Structured Query Language Database (HSQLDB) contains a JDBC driver to support a subset of ANSI-92 SQL.\nSecurity Fix(es):\n* hsqldb: Untrusted input may lead to RCE attack (CVE-2022-41853)\nFor more details about the security issue(s), including the impact, a CVSS score, acknowledgments, and other related information, refer to the CVE page(s) listed in the References section.",
  "Platform": [
    "Red Hat Enterprise Linux 7"
  ],
  "References": [
    {
      "Source": "RHSA",
      "URI": "https://access.redhat.com/errata/RHSA-2022:8560",
      "ID": "RHSA-2022:8560"
    },
    {
      "Source": "CVE",
      "URI": "https://access.redhat.com/security/cve/CVE-2022-41853",
      "ID": "CVE-2022-41853"
    }
  ],
  "Criteria": {
    "Operator": "OR",
    "Criterias": [
      {
        "Operator": "AND",
        "Criterias": [
          {
            "Operator": "OR",
            "Criterias": [
              {
                "Operator": "AND",
                "Criterias": [

                ],
                "Criterions": [
                  {
                    "Comment": "hsqldb is earlier than 1:1.8.1.3-15.el7_9"
                  },
                  {
                    "Comment": "hsqldb is signed with Red Hat redhatrelease2 key"
                  }
                ]
              },
              {
                "Operator": "AND",
                "Criterias": [

                ],
                "Criterions": [
                  {
                    "Comment": "hsqldb-demo is earlier than 1:1.8.1.3-15.el7_9"
                  },
                  {
                    "Comment": "hsqldb-demo is signed with Red Hat redhatrelease2 key"
                  }
                ]
              },
              {
                "Operator": "AND",
                "Criterias": [

                ],
                "Criterions": [
                  {
                    "Comment": "hsqldb-javadoc is earlier than 1:1.8.1.3-15.el7_9"
                  },
                  {
                    "Comment": "hsqldb-javadoc is signed with Red Hat redhatrelease2 key"
                  }
                ]
              },
              {
                "Operator": "AND",
                "Criterias": [

                ],
                "Criterions": [
                  {
                    "Comment": "hsqldb-manual is earlier than 1:1.8.1.3-15.el7_9"
                  },
                  {
                    "Comment": "hsqldb-manual is signed with Red Hat redhatrelease2 key"
                  }
                ]
              }
            ],
            "Criterions": [

            ]
          }
        ],
        "Criterions": [
          {
            "Comment": "Oracle Linux 7 is installed"
          }
        ]
      }
    ],
    "Criterions": [
      {
        "Comment": "Oracle Linux 7 is installed"
      }
    ]
  },
  "Severity": "Important",
  "Cves": [
    {
      "Impact": "",
      "Href": "",
      "ID": "CVE-2022-41853"
    }
  ],
  "Issued": {
    "Date": "2022-11-21"
  }
}