{
  "Title": "RHSA-2022:8385: dhcp security and enhancement update (Moderate)",
  "Description": "The Dynamic Host Configuration Protocol (DHCP) is a protocol that allows individual devices on an IP network to get their own network configuration information, including an IP address, a subnet mask, and a broadcast address. The dhcp packages provide a relay agent and ISC DHCP service required to enable and administer DHCP on a network.\nSecurity Fix(es):\n* bind: DNS forwarders - cache poisoning vulnerability (CVE-2021-25220)\nFor more details about the security issue(s), including the impact, a CVSS score, acknowledgments, and other related information, refer to the CVE page(s) listed in the References section.\nAdditional Changes:\nFor detailed information on changes in this release, see the Red Hat Enterprise Linux 9.1 Release Notes linked from the References section.",
  "Platform": [
    "Red Hat Enterprise Linux 9"
  ],
  "References": [
    {
      "Source": "RHSA",
      "URI": "https://access.redhat.com/errata/RHSA-2022:8385",
      "ID": "RHSA-2022:8385"
    },
    {
      "Source": "CVE",
      "URI": "https://access.redhat.com/security/cve/CVE-2021-25220",
      "ID": "CVE-2021-25220"
    }
  ],
  "Criteria": {
    "Operator": "OR",
    "Criterias": [
      {
        "Operator": "AND",
        "Criterias": [
          {
            "Operator": "OR",
            "Criterias": [
              {
                "Operator": "AND",
                "Criterias": [

                ],
                "Criterions": [
                  {
                    "Comment": "dhcp-client is earlier than 12:4.4.2-17.b1.el9"
                  },
                  {
                    "Comment": "dhcp-client is signed with Red Hat redhatrelease2 key"
                  }
                ]
              },
              {
                "Operator": "AND",
                "Criterias": [

                ],
                "Criterions": [
                  {
                    "Comment": "dhcp-common is earlier than 12:4.4.2-17.b1.el9"
                  },
                  {
                    "Comment": "dhcp-common is signed with Red Hat redhatrelease2 key"
                  }
                ]
              },
              {
                "Operator": "AND",
                "Criterias": [

                ],
                "Criterions": [
                  {
                    "Comment": "dhcp-relay is earlier than 12:4.4.2-17.b1.el9"
                  },
                  {
                    "Comment": "dhcp-relay is signed with Red Hat redhatrelease2 key"
                  }
                ]
              },
              {
                "Operator": "AND",
                "Criterias": [

                ],
                "Criterions": [
                  {
                    "Comment": "dhcp-server is earlier than 12:4.4.2-17.b1.el9"
                  },
                  {
                    "Comment": "dhcp-server is signed with Red Hat redhatrelease2 key"
                  }
                ]
              }
            ],
            "Criterions": [

            ]
          }
        ],
        "Criterions": [
          {
            "Comment": "Oracle Linux 9 is installed"
          }
        ]
      }
    ],
    "Criterions": [
      {
        "Comment": "Oracle Linux 9 is installed"
      }
    ]
  },
  "Severity": "Moderate",
  "Cves": [
    {
      "Impact": "",
      "Href": "",
      "ID": "CVE-2021-25220"
    }
  ],
  "Issued": {
    "Date": "2022-11-15"
  }
}