{
  "Title": "RHSA-2022:6058: .NET 6.0 security, bug fix, and enhancement update (Moderate)",
  "Description": ".NET is a managed-software framework. It implements a subset of the .NET framework APIs and several new APIs, and it includes a CLR implementation.\nNew versions of .NET that address a security vulnerability are now available. The updated versions are .NET SDK 6.0.108 and .NET Runtime 6.0.8.\nSecurity Fix(es):\n* dotnet: External Entity Injection during XML signature verification (CVE-2022-34716)\nFor more details about the security issue(s), including the impact, a CVSS score, acknowledgments, and other related information, refer to the CVE page(s) listed in the References section.",
  "Platform": [
    "Red Hat Enterprise Linux 8"
  ],
  "References": [
    {
      "Source": "RHSA",
      "URI": "https://access.redhat.com/errata/RHSA-2022:6058",
      "ID": "RHSA-2022:6058"
    },
    {
      "Source": "CVE",
      "URI": "https://access.redhat.com/security/cve/CVE-2022-34716",
      "ID": "CVE-2022-34716"
    }
  ],
  "Criteria": {
    "Operator": "OR",
    "Criterias": [
      {
        "Operator": "AND",
        "Criterias": [
          {
            "Operator": "OR",
            "Criterias": [

            ],
            "Criterions": [
              {
                "Comment": "Oracle Linux 8 is installed"
              },
              {
                "Comment": "Red Hat CoreOS 4 is installed"
              }
            ]
          },
          {
            "Operator": "OR",
            "Criterias": [
              {
                "Operator": "AND",
                "Criterias": [

                ],
                "Criterions": [
                  {
                    "Comment": "aspnetcore-runtime-6.0 is earlier than 0:6.0.8-1.el8_6"
                  },
                  {
                    "Comment": "aspnetcore-runtime-6.0 is signed with Red Hat redhatrelease2 key"
                  }
                ]
              },
              {
                "Operator": "AND",
                "Criterias": [

                ],
                "Criterions": [
                  {
                    "Comment": "aspnetcore-targeting-pack-6.0 is earlier than 0:6.0.8-1.el8_6"
                  },
                  {
                    "Comment": "aspnetcore-targeting-pack-6.0 is signed with Red Hat redhatrelease2 key"
                  }
                ]
              },
              {
                "Operator": "AND",
                "Criterias": [

                ],
                "Criterions": [
                  {
                    "Comment": "dotnet is earlier than 0:6.0.108-1.el8_6"
                  },
                  {
                    "Comment": "dotnet is signed with Red Hat redhatrelease2 key"
                  }
                ]
              },
              {
                "Operator": "AND",
                "Criterias": [

                ],
                "Criterions": [
                  {
                    "Comment": "dotnet-apphost-pack-6.0 is earlier than 0:6.0.8-1.el8_6"
                  },
                  {
                    "Comment": "dotnet-apphost-pack-6.0 is signed with Red Hat redhatrelease2 key"
                  }
                ]
              },
              {
                "Operator": "AND",
                "Criterias": [

                ],
                "Criterions": [
                  {
                    "Comment": "dotnet-host is earlier than 0:6.0.8-1.el8_6"
                  },
                  {
                    "Comment": "dotnet-host is signed with Red Hat redhatrelease2 key"
                  }
                ]
              },
              {
                "Operator": "AND",
                "Criterias": [

                ],
                "Criterions": [
                  {
                    "Comment": "dotnet-hostfxr-6.0 is earlier than 0:6.0.8-1.el8_6"
                  },
                  {
                    "Comment": "dotnet-hostfxr-6.0 is signed with Red Hat redhatrelease2 key"
                  }
                ]
              },
              {
                "Operator": "AND",
                "Criterias": [

                ],
                "Criterions": [
                  {
                    "Comment": "dotnet-runtime-6.0 is earlier than 0:6.0.8-1.el8_6"
                  },
                  {
                    "Comment": "dotnet-runtime-6.0 is signed with Red Hat redhatrelease2 key"
                  }
                ]
              },
              {
                "Operator": "AND",
                "Criterias": [

                ],
                "Criterions": [
                  {
                    "Comment": "dotnet-sdk-6.0 is earlier than 0:6.0.108-1.el8_6"
                  },
                  {
                    "Comment": "dotnet-sdk-6.0 is signed with Red Hat redhatrelease2 key"
                  }
                ]
              },
              {
                "Operator": "AND",
                "Criterias": [

                ],
                "Criterions": [
                  {
                    "Comment": "dotnet-sdk-6.0-source-built-artifacts is earlier than 0:6.0.108-1.el8_6"
                  },
                  {
                    "Comment": "dotnet-sdk-6.0-source-built-artifacts is signed with Red Hat redhatrelease2 key"
                  }
                ]
              },
              {
                "Operator": "AND",
                "Criterias": [

                ],
                "Criterions": [
                  {
                    "Comment": "dotnet-targeting-pack-6.0 is earlier than 0:6.0.8-1.el8_6"
                  },
                  {
                    "Comment": "dotnet-targeting-pack-6.0 is signed with Red Hat redhatrelease2 key"
                  }
                ]
              },
              {
                "Operator": "AND",
                "Criterias": [

                ],
                "Criterions": [
                  {
                    "Comment": "dotnet-templates-6.0 is earlier than 0:6.0.108-1.el8_6"
                  },
                  {
                    "Comment": "dotnet-templates-6.0 is signed with Red Hat redhatrelease2 key"
                  }
                ]
              },
              {
                "Operator": "AND",
                "Criterias": [

                ],
                "Criterions": [
                  {
                    "Comment": "netstandard-targeting-pack-2.1 is earlier than 0:6.0.108-1.el8_6"
                  },
                  {
                    "Comment": "netstandard-targeting-pack-2.1 is signed with Red Hat redhatrelease2 key"
                  }
                ]
              }
            ],
            "Criterions": [

            ]
          }
        ],
        "Criterions": [

        ]
      }
    ],
    "Criterions": [
      {
        "Comment": "Oracle Linux 8 is installed"
      }
    ]
  },
  "Severity": "Moderate",
  "Cves": [
    {
      "Impact": "",
      "Href": "",
      "ID": "CVE-2022-34716"
    }
  ],
  "Issued": {
    "Date": "2022-08-15"
  }
}