{
  "Title": "RHSA-2022:7592: python39:3.9 and python39-devel:3.9 security update (Moderate)",
  "Description": "Python is an interpreted, interactive, object-oriented programming language, which includes modules, classes, exceptions, very high level dynamic data types and dynamic typing. Python supports interfaces to many system calls and libraries, as well as to various windowing systems.\nSecurity Fix(es):\n* python: mailcap: findmatch() function does not sanitize the second argument (CVE-2015-20107)\nFor more details about the security issue(s), including the impact, a CVSS score, acknowledgments, and other related information, refer to the CVE page(s) listed in the References section.\nAdditional Changes:\nFor detailed information on changes in this release, see the Red Hat Enterprise Linux 8.7 Release Notes linked from the References section.",
  "Platform": [
    "Red Hat Enterprise Linux 8"
  ],
  "References": [
    {
      "Source": "RHSA",
      "URI": "https://access.redhat.com/errata/RHSA-2022:7592",
      "ID": "RHSA-2022:7592"
    },
    {
      "Source": "CVE",
      "URI": "https://access.redhat.com/security/cve/CVE-2015-20107",
      "ID": "CVE-2015-20107"
    }
  ],
  "Criteria": {
    "Operator": "OR",
    "Criterias": [
      {
        "Operator": "AND",
        "Criterias": [
          {
            "Operator": "OR",
            "Criterias": [

            ],
            "Criterions": [
              {
                "Comment": "Oracle Linux 8 is installed"
              },
              {
                "Comment": "Red Hat CoreOS 4 is installed"
              }
            ]
          },
          {
            "Operator": "OR",
            "Criterias": [
              {
                "Operator": "AND",
                "Criterias": [
                  {
                    "Operator": "OR",
                    "Criterias": [
                      {
                        "Operator": "AND",
                        "Criterias": [

                        ],
                        "Criterions": [
                          {
                            "Comment": "python39 is earlier than 0:3.9.13-1.module+el8.7.0+15656+ffd4a257"
                          },
                          {
                            "Comment": "python39 is signed with Red Hat redhatrelease2 key"
                          }
                        ]
                      },
                      {
                        "Operator": "AND",
                        "Criterias": [

                        ],
                        "Criterions": [
                          {
                            "Comment": "python39-PyMySQL is earlier than 0:0.10.1-2.module+el8.4.0+9822+20bf1249"
                          },
                          {
                            "Comment": "python39-PyMySQL is signed with Red Hat redhatrelease2 key"
                          }
                        ]
                      },
                      {
                        "Operator": "AND",
                        "Criterias": [

                        ],
                        "Criterions": [
                          {
                            "Comment": "python39-cffi is earlier than 0:1.14.3-2.module+el8.4.0+9822+20bf1249"
                          },
                          {
                            "Comment": "python39-cffi is signed with Red Hat redhatrelease2 key"
                          }
                        ]
                      },
                      {
                        "Operator": "AND",
                        "Criterias": [

                        ],
                        "Criterions": [
                          {
                            "Comment": "python39-chardet is earlier than 0:3.0.4-19.module+el8.4.0+9822+20bf1249"
                          },
                          {
                            "Comment": "python39-chardet is signed with Red Hat redhatrelease2 key"
                          }
                        ]
                      },
                      {
                        "Operator": "AND",
                        "Criterias": [

                        ],
                        "Criterions": [
                          {
                            "Comment": "python39-cryptography is earlier than 0:3.3.1-2.module+el8.4.0+9822+20bf1249"
                          },
                          {
                            "Comment": "python39-cryptography is signed with Red Hat redhatrelease2 key"
                          }
                        ]
                      },
                      {
                        "Operator": "AND",
                        "Criterias": [

                        ],
                        "Criterions": [
                          {
                            "Comment": "python39-devel is earlier than 0:3.9.13-1.module+el8.7.0+15656+ffd4a257"
                          },
                          {
                            "Comment": "python39-devel is signed with Red Hat redhatrelease2 key"
                          }
                        ]
                      },
                      {
                        "Operator": "AND",
                        "Criterias": [

                        ],
                        "Criterions": [
                          {
                            "Comment": "python39-idle is earlier than 0:3.9.13-1.module+el8.7.0+15656+ffd4a257"
                          },
                          {
                            "Comment": "python39-idle is signed with Red Hat redhatrelease2 key"
                          }
                        ]
                      },
                      {
                        "Operator": "AND",
                        "Criterias": [

                        ],
                        "Criterions": [
                          {
                            "Comment": "python39-idna is earlier than 0:2.10-3.module+el8.4.0+9822+20bf1249"
                          },
                          {
                            "Comment": "python39-idna is signed with Red Hat redhatrelease2 key"
                          }
                        ]
                      },
                      {
                        "Operator": "AND",
                        "Criterias": [

                        ],
                        "Criterions": [
                          {
                            "Comment": "python39-libs is earlier than 0:3.9.13-1.module+el8.7.0+15656+ffd4a257"
                          },
                          {
                            "Comment": "python39-libs is signed with Red Hat redhatrelease2 key"
                          }
                        ]
                      },
                      {
                        "Operator": "AND",
                        "Criterias": [

                        ],
                        "Criterions": [
                          {
                            "Comment": "python39-lxml is earlier than 0:4.6.5-1.module+el8.6.0+13933+9cf0c87c"
                          },
                          {
                            "Comment": "python39-lxml is signed with Red Hat redhatrelease2 key"
                          }
                        ]
                      },
                      {
                        "Operator": "AND",
                        "Criterias": [

                        ],
                        "Criterions": [
                          {
                            "Comment": "python39-mod_wsgi is earlier than 0:4.7.1-5.module+el8.7.0+16654+645aad7f"
                          },
                          {
                            "Comment": "python39-mod_wsgi is signed with Red Hat redhatrelease2 key"
                          }
                        ]
                      },
                      {
                        "Operator": "AND",
                        "Criterias": [

                        ],
                        "Criterions": [
                          {
                            "Comment": "python39-numpy is earlier than 0:1.19.4-3.module+el8.5.0+12204+54860423"
                          },
                          {
                            "Comment": "python39-numpy is signed with Red Hat redhatrelease2 key"
                          }
                        ]
                      },
                      {
                        "Operator": "AND",
                        "Criterias": [

                        ],
                        "Criterions": [
                          {
                            "Comment": "python39-numpy-doc is earlier than 0:1.19.4-3.module+el8.5.0+12204+54860423"
                          },
                          {
                            "Comment": "python39-numpy-doc is signed with Red Hat redhatrelease2 key"
                          }
                        ]
                      },
                      {
                        "Operator": "AND",
                        "Criterias": [

                        ],
                        "Criterions": [
                          {
                            "Comment": "python39-numpy-f2py is earlier than 0:1.19.4-3.module+el8.5.0+12204+54860423"
                          },
                          {
                            "Comment": "python39-numpy-f2py is signed with Red Hat redhatrelease2 key"
                          }
                        ]
                      },
                      {
                        "Operator": "AND",
                        "Criterias": [

                        ],
                        "Criterions": [
                          {
                            "Comment": "python39-pip is earlier than 0:20.2.4-7.module+el8.6.0+13003+6bb2c488"
                          },
                          {
                            "Comment": "python39-pip is signed with Red Hat redhatrelease2 key"
                          }
                        ]
                      },
                      {
                        "Operator": "AND",
                        "Criterias": [

                        ],
                        "Criterions": [
                          {
                            "Comment": "python39-pip-wheel is earlier than 0:20.2.4-7.module+el8.6.0+13003+6bb2c488"
                          },
                          {
                            "Comment": "python39-pip-wheel is signed with Red Hat redhatrelease2 key"
                          }
                        ]
                      },
                      {
                        "Operator": "AND",
                        "Criterias": [

                        ],
                        "Criterions": [
                          {
                            "Comment": "python39-ply is earlier than 0:3.11-10.module+el8.4.0+9822+20bf1249"
                          },
                          {
                            "Comment": "python39-ply is signed with Red Hat redhatrelease2 key"
                          }
                        ]
                      },
                      {
                        "Operator": "AND",
                        "Criterias": [

                        ],
                        "Criterions": [
                          {
                            "Comment": "python39-psutil is earlier than 0:5.8.0-4.module+el8.4.0+9822+20bf1249"
                          },
                          {
                            "Comment": "python39-psutil is signed with Red Hat redhatrelease2 key"
                          }
                        ]
                      },
                      {
                        "Operator": "AND",
                        "Criterias": [

                        ],
                        "Criterions": [
                          {
                            "Comment": "python39-psycopg2 is earlier than 0:2.8.6-2.module+el8.4.0+9822+20bf1249"
                          },
                          {
                            "Comment": "python39-psycopg2 is signed with Red Hat redhatrelease2 key"
                          }
                        ]
                      },
                      {
                        "Operator": "AND",
                        "Criterias": [

                        ],
                        "Criterions": [
                          {
                            "Comment": "python39-psycopg2-doc is earlier than 0:2.8.6-2.module+el8.4.0+9822+20bf1249"
                          },
                          {
                            "Comment": "python39-psycopg2-doc is signed with Red Hat redhatrelease2 key"
                          }
                        ]
                      },
                      {
                        "Operator": "AND",
                        "Criterias": [

                        ],
                        "Criterions": [
                          {
                            "Comment": "python39-psycopg2-tests is earlier than 0:2.8.6-2.module+el8.4.0+9822+20bf1249"
                          },
                          {
                            "Comment": "python39-psycopg2-tests is signed with Red Hat redhatrelease2 key"
                          }
                        ]
                      },
                      {
                        "Operator": "AND",
                        "Criterias": [

                        ],
                        "Criterions": [
                          {
                            "Comment": "python39-pycparser is earlier than 0:2.20-3.module+el8.4.0+9822+20bf1249"
                          },
                          {
                            "Comment": "python39-pycparser is signed with Red Hat redhatrelease2 key"
                          }
                        ]
                      },
                      {
                        "Operator": "AND",
                        "Criterias": [

                        ],
                        "Criterions": [
                          {
                            "Comment": "python39-pysocks is earlier than 0:1.7.1-4.module+el8.4.0+9822+20bf1249"
                          },
                          {
                            "Comment": "python39-pysocks is signed with Red Hat redhatrelease2 key"
                          }
                        ]
                      },
                      {
                        "Operator": "AND",
                        "Criterias": [

                        ],
                        "Criterions": [
                          {
                            "Comment": "python39-pyyaml is earlier than 0:5.4.1-1.module+el8.5.0+10613+59a13ec4"
                          },
                          {
                            "Comment": "python39-pyyaml is signed with Red Hat redhatrelease2 key"
                          }
                        ]
                      },
                      {
                        "Operator": "AND",
                        "Criterias": [

                        ],
                        "Criterions": [
                          {
                            "Comment": "python39-requests is earlier than 0:2.25.0-2.module+el8.4.0+9822+20bf1249"
                          },
                          {
                            "Comment": "python39-requests is signed with Red Hat redhatrelease2 key"
                          }
                        ]
                      },
                      {
                        "Operator": "AND",
                        "Criterias": [

                        ],
                        "Criterions": [
                          {
                            "Comment": "python39-rpm-macros is earlier than 0:3.9.13-1.module+el8.7.0+15656+ffd4a257"
                          },
                          {
                            "Comment": "python39-rpm-macros is signed with Red Hat redhatrelease2 key"
                          }
                        ]
                      },
                      {
                        "Operator": "AND",
                        "Criterias": [

                        ],
                        "Criterions": [
                          {
                            "Comment": "python39-scipy is earlier than 0:1.5.4-3.module+el8.4.0+9822+20bf1249"
                          },
                          {
                            "Comment": "python39-scipy is signed with Red Hat redhatrelease2 key"
                          }
                        ]
                      },
                      {
                        "Operator": "AND",
                        "Criterias": [

                        ],
                        "Criterions": [
                          {
                            "Comment": "python39-setuptools is earlier than 0:50.3.2-4.module+el8.5.0+12204+54860423"
                          },
                          {
                            "Comment": "python39-setuptools is signed with Red Hat redhatrelease2 key"
                          }
                        ]
                      },
                      {
                        "Operator": "AND",
                        "Criterias": [

                        ],
                        "Criterions": [
                          {
                            "Comment": "python39-setuptools-wheel is earlier than 0:50.3.2-4.module+el8.5.0+12204+54860423"
                          },
                          {
                            "Comment": "python39-setuptools-wheel is signed with Red Hat redhatrelease2 key"
                          }
                        ]
                      },
                      {
                        "Operator": "AND",
                        "Criterias": [

                        ],
                        "Criterions": [
                          {
                            "Comment": "python39-six is earlier than 0:1.15.0-3.module+el8.4.0+9822+20bf1249"
                          },
                          {
                            "Comment": "python39-six is signed with Red Hat redhatrelease2 key"
                          }
                        ]
                      },
                      {
                        "Operator": "AND",
                        "Criterias": [

                        ],
                        "Criterions": [
                          {
                            "Comment": "python39-test is earlier than 0:3.9.13-1.module+el8.7.0+15656+ffd4a257"
                          },
                          {
                            "Comment": "python39-test is signed with Red Hat redhatrelease2 key"
                          }
                        ]
                      },
                      {
                        "Operator": "AND",
                        "Criterias": [

                        ],
                        "Criterions": [
                          {
                            "Comment": "python39-tkinter is earlier than 0:3.9.13-1.module+el8.7.0+15656+ffd4a257"
                          },
                          {
                            "Comment": "python39-tkinter is signed with Red Hat redhatrelease2 key"
                          }
                        ]
                      },
                      {
                        "Operator": "AND",
                        "Criterias": [

                        ],
                        "Criterions": [
                          {
                            "Comment": "python39-toml is earlier than 0:0.10.1-5.module+el8.4.0+9822+20bf1249"
                          },
                          {
                            "Comment": "python39-toml is signed with Red Hat redhatrelease2 key"
                          }
                        ]
                      },
                      {
                        "Operator": "AND",
                        "Criterias": [

                        ],
                        "Criterions": [
                          {
                            "Comment": "python39-urllib3 is earlier than 0:1.25.10-4.module+el8.5.0+11712+ea2d2be1"
                          },
                          {
                            "Comment": "python39-urllib3 is signed with Red Hat redhatrelease2 key"
                          }
                        ]
                      },
                      {
                        "Operator": "AND",
                        "Criterias": [

                        ],
                        "Criterions": [
                          {
                            "Comment": "python39-wheel is earlier than 1:0.35.1-4.module+el8.5.0+12204+54860423"
                          },
                          {
                            "Comment": "python39-wheel is signed with Red Hat redhatrelease2 key"
                          }
                        ]
                      },
                      {
                        "Operator": "AND",
                        "Criterias": [

                        ],
                        "Criterions": [
                          {
                            "Comment": "python39-wheel-wheel is earlier than 1:0.35.1-4.module+el8.5.0+12204+54860423"
                          },
                          {
                            "Comment": "python39-wheel-wheel is signed with Red Hat redhatrelease2 key"
                          }
                        ]
                      }
                    ],
                    "Criterions": [

                    ]
                  }
                ],
                "Criterions": [
                  {
                    "Comment": "Module python39:3.9 is enabled"
                  }
                ]
              },
              {
                "Operator": "AND",
                "Criterias": [
                  {
                    "Operator": "OR",
                    "Criterias": [
                      {
                        "Operator": "AND",
                        "Criterias": [

                        ],
                        "Criterions": [
                          {
                            "Comment": "python39-Cython is earlier than 0:0.29.21-5.module+el8.4.0+9822+20bf1249"
                          },
                          {
                            "Comment": "python39-Cython is signed with Red Hat redhatrelease2 key"
                          }
                        ]
                      },
                      {
                        "Operator": "AND",
                        "Criterias": [

                        ],
                        "Criterions": [
                          {
                            "Comment": "python39-attrs is earlier than 0:20.3.0-2.module+el8.4.0+9822+20bf1249"
                          },
                          {
                            "Comment": "python39-attrs is signed with Red Hat redhatrelease2 key"
                          }
                        ]
                      },
                      {
                        "Operator": "AND",
                        "Criterias": [

                        ],
                        "Criterions": [
                          {
                            "Comment": "python39-debug is earlier than 0:3.9.13-1.module+el8.7.0+15656+ffd4a257"
                          },
                          {
                            "Comment": "python39-debug is signed with Red Hat redhatrelease2 key"
                          }
                        ]
                      },
                      {
                        "Operator": "AND",
                        "Criterias": [

                        ],
                        "Criterions": [
                          {
                            "Comment": "python39-iniconfig is earlier than 0:1.1.1-2.module+el8.4.0+9822+20bf1249"
                          },
                          {
                            "Comment": "python39-iniconfig is signed with Red Hat redhatrelease2 key"
                          }
                        ]
                      },
                      {
                        "Operator": "AND",
                        "Criterias": [

                        ],
                        "Criterions": [
                          {
                            "Comment": "python39-more-itertools is earlier than 0:8.5.0-2.module+el8.4.0+9822+20bf1249"
                          },
                          {
                            "Comment": "python39-more-itertools is signed with Red Hat redhatrelease2 key"
                          }
                        ]
                      },
                      {
                        "Operator": "AND",
                        "Criterias": [

                        ],
                        "Criterions": [
                          {
                            "Comment": "python39-packaging is earlier than 0:20.4-4.module+el8.4.0+9822+20bf1249"
                          },
                          {
                            "Comment": "python39-packaging is signed with Red Hat redhatrelease2 key"
                          }
                        ]
                      },
                      {
                        "Operator": "AND",
                        "Criterias": [

                        ],
                        "Criterions": [
                          {
                            "Comment": "python39-pluggy is earlier than 0:0.13.1-3.module+el8.4.0+9822+20bf1249"
                          },
                          {
                            "Comment": "python39-pluggy is signed with Red Hat redhatrelease2 key"
                          }
                        ]
                      },
                      {
                        "Operator": "AND",
                        "Criterias": [

                        ],
                        "Criterions": [
                          {
                            "Comment": "python39-py is earlier than 0:1.10.0-1.module+el8.4.0+9822+20bf1249"
                          },
                          {
                            "Comment": "python39-py is signed with Red Hat redhatrelease2 key"
                          }
                        ]
                      },
                      {
                        "Operator": "AND",
                        "Criterias": [

                        ],
                        "Criterions": [
                          {
                            "Comment": "python39-pybind11 is earlier than 0:2.7.1-1.module+el8.6.0+12838+640e6226"
                          },
                          {
                            "Comment": "python39-pybind11 is signed with Red Hat redhatrelease2 key"
                          }
                        ]
                      },
                      {
                        "Operator": "AND",
                        "Criterias": [

                        ],
                        "Criterions": [
                          {
                            "Comment": "python39-pybind11-devel is earlier than 0:2.7.1-1.module+el8.6.0+12838+640e6226"
                          },
                          {
                            "Comment": "python39-pybind11-devel is signed with Red Hat redhatrelease2 key"
                          }
                        ]
                      },
                      {
                        "Operator": "AND",
                        "Criterias": [

                        ],
                        "Criterions": [
                          {
                            "Comment": "python39-pyparsing is earlier than 0:2.4.7-5.module+el8.4.0+9822+20bf1249"
                          },
                          {
                            "Comment": "python39-pyparsing is signed with Red Hat redhatrelease2 key"
                          }
                        ]
                      },
                      {
                        "Operator": "AND",
                        "Criterias": [

                        ],
                        "Criterions": [
                          {
                            "Comment": "python39-pytest is earlier than 0:6.0.2-2.module+el8.4.0+9822+20bf1249"
                          },
                          {
                            "Comment": "python39-pytest is signed with Red Hat redhatrelease2 key"
                          }
                        ]
                      },
                      {
                        "Operator": "AND",
                        "Criterias": [

                        ],
                        "Criterions": [
                          {
                            "Comment": "python39-wcwidth is earlier than 0:0.2.5-3.module+el8.4.0+9822+20bf1249"
                          },
                          {
                            "Comment": "python39-wcwidth is signed with Red Hat redhatrelease2 key"
                          }
                        ]
                      }
                    ],
                    "Criterions": [

                    ]
                  }
                ],
                "Criterions": [
                  {
                    "Comment": "Module python39-devel:3.9 is enabled"
                  }
                ]
              }
            ],
            "Criterions": [

            ]
          }
        ],
        "Criterions": [

        ]
      }
    ],
    "Criterions": [
      {
        "Comment": "Oracle Linux 8 is installed"
      }
    ]
  },
  "Severity": "Moderate",
  "Cves": [
    {
      "Impact": "",
      "Href": "",
      "ID": "CVE-2015-20107"
    }
  ],
  "Issued": {
    "Date": "2022-11-08"
  }
}