{
  "Title": "RHSA-2022:0628: 389-ds-base security and bug fix update (Low)",
  "Description": "389 Directory Server is an LDAP version 3 (LDAPv3) compliant server. The base packages include the Lightweight Directory Access Protocol (LDAP) server and command-line utilities for server administration.\nSecurity Fix(es):\n* 389-ds-base: double-free of the virtual attribute context in persistent search (CVE-2021-4091)\nFor more details about the security issue(s), including the impact, a CVSS score, acknowledgments, and other related information, refer to the CVE page(s) listed in the References section.\nBug Fix(es):\n* CSN generator can adjust wrongly the local and remote offsets used to generate a CSN (BZ#2049812)",
  "Platform": [
    "Red Hat Enterprise Linux 7"
  ],
  "References": [
    {
      "Source": "RHSA",
      "URI": "https://access.redhat.com/errata/RHSA-2022:0628",
      "ID": "RHSA-2022:0628"
    },
    {
      "Source": "CVE",
      "URI": "https://access.redhat.com/security/cve/CVE-2021-4091",
      "ID": "CVE-2021-4091"
    }
  ],
  "Criteria": {
    "Operator": "OR",
    "Criterias": [
      {
        "Operator": "AND",
        "Criterias": [
          {
            "Operator": "OR",
            "Criterias": [
              {
                "Operator": "AND",
                "Criterias": [

                ],
                "Criterions": [
                  {
                    "Comment": "389-ds-base is earlier than 0:1.3.10.2-15.el7_9"
                  },
                  {
                    "Comment": "389-ds-base is signed with Red Hat redhatrelease2 key"
                  }
                ]
              },
              {
                "Operator": "AND",
                "Criterias": [

                ],
                "Criterions": [
                  {
                    "Comment": "389-ds-base-devel is earlier than 0:1.3.10.2-15.el7_9"
                  },
                  {
                    "Comment": "389-ds-base-devel is signed with Red Hat redhatrelease2 key"
                  }
                ]
              },
              {
                "Operator": "AND",
                "Criterias": [

                ],
                "Criterions": [
                  {
                    "Comment": "389-ds-base-libs is earlier than 0:1.3.10.2-15.el7_9"
                  },
                  {
                    "Comment": "389-ds-base-libs is signed with Red Hat redhatrelease2 key"
                  }
                ]
              },
              {
                "Operator": "AND",
                "Criterias": [

                ],
                "Criterions": [
                  {
                    "Comment": "389-ds-base-snmp is earlier than 0:1.3.10.2-15.el7_9"
                  },
                  {
                    "Comment": "389-ds-base-snmp is signed with Red Hat redhatrelease2 key"
                  }
                ]
              }
            ],
            "Criterions": [

            ]
          }
        ],
        "Criterions": [
          {
            "Comment": "Oracle Linux 7 is installed"
          }
        ]
      }
    ],
    "Criterions": [
      {
        "Comment": "Oracle Linux 7 is installed"
      }
    ]
  },
  "Severity": "Low",
  "Cves": [
    {
      "Impact": "",
      "Href": "",
      "ID": "CVE-2021-4091"
    }
  ],
  "Issued": {
    "Date": "2022-02-22"
  }
}