{
  "Title": "RHSA-2022:7192: device-mapper-multipath security update (Important)",
  "Description": "The device-mapper-multipath packages provide tools that use the device-mapper multipath kernel module to manage multipath devices.\nSecurity Fix(es):\n* device-mapper-multipath: Authorization bypass, multipathd daemon listens for client connections on an abstract Unix socket (CVE-2022-41974)\nFor more details about the security issue(s), including the impact, a CVSS score, acknowledgments, and other related information, refer to the CVE page(s) listed in the References section.",
  "Platform": [
    "Red Hat Enterprise Linux 8"
  ],
  "References": [
    {
      "Source": "RHSA",
      "URI": "https://access.redhat.com/errata/RHSA-2022:7192",
      "ID": "RHSA-2022:7192"
    },
    {
      "Source": "CVE",
      "URI": "https://access.redhat.com/security/cve/CVE-2022-41974",
      "ID": "CVE-2022-41974"
    }
  ],
  "Criteria": {
    "Operator": "OR",
    "Criterias": [
      {
        "Operator": "AND",
        "Criterias": [
          {
            "Operator": "OR",
            "Criterias": [

            ],
            "Criterions": [
              {
                "Comment": "Oracle Linux 8 is installed"
              },
              {
                "Comment": "Red Hat CoreOS 4 is installed"
              }
            ]
          }
        ],
        "Criterions": [
          {
            "Comment": "device-mapper-multipath is earlier than 0:0.8.4-22.el8_6.2"
          },
          {
            "Comment": "device-mapper-multipath is signed with Red Hat redhatrelease2 key"
          }
        ]
      }
    ],
    "Criterions": [
      {
        "Comment": "Oracle Linux 8 is installed"
      }
    ]
  },
  "Severity": "Important",
  "Cves": [
    {
      "Impact": "",
      "Href": "",
      "ID": "CVE-2022-41974"
    }
  ],
  "Issued": {
    "Date": "2022-10-25"
  }
}