{
  "Title": "RHSA-2022:1555: kernel-rt security and bug fix update (Important)",
  "Description": "The kernel-rt packages provide the Real Time Linux Kernel, which enables fine-tuning for systems with extremely high determinism requirements.\nSecurity Fix(es):\n* kernel: use-after-free in RDMA listen() (CVE-2021-4028)\n* kernel: heap out of bounds write in nf_dup_netdev.c (CVE-2022-25636)\nFor more details about the security issue(s), including the impact, a CVSS score, acknowledgments, and other related information, refer to the CVE page(s) listed in the References section.\nBug Fix(es):\n* kernel-rt: update RT source tree to the RHEL-8.5.z4 source tree (BZ#2067266)",
  "Platform": [
    "Red Hat Enterprise Linux 8"
  ],
  "References": [
    {
      "Source": "RHSA",
      "URI": "https://access.redhat.com/errata/RHSA-2022:1555",
      "ID": "RHSA-2022:1555"
    },
    {
      "Source": "CVE",
      "URI": "https://access.redhat.com/security/cve/CVE-2021-4028",
      "ID": "CVE-2021-4028"
    },
    {
      "Source": "CVE",
      "URI": "https://access.redhat.com/security/cve/CVE-2022-25636",
      "ID": "CVE-2022-25636"
    }
  ],
  "Criteria": {
    "Operator": "OR",
    "Criterias": [
      {
        "Operator": "AND",
        "Criterias": [
          {
            "Operator": "OR",
            "Criterias": [

            ],
            "Criterions": [
              {
                "Comment": "Oracle Linux 8 is installed"
              },
              {
                "Comment": "Red Hat CoreOS 4 is installed"
              }
            ]
          },
          {
            "Operator": "OR",
            "Criterias": [

            ],
            "Criterions": [
              {
                "Comment": "kernel-rt earlier than 0:4.18.0-348.23.1.rt7.153.el8_5 is currently running"
              },
              {
                "Comment": "kernel-rt earlier than 0:4.18.0-348.23.1.rt7.153.el8_5 is set to boot up on next boot"
              }
            ]
          },
          {
            "Operator": "OR",
            "Criterias": [
              {
                "Operator": "AND",
                "Criterias": [

                ],
                "Criterions": [
                  {
                    "Comment": "kernel-rt is earlier than 0:4.18.0-348.23.1.rt7.153.el8_5"
                  },
                  {
                    "Comment": "kernel-rt is signed with Red Hat redhatrelease2 key"
                  }
                ]
              },
              {
                "Operator": "AND",
                "Criterias": [

                ],
                "Criterions": [
                  {
                    "Comment": "kernel-rt-core is earlier than 0:4.18.0-348.23.1.rt7.153.el8_5"
                  },
                  {
                    "Comment": "kernel-rt-core is signed with Red Hat redhatrelease2 key"
                  }
                ]
              },
              {
                "Operator": "AND",
                "Criterias": [

                ],
                "Criterions": [
                  {
                    "Comment": "kernel-rt-debug is earlier than 0:4.18.0-348.23.1.rt7.153.el8_5"
                  },
                  {
                    "Comment": "kernel-rt-debug is signed with Red Hat redhatrelease2 key"
                  }
                ]
              },
              {
                "Operator": "AND",
                "Criterias": [

                ],
                "Criterions": [
                  {
                    "Comment": "kernel-rt-debug-core is earlier than 0:4.18.0-348.23.1.rt7.153.el8_5"
                  },
                  {
                    "Comment": "kernel-rt-debug-core is signed with Red Hat redhatrelease2 key"
                  }
                ]
              },
              {
                "Operator": "AND",
                "Criterias": [

                ],
                "Criterions": [
                  {
                    "Comment": "kernel-rt-debug-devel is earlier than 0:4.18.0-348.23.1.rt7.153.el8_5"
                  },
                  {
                    "Comment": "kernel-rt-debug-devel is signed with Red Hat redhatrelease2 key"
                  }
                ]
              },
              {
                "Operator": "AND",
                "Criterias": [

                ],
                "Criterions": [
                  {
                    "Comment": "kernel-rt-debug-kvm is earlier than 0:4.18.0-348.23.1.rt7.153.el8_5"
                  },
                  {
                    "Comment": "kernel-rt-debug-kvm is signed with Red Hat redhatrelease2 key"
                  }
                ]
              },
              {
                "Operator": "AND",
                "Criterias": [

                ],
                "Criterions": [
                  {
                    "Comment": "kernel-rt-debug-modules is earlier than 0:4.18.0-348.23.1.rt7.153.el8_5"
                  },
                  {
                    "Comment": "kernel-rt-debug-modules is signed with Red Hat redhatrelease2 key"
                  }
                ]
              },
              {
                "Operator": "AND",
                "Criterias": [

                ],
                "Criterions": [
                  {
                    "Comment": "kernel-rt-debug-modules-extra is earlier than 0:4.18.0-348.23.1.rt7.153.el8_5"
                  },
                  {
                    "Comment": "kernel-rt-debug-modules-extra is signed with Red Hat redhatrelease2 key"
                  }
                ]
              },
              {
                "Operator": "AND",
                "Criterias": [

                ],
                "Criterions": [
                  {
                    "Comment": "kernel-rt-devel is earlier than 0:4.18.0-348.23.1.rt7.153.el8_5"
                  },
                  {
                    "Comment": "kernel-rt-devel is signed with Red Hat redhatrelease2 key"
                  }
                ]
              },
              {
                "Operator": "AND",
                "Criterias": [

                ],
                "Criterions": [
                  {
                    "Comment": "kernel-rt-kvm is earlier than 0:4.18.0-348.23.1.rt7.153.el8_5"
                  },
                  {
                    "Comment": "kernel-rt-kvm is signed with Red Hat redhatrelease2 key"
                  }
                ]
              },
              {
                "Operator": "AND",
                "Criterias": [

                ],
                "Criterions": [
                  {
                    "Comment": "kernel-rt-modules is earlier than 0:4.18.0-348.23.1.rt7.153.el8_5"
                  },
                  {
                    "Comment": "kernel-rt-modules is signed with Red Hat redhatrelease2 key"
                  }
                ]
              },
              {
                "Operator": "AND",
                "Criterias": [

                ],
                "Criterions": [
                  {
                    "Comment": "kernel-rt-modules-extra is earlier than 0:4.18.0-348.23.1.rt7.153.el8_5"
                  },
                  {
                    "Comment": "kernel-rt-modules-extra is signed with Red Hat redhatrelease2 key"
                  }
                ]
              }
            ],
            "Criterions": [

            ]
          }
        ],
        "Criterions": [

        ]
      }
    ],
    "Criterions": [
      {
        "Comment": "Oracle Linux 8 is installed"
      }
    ]
  },
  "Severity": "Important",
  "Cves": [
    {
      "Impact": "",
      "Href": "",
      "ID": "CVE-2021-4028"
    },
    {
      "Impact": "",
      "Href": "",
      "ID": "CVE-2022-25636"
    }
  ],
  "Issued": {
    "Date": "2022-04-26"
  }
}