{
  "Title": "RHSA-2022:8384: harfbuzz security update (Moderate)",
  "Description": "HarfBuzz is an implementation of the OpenType Layout engine.\nSecurity Fix(es):\n* harfbuzz: integer overflow in the component hb-ot-shape-fallback.cc (CVE-2022-33068)\nFor more details about the security issue(s), including the impact, a CVSS score, acknowledgments, and other related information, refer to the CVE page(s) listed in the References section.\nAdditional Changes:\nFor detailed information on changes in this release, see the Red Hat Enterprise Linux 9.1 Release Notes linked from the References section.",
  "Platform": [
    "Red Hat Enterprise Linux 9"
  ],
  "References": [
    {
      "Source": "RHSA",
      "URI": "https://access.redhat.com/errata/RHSA-2022:8384",
      "ID": "RHSA-2022:8384"
    },
    {
      "Source": "CVE",
      "URI": "https://access.redhat.com/security/cve/CVE-2022-33068",
      "ID": "CVE-2022-33068"
    }
  ],
  "Criteria": {
    "Operator": "OR",
    "Criterias": [
      {
        "Operator": "AND",
        "Criterias": [
          {
            "Operator": "OR",
            "Criterias": [
              {
                "Operator": "AND",
                "Criterias": [

                ],
                "Criterions": [
                  {
                    "Comment": "harfbuzz is earlier than 0:2.7.4-8.el9"
                  },
                  {
                    "Comment": "harfbuzz is signed with Red Hat redhatrelease2 key"
                  }
                ]
              },
              {
                "Operator": "AND",
                "Criterias": [

                ],
                "Criterions": [
                  {
                    "Comment": "harfbuzz-devel is earlier than 0:2.7.4-8.el9"
                  },
                  {
                    "Comment": "harfbuzz-devel is signed with Red Hat redhatrelease2 key"
                  }
                ]
              },
              {
                "Operator": "AND",
                "Criterias": [

                ],
                "Criterions": [
                  {
                    "Comment": "harfbuzz-icu is earlier than 0:2.7.4-8.el9"
                  },
                  {
                    "Comment": "harfbuzz-icu is signed with Red Hat redhatrelease2 key"
                  }
                ]
              }
            ],
            "Criterions": [

            ]
          }
        ],
        "Criterions": [
          {
            "Comment": "Oracle Linux 9 is installed"
          }
        ]
      }
    ],
    "Criterions": [
      {
        "Comment": "Oracle Linux 9 is installed"
      }
    ]
  },
  "Severity": "Moderate",
  "Cves": [
    {
      "Impact": "",
      "Href": "",
      "ID": "CVE-2022-33068"
    }
  ],
  "Issued": {
    "Date": "2022-11-15"
  }
}