{
  "Title": "RHSA-2022:7012: java-11-openjdk security and bug fix update (Moderate)",
  "Description": "The java-11-openjdk packages provide the OpenJDK 11 Java Runtime Environment and the OpenJDK 11 Java Software Development Kit.\nSecurity Fix(es):\n* OpenJDK: improper MultiByte conversion can lead to buffer overflow (JGSS, 8286077) (CVE-2022-21618)\n* OpenJDK: excessive memory allocation in X.509 certificate parsing (Security, 8286533) (CVE-2022-21626)\n* OpenJDK: HttpServer no connection count limit (Lightweight HTTP Server, 8286918) (CVE-2022-21628)\n* OpenJDK: improper handling of long NTLM client hostnames (Security, 8286526) (CVE-2022-21619)\n* OpenJDK: insufficient randomization of JNDI DNS port numbers (JNDI, 8286910) (CVE-2022-21624)\n* OpenJDK: missing SNI caching in HTTP/2 (Networking, 8289366) (CVE-2022-39399)\nFor more details about the security issue(s), including the impact, a CVSS score, acknowledgments, and other related information, refer to the CVE page(s) listed in the References section.\nBug Fix(es):\n* Prepare for the next quarterly OpenJDK upstream release (2022-10, 11.0.17) [rhel-8] (BZ#2131863)",
  "Platform": [
    "Red Hat Enterprise Linux 8"
  ],
  "References": [
    {
      "Source": "RHSA",
      "URI": "https://access.redhat.com/errata/RHSA-2022:7012",
      "ID": "RHSA-2022:7012"
    },
    {
      "Source": "CVE",
      "URI": "https://access.redhat.com/security/cve/CVE-2022-21618",
      "ID": "CVE-2022-21618"
    },
    {
      "Source": "CVE",
      "URI": "https://access.redhat.com/security/cve/CVE-2022-21619",
      "ID": "CVE-2022-21619"
    },
    {
      "Source": "CVE",
      "URI": "https://access.redhat.com/security/cve/CVE-2022-21624",
      "ID": "CVE-2022-21624"
    },
    {
      "Source": "CVE",
      "URI": "https://access.redhat.com/security/cve/CVE-2022-21626",
      "ID": "CVE-2022-21626"
    },
    {
      "Source": "CVE",
      "URI": "https://access.redhat.com/security/cve/CVE-2022-21628",
      "ID": "CVE-2022-21628"
    },
    {
      "Source": "CVE",
      "URI": "https://access.redhat.com/security/cve/CVE-2022-39399",
      "ID": "CVE-2022-39399"
    }
  ],
  "Criteria": {
    "Operator": "OR",
    "Criterias": [
      {
        "Operator": "AND",
        "Criterias": [
          {
            "Operator": "OR",
            "Criterias": [

            ],
            "Criterions": [
              {
                "Comment": "Oracle Linux 8 is installed"
              },
              {
                "Comment": "Red Hat CoreOS 4 is installed"
              }
            ]
          },
          {
            "Operator": "OR",
            "Criterias": [
              {
                "Operator": "AND",
                "Criterias": [

                ],
                "Criterions": [
                  {
                    "Comment": "java-11-openjdk is earlier than 1:11.0.17.0.8-2.el8_6"
                  },
                  {
                    "Comment": "java-11-openjdk is signed with Red Hat redhatrelease2 key"
                  }
                ]
              },
              {
                "Operator": "AND",
                "Criterias": [

                ],
                "Criterions": [
                  {
                    "Comment": "java-11-openjdk-demo is earlier than 1:11.0.17.0.8-2.el8_6"
                  },
                  {
                    "Comment": "java-11-openjdk-demo is signed with Red Hat redhatrelease2 key"
                  }
                ]
              },
              {
                "Operator": "AND",
                "Criterias": [

                ],
                "Criterions": [
                  {
                    "Comment": "java-11-openjdk-demo-fastdebug is earlier than 1:11.0.17.0.8-2.el8_6"
                  },
                  {
                    "Comment": "java-11-openjdk-demo-fastdebug is signed with Red Hat redhatrelease2 key"
                  }
                ]
              },
              {
                "Operator": "AND",
                "Criterias": [

                ],
                "Criterions": [
                  {
                    "Comment": "java-11-openjdk-demo-slowdebug is earlier than 1:11.0.17.0.8-2.el8_6"
                  },
                  {
                    "Comment": "java-11-openjdk-demo-slowdebug is signed with Red Hat redhatrelease2 key"
                  }
                ]
              },
              {
                "Operator": "AND",
                "Criterias": [

                ],
                "Criterions": [
                  {
                    "Comment": "java-11-openjdk-devel is earlier than 1:11.0.17.0.8-2.el8_6"
                  },
                  {
                    "Comment": "java-11-openjdk-devel is signed with Red Hat redhatrelease2 key"
                  }
                ]
              },
              {
                "Operator": "AND",
                "Criterias": [

                ],
                "Criterions": [
                  {
                    "Comment": "java-11-openjdk-devel-fastdebug is earlier than 1:11.0.17.0.8-2.el8_6"
                  },
                  {
                    "Comment": "java-11-openjdk-devel-fastdebug is signed with Red Hat redhatrelease2 key"
                  }
                ]
              },
              {
                "Operator": "AND",
                "Criterias": [

                ],
                "Criterions": [
                  {
                    "Comment": "java-11-openjdk-devel-slowdebug is earlier than 1:11.0.17.0.8-2.el8_6"
                  },
                  {
                    "Comment": "java-11-openjdk-devel-slowdebug is signed with Red Hat redhatrelease2 key"
                  }
                ]
              },
              {
                "Operator": "AND",
                "Criterias": [

                ],
                "Criterions": [
                  {
                    "Comment": "java-11-openjdk-fastdebug is earlier than 1:11.0.17.0.8-2.el8_6"
                  },
                  {
                    "Comment": "java-11-openjdk-fastdebug is signed with Red Hat redhatrelease2 key"
                  }
                ]
              },
              {
                "Operator": "AND",
                "Criterias": [

                ],
                "Criterions": [
                  {
                    "Comment": "java-11-openjdk-headless is earlier than 1:11.0.17.0.8-2.el8_6"
                  },
                  {
                    "Comment": "java-11-openjdk-headless is signed with Red Hat redhatrelease2 key"
                  }
                ]
              },
              {
                "Operator": "AND",
                "Criterias": [

                ],
                "Criterions": [
                  {
                    "Comment": "java-11-openjdk-headless-fastdebug is earlier than 1:11.0.17.0.8-2.el8_6"
                  },
                  {
                    "Comment": "java-11-openjdk-headless-fastdebug is signed with Red Hat redhatrelease2 key"
                  }
                ]
              },
              {
                "Operator": "AND",
                "Criterias": [

                ],
                "Criterions": [
                  {
                    "Comment": "java-11-openjdk-headless-slowdebug is earlier than 1:11.0.17.0.8-2.el8_6"
                  },
                  {
                    "Comment": "java-11-openjdk-headless-slowdebug is signed with Red Hat redhatrelease2 key"
                  }
                ]
              },
              {
                "Operator": "AND",
                "Criterias": [

                ],
                "Criterions": [
                  {
                    "Comment": "java-11-openjdk-javadoc is earlier than 1:11.0.17.0.8-2.el8_6"
                  },
                  {
                    "Comment": "java-11-openjdk-javadoc is signed with Red Hat redhatrelease2 key"
                  }
                ]
              },
              {
                "Operator": "AND",
                "Criterias": [

                ],
                "Criterions": [
                  {
                    "Comment": "java-11-openjdk-javadoc-zip is earlier than 1:11.0.17.0.8-2.el8_6"
                  },
                  {
                    "Comment": "java-11-openjdk-javadoc-zip is signed with Red Hat redhatrelease2 key"
                  }
                ]
              },
              {
                "Operator": "AND",
                "Criterias": [

                ],
                "Criterions": [
                  {
                    "Comment": "java-11-openjdk-jmods is earlier than 1:11.0.17.0.8-2.el8_6"
                  },
                  {
                    "Comment": "java-11-openjdk-jmods is signed with Red Hat redhatrelease2 key"
                  }
                ]
              },
              {
                "Operator": "AND",
                "Criterias": [

                ],
                "Criterions": [
                  {
                    "Comment": "java-11-openjdk-jmods-fastdebug is earlier than 1:11.0.17.0.8-2.el8_6"
                  },
                  {
                    "Comment": "java-11-openjdk-jmods-fastdebug is signed with Red Hat redhatrelease2 key"
                  }
                ]
              },
              {
                "Operator": "AND",
                "Criterias": [

                ],
                "Criterions": [
                  {
                    "Comment": "java-11-openjdk-jmods-slowdebug is earlier than 1:11.0.17.0.8-2.el8_6"
                  },
                  {
                    "Comment": "java-11-openjdk-jmods-slowdebug is signed with Red Hat redhatrelease2 key"
                  }
                ]
              },
              {
                "Operator": "AND",
                "Criterias": [

                ],
                "Criterions": [
                  {
                    "Comment": "java-11-openjdk-slowdebug is earlier than 1:11.0.17.0.8-2.el8_6"
                  },
                  {
                    "Comment": "java-11-openjdk-slowdebug is signed with Red Hat redhatrelease2 key"
                  }
                ]
              },
              {
                "Operator": "AND",
                "Criterias": [

                ],
                "Criterions": [
                  {
                    "Comment": "java-11-openjdk-src is earlier than 1:11.0.17.0.8-2.el8_6"
                  },
                  {
                    "Comment": "java-11-openjdk-src is signed with Red Hat redhatrelease2 key"
                  }
                ]
              },
              {
                "Operator": "AND",
                "Criterias": [

                ],
                "Criterions": [
                  {
                    "Comment": "java-11-openjdk-src-fastdebug is earlier than 1:11.0.17.0.8-2.el8_6"
                  },
                  {
                    "Comment": "java-11-openjdk-src-fastdebug is signed with Red Hat redhatrelease2 key"
                  }
                ]
              },
              {
                "Operator": "AND",
                "Criterias": [

                ],
                "Criterions": [
                  {
                    "Comment": "java-11-openjdk-src-slowdebug is earlier than 1:11.0.17.0.8-2.el8_6"
                  },
                  {
                    "Comment": "java-11-openjdk-src-slowdebug is signed with Red Hat redhatrelease2 key"
                  }
                ]
              },
              {
                "Operator": "AND",
                "Criterias": [

                ],
                "Criterions": [
                  {
                    "Comment": "java-11-openjdk-static-libs is earlier than 1:11.0.17.0.8-2.el8_6"
                  },
                  {
                    "Comment": "java-11-openjdk-static-libs is signed with Red Hat redhatrelease2 key"
                  }
                ]
              },
              {
                "Operator": "AND",
                "Criterias": [

                ],
                "Criterions": [
                  {
                    "Comment": "java-11-openjdk-static-libs-fastdebug is earlier than 1:11.0.17.0.8-2.el8_6"
                  },
                  {
                    "Comment": "java-11-openjdk-static-libs-fastdebug is signed with Red Hat redhatrelease2 key"
                  }
                ]
              },
              {
                "Operator": "AND",
                "Criterias": [

                ],
                "Criterions": [
                  {
                    "Comment": "java-11-openjdk-static-libs-slowdebug is earlier than 1:11.0.17.0.8-2.el8_6"
                  },
                  {
                    "Comment": "java-11-openjdk-static-libs-slowdebug is signed with Red Hat redhatrelease2 key"
                  }
                ]
              }
            ],
            "Criterions": [

            ]
          }
        ],
        "Criterions": [

        ]
      }
    ],
    "Criterions": [
      {
        "Comment": "Oracle Linux 8 is installed"
      }
    ]
  },
  "Severity": "Moderate",
  "Cves": [
    {
      "Impact": "",
      "Href": "",
      "ID": "CVE-2022-21618"
    },
    {
      "Impact": "",
      "Href": "",
      "ID": "CVE-2022-21619"
    },
    {
      "Impact": "",
      "Href": "",
      "ID": "CVE-2022-21624"
    },
    {
      "Impact": "",
      "Href": "",
      "ID": "CVE-2022-21626"
    },
    {
      "Impact": "",
      "Href": "",
      "ID": "CVE-2022-21628"
    },
    {
      "Impact": "",
      "Href": "",
      "ID": "CVE-2022-39399"
    }
  ],
  "Issued": {
    "Date": "2022-10-19"
  }
}