{
  "Title": "RHSA-2022:6224: openssl security and bug fix update (Moderate)",
  "Description": "OpenSSL is a toolkit that implements the Secure Sockets Layer (SSL) and Transport Layer Security (TLS) protocols, as well as a full-strength general-purpose cryptography library.\nSecurity Fix(es):\n* openssl: c_rehash script allows command injection (CVE-2022-1292)\n* openssl: Signer certificate verification returns inaccurate response when using OCSP_NOCHECKS (CVE-2022-1343)\n* openssl: OPENSSL_LH_flush() breaks reuse of memory (CVE-2022-1473)\n* openssl: the c_rehash script allows command injection (CVE-2022-2068)\n* openssl: AES OCB fails to encrypt some bytes (CVE-2022-2097)\nFor more details about the security issue(s), including the impact, a CVSS score, acknowledgments, and other related information, refer to the CVE page(s) listed in the References section.\nBug Fix(es):\n* openssl occasionally sends internal error to gnutls when using FFDHE (BZ#2080323)\n* openssl req defaults to 3DES (BZ#2085499)\n* OpenSSL accepts custom elliptic curve parameters when p is large [rhel-9] (BZ#2085508)\n* OpenSSL mustn't work with ECDSA with explicit curve parameters in FIPS mode (BZ#2085521)\n* openssl s_server -groups secp256k1 in FIPS fails because X25519/X448 (BZ#2086554)\n* Converting FIPS power-on self test to KAT (BZ#2086866)\n* Small RSA keys work for some operations in FIPS mode (BZ#2091938)\n* FIPS provider doesn't block RSA encryption for key transport (BZ#2091977)\n* OpenSSL testsuite certificates expired (BZ#2095696)\n* [IBM 9.1 HW OPT] POWER10 performance enhancements for cryptography: OpenSSL (BZ#2103044)\n* [FIPS lab review] self-test (BZ#2112978)\n* [FIPS lab review] DH tuning (BZ#2115856)\n* [FIPS lab review] EC tuning (BZ#2115857)\n* [FIPS lab review] RSA tuning (BZ#2115858)\n* [FIPS lab review] RAND tuning (BZ#2115859)\n* [FIPS lab review] zeroization (BZ#2115861)\n* [FIPS lab review] HKDF limitations (BZ#2118388)",
  "Platform": [
    "Red Hat Enterprise Linux 9"
  ],
  "References": [
    {
      "Source": "RHSA",
      "URI": "https://access.redhat.com/errata/RHSA-2022:6224",
      "ID": "RHSA-2022:6224"
    },
    {
      "Source": "CVE",
      "URI": "https://access.redhat.com/security/cve/CVE-2022-1292",
      "ID": "CVE-2022-1292"
    },
    {
      "Source": "CVE",
      "URI": "https://access.redhat.com/security/cve/CVE-2022-1343",
      "ID": "CVE-2022-1343"
    },
    {
      "Source": "CVE",
      "URI": "https://access.redhat.com/security/cve/CVE-2022-1473",
      "ID": "CVE-2022-1473"
    },
    {
      "Source": "CVE",
      "URI": "https://access.redhat.com/security/cve/CVE-2022-2068",
      "ID": "CVE-2022-2068"
    },
    {
      "Source": "CVE",
      "URI": "https://access.redhat.com/security/cve/CVE-2022-2097",
      "ID": "CVE-2022-2097"
    }
  ],
  "Criteria": {
    "Operator": "OR",
    "Criterias": [
      {
        "Operator": "AND",
        "Criterias": [
          {
            "Operator": "OR",
            "Criterias": [
              {
                "Operator": "AND",
                "Criterias": [

                ],
                "Criterions": [
                  {
                    "Comment": "openssl is earlier than 1:3.0.1-41.el9_0"
                  },
                  {
                    "Comment": "openssl is signed with Red Hat redhatrelease2 key"
                  }
                ]
              },
              {
                "Operator": "AND",
                "Criterias": [

                ],
                "Criterions": [
                  {
                    "Comment": "openssl-devel is earlier than 1:3.0.1-41.el9_0"
                  },
                  {
                    "Comment": "openssl-devel is signed with Red Hat redhatrelease2 key"
                  }
                ]
              },
              {
                "Operator": "AND",
                "Criterias": [

                ],
                "Criterions": [
                  {
                    "Comment": "openssl-libs is earlier than 1:3.0.1-41.el9_0"
                  },
                  {
                    "Comment": "openssl-libs is signed with Red Hat redhatrelease2 key"
                  }
                ]
              },
              {
                "Operator": "AND",
                "Criterias": [

                ],
                "Criterions": [
                  {
                    "Comment": "openssl-perl is earlier than 1:3.0.1-41.el9_0"
                  },
                  {
                    "Comment": "openssl-perl is signed with Red Hat redhatrelease2 key"
                  }
                ]
              }
            ],
            "Criterions": [

            ]
          }
        ],
        "Criterions": [
          {
            "Comment": "Oracle Linux 9 is installed"
          }
        ]
      }
    ],
    "Criterions": [
      {
        "Comment": "Oracle Linux 9 is installed"
      }
    ]
  },
  "Severity": "Moderate",
  "Cves": [
    {
      "Impact": "",
      "Href": "",
      "ID": "CVE-2022-1292"
    },
    {
      "Impact": "",
      "Href": "",
      "ID": "CVE-2022-1343"
    },
    {
      "Impact": "",
      "Href": "",
      "ID": "CVE-2022-1473"
    },
    {
      "Impact": "",
      "Href": "",
      "ID": "CVE-2022-2068"
    },
    {
      "Impact": "",
      "Href": "",
      "ID": "CVE-2022-2097"
    }
  ],
  "Issued": {
    "Date": "2022-08-30"
  }
}