{
  "Title": "RHSA-2022:6820: prometheus-jmx-exporter security update (Moderate)",
  "Description": "Prometheus JMX Exporter is a JMX to Prometheus exporter: a collector that can be configured to scrape and expose MBeans of a JMX target.\nSecurity Fix(es):\n* snakeyaml: Denial of Service due to missing nested depth limitation for collections (CVE-2022-25857)\nFor more details about the security issue(s), including the impact, a CVSS score, acknowledgments, and other related information, refer to the CVE page(s) listed in the References section.",
  "Platform": [
    "Red Hat Enterprise Linux 8"
  ],
  "References": [
    {
      "Source": "RHSA",
      "URI": "https://access.redhat.com/errata/RHSA-2022:6820",
      "ID": "RHSA-2022:6820"
    },
    {
      "Source": "CVE",
      "URI": "https://access.redhat.com/security/cve/CVE-2022-25857",
      "ID": "CVE-2022-25857"
    }
  ],
  "Criteria": {
    "Operator": "OR",
    "Criterias": [
      {
        "Operator": "AND",
        "Criterias": [
          {
            "Operator": "OR",
            "Criterias": [

            ],
            "Criterions": [
              {
                "Comment": "Oracle Linux 8 is installed"
              },
              {
                "Comment": "Red Hat CoreOS 4 is installed"
              }
            ]
          },
          {
            "Operator": "OR",
            "Criterias": [
              {
                "Operator": "AND",
                "Criterias": [

                ],
                "Criterions": [
                  {
                    "Comment": "prometheus-jmx-exporter is earlier than 0:0.12.0-8.el8_6"
                  },
                  {
                    "Comment": "prometheus-jmx-exporter is signed with Red Hat redhatrelease2 key"
                  }
                ]
              },
              {
                "Operator": "AND",
                "Criterias": [

                ],
                "Criterions": [
                  {
                    "Comment": "prometheus-jmx-exporter-openjdk11 is earlier than 0:0.12.0-8.el8_6"
                  },
                  {
                    "Comment": "prometheus-jmx-exporter-openjdk11 is signed with Red Hat redhatrelease2 key"
                  }
                ]
              },
              {
                "Operator": "AND",
                "Criterias": [

                ],
                "Criterions": [
                  {
                    "Comment": "prometheus-jmx-exporter-openjdk17 is earlier than 0:0.12.0-8.el8_6"
                  },
                  {
                    "Comment": "prometheus-jmx-exporter-openjdk17 is signed with Red Hat redhatrelease2 key"
                  }
                ]
              },
              {
                "Operator": "AND",
                "Criterias": [

                ],
                "Criterions": [
                  {
                    "Comment": "prometheus-jmx-exporter-openjdk8 is earlier than 0:0.12.0-8.el8_6"
                  },
                  {
                    "Comment": "prometheus-jmx-exporter-openjdk8 is signed with Red Hat redhatrelease2 key"
                  }
                ]
              }
            ],
            "Criterions": [

            ]
          }
        ],
        "Criterions": [

        ]
      }
    ],
    "Criterions": [
      {
        "Comment": "Oracle Linux 8 is installed"
      }
    ]
  },
  "Severity": "Moderate",
  "Cves": [
    {
      "Impact": "",
      "Href": "",
      "ID": "CVE-2022-25857"
    }
  ],
  "Issued": {
    "Date": "2022-10-06"
  }
}