{
  "Title": "RHSA-2022:7071: firefox security update (Important)",
  "Description": "Mozilla Firefox is an open-source web browser, designed for standards compliance, performance, and portability.\nThis update upgrades Firefox to version 102.4.0 ESR.\nSecurity Fix(es):\n* Mozilla: Same-origin policy violation could have leaked cross-origin URLs (CVE-2022-42927)\n* Mozilla: Memory Corruption in JS Engine (CVE-2022-42928)\n* Mozilla: Denial of Service via window.print (CVE-2022-42929)\n* Mozilla: Memory safety bugs fixed in Firefox 106 and Firefox ESR 102.4 (CVE-2022-42932)\nFor more details about the security issue(s), including the impact, a CVSS score, acknowledgments, and other related information, refer to the CVE page(s) listed in the References section.",
  "Platform": [
    "Red Hat Enterprise Linux 9"
  ],
  "References": [
    {
      "Source": "RHSA",
      "URI": "https://access.redhat.com/errata/RHSA-2022:7071",
      "ID": "RHSA-2022:7071"
    },
    {
      "Source": "CVE",
      "URI": "https://access.redhat.com/security/cve/CVE-2022-42927",
      "ID": "CVE-2022-42927"
    },
    {
      "Source": "CVE",
      "URI": "https://access.redhat.com/security/cve/CVE-2022-42928",
      "ID": "CVE-2022-42928"
    },
    {
      "Source": "CVE",
      "URI": "https://access.redhat.com/security/cve/CVE-2022-42929",
      "ID": "CVE-2022-42929"
    },
    {
      "Source": "CVE",
      "URI": "https://access.redhat.com/security/cve/CVE-2022-42932",
      "ID": "CVE-2022-42932"
    }
  ],
  "Criteria": {
    "Operator": "OR",
    "Criterias": [
      {
        "Operator": "AND",
        "Criterias": [

        ],
        "Criterions": [
          {
            "Comment": "Oracle Linux 9 is installed"
          },
          {
            "Comment": "firefox is earlier than 0:102.4.0-1.el9_0"
          },
          {
            "Comment": "firefox is signed with Red Hat redhatrelease2 key"
          }
        ]
      }
    ],
    "Criterions": [
      {
        "Comment": "Oracle Linux 9 is installed"
      }
    ]
  },
  "Severity": "Important",
  "Cves": [
    {
      "Impact": "",
      "Href": "",
      "ID": "CVE-2022-42927"
    },
    {
      "Impact": "",
      "Href": "",
      "ID": "CVE-2022-42928"
    },
    {
      "Impact": "",
      "Href": "",
      "ID": "CVE-2022-42929"
    },
    {
      "Impact": "",
      "Href": "",
      "ID": "CVE-2022-42932"
    }
  ],
  "Issued": {
    "Date": "2022-10-20"
  }
}