{
  "Title": "RHSA-2022:7648: grafana-pcp security update (Moderate)",
  "Description": "The Grafana plugin for Performance Co-Pilot includes datasources for scalable time series from pmseries and Redis, live PCP metrics and bpftrace scripts from pmdabpftrace, as well as several dashboards.\nSecurity Fix(es):\n* golang: net/http: improper sanitization of Transfer-Encoding header (CVE-2022-1705)\n* golang: io/fs: stack exhaustion in Glob (CVE-2022-30630)\n* golang: compress/gzip: stack exhaustion in Reader.Read (CVE-2022-30631)\n* golang: path/filepath: stack exhaustion in Glob (CVE-2022-30632)\n* golang: encoding/gob: stack exhaustion in Decoder.Decode (CVE-2022-30635)\n* golang: net/http/httputil: NewSingleHostReverseProxy - omit X-Forwarded-For not working (CVE-2022-32148)\nFor more details about the security issue(s), including the impact, a CVSS score, acknowledgments, and other related information, refer to the CVE page(s) listed in the References section.\nAdditional Changes:\nFor detailed information on changes in this release, see the Red Hat Enterprise Linux 8.7 Release Notes linked from the References section.",
  "Platform": [
    "Red Hat Enterprise Linux 8"
  ],
  "References": [
    {
      "Source": "RHSA",
      "URI": "https://access.redhat.com/errata/RHSA-2022:7648",
      "ID": "RHSA-2022:7648"
    },
    {
      "Source": "CVE",
      "URI": "https://access.redhat.com/security/cve/CVE-2022-1705",
      "ID": "CVE-2022-1705"
    },
    {
      "Source": "CVE",
      "URI": "https://access.redhat.com/security/cve/CVE-2022-30630",
      "ID": "CVE-2022-30630"
    },
    {
      "Source": "CVE",
      "URI": "https://access.redhat.com/security/cve/CVE-2022-30631",
      "ID": "CVE-2022-30631"
    },
    {
      "Source": "CVE",
      "URI": "https://access.redhat.com/security/cve/CVE-2022-30632",
      "ID": "CVE-2022-30632"
    },
    {
      "Source": "CVE",
      "URI": "https://access.redhat.com/security/cve/CVE-2022-30635",
      "ID": "CVE-2022-30635"
    },
    {
      "Source": "CVE",
      "URI": "https://access.redhat.com/security/cve/CVE-2022-32148",
      "ID": "CVE-2022-32148"
    }
  ],
  "Criteria": {
    "Operator": "OR",
    "Criterias": [
      {
        "Operator": "AND",
        "Criterias": [
          {
            "Operator": "OR",
            "Criterias": [

            ],
            "Criterions": [
              {
                "Comment": "Oracle Linux 8 is installed"
              },
              {
                "Comment": "Red Hat CoreOS 4 is installed"
              }
            ]
          }
        ],
        "Criterions": [
          {
            "Comment": "grafana-pcp is earlier than 0:3.2.0-2.el8"
          },
          {
            "Comment": "grafana-pcp is signed with Red Hat redhatrelease2 key"
          }
        ]
      }
    ],
    "Criterions": [
      {
        "Comment": "Oracle Linux 8 is installed"
      }
    ]
  },
  "Severity": "Moderate",
  "Cves": [
    {
      "Impact": "",
      "Href": "",
      "ID": "CVE-2022-1705"
    },
    {
      "Impact": "",
      "Href": "",
      "ID": "CVE-2022-30630"
    },
    {
      "Impact": "",
      "Href": "",
      "ID": "CVE-2022-30631"
    },
    {
      "Impact": "",
      "Href": "",
      "ID": "CVE-2022-30632"
    },
    {
      "Impact": "",
      "Href": "",
      "ID": "CVE-2022-30635"
    },
    {
      "Impact": "",
      "Href": "",
      "ID": "CVE-2022-32148"
    }
  ],
  "Issued": {
    "Date": "2022-11-08"
  }
}