{
  "Title": "RHSA-2022:4584: zlib security update (Important)",
  "Description": "The zlib packages provide a general-purpose lossless data compression library that is used by many different programs.\nSecurity Fix(es):\n* zlib: A flaw found in zlib when compressing (not decompressing) certain inputs (CVE-2018-25032)\nFor more details about the security issue(s), including the impact, a CVSS score, acknowledgments, and other related information, refer to the CVE page(s) listed in the References section.",
  "Platform": [
    "Red Hat Enterprise Linux 9"
  ],
  "References": [
    {
      "Source": "RHSA",
      "URI": "https://access.redhat.com/errata/RHSA-2022:4584",
      "ID": "RHSA-2022:4584"
    },
    {
      "Source": "CVE",
      "URI": "https://access.redhat.com/security/cve/CVE-2018-25032",
      "ID": "CVE-2018-25032"
    }
  ],
  "Criteria": {
    "Operator": "OR",
    "Criterias": [
      {
        "Operator": "AND",
        "Criterias": [
          {
            "Operator": "OR",
            "Criterias": [
              {
                "Operator": "AND",
                "Criterias": [

                ],
                "Criterions": [
                  {
                    "Comment": "zlib is earlier than 0:1.2.11-31.el9_0.1"
                  },
                  {
                    "Comment": "zlib is signed with Red Hat redhatrelease2 key"
                  }
                ]
              },
              {
                "Operator": "AND",
                "Criterias": [

                ],
                "Criterions": [
                  {
                    "Comment": "zlib-devel is earlier than 0:1.2.11-31.el9_0.1"
                  },
                  {
                    "Comment": "zlib-devel is signed with Red Hat redhatrelease2 key"
                  }
                ]
              },
              {
                "Operator": "AND",
                "Criterias": [

                ],
                "Criterions": [
                  {
                    "Comment": "zlib-static is earlier than 0:1.2.11-31.el9_0.1"
                  },
                  {
                    "Comment": "zlib-static is signed with Red Hat redhatrelease2 key"
                  }
                ]
              }
            ],
            "Criterions": [

            ]
          }
        ],
        "Criterions": [
          {
            "Comment": "Oracle Linux 9 is installed"
          }
        ]
      }
    ],
    "Criterions": [
      {
        "Comment": "Oracle Linux 9 is installed"
      }
    ]
  },
  "Severity": "Important",
  "Cves": [
    {
      "Impact": "",
      "Href": "",
      "ID": "CVE-2018-25032"
    }
  ],
  "Issued": {
    "Date": "2022-05-17"
  }
}