{
  "Title": "RHSA-2022:5234: python-virtualenv security update (Moderate)",
  "Description": "The virtualenv tool creates isolated Python environments. The virtualenv tool is a successor to workingenv, and an extension of virtual-python.\nSecurity Fix(es):\n* python-pip: directory traversal in _download_http_url() function in src/pip/_internal/download.py (CVE-2019-20916)\nFor more details about the security issue(s), including the impact, a CVSS score, acknowledgments, and other related information, refer to the CVE page(s) listed in the References section.",
  "Platform": [
    "Red Hat Enterprise Linux 7"
  ],
  "References": [
    {
      "Source": "RHSA",
      "URI": "https://access.redhat.com/errata/RHSA-2022:5234",
      "ID": "RHSA-2022:5234"
    },
    {
      "Source": "CVE",
      "URI": "https://access.redhat.com/security/cve/CVE-2019-20916",
      "ID": "CVE-2019-20916"
    }
  ],
  "Criteria": {
    "Operator": "OR",
    "Criterias": [
      {
        "Operator": "AND",
        "Criterias": [

        ],
        "Criterions": [
          {
            "Comment": "Oracle Linux 7 is installed"
          },
          {
            "Comment": "python-virtualenv is earlier than 0:15.1.0-7.el7_9"
          },
          {
            "Comment": "python-virtualenv is signed with Red Hat redhatrelease2 key"
          }
        ]
      }
    ],
    "Criterions": [
      {
        "Comment": "Oracle Linux 7 is installed"
      }
    ]
  },
  "Severity": "Moderate",
  "Cves": [
    {
      "Impact": "",
      "Href": "",
      "ID": "CVE-2019-20916"
    }
  ],
  "Issued": {
    "Date": "2022-06-28"
  }
}