{
  "Title": "RHSA-2022:7323: python3.9 security update (Moderate)",
  "Description": "Python is an interpreted, interactive, object-oriented programming language, which includes modules, classes, exceptions, very high level dynamic data types and dynamic typing. Python supports interfaces to many system calls and libraries, as well as to various windowing systems.\nSecurity Fix(es):\n* python: int() type in PyLong_FromString() does not limit amount of digits converting text to int leading to DoS (CVE-2020-10735)\nFor more details about the security issue(s), including the impact, a CVSS score, acknowledgments, and other related information, refer to the CVE page(s) listed in the References section.",
  "Platform": [
    "Red Hat Enterprise Linux 9"
  ],
  "References": [
    {
      "Source": "RHSA",
      "URI": "https://access.redhat.com/errata/RHSA-2022:7323",
      "ID": "RHSA-2022:7323"
    },
    {
      "Source": "CVE",
      "URI": "https://access.redhat.com/security/cve/CVE-2020-10735",
      "ID": "CVE-2020-10735"
    }
  ],
  "Criteria": {
    "Operator": "OR",
    "Criterias": [
      {
        "Operator": "AND",
        "Criterias": [
          {
            "Operator": "OR",
            "Criterias": [
              {
                "Operator": "AND",
                "Criterias": [

                ],
                "Criterions": [
                  {
                    "Comment": "python-unversioned-command is earlier than 0:3.9.10-3.el9_0"
                  },
                  {
                    "Comment": "python-unversioned-command is signed with Red Hat redhatrelease2 key"
                  }
                ]
              },
              {
                "Operator": "AND",
                "Criterias": [

                ],
                "Criterions": [
                  {
                    "Comment": "python3 is earlier than 0:3.9.10-3.el9_0"
                  },
                  {
                    "Comment": "python3 is signed with Red Hat redhatrelease2 key"
                  }
                ]
              },
              {
                "Operator": "AND",
                "Criterias": [

                ],
                "Criterions": [
                  {
                    "Comment": "python3-debug is earlier than 0:3.9.10-3.el9_0"
                  },
                  {
                    "Comment": "python3-debug is signed with Red Hat redhatrelease2 key"
                  }
                ]
              },
              {
                "Operator": "AND",
                "Criterias": [

                ],
                "Criterions": [
                  {
                    "Comment": "python3-devel is earlier than 0:3.9.10-3.el9_0"
                  },
                  {
                    "Comment": "python3-devel is signed with Red Hat redhatrelease2 key"
                  }
                ]
              },
              {
                "Operator": "AND",
                "Criterias": [

                ],
                "Criterions": [
                  {
                    "Comment": "python3-idle is earlier than 0:3.9.10-3.el9_0"
                  },
                  {
                    "Comment": "python3-idle is signed with Red Hat redhatrelease2 key"
                  }
                ]
              },
              {
                "Operator": "AND",
                "Criterias": [

                ],
                "Criterions": [
                  {
                    "Comment": "python3-libs is earlier than 0:3.9.10-3.el9_0"
                  },
                  {
                    "Comment": "python3-libs is signed with Red Hat redhatrelease2 key"
                  }
                ]
              },
              {
                "Operator": "AND",
                "Criterias": [

                ],
                "Criterions": [
                  {
                    "Comment": "python3-test is earlier than 0:3.9.10-3.el9_0"
                  },
                  {
                    "Comment": "python3-test is signed with Red Hat redhatrelease2 key"
                  }
                ]
              },
              {
                "Operator": "AND",
                "Criterias": [

                ],
                "Criterions": [
                  {
                    "Comment": "python3-tkinter is earlier than 0:3.9.10-3.el9_0"
                  },
                  {
                    "Comment": "python3-tkinter is signed with Red Hat redhatrelease2 key"
                  }
                ]
              }
            ],
            "Criterions": [

            ]
          }
        ],
        "Criterions": [
          {
            "Comment": "Oracle Linux 9 is installed"
          }
        ]
      }
    ],
    "Criterions": [
      {
        "Comment": "Oracle Linux 9 is installed"
      }
    ]
  },
  "Severity": "Moderate",
  "Cves": [
    {
      "Impact": "",
      "Href": "",
      "ID": "CVE-2020-10735"
    }
  ],
  "Issued": {
    "Date": "2022-11-02"
  }
}