{
  "Title": "RHSA-2022:1541: maven-shared-utils security update (Important)",
  "Description": "The Apache Maven Shared Utils project aims to be an improved functional replacement for plexus-utils in Maven.\nSecurity Fix(es):\n* maven-shared-utils: Command injection via Commandline class (CVE-2022-29599)\nFor more details about the security issue(s), including the impact, a CVSS score, acknowledgments, and other related information, refer to the CVE page(s) listed in the References section.",
  "Platform": [
    "Red Hat Enterprise Linux 7"
  ],
  "References": [
    {
      "Source": "RHSA",
      "URI": "https://access.redhat.com/errata/RHSA-2022:1541",
      "ID": "RHSA-2022:1541"
    },
    {
      "Source": "CVE",
      "URI": "https://access.redhat.com/security/cve/CVE-2022-29599",
      "ID": "CVE-2022-29599"
    }
  ],
  "Criteria": {
    "Operator": "OR",
    "Criterias": [
      {
        "Operator": "AND",
        "Criterias": [
          {
            "Operator": "OR",
            "Criterias": [
              {
                "Operator": "AND",
                "Criterias": [

                ],
                "Criterions": [
                  {
                    "Comment": "maven-shared-utils is earlier than 0:0.4-4.el7_9"
                  },
                  {
                    "Comment": "maven-shared-utils is signed with Red Hat redhatrelease2 key"
                  }
                ]
              },
              {
                "Operator": "AND",
                "Criterias": [

                ],
                "Criterions": [
                  {
                    "Comment": "maven-shared-utils-javadoc is earlier than 0:0.4-4.el7_9"
                  },
                  {
                    "Comment": "maven-shared-utils-javadoc is signed with Red Hat redhatrelease2 key"
                  }
                ]
              }
            ],
            "Criterions": [

            ]
          }
        ],
        "Criterions": [
          {
            "Comment": "Oracle Linux 7 is installed"
          }
        ]
      }
    ],
    "Criterions": [
      {
        "Comment": "Oracle Linux 7 is installed"
      }
    ]
  },
  "Severity": "Important",
  "Cves": [
    {
      "Impact": "",
      "Href": "",
      "ID": "CVE-2022-29599"
    }
  ],
  "Issued": {
    "Date": "2022-04-26"
  }
}