{
  "Title": "RHSA-2022:7129: git-lfs security and bug fix update (Moderate)",
  "Description": "Git Large File Storage (LFS) replaces large files such as audio samples, videos, datasets, and graphics with text pointers inside Git, while storing the file contents on a remote server.\nSecurity Fix(es):\n* golang.org/x/text: Panic in language.ParseAcceptLanguage while parsing -u- extension (CVE-2020-28851)\n* golang.org/x/text: Panic in language.ParseAcceptLanguage while processing bcp47 tag (CVE-2020-28852)\n* golang: net/http: improper sanitization of Transfer-Encoding header (CVE-2022-1705)\n* golang: net/http: handle server errors after sending GOAWAY (CVE-2022-27664)\n* golang: io/fs: stack exhaustion in Glob (CVE-2022-30630)\n* golang: path/filepath: stack exhaustion in Glob (CVE-2022-30632)\n* golang: encoding/gob: stack exhaustion in Decoder.Decode (CVE-2022-30635)\n* golang: net/http/httputil: NewSingleHostReverseProxy - omit X-Forwarded-For not working (CVE-2022-32148)\n* golang: math/big: decoding big.Float and big.Rat types can panic if the encoded message is too short, potentially allowing a denial of service (CVE-2022-32189)\nFor more details about the security issue(s), including the impact, a CVSS score, acknowledgments, and other related information, refer to the CVE page(s) listed in the References section.\nBug Fix(es):\n* git-lfs needs to be rebuild with golang 1.17.7-1 or above",
  "Platform": [
    "Red Hat Enterprise Linux 8"
  ],
  "References": [
    {
      "Source": "RHSA",
      "URI": "https://access.redhat.com/errata/RHSA-2022:7129",
      "ID": "RHSA-2022:7129"
    },
    {
      "Source": "CVE",
      "URI": "https://access.redhat.com/security/cve/CVE-2020-28851",
      "ID": "CVE-2020-28851"
    },
    {
      "Source": "CVE",
      "URI": "https://access.redhat.com/security/cve/CVE-2020-28852",
      "ID": "CVE-2020-28852"
    },
    {
      "Source": "CVE",
      "URI": "https://access.redhat.com/security/cve/CVE-2022-1705",
      "ID": "CVE-2022-1705"
    },
    {
      "Source": "CVE",
      "URI": "https://access.redhat.com/security/cve/CVE-2022-27664",
      "ID": "CVE-2022-27664"
    },
    {
      "Source": "CVE",
      "URI": "https://access.redhat.com/security/cve/CVE-2022-30630",
      "ID": "CVE-2022-30630"
    },
    {
      "Source": "CVE",
      "URI": "https://access.redhat.com/security/cve/CVE-2022-30632",
      "ID": "CVE-2022-30632"
    },
    {
      "Source": "CVE",
      "URI": "https://access.redhat.com/security/cve/CVE-2022-30635",
      "ID": "CVE-2022-30635"
    },
    {
      "Source": "CVE",
      "URI": "https://access.redhat.com/security/cve/CVE-2022-32148",
      "ID": "CVE-2022-32148"
    },
    {
      "Source": "CVE",
      "URI": "https://access.redhat.com/security/cve/CVE-2022-32189",
      "ID": "CVE-2022-32189"
    }
  ],
  "Criteria": {
    "Operator": "OR",
    "Criterias": [
      {
        "Operator": "AND",
        "Criterias": [
          {
            "Operator": "OR",
            "Criterias": [

            ],
            "Criterions": [
              {
                "Comment": "Oracle Linux 8 is installed"
              },
              {
                "Comment": "Red Hat CoreOS 4 is installed"
              }
            ]
          }
        ],
        "Criterions": [
          {
            "Comment": "git-lfs is earlier than 0:2.13.3-3.el8_6"
          },
          {
            "Comment": "git-lfs is signed with Red Hat redhatrelease2 key"
          }
        ]
      }
    ],
    "Criterions": [
      {
        "Comment": "Oracle Linux 8 is installed"
      }
    ]
  },
  "Severity": "Moderate",
  "Cves": [
    {
      "Impact": "",
      "Href": "",
      "ID": "CVE-2020-28851"
    },
    {
      "Impact": "",
      "Href": "",
      "ID": "CVE-2020-28852"
    },
    {
      "Impact": "",
      "Href": "",
      "ID": "CVE-2022-1705"
    },
    {
      "Impact": "",
      "Href": "",
      "ID": "CVE-2022-27664"
    },
    {
      "Impact": "",
      "Href": "",
      "ID": "CVE-2022-30630"
    },
    {
      "Impact": "",
      "Href": "",
      "ID": "CVE-2022-30632"
    },
    {
      "Impact": "",
      "Href": "",
      "ID": "CVE-2022-30635"
    },
    {
      "Impact": "",
      "Href": "",
      "ID": "CVE-2022-32148"
    },
    {
      "Impact": "",
      "Href": "",
      "ID": "CVE-2022-32189"
    }
  ],
  "Issued": {
    "Date": "2022-10-25"
  }
}