{
  "Title": "RHSA-2022:5257: libinput security update (Moderate)",
  "Description": "libinput is a library that handles input devices for display servers and other applications that need to directly deal with input devices.\nSecurity Fix(es):\n* libinput: format string vulnerability may lead to privilege escalation (CVE-2022-1215)\nFor more details about the security issue(s), including the impact, a CVSS score, acknowledgments, and other related information, refer to the CVE page(s) listed in the References section.",
  "Platform": [
    "Red Hat Enterprise Linux 9"
  ],
  "References": [
    {
      "Source": "RHSA",
      "URI": "https://access.redhat.com/errata/RHSA-2022:5257",
      "ID": "RHSA-2022:5257"
    },
    {
      "Source": "CVE",
      "URI": "https://access.redhat.com/security/cve/CVE-2022-1215",
      "ID": "CVE-2022-1215"
    }
  ],
  "Criteria": {
    "Operator": "OR",
    "Criterias": [
      {
        "Operator": "AND",
        "Criterias": [
          {
            "Operator": "OR",
            "Criterias": [
              {
                "Operator": "AND",
                "Criterias": [

                ],
                "Criterions": [
                  {
                    "Comment": "libinput is earlier than 0:1.19.3-2.el9_0"
                  },
                  {
                    "Comment": "libinput is signed with Red Hat redhatrelease2 key"
                  }
                ]
              },
              {
                "Operator": "AND",
                "Criterias": [

                ],
                "Criterions": [
                  {
                    "Comment": "libinput-devel is earlier than 0:1.19.3-2.el9_0"
                  },
                  {
                    "Comment": "libinput-devel is signed with Red Hat redhatrelease2 key"
                  }
                ]
              },
              {
                "Operator": "AND",
                "Criterias": [

                ],
                "Criterions": [
                  {
                    "Comment": "libinput-utils is earlier than 0:1.19.3-2.el9_0"
                  },
                  {
                    "Comment": "libinput-utils is signed with Red Hat redhatrelease2 key"
                  }
                ]
              }
            ],
            "Criterions": [

            ]
          }
        ],
        "Criterions": [
          {
            "Comment": "Oracle Linux 9 is installed"
          }
        ]
      }
    ],
    "Criterions": [
      {
        "Comment": "Oracle Linux 9 is installed"
      }
    ]
  },
  "Severity": "Moderate",
  "Cves": [
    {
      "Impact": "",
      "Href": "",
      "ID": "CVE-2022-1215"
    }
  ],
  "Issued": {
    "Date": "2022-06-30"
  }
}