{
  "Title": "RHSA-2022:8318: libldb security, bug fix, and enhancement update (Moderate)",
  "Description": "The libldb packages provide an extensible library that implements an LDAP-like API to access remote LDAP servers, or use local TDB databases.\nThe following packages have been upgraded to a later upstream version: libldb (2.5.2). (BZ#2077490)\nSecurity Fix(es):\n* samba: AD users can induce a use-after-free in the server process with an LDAP add or modify request (CVE-2022-32746)\nFor more details about the security issue(s), including the impact, a CVSS score, acknowledgments, and other related information, refer to the CVE page(s) listed in the References section.\nAdditional Changes:\nFor detailed information on changes in this release, see the Red Hat Enterprise Linux 9.1 Release Notes linked from the References section.",
  "Platform": [
    "Red Hat Enterprise Linux 9"
  ],
  "References": [
    {
      "Source": "RHSA",
      "URI": "https://access.redhat.com/errata/RHSA-2022:8318",
      "ID": "RHSA-2022:8318"
    },
    {
      "Source": "CVE",
      "URI": "https://access.redhat.com/security/cve/CVE-2022-32746",
      "ID": "CVE-2022-32746"
    }
  ],
  "Criteria": {
    "Operator": "OR",
    "Criterias": [
      {
        "Operator": "AND",
        "Criterias": [
          {
            "Operator": "OR",
            "Criterias": [
              {
                "Operator": "AND",
                "Criterias": [

                ],
                "Criterions": [
                  {
                    "Comment": "ldb-tools is earlier than 0:2.5.2-1.el9"
                  },
                  {
                    "Comment": "ldb-tools is signed with Red Hat redhatrelease2 key"
                  }
                ]
              },
              {
                "Operator": "AND",
                "Criterias": [

                ],
                "Criterions": [
                  {
                    "Comment": "libldb is earlier than 0:2.5.2-1.el9"
                  },
                  {
                    "Comment": "libldb is signed with Red Hat redhatrelease2 key"
                  }
                ]
              },
              {
                "Operator": "AND",
                "Criterias": [

                ],
                "Criterions": [
                  {
                    "Comment": "libldb-devel is earlier than 0:2.5.2-1.el9"
                  },
                  {
                    "Comment": "libldb-devel is signed with Red Hat redhatrelease2 key"
                  }
                ]
              },
              {
                "Operator": "AND",
                "Criterias": [

                ],
                "Criterions": [
                  {
                    "Comment": "python3-ldb is earlier than 0:2.5.2-1.el9"
                  },
                  {
                    "Comment": "python3-ldb is signed with Red Hat redhatrelease2 key"
                  }
                ]
              }
            ],
            "Criterions": [

            ]
          }
        ],
        "Criterions": [
          {
            "Comment": "Oracle Linux 9 is installed"
          }
        ]
      }
    ],
    "Criterions": [
      {
        "Comment": "Oracle Linux 9 is installed"
      }
    ]
  },
  "Severity": "Moderate",
  "Cves": [
    {
      "Impact": "",
      "Href": "",
      "ID": "CVE-2022-32746"
    }
  ],
  "Issued": {
    "Date": "2022-11-15"
  }
}