{
  "Title": "RHSA-2022:7329: lua security update (Moderate)",
  "Description": "The lua packages provide support for Lua, a powerful light-weight programming language designed for extending applications. Lua is also frequently used as a general-purpose, stand-alone language.\nSecurity Fix(es):\n* lua: heap buffer overflow in luaG_errormsg() in ldebug.c due to uncontrolled recursion in error handling (CVE-2022-33099)\nFor more details about the security issue(s), including the impact, a CVSS score, acknowledgments, and other related information, refer to the CVE page(s) listed in the References section.",
  "Platform": [
    "Red Hat Enterprise Linux 9"
  ],
  "References": [
    {
      "Source": "RHSA",
      "URI": "https://access.redhat.com/errata/RHSA-2022:7329",
      "ID": "RHSA-2022:7329"
    },
    {
      "Source": "CVE",
      "URI": "https://access.redhat.com/security/cve/CVE-2022-33099",
      "ID": "CVE-2022-33099"
    }
  ],
  "Criteria": {
    "Operator": "OR",
    "Criterias": [
      {
        "Operator": "AND",
        "Criterias": [
          {
            "Operator": "OR",
            "Criterias": [
              {
                "Operator": "AND",
                "Criterias": [

                ],
                "Criterions": [
                  {
                    "Comment": "lua is earlier than 0:5.4.2-4.el9_0.3"
                  },
                  {
                    "Comment": "lua is signed with Red Hat redhatrelease2 key"
                  }
                ]
              },
              {
                "Operator": "AND",
                "Criterias": [

                ],
                "Criterions": [
                  {
                    "Comment": "lua-devel is earlier than 0:5.4.2-4.el9_0.3"
                  },
                  {
                    "Comment": "lua-devel is signed with Red Hat redhatrelease2 key"
                  }
                ]
              },
              {
                "Operator": "AND",
                "Criterias": [

                ],
                "Criterions": [
                  {
                    "Comment": "lua-libs is earlier than 0:5.4.2-4.el9_0.3"
                  },
                  {
                    "Comment": "lua-libs is signed with Red Hat redhatrelease2 key"
                  }
                ]
              }
            ],
            "Criterions": [

            ]
          }
        ],
        "Criterions": [
          {
            "Comment": "Oracle Linux 9 is installed"
          }
        ]
      }
    ],
    "Criterions": [
      {
        "Comment": "Oracle Linux 9 is installed"
      }
    ]
  },
  "Severity": "Moderate",
  "Cves": [
    {
      "Impact": "",
      "Href": "",
      "ID": "CVE-2022-33099"
    }
  ],
  "Issued": {
    "Date": "2022-11-02"
  }
}