{
  "Title": "RHSA-2022:7330: kpatch-patch security update (Important)",
  "Description": "This is a kernel live patch module which is automatically loaded by the RPM post-install script to modify the code of a running kernel.\nSecurity Fix(es):\n* posix cpu timer use-after-free may lead to local privilege escalation (CVE-2022-2585)\nFor more details about the security issue(s), including the impact, a CVSS score, acknowledgments, and other related information, refer to the CVE page(s) listed in the References section.",
  "Platform": [
    "Red Hat Enterprise Linux 9"
  ],
  "References": [
    {
      "Source": "RHSA",
      "URI": "https://access.redhat.com/errata/RHSA-2022:7330",
      "ID": "RHSA-2022:7330"
    },
    {
      "Source": "CVE",
      "URI": "https://access.redhat.com/security/cve/CVE-2022-2585",
      "ID": "CVE-2022-2585"
    }
  ],
  "Criteria": {
    "Operator": "OR",
    "Criterias": [
      {
        "Operator": "AND",
        "Criterias": [
          {
            "Operator": "OR",
            "Criterias": [
              {
                "Operator": "AND",
                "Criterias": [
                  {
                    "Operator": "OR",
                    "Criterias": [

                    ],
                    "Criterions": [
                      {
                        "Comment": "kernel version 0:5.14.0-70.13.1.el9_0 is currently running"
                      },
                      {
                        "Comment": "kernel version 0:5.14.0-70.13.1.el9_0 is set to boot up on next boot"
                      }
                    ]
                  },
                  {
                    "Operator": "AND",
                    "Criterias": [
                      {
                        "Operator": "OR",
                        "Criterias": [
                          {
                            "Operator": "AND",
                            "Criterias": [

                            ],
                            "Criterions": [
                              {
                                "Comment": "kpatch-patch-5_14_0-70_13_1 is earlier than 0:1-4.el9_0"
                              },
                              {
                                "Comment": "kpatch-patch-5_14_0-70_13_1 is signed with Red Hat redhatrelease2 key"
                              }
                            ]
                          }
                        ],
                        "Criterions": [
                          {
                            "Comment": "kpatch-patch not installed for 0:5.14.0-70.13.1.el9_0"
                          }
                        ]
                      }
                    ],
                    "Criterions": [
                      {
                        "Comment": "kernel version equals 0:5.14.0-70.13.1.el9_0"
                      },
                      {
                        "Comment": "kernel is signed with Red Hat redhatrelease2 key"
                      }
                    ]
                  }
                ],
                "Criterions": [

                ]
              },
              {
                "Operator": "AND",
                "Criterias": [
                  {
                    "Operator": "OR",
                    "Criterias": [

                    ],
                    "Criterions": [
                      {
                        "Comment": "kernel version 0:5.14.0-70.17.1.el9_0 is currently running"
                      },
                      {
                        "Comment": "kernel version 0:5.14.0-70.17.1.el9_0 is set to boot up on next boot"
                      }
                    ]
                  },
                  {
                    "Operator": "AND",
                    "Criterias": [
                      {
                        "Operator": "OR",
                        "Criterias": [
                          {
                            "Operator": "AND",
                            "Criterias": [

                            ],
                            "Criterions": [
                              {
                                "Comment": "kpatch-patch-5_14_0-70_17_1 is earlier than 0:1-3.el9_0"
                              },
                              {
                                "Comment": "kpatch-patch-5_14_0-70_17_1 is signed with Red Hat redhatrelease2 key"
                              }
                            ]
                          }
                        ],
                        "Criterions": [
                          {
                            "Comment": "kpatch-patch not installed for 0:5.14.0-70.17.1.el9_0"
                          }
                        ]
                      }
                    ],
                    "Criterions": [
                      {
                        "Comment": "kernel version equals 0:5.14.0-70.17.1.el9_0"
                      },
                      {
                        "Comment": "kernel is signed with Red Hat redhatrelease2 key"
                      }
                    ]
                  }
                ],
                "Criterions": [

                ]
              },
              {
                "Operator": "AND",
                "Criterias": [
                  {
                    "Operator": "OR",
                    "Criterias": [

                    ],
                    "Criterions": [
                      {
                        "Comment": "kernel version 0:5.14.0-70.22.1.el9_0 is currently running"
                      },
                      {
                        "Comment": "kernel version 0:5.14.0-70.22.1.el9_0 is set to boot up on next boot"
                      }
                    ]
                  },
                  {
                    "Operator": "AND",
                    "Criterias": [
                      {
                        "Operator": "OR",
                        "Criterias": [
                          {
                            "Operator": "AND",
                            "Criterias": [

                            ],
                            "Criterions": [
                              {
                                "Comment": "kpatch-patch-5_14_0-70_22_1 is earlier than 0:1-3.el9_0"
                              },
                              {
                                "Comment": "kpatch-patch-5_14_0-70_22_1 is signed with Red Hat redhatrelease2 key"
                              }
                            ]
                          }
                        ],
                        "Criterions": [
                          {
                            "Comment": "kpatch-patch not installed for 0:5.14.0-70.22.1.el9_0"
                          }
                        ]
                      }
                    ],
                    "Criterions": [
                      {
                        "Comment": "kernel version equals 0:5.14.0-70.22.1.el9_0"
                      },
                      {
                        "Comment": "kernel is signed with Red Hat redhatrelease2 key"
                      }
                    ]
                  }
                ],
                "Criterions": [

                ]
              },
              {
                "Operator": "AND",
                "Criterias": [
                  {
                    "Operator": "OR",
                    "Criterias": [

                    ],
                    "Criterions": [
                      {
                        "Comment": "kernel version 0:5.14.0-70.26.1.el9_0 is currently running"
                      },
                      {
                        "Comment": "kernel version 0:5.14.0-70.26.1.el9_0 is set to boot up on next boot"
                      }
                    ]
                  },
                  {
                    "Operator": "AND",
                    "Criterias": [
                      {
                        "Operator": "OR",
                        "Criterias": [
                          {
                            "Operator": "AND",
                            "Criterias": [

                            ],
                            "Criterions": [
                              {
                                "Comment": "kpatch-patch-5_14_0-70_26_1 is earlier than 0:1-2.el9_0"
                              },
                              {
                                "Comment": "kpatch-patch-5_14_0-70_26_1 is signed with Red Hat redhatrelease2 key"
                              }
                            ]
                          }
                        ],
                        "Criterions": [
                          {
                            "Comment": "kpatch-patch not installed for 0:5.14.0-70.26.1.el9_0"
                          }
                        ]
                      }
                    ],
                    "Criterions": [
                      {
                        "Comment": "kernel version equals 0:5.14.0-70.26.1.el9_0"
                      },
                      {
                        "Comment": "kernel is signed with Red Hat redhatrelease2 key"
                      }
                    ]
                  }
                ],
                "Criterions": [

                ]
              }
            ],
            "Criterions": [

            ]
          }
        ],
        "Criterions": [
          {
            "Comment": "Oracle Linux 9 is installed"
          }
        ]
      }
    ],
    "Criterions": [
      {
        "Comment": "Oracle Linux 9 is installed"
      }
    ]
  },
  "Severity": "Important",
  "Cves": [
    {
      "Impact": "",
      "Href": "",
      "ID": "CVE-2022-2585"
    }
  ],
  "Issued": {
    "Date": "2022-11-02"
  }
}