{
  "Title": "RHSA-2022:5263: qemu-kvm security and bug fix update (Moderate)",
  "Description": "Kernel-based Virtual Machine (KVM) is a full virtualization solution for Linux on a variety of architectures. The qemu-kvm packages provide the user-space component for running virtual machines that use KVM.\nSecurity Fix(es):\n* QEMU: virtio-net: map leaking on error during receive (CVE-2022-26353)\n* QEMU: vhost-vsock: missing virtqueue detach on error can lead to memory leak (CVE-2022-26354)\nFor more details about the security issue(s), including the impact, a CVSS score, acknowledgments, and other related information, refer to the CVE page(s) listed in the References section.\nBug Fix(es):\n* RHEL 9.0 guest with vsock device migration failed from RHEL 9.0 > RHEL 8.6 (BZ#2071102)",
  "Platform": [
    "Red Hat Enterprise Linux 9"
  ],
  "References": [
    {
      "Source": "RHSA",
      "URI": "https://access.redhat.com/errata/RHSA-2022:5263",
      "ID": "RHSA-2022:5263"
    },
    {
      "Source": "CVE",
      "URI": "https://access.redhat.com/security/cve/CVE-2022-26353",
      "ID": "CVE-2022-26353"
    },
    {
      "Source": "CVE",
      "URI": "https://access.redhat.com/security/cve/CVE-2022-26354",
      "ID": "CVE-2022-26354"
    }
  ],
  "Criteria": {
    "Operator": "OR",
    "Criterias": [
      {
        "Operator": "AND",
        "Criterias": [
          {
            "Operator": "OR",
            "Criterias": [
              {
                "Operator": "AND",
                "Criterias": [

                ],
                "Criterions": [
                  {
                    "Comment": "qemu-guest-agent is earlier than 17:6.2.0-11.el9_0.3"
                  },
                  {
                    "Comment": "qemu-guest-agent is signed with Red Hat redhatrelease2 key"
                  }
                ]
              },
              {
                "Operator": "AND",
                "Criterias": [

                ],
                "Criterions": [
                  {
                    "Comment": "qemu-img is earlier than 17:6.2.0-11.el9_0.3"
                  },
                  {
                    "Comment": "qemu-img is signed with Red Hat redhatrelease2 key"
                  }
                ]
              },
              {
                "Operator": "AND",
                "Criterias": [

                ],
                "Criterions": [
                  {
                    "Comment": "qemu-kvm is earlier than 17:6.2.0-11.el9_0.3"
                  },
                  {
                    "Comment": "qemu-kvm is signed with Red Hat redhatrelease2 key"
                  }
                ]
              },
              {
                "Operator": "AND",
                "Criterias": [

                ],
                "Criterions": [
                  {
                    "Comment": "qemu-kvm-audio-pa is earlier than 17:6.2.0-11.el9_0.3"
                  },
                  {
                    "Comment": "qemu-kvm-audio-pa is signed with Red Hat redhatrelease2 key"
                  }
                ]
              },
              {
                "Operator": "AND",
                "Criterias": [

                ],
                "Criterions": [
                  {
                    "Comment": "qemu-kvm-block-curl is earlier than 17:6.2.0-11.el9_0.3"
                  },
                  {
                    "Comment": "qemu-kvm-block-curl is signed with Red Hat redhatrelease2 key"
                  }
                ]
              },
              {
                "Operator": "AND",
                "Criterias": [

                ],
                "Criterions": [
                  {
                    "Comment": "qemu-kvm-block-rbd is earlier than 17:6.2.0-11.el9_0.3"
                  },
                  {
                    "Comment": "qemu-kvm-block-rbd is signed with Red Hat redhatrelease2 key"
                  }
                ]
              },
              {
                "Operator": "AND",
                "Criterias": [

                ],
                "Criterions": [
                  {
                    "Comment": "qemu-kvm-common is earlier than 17:6.2.0-11.el9_0.3"
                  },
                  {
                    "Comment": "qemu-kvm-common is signed with Red Hat redhatrelease2 key"
                  }
                ]
              },
              {
                "Operator": "AND",
                "Criterias": [

                ],
                "Criterions": [
                  {
                    "Comment": "qemu-kvm-core is earlier than 17:6.2.0-11.el9_0.3"
                  },
                  {
                    "Comment": "qemu-kvm-core is signed with Red Hat redhatrelease2 key"
                  }
                ]
              },
              {
                "Operator": "AND",
                "Criterias": [

                ],
                "Criterions": [
                  {
                    "Comment": "qemu-kvm-device-display-virtio-gpu is earlier than 17:6.2.0-11.el9_0.3"
                  },
                  {
                    "Comment": "qemu-kvm-device-display-virtio-gpu is signed with Red Hat redhatrelease2 key"
                  }
                ]
              },
              {
                "Operator": "AND",
                "Criterias": [

                ],
                "Criterions": [
                  {
                    "Comment": "qemu-kvm-device-display-virtio-gpu-ccw is earlier than 17:6.2.0-11.el9_0.3"
                  },
                  {
                    "Comment": "qemu-kvm-device-display-virtio-gpu-ccw is signed with Red Hat redhatrelease2 key"
                  }
                ]
              },
              {
                "Operator": "AND",
                "Criterias": [

                ],
                "Criterions": [
                  {
                    "Comment": "qemu-kvm-device-display-virtio-gpu-gl is earlier than 17:6.2.0-11.el9_0.3"
                  },
                  {
                    "Comment": "qemu-kvm-device-display-virtio-gpu-gl is signed with Red Hat redhatrelease2 key"
                  }
                ]
              },
              {
                "Operator": "AND",
                "Criterias": [

                ],
                "Criterions": [
                  {
                    "Comment": "qemu-kvm-device-display-virtio-gpu-pci is earlier than 17:6.2.0-11.el9_0.3"
                  },
                  {
                    "Comment": "qemu-kvm-device-display-virtio-gpu-pci is signed with Red Hat redhatrelease2 key"
                  }
                ]
              },
              {
                "Operator": "AND",
                "Criterias": [

                ],
                "Criterions": [
                  {
                    "Comment": "qemu-kvm-device-display-virtio-gpu-pci-gl is earlier than 17:6.2.0-11.el9_0.3"
                  },
                  {
                    "Comment": "qemu-kvm-device-display-virtio-gpu-pci-gl is signed with Red Hat redhatrelease2 key"
                  }
                ]
              },
              {
                "Operator": "AND",
                "Criterias": [

                ],
                "Criterions": [
                  {
                    "Comment": "qemu-kvm-device-display-virtio-vga is earlier than 17:6.2.0-11.el9_0.3"
                  },
                  {
                    "Comment": "qemu-kvm-device-display-virtio-vga is signed with Red Hat redhatrelease2 key"
                  }
                ]
              },
              {
                "Operator": "AND",
                "Criterias": [

                ],
                "Criterions": [
                  {
                    "Comment": "qemu-kvm-device-display-virtio-vga-gl is earlier than 17:6.2.0-11.el9_0.3"
                  },
                  {
                    "Comment": "qemu-kvm-device-display-virtio-vga-gl is signed with Red Hat redhatrelease2 key"
                  }
                ]
              },
              {
                "Operator": "AND",
                "Criterias": [

                ],
                "Criterions": [
                  {
                    "Comment": "qemu-kvm-device-usb-host is earlier than 17:6.2.0-11.el9_0.3"
                  },
                  {
                    "Comment": "qemu-kvm-device-usb-host is signed with Red Hat redhatrelease2 key"
                  }
                ]
              },
              {
                "Operator": "AND",
                "Criterias": [

                ],
                "Criterions": [
                  {
                    "Comment": "qemu-kvm-device-usb-redirect is earlier than 17:6.2.0-11.el9_0.3"
                  },
                  {
                    "Comment": "qemu-kvm-device-usb-redirect is signed with Red Hat redhatrelease2 key"
                  }
                ]
              },
              {
                "Operator": "AND",
                "Criterias": [

                ],
                "Criterions": [
                  {
                    "Comment": "qemu-kvm-docs is earlier than 17:6.2.0-11.el9_0.3"
                  },
                  {
                    "Comment": "qemu-kvm-docs is signed with Red Hat redhatrelease2 key"
                  }
                ]
              },
              {
                "Operator": "AND",
                "Criterias": [

                ],
                "Criterions": [
                  {
                    "Comment": "qemu-kvm-tools is earlier than 17:6.2.0-11.el9_0.3"
                  },
                  {
                    "Comment": "qemu-kvm-tools is signed with Red Hat redhatrelease2 key"
                  }
                ]
              },
              {
                "Operator": "AND",
                "Criterias": [

                ],
                "Criterions": [
                  {
                    "Comment": "qemu-kvm-ui-egl-headless is earlier than 17:6.2.0-11.el9_0.3"
                  },
                  {
                    "Comment": "qemu-kvm-ui-egl-headless is signed with Red Hat redhatrelease2 key"
                  }
                ]
              },
              {
                "Operator": "AND",
                "Criterias": [

                ],
                "Criterions": [
                  {
                    "Comment": "qemu-kvm-ui-opengl is earlier than 17:6.2.0-11.el9_0.3"
                  },
                  {
                    "Comment": "qemu-kvm-ui-opengl is signed with Red Hat redhatrelease2 key"
                  }
                ]
              },
              {
                "Operator": "AND",
                "Criterias": [

                ],
                "Criterions": [
                  {
                    "Comment": "qemu-pr-helper is earlier than 17:6.2.0-11.el9_0.3"
                  },
                  {
                    "Comment": "qemu-pr-helper is signed with Red Hat redhatrelease2 key"
                  }
                ]
              }
            ],
            "Criterions": [

            ]
          }
        ],
        "Criterions": [
          {
            "Comment": "Oracle Linux 9 is installed"
          }
        ]
      }
    ],
    "Criterions": [
      {
        "Comment": "Oracle Linux 9 is installed"
      }
    ]
  },
  "Severity": "Moderate",
  "Cves": [
    {
      "Impact": "",
      "Href": "",
      "ID": "CVE-2022-26353"
    },
    {
      "Impact": "",
      "Href": "",
      "ID": "CVE-2022-26354"
    }
  ],
  "Issued": {
    "Date": "2022-07-01"
  }
}