{
  "Title": "RHSA-2022:4765: firefox security update (Critical)",
  "Description": "Mozilla Firefox is an open-source web browser, designed for standards compliance, performance, and portability.\nThis update upgrades Firefox to version 91.9.1 ESR.\nSecurity Fix(es):\n* Mozilla: Untrusted input used in JavaScript object indexing, leading to prototype pollution (CVE-2022-1529)\n* Mozilla: Prototype pollution in Top-Level Await implementation (CVE-2022-1802)\nFor more details about the security issue(s), including the impact, a CVSS score, acknowledgments, and other related information, refer to the CVE page(s) listed in the References section.",
  "Platform": [
    "Red Hat Enterprise Linux 9"
  ],
  "References": [
    {
      "Source": "RHSA",
      "URI": "https://access.redhat.com/errata/RHSA-2022:4765",
      "ID": "RHSA-2022:4765"
    },
    {
      "Source": "CVE",
      "URI": "https://access.redhat.com/security/cve/CVE-2022-1529",
      "ID": "CVE-2022-1529"
    },
    {
      "Source": "CVE",
      "URI": "https://access.redhat.com/security/cve/CVE-2022-1802",
      "ID": "CVE-2022-1802"
    }
  ],
  "Criteria": {
    "Operator": "OR",
    "Criterias": [
      {
        "Operator": "AND",
        "Criterias": [

        ],
        "Criterions": [
          {
            "Comment": "Oracle Linux 9 is installed"
          },
          {
            "Comment": "firefox is earlier than 0:91.9.1-1.el9_0"
          },
          {
            "Comment": "firefox is signed with Red Hat redhatrelease2 key"
          }
        ]
      }
    ],
    "Criterions": [
      {
        "Comment": "Oracle Linux 9 is installed"
      }
    ]
  },
  "Severity": "Critical",
  "Cves": [
    {
      "Impact": "",
      "Href": "",
      "ID": "CVE-2022-1529"
    },
    {
      "Impact": "",
      "Href": "",
      "ID": "CVE-2022-1802"
    }
  ],
  "Issued": {
    "Date": "2022-05-27"
  }
}