{
  "Title": "RHSA-2022:4940: xz security update (Important)",
  "Description": "XZ Utils is an integrated collection of user-space file compression utilities based on the Lempel-Ziv-Markov chain algorithm (LZMA), which performs lossless data compression. The algorithm provides a high compression ratio while keeping the decompression time short.\nSecurity Fix(es):\n* gzip: arbitrary-file-write vulnerability (CVE-2022-1271)\nFor more details about the security issue(s), including the impact, a CVSS score, acknowledgments, and other related information, refer to the CVE page(s) listed in the References section.",
  "Platform": [
    "Red Hat Enterprise Linux 9"
  ],
  "References": [
    {
      "Source": "RHSA",
      "URI": "https://access.redhat.com/errata/RHSA-2022:4940",
      "ID": "RHSA-2022:4940"
    },
    {
      "Source": "CVE",
      "URI": "https://access.redhat.com/security/cve/CVE-2022-1271",
      "ID": "CVE-2022-1271"
    }
  ],
  "Criteria": {
    "Operator": "OR",
    "Criterias": [
      {
        "Operator": "AND",
        "Criterias": [
          {
            "Operator": "OR",
            "Criterias": [
              {
                "Operator": "AND",
                "Criterias": [

                ],
                "Criterions": [
                  {
                    "Comment": "xz is earlier than 0:5.2.5-8.el9_0"
                  },
                  {
                    "Comment": "xz is signed with Red Hat redhatrelease2 key"
                  }
                ]
              },
              {
                "Operator": "AND",
                "Criterias": [

                ],
                "Criterions": [
                  {
                    "Comment": "xz-devel is earlier than 0:5.2.5-8.el9_0"
                  },
                  {
                    "Comment": "xz-devel is signed with Red Hat redhatrelease2 key"
                  }
                ]
              },
              {
                "Operator": "AND",
                "Criterias": [

                ],
                "Criterions": [
                  {
                    "Comment": "xz-libs is earlier than 0:5.2.5-8.el9_0"
                  },
                  {
                    "Comment": "xz-libs is signed with Red Hat redhatrelease2 key"
                  }
                ]
              },
              {
                "Operator": "AND",
                "Criterias": [

                ],
                "Criterions": [
                  {
                    "Comment": "xz-lzma-compat is earlier than 0:5.2.5-8.el9_0"
                  },
                  {
                    "Comment": "xz-lzma-compat is signed with Red Hat redhatrelease2 key"
                  }
                ]
              }
            ],
            "Criterions": [

            ]
          }
        ],
        "Criterions": [
          {
            "Comment": "Oracle Linux 9 is installed"
          }
        ]
      }
    ],
    "Criterions": [
      {
        "Comment": "Oracle Linux 9 is installed"
      }
    ]
  },
  "Severity": "Important",
  "Cves": [
    {
      "Impact": "",
      "Href": "",
      "ID": "CVE-2022-1271"
    }
  ],
  "Issued": {
    "Date": "2022-06-08"
  }
}