{
  "Title": "RHSA-2022:8098: toolbox security and bug fix update (Moderate)",
  "Description": "Toolbox is a tool for Linux operating systems, which allows the use of containerized command line environments. It is built on top of Podman and other standard container technologies from OCI.\nSecurity Fix(es):\n* golang: net/http: improper sanitization of Transfer-Encoding header (CVE-2022-1705)\n* golang: io/fs: stack exhaustion in Glob (CVE-2022-30630)\n* golang: compress/gzip: stack exhaustion in Reader.Read (CVE-2022-30631)\n* golang: path/filepath: stack exhaustion in Glob (CVE-2022-30632)\nFor more details about the security issue(s), including the impact, a CVSS score, acknowledgments, and other related information, refer to the CVE page(s) listed in the References section.\nAdditional Changes:\nFor detailed information on changes in this release, see the Red Hat Enterprise Linux 9.1 Release Notes linked from the References section.",
  "Platform": [
    "Red Hat Enterprise Linux 9"
  ],
  "References": [
    {
      "Source": "RHSA",
      "URI": "https://access.redhat.com/errata/RHSA-2022:8098",
      "ID": "RHSA-2022:8098"
    },
    {
      "Source": "CVE",
      "URI": "https://access.redhat.com/security/cve/CVE-2022-1705",
      "ID": "CVE-2022-1705"
    },
    {
      "Source": "CVE",
      "URI": "https://access.redhat.com/security/cve/CVE-2022-30630",
      "ID": "CVE-2022-30630"
    },
    {
      "Source": "CVE",
      "URI": "https://access.redhat.com/security/cve/CVE-2022-30631",
      "ID": "CVE-2022-30631"
    },
    {
      "Source": "CVE",
      "URI": "https://access.redhat.com/security/cve/CVE-2022-30632",
      "ID": "CVE-2022-30632"
    }
  ],
  "Criteria": {
    "Operator": "OR",
    "Criterias": [
      {
        "Operator": "AND",
        "Criterias": [
          {
            "Operator": "OR",
            "Criterias": [
              {
                "Operator": "AND",
                "Criterias": [

                ],
                "Criterions": [
                  {
                    "Comment": "toolbox is earlier than 0:0.0.99.3-5.el9"
                  },
                  {
                    "Comment": "toolbox is signed with Red Hat redhatrelease2 key"
                  }
                ]
              },
              {
                "Operator": "AND",
                "Criterias": [

                ],
                "Criterions": [
                  {
                    "Comment": "toolbox-tests is earlier than 0:0.0.99.3-5.el9"
                  },
                  {
                    "Comment": "toolbox-tests is signed with Red Hat redhatrelease2 key"
                  }
                ]
              }
            ],
            "Criterions": [

            ]
          }
        ],
        "Criterions": [
          {
            "Comment": "Oracle Linux 9 is installed"
          }
        ]
      }
    ],
    "Criterions": [
      {
        "Comment": "Oracle Linux 9 is installed"
      }
    ]
  },
  "Severity": "Moderate",
  "Cves": [
    {
      "Impact": "",
      "Href": "",
      "ID": "CVE-2022-1705"
    },
    {
      "Impact": "",
      "Href": "",
      "ID": "CVE-2022-30630"
    },
    {
      "Impact": "",
      "Href": "",
      "ID": "CVE-2022-30631"
    },
    {
      "Impact": "",
      "Href": "",
      "ID": "CVE-2022-30632"
    }
  ],
  "Issued": {
    "Date": "2022-11-15"
  }
}