{
  "Title": "RHSA-2022:5219: kpatch-patch security update (Important)",
  "Description": "This is a kernel live patch module which is automatically loaded by the RPM post-install script to modify the code of a running kernel.\nSecurity Fix(es):\n* kernel: buffer overflow in IPsec ESP transformation code (CVE-2022-27666)\nFor more details about the security issue(s), including the impact, a CVSS score, acknowledgments, and other related information, refer to the CVE page(s) listed in the References section.",
  "Platform": [
    "Red Hat Enterprise Linux 8"
  ],
  "References": [
    {
      "Source": "RHSA",
      "URI": "https://access.redhat.com/errata/RHSA-2022:5219",
      "ID": "RHSA-2022:5219"
    },
    {
      "Source": "CVE",
      "URI": "https://access.redhat.com/security/cve/CVE-2022-27666",
      "ID": "CVE-2022-27666"
    }
  ],
  "Criteria": {
    "Operator": "OR",
    "Criterias": [
      {
        "Operator": "AND",
        "Criterias": [
          {
            "Operator": "OR",
            "Criterias": [

            ],
            "Criterions": [
              {
                "Comment": "Oracle Linux 8 is installed"
              },
              {
                "Comment": "Red Hat CoreOS 4 is installed"
              }
            ]
          },
          {
            "Operator": "OR",
            "Criterias": [

            ],
            "Criterions": [
              {
                "Comment": "kernel version 0:4.18.0-372.9.1.el8 is currently running"
              },
              {
                "Comment": "kernel version 0:4.18.0-372.9.1.el8 is set to boot up on next boot"
              }
            ]
          },
          {
            "Operator": "AND",
            "Criterias": [
              {
                "Operator": "OR",
                "Criterias": [
                  {
                    "Operator": "AND",
                    "Criterias": [

                    ],
                    "Criterions": [
                      {
                        "Comment": "kpatch-patch-4_18_0-372_9_1 is earlier than 0:1-1.el8"
                      },
                      {
                        "Comment": "kpatch-patch-4_18_0-372_9_1 is signed with Red Hat redhatrelease2 key"
                      }
                    ]
                  }
                ],
                "Criterions": [
                  {
                    "Comment": "kpatch-patch not installed for 0:4.18.0-372.9.1.el8"
                  }
                ]
              }
            ],
            "Criterions": [
              {
                "Comment": "kernel version equals 0:4.18.0-372.9.1.el8"
              },
              {
                "Comment": "kernel is signed with Red Hat redhatrelease2 key"
              }
            ]
          }
        ],
        "Criterions": [

        ]
      }
    ],
    "Criterions": [
      {
        "Comment": "Oracle Linux 8 is installed"
      }
    ]
  },
  "Severity": "Important",
  "Cves": [
    {
      "Impact": "",
      "Href": "",
      "ID": "CVE-2022-27666"
    }
  ],
  "Issued": {
    "Date": "2022-06-28"
  }
}