{
  "Title": "RHSA-2022:8112: frr security, bug fix, and enhancement update (Moderate)",
  "Description": "FRRouting is free software that manages TCP/IP based routing protocols. It supports BGP4, OSPFv2, OSPFv3, ISIS, RIP, RIPng, PIM, NHRP, PBR, EIGRP and BFD. \nThe following packages have been upgraded to a later upstream version: frr (8.2.2). (BZ#2069563)\nSecurity Fix(es):\n* frrouting: overflow bugs in unpack_tlv_router_cap (CVE-2022-26125)\nFor more details about the security issue(s), including the impact, a CVSS score, acknowledgments, and other related information, refer to the CVE page(s) listed in the References section.\nAdditional Changes:\nFor detailed information on changes in this release, see the Red Hat Enterprise Linux 9.1 Release Notes linked from the References section.",
  "Platform": [
    "Red Hat Enterprise Linux 9"
  ],
  "References": [
    {
      "Source": "RHSA",
      "URI": "https://access.redhat.com/errata/RHSA-2022:8112",
      "ID": "RHSA-2022:8112"
    },
    {
      "Source": "CVE",
      "URI": "https://access.redhat.com/security/cve/CVE-2022-26125",
      "ID": "CVE-2022-26125"
    }
  ],
  "Criteria": {
    "Operator": "OR",
    "Criterias": [
      {
        "Operator": "AND",
        "Criterias": [

        ],
        "Criterions": [
          {
            "Comment": "Oracle Linux 9 is installed"
          },
          {
            "Comment": "frr is earlier than 0:8.2.2-4.el9"
          },
          {
            "Comment": "frr is signed with Red Hat redhatrelease2 key"
          }
        ]
      }
    ],
    "Criterions": [
      {
        "Comment": "Oracle Linux 9 is installed"
      }
    ]
  },
  "Severity": "Moderate",
  "Cves": [
    {
      "Impact": "",
      "Href": "",
      "ID": "CVE-2022-26125"
    }
  ],
  "Issued": {
    "Date": "2022-11-15"
  }
}