{
  "Title": "RHSA-2022:8552: firefox security update (Important)",
  "Description": "Mozilla Firefox is an open-source web browser, designed for standards compliance, performance, and portability.\nThis update upgrades Firefox to version 102.5.0 ESR.\nSecurity Fix(es):\n* Mozilla: Service Workers might have learned size of cross-origin media files (CVE-2022-45403)\n* Mozilla: Fullscreen notification bypass (CVE-2022-45404)\n* Mozilla: Use-after-free in InputStream implementation (CVE-2022-45405)\n* Mozilla: Use-after-free of a JavaScript Realm (CVE-2022-45406)\n* Mozilla: Fullscreen notification bypass via windowName (CVE-2022-45408)\n* Mozilla: Use-after-free in Garbage Collection (CVE-2022-45409)\n* Mozilla: Memory safety bugs fixed in Firefox 107 and Firefox ESR 102.5 (CVE-2022-45421)\n* Mozilla: ServiceWorker-intercepted requests bypassed SameSite cookie policy (CVE-2022-45410)\n* Mozilla: Cross-Site Tracing was possible via non-standard override headers (CVE-2022-45411)\n* Mozilla: Symlinks may resolve to partially uninitialized buffers (CVE-2022-45412)\n* Mozilla: Keystroke Side-Channel Leakage (CVE-2022-45416)\n* Mozilla: Custom mouse cursor could have been drawn over browser UI (CVE-2022-45418)\n* Mozilla: Iframe contents could be rendered outside the iframe (CVE-2022-45420)\nFor more details about the security issue(s), including the impact, a CVSS score, acknowledgments, and other related information, refer to the CVE page(s) listed in the References section.",
  "Platform": [
    "Red Hat Enterprise Linux 7"
  ],
  "References": [
    {
      "Source": "RHSA",
      "URI": "https://access.redhat.com/errata/RHSA-2022:8552",
      "ID": "RHSA-2022:8552"
    },
    {
      "Source": "CVE",
      "URI": "https://access.redhat.com/security/cve/CVE-2022-45403",
      "ID": "CVE-2022-45403"
    },
    {
      "Source": "CVE",
      "URI": "https://access.redhat.com/security/cve/CVE-2022-45404",
      "ID": "CVE-2022-45404"
    },
    {
      "Source": "CVE",
      "URI": "https://access.redhat.com/security/cve/CVE-2022-45405",
      "ID": "CVE-2022-45405"
    },
    {
      "Source": "CVE",
      "URI": "https://access.redhat.com/security/cve/CVE-2022-45406",
      "ID": "CVE-2022-45406"
    },
    {
      "Source": "CVE",
      "URI": "https://access.redhat.com/security/cve/CVE-2022-45408",
      "ID": "CVE-2022-45408"
    },
    {
      "Source": "CVE",
      "URI": "https://access.redhat.com/security/cve/CVE-2022-45409",
      "ID": "CVE-2022-45409"
    },
    {
      "Source": "CVE",
      "URI": "https://access.redhat.com/security/cve/CVE-2022-45410",
      "ID": "CVE-2022-45410"
    },
    {
      "Source": "CVE",
      "URI": "https://access.redhat.com/security/cve/CVE-2022-45411",
      "ID": "CVE-2022-45411"
    },
    {
      "Source": "CVE",
      "URI": "https://access.redhat.com/security/cve/CVE-2022-45412",
      "ID": "CVE-2022-45412"
    },
    {
      "Source": "CVE",
      "URI": "https://access.redhat.com/security/cve/CVE-2022-45416",
      "ID": "CVE-2022-45416"
    },
    {
      "Source": "CVE",
      "URI": "https://access.redhat.com/security/cve/CVE-2022-45418",
      "ID": "CVE-2022-45418"
    },
    {
      "Source": "CVE",
      "URI": "https://access.redhat.com/security/cve/CVE-2022-45420",
      "ID": "CVE-2022-45420"
    },
    {
      "Source": "CVE",
      "URI": "https://access.redhat.com/security/cve/CVE-2022-45421",
      "ID": "CVE-2022-45421"
    }
  ],
  "Criteria": {
    "Operator": "OR",
    "Criterias": [
      {
        "Operator": "AND",
        "Criterias": [

        ],
        "Criterions": [
          {
            "Comment": "Oracle Linux 7 is installed"
          },
          {
            "Comment": "firefox is earlier than 0:102.5.0-1.el7_9"
          },
          {
            "Comment": "firefox is signed with Red Hat redhatrelease2 key"
          }
        ]
      }
    ],
    "Criterions": [
      {
        "Comment": "Oracle Linux 7 is installed"
      }
    ]
  },
  "Severity": "Important",
  "Cves": [
    {
      "Impact": "",
      "Href": "",
      "ID": "CVE-2022-45403"
    },
    {
      "Impact": "",
      "Href": "",
      "ID": "CVE-2022-45404"
    },
    {
      "Impact": "",
      "Href": "",
      "ID": "CVE-2022-45405"
    },
    {
      "Impact": "",
      "Href": "",
      "ID": "CVE-2022-45406"
    },
    {
      "Impact": "",
      "Href": "",
      "ID": "CVE-2022-45408"
    },
    {
      "Impact": "",
      "Href": "",
      "ID": "CVE-2022-45409"
    },
    {
      "Impact": "",
      "Href": "",
      "ID": "CVE-2022-45410"
    },
    {
      "Impact": "",
      "Href": "",
      "ID": "CVE-2022-45411"
    },
    {
      "Impact": "",
      "Href": "",
      "ID": "CVE-2022-45412"
    },
    {
      "Impact": "",
      "Href": "",
      "ID": "CVE-2022-45416"
    },
    {
      "Impact": "",
      "Href": "",
      "ID": "CVE-2022-45418"
    },
    {
      "Impact": "",
      "Href": "",
      "ID": "CVE-2022-45420"
    },
    {
      "Impact": "",
      "Href": "",
      "ID": "CVE-2022-45421"
    }
  ],
  "Issued": {
    "Date": "2022-11-21"
  }
}