{
  "Title": "RHSA-2022:6449: nodejs:16 security and bug fix update (Moderate)",
  "Description": "Node.js is a software development platform for building fast and scalable network applications in the JavaScript programming language. \nSecurity Fix(es):\n* nodejs-ansi-regex: Regular expression denial of service (ReDoS) matching ANSI escape codes (CVE-2021-3807)\n* nodejs: DNS rebinding in --inspect via invalid IP addresses (CVE-2022-32212)\n* nodejs: HTTP request smuggling due to flawed parsing of Transfer-Encoding (CVE-2022-32213)\n* nodejs: HTTP request smuggling due to improper delimiting of header fields (CVE-2022-32214)\n* nodejs: HTTP request smuggling due to incorrect parsing of multi-line Transfer-Encoding (CVE-2022-32215)\n* got: missing verification of requested URLs allows redirects to UNIX sockets (CVE-2022-33987)\nFor more details about the security issue(s), including the impact, a CVSS score, acknowledgments, and other related information, refer to the CVE page(s) listed in the References section.\nBug Fix(es):\n* nodejs:16/nodejs: rebase to latest upstream release (BZ#2106369)\n* nodejs:16/nodejs: Specify --with-default-icu-data-dir when using bootstrap build (BZ#2111416)",
  "Platform": [
    "Red Hat Enterprise Linux 8"
  ],
  "References": [
    {
      "Source": "RHSA",
      "URI": "https://access.redhat.com/errata/RHSA-2022:6449",
      "ID": "RHSA-2022:6449"
    },
    {
      "Source": "CVE",
      "URI": "https://access.redhat.com/security/cve/CVE-2021-3807",
      "ID": "CVE-2021-3807"
    },
    {
      "Source": "CVE",
      "URI": "https://access.redhat.com/security/cve/CVE-2022-32212",
      "ID": "CVE-2022-32212"
    },
    {
      "Source": "CVE",
      "URI": "https://access.redhat.com/security/cve/CVE-2022-32213",
      "ID": "CVE-2022-32213"
    },
    {
      "Source": "CVE",
      "URI": "https://access.redhat.com/security/cve/CVE-2022-32214",
      "ID": "CVE-2022-32214"
    },
    {
      "Source": "CVE",
      "URI": "https://access.redhat.com/security/cve/CVE-2022-32215",
      "ID": "CVE-2022-32215"
    },
    {
      "Source": "CVE",
      "URI": "https://access.redhat.com/security/cve/CVE-2022-33987",
      "ID": "CVE-2022-33987"
    }
  ],
  "Criteria": {
    "Operator": "OR",
    "Criterias": [
      {
        "Operator": "AND",
        "Criterias": [
          {
            "Operator": "OR",
            "Criterias": [

            ],
            "Criterions": [
              {
                "Comment": "Oracle Linux 8 is installed"
              },
              {
                "Comment": "Red Hat CoreOS 4 is installed"
              }
            ]
          },
          {
            "Operator": "OR",
            "Criterias": [
              {
                "Operator": "AND",
                "Criterias": [
                  {
                    "Operator": "OR",
                    "Criterias": [
                      {
                        "Operator": "AND",
                        "Criterias": [

                        ],
                        "Criterions": [
                          {
                            "Comment": "nodejs is earlier than 1:16.16.0-3.module+el8.6.0+16248+76b0e185"
                          },
                          {
                            "Comment": "nodejs is signed with Red Hat redhatrelease2 key"
                          }
                        ]
                      },
                      {
                        "Operator": "AND",
                        "Criterias": [

                        ],
                        "Criterions": [
                          {
                            "Comment": "nodejs-devel is earlier than 1:16.16.0-3.module+el8.6.0+16248+76b0e185"
                          },
                          {
                            "Comment": "nodejs-devel is signed with Red Hat redhatrelease2 key"
                          }
                        ]
                      },
                      {
                        "Operator": "AND",
                        "Criterias": [

                        ],
                        "Criterions": [
                          {
                            "Comment": "nodejs-docs is earlier than 1:16.16.0-3.module+el8.6.0+16248+76b0e185"
                          },
                          {
                            "Comment": "nodejs-docs is signed with Red Hat redhatrelease2 key"
                          }
                        ]
                      },
                      {
                        "Operator": "AND",
                        "Criterias": [

                        ],
                        "Criterions": [
                          {
                            "Comment": "nodejs-full-i18n is earlier than 1:16.16.0-3.module+el8.6.0+16248+76b0e185"
                          },
                          {
                            "Comment": "nodejs-full-i18n is signed with Red Hat redhatrelease2 key"
                          }
                        ]
                      },
                      {
                        "Operator": "AND",
                        "Criterias": [

                        ],
                        "Criterions": [
                          {
                            "Comment": "nodejs-nodemon is earlier than 0:2.0.19-2.module+el8.6.0+16240+7ca51420"
                          },
                          {
                            "Comment": "nodejs-nodemon is signed with Red Hat redhatrelease2 key"
                          }
                        ]
                      },
                      {
                        "Operator": "AND",
                        "Criterias": [

                        ],
                        "Criterions": [
                          {
                            "Comment": "nodejs-packaging is earlier than 0:25-1.module+el8.5.0+10992+fac5fe06"
                          },
                          {
                            "Comment": "nodejs-packaging is signed with Red Hat redhatrelease2 key"
                          }
                        ]
                      },
                      {
                        "Operator": "AND",
                        "Criterias": [

                        ],
                        "Criterions": [
                          {
                            "Comment": "npm is earlier than 1:8.11.0-1.16.16.0.3.module+el8.6.0+16248+76b0e185"
                          },
                          {
                            "Comment": "npm is signed with Red Hat redhatrelease2 key"
                          }
                        ]
                      }
                    ],
                    "Criterions": [

                    ]
                  }
                ],
                "Criterions": [
                  {
                    "Comment": "Module nodejs:16 is enabled"
                  }
                ]
              }
            ],
            "Criterions": [

            ]
          }
        ],
        "Criterions": [

        ]
      }
    ],
    "Criterions": [
      {
        "Comment": "Oracle Linux 8 is installed"
      }
    ]
  },
  "Severity": "Moderate",
  "Cves": [
    {
      "Impact": "",
      "Href": "",
      "ID": "CVE-2021-3807"
    },
    {
      "Impact": "",
      "Href": "",
      "ID": "CVE-2022-32212"
    },
    {
      "Impact": "",
      "Href": "",
      "ID": "CVE-2022-32213"
    },
    {
      "Impact": "",
      "Href": "",
      "ID": "CVE-2022-32214"
    },
    {
      "Impact": "",
      "Href": "",
      "ID": "CVE-2022-32215"
    },
    {
      "Impact": "",
      "Href": "",
      "ID": "CVE-2022-33987"
    }
  ],
  "Issued": {
    "Date": "2022-09-13"
  }
}