{
  "Title": "RHSA-2022:1777: webkit2gtk3 security, bug fix, and enhancement update (Moderate)",
  "Description": "WebKitGTK is the port of the portable web rendering engine WebKit to the GTK platform.\nThe following packages have been upgraded to a later upstream version: webkit2gtk3 (2.34.6). (BZ#1985042)\nSecurity Fix(es):\n* webkitgtk: maliciously crafted web content may lead to arbitrary code execution due to use after free (CVE-2022-22620)\n* webkitgtk: Use-after-free leading to arbitrary code execution (CVE-2021-30809)\n* webkitgtk: Type confusion issue leading to arbitrary code execution (CVE-2021-30818)\n* webkitgtk: Logic issue leading to HSTS bypass (CVE-2021-30823)\n* webkitgtk: Memory corruption issue leading to arbitrary code execution (CVE-2021-30846)\n* webkitgtk: Memory corruption issue leading to arbitrary code execution (CVE-2021-30848)\n* webkitgtk: Multiple memory corruption issue leading to arbitrary code execution (CVE-2021-30849)\n* webkitgtk: Memory corruption issue leading to arbitrary code execution (CVE-2021-30851)\n* webkitgtk: Logic issue leading to Content Security Policy bypass (CVE-2021-30887)\n* webkitgtk: Information leak via Content Security Policy reports (CVE-2021-30888)\n* webkitgtk: Buffer overflow leading to arbitrary code execution (CVE-2021-30889)\n* webkitgtk: Logic issue leading to universal cross-site scripting (CVE-2021-30890)\n* webkitgtk: Cross-origin data exfiltration via resource timing API (CVE-2021-30897)\n* webkitgtk: Processing maliciously crafted web content may lead to arbitrary code execution (CVE-2021-30934)\n* webkitgtk: Processing maliciously crafted web content may lead to arbitrary code execution (CVE-2021-30936)\n* webkitgtk: Processing maliciously crafted web content may lead to arbitrary code execution (CVE-2021-30951)\n* webkitgtk: Processing maliciously crafted web content may lead to arbitrary code execution (CVE-2021-30952)\n* webkitgtk: Processing maliciously crafted web content may lead to arbitrary code execution (CVE-2021-30953)\n* webkitgtk: Processing maliciously crafted web content may lead to arbitrary code execution (CVE-2021-30954)\n* webkitgtk: Processing maliciously crafted web content may lead to arbitrary code execution (CVE-2021-30984)\n* webkitgtk: Incorrect memory allocation in WebCore::ImageBufferCairoImageSurfaceBackend::create (CVE-2021-45481)\n* webkitgtk: use-after-free in WebCore::ContainerNode::firstChild (CVE-2021-45482)\n* webkitgtk: use-after-free in WebCore::Frame::page (CVE-2021-45483)\n* webkitgtk: Processing a maliciously crafted mail message may lead to running arbitrary javascript (CVE-2022-22589)\n* webkitgtk: Processing maliciously crafted web content may lead to arbitrary code execution (CVE-2022-22590)\n* webkitgtk: Processing maliciously crafted web content may prevent Content Security Policy from being enforced (CVE-2022-22592)\n* webkitgtk: A malicious website may exfiltrate data cross-origin (CVE-2022-22594)\n* webkitgtk: logic issue was addressed with improved state management (CVE-2022-22637)\n* webkitgtk: Out-of-bounds read leading to memory disclosure (CVE-2021-30836)\n* webkitgtk: CSS compositing issue leading to revealing of the browsing history (CVE-2021-30884)\nFor more details about the security issue(s), including the impact, a CVSS score, acknowledgments, and other related information, refer to the CVE page(s) listed in the References section.\nAdditional Changes:\nFor detailed information on changes in this release, see the Red Hat Enterprise Linux 8.6 Release Notes linked from the References section.",
  "Platform": [
    "Red Hat Enterprise Linux 8"
  ],
  "References": [
    {
      "Source": "RHSA",
      "URI": "https://access.redhat.com/errata/RHSA-2022:1777",
      "ID": "RHSA-2022:1777"
    },
    {
      "Source": "CVE",
      "URI": "https://access.redhat.com/security/cve/CVE-2021-30809",
      "ID": "CVE-2021-30809"
    },
    {
      "Source": "CVE",
      "URI": "https://access.redhat.com/security/cve/CVE-2021-30818",
      "ID": "CVE-2021-30818"
    },
    {
      "Source": "CVE",
      "URI": "https://access.redhat.com/security/cve/CVE-2021-30823",
      "ID": "CVE-2021-30823"
    },
    {
      "Source": "CVE",
      "URI": "https://access.redhat.com/security/cve/CVE-2021-30836",
      "ID": "CVE-2021-30836"
    },
    {
      "Source": "CVE",
      "URI": "https://access.redhat.com/security/cve/CVE-2021-30846",
      "ID": "CVE-2021-30846"
    },
    {
      "Source": "CVE",
      "URI": "https://access.redhat.com/security/cve/CVE-2021-30848",
      "ID": "CVE-2021-30848"
    },
    {
      "Source": "CVE",
      "URI": "https://access.redhat.com/security/cve/CVE-2021-30849",
      "ID": "CVE-2021-30849"
    },
    {
      "Source": "CVE",
      "URI": "https://access.redhat.com/security/cve/CVE-2021-30851",
      "ID": "CVE-2021-30851"
    },
    {
      "Source": "CVE",
      "URI": "https://access.redhat.com/security/cve/CVE-2021-30884",
      "ID": "CVE-2021-30884"
    },
    {
      "Source": "CVE",
      "URI": "https://access.redhat.com/security/cve/CVE-2021-30887",
      "ID": "CVE-2021-30887"
    },
    {
      "Source": "CVE",
      "URI": "https://access.redhat.com/security/cve/CVE-2021-30888",
      "ID": "CVE-2021-30888"
    },
    {
      "Source": "CVE",
      "URI": "https://access.redhat.com/security/cve/CVE-2021-30889",
      "ID": "CVE-2021-30889"
    },
    {
      "Source": "CVE",
      "URI": "https://access.redhat.com/security/cve/CVE-2021-30890",
      "ID": "CVE-2021-30890"
    },
    {
      "Source": "CVE",
      "URI": "https://access.redhat.com/security/cve/CVE-2021-30897",
      "ID": "CVE-2021-30897"
    },
    {
      "Source": "CVE",
      "URI": "https://access.redhat.com/security/cve/CVE-2021-30934",
      "ID": "CVE-2021-30934"
    },
    {
      "Source": "CVE",
      "URI": "https://access.redhat.com/security/cve/CVE-2021-30936",
      "ID": "CVE-2021-30936"
    },
    {
      "Source": "CVE",
      "URI": "https://access.redhat.com/security/cve/CVE-2021-30951",
      "ID": "CVE-2021-30951"
    },
    {
      "Source": "CVE",
      "URI": "https://access.redhat.com/security/cve/CVE-2021-30952",
      "ID": "CVE-2021-30952"
    },
    {
      "Source": "CVE",
      "URI": "https://access.redhat.com/security/cve/CVE-2021-30953",
      "ID": "CVE-2021-30953"
    },
    {
      "Source": "CVE",
      "URI": "https://access.redhat.com/security/cve/CVE-2021-30954",
      "ID": "CVE-2021-30954"
    },
    {
      "Source": "CVE",
      "URI": "https://access.redhat.com/security/cve/CVE-2021-30984",
      "ID": "CVE-2021-30984"
    },
    {
      "Source": "CVE",
      "URI": "https://access.redhat.com/security/cve/CVE-2021-45481",
      "ID": "CVE-2021-45481"
    },
    {
      "Source": "CVE",
      "URI": "https://access.redhat.com/security/cve/CVE-2021-45482",
      "ID": "CVE-2021-45482"
    },
    {
      "Source": "CVE",
      "URI": "https://access.redhat.com/security/cve/CVE-2021-45483",
      "ID": "CVE-2021-45483"
    },
    {
      "Source": "CVE",
      "URI": "https://access.redhat.com/security/cve/CVE-2022-22589",
      "ID": "CVE-2022-22589"
    },
    {
      "Source": "CVE",
      "URI": "https://access.redhat.com/security/cve/CVE-2022-22590",
      "ID": "CVE-2022-22590"
    },
    {
      "Source": "CVE",
      "URI": "https://access.redhat.com/security/cve/CVE-2022-22592",
      "ID": "CVE-2022-22592"
    },
    {
      "Source": "CVE",
      "URI": "https://access.redhat.com/security/cve/CVE-2022-22594",
      "ID": "CVE-2022-22594"
    },
    {
      "Source": "CVE",
      "URI": "https://access.redhat.com/security/cve/CVE-2022-22620",
      "ID": "CVE-2022-22620"
    },
    {
      "Source": "CVE",
      "URI": "https://access.redhat.com/security/cve/CVE-2022-22637",
      "ID": "CVE-2022-22637"
    }
  ],
  "Criteria": {
    "Operator": "OR",
    "Criterias": [
      {
        "Operator": "AND",
        "Criterias": [
          {
            "Operator": "OR",
            "Criterias": [

            ],
            "Criterions": [
              {
                "Comment": "Oracle Linux 8 is installed"
              },
              {
                "Comment": "Red Hat CoreOS 4 is installed"
              }
            ]
          },
          {
            "Operator": "OR",
            "Criterias": [
              {
                "Operator": "AND",
                "Criterias": [

                ],
                "Criterions": [
                  {
                    "Comment": "webkit2gtk3 is earlier than 0:2.34.6-1.el8"
                  },
                  {
                    "Comment": "webkit2gtk3 is signed with Red Hat redhatrelease2 key"
                  }
                ]
              },
              {
                "Operator": "AND",
                "Criterias": [

                ],
                "Criterions": [
                  {
                    "Comment": "webkit2gtk3-devel is earlier than 0:2.34.6-1.el8"
                  },
                  {
                    "Comment": "webkit2gtk3-devel is signed with Red Hat redhatrelease2 key"
                  }
                ]
              },
              {
                "Operator": "AND",
                "Criterias": [

                ],
                "Criterions": [
                  {
                    "Comment": "webkit2gtk3-jsc is earlier than 0:2.34.6-1.el8"
                  },
                  {
                    "Comment": "webkit2gtk3-jsc is signed with Red Hat redhatrelease2 key"
                  }
                ]
              },
              {
                "Operator": "AND",
                "Criterias": [

                ],
                "Criterions": [
                  {
                    "Comment": "webkit2gtk3-jsc-devel is earlier than 0:2.34.6-1.el8"
                  },
                  {
                    "Comment": "webkit2gtk3-jsc-devel is signed with Red Hat redhatrelease2 key"
                  }
                ]
              }
            ],
            "Criterions": [

            ]
          }
        ],
        "Criterions": [

        ]
      }
    ],
    "Criterions": [
      {
        "Comment": "Oracle Linux 8 is installed"
      }
    ]
  },
  "Severity": "Moderate",
  "Cves": [
    {
      "Impact": "",
      "Href": "",
      "ID": "CVE-2021-30809"
    },
    {
      "Impact": "",
      "Href": "",
      "ID": "CVE-2021-30818"
    },
    {
      "Impact": "",
      "Href": "",
      "ID": "CVE-2021-30823"
    },
    {
      "Impact": "",
      "Href": "",
      "ID": "CVE-2021-30836"
    },
    {
      "Impact": "",
      "Href": "",
      "ID": "CVE-2021-30846"
    },
    {
      "Impact": "",
      "Href": "",
      "ID": "CVE-2021-30848"
    },
    {
      "Impact": "",
      "Href": "",
      "ID": "CVE-2021-30849"
    },
    {
      "Impact": "",
      "Href": "",
      "ID": "CVE-2021-30851"
    },
    {
      "Impact": "",
      "Href": "",
      "ID": "CVE-2021-30884"
    },
    {
      "Impact": "",
      "Href": "",
      "ID": "CVE-2021-30887"
    },
    {
      "Impact": "",
      "Href": "",
      "ID": "CVE-2021-30888"
    },
    {
      "Impact": "",
      "Href": "",
      "ID": "CVE-2021-30889"
    },
    {
      "Impact": "",
      "Href": "",
      "ID": "CVE-2021-30890"
    },
    {
      "Impact": "",
      "Href": "",
      "ID": "CVE-2021-30897"
    },
    {
      "Impact": "",
      "Href": "",
      "ID": "CVE-2021-30934"
    },
    {
      "Impact": "",
      "Href": "",
      "ID": "CVE-2021-30936"
    },
    {
      "Impact": "",
      "Href": "",
      "ID": "CVE-2021-30951"
    },
    {
      "Impact": "",
      "Href": "",
      "ID": "CVE-2021-30952"
    },
    {
      "Impact": "",
      "Href": "",
      "ID": "CVE-2021-30953"
    },
    {
      "Impact": "",
      "Href": "",
      "ID": "CVE-2021-30954"
    },
    {
      "Impact": "",
      "Href": "",
      "ID": "CVE-2021-30984"
    },
    {
      "Impact": "",
      "Href": "",
      "ID": "CVE-2021-45481"
    },
    {
      "Impact": "",
      "Href": "",
      "ID": "CVE-2021-45482"
    },
    {
      "Impact": "",
      "Href": "",
      "ID": "CVE-2021-45483"
    },
    {
      "Impact": "",
      "Href": "",
      "ID": "CVE-2022-22589"
    },
    {
      "Impact": "",
      "Href": "",
      "ID": "CVE-2022-22590"
    },
    {
      "Impact": "",
      "Href": "",
      "ID": "CVE-2022-22592"
    },
    {
      "Impact": "",
      "Href": "",
      "ID": "CVE-2022-22594"
    },
    {
      "Impact": "",
      "Href": "",
      "ID": "CVE-2022-22620"
    },
    {
      "Impact": "",
      "Href": "",
      "ID": "CVE-2022-22637"
    }
  ],
  "Issued": {
    "Date": "2022-05-10"
  }
}