{
  "Title": "RHSA-2022:7326: pki-core security update (Important)",
  "Description": "The Public Key Infrastructure (PKI) Core contains fundamental packages required by Red Hat Certificate System.\nSecurity Fix(es):\n* pki-core: access to external entities when parsing XML can lead to XXE (CVE-2022-2414)\nFor more details about the security issue(s), including the impact, a CVSS score, acknowledgments, and other related information, refer to the CVE page(s) listed in the References section.",
  "Platform": [
    "Red Hat Enterprise Linux 9"
  ],
  "References": [
    {
      "Source": "RHSA",
      "URI": "https://access.redhat.com/errata/RHSA-2022:7326",
      "ID": "RHSA-2022:7326"
    },
    {
      "Source": "CVE",
      "URI": "https://access.redhat.com/security/cve/CVE-2022-2414",
      "ID": "CVE-2022-2414"
    }
  ],
  "Criteria": {
    "Operator": "OR",
    "Criterias": [
      {
        "Operator": "AND",
        "Criterias": [
          {
            "Operator": "OR",
            "Criterias": [
              {
                "Operator": "AND",
                "Criterias": [

                ],
                "Criterions": [
                  {
                    "Comment": "pki-acme is earlier than 0:11.0.6-2.el9_0"
                  },
                  {
                    "Comment": "pki-acme is signed with Red Hat redhatrelease2 key"
                  }
                ]
              },
              {
                "Operator": "AND",
                "Criterias": [

                ],
                "Criterions": [
                  {
                    "Comment": "pki-base is earlier than 0:11.0.6-2.el9_0"
                  },
                  {
                    "Comment": "pki-base is signed with Red Hat redhatrelease2 key"
                  }
                ]
              },
              {
                "Operator": "AND",
                "Criterias": [

                ],
                "Criterions": [
                  {
                    "Comment": "pki-base-java is earlier than 0:11.0.6-2.el9_0"
                  },
                  {
                    "Comment": "pki-base-java is signed with Red Hat redhatrelease2 key"
                  }
                ]
              },
              {
                "Operator": "AND",
                "Criterias": [

                ],
                "Criterions": [
                  {
                    "Comment": "pki-ca is earlier than 0:11.0.6-2.el9_0"
                  },
                  {
                    "Comment": "pki-ca is signed with Red Hat redhatrelease2 key"
                  }
                ]
              },
              {
                "Operator": "AND",
                "Criterias": [

                ],
                "Criterions": [
                  {
                    "Comment": "pki-kra is earlier than 0:11.0.6-2.el9_0"
                  },
                  {
                    "Comment": "pki-kra is signed with Red Hat redhatrelease2 key"
                  }
                ]
              },
              {
                "Operator": "AND",
                "Criterias": [

                ],
                "Criterions": [
                  {
                    "Comment": "pki-server is earlier than 0:11.0.6-2.el9_0"
                  },
                  {
                    "Comment": "pki-server is signed with Red Hat redhatrelease2 key"
                  }
                ]
              },
              {
                "Operator": "AND",
                "Criterias": [

                ],
                "Criterions": [
                  {
                    "Comment": "pki-symkey is earlier than 0:11.0.6-2.el9_0"
                  },
                  {
                    "Comment": "pki-symkey is signed with Red Hat redhatrelease2 key"
                  }
                ]
              },
              {
                "Operator": "AND",
                "Criterias": [

                ],
                "Criterions": [
                  {
                    "Comment": "pki-tools is earlier than 0:11.0.6-2.el9_0"
                  },
                  {
                    "Comment": "pki-tools is signed with Red Hat redhatrelease2 key"
                  }
                ]
              },
              {
                "Operator": "AND",
                "Criterias": [

                ],
                "Criterions": [
                  {
                    "Comment": "python3-pki is earlier than 0:11.0.6-2.el9_0"
                  },
                  {
                    "Comment": "python3-pki is signed with Red Hat redhatrelease2 key"
                  }
                ]
              }
            ],
            "Criterions": [

            ]
          }
        ],
        "Criterions": [
          {
            "Comment": "Oracle Linux 9 is installed"
          }
        ]
      }
    ],
    "Criterions": [
      {
        "Comment": "Oracle Linux 9 is installed"
      }
    ]
  },
  "Severity": "Important",
  "Cves": [
    {
      "Impact": "",
      "Href": "",
      "ID": "CVE-2022-2414"
    }
  ],
  "Issued": {
    "Date": "2022-11-02"
  }
}