{
  "Title": "RHSA-2022:5777: firefox security update (Important)",
  "Description": "Mozilla Firefox is an open-source web browser, designed for standards compliance, performance, and portability.\nThis update upgrades Firefox to version 91.12.0 ESR.\nSecurity Fix(es):\n* Mozilla: Memory safety bugs fixed in Firefox 103 and 102.1 (CVE-2022-2505)\n* Mozilla: Directory indexes for bundled resources reflected URL parameters (CVE-2022-36318)\n* Mozilla: Mouse Position spoofing with CSS transforms (CVE-2022-36319)\nFor more details about the security issue(s), including the impact, a CVSS score, acknowledgments, and other related information, refer to the CVE page(s) listed in the References section.",
  "Platform": [
    "Red Hat Enterprise Linux 8"
  ],
  "References": [
    {
      "Source": "RHSA",
      "URI": "https://access.redhat.com/errata/RHSA-2022:5777",
      "ID": "RHSA-2022:5777"
    },
    {
      "Source": "CVE",
      "URI": "https://access.redhat.com/security/cve/CVE-2022-2505",
      "ID": "CVE-2022-2505"
    },
    {
      "Source": "CVE",
      "URI": "https://access.redhat.com/security/cve/CVE-2022-36318",
      "ID": "CVE-2022-36318"
    },
    {
      "Source": "CVE",
      "URI": "https://access.redhat.com/security/cve/CVE-2022-36319",
      "ID": "CVE-2022-36319"
    }
  ],
  "Criteria": {
    "Operator": "OR",
    "Criterias": [
      {
        "Operator": "AND",
        "Criterias": [
          {
            "Operator": "OR",
            "Criterias": [

            ],
            "Criterions": [
              {
                "Comment": "Oracle Linux 8 is installed"
              },
              {
                "Comment": "Red Hat CoreOS 4 is installed"
              }
            ]
          }
        ],
        "Criterions": [
          {
            "Comment": "firefox is earlier than 0:91.12.0-2.el8_6"
          },
          {
            "Comment": "firefox is signed with Red Hat redhatrelease2 key"
          }
        ]
      }
    ],
    "Criterions": [
      {
        "Comment": "Oracle Linux 8 is installed"
      }
    ]
  },
  "Severity": "Important",
  "Cves": [
    {
      "Impact": "",
      "Href": "",
      "ID": "CVE-2022-2505"
    },
    {
      "Impact": "",
      "Href": "",
      "ID": "CVE-2022-36318"
    },
    {
      "Impact": "",
      "Href": "",
      "ID": "CVE-2022-36319"
    }
  ],
  "Issued": {
    "Date": "2022-08-01"
  }
}