{
  "Title": "RHSA-2022:0845: thunderbird security update (Important)",
  "Description": "Mozilla Thunderbird is a standalone mail and newsgroup client.\nThis update upgrades Thunderbird to version 91.7.0.\nSecurity Fix(es):\n* Mozilla: Use-after-free in XSLT parameter processing (CVE-2022-26485)\n* Mozilla: Use-after-free in WebGPU IPC Framework (CVE-2022-26486)\n* expat: Malformed 2- and 3-byte UTF-8 sequences can lead to arbitrary code execution (CVE-2022-25235)\n* expat: Namespace-separator characters in \"xmlns[:prefix]\" attribute values can lead to arbitrary code execution (CVE-2022-25236)\n* expat: Integer overflow in storeRawNames() (CVE-2022-25315)\n* Mozilla: Use-after-free in text reflows (CVE-2022-26381)\n* Mozilla: Browser window spoof using fullscreen mode (CVE-2022-26383)\n* Mozilla: iframe allow-scripts sandbox bypass (CVE-2022-26384)\n* Mozilla: Time-of-check time-of-use bug when verifying add-on signatures (CVE-2022-26387)\n* thunderbird: Crafted email could trigger an out-of-bounds write (CVE-2022-0566)\n* Mozilla: Temporary files downloaded to /tmp and accessible by other local users (CVE-2022-26386)\nFor more details about the security issue(s), including the impact, a CVSS score, acknowledgments, and other related information, refer to the CVE page(s) listed in the References section.",
  "Platform": [
    "Red Hat Enterprise Linux 8"
  ],
  "References": [
    {
      "Source": "RHSA",
      "URI": "https://access.redhat.com/errata/RHSA-2022:0845",
      "ID": "RHSA-2022:0845"
    },
    {
      "Source": "CVE",
      "URI": "https://access.redhat.com/security/cve/CVE-2022-0566",
      "ID": "CVE-2022-0566"
    },
    {
      "Source": "CVE",
      "URI": "https://access.redhat.com/security/cve/CVE-2022-25235",
      "ID": "CVE-2022-25235"
    },
    {
      "Source": "CVE",
      "URI": "https://access.redhat.com/security/cve/CVE-2022-25236",
      "ID": "CVE-2022-25236"
    },
    {
      "Source": "CVE",
      "URI": "https://access.redhat.com/security/cve/CVE-2022-25315",
      "ID": "CVE-2022-25315"
    },
    {
      "Source": "CVE",
      "URI": "https://access.redhat.com/security/cve/CVE-2022-26381",
      "ID": "CVE-2022-26381"
    },
    {
      "Source": "CVE",
      "URI": "https://access.redhat.com/security/cve/CVE-2022-26383",
      "ID": "CVE-2022-26383"
    },
    {
      "Source": "CVE",
      "URI": "https://access.redhat.com/security/cve/CVE-2022-26384",
      "ID": "CVE-2022-26384"
    },
    {
      "Source": "CVE",
      "URI": "https://access.redhat.com/security/cve/CVE-2022-26386",
      "ID": "CVE-2022-26386"
    },
    {
      "Source": "CVE",
      "URI": "https://access.redhat.com/security/cve/CVE-2022-26387",
      "ID": "CVE-2022-26387"
    },
    {
      "Source": "CVE",
      "URI": "https://access.redhat.com/security/cve/CVE-2022-26485",
      "ID": "CVE-2022-26485"
    },
    {
      "Source": "CVE",
      "URI": "https://access.redhat.com/security/cve/CVE-2022-26486",
      "ID": "CVE-2022-26486"
    }
  ],
  "Criteria": {
    "Operator": "OR",
    "Criterias": [
      {
        "Operator": "AND",
        "Criterias": [
          {
            "Operator": "OR",
            "Criterias": [

            ],
            "Criterions": [
              {
                "Comment": "Oracle Linux 8 is installed"
              },
              {
                "Comment": "Red Hat CoreOS 4 is installed"
              }
            ]
          }
        ],
        "Criterions": [
          {
            "Comment": "thunderbird is earlier than 0:91.7.0-2.el8_5"
          },
          {
            "Comment": "thunderbird is signed with Red Hat redhatrelease2 key"
          }
        ]
      }
    ],
    "Criterions": [
      {
        "Comment": "Oracle Linux 8 is installed"
      }
    ]
  },
  "Severity": "Important",
  "Cves": [
    {
      "Impact": "",
      "Href": "",
      "ID": "CVE-2022-0566"
    },
    {
      "Impact": "",
      "Href": "",
      "ID": "CVE-2022-25235"
    },
    {
      "Impact": "",
      "Href": "",
      "ID": "CVE-2022-25236"
    },
    {
      "Impact": "",
      "Href": "",
      "ID": "CVE-2022-25315"
    },
    {
      "Impact": "",
      "Href": "",
      "ID": "CVE-2022-26381"
    },
    {
      "Impact": "",
      "Href": "",
      "ID": "CVE-2022-26383"
    },
    {
      "Impact": "",
      "Href": "",
      "ID": "CVE-2022-26384"
    },
    {
      "Impact": "",
      "Href": "",
      "ID": "CVE-2022-26386"
    },
    {
      "Impact": "",
      "Href": "",
      "ID": "CVE-2022-26387"
    },
    {
      "Impact": "",
      "Href": "",
      "ID": "CVE-2022-26485"
    },
    {
      "Impact": "",
      "Href": "",
      "ID": "CVE-2022-26486"
    }
  ],
  "Issued": {
    "Date": "2022-03-14"
  }
}