{
  "Title": "RHSA-2022:2143: container-tools:3.0 security update (Important)",
  "Description": "The container-tools module contains tools for working with containers, notably podman, buildah, skopeo, and runc.\nSecurity Fix(es):\n* psgo: Privilege escalation in 'podman top' (CVE-2022-1227)\nFor more details about the security issue(s), including the impact, a CVSS score, acknowledgments, and other related information, refer to the CVE page(s) listed in the References section.",
  "Platform": [
    "Red Hat Enterprise Linux 8"
  ],
  "References": [
    {
      "Source": "RHSA",
      "URI": "https://access.redhat.com/errata/RHSA-2022:2143",
      "ID": "RHSA-2022:2143"
    },
    {
      "Source": "CVE",
      "URI": "https://access.redhat.com/security/cve/CVE-2022-1227",
      "ID": "CVE-2022-1227"
    }
  ],
  "Criteria": {
    "Operator": "OR",
    "Criterias": [
      {
        "Operator": "AND",
        "Criterias": [
          {
            "Operator": "OR",
            "Criterias": [

            ],
            "Criterions": [
              {
                "Comment": "Oracle Linux 8 is installed"
              },
              {
                "Comment": "Red Hat CoreOS 4 is installed"
              }
            ]
          },
          {
            "Operator": "OR",
            "Criterias": [
              {
                "Operator": "AND",
                "Criterias": [
                  {
                    "Operator": "OR",
                    "Criterias": [
                      {
                        "Operator": "AND",
                        "Criterias": [

                        ],
                        "Criterions": [
                          {
                            "Comment": "buildah is earlier than 0:1.19.9-3.module+el8.6.0+14874+64436299"
                          },
                          {
                            "Comment": "buildah is signed with Red Hat redhatrelease2 key"
                          }
                        ]
                      },
                      {
                        "Operator": "AND",
                        "Criterias": [

                        ],
                        "Criterions": [
                          {
                            "Comment": "buildah-tests is earlier than 0:1.19.9-3.module+el8.6.0+14874+64436299"
                          },
                          {
                            "Comment": "buildah-tests is signed with Red Hat redhatrelease2 key"
                          }
                        ]
                      },
                      {
                        "Operator": "AND",
                        "Criterias": [

                        ],
                        "Criterions": [
                          {
                            "Comment": "cockpit-podman is earlier than 0:29-2.module+el8.6.0+14874+64436299"
                          },
                          {
                            "Comment": "cockpit-podman is signed with Red Hat redhatrelease2 key"
                          }
                        ]
                      },
                      {
                        "Operator": "AND",
                        "Criterias": [

                        ],
                        "Criterions": [
                          {
                            "Comment": "conmon is earlier than 2:2.0.26-1.module+el8.6.0+14874+64436299"
                          },
                          {
                            "Comment": "conmon is signed with Red Hat redhatrelease2 key"
                          }
                        ]
                      },
                      {
                        "Operator": "AND",
                        "Criterias": [

                        ],
                        "Criterions": [
                          {
                            "Comment": "container-selinux is earlier than 2:2.178.0-2.module+el8.6.0+14874+64436299"
                          },
                          {
                            "Comment": "container-selinux is signed with Red Hat redhatrelease2 key"
                          }
                        ]
                      },
                      {
                        "Operator": "AND",
                        "Criterias": [

                        ],
                        "Criterions": [
                          {
                            "Comment": "containernetworking-plugins is earlier than 0:0.9.1-1.module+el8.6.0+14874+64436299"
                          },
                          {
                            "Comment": "containernetworking-plugins is signed with Red Hat redhatrelease2 key"
                          }
                        ]
                      },
                      {
                        "Operator": "AND",
                        "Criterias": [

                        ],
                        "Criterions": [
                          {
                            "Comment": "containers-common is earlier than 1:1.2.4-1.module+el8.6.0+14874+64436299"
                          },
                          {
                            "Comment": "containers-common is signed with Red Hat redhatrelease2 key"
                          }
                        ]
                      },
                      {
                        "Operator": "AND",
                        "Criterias": [

                        ],
                        "Criterions": [
                          {
                            "Comment": "crit is earlier than 0:3.15-1.module+el8.6.0+14874+64436299"
                          },
                          {
                            "Comment": "crit is signed with Red Hat redhatrelease2 key"
                          }
                        ]
                      },
                      {
                        "Operator": "AND",
                        "Criterias": [

                        ],
                        "Criterions": [
                          {
                            "Comment": "criu is earlier than 0:3.15-1.module+el8.6.0+14874+64436299"
                          },
                          {
                            "Comment": "criu is signed with Red Hat redhatrelease2 key"
                          }
                        ]
                      },
                      {
                        "Operator": "AND",
                        "Criterias": [

                        ],
                        "Criterions": [
                          {
                            "Comment": "crun is earlier than 0:0.18-3.module+el8.6.0+14874+64436299"
                          },
                          {
                            "Comment": "crun is signed with Red Hat redhatrelease2 key"
                          }
                        ]
                      },
                      {
                        "Operator": "AND",
                        "Criterias": [

                        ],
                        "Criterions": [
                          {
                            "Comment": "fuse-overlayfs is earlier than 0:1.4.0-2.module+el8.6.0+14874+64436299"
                          },
                          {
                            "Comment": "fuse-overlayfs is signed with Red Hat redhatrelease2 key"
                          }
                        ]
                      },
                      {
                        "Operator": "AND",
                        "Criterias": [

                        ],
                        "Criterions": [
                          {
                            "Comment": "libslirp is earlier than 0:4.3.1-1.module+el8.6.0+14874+64436299"
                          },
                          {
                            "Comment": "libslirp is signed with Red Hat redhatrelease2 key"
                          }
                        ]
                      },
                      {
                        "Operator": "AND",
                        "Criterias": [

                        ],
                        "Criterions": [
                          {
                            "Comment": "libslirp-devel is earlier than 0:4.3.1-1.module+el8.6.0+14874+64436299"
                          },
                          {
                            "Comment": "libslirp-devel is signed with Red Hat redhatrelease2 key"
                          }
                        ]
                      },
                      {
                        "Operator": "AND",
                        "Criterias": [

                        ],
                        "Criterions": [
                          {
                            "Comment": "oci-seccomp-bpf-hook is earlier than 0:1.2.0-3.module+el8.6.0+14874+64436299"
                          },
                          {
                            "Comment": "oci-seccomp-bpf-hook is signed with Red Hat redhatrelease2 key"
                          }
                        ]
                      },
                      {
                        "Operator": "AND",
                        "Criterias": [

                        ],
                        "Criterions": [
                          {
                            "Comment": "podman is earlier than 0:3.0.1-9.module+el8.6.0+14874+64436299"
                          },
                          {
                            "Comment": "podman is signed with Red Hat redhatrelease2 key"
                          }
                        ]
                      },
                      {
                        "Operator": "AND",
                        "Criterias": [

                        ],
                        "Criterions": [
                          {
                            "Comment": "podman-catatonit is earlier than 0:3.0.1-9.module+el8.6.0+14874+64436299"
                          },
                          {
                            "Comment": "podman-catatonit is signed with Red Hat redhatrelease2 key"
                          }
                        ]
                      },
                      {
                        "Operator": "AND",
                        "Criterias": [

                        ],
                        "Criterions": [
                          {
                            "Comment": "podman-docker is earlier than 0:3.0.1-9.module+el8.6.0+14874+64436299"
                          },
                          {
                            "Comment": "podman-docker is signed with Red Hat redhatrelease2 key"
                          }
                        ]
                      },
                      {
                        "Operator": "AND",
                        "Criterias": [

                        ],
                        "Criterions": [
                          {
                            "Comment": "podman-plugins is earlier than 0:3.0.1-9.module+el8.6.0+14874+64436299"
                          },
                          {
                            "Comment": "podman-plugins is signed with Red Hat redhatrelease2 key"
                          }
                        ]
                      },
                      {
                        "Operator": "AND",
                        "Criterias": [

                        ],
                        "Criterions": [
                          {
                            "Comment": "podman-remote is earlier than 0:3.0.1-9.module+el8.6.0+14874+64436299"
                          },
                          {
                            "Comment": "podman-remote is signed with Red Hat redhatrelease2 key"
                          }
                        ]
                      },
                      {
                        "Operator": "AND",
                        "Criterias": [

                        ],
                        "Criterions": [
                          {
                            "Comment": "podman-tests is earlier than 0:3.0.1-9.module+el8.6.0+14874+64436299"
                          },
                          {
                            "Comment": "podman-tests is signed with Red Hat redhatrelease2 key"
                          }
                        ]
                      },
                      {
                        "Operator": "AND",
                        "Criterias": [

                        ],
                        "Criterions": [
                          {
                            "Comment": "python3-criu is earlier than 0:3.15-1.module+el8.6.0+14874+64436299"
                          },
                          {
                            "Comment": "python3-criu is signed with Red Hat redhatrelease2 key"
                          }
                        ]
                      },
                      {
                        "Operator": "AND",
                        "Criterias": [

                        ],
                        "Criterions": [
                          {
                            "Comment": "runc is earlier than 0:1.0.0-73.rc95.module+el8.6.0+14874+64436299"
                          },
                          {
                            "Comment": "runc is signed with Red Hat redhatrelease2 key"
                          }
                        ]
                      },
                      {
                        "Operator": "AND",
                        "Criterias": [

                        ],
                        "Criterions": [
                          {
                            "Comment": "skopeo is earlier than 1:1.2.4-1.module+el8.6.0+14874+64436299"
                          },
                          {
                            "Comment": "skopeo is signed with Red Hat redhatrelease2 key"
                          }
                        ]
                      },
                      {
                        "Operator": "AND",
                        "Criterias": [

                        ],
                        "Criterions": [
                          {
                            "Comment": "skopeo-tests is earlier than 1:1.2.4-1.module+el8.6.0+14874+64436299"
                          },
                          {
                            "Comment": "skopeo-tests is signed with Red Hat redhatrelease2 key"
                          }
                        ]
                      },
                      {
                        "Operator": "AND",
                        "Criterias": [

                        ],
                        "Criterions": [
                          {
                            "Comment": "slirp4netns is earlier than 0:1.1.8-1.module+el8.6.0+14874+64436299"
                          },
                          {
                            "Comment": "slirp4netns is signed with Red Hat redhatrelease2 key"
                          }
                        ]
                      },
                      {
                        "Operator": "AND",
                        "Criterias": [

                        ],
                        "Criterions": [
                          {
                            "Comment": "toolbox is earlier than 0:0.0.99.3-1.module+el8.6.0+14874+64436299"
                          },
                          {
                            "Comment": "toolbox is signed with Red Hat redhatrelease2 key"
                          }
                        ]
                      },
                      {
                        "Operator": "AND",
                        "Criterias": [

                        ],
                        "Criterions": [
                          {
                            "Comment": "toolbox-tests is earlier than 0:0.0.99.3-1.module+el8.6.0+14874+64436299"
                          },
                          {
                            "Comment": "toolbox-tests is signed with Red Hat redhatrelease2 key"
                          }
                        ]
                      },
                      {
                        "Operator": "AND",
                        "Criterias": [

                        ],
                        "Criterions": [
                          {
                            "Comment": "udica is earlier than 0:0.2.4-1.module+el8.6.0+14874+64436299"
                          },
                          {
                            "Comment": "udica is signed with Red Hat redhatrelease2 key"
                          }
                        ]
                      }
                    ],
                    "Criterions": [

                    ]
                  }
                ],
                "Criterions": [
                  {
                    "Comment": "Module container-tools:3.0 is enabled"
                  }
                ]
              }
            ],
            "Criterions": [

            ]
          }
        ],
        "Criterions": [

        ]
      }
    ],
    "Criterions": [
      {
        "Comment": "Oracle Linux 8 is installed"
      }
    ]
  },
  "Severity": "Important",
  "Cves": [
    {
      "Impact": "",
      "Href": "",
      "ID": "CVE-2022-1227"
    }
  ],
  "Issued": {
    "Date": "2022-05-10"
  }
}