{
  "Title": "RHSA-2022:7821: nodejs:18 security update (Important)",
  "Description": "Node.js is a software development platform for building fast and scalable network applications in the JavaScript programming language. \nThe following packages have been upgraded to a later upstream version: nodejs (18.9.1). (BZ#2130559, BZ#2131750)\nSecurity Fix(es):\n* nodejs: weak randomness in WebCrypto keygen (CVE-2022-35255)\n* nodejs: HTTP Request Smuggling due to incorrect parsing of header fields (CVE-2022-35256)\nFor more details about the security issue(s), including the impact, a CVSS score, acknowledgments, and other related information, refer to the CVE page(s) listed in the References section.",
  "Platform": [
    "Red Hat Enterprise Linux 8"
  ],
  "References": [
    {
      "Source": "RHSA",
      "URI": "https://access.redhat.com/errata/RHSA-2022:7821",
      "ID": "RHSA-2022:7821"
    },
    {
      "Source": "CVE",
      "URI": "https://access.redhat.com/security/cve/CVE-2022-35255",
      "ID": "CVE-2022-35255"
    },
    {
      "Source": "CVE",
      "URI": "https://access.redhat.com/security/cve/CVE-2022-35256",
      "ID": "CVE-2022-35256"
    }
  ],
  "Criteria": {
    "Operator": "OR",
    "Criterias": [
      {
        "Operator": "AND",
        "Criterias": [
          {
            "Operator": "OR",
            "Criterias": [

            ],
            "Criterions": [
              {
                "Comment": "Oracle Linux 8 is installed"
              },
              {
                "Comment": "Red Hat CoreOS 4 is installed"
              }
            ]
          },
          {
            "Operator": "OR",
            "Criterias": [
              {
                "Operator": "AND",
                "Criterias": [
                  {
                    "Operator": "OR",
                    "Criterias": [
                      {
                        "Operator": "AND",
                        "Criterias": [

                        ],
                        "Criterions": [
                          {
                            "Comment": "nodejs is earlier than 1:18.9.1-1.module+el8.7.0+16806+4109802b"
                          },
                          {
                            "Comment": "nodejs is signed with Red Hat redhatrelease2 key"
                          }
                        ]
                      },
                      {
                        "Operator": "AND",
                        "Criterias": [

                        ],
                        "Criterions": [
                          {
                            "Comment": "nodejs-devel is earlier than 1:18.9.1-1.module+el8.7.0+16806+4109802b"
                          },
                          {
                            "Comment": "nodejs-devel is signed with Red Hat redhatrelease2 key"
                          }
                        ]
                      },
                      {
                        "Operator": "AND",
                        "Criterias": [

                        ],
                        "Criterions": [
                          {
                            "Comment": "nodejs-docs is earlier than 1:18.9.1-1.module+el8.7.0+16806+4109802b"
                          },
                          {
                            "Comment": "nodejs-docs is signed with Red Hat redhatrelease2 key"
                          }
                        ]
                      },
                      {
                        "Operator": "AND",
                        "Criterias": [

                        ],
                        "Criterions": [
                          {
                            "Comment": "nodejs-full-i18n is earlier than 1:18.9.1-1.module+el8.7.0+16806+4109802b"
                          },
                          {
                            "Comment": "nodejs-full-i18n is signed with Red Hat redhatrelease2 key"
                          }
                        ]
                      },
                      {
                        "Operator": "AND",
                        "Criterias": [

                        ],
                        "Criterions": [
                          {
                            "Comment": "nodejs-nodemon is earlier than 0:2.0.19-1.module+el8.7.0+16061+0a247725"
                          },
                          {
                            "Comment": "nodejs-nodemon is signed with Red Hat redhatrelease2 key"
                          }
                        ]
                      },
                      {
                        "Operator": "AND",
                        "Criterias": [

                        ],
                        "Criterions": [
                          {
                            "Comment": "nodejs-packaging is earlier than 0:2021.06-4.module+el8.7.0+15582+19c314fa"
                          },
                          {
                            "Comment": "nodejs-packaging is signed with Red Hat redhatrelease2 key"
                          }
                        ]
                      },
                      {
                        "Operator": "AND",
                        "Criterias": [

                        ],
                        "Criterions": [
                          {
                            "Comment": "nodejs-packaging-bundler is earlier than 0:2021.06-4.module+el8.7.0+15582+19c314fa"
                          },
                          {
                            "Comment": "nodejs-packaging-bundler is signed with Red Hat redhatrelease2 key"
                          }
                        ]
                      },
                      {
                        "Operator": "AND",
                        "Criterias": [

                        ],
                        "Criterions": [
                          {
                            "Comment": "npm is earlier than 1:8.19.1-1.18.9.1.1.module+el8.7.0+16806+4109802b"
                          },
                          {
                            "Comment": "npm is signed with Red Hat redhatrelease2 key"
                          }
                        ]
                      }
                    ],
                    "Criterions": [

                    ]
                  }
                ],
                "Criterions": [
                  {
                    "Comment": "Module nodejs:18 is enabled"
                  }
                ]
              }
            ],
            "Criterions": [

            ]
          }
        ],
        "Criterions": [

        ]
      }
    ],
    "Criterions": [
      {
        "Comment": "Oracle Linux 8 is installed"
      }
    ]
  },
  "Severity": "Important",
  "Cves": [
    {
      "Impact": "",
      "Href": "",
      "ID": "CVE-2022-35255"
    },
    {
      "Impact": "",
      "Href": "",
      "ID": "CVE-2022-35256"
    }
  ],
  "Issued": {
    "Date": "2022-11-08"
  }
}