{
  "Title": "RHSA-2022:6463: gnupg2 security update (Moderate)",
  "Description": "The GNU Privacy Guard (GnuPG or GPG) is a tool for encrypting data and creating digital signatures, compliant with OpenPGP and S/MIME standards.\nSecurity Fix(es):\n* gpg: Signature spoofing via status line injection (CVE-2022-34903)\nFor more details about the security issue(s), including the impact, a CVSS score, acknowledgments, and other related information, refer to the CVE page(s) listed in the References section.",
  "Platform": [
    "Red Hat Enterprise Linux 8"
  ],
  "References": [
    {
      "Source": "RHSA",
      "URI": "https://access.redhat.com/errata/RHSA-2022:6463",
      "ID": "RHSA-2022:6463"
    },
    {
      "Source": "CVE",
      "URI": "https://access.redhat.com/security/cve/CVE-2022-34903",
      "ID": "CVE-2022-34903"
    }
  ],
  "Criteria": {
    "Operator": "OR",
    "Criterias": [
      {
        "Operator": "AND",
        "Criterias": [
          {
            "Operator": "OR",
            "Criterias": [

            ],
            "Criterions": [
              {
                "Comment": "Oracle Linux 8 is installed"
              },
              {
                "Comment": "Red Hat CoreOS 4 is installed"
              }
            ]
          },
          {
            "Operator": "OR",
            "Criterias": [
              {
                "Operator": "AND",
                "Criterias": [

                ],
                "Criterions": [
                  {
                    "Comment": "gnupg2 is earlier than 0:2.2.20-3.el8_6"
                  },
                  {
                    "Comment": "gnupg2 is signed with Red Hat redhatrelease2 key"
                  }
                ]
              },
              {
                "Operator": "AND",
                "Criterias": [

                ],
                "Criterions": [
                  {
                    "Comment": "gnupg2-smime is earlier than 0:2.2.20-3.el8_6"
                  },
                  {
                    "Comment": "gnupg2-smime is signed with Red Hat redhatrelease2 key"
                  }
                ]
              }
            ],
            "Criterions": [

            ]
          }
        ],
        "Criterions": [

        ]
      }
    ],
    "Criterions": [
      {
        "Comment": "Oracle Linux 8 is installed"
      }
    ]
  },
  "Severity": "Moderate",
  "Cves": [
    {
      "Impact": "",
      "Href": "",
      "ID": "CVE-2022-34903"
    }
  ],
  "Issued": {
    "Date": "2022-09-13"
  }
}