{
  "Title": "RHSA-2022:5904: php security update (Important)",
  "Description": "PHP is an HTML-embedded scripting language commonly used with the Apache HTTP Server.\nSecurity Fix(es):\n* php: password of excessive length triggers buffer overflow leading to RCE (CVE-2022-31626)\nFor more details about the security issue(s), including the impact, a CVSS score, acknowledgments, and other related information, refer to the CVE page(s) listed in the References section.",
  "Platform": [
    "Red Hat Enterprise Linux 9"
  ],
  "References": [
    {
      "Source": "RHSA",
      "URI": "https://access.redhat.com/errata/RHSA-2022:5904",
      "ID": "RHSA-2022:5904"
    },
    {
      "Source": "CVE",
      "URI": "https://access.redhat.com/security/cve/CVE-2022-31626",
      "ID": "CVE-2022-31626"
    }
  ],
  "Criteria": {
    "Operator": "OR",
    "Criterias": [
      {
        "Operator": "AND",
        "Criterias": [
          {
            "Operator": "OR",
            "Criterias": [
              {
                "Operator": "AND",
                "Criterias": [

                ],
                "Criterions": [
                  {
                    "Comment": "php is earlier than 0:8.0.13-2.el9_0"
                  },
                  {
                    "Comment": "php is signed with Red Hat redhatrelease2 key"
                  }
                ]
              },
              {
                "Operator": "AND",
                "Criterias": [

                ],
                "Criterions": [
                  {
                    "Comment": "php-bcmath is earlier than 0:8.0.13-2.el9_0"
                  },
                  {
                    "Comment": "php-bcmath is signed with Red Hat redhatrelease2 key"
                  }
                ]
              },
              {
                "Operator": "AND",
                "Criterias": [

                ],
                "Criterions": [
                  {
                    "Comment": "php-cli is earlier than 0:8.0.13-2.el9_0"
                  },
                  {
                    "Comment": "php-cli is signed with Red Hat redhatrelease2 key"
                  }
                ]
              },
              {
                "Operator": "AND",
                "Criterias": [

                ],
                "Criterions": [
                  {
                    "Comment": "php-common is earlier than 0:8.0.13-2.el9_0"
                  },
                  {
                    "Comment": "php-common is signed with Red Hat redhatrelease2 key"
                  }
                ]
              },
              {
                "Operator": "AND",
                "Criterias": [

                ],
                "Criterions": [
                  {
                    "Comment": "php-dba is earlier than 0:8.0.13-2.el9_0"
                  },
                  {
                    "Comment": "php-dba is signed with Red Hat redhatrelease2 key"
                  }
                ]
              },
              {
                "Operator": "AND",
                "Criterias": [

                ],
                "Criterions": [
                  {
                    "Comment": "php-dbg is earlier than 0:8.0.13-2.el9_0"
                  },
                  {
                    "Comment": "php-dbg is signed with Red Hat redhatrelease2 key"
                  }
                ]
              },
              {
                "Operator": "AND",
                "Criterias": [

                ],
                "Criterions": [
                  {
                    "Comment": "php-devel is earlier than 0:8.0.13-2.el9_0"
                  },
                  {
                    "Comment": "php-devel is signed with Red Hat redhatrelease2 key"
                  }
                ]
              },
              {
                "Operator": "AND",
                "Criterias": [

                ],
                "Criterions": [
                  {
                    "Comment": "php-embedded is earlier than 0:8.0.13-2.el9_0"
                  },
                  {
                    "Comment": "php-embedded is signed with Red Hat redhatrelease2 key"
                  }
                ]
              },
              {
                "Operator": "AND",
                "Criterias": [

                ],
                "Criterions": [
                  {
                    "Comment": "php-enchant is earlier than 0:8.0.13-2.el9_0"
                  },
                  {
                    "Comment": "php-enchant is signed with Red Hat redhatrelease2 key"
                  }
                ]
              },
              {
                "Operator": "AND",
                "Criterias": [

                ],
                "Criterions": [
                  {
                    "Comment": "php-ffi is earlier than 0:8.0.13-2.el9_0"
                  },
                  {
                    "Comment": "php-ffi is signed with Red Hat redhatrelease2 key"
                  }
                ]
              },
              {
                "Operator": "AND",
                "Criterias": [

                ],
                "Criterions": [
                  {
                    "Comment": "php-fpm is earlier than 0:8.0.13-2.el9_0"
                  },
                  {
                    "Comment": "php-fpm is signed with Red Hat redhatrelease2 key"
                  }
                ]
              },
              {
                "Operator": "AND",
                "Criterias": [

                ],
                "Criterions": [
                  {
                    "Comment": "php-gd is earlier than 0:8.0.13-2.el9_0"
                  },
                  {
                    "Comment": "php-gd is signed with Red Hat redhatrelease2 key"
                  }
                ]
              },
              {
                "Operator": "AND",
                "Criterias": [

                ],
                "Criterions": [
                  {
                    "Comment": "php-gmp is earlier than 0:8.0.13-2.el9_0"
                  },
                  {
                    "Comment": "php-gmp is signed with Red Hat redhatrelease2 key"
                  }
                ]
              },
              {
                "Operator": "AND",
                "Criterias": [

                ],
                "Criterions": [
                  {
                    "Comment": "php-intl is earlier than 0:8.0.13-2.el9_0"
                  },
                  {
                    "Comment": "php-intl is signed with Red Hat redhatrelease2 key"
                  }
                ]
              },
              {
                "Operator": "AND",
                "Criterias": [

                ],
                "Criterions": [
                  {
                    "Comment": "php-ldap is earlier than 0:8.0.13-2.el9_0"
                  },
                  {
                    "Comment": "php-ldap is signed with Red Hat redhatrelease2 key"
                  }
                ]
              },
              {
                "Operator": "AND",
                "Criterias": [

                ],
                "Criterions": [
                  {
                    "Comment": "php-mbstring is earlier than 0:8.0.13-2.el9_0"
                  },
                  {
                    "Comment": "php-mbstring is signed with Red Hat redhatrelease2 key"
                  }
                ]
              },
              {
                "Operator": "AND",
                "Criterias": [

                ],
                "Criterions": [
                  {
                    "Comment": "php-mysqlnd is earlier than 0:8.0.13-2.el9_0"
                  },
                  {
                    "Comment": "php-mysqlnd is signed with Red Hat redhatrelease2 key"
                  }
                ]
              },
              {
                "Operator": "AND",
                "Criterias": [

                ],
                "Criterions": [
                  {
                    "Comment": "php-odbc is earlier than 0:8.0.13-2.el9_0"
                  },
                  {
                    "Comment": "php-odbc is signed with Red Hat redhatrelease2 key"
                  }
                ]
              },
              {
                "Operator": "AND",
                "Criterias": [

                ],
                "Criterions": [
                  {
                    "Comment": "php-opcache is earlier than 0:8.0.13-2.el9_0"
                  },
                  {
                    "Comment": "php-opcache is signed with Red Hat redhatrelease2 key"
                  }
                ]
              },
              {
                "Operator": "AND",
                "Criterias": [

                ],
                "Criterions": [
                  {
                    "Comment": "php-pdo is earlier than 0:8.0.13-2.el9_0"
                  },
                  {
                    "Comment": "php-pdo is signed with Red Hat redhatrelease2 key"
                  }
                ]
              },
              {
                "Operator": "AND",
                "Criterias": [

                ],
                "Criterions": [
                  {
                    "Comment": "php-pgsql is earlier than 0:8.0.13-2.el9_0"
                  },
                  {
                    "Comment": "php-pgsql is signed with Red Hat redhatrelease2 key"
                  }
                ]
              },
              {
                "Operator": "AND",
                "Criterias": [

                ],
                "Criterions": [
                  {
                    "Comment": "php-process is earlier than 0:8.0.13-2.el9_0"
                  },
                  {
                    "Comment": "php-process is signed with Red Hat redhatrelease2 key"
                  }
                ]
              },
              {
                "Operator": "AND",
                "Criterias": [

                ],
                "Criterions": [
                  {
                    "Comment": "php-snmp is earlier than 0:8.0.13-2.el9_0"
                  },
                  {
                    "Comment": "php-snmp is signed with Red Hat redhatrelease2 key"
                  }
                ]
              },
              {
                "Operator": "AND",
                "Criterias": [

                ],
                "Criterions": [
                  {
                    "Comment": "php-soap is earlier than 0:8.0.13-2.el9_0"
                  },
                  {
                    "Comment": "php-soap is signed with Red Hat redhatrelease2 key"
                  }
                ]
              },
              {
                "Operator": "AND",
                "Criterias": [

                ],
                "Criterions": [
                  {
                    "Comment": "php-xml is earlier than 0:8.0.13-2.el9_0"
                  },
                  {
                    "Comment": "php-xml is signed with Red Hat redhatrelease2 key"
                  }
                ]
              }
            ],
            "Criterions": [

            ]
          }
        ],
        "Criterions": [
          {
            "Comment": "Oracle Linux 9 is installed"
          }
        ]
      }
    ],
    "Criterions": [
      {
        "Comment": "Oracle Linux 9 is installed"
      }
    ]
  },
  "Severity": "Important",
  "Cves": [
    {
      "Impact": "",
      "Href": "",
      "ID": "CVE-2022-31626"
    }
  ],
  "Issued": {
    "Date": "2022-08-04"
  }
}