{
  "Title": "RHSA-2022:4872: firefox security update (Important)",
  "Description": "Mozilla Firefox is an open-source web browser, designed for standards compliance, performance, and portability.\nThis update upgrades Firefox to version 91.10.0 ESR.\nSecurity Fix(es):\n* Mozilla: Cross-Origin resource's length leaked (CVE-2022-31736)\n* Mozilla: Heap buffer overflow in WebGL (CVE-2022-31737)\n* Mozilla: Browser window spoof using fullscreen mode (CVE-2022-31738)\n* Mozilla: Register allocation problem in WASM on arm64 (CVE-2022-31740)\n* Mozilla: Uninitialized variable leads to invalid memory read (CVE-2022-31741)\n* Mozilla: Memory safety bugs fixed in Firefox 101 and Firefox ESR 91.10 (CVE-2022-31747)\n* Mozilla: Querying a WebAuthn token with a large number of allowCredential entries may have leaked cross-origin information (CVE-2022-31742)\nFor more details about the security issue(s), including the impact, a CVSS score, acknowledgments, and other related information, refer to the CVE page(s) listed in the References section.",
  "Platform": [
    "Red Hat Enterprise Linux 8"
  ],
  "References": [
    {
      "Source": "RHSA",
      "URI": "https://access.redhat.com/errata/RHSA-2022:4872",
      "ID": "RHSA-2022:4872"
    },
    {
      "Source": "CVE",
      "URI": "https://access.redhat.com/security/cve/CVE-2022-31736",
      "ID": "CVE-2022-31736"
    },
    {
      "Source": "CVE",
      "URI": "https://access.redhat.com/security/cve/CVE-2022-31737",
      "ID": "CVE-2022-31737"
    },
    {
      "Source": "CVE",
      "URI": "https://access.redhat.com/security/cve/CVE-2022-31738",
      "ID": "CVE-2022-31738"
    },
    {
      "Source": "CVE",
      "URI": "https://access.redhat.com/security/cve/CVE-2022-31740",
      "ID": "CVE-2022-31740"
    },
    {
      "Source": "CVE",
      "URI": "https://access.redhat.com/security/cve/CVE-2022-31741",
      "ID": "CVE-2022-31741"
    },
    {
      "Source": "CVE",
      "URI": "https://access.redhat.com/security/cve/CVE-2022-31742",
      "ID": "CVE-2022-31742"
    },
    {
      "Source": "CVE",
      "URI": "https://access.redhat.com/security/cve/CVE-2022-31747",
      "ID": "CVE-2022-31747"
    }
  ],
  "Criteria": {
    "Operator": "OR",
    "Criterias": [
      {
        "Operator": "AND",
        "Criterias": [
          {
            "Operator": "OR",
            "Criterias": [

            ],
            "Criterions": [
              {
                "Comment": "Oracle Linux 8 is installed"
              },
              {
                "Comment": "Red Hat CoreOS 4 is installed"
              }
            ]
          }
        ],
        "Criterions": [
          {
            "Comment": "firefox is earlier than 0:91.10.0-1.el8_6"
          },
          {
            "Comment": "firefox is signed with Red Hat redhatrelease2 key"
          }
        ]
      }
    ],
    "Criterions": [
      {
        "Comment": "Oracle Linux 8 is installed"
      }
    ]
  },
  "Severity": "Important",
  "Cves": [
    {
      "Impact": "",
      "Href": "",
      "ID": "CVE-2022-31736"
    },
    {
      "Impact": "",
      "Href": "",
      "ID": "CVE-2022-31737"
    },
    {
      "Impact": "",
      "Href": "",
      "ID": "CVE-2022-31738"
    },
    {
      "Impact": "",
      "Href": "",
      "ID": "CVE-2022-31740"
    },
    {
      "Impact": "",
      "Href": "",
      "ID": "CVE-2022-31741"
    },
    {
      "Impact": "",
      "Href": "",
      "ID": "CVE-2022-31742"
    },
    {
      "Impact": "",
      "Href": "",
      "ID": "CVE-2022-31747"
    }
  ],
  "Issued": {
    "Date": "2022-06-01"
  }
}