{
  "Title": "RHSA-2022:7700: gdisk security update (Moderate)",
  "Description": "The gdisk packages provide the gdisk partitioning utility for GUID Partition Table (GPT) disks. The utility features a command-line interface similar to fdisk, direct manipulation of partition table structures, recovery tools to deal with corrupt partition tables, and the ability to convert Master Boot Record (MBR) disks to the GPT format.\nSecurity Fix(es):\n* gdisk: possible out-of-bounds-write in LoadPartitionTable of gpt.cc (CVE-2020-0256)\n* gdisk: possible out-of-bounds-write in ReadLogicalParts of basicmbr.cc (CVE-2021-0308)\nFor more details about the security issue(s), including the impact, a CVSS score, acknowledgments, and other related information, refer to the CVE page(s) listed in the References section.\nAdditional Changes:\nFor detailed information on changes in this release, see the Red Hat Enterprise Linux 8.7 Release Notes linked from the References section.",
  "Platform": [
    "Red Hat Enterprise Linux 8"
  ],
  "References": [
    {
      "Source": "RHSA",
      "URI": "https://access.redhat.com/errata/RHSA-2022:7700",
      "ID": "RHSA-2022:7700"
    },
    {
      "Source": "CVE",
      "URI": "https://access.redhat.com/security/cve/CVE-2020-0256",
      "ID": "CVE-2020-0256"
    },
    {
      "Source": "CVE",
      "URI": "https://access.redhat.com/security/cve/CVE-2021-0308",
      "ID": "CVE-2021-0308"
    }
  ],
  "Criteria": {
    "Operator": "OR",
    "Criterias": [
      {
        "Operator": "AND",
        "Criterias": [
          {
            "Operator": "OR",
            "Criterias": [

            ],
            "Criterions": [
              {
                "Comment": "Oracle Linux 8 is installed"
              },
              {
                "Comment": "Red Hat CoreOS 4 is installed"
              }
            ]
          }
        ],
        "Criterions": [
          {
            "Comment": "gdisk is earlier than 0:1.0.3-11.el8"
          },
          {
            "Comment": "gdisk is signed with Red Hat redhatrelease2 key"
          }
        ]
      }
    ],
    "Criterions": [
      {
        "Comment": "Oracle Linux 8 is installed"
      }
    ]
  },
  "Severity": "Moderate",
  "Cves": [
    {
      "Impact": "",
      "Href": "",
      "ID": "CVE-2020-0256"
    },
    {
      "Impact": "",
      "Href": "",
      "ID": "CVE-2021-0308"
    }
  ],
  "Issued": {
    "Date": "2022-11-08"
  }
}