{
  "Title": "RHSA-2022:6580: booth security update (Moderate)",
  "Description": "The Booth cluster ticket manager is a component to bridge high availability clusters spanning multiple sites, in particular, to provide decision inputs to local Pacemaker cluster resource managers. It operates as a distributed consensus-based service, presumably on a separate physical network. Tickets facilitated by a Booth formation are the units of authorization that can be bound to certain resources. This will ensure that the resources are run at only one (granted) site at a time.\nSecurity Fix(es):\n* booth: authfile directive in booth config file is completely ignored. (CVE-2022-2553)\nFor more details about the security issue(s), including the impact, a CVSS score, acknowledgments, and other related information, refer to the CVE page(s) listed in the References section.",
  "Platform": [
    "Red Hat Enterprise Linux 9"
  ],
  "References": [
    {
      "Source": "RHSA",
      "URI": "https://access.redhat.com/errata/RHSA-2022:6580",
      "ID": "RHSA-2022:6580"
    },
    {
      "Source": "CVE",
      "URI": "https://access.redhat.com/security/cve/CVE-2022-2553",
      "ID": "CVE-2022-2553"
    }
  ],
  "Criteria": {
    "Operator": "OR",
    "Criterias": [
      {
        "Operator": "AND",
        "Criterias": [
          {
            "Operator": "OR",
            "Criterias": [
              {
                "Operator": "AND",
                "Criterias": [

                ],
                "Criterions": [
                  {
                    "Comment": "booth is earlier than 0:1.0-251.3.bfb2f92.git.el9_0.1"
                  },
                  {
                    "Comment": "booth is signed with Red Hat redhatrelease2 key"
                  }
                ]
              },
              {
                "Operator": "AND",
                "Criterias": [

                ],
                "Criterions": [
                  {
                    "Comment": "booth-arbitrator is earlier than 0:1.0-251.3.bfb2f92.git.el9_0.1"
                  },
                  {
                    "Comment": "booth-arbitrator is signed with Red Hat redhatrelease2 key"
                  }
                ]
              },
              {
                "Operator": "AND",
                "Criterias": [

                ],
                "Criterions": [
                  {
                    "Comment": "booth-core is earlier than 0:1.0-251.3.bfb2f92.git.el9_0.1"
                  },
                  {
                    "Comment": "booth-core is signed with Red Hat redhatrelease2 key"
                  }
                ]
              },
              {
                "Operator": "AND",
                "Criterias": [

                ],
                "Criterions": [
                  {
                    "Comment": "booth-site is earlier than 0:1.0-251.3.bfb2f92.git.el9_0.1"
                  },
                  {
                    "Comment": "booth-site is signed with Red Hat redhatrelease2 key"
                  }
                ]
              },
              {
                "Operator": "AND",
                "Criterias": [

                ],
                "Criterions": [
                  {
                    "Comment": "booth-test is earlier than 0:1.0-251.3.bfb2f92.git.el9_0.1"
                  },
                  {
                    "Comment": "booth-test is signed with Red Hat redhatrelease2 key"
                  }
                ]
              }
            ],
            "Criterions": [

            ]
          }
        ],
        "Criterions": [
          {
            "Comment": "Oracle Linux 9 is installed"
          }
        ]
      }
    ],
    "Criterions": [
      {
        "Comment": "Oracle Linux 9 is installed"
      }
    ]
  },
  "Severity": "Moderate",
  "Cves": [
    {
      "Impact": "",
      "Href": "",
      "ID": "CVE-2022-2553"
    }
  ],
  "Issued": {
    "Date": "2022-09-20"
  }
}