{
  "Title": "RHSA-2022:1801: gfbgraph security update (Moderate)",
  "Description": "GLib/GObject wrapper for the Facebook Graph API that integrates with GNOME Online Accounts.\nThe following packages have been upgraded to a later upstream version: gfbgraph (0.2.4). (BZ#1997941)\nSecurity Fix(es):\n* gfbgraph: missing TLS certificate verification (CVE-2021-39358)\nFor more details about the security issue(s), including the impact, a CVSS score, acknowledgments, and other related information, refer to the CVE page(s) listed in the References section.\nAdditional Changes:\nFor detailed information on changes in this release, see the Red Hat Enterprise Linux 8.6 Release Notes linked from the References section.",
  "Platform": [
    "Red Hat Enterprise Linux 8"
  ],
  "References": [
    {
      "Source": "RHSA",
      "URI": "https://access.redhat.com/errata/RHSA-2022:1801",
      "ID": "RHSA-2022:1801"
    },
    {
      "Source": "CVE",
      "URI": "https://access.redhat.com/security/cve/CVE-2021-39358",
      "ID": "CVE-2021-39358"
    }
  ],
  "Criteria": {
    "Operator": "OR",
    "Criterias": [
      {
        "Operator": "AND",
        "Criterias": [
          {
            "Operator": "OR",
            "Criterias": [

            ],
            "Criterions": [
              {
                "Comment": "Oracle Linux 8 is installed"
              },
              {
                "Comment": "Red Hat CoreOS 4 is installed"
              }
            ]
          }
        ],
        "Criterions": [
          {
            "Comment": "gfbgraph is earlier than 0:0.2.4-1.el8"
          },
          {
            "Comment": "gfbgraph is signed with Red Hat redhatrelease2 key"
          }
        ]
      }
    ],
    "Criterions": [
      {
        "Comment": "Oracle Linux 8 is installed"
      }
    ]
  },
  "Severity": "Moderate",
  "Cves": [
    {
      "Impact": "",
      "Href": "",
      "ID": "CVE-2021-39358"
    }
  ],
  "Issued": {
    "Date": "2022-05-10"
  }
}