{
  "Title": "RHSA-2022:1823: mod_auth_openidc:2.3 security update (Moderate)",
  "Description": "The mod_auth_openidc is an OpenID Connect authentication module for Apache HTTP Server. It enables an Apache HTTP Server to operate as an OpenID Connect Relying Party and/or OAuth 2.0 Resource Server. \nSecurity Fix(es):\n* mod_auth_openidc: open redirect in oidc_validate_redirect_url() (CVE-2021-32786)\n* mod_auth_openidc: hardcoded static IV and AAD with a reused key in AES GCM encryption (CVE-2021-32791)\n* mod_auth_openidc: XSS when using OIDCPreservePost On (CVE-2021-32792)\n* mod_auth_openidc: open redirect due to target_link_uri parameter not validated (CVE-2021-39191)\nFor more details about the security issue(s), including the impact, a CVSS score, acknowledgments, and other related information, refer to the CVE page(s) listed in the References section.\nAdditional Changes:\nFor detailed information on changes in this release, see the Red Hat Enterprise Linux 8.6 Release Notes linked from the References section.",
  "Platform": [
    "Red Hat Enterprise Linux 8"
  ],
  "References": [
    {
      "Source": "RHSA",
      "URI": "https://access.redhat.com/errata/RHSA-2022:1823",
      "ID": "RHSA-2022:1823"
    },
    {
      "Source": "CVE",
      "URI": "https://access.redhat.com/security/cve/CVE-2021-32786",
      "ID": "CVE-2021-32786"
    },
    {
      "Source": "CVE",
      "URI": "https://access.redhat.com/security/cve/CVE-2021-32791",
      "ID": "CVE-2021-32791"
    },
    {
      "Source": "CVE",
      "URI": "https://access.redhat.com/security/cve/CVE-2021-32792",
      "ID": "CVE-2021-32792"
    },
    {
      "Source": "CVE",
      "URI": "https://access.redhat.com/security/cve/CVE-2021-39191",
      "ID": "CVE-2021-39191"
    }
  ],
  "Criteria": {
    "Operator": "OR",
    "Criterias": [
      {
        "Operator": "AND",
        "Criterias": [
          {
            "Operator": "OR",
            "Criterias": [

            ],
            "Criterions": [
              {
                "Comment": "Oracle Linux 8 is installed"
              },
              {
                "Comment": "Red Hat CoreOS 4 is installed"
              }
            ]
          },
          {
            "Operator": "OR",
            "Criterias": [
              {
                "Operator": "AND",
                "Criterias": [
                  {
                    "Operator": "OR",
                    "Criterias": [
                      {
                        "Operator": "AND",
                        "Criterias": [

                        ],
                        "Criterions": [
                          {
                            "Comment": "cjose is earlier than 0:0.6.1-2.module+el8+2454+f890a43a"
                          },
                          {
                            "Comment": "cjose is signed with Red Hat redhatrelease2 key"
                          }
                        ]
                      },
                      {
                        "Operator": "AND",
                        "Criterias": [

                        ],
                        "Criterions": [
                          {
                            "Comment": "cjose-devel is earlier than 0:0.6.1-2.module+el8+2454+f890a43a"
                          },
                          {
                            "Comment": "cjose-devel is signed with Red Hat redhatrelease2 key"
                          }
                        ]
                      },
                      {
                        "Operator": "AND",
                        "Criterias": [

                        ],
                        "Criterions": [
                          {
                            "Comment": "mod_auth_openidc is earlier than 0:2.3.7-11.module+el8.6.0+14082+b6f23e95"
                          },
                          {
                            "Comment": "mod_auth_openidc is signed with Red Hat redhatrelease2 key"
                          }
                        ]
                      }
                    ],
                    "Criterions": [

                    ]
                  }
                ],
                "Criterions": [
                  {
                    "Comment": "Module mod_auth_openidc:2.3 is enabled"
                  }
                ]
              }
            ],
            "Criterions": [

            ]
          }
        ],
        "Criterions": [

        ]
      }
    ],
    "Criterions": [
      {
        "Comment": "Oracle Linux 8 is installed"
      }
    ]
  },
  "Severity": "Moderate",
  "Cves": [
    {
      "Impact": "",
      "Href": "",
      "ID": "CVE-2021-32786"
    },
    {
      "Impact": "",
      "Href": "",
      "ID": "CVE-2021-32791"
    },
    {
      "Impact": "",
      "Href": "",
      "ID": "CVE-2021-32792"
    },
    {
      "Impact": "",
      "Href": "",
      "ID": "CVE-2021-39191"
    }
  ],
  "Issued": {
    "Date": "2022-05-10"
  }
}