{
  "Title": "RHSA-2022:8194: libtiff security update (Moderate)",
  "Description": "The libtiff packages contain a library of functions for manipulating Tagged Image File Format (TIFF) files.\nSecurity Fix(es):\n* libtiff: Denial of Service via crafted TIFF file (CVE-2022-0561)\n* libtiff: Null source pointer lead to Denial of Service via crafted TIFF file (CVE-2022-0562)\n* libtiff: reachable assertion (CVE-2022-0865)\n* libtiff: Out-of-bounds Read error in tiffcp (CVE-2022-0924)\n* libtiff: stack-buffer-overflow in tiffcp.c in main() (CVE-2022-1355)\n* libtiff: out-of-bounds read in _TIFFmemcpy() in tif_unix.c (CVE-2022-22844)\n* libtiff: heap buffer overflow in extractImageSection (CVE-2022-0891)\n* tiff: Null source pointer passed as an argument to memcpy in TIFFFetchNormalTag() in tif_dirread.c (CVE-2022-0908)\n* tiff: Divide By Zero error in tiffcrop (CVE-2022-0909)\n* libtiff: heap-buffer-overflow in TIFFReadRawDataStriped() in tiffinfo.c (CVE-2022-1354)\nFor more details about the security issue(s), including the impact, a CVSS score, acknowledgments, and other related information, refer to the CVE page(s) listed in the References section.\nAdditional Changes:\nFor detailed information on changes in this release, see the Red Hat Enterprise Linux 9.1 Release Notes linked from the References section.",
  "Platform": [
    "Red Hat Enterprise Linux 9"
  ],
  "References": [
    {
      "Source": "RHSA",
      "URI": "https://access.redhat.com/errata/RHSA-2022:8194",
      "ID": "RHSA-2022:8194"
    },
    {
      "Source": "CVE",
      "URI": "https://access.redhat.com/security/cve/CVE-2022-0561",
      "ID": "CVE-2022-0561"
    },
    {
      "Source": "CVE",
      "URI": "https://access.redhat.com/security/cve/CVE-2022-0562",
      "ID": "CVE-2022-0562"
    },
    {
      "Source": "CVE",
      "URI": "https://access.redhat.com/security/cve/CVE-2022-0865",
      "ID": "CVE-2022-0865"
    },
    {
      "Source": "CVE",
      "URI": "https://access.redhat.com/security/cve/CVE-2022-0891",
      "ID": "CVE-2022-0891"
    },
    {
      "Source": "CVE",
      "URI": "https://access.redhat.com/security/cve/CVE-2022-0908",
      "ID": "CVE-2022-0908"
    },
    {
      "Source": "CVE",
      "URI": "https://access.redhat.com/security/cve/CVE-2022-0909",
      "ID": "CVE-2022-0909"
    },
    {
      "Source": "CVE",
      "URI": "https://access.redhat.com/security/cve/CVE-2022-0924",
      "ID": "CVE-2022-0924"
    },
    {
      "Source": "CVE",
      "URI": "https://access.redhat.com/security/cve/CVE-2022-1354",
      "ID": "CVE-2022-1354"
    },
    {
      "Source": "CVE",
      "URI": "https://access.redhat.com/security/cve/CVE-2022-1355",
      "ID": "CVE-2022-1355"
    },
    {
      "Source": "CVE",
      "URI": "https://access.redhat.com/security/cve/CVE-2022-22844",
      "ID": "CVE-2022-22844"
    }
  ],
  "Criteria": {
    "Operator": "OR",
    "Criterias": [
      {
        "Operator": "AND",
        "Criterias": [
          {
            "Operator": "OR",
            "Criterias": [
              {
                "Operator": "AND",
                "Criterias": [

                ],
                "Criterions": [
                  {
                    "Comment": "libtiff is earlier than 0:4.4.0-2.el9"
                  },
                  {
                    "Comment": "libtiff is signed with Red Hat redhatrelease2 key"
                  }
                ]
              },
              {
                "Operator": "AND",
                "Criterias": [

                ],
                "Criterions": [
                  {
                    "Comment": "libtiff-devel is earlier than 0:4.4.0-2.el9"
                  },
                  {
                    "Comment": "libtiff-devel is signed with Red Hat redhatrelease2 key"
                  }
                ]
              },
              {
                "Operator": "AND",
                "Criterias": [

                ],
                "Criterions": [
                  {
                    "Comment": "libtiff-tools is earlier than 0:4.4.0-2.el9"
                  },
                  {
                    "Comment": "libtiff-tools is signed with Red Hat redhatrelease2 key"
                  }
                ]
              }
            ],
            "Criterions": [

            ]
          }
        ],
        "Criterions": [
          {
            "Comment": "Oracle Linux 9 is installed"
          }
        ]
      }
    ],
    "Criterions": [
      {
        "Comment": "Oracle Linux 9 is installed"
      }
    ]
  },
  "Severity": "Moderate",
  "Cves": [
    {
      "Impact": "",
      "Href": "",
      "ID": "CVE-2022-0561"
    },
    {
      "Impact": "",
      "Href": "",
      "ID": "CVE-2022-0562"
    },
    {
      "Impact": "",
      "Href": "",
      "ID": "CVE-2022-0865"
    },
    {
      "Impact": "",
      "Href": "",
      "ID": "CVE-2022-0891"
    },
    {
      "Impact": "",
      "Href": "",
      "ID": "CVE-2022-0908"
    },
    {
      "Impact": "",
      "Href": "",
      "ID": "CVE-2022-0909"
    },
    {
      "Impact": "",
      "Href": "",
      "ID": "CVE-2022-0924"
    },
    {
      "Impact": "",
      "Href": "",
      "ID": "CVE-2022-1354"
    },
    {
      "Impact": "",
      "Href": "",
      "ID": "CVE-2022-1355"
    },
    {
      "Impact": "",
      "Href": "",
      "ID": "CVE-2022-22844"
    }
  ],
  "Issued": {
    "Date": "2022-11-15"
  }
}