{
  "Title": "RHSA-2022:8090: runc security update (Low)",
  "Description": "The runC tool is a lightweight, portable implementation of the Open Container Format (OCF) that provides container runtime.\nSecurity Fix(es):\n* runc: incorrect handling of inheritable capabilities (CVE-2022-29162)\nFor more details about the security issue(s), including the impact, a CVSS score, acknowledgments, and other related information, refer to the CVE page(s) listed in the References section.\nAdditional Changes:\nFor detailed information on changes in this release, see the Red Hat Enterprise Linux 9.1 Release Notes linked from the References section.",
  "Platform": [
    "Red Hat Enterprise Linux 9"
  ],
  "References": [
    {
      "Source": "RHSA",
      "URI": "https://access.redhat.com/errata/RHSA-2022:8090",
      "ID": "RHSA-2022:8090"
    },
    {
      "Source": "CVE",
      "URI": "https://access.redhat.com/security/cve/CVE-2022-29162",
      "ID": "CVE-2022-29162"
    }
  ],
  "Criteria": {
    "Operator": "OR",
    "Criterias": [
      {
        "Operator": "AND",
        "Criterias": [

        ],
        "Criterions": [
          {
            "Comment": "Oracle Linux 9 is installed"
          },
          {
            "Comment": "runc is earlier than 4:1.1.4-1.el9"
          },
          {
            "Comment": "runc is signed with Red Hat redhatrelease2 key"
          }
        ]
      }
    ],
    "Criterions": [
      {
        "Comment": "Oracle Linux 9 is installed"
      }
    ]
  },
  "Severity": "Low",
  "Cves": [
    {
      "Impact": "",
      "Href": "",
      "ID": "CVE-2022-29162"
    }
  ],
  "Issued": {
    "Date": "2022-11-15"
  }
}