{
  "Title": "RHSA-2022:6590: mysql security, bug fix, and enhancement update (Moderate)",
  "Description": "MySQL is a multi-user, multi-threaded SQL database server. It consists of the MySQL server daemon (mysqld) and many client programs and libraries.\nThe following packages have been upgraded to a later upstream version: mysql (8.0.30). (BZ#2122589)\nSecurity Fix(es):\n* mysql: Server: Optimizer multiple unspecified vulnerabilities (CPU Apr 2022) (CVE-2022-21412, CVE-2022-21414, CVE-2022-21435, CVE-2022-21436, CVE-2022-21437, CVE-2022-21438, CVE-2022-21440, CVE-2022-21452, CVE-2022-21459, CVE-2022-21462, CVE-2022-21478, CVE-2022-21479)\n* mysql: Server: DML unspecified vulnerability (CPU Apr 2022) (CVE-2022-21413)\n* mysql: Server: Replication unspecified vulnerability (CPU Apr 2022) (CVE-2022-21415)\n* mysql: InnoDB multiple unspecified vulnerabilities (CPU Apr 2022) (CVE-2022-21417, CVE-2022-21418, CVE-2022-21451, CVE-2022-21423)\n* mysql: Server: DDL multiple unspecified vulnerabilities (CPU Apr 2022) (CVE-2022-21425, CVE-2022-21444)\n* mysql: Server: FTS unspecified vulnerability (CPU Apr 2022) (CVE-2022-21427)\n* mysql: Server: Group Replication Plugin unspecified vulnerability (CPU Apr 2022) (CVE-2022-21454)\n* mysql: Server: PAM Auth Plugin unspecified vulnerability (CPU Jul 2022) (CVE-2022-21455)\n* mysql: Server: PAM Auth Plugin unspecified vulnerability (CPU Apr 2022) (CVE-2022-21457)\n* mysql: Server: Logging unspecified vulnerability (CPU Apr 2022) (CVE-2022-21460)\n* mysql: Server: Optimizer multiple unspecified vulnerabilities (CPU Jul 2022) (CVE-2022-21509, CVE-2022-21525, CVE-2022-21526, CVE-2022-21527, CVE-2022-21528, CVE-2022-21529, CVE-2022-21530, CVE-2022-21531, CVE-2022-21553, CVE-2022-21556, CVE-2022-21569)\n* mysql: Server: Options unspecified vulnerability (CPU Jul 2022) (CVE-2022-21515)\n* mysql: InnoDB multiple unspecified vulnerabilities (CPU Jul 2022) (CVE-2022-21517, CVE-2022-21537, CVE-2022-21539)\n* mysql: Server: Stored Procedure multiple unspecified vulnerabilities (CPU Jul 2022) (CVE-2022-21522, CVE-2022-21534)\n* mysql: Server: Federated unspecified vulnerability (CPU Jul 2022) (CVE-2022-21547)\n* mysql: Server: Security: Encryption unspecified vulnerability (CPU Jul 2022) (CVE-2022-21538)\nFor more details about the security issue(s), including the impact, a CVSS score, acknowledgments, and other related information, refer to the CVE page(s) listed in the References section.\nBug Fix(es):\n* Default logrotate set to wrong log file (BZ#2122592)",
  "Platform": [
    "Red Hat Enterprise Linux 9"
  ],
  "References": [
    {
      "Source": "RHSA",
      "URI": "https://access.redhat.com/errata/RHSA-2022:6590",
      "ID": "RHSA-2022:6590"
    },
    {
      "Source": "CVE",
      "URI": "https://access.redhat.com/security/cve/CVE-2022-21412",
      "ID": "CVE-2022-21412"
    },
    {
      "Source": "CVE",
      "URI": "https://access.redhat.com/security/cve/CVE-2022-21413",
      "ID": "CVE-2022-21413"
    },
    {
      "Source": "CVE",
      "URI": "https://access.redhat.com/security/cve/CVE-2022-21414",
      "ID": "CVE-2022-21414"
    },
    {
      "Source": "CVE",
      "URI": "https://access.redhat.com/security/cve/CVE-2022-21415",
      "ID": "CVE-2022-21415"
    },
    {
      "Source": "CVE",
      "URI": "https://access.redhat.com/security/cve/CVE-2022-21417",
      "ID": "CVE-2022-21417"
    },
    {
      "Source": "CVE",
      "URI": "https://access.redhat.com/security/cve/CVE-2022-21418",
      "ID": "CVE-2022-21418"
    },
    {
      "Source": "CVE",
      "URI": "https://access.redhat.com/security/cve/CVE-2022-21423",
      "ID": "CVE-2022-21423"
    },
    {
      "Source": "CVE",
      "URI": "https://access.redhat.com/security/cve/CVE-2022-21425",
      "ID": "CVE-2022-21425"
    },
    {
      "Source": "CVE",
      "URI": "https://access.redhat.com/security/cve/CVE-2022-21427",
      "ID": "CVE-2022-21427"
    },
    {
      "Source": "CVE",
      "URI": "https://access.redhat.com/security/cve/CVE-2022-21435",
      "ID": "CVE-2022-21435"
    },
    {
      "Source": "CVE",
      "URI": "https://access.redhat.com/security/cve/CVE-2022-21436",
      "ID": "CVE-2022-21436"
    },
    {
      "Source": "CVE",
      "URI": "https://access.redhat.com/security/cve/CVE-2022-21437",
      "ID": "CVE-2022-21437"
    },
    {
      "Source": "CVE",
      "URI": "https://access.redhat.com/security/cve/CVE-2022-21438",
      "ID": "CVE-2022-21438"
    },
    {
      "Source": "CVE",
      "URI": "https://access.redhat.com/security/cve/CVE-2022-21440",
      "ID": "CVE-2022-21440"
    },
    {
      "Source": "CVE",
      "URI": "https://access.redhat.com/security/cve/CVE-2022-21444",
      "ID": "CVE-2022-21444"
    },
    {
      "Source": "CVE",
      "URI": "https://access.redhat.com/security/cve/CVE-2022-21451",
      "ID": "CVE-2022-21451"
    },
    {
      "Source": "CVE",
      "URI": "https://access.redhat.com/security/cve/CVE-2022-21452",
      "ID": "CVE-2022-21452"
    },
    {
      "Source": "CVE",
      "URI": "https://access.redhat.com/security/cve/CVE-2022-21454",
      "ID": "CVE-2022-21454"
    },
    {
      "Source": "CVE",
      "URI": "https://access.redhat.com/security/cve/CVE-2022-21455",
      "ID": "CVE-2022-21455"
    },
    {
      "Source": "CVE",
      "URI": "https://access.redhat.com/security/cve/CVE-2022-21457",
      "ID": "CVE-2022-21457"
    },
    {
      "Source": "CVE",
      "URI": "https://access.redhat.com/security/cve/CVE-2022-21459",
      "ID": "CVE-2022-21459"
    },
    {
      "Source": "CVE",
      "URI": "https://access.redhat.com/security/cve/CVE-2022-21460",
      "ID": "CVE-2022-21460"
    },
    {
      "Source": "CVE",
      "URI": "https://access.redhat.com/security/cve/CVE-2022-21462",
      "ID": "CVE-2022-21462"
    },
    {
      "Source": "CVE",
      "URI": "https://access.redhat.com/security/cve/CVE-2022-21478",
      "ID": "CVE-2022-21478"
    },
    {
      "Source": "CVE",
      "URI": "https://access.redhat.com/security/cve/CVE-2022-21479",
      "ID": "CVE-2022-21479"
    },
    {
      "Source": "CVE",
      "URI": "https://access.redhat.com/security/cve/CVE-2022-21509",
      "ID": "CVE-2022-21509"
    },
    {
      "Source": "CVE",
      "URI": "https://access.redhat.com/security/cve/CVE-2022-21515",
      "ID": "CVE-2022-21515"
    },
    {
      "Source": "CVE",
      "URI": "https://access.redhat.com/security/cve/CVE-2022-21517",
      "ID": "CVE-2022-21517"
    },
    {
      "Source": "CVE",
      "URI": "https://access.redhat.com/security/cve/CVE-2022-21522",
      "ID": "CVE-2022-21522"
    },
    {
      "Source": "CVE",
      "URI": "https://access.redhat.com/security/cve/CVE-2022-21525",
      "ID": "CVE-2022-21525"
    },
    {
      "Source": "CVE",
      "URI": "https://access.redhat.com/security/cve/CVE-2022-21526",
      "ID": "CVE-2022-21526"
    },
    {
      "Source": "CVE",
      "URI": "https://access.redhat.com/security/cve/CVE-2022-21527",
      "ID": "CVE-2022-21527"
    },
    {
      "Source": "CVE",
      "URI": "https://access.redhat.com/security/cve/CVE-2022-21528",
      "ID": "CVE-2022-21528"
    },
    {
      "Source": "CVE",
      "URI": "https://access.redhat.com/security/cve/CVE-2022-21529",
      "ID": "CVE-2022-21529"
    },
    {
      "Source": "CVE",
      "URI": "https://access.redhat.com/security/cve/CVE-2022-21530",
      "ID": "CVE-2022-21530"
    },
    {
      "Source": "CVE",
      "URI": "https://access.redhat.com/security/cve/CVE-2022-21531",
      "ID": "CVE-2022-21531"
    },
    {
      "Source": "CVE",
      "URI": "https://access.redhat.com/security/cve/CVE-2022-21534",
      "ID": "CVE-2022-21534"
    },
    {
      "Source": "CVE",
      "URI": "https://access.redhat.com/security/cve/CVE-2022-21537",
      "ID": "CVE-2022-21537"
    },
    {
      "Source": "CVE",
      "URI": "https://access.redhat.com/security/cve/CVE-2022-21538",
      "ID": "CVE-2022-21538"
    },
    {
      "Source": "CVE",
      "URI": "https://access.redhat.com/security/cve/CVE-2022-21539",
      "ID": "CVE-2022-21539"
    },
    {
      "Source": "CVE",
      "URI": "https://access.redhat.com/security/cve/CVE-2022-21547",
      "ID": "CVE-2022-21547"
    },
    {
      "Source": "CVE",
      "URI": "https://access.redhat.com/security/cve/CVE-2022-21553",
      "ID": "CVE-2022-21553"
    },
    {
      "Source": "CVE",
      "URI": "https://access.redhat.com/security/cve/CVE-2022-21556",
      "ID": "CVE-2022-21556"
    },
    {
      "Source": "CVE",
      "URI": "https://access.redhat.com/security/cve/CVE-2022-21569",
      "ID": "CVE-2022-21569"
    },
    {
      "Source": "CVE",
      "URI": "https://access.redhat.com/security/cve/CVE-2022-21592",
      "ID": "CVE-2022-21592"
    },
    {
      "Source": "CVE",
      "URI": "https://access.redhat.com/security/cve/CVE-2022-21605",
      "ID": "CVE-2022-21605"
    },
    {
      "Source": "CVE",
      "URI": "https://access.redhat.com/security/cve/CVE-2022-21607",
      "ID": "CVE-2022-21607"
    },
    {
      "Source": "CVE",
      "URI": "https://access.redhat.com/security/cve/CVE-2022-21635",
      "ID": "CVE-2022-21635"
    },
    {
      "Source": "CVE",
      "URI": "https://access.redhat.com/security/cve/CVE-2022-21638",
      "ID": "CVE-2022-21638"
    },
    {
      "Source": "CVE",
      "URI": "https://access.redhat.com/security/cve/CVE-2022-21641",
      "ID": "CVE-2022-21641"
    },
    {
      "Source": "CVE",
      "URI": "https://access.redhat.com/security/cve/CVE-2023-21866",
      "ID": "CVE-2023-21866"
    },
    {
      "Source": "CVE",
      "URI": "https://access.redhat.com/security/cve/CVE-2023-21872",
      "ID": "CVE-2023-21872"
    }
  ],
  "Criteria": {
    "Operator": "OR",
    "Criterias": [
      {
        "Operator": "AND",
        "Criterias": [
          {
            "Operator": "OR",
            "Criterias": [
              {
                "Operator": "AND",
                "Criterias": [

                ],
                "Criterions": [
                  {
                    "Comment": "mysql is earlier than 0:8.0.30-3.el9_0"
                  },
                  {
                    "Comment": "mysql is signed with Red Hat redhatrelease2 key"
                  }
                ]
              },
              {
                "Operator": "AND",
                "Criterias": [

                ],
                "Criterions": [
                  {
                    "Comment": "mysql-common is earlier than 0:8.0.30-3.el9_0"
                  },
                  {
                    "Comment": "mysql-common is signed with Red Hat redhatrelease2 key"
                  }
                ]
              },
              {
                "Operator": "AND",
                "Criterias": [

                ],
                "Criterions": [
                  {
                    "Comment": "mysql-devel is earlier than 0:8.0.30-3.el9_0"
                  },
                  {
                    "Comment": "mysql-devel is signed with Red Hat redhatrelease2 key"
                  }
                ]
              },
              {
                "Operator": "AND",
                "Criterias": [

                ],
                "Criterions": [
                  {
                    "Comment": "mysql-errmsg is earlier than 0:8.0.30-3.el9_0"
                  },
                  {
                    "Comment": "mysql-errmsg is signed with Red Hat redhatrelease2 key"
                  }
                ]
              },
              {
                "Operator": "AND",
                "Criterias": [

                ],
                "Criterions": [
                  {
                    "Comment": "mysql-libs is earlier than 0:8.0.30-3.el9_0"
                  },
                  {
                    "Comment": "mysql-libs is signed with Red Hat redhatrelease2 key"
                  }
                ]
              },
              {
                "Operator": "AND",
                "Criterias": [

                ],
                "Criterions": [
                  {
                    "Comment": "mysql-server is earlier than 0:8.0.30-3.el9_0"
                  },
                  {
                    "Comment": "mysql-server is signed with Red Hat redhatrelease2 key"
                  }
                ]
              },
              {
                "Operator": "AND",
                "Criterias": [

                ],
                "Criterions": [
                  {
                    "Comment": "mysql-test is earlier than 0:8.0.30-3.el9_0"
                  },
                  {
                    "Comment": "mysql-test is signed with Red Hat redhatrelease2 key"
                  }
                ]
              }
            ],
            "Criterions": [

            ]
          }
        ],
        "Criterions": [
          {
            "Comment": "Oracle Linux 9 is installed"
          }
        ]
      }
    ],
    "Criterions": [
      {
        "Comment": "Oracle Linux 9 is installed"
      }
    ]
  },
  "Severity": "Moderate",
  "Cves": [
    {
      "Impact": "",
      "Href": "",
      "ID": "CVE-2022-21412"
    },
    {
      "Impact": "",
      "Href": "",
      "ID": "CVE-2022-21413"
    },
    {
      "Impact": "",
      "Href": "",
      "ID": "CVE-2022-21414"
    },
    {
      "Impact": "",
      "Href": "",
      "ID": "CVE-2022-21415"
    },
    {
      "Impact": "",
      "Href": "",
      "ID": "CVE-2022-21417"
    },
    {
      "Impact": "",
      "Href": "",
      "ID": "CVE-2022-21418"
    },
    {
      "Impact": "",
      "Href": "",
      "ID": "CVE-2022-21423"
    },
    {
      "Impact": "",
      "Href": "",
      "ID": "CVE-2022-21425"
    },
    {
      "Impact": "",
      "Href": "",
      "ID": "CVE-2022-21427"
    },
    {
      "Impact": "",
      "Href": "",
      "ID": "CVE-2022-21435"
    },
    {
      "Impact": "",
      "Href": "",
      "ID": "CVE-2022-21436"
    },
    {
      "Impact": "",
      "Href": "",
      "ID": "CVE-2022-21437"
    },
    {
      "Impact": "",
      "Href": "",
      "ID": "CVE-2022-21438"
    },
    {
      "Impact": "",
      "Href": "",
      "ID": "CVE-2022-21440"
    },
    {
      "Impact": "",
      "Href": "",
      "ID": "CVE-2022-21444"
    },
    {
      "Impact": "",
      "Href": "",
      "ID": "CVE-2022-21451"
    },
    {
      "Impact": "",
      "Href": "",
      "ID": "CVE-2022-21452"
    },
    {
      "Impact": "",
      "Href": "",
      "ID": "CVE-2022-21454"
    },
    {
      "Impact": "",
      "Href": "",
      "ID": "CVE-2022-21455"
    },
    {
      "Impact": "",
      "Href": "",
      "ID": "CVE-2022-21457"
    },
    {
      "Impact": "",
      "Href": "",
      "ID": "CVE-2022-21459"
    },
    {
      "Impact": "",
      "Href": "",
      "ID": "CVE-2022-21460"
    },
    {
      "Impact": "",
      "Href": "",
      "ID": "CVE-2022-21462"
    },
    {
      "Impact": "",
      "Href": "",
      "ID": "CVE-2022-21478"
    },
    {
      "Impact": "",
      "Href": "",
      "ID": "CVE-2022-21479"
    },
    {
      "Impact": "",
      "Href": "",
      "ID": "CVE-2022-21509"
    },
    {
      "Impact": "",
      "Href": "",
      "ID": "CVE-2022-21515"
    },
    {
      "Impact": "",
      "Href": "",
      "ID": "CVE-2022-21517"
    },
    {
      "Impact": "",
      "Href": "",
      "ID": "CVE-2022-21522"
    },
    {
      "Impact": "",
      "Href": "",
      "ID": "CVE-2022-21525"
    },
    {
      "Impact": "",
      "Href": "",
      "ID": "CVE-2022-21526"
    },
    {
      "Impact": "",
      "Href": "",
      "ID": "CVE-2022-21527"
    },
    {
      "Impact": "",
      "Href": "",
      "ID": "CVE-2022-21528"
    },
    {
      "Impact": "",
      "Href": "",
      "ID": "CVE-2022-21529"
    },
    {
      "Impact": "",
      "Href": "",
      "ID": "CVE-2022-21530"
    },
    {
      "Impact": "",
      "Href": "",
      "ID": "CVE-2022-21531"
    },
    {
      "Impact": "",
      "Href": "",
      "ID": "CVE-2022-21534"
    },
    {
      "Impact": "",
      "Href": "",
      "ID": "CVE-2022-21537"
    },
    {
      "Impact": "",
      "Href": "",
      "ID": "CVE-2022-21538"
    },
    {
      "Impact": "",
      "Href": "",
      "ID": "CVE-2022-21539"
    },
    {
      "Impact": "",
      "Href": "",
      "ID": "CVE-2022-21547"
    },
    {
      "Impact": "",
      "Href": "",
      "ID": "CVE-2022-21553"
    },
    {
      "Impact": "",
      "Href": "",
      "ID": "CVE-2022-21556"
    },
    {
      "Impact": "",
      "Href": "",
      "ID": "CVE-2022-21569"
    },
    {
      "Impact": "",
      "Href": "",
      "ID": "CVE-2022-21592"
    },
    {
      "Impact": "",
      "Href": "",
      "ID": "CVE-2022-21605"
    },
    {
      "Impact": "",
      "Href": "",
      "ID": "CVE-2022-21607"
    },
    {
      "Impact": "",
      "Href": "",
      "ID": "CVE-2022-21635"
    },
    {
      "Impact": "",
      "Href": "",
      "ID": "CVE-2022-21638"
    },
    {
      "Impact": "",
      "Href": "",
      "ID": "CVE-2022-21641"
    },
    {
      "Impact": "",
      "Href": "",
      "ID": "CVE-2023-21866"
    },
    {
      "Impact": "",
      "Href": "",
      "ID": "CVE-2023-21872"
    }
  ],
  "Issued": {
    "Date": "2022-09-20"
  }
}