{
  "Title": "RHSA-2022:1287: firefox security update (Important)",
  "Description": "Mozilla Firefox is an open-source web browser, designed for standards compliance, performance, and portability.\nThis update upgrades Firefox to version 91.8.0 ESR.\nSecurity Fix(es):\n* Mozilla: Use-after-free in NSSToken objects (CVE-2022-1097)\n* Mozilla: Out of bounds write due to unexpected WebAuthN Extensions (CVE-2022-28281)\n* Mozilla: Memory safety bugs fixed in Firefox 99 and Firefox ESR 91.8 (CVE-2022-28289)\n* Mozilla: Use-after-free after VR Process destruction (CVE-2022-1196)\n* Mozilla: Use-after-free in DocumentL10n::TranslateDocument (CVE-2022-28282)\n* Mozilla: Incorrect AliasSet used in JIT Codegen (CVE-2022-28285)\n* Mozilla: Denial of Service via complex regular expressions (CVE-2022-24713)\n* Mozilla: iframe contents could be rendered outside the border (CVE-2022-28286)\nFor more details about the security issue(s), including the impact, a CVSS score, acknowledgments, and other related information, refer to the CVE page(s) listed in the References section.",
  "Platform": [
    "Red Hat Enterprise Linux 8"
  ],
  "References": [
    {
      "Source": "RHSA",
      "URI": "https://access.redhat.com/errata/RHSA-2022:1287",
      "ID": "RHSA-2022:1287"
    },
    {
      "Source": "CVE",
      "URI": "https://access.redhat.com/security/cve/CVE-2022-1097",
      "ID": "CVE-2022-1097"
    },
    {
      "Source": "CVE",
      "URI": "https://access.redhat.com/security/cve/CVE-2022-1196",
      "ID": "CVE-2022-1196"
    },
    {
      "Source": "CVE",
      "URI": "https://access.redhat.com/security/cve/CVE-2022-24713",
      "ID": "CVE-2022-24713"
    },
    {
      "Source": "CVE",
      "URI": "https://access.redhat.com/security/cve/CVE-2022-28281",
      "ID": "CVE-2022-28281"
    },
    {
      "Source": "CVE",
      "URI": "https://access.redhat.com/security/cve/CVE-2022-28282",
      "ID": "CVE-2022-28282"
    },
    {
      "Source": "CVE",
      "URI": "https://access.redhat.com/security/cve/CVE-2022-28285",
      "ID": "CVE-2022-28285"
    },
    {
      "Source": "CVE",
      "URI": "https://access.redhat.com/security/cve/CVE-2022-28286",
      "ID": "CVE-2022-28286"
    },
    {
      "Source": "CVE",
      "URI": "https://access.redhat.com/security/cve/CVE-2022-28289",
      "ID": "CVE-2022-28289"
    }
  ],
  "Criteria": {
    "Operator": "OR",
    "Criterias": [
      {
        "Operator": "AND",
        "Criterias": [
          {
            "Operator": "OR",
            "Criterias": [

            ],
            "Criterions": [
              {
                "Comment": "Oracle Linux 8 is installed"
              },
              {
                "Comment": "Red Hat CoreOS 4 is installed"
              }
            ]
          }
        ],
        "Criterions": [
          {
            "Comment": "firefox is earlier than 0:91.8.0-1.el8_5"
          },
          {
            "Comment": "firefox is signed with Red Hat redhatrelease2 key"
          }
        ]
      }
    ],
    "Criterions": [
      {
        "Comment": "Oracle Linux 8 is installed"
      }
    ]
  },
  "Severity": "Important",
  "Cves": [
    {
      "Impact": "",
      "Href": "",
      "ID": "CVE-2022-1097"
    },
    {
      "Impact": "",
      "Href": "",
      "ID": "CVE-2022-1196"
    },
    {
      "Impact": "",
      "Href": "",
      "ID": "CVE-2022-24713"
    },
    {
      "Impact": "",
      "Href": "",
      "ID": "CVE-2022-28281"
    },
    {
      "Impact": "",
      "Href": "",
      "ID": "CVE-2022-28282"
    },
    {
      "Impact": "",
      "Href": "",
      "ID": "CVE-2022-28285"
    },
    {
      "Impact": "",
      "Href": "",
      "ID": "CVE-2022-28286"
    },
    {
      "Impact": "",
      "Href": "",
      "ID": "CVE-2022-28289"
    }
  ],
  "Issued": {
    "Date": "2022-04-08"
  }
}