{
  "Title": "RHSA-2022:7643: bind9.16 security update (Important)",
  "Description": "The Berkeley Internet Name Domain (BIND) is an implementation of the Domain Name System (DNS) protocols. BIND includes a DNS server (named); a resolver library (routines for applications to use when interfacing with DNS); and tools for verifying that the DNS server is operating correctly.\nSecurity Fix(es):\n* bind: DNS forwarders - cache poisoning vulnerability (CVE-2021-25220)\n* bind: DoS from specifically crafted TCP packets (CVE-2022-0396)\nFor more details about the security issue(s), including the impact, a CVSS score, acknowledgments, and other related information, refer to the CVE page(s) listed in the References section.\nAdditional Changes:\nFor detailed information on changes in this release, see the Red Hat Enterprise Linux 8.7 Release Notes linked from the References section.",
  "Platform": [
    "Red Hat Enterprise Linux 8"
  ],
  "References": [
    {
      "Source": "RHSA",
      "URI": "https://access.redhat.com/errata/RHSA-2022:7643",
      "ID": "RHSA-2022:7643"
    },
    {
      "Source": "CVE",
      "URI": "https://access.redhat.com/security/cve/CVE-2021-25220",
      "ID": "CVE-2021-25220"
    },
    {
      "Source": "CVE",
      "URI": "https://access.redhat.com/security/cve/CVE-2022-0396",
      "ID": "CVE-2022-0396"
    }
  ],
  "Criteria": {
    "Operator": "OR",
    "Criterias": [
      {
        "Operator": "AND",
        "Criterias": [
          {
            "Operator": "OR",
            "Criterias": [

            ],
            "Criterions": [
              {
                "Comment": "Oracle Linux 8 is installed"
              },
              {
                "Comment": "Red Hat CoreOS 4 is installed"
              }
            ]
          },
          {
            "Operator": "OR",
            "Criterias": [
              {
                "Operator": "AND",
                "Criterias": [

                ],
                "Criterions": [
                  {
                    "Comment": "bind9.16 is earlier than 32:9.16.23-0.9.el8.1"
                  },
                  {
                    "Comment": "bind9.16 is signed with Red Hat redhatrelease2 key"
                  }
                ]
              },
              {
                "Operator": "AND",
                "Criterias": [

                ],
                "Criterions": [
                  {
                    "Comment": "bind9.16-chroot is earlier than 32:9.16.23-0.9.el8.1"
                  },
                  {
                    "Comment": "bind9.16-chroot is signed with Red Hat redhatrelease2 key"
                  }
                ]
              },
              {
                "Operator": "AND",
                "Criterias": [

                ],
                "Criterions": [
                  {
                    "Comment": "bind9.16-devel is earlier than 32:9.16.23-0.9.el8.1"
                  },
                  {
                    "Comment": "bind9.16-devel is signed with Red Hat redhatrelease2 key"
                  }
                ]
              },
              {
                "Operator": "AND",
                "Criterias": [

                ],
                "Criterions": [
                  {
                    "Comment": "bind9.16-dnssec-utils is earlier than 32:9.16.23-0.9.el8.1"
                  },
                  {
                    "Comment": "bind9.16-dnssec-utils is signed with Red Hat redhatrelease2 key"
                  }
                ]
              },
              {
                "Operator": "AND",
                "Criterias": [

                ],
                "Criterions": [
                  {
                    "Comment": "bind9.16-doc is earlier than 32:9.16.23-0.9.el8.1"
                  },
                  {
                    "Comment": "bind9.16-doc is signed with Red Hat redhatrelease2 key"
                  }
                ]
              },
              {
                "Operator": "AND",
                "Criterias": [

                ],
                "Criterions": [
                  {
                    "Comment": "bind9.16-libs is earlier than 32:9.16.23-0.9.el8.1"
                  },
                  {
                    "Comment": "bind9.16-libs is signed with Red Hat redhatrelease2 key"
                  }
                ]
              },
              {
                "Operator": "AND",
                "Criterias": [

                ],
                "Criterions": [
                  {
                    "Comment": "bind9.16-license is earlier than 32:9.16.23-0.9.el8.1"
                  },
                  {
                    "Comment": "bind9.16-license is signed with Red Hat redhatrelease2 key"
                  }
                ]
              },
              {
                "Operator": "AND",
                "Criterias": [

                ],
                "Criterions": [
                  {
                    "Comment": "bind9.16-utils is earlier than 32:9.16.23-0.9.el8.1"
                  },
                  {
                    "Comment": "bind9.16-utils is signed with Red Hat redhatrelease2 key"
                  }
                ]
              },
              {
                "Operator": "AND",
                "Criterias": [

                ],
                "Criterions": [
                  {
                    "Comment": "python3-bind9.16 is earlier than 32:9.16.23-0.9.el8.1"
                  },
                  {
                    "Comment": "python3-bind9.16 is signed with Red Hat redhatrelease2 key"
                  }
                ]
              }
            ],
            "Criterions": [

            ]
          }
        ],
        "Criterions": [

        ]
      }
    ],
    "Criterions": [
      {
        "Comment": "Oracle Linux 8 is installed"
      }
    ]
  },
  "Severity": "Important",
  "Cves": [
    {
      "Impact": "",
      "Href": "",
      "ID": "CVE-2021-25220"
    },
    {
      "Impact": "",
      "Href": "",
      "ID": "CVE-2022-0396"
    }
  ],
  "Issued": {
    "Date": "2022-11-08"
  }
}