{
  "Title": "RHSA-2022:7979: speex security update (Low)",
  "Description": "Speex is a patent-free compression format designed especially for speech. It is specialized for voice communications at low bit-rates.\nSecurity Fix(es):\n* speex: divide by zero in read_samples() via crafted WAV file (CVE-2020-23903)\nFor more details about the security issue(s), including the impact, a CVSS score, acknowledgments, and other related information, refer to the CVE page(s) listed in the References section.\nAdditional Changes:\nFor detailed information on changes in this release, see the Red Hat Enterprise Linux 9.1 Release Notes linked from the References section.",
  "Platform": [
    "Red Hat Enterprise Linux 9"
  ],
  "References": [
    {
      "Source": "RHSA",
      "URI": "https://access.redhat.com/errata/RHSA-2022:7979",
      "ID": "RHSA-2022:7979"
    },
    {
      "Source": "CVE",
      "URI": "https://access.redhat.com/security/cve/CVE-2020-23903",
      "ID": "CVE-2020-23903"
    }
  ],
  "Criteria": {
    "Operator": "OR",
    "Criterias": [
      {
        "Operator": "AND",
        "Criterias": [
          {
            "Operator": "OR",
            "Criterias": [
              {
                "Operator": "AND",
                "Criterias": [

                ],
                "Criterions": [
                  {
                    "Comment": "speex is earlier than 0:1.2.0-11.el9"
                  },
                  {
                    "Comment": "speex is signed with Red Hat redhatrelease2 key"
                  }
                ]
              },
              {
                "Operator": "AND",
                "Criterias": [

                ],
                "Criterions": [
                  {
                    "Comment": "speex-devel is earlier than 0:1.2.0-11.el9"
                  },
                  {
                    "Comment": "speex-devel is signed with Red Hat redhatrelease2 key"
                  }
                ]
              }
            ],
            "Criterions": [

            ]
          }
        ],
        "Criterions": [
          {
            "Comment": "Oracle Linux 9 is installed"
          }
        ]
      }
    ],
    "Criterions": [
      {
        "Comment": "Oracle Linux 9 is installed"
      }
    ]
  },
  "Severity": "Low",
  "Cves": [
    {
      "Impact": "",
      "Href": "",
      "ID": "CVE-2020-23903"
    }
  ],
  "Issued": {
    "Date": "2022-11-15"
  }
}