{
  "Title": "RHSA-2022:8054: webkit2gtk3 security and bug fix update (Moderate)",
  "Description": "WebKitGTK is the port of the portable web rendering engine WebKit to the GTK platform.\nSecurity Fix(es):\n* webkitgtk: Use-after-free leading to arbitrary code execution (CVE-2022-22624)\n* webkitgtk: Use-after-free leading to arbitrary code execution (CVE-2022-22628)\n* webkitgtk: Buffer overflow leading to arbitrary code execution (CVE-2022-22629)\n* webkitgtk: Cookie management issue leading to sensitive user information disclosure (CVE-2022-22662)\n* webkitgtk: Memory corruption issue leading to arbitrary code execution (CVE-2022-26700)\n* webkitgtk: Use-after-free leading to arbitrary code execution (CVE-2022-26709)\n* webkitgtk: Use-after-free leading to arbitrary code execution (CVE-2022-26710)\n* webkitgtk: Memory corruption issue leading to arbitrary code execution (CVE-2022-26716)\n* webkitgtk: Use-after-free leading to arbitrary code execution (CVE-2022-26717)\n* webkitgtk: Memory corruption issue leading to arbitrary code execution (CVE-2022-26719)\n* webkitgtk: Heap buffer overflow in WebCore::TextureMapperLayer::setContentsLayer leading to arbitrary code execution (CVE-2022-30293)\nFor more details about the security issue(s), including the impact, a CVSS score, acknowledgments, and other related information, refer to the CVE page(s) listed in the References section.\nAdditional Changes:\nFor detailed information on changes in this release, see the Red Hat Enterprise Linux 9.1 Release Notes linked from the References section.",
  "Platform": [
    "Red Hat Enterprise Linux 9"
  ],
  "References": [
    {
      "Source": "RHSA",
      "URI": "https://access.redhat.com/errata/RHSA-2022:8054",
      "ID": "RHSA-2022:8054"
    },
    {
      "Source": "CVE",
      "URI": "https://access.redhat.com/security/cve/CVE-2022-22624",
      "ID": "CVE-2022-22624"
    },
    {
      "Source": "CVE",
      "URI": "https://access.redhat.com/security/cve/CVE-2022-22628",
      "ID": "CVE-2022-22628"
    },
    {
      "Source": "CVE",
      "URI": "https://access.redhat.com/security/cve/CVE-2022-22629",
      "ID": "CVE-2022-22629"
    },
    {
      "Source": "CVE",
      "URI": "https://access.redhat.com/security/cve/CVE-2022-22662",
      "ID": "CVE-2022-22662"
    },
    {
      "Source": "CVE",
      "URI": "https://access.redhat.com/security/cve/CVE-2022-26700",
      "ID": "CVE-2022-26700"
    },
    {
      "Source": "CVE",
      "URI": "https://access.redhat.com/security/cve/CVE-2022-26709",
      "ID": "CVE-2022-26709"
    },
    {
      "Source": "CVE",
      "URI": "https://access.redhat.com/security/cve/CVE-2022-26710",
      "ID": "CVE-2022-26710"
    },
    {
      "Source": "CVE",
      "URI": "https://access.redhat.com/security/cve/CVE-2022-26716",
      "ID": "CVE-2022-26716"
    },
    {
      "Source": "CVE",
      "URI": "https://access.redhat.com/security/cve/CVE-2022-26717",
      "ID": "CVE-2022-26717"
    },
    {
      "Source": "CVE",
      "URI": "https://access.redhat.com/security/cve/CVE-2022-26719",
      "ID": "CVE-2022-26719"
    },
    {
      "Source": "CVE",
      "URI": "https://access.redhat.com/security/cve/CVE-2022-30293",
      "ID": "CVE-2022-30293"
    }
  ],
  "Criteria": {
    "Operator": "OR",
    "Criterias": [
      {
        "Operator": "AND",
        "Criterias": [
          {
            "Operator": "OR",
            "Criterias": [
              {
                "Operator": "AND",
                "Criterias": [

                ],
                "Criterions": [
                  {
                    "Comment": "webkit2gtk3 is earlier than 0:2.36.7-1.el9"
                  },
                  {
                    "Comment": "webkit2gtk3 is signed with Red Hat redhatrelease2 key"
                  }
                ]
              },
              {
                "Operator": "AND",
                "Criterias": [

                ],
                "Criterions": [
                  {
                    "Comment": "webkit2gtk3-devel is earlier than 0:2.36.7-1.el9"
                  },
                  {
                    "Comment": "webkit2gtk3-devel is signed with Red Hat redhatrelease2 key"
                  }
                ]
              },
              {
                "Operator": "AND",
                "Criterias": [

                ],
                "Criterions": [
                  {
                    "Comment": "webkit2gtk3-jsc is earlier than 0:2.36.7-1.el9"
                  },
                  {
                    "Comment": "webkit2gtk3-jsc is signed with Red Hat redhatrelease2 key"
                  }
                ]
              },
              {
                "Operator": "AND",
                "Criterias": [

                ],
                "Criterions": [
                  {
                    "Comment": "webkit2gtk3-jsc-devel is earlier than 0:2.36.7-1.el9"
                  },
                  {
                    "Comment": "webkit2gtk3-jsc-devel is signed with Red Hat redhatrelease2 key"
                  }
                ]
              }
            ],
            "Criterions": [

            ]
          }
        ],
        "Criterions": [
          {
            "Comment": "Oracle Linux 9 is installed"
          }
        ]
      }
    ],
    "Criterions": [
      {
        "Comment": "Oracle Linux 9 is installed"
      }
    ]
  },
  "Severity": "Moderate",
  "Cves": [
    {
      "Impact": "",
      "Href": "",
      "ID": "CVE-2022-22624"
    },
    {
      "Impact": "",
      "Href": "",
      "ID": "CVE-2022-22628"
    },
    {
      "Impact": "",
      "Href": "",
      "ID": "CVE-2022-22629"
    },
    {
      "Impact": "",
      "Href": "",
      "ID": "CVE-2022-22662"
    },
    {
      "Impact": "",
      "Href": "",
      "ID": "CVE-2022-26700"
    },
    {
      "Impact": "",
      "Href": "",
      "ID": "CVE-2022-26709"
    },
    {
      "Impact": "",
      "Href": "",
      "ID": "CVE-2022-26710"
    },
    {
      "Impact": "",
      "Href": "",
      "ID": "CVE-2022-26716"
    },
    {
      "Impact": "",
      "Href": "",
      "ID": "CVE-2022-26717"
    },
    {
      "Impact": "",
      "Href": "",
      "ID": "CVE-2022-26719"
    },
    {
      "Impact": "",
      "Href": "",
      "ID": "CVE-2022-30293"
    }
  ],
  "Issued": {
    "Date": "2022-11-15"
  }
}