{
  "Title": "RHSA-2022:0592: kpatch-patch security update (Important)",
  "Description": "This is a kernel live patch module which is automatically loaded by the RPM post-install script to modify the code of a running kernel.\nSecurity Fix(es):\n* kernel: use after free in eventpoll.c may lead to escalation of privilege (CVE-2020-0466)\n* kernel: Use After Free in unix_gc() which could result in a local privilege escalation (CVE-2021-0920)\n* kernel: xfs: raw block device data leak in XFS_IOC_ALLOCSP IOCTL (CVE-2021-4155)\n* kernel: possible privileges escalation due to missing TLB flush (CVE-2022-0330)\n* kernel: failing usercopy allows for use-after-free exploitation (CVE-2022-22942)\nFor more details about the security issue(s), including the impact, a CVSS score, acknowledgments, and other related information, refer to the CVE page(s) listed in the References section.",
  "Platform": [
    "Red Hat Enterprise Linux 7"
  ],
  "References": [
    {
      "Source": "RHSA",
      "URI": "https://access.redhat.com/errata/RHSA-2022:0592",
      "ID": "RHSA-2022:0592"
    },
    {
      "Source": "CVE",
      "URI": "https://access.redhat.com/security/cve/CVE-2020-0466",
      "ID": "CVE-2020-0466"
    },
    {
      "Source": "CVE",
      "URI": "https://access.redhat.com/security/cve/CVE-2021-0920",
      "ID": "CVE-2021-0920"
    },
    {
      "Source": "CVE",
      "URI": "https://access.redhat.com/security/cve/CVE-2021-4155",
      "ID": "CVE-2021-4155"
    },
    {
      "Source": "CVE",
      "URI": "https://access.redhat.com/security/cve/CVE-2022-0330",
      "ID": "CVE-2022-0330"
    },
    {
      "Source": "CVE",
      "URI": "https://access.redhat.com/security/cve/CVE-2022-22942",
      "ID": "CVE-2022-22942"
    }
  ],
  "Criteria": {
    "Operator": "OR",
    "Criterias": [
      {
        "Operator": "AND",
        "Criterias": [
          {
            "Operator": "OR",
            "Criterias": [
              {
                "Operator": "AND",
                "Criterias": [
                  {
                    "Operator": "OR",
                    "Criterias": [

                    ],
                    "Criterions": [
                      {
                        "Comment": "kernel version 0:3.10.0-1160.21.1.el7 is currently running"
                      },
                      {
                        "Comment": "kernel version 0:3.10.0-1160.21.1.el7 is set to boot up on next boot"
                      }
                    ]
                  },
                  {
                    "Operator": "AND",
                    "Criterias": [
                      {
                        "Operator": "OR",
                        "Criterias": [
                          {
                            "Operator": "AND",
                            "Criterias": [

                            ],
                            "Criterions": [
                              {
                                "Comment": "kpatch-patch-3_10_0-1160_21_1 is earlier than 0:1-9.el7"
                              },
                              {
                                "Comment": "kpatch-patch-3_10_0-1160_21_1 is signed with Red Hat redhatrelease2 key"
                              }
                            ]
                          }
                        ],
                        "Criterions": [
                          {
                            "Comment": "kpatch-patch not installed for 0:3.10.0-1160.21.1.el7"
                          }
                        ]
                      }
                    ],
                    "Criterions": [
                      {
                        "Comment": "kernel version equals 0:3.10.0-1160.21.1.el7"
                      },
                      {
                        "Comment": "kernel is signed with Red Hat redhatrelease2 key"
                      }
                    ]
                  }
                ],
                "Criterions": [

                ]
              },
              {
                "Operator": "AND",
                "Criterias": [
                  {
                    "Operator": "OR",
                    "Criterias": [

                    ],
                    "Criterions": [
                      {
                        "Comment": "kernel version 0:3.10.0-1160.24.1.el7 is currently running"
                      },
                      {
                        "Comment": "kernel version 0:3.10.0-1160.24.1.el7 is set to boot up on next boot"
                      }
                    ]
                  },
                  {
                    "Operator": "AND",
                    "Criterias": [
                      {
                        "Operator": "OR",
                        "Criterias": [
                          {
                            "Operator": "AND",
                            "Criterias": [

                            ],
                            "Criterions": [
                              {
                                "Comment": "kpatch-patch-3_10_0-1160_24_1 is earlier than 0:1-7.el7"
                              },
                              {
                                "Comment": "kpatch-patch-3_10_0-1160_24_1 is signed with Red Hat redhatrelease2 key"
                              }
                            ]
                          }
                        ],
                        "Criterions": [
                          {
                            "Comment": "kpatch-patch not installed for 0:3.10.0-1160.24.1.el7"
                          }
                        ]
                      }
                    ],
                    "Criterions": [
                      {
                        "Comment": "kernel version equals 0:3.10.0-1160.24.1.el7"
                      },
                      {
                        "Comment": "kernel is signed with Red Hat redhatrelease2 key"
                      }
                    ]
                  }
                ],
                "Criterions": [

                ]
              },
              {
                "Operator": "AND",
                "Criterias": [
                  {
                    "Operator": "OR",
                    "Criterias": [

                    ],
                    "Criterions": [
                      {
                        "Comment": "kernel version 0:3.10.0-1160.25.1.el7 is currently running"
                      },
                      {
                        "Comment": "kernel version 0:3.10.0-1160.25.1.el7 is set to boot up on next boot"
                      }
                    ]
                  },
                  {
                    "Operator": "AND",
                    "Criterias": [
                      {
                        "Operator": "OR",
                        "Criterias": [
                          {
                            "Operator": "AND",
                            "Criterias": [

                            ],
                            "Criterions": [
                              {
                                "Comment": "kpatch-patch-3_10_0-1160_25_1 is earlier than 0:1-7.el7"
                              },
                              {
                                "Comment": "kpatch-patch-3_10_0-1160_25_1 is signed with Red Hat redhatrelease2 key"
                              }
                            ]
                          }
                        ],
                        "Criterions": [
                          {
                            "Comment": "kpatch-patch not installed for 0:3.10.0-1160.25.1.el7"
                          }
                        ]
                      }
                    ],
                    "Criterions": [
                      {
                        "Comment": "kernel version equals 0:3.10.0-1160.25.1.el7"
                      },
                      {
                        "Comment": "kernel is signed with Red Hat redhatrelease2 key"
                      }
                    ]
                  }
                ],
                "Criterions": [

                ]
              },
              {
                "Operator": "AND",
                "Criterias": [
                  {
                    "Operator": "OR",
                    "Criterias": [

                    ],
                    "Criterions": [
                      {
                        "Comment": "kernel version 0:3.10.0-1160.31.1.el7 is currently running"
                      },
                      {
                        "Comment": "kernel version 0:3.10.0-1160.31.1.el7 is set to boot up on next boot"
                      }
                    ]
                  },
                  {
                    "Operator": "AND",
                    "Criterias": [
                      {
                        "Operator": "OR",
                        "Criterias": [
                          {
                            "Operator": "AND",
                            "Criterias": [

                            ],
                            "Criterions": [
                              {
                                "Comment": "kpatch-patch-3_10_0-1160_31_1 is earlier than 0:1-6.el7"
                              },
                              {
                                "Comment": "kpatch-patch-3_10_0-1160_31_1 is signed with Red Hat redhatrelease2 key"
                              }
                            ]
                          }
                        ],
                        "Criterions": [
                          {
                            "Comment": "kpatch-patch not installed for 0:3.10.0-1160.31.1.el7"
                          }
                        ]
                      }
                    ],
                    "Criterions": [
                      {
                        "Comment": "kernel version equals 0:3.10.0-1160.31.1.el7"
                      },
                      {
                        "Comment": "kernel is signed with Red Hat redhatrelease2 key"
                      }
                    ]
                  }
                ],
                "Criterions": [

                ]
              },
              {
                "Operator": "AND",
                "Criterias": [
                  {
                    "Operator": "OR",
                    "Criterias": [

                    ],
                    "Criterions": [
                      {
                        "Comment": "kernel version 0:3.10.0-1160.36.2.el7 is currently running"
                      },
                      {
                        "Comment": "kernel version 0:3.10.0-1160.36.2.el7 is set to boot up on next boot"
                      }
                    ]
                  },
                  {
                    "Operator": "AND",
                    "Criterias": [
                      {
                        "Operator": "OR",
                        "Criterias": [
                          {
                            "Operator": "AND",
                            "Criterias": [

                            ],
                            "Criterions": [
                              {
                                "Comment": "kpatch-patch-3_10_0-1160_36_2 is earlier than 0:1-5.el7"
                              },
                              {
                                "Comment": "kpatch-patch-3_10_0-1160_36_2 is signed with Red Hat redhatrelease2 key"
                              }
                            ]
                          }
                        ],
                        "Criterions": [
                          {
                            "Comment": "kpatch-patch not installed for 0:3.10.0-1160.36.2.el7"
                          }
                        ]
                      }
                    ],
                    "Criterions": [
                      {
                        "Comment": "kernel version equals 0:3.10.0-1160.36.2.el7"
                      },
                      {
                        "Comment": "kernel is signed with Red Hat redhatrelease2 key"
                      }
                    ]
                  }
                ],
                "Criterions": [

                ]
              },
              {
                "Operator": "AND",
                "Criterias": [
                  {
                    "Operator": "OR",
                    "Criterias": [

                    ],
                    "Criterions": [
                      {
                        "Comment": "kernel version 0:3.10.0-1160.41.1.el7 is currently running"
                      },
                      {
                        "Comment": "kernel version 0:3.10.0-1160.41.1.el7 is set to boot up on next boot"
                      }
                    ]
                  },
                  {
                    "Operator": "AND",
                    "Criterias": [
                      {
                        "Operator": "OR",
                        "Criterias": [
                          {
                            "Operator": "AND",
                            "Criterias": [

                            ],
                            "Criterions": [
                              {
                                "Comment": "kpatch-patch-3_10_0-1160_41_1 is earlier than 0:1-4.el7"
                              },
                              {
                                "Comment": "kpatch-patch-3_10_0-1160_41_1 is signed with Red Hat redhatrelease2 key"
                              }
                            ]
                          }
                        ],
                        "Criterions": [
                          {
                            "Comment": "kpatch-patch not installed for 0:3.10.0-1160.41.1.el7"
                          }
                        ]
                      }
                    ],
                    "Criterions": [
                      {
                        "Comment": "kernel version equals 0:3.10.0-1160.41.1.el7"
                      },
                      {
                        "Comment": "kernel is signed with Red Hat redhatrelease2 key"
                      }
                    ]
                  }
                ],
                "Criterions": [

                ]
              },
              {
                "Operator": "AND",
                "Criterias": [
                  {
                    "Operator": "OR",
                    "Criterias": [

                    ],
                    "Criterions": [
                      {
                        "Comment": "kernel version 0:3.10.0-1160.42.2.el7 is currently running"
                      },
                      {
                        "Comment": "kernel version 0:3.10.0-1160.42.2.el7 is set to boot up on next boot"
                      }
                    ]
                  },
                  {
                    "Operator": "AND",
                    "Criterias": [
                      {
                        "Operator": "OR",
                        "Criterias": [
                          {
                            "Operator": "AND",
                            "Criterias": [

                            ],
                            "Criterions": [
                              {
                                "Comment": "kpatch-patch-3_10_0-1160_42_2 is earlier than 0:1-3.el7"
                              },
                              {
                                "Comment": "kpatch-patch-3_10_0-1160_42_2 is signed with Red Hat redhatrelease2 key"
                              }
                            ]
                          }
                        ],
                        "Criterions": [
                          {
                            "Comment": "kpatch-patch not installed for 0:3.10.0-1160.42.2.el7"
                          }
                        ]
                      }
                    ],
                    "Criterions": [
                      {
                        "Comment": "kernel version equals 0:3.10.0-1160.42.2.el7"
                      },
                      {
                        "Comment": "kernel is signed with Red Hat redhatrelease2 key"
                      }
                    ]
                  }
                ],
                "Criterions": [

                ]
              },
              {
                "Operator": "AND",
                "Criterias": [
                  {
                    "Operator": "OR",
                    "Criterias": [

                    ],
                    "Criterions": [
                      {
                        "Comment": "kernel version 0:3.10.0-1160.45.1.el7 is currently running"
                      },
                      {
                        "Comment": "kernel version 0:3.10.0-1160.45.1.el7 is set to boot up on next boot"
                      }
                    ]
                  },
                  {
                    "Operator": "AND",
                    "Criterias": [
                      {
                        "Operator": "OR",
                        "Criterias": [
                          {
                            "Operator": "AND",
                            "Criterias": [

                            ],
                            "Criterions": [
                              {
                                "Comment": "kpatch-patch-3_10_0-1160_45_1 is earlier than 0:1-2.el7"
                              },
                              {
                                "Comment": "kpatch-patch-3_10_0-1160_45_1 is signed with Red Hat redhatrelease2 key"
                              }
                            ]
                          }
                        ],
                        "Criterions": [
                          {
                            "Comment": "kpatch-patch not installed for 0:3.10.0-1160.45.1.el7"
                          }
                        ]
                      }
                    ],
                    "Criterions": [
                      {
                        "Comment": "kernel version equals 0:3.10.0-1160.45.1.el7"
                      },
                      {
                        "Comment": "kernel is signed with Red Hat redhatrelease2 key"
                      }
                    ]
                  }
                ],
                "Criterions": [

                ]
              },
              {
                "Operator": "AND",
                "Criterias": [
                  {
                    "Operator": "OR",
                    "Criterias": [

                    ],
                    "Criterions": [
                      {
                        "Comment": "kernel version 0:3.10.0-1160.49.1.el7 is currently running"
                      },
                      {
                        "Comment": "kernel version 0:3.10.0-1160.49.1.el7 is set to boot up on next boot"
                      }
                    ]
                  },
                  {
                    "Operator": "AND",
                    "Criterias": [
                      {
                        "Operator": "OR",
                        "Criterias": [
                          {
                            "Operator": "AND",
                            "Criterias": [

                            ],
                            "Criterions": [
                              {
                                "Comment": "kpatch-patch-3_10_0-1160_49_1 is earlier than 0:1-1.el7"
                              },
                              {
                                "Comment": "kpatch-patch-3_10_0-1160_49_1 is signed with Red Hat redhatrelease2 key"
                              }
                            ]
                          }
                        ],
                        "Criterions": [
                          {
                            "Comment": "kpatch-patch not installed for 0:3.10.0-1160.49.1.el7"
                          }
                        ]
                      }
                    ],
                    "Criterions": [
                      {
                        "Comment": "kernel version equals 0:3.10.0-1160.49.1.el7"
                      },
                      {
                        "Comment": "kernel is signed with Red Hat redhatrelease2 key"
                      }
                    ]
                  }
                ],
                "Criterions": [

                ]
              },
              {
                "Operator": "AND",
                "Criterias": [
                  {
                    "Operator": "OR",
                    "Criterias": [

                    ],
                    "Criterions": [
                      {
                        "Comment": "kernel version 0:3.10.0-1160.53.1.el7 is currently running"
                      },
                      {
                        "Comment": "kernel version 0:3.10.0-1160.53.1.el7 is set to boot up on next boot"
                      }
                    ]
                  },
                  {
                    "Operator": "AND",
                    "Criterias": [
                      {
                        "Operator": "OR",
                        "Criterias": [
                          {
                            "Operator": "AND",
                            "Criterias": [

                            ],
                            "Criterions": [
                              {
                                "Comment": "kpatch-patch-3_10_0-1160_53_1 is earlier than 0:1-1.el7"
                              },
                              {
                                "Comment": "kpatch-patch-3_10_0-1160_53_1 is signed with Red Hat redhatrelease2 key"
                              }
                            ]
                          }
                        ],
                        "Criterions": [
                          {
                            "Comment": "kpatch-patch not installed for 0:3.10.0-1160.53.1.el7"
                          }
                        ]
                      }
                    ],
                    "Criterions": [
                      {
                        "Comment": "kernel version equals 0:3.10.0-1160.53.1.el7"
                      },
                      {
                        "Comment": "kernel is signed with Red Hat redhatrelease2 key"
                      }
                    ]
                  }
                ],
                "Criterions": [

                ]
              }
            ],
            "Criterions": [

            ]
          }
        ],
        "Criterions": [
          {
            "Comment": "Oracle Linux 7 is installed"
          }
        ]
      }
    ],
    "Criterions": [
      {
        "Comment": "Oracle Linux 7 is installed"
      }
    ]
  },
  "Severity": "Important",
  "Cves": [
    {
      "Impact": "",
      "Href": "",
      "ID": "CVE-2020-0466"
    },
    {
      "Impact": "",
      "Href": "",
      "ID": "CVE-2021-0920"
    },
    {
      "Impact": "",
      "Href": "",
      "ID": "CVE-2021-4155"
    },
    {
      "Impact": "",
      "Href": "",
      "ID": "CVE-2022-0330"
    },
    {
      "Impact": "",
      "Href": "",
      "ID": "CVE-2022-22942"
    }
  ],
  "Issued": {
    "Date": "2022-02-22"
  }
}