{
  "Title": "RHSA-2022:5053: log4j security update (Important)",
  "Description": "Log4j is a tool to help the programmer output log statements to a variety of output targets.\nSecurity Fix(es):\n* log4j: deserialization of untrusted data in SocketServer (CVE-2019-17571)\nFor more details about the security issue(s), including the impact, a CVSS score, acknowledgments, and other related information, refer to the CVE page(s) listed in the References section.",
  "Platform": [
    "Red Hat Enterprise Linux 6 Extended Lifecycle Support"
  ],
  "References": [
    {
      "Source": "RHSA",
      "URI": "https://access.redhat.com/errata/RHSA-2022:5053",
      "ID": "RHSA-2022:5053"
    },
    {
      "Source": "CVE",
      "URI": "https://access.redhat.com/security/cve/CVE-2019-17571",
      "ID": "CVE-2019-17571"
    }
  ],
  "Criteria": {
    "Operator": "OR",
    "Criterias": [
      {
        "Operator": "AND",
        "Criterias": [
          {
            "Operator": "OR",
            "Criterias": [
              {
                "Operator": "AND",
                "Criterias": [

                ],
                "Criterions": [
                  {
                    "Comment": "log4j is earlier than 0:1.2.14-6.7.el6_10"
                  },
                  {
                    "Comment": "log4j is signed with Red Hat redhatrelease2 key"
                  }
                ]
              },
              {
                "Operator": "AND",
                "Criterias": [

                ],
                "Criterions": [
                  {
                    "Comment": "log4j-javadoc is earlier than 0:1.2.14-6.7.el6_10"
                  },
                  {
                    "Comment": "log4j-javadoc is signed with Red Hat redhatrelease2 key"
                  }
                ]
              },
              {
                "Operator": "AND",
                "Criterias": [

                ],
                "Criterions": [
                  {
                    "Comment": "log4j-manual is earlier than 0:1.2.14-6.7.el6_10"
                  },
                  {
                    "Comment": "log4j-manual is signed with Red Hat redhatrelease2 key"
                  }
                ]
              }
            ],
            "Criterions": [

            ]
          }
        ],
        "Criterions": [
          {
            "Comment": "Oracle Linux 6 is installed"
          }
        ]
      }
    ],
    "Criterions": [
      {
        "Comment": "Oracle Linux 6 Extended Lifecycle Support is installed"
      }
    ]
  },
  "Severity": "Important",
  "Cves": [
    {
      "Impact": "",
      "Href": "",
      "ID": "CVE-2019-17571"
    }
  ],
  "Issued": {
    "Date": "2022-06-15"
  }
}