{
  "Title": "RHSA-2022:7343: pcs security update (Important)",
  "Description": "The pcs packages provide a command-line configuration system for the Pacemaker and Corosync utilities.\nSecurity Fix(es):\n* rubygem-rack: crafted requests can cause shell escape sequences (CVE-2022-30123)\n* jquery: Prototype pollution in object's prototype leading to denial of service, remote code execution, or property injection (CVE-2019-11358)\nFor more details about the security issue(s), including the impact, a CVSS score, acknowledgments, and other related information, refer to the CVE page(s) listed in the References section.",
  "Platform": [
    "Red Hat Enterprise Linux 7"
  ],
  "References": [
    {
      "Source": "RHSA",
      "URI": "https://access.redhat.com/errata/RHSA-2022:7343",
      "ID": "RHSA-2022:7343"
    },
    {
      "Source": "CVE",
      "URI": "https://access.redhat.com/security/cve/CVE-2019-11358",
      "ID": "CVE-2019-11358"
    },
    {
      "Source": "CVE",
      "URI": "https://access.redhat.com/security/cve/CVE-2020-11023",
      "ID": "CVE-2020-11023"
    },
    {
      "Source": "CVE",
      "URI": "https://access.redhat.com/security/cve/CVE-2022-30123",
      "ID": "CVE-2022-30123"
    }
  ],
  "Criteria": {
    "Operator": "OR",
    "Criterias": [
      {
        "Operator": "AND",
        "Criterias": [
          {
            "Operator": "OR",
            "Criterias": [
              {
                "Operator": "AND",
                "Criterias": [

                ],
                "Criterions": [
                  {
                    "Comment": "pcs is earlier than 0:0.9.169-3.el7_9.3"
                  },
                  {
                    "Comment": "pcs is signed with Red Hat redhatrelease2 key"
                  }
                ]
              },
              {
                "Operator": "AND",
                "Criterias": [

                ],
                "Criterions": [
                  {
                    "Comment": "pcs-snmp is earlier than 0:0.9.169-3.el7_9.3"
                  },
                  {
                    "Comment": "pcs-snmp is signed with Red Hat redhatrelease2 key"
                  }
                ]
              }
            ],
            "Criterions": [

            ]
          }
        ],
        "Criterions": [
          {
            "Comment": "Oracle Linux 7 is installed"
          }
        ]
      }
    ],
    "Criterions": [
      {
        "Comment": "Oracle Linux 7 is installed"
      }
    ]
  },
  "Severity": "Important",
  "Cves": [
    {
      "Impact": "",
      "Href": "",
      "ID": "CVE-2019-11358"
    },
    {
      "Impact": "",
      "Href": "",
      "ID": "CVE-2020-11023"
    },
    {
      "Impact": "",
      "Href": "",
      "ID": "CVE-2022-30123"
    }
  ],
  "Issued": {
    "Date": "2022-11-02"
  }
}