{
  "Title": "RHSA-2022:1550: kernel security and bug fix update (Important)",
  "Description": "The kernel packages contain the Linux kernel, the core of any Linux operating system.\nSecurity Fix(es):\n* kernel: use-after-free in RDMA listen() (CVE-2021-4028)\n* kernel: heap out of bounds write in nf_dup_netdev.c (CVE-2022-25636)\nFor more details about the security issue(s), including the impact, a CVSS score, acknowledgments, and other related information, refer to the CVE page(s) listed in the References section.\nBug Fix(es):\n* Backport DFS fixes from upstream (BZ#2056329)\n* [RHEL8.5] lpfc driver often fails to detect storage directly connected to Broadcom FC HBA (BZ#2058193)\n* nf_reinject calls nf_queue_entry_free on an already freed entry->state (BZ#2061446)\n* gfs2 blocking in gdlm_lock (BZ#2069750)",
  "Platform": [
    "Red Hat Enterprise Linux 8"
  ],
  "References": [
    {
      "Source": "RHSA",
      "URI": "https://access.redhat.com/errata/RHSA-2022:1550",
      "ID": "RHSA-2022:1550"
    },
    {
      "Source": "CVE",
      "URI": "https://access.redhat.com/security/cve/CVE-2021-4028",
      "ID": "CVE-2021-4028"
    },
    {
      "Source": "CVE",
      "URI": "https://access.redhat.com/security/cve/CVE-2022-25636",
      "ID": "CVE-2022-25636"
    }
  ],
  "Criteria": {
    "Operator": "OR",
    "Criterias": [
      {
        "Operator": "AND",
        "Criterias": [
          {
            "Operator": "OR",
            "Criterias": [

            ],
            "Criterions": [
              {
                "Comment": "Oracle Linux 8 is installed"
              },
              {
                "Comment": "Red Hat CoreOS 4 is installed"
              }
            ]
          },
          {
            "Operator": "OR",
            "Criterias": [

            ],
            "Criterions": [
              {
                "Comment": "kernel earlier than 0:4.18.0-348.23.1.el8_5 is currently running"
              },
              {
                "Comment": "kernel earlier than 0:4.18.0-348.23.1.el8_5 is set to boot up on next boot"
              }
            ]
          },
          {
            "Operator": "OR",
            "Criterias": [
              {
                "Operator": "AND",
                "Criterias": [

                ],
                "Criterions": [
                  {
                    "Comment": "bpftool is earlier than 0:4.18.0-348.23.1.el8_5"
                  },
                  {
                    "Comment": "bpftool is signed with Red Hat redhatrelease2 key"
                  }
                ]
              },
              {
                "Operator": "AND",
                "Criterias": [

                ],
                "Criterions": [
                  {
                    "Comment": "kernel is earlier than 0:4.18.0-348.23.1.el8_5"
                  },
                  {
                    "Comment": "kernel is signed with Red Hat redhatrelease2 key"
                  }
                ]
              },
              {
                "Operator": "AND",
                "Criterias": [

                ],
                "Criterions": [
                  {
                    "Comment": "kernel-abi-stablelists is earlier than 0:4.18.0-348.23.1.el8_5"
                  },
                  {
                    "Comment": "kernel-abi-stablelists is signed with Red Hat redhatrelease2 key"
                  }
                ]
              },
              {
                "Operator": "AND",
                "Criterias": [

                ],
                "Criterions": [
                  {
                    "Comment": "kernel-core is earlier than 0:4.18.0-348.23.1.el8_5"
                  },
                  {
                    "Comment": "kernel-core is signed with Red Hat redhatrelease2 key"
                  }
                ]
              },
              {
                "Operator": "AND",
                "Criterias": [

                ],
                "Criterions": [
                  {
                    "Comment": "kernel-cross-headers is earlier than 0:4.18.0-348.23.1.el8_5"
                  },
                  {
                    "Comment": "kernel-cross-headers is signed with Red Hat redhatrelease2 key"
                  }
                ]
              },
              {
                "Operator": "AND",
                "Criterias": [

                ],
                "Criterions": [
                  {
                    "Comment": "kernel-debug is earlier than 0:4.18.0-348.23.1.el8_5"
                  },
                  {
                    "Comment": "kernel-debug is signed with Red Hat redhatrelease2 key"
                  }
                ]
              },
              {
                "Operator": "AND",
                "Criterias": [

                ],
                "Criterions": [
                  {
                    "Comment": "kernel-debug-core is earlier than 0:4.18.0-348.23.1.el8_5"
                  },
                  {
                    "Comment": "kernel-debug-core is signed with Red Hat redhatrelease2 key"
                  }
                ]
              },
              {
                "Operator": "AND",
                "Criterias": [

                ],
                "Criterions": [
                  {
                    "Comment": "kernel-debug-devel is earlier than 0:4.18.0-348.23.1.el8_5"
                  },
                  {
                    "Comment": "kernel-debug-devel is signed with Red Hat redhatrelease2 key"
                  }
                ]
              },
              {
                "Operator": "AND",
                "Criterias": [

                ],
                "Criterions": [
                  {
                    "Comment": "kernel-debug-modules is earlier than 0:4.18.0-348.23.1.el8_5"
                  },
                  {
                    "Comment": "kernel-debug-modules is signed with Red Hat redhatrelease2 key"
                  }
                ]
              },
              {
                "Operator": "AND",
                "Criterias": [

                ],
                "Criterions": [
                  {
                    "Comment": "kernel-debug-modules-extra is earlier than 0:4.18.0-348.23.1.el8_5"
                  },
                  {
                    "Comment": "kernel-debug-modules-extra is signed with Red Hat redhatrelease2 key"
                  }
                ]
              },
              {
                "Operator": "AND",
                "Criterias": [

                ],
                "Criterions": [
                  {
                    "Comment": "kernel-devel is earlier than 0:4.18.0-348.23.1.el8_5"
                  },
                  {
                    "Comment": "kernel-devel is signed with Red Hat redhatrelease2 key"
                  }
                ]
              },
              {
                "Operator": "AND",
                "Criterias": [

                ],
                "Criterions": [
                  {
                    "Comment": "kernel-doc is earlier than 0:4.18.0-348.23.1.el8_5"
                  },
                  {
                    "Comment": "kernel-doc is signed with Red Hat redhatrelease2 key"
                  }
                ]
              },
              {
                "Operator": "AND",
                "Criterias": [

                ],
                "Criterions": [
                  {
                    "Comment": "kernel-modules is earlier than 0:4.18.0-348.23.1.el8_5"
                  },
                  {
                    "Comment": "kernel-modules is signed with Red Hat redhatrelease2 key"
                  }
                ]
              },
              {
                "Operator": "AND",
                "Criterias": [

                ],
                "Criterions": [
                  {
                    "Comment": "kernel-modules-extra is earlier than 0:4.18.0-348.23.1.el8_5"
                  },
                  {
                    "Comment": "kernel-modules-extra is signed with Red Hat redhatrelease2 key"
                  }
                ]
              },
              {
                "Operator": "AND",
                "Criterias": [

                ],
                "Criterions": [
                  {
                    "Comment": "kernel-tools is earlier than 0:4.18.0-348.23.1.el8_5"
                  },
                  {
                    "Comment": "kernel-tools is signed with Red Hat redhatrelease2 key"
                  }
                ]
              },
              {
                "Operator": "AND",
                "Criterias": [

                ],
                "Criterions": [
                  {
                    "Comment": "kernel-tools-libs is earlier than 0:4.18.0-348.23.1.el8_5"
                  },
                  {
                    "Comment": "kernel-tools-libs is signed with Red Hat redhatrelease2 key"
                  }
                ]
              },
              {
                "Operator": "AND",
                "Criterias": [

                ],
                "Criterions": [
                  {
                    "Comment": "kernel-tools-libs-devel is earlier than 0:4.18.0-348.23.1.el8_5"
                  },
                  {
                    "Comment": "kernel-tools-libs-devel is signed with Red Hat redhatrelease2 key"
                  }
                ]
              },
              {
                "Operator": "AND",
                "Criterias": [

                ],
                "Criterions": [
                  {
                    "Comment": "kernel-zfcpdump is earlier than 0:4.18.0-348.23.1.el8_5"
                  },
                  {
                    "Comment": "kernel-zfcpdump is signed with Red Hat redhatrelease2 key"
                  }
                ]
              },
              {
                "Operator": "AND",
                "Criterias": [

                ],
                "Criterions": [
                  {
                    "Comment": "kernel-zfcpdump-core is earlier than 0:4.18.0-348.23.1.el8_5"
                  },
                  {
                    "Comment": "kernel-zfcpdump-core is signed with Red Hat redhatrelease2 key"
                  }
                ]
              },
              {
                "Operator": "AND",
                "Criterias": [

                ],
                "Criterions": [
                  {
                    "Comment": "kernel-zfcpdump-devel is earlier than 0:4.18.0-348.23.1.el8_5"
                  },
                  {
                    "Comment": "kernel-zfcpdump-devel is signed with Red Hat redhatrelease2 key"
                  }
                ]
              },
              {
                "Operator": "AND",
                "Criterias": [

                ],
                "Criterions": [
                  {
                    "Comment": "kernel-zfcpdump-modules is earlier than 0:4.18.0-348.23.1.el8_5"
                  },
                  {
                    "Comment": "kernel-zfcpdump-modules is signed with Red Hat redhatrelease2 key"
                  }
                ]
              },
              {
                "Operator": "AND",
                "Criterias": [

                ],
                "Criterions": [
                  {
                    "Comment": "kernel-zfcpdump-modules-extra is earlier than 0:4.18.0-348.23.1.el8_5"
                  },
                  {
                    "Comment": "kernel-zfcpdump-modules-extra is signed with Red Hat redhatrelease2 key"
                  }
                ]
              },
              {
                "Operator": "AND",
                "Criterias": [

                ],
                "Criterions": [
                  {
                    "Comment": "perf is earlier than 0:4.18.0-348.23.1.el8_5"
                  },
                  {
                    "Comment": "perf is signed with Red Hat redhatrelease2 key"
                  }
                ]
              },
              {
                "Operator": "AND",
                "Criterias": [

                ],
                "Criterions": [
                  {
                    "Comment": "python3-perf is earlier than 0:4.18.0-348.23.1.el8_5"
                  },
                  {
                    "Comment": "python3-perf is signed with Red Hat redhatrelease2 key"
                  }
                ]
              }
            ],
            "Criterions": [

            ]
          }
        ],
        "Criterions": [

        ]
      }
    ],
    "Criterions": [
      {
        "Comment": "Oracle Linux 8 is installed"
      }
    ]
  },
  "Severity": "Important",
  "Cves": [
    {
      "Impact": "",
      "Href": "",
      "ID": "CVE-2021-4028"
    },
    {
      "Impact": "",
      "Href": "",
      "ID": "CVE-2022-25636"
    }
  ],
  "Issued": {
    "Date": "2022-04-26"
  }
}