{
  "Title": "RHSA-2022:7935: pcs security, bug fix, and enhancement update (Moderate)",
  "Description": "The pcs packages provide a command-line configuration system for the Pacemaker and Corosync utilities.\nSecurity Fix(es):\n* pcs: improper authentication via PAM (CVE-2022-1049)\nFor more details about the security issue(s), including the impact, a CVSS score, acknowledgments, and other related information, refer to the CVE page(s) listed in the References section.\nAdditional Changes:\nFor detailed information on changes in this release, see the Red Hat Enterprise Linux 9.1 Release Notes linked from the References section.",
  "Platform": [
    "Red Hat Enterprise Linux 9"
  ],
  "References": [
    {
      "Source": "RHSA",
      "URI": "https://access.redhat.com/errata/RHSA-2022:7935",
      "ID": "RHSA-2022:7935"
    },
    {
      "Source": "CVE",
      "URI": "https://access.redhat.com/security/cve/CVE-2022-1049",
      "ID": "CVE-2022-1049"
    }
  ],
  "Criteria": {
    "Operator": "OR",
    "Criterias": [
      {
        "Operator": "AND",
        "Criterias": [
          {
            "Operator": "OR",
            "Criterias": [
              {
                "Operator": "AND",
                "Criterias": [

                ],
                "Criterions": [
                  {
                    "Comment": "pcs is earlier than 0:0.11.3-4.el9"
                  },
                  {
                    "Comment": "pcs is signed with Red Hat redhatrelease2 key"
                  }
                ]
              },
              {
                "Operator": "AND",
                "Criterias": [

                ],
                "Criterions": [
                  {
                    "Comment": "pcs-snmp is earlier than 0:0.11.3-4.el9"
                  },
                  {
                    "Comment": "pcs-snmp is signed with Red Hat redhatrelease2 key"
                  }
                ]
              }
            ],
            "Criterions": [

            ]
          }
        ],
        "Criterions": [
          {
            "Comment": "Oracle Linux 9 is installed"
          }
        ]
      }
    ],
    "Criterions": [
      {
        "Comment": "Oracle Linux 9 is installed"
      }
    ]
  },
  "Severity": "Moderate",
  "Cves": [
    {
      "Impact": "",
      "Href": "",
      "ID": "CVE-2022-1049"
    }
  ],
  "Issued": {
    "Date": "2022-11-15"
  }
}