{
  "Title": "RHSA-2022:8361: e2fsprogs security update (Moderate)",
  "Description": "The e2fsprogs packages provide a number of utilities for creating, checking, modifying, and correcting the ext2, ext3, and ext4 file systems.\nSecurity Fix(es):\n* e2fsprogs: out-of-bounds read/write via crafted filesystem (CVE-2022-1304)\nFor more details about the security issue(s), including the impact, a CVSS score, acknowledgments, and other related information, refer to the CVE page(s) listed in the References section.\nAdditional Changes:\nFor detailed information on changes in this release, see the Red Hat Enterprise Linux 9.1 Release Notes linked from the References section.",
  "Platform": [
    "Red Hat Enterprise Linux 9"
  ],
  "References": [
    {
      "Source": "RHSA",
      "URI": "https://access.redhat.com/errata/RHSA-2022:8361",
      "ID": "RHSA-2022:8361"
    },
    {
      "Source": "CVE",
      "URI": "https://access.redhat.com/security/cve/CVE-2022-1304",
      "ID": "CVE-2022-1304"
    }
  ],
  "Criteria": {
    "Operator": "OR",
    "Criterias": [
      {
        "Operator": "AND",
        "Criterias": [
          {
            "Operator": "OR",
            "Criterias": [
              {
                "Operator": "AND",
                "Criterias": [

                ],
                "Criterions": [
                  {
                    "Comment": "e2fsprogs is earlier than 0:1.46.5-3.el9"
                  },
                  {
                    "Comment": "e2fsprogs is signed with Red Hat redhatrelease2 key"
                  }
                ]
              },
              {
                "Operator": "AND",
                "Criterias": [

                ],
                "Criterions": [
                  {
                    "Comment": "e2fsprogs-devel is earlier than 0:1.46.5-3.el9"
                  },
                  {
                    "Comment": "e2fsprogs-devel is signed with Red Hat redhatrelease2 key"
                  }
                ]
              },
              {
                "Operator": "AND",
                "Criterias": [

                ],
                "Criterions": [
                  {
                    "Comment": "e2fsprogs-libs is earlier than 0:1.46.5-3.el9"
                  },
                  {
                    "Comment": "e2fsprogs-libs is signed with Red Hat redhatrelease2 key"
                  }
                ]
              },
              {
                "Operator": "AND",
                "Criterias": [

                ],
                "Criterions": [
                  {
                    "Comment": "libcom_err is earlier than 0:1.46.5-3.el9"
                  },
                  {
                    "Comment": "libcom_err is signed with Red Hat redhatrelease2 key"
                  }
                ]
              },
              {
                "Operator": "AND",
                "Criterias": [

                ],
                "Criterions": [
                  {
                    "Comment": "libcom_err-devel is earlier than 0:1.46.5-3.el9"
                  },
                  {
                    "Comment": "libcom_err-devel is signed with Red Hat redhatrelease2 key"
                  }
                ]
              },
              {
                "Operator": "AND",
                "Criterias": [

                ],
                "Criterions": [
                  {
                    "Comment": "libss is earlier than 0:1.46.5-3.el9"
                  },
                  {
                    "Comment": "libss is signed with Red Hat redhatrelease2 key"
                  }
                ]
              }
            ],
            "Criterions": [

            ]
          }
        ],
        "Criterions": [
          {
            "Comment": "Oracle Linux 9 is installed"
          }
        ]
      }
    ],
    "Criterions": [
      {
        "Comment": "Oracle Linux 9 is installed"
      }
    ]
  },
  "Severity": "Moderate",
  "Cves": [
    {
      "Impact": "",
      "Href": "",
      "ID": "CVE-2022-1304"
    }
  ],
  "Issued": {
    "Date": "2022-11-15"
  }
}