{
  "Title": "RHSA-2022:9067: firefox security update (Important)",
  "Description": "Mozilla Firefox is an open-source web browser, designed for standards compliance, performance, and portability.\nThis update upgrades Firefox to version 102.6.0 ESR.\nSecurity Fix(es):\n* Mozilla: Arbitrary file read from a compromised content process (CVE-2022-46872)\n* Mozilla: Memory safety bugs fixed in Firefox ESR 102.6 and Thunderbird 102.6 (CVE-2022-46878)\n* Mozilla: Use-after-free in WebGL (CVE-2022-46880)\n* Mozilla: Memory corruption in WebGL (CVE-2022-46881)\n* Mozilla: Drag and Dropped Filenames could have been truncated to malicious extensions (CVE-2022-46874)\n* Mozilla: Use-after-free in WebGL (CVE-2022-46882)\nFor more details about the security issue(s), including the impact, a CVSS score, acknowledgments, and other related information, refer to the CVE page(s) listed in the References section.",
  "Platform": [
    "Red Hat Enterprise Linux 8"
  ],
  "References": [
    {
      "Source": "RHSA",
      "URI": "https://access.redhat.com/errata/RHSA-2022:9067",
      "ID": "RHSA-2022:9067"
    },
    {
      "Source": "CVE",
      "URI": "https://access.redhat.com/security/cve/CVE-2022-46872",
      "ID": "CVE-2022-46872"
    },
    {
      "Source": "CVE",
      "URI": "https://access.redhat.com/security/cve/CVE-2022-46874",
      "ID": "CVE-2022-46874"
    },
    {
      "Source": "CVE",
      "URI": "https://access.redhat.com/security/cve/CVE-2022-46878",
      "ID": "CVE-2022-46878"
    },
    {
      "Source": "CVE",
      "URI": "https://access.redhat.com/security/cve/CVE-2022-46880",
      "ID": "CVE-2022-46880"
    },
    {
      "Source": "CVE",
      "URI": "https://access.redhat.com/security/cve/CVE-2022-46881",
      "ID": "CVE-2022-46881"
    },
    {
      "Source": "CVE",
      "URI": "https://access.redhat.com/security/cve/CVE-2022-46882",
      "ID": "CVE-2022-46882"
    }
  ],
  "Criteria": {
    "Operator": "OR",
    "Criterias": [
      {
        "Operator": "AND",
        "Criterias": [
          {
            "Operator": "OR",
            "Criterias": [

            ],
            "Criterions": [
              {
                "Comment": "Oracle Linux 8 is installed"
              },
              {
                "Comment": "Red Hat CoreOS 4 is installed"
              }
            ]
          }
        ],
        "Criterions": [
          {
            "Comment": "firefox is earlier than 0:102.6.0-1.el8_7"
          },
          {
            "Comment": "firefox is signed with Red Hat redhatrelease2 key"
          }
        ]
      }
    ],
    "Criterions": [
      {
        "Comment": "Oracle Linux 8 is installed"
      }
    ]
  },
  "Severity": "Important",
  "Cves": [
    {
      "Impact": "",
      "Href": "",
      "ID": "CVE-2022-46872"
    },
    {
      "Impact": "",
      "Href": "",
      "ID": "CVE-2022-46874"
    },
    {
      "Impact": "",
      "Href": "",
      "ID": "CVE-2022-46878"
    },
    {
      "Impact": "",
      "Href": "",
      "ID": "CVE-2022-46880"
    },
    {
      "Impact": "",
      "Href": "",
      "ID": "CVE-2022-46881"
    },
    {
      "Impact": "",
      "Href": "",
      "ID": "CVE-2022-46882"
    }
  ],
  "Issued": {
    "Date": "2022-12-15"
  }
}