{
  "Title": "RHSA-2022:4930: python-twisted-web security update (Important)",
  "Description": "Twisted is an event-based framework for internet applications. Twisted Web is a complete web server, aimed at hosting web applications using Twisted and Python, but fully able to serve static pages too.\nSecurity Fix(es):\n* python-twisted: possible http request smuggling (CVE-2022-24801)\nFor more details about the security issue(s), including the impact, a CVSS score, acknowledgments, and other related information, refer to the CVE page(s) listed in the References section.",
  "Platform": [
    "Red Hat Enterprise Linux 7"
  ],
  "References": [
    {
      "Source": "RHSA",
      "URI": "https://access.redhat.com/errata/RHSA-2022:4930",
      "ID": "RHSA-2022:4930"
    },
    {
      "Source": "CVE",
      "URI": "https://access.redhat.com/security/cve/CVE-2022-24801",
      "ID": "CVE-2022-24801"
    }
  ],
  "Criteria": {
    "Operator": "OR",
    "Criterias": [
      {
        "Operator": "AND",
        "Criterias": [

        ],
        "Criterions": [
          {
            "Comment": "Oracle Linux 7 is installed"
          },
          {
            "Comment": "python-twisted-web is earlier than 0:12.1.0-8.el7_9"
          },
          {
            "Comment": "python-twisted-web is signed with Red Hat redhatrelease2 key"
          }
        ]
      }
    ],
    "Criterions": [
      {
        "Comment": "Oracle Linux 7 is installed"
      }
    ]
  },
  "Severity": "Important",
  "Cves": [
    {
      "Impact": "",
      "Href": "",
      "ID": "CVE-2022-24801"
    }
  ],
  "Issued": {
    "Date": "2022-06-07"
  }
}