{
  "Title": "RHSA-2022:7793: rsync security and enhancement update (Moderate)",
  "Description": "The rsync utility enables the users to copy and synchronize files locally or across a network. Synchronization with rsync is fast because rsync only sends the differences in files over the network instead of sending whole files. The rsync utility is also used as a mirroring tool.\nSecurity Fix(es):\n* zlib: heap-based buffer over-read and overflow in inflate() in inflate.c via a large gzip header extra field (CVE-2022-37434)\nFor more details about the security issue(s), including the impact, a CVSS score, acknowledgments, and other related information, refer to the CVE page(s) listed in the References section.\nAdditional Changes:\nFor detailed information on changes in this release, see the Red Hat Enterprise Linux 8.7 Release Notes linked from the References section.",
  "Platform": [
    "Red Hat Enterprise Linux 8"
  ],
  "References": [
    {
      "Source": "RHSA",
      "URI": "https://access.redhat.com/errata/RHSA-2022:7793",
      "ID": "RHSA-2022:7793"
    },
    {
      "Source": "CVE",
      "URI": "https://access.redhat.com/security/cve/CVE-2022-37434",
      "ID": "CVE-2022-37434"
    }
  ],
  "Criteria": {
    "Operator": "OR",
    "Criterias": [
      {
        "Operator": "AND",
        "Criterias": [
          {
            "Operator": "OR",
            "Criterias": [

            ],
            "Criterions": [
              {
                "Comment": "Oracle Linux 8 is installed"
              },
              {
                "Comment": "Red Hat CoreOS 4 is installed"
              }
            ]
          },
          {
            "Operator": "OR",
            "Criterias": [
              {
                "Operator": "AND",
                "Criterias": [

                ],
                "Criterions": [
                  {
                    "Comment": "rsync is earlier than 0:3.1.3-19.el8"
                  },
                  {
                    "Comment": "rsync is signed with Red Hat redhatrelease2 key"
                  }
                ]
              },
              {
                "Operator": "AND",
                "Criterias": [

                ],
                "Criterions": [
                  {
                    "Comment": "rsync-daemon is earlier than 0:3.1.3-19.el8"
                  },
                  {
                    "Comment": "rsync-daemon is signed with Red Hat redhatrelease2 key"
                  }
                ]
              }
            ],
            "Criterions": [

            ]
          }
        ],
        "Criterions": [

        ]
      }
    ],
    "Criterions": [
      {
        "Comment": "Oracle Linux 8 is installed"
      }
    ]
  },
  "Severity": "Moderate",
  "Cves": [
    {
      "Impact": "",
      "Href": "",
      "ID": "CVE-2022-37434"
    }
  ],
  "Issued": {
    "Date": "2022-11-08"
  }
}