{
  "Title": "RHSA-2022:8415: mingw-gcc security and bug fix update (Low)",
  "Description": "The gcc packages provide compilers for C, C++, Java, Fortran, Objective C, and Ada 95 GNU, as well as related support libraries.\nSecurity Fix(es):\n* gcc: uncontrolled recursion in libiberty/rust-demangle.c (CVE-2021-46195)\nFor more details about the security issue(s), including the impact, a CVSS score, acknowledgments, and other related information, refer to the CVE page(s) listed in the References section.\nAdditional Changes:\nFor detailed information on changes in this release, see the Red Hat Enterprise Linux 9.1 Release Notes linked from the References section.",
  "Platform": [
    "Red Hat Enterprise Linux 9"
  ],
  "References": [
    {
      "Source": "RHSA",
      "URI": "https://access.redhat.com/errata/RHSA-2022:8415",
      "ID": "RHSA-2022:8415"
    },
    {
      "Source": "CVE",
      "URI": "https://access.redhat.com/security/cve/CVE-2021-46195",
      "ID": "CVE-2021-46195"
    }
  ],
  "Criteria": {
    "Operator": "OR",
    "Criterias": [
      {
        "Operator": "AND",
        "Criterias": [
          {
            "Operator": "OR",
            "Criterias": [
              {
                "Operator": "AND",
                "Criterias": [

                ],
                "Criterions": [
                  {
                    "Comment": "mingw32-cpp is earlier than 0:12.0.1-11.2.el9"
                  },
                  {
                    "Comment": "mingw32-cpp is signed with Red Hat redhatrelease2 key"
                  }
                ]
              },
              {
                "Operator": "AND",
                "Criterias": [

                ],
                "Criterions": [
                  {
                    "Comment": "mingw32-gcc is earlier than 0:12.0.1-11.2.el9"
                  },
                  {
                    "Comment": "mingw32-gcc is signed with Red Hat redhatrelease2 key"
                  }
                ]
              },
              {
                "Operator": "AND",
                "Criterias": [

                ],
                "Criterions": [
                  {
                    "Comment": "mingw32-gcc-c++ is earlier than 0:12.0.1-11.2.el9"
                  },
                  {
                    "Comment": "mingw32-gcc-c++ is signed with Red Hat redhatrelease2 key"
                  }
                ]
              },
              {
                "Operator": "AND",
                "Criterias": [

                ],
                "Criterions": [
                  {
                    "Comment": "mingw32-libgcc is earlier than 0:12.0.1-11.2.el9"
                  },
                  {
                    "Comment": "mingw32-libgcc is signed with Red Hat redhatrelease2 key"
                  }
                ]
              },
              {
                "Operator": "AND",
                "Criterias": [

                ],
                "Criterions": [
                  {
                    "Comment": "mingw64-cpp is earlier than 0:12.0.1-11.2.el9"
                  },
                  {
                    "Comment": "mingw64-cpp is signed with Red Hat redhatrelease2 key"
                  }
                ]
              },
              {
                "Operator": "AND",
                "Criterias": [

                ],
                "Criterions": [
                  {
                    "Comment": "mingw64-gcc is earlier than 0:12.0.1-11.2.el9"
                  },
                  {
                    "Comment": "mingw64-gcc is signed with Red Hat redhatrelease2 key"
                  }
                ]
              },
              {
                "Operator": "AND",
                "Criterias": [

                ],
                "Criterions": [
                  {
                    "Comment": "mingw64-gcc-c++ is earlier than 0:12.0.1-11.2.el9"
                  },
                  {
                    "Comment": "mingw64-gcc-c++ is signed with Red Hat redhatrelease2 key"
                  }
                ]
              },
              {
                "Operator": "AND",
                "Criterias": [

                ],
                "Criterions": [
                  {
                    "Comment": "mingw64-libgcc is earlier than 0:12.0.1-11.2.el9"
                  },
                  {
                    "Comment": "mingw64-libgcc is signed with Red Hat redhatrelease2 key"
                  }
                ]
              }
            ],
            "Criterions": [

            ]
          }
        ],
        "Criterions": [
          {
            "Comment": "Oracle Linux 9 is installed"
          }
        ]
      }
    ],
    "Criterions": [
      {
        "Comment": "Oracle Linux 9 is installed"
      }
    ]
  },
  "Severity": "Low",
  "Cves": [
    {
      "Impact": "",
      "Href": "",
      "ID": "CVE-2021-46195"
    }
  ],
  "Issued": {
    "Date": "2022-11-15"
  }
}