{
  "Title": "RHSA-2022:5311: libgcrypt security update (Moderate)",
  "Description": "The libgcrypt library provides general-purpose implementations of various cryptographic algorithms.\nSecurity Fix(es):\n* libgcrypt: ElGamal implementation allows plaintext recovery (CVE-2021-40528)\nFor more details about the security issue(s), including the impact, a CVSS score, acknowledgments, and other related information, refer to the CVE page(s) listed in the References section.",
  "Platform": [
    "Red Hat Enterprise Linux 8"
  ],
  "References": [
    {
      "Source": "RHSA",
      "URI": "https://access.redhat.com/errata/RHSA-2022:5311",
      "ID": "RHSA-2022:5311"
    },
    {
      "Source": "CVE",
      "URI": "https://access.redhat.com/security/cve/CVE-2021-40528",
      "ID": "CVE-2021-40528"
    }
  ],
  "Criteria": {
    "Operator": "OR",
    "Criterias": [
      {
        "Operator": "AND",
        "Criterias": [
          {
            "Operator": "OR",
            "Criterias": [

            ],
            "Criterions": [
              {
                "Comment": "Oracle Linux 8 is installed"
              },
              {
                "Comment": "Red Hat CoreOS 4 is installed"
              }
            ]
          },
          {
            "Operator": "OR",
            "Criterias": [
              {
                "Operator": "AND",
                "Criterias": [

                ],
                "Criterions": [
                  {
                    "Comment": "libgcrypt is earlier than 0:1.8.5-7.el8_6"
                  },
                  {
                    "Comment": "libgcrypt is signed with Red Hat redhatrelease2 key"
                  }
                ]
              },
              {
                "Operator": "AND",
                "Criterias": [

                ],
                "Criterions": [
                  {
                    "Comment": "libgcrypt-devel is earlier than 0:1.8.5-7.el8_6"
                  },
                  {
                    "Comment": "libgcrypt-devel is signed with Red Hat redhatrelease2 key"
                  }
                ]
              }
            ],
            "Criterions": [

            ]
          }
        ],
        "Criterions": [

        ]
      }
    ],
    "Criterions": [
      {
        "Comment": "Oracle Linux 8 is installed"
      }
    ]
  },
  "Severity": "Moderate",
  "Cves": [
    {
      "Impact": "",
      "Href": "",
      "ID": "CVE-2021-40528"
    }
  ],
  "Issued": {
    "Date": "2022-06-30"
  }
}