{
  "Title": "RHSA-2022:7190: thunderbird security update (Important)",
  "Description": "Mozilla Thunderbird is a standalone mail and newsgroup client.\nThis update upgrades Thunderbird to version 102.4.0.\nSecurity Fix(es):\n* Mozilla: Matrix SDK bundled with Thunderbird vulnerable to an impersonation attack by malicious server administrators (CVE-2022-39249)\n* Mozilla: Matrix SDK bundled with Thunderbird vulnerable to a device verification attack (CVE-2022-39250)\n* Mozilla: Matrix SDK bundled with Thunderbird vulnerable to an impersonation attack (CVE-2022-39251)\n* Mozilla: Same-origin policy violation could have leaked cross-origin URLs (CVE-2022-42927)\n* Mozilla: Memory Corruption in JS Engine (CVE-2022-42928)\n* Mozilla: Matrix SDK bundled with Thunderbird vulnerable to a data corruption issue (CVE-2022-39236)\n* Mozilla: Denial of Service via window.print (CVE-2022-42929)\n* Mozilla: Memory safety bugs fixed in Firefox ESR 102.4 and Thunderbird 102.4 (CVE-2022-42932)\nFor more details about the security issue(s), including the impact, a CVSS score, acknowledgments, and other related information, refer to the CVE page(s) listed in the References section.",
  "Platform": [
    "Red Hat Enterprise Linux 8"
  ],
  "References": [
    {
      "Source": "RHSA",
      "URI": "https://access.redhat.com/errata/RHSA-2022:7190",
      "ID": "RHSA-2022:7190"
    },
    {
      "Source": "CVE",
      "URI": "https://access.redhat.com/security/cve/CVE-2022-39236",
      "ID": "CVE-2022-39236"
    },
    {
      "Source": "CVE",
      "URI": "https://access.redhat.com/security/cve/CVE-2022-39249",
      "ID": "CVE-2022-39249"
    },
    {
      "Source": "CVE",
      "URI": "https://access.redhat.com/security/cve/CVE-2022-39250",
      "ID": "CVE-2022-39250"
    },
    {
      "Source": "CVE",
      "URI": "https://access.redhat.com/security/cve/CVE-2022-39251",
      "ID": "CVE-2022-39251"
    },
    {
      "Source": "CVE",
      "URI": "https://access.redhat.com/security/cve/CVE-2022-42927",
      "ID": "CVE-2022-42927"
    },
    {
      "Source": "CVE",
      "URI": "https://access.redhat.com/security/cve/CVE-2022-42928",
      "ID": "CVE-2022-42928"
    },
    {
      "Source": "CVE",
      "URI": "https://access.redhat.com/security/cve/CVE-2022-42929",
      "ID": "CVE-2022-42929"
    },
    {
      "Source": "CVE",
      "URI": "https://access.redhat.com/security/cve/CVE-2022-42932",
      "ID": "CVE-2022-42932"
    }
  ],
  "Criteria": {
    "Operator": "OR",
    "Criterias": [
      {
        "Operator": "AND",
        "Criterias": [
          {
            "Operator": "OR",
            "Criterias": [

            ],
            "Criterions": [
              {
                "Comment": "Oracle Linux 8 is installed"
              },
              {
                "Comment": "Red Hat CoreOS 4 is installed"
              }
            ]
          }
        ],
        "Criterions": [
          {
            "Comment": "thunderbird is earlier than 0:102.4.0-1.el8_6"
          },
          {
            "Comment": "thunderbird is signed with Red Hat redhatrelease2 key"
          }
        ]
      }
    ],
    "Criterions": [
      {
        "Comment": "Oracle Linux 8 is installed"
      }
    ]
  },
  "Severity": "Important",
  "Cves": [
    {
      "Impact": "",
      "Href": "",
      "ID": "CVE-2022-39236"
    },
    {
      "Impact": "",
      "Href": "",
      "ID": "CVE-2022-39249"
    },
    {
      "Impact": "",
      "Href": "",
      "ID": "CVE-2022-39250"
    },
    {
      "Impact": "",
      "Href": "",
      "ID": "CVE-2022-39251"
    },
    {
      "Impact": "",
      "Href": "",
      "ID": "CVE-2022-42927"
    },
    {
      "Impact": "",
      "Href": "",
      "ID": "CVE-2022-42928"
    },
    {
      "Impact": "",
      "Href": "",
      "ID": "CVE-2022-42929"
    },
    {
      "Impact": "",
      "Href": "",
      "ID": "CVE-2022-42932"
    }
  ],
  "Issued": {
    "Date": "2022-10-25"
  }
}