{
  "Title": "RHSA-2022:4587: pcs security update (Important)",
  "Description": "The pcs packages provide a command-line configuration system for the Pacemaker and Corosync utilities.\nSecurity Fix(es):\n* sinatra: path traversal possible outside of public_dir when serving static files (CVE-2022-29970)\nFor more details about the security issue(s), including the impact, a CVSS score, acknowledgments, and other related information, refer to the CVE page(s) listed in the References section.",
  "Platform": [
    "Red Hat Enterprise Linux 9"
  ],
  "References": [
    {
      "Source": "RHSA",
      "URI": "https://access.redhat.com/errata/RHSA-2022:4587",
      "ID": "RHSA-2022:4587"
    },
    {
      "Source": "CVE",
      "URI": "https://access.redhat.com/security/cve/CVE-2022-29970",
      "ID": "CVE-2022-29970"
    }
  ],
  "Criteria": {
    "Operator": "OR",
    "Criterias": [
      {
        "Operator": "AND",
        "Criterias": [
          {
            "Operator": "OR",
            "Criterias": [
              {
                "Operator": "AND",
                "Criterias": [

                ],
                "Criterions": [
                  {
                    "Comment": "pcs is earlier than 0:0.11.1-10.el9_0.1"
                  },
                  {
                    "Comment": "pcs is signed with Red Hat redhatrelease2 key"
                  }
                ]
              },
              {
                "Operator": "AND",
                "Criterias": [

                ],
                "Criterions": [
                  {
                    "Comment": "pcs-snmp is earlier than 0:0.11.1-10.el9_0.1"
                  },
                  {
                    "Comment": "pcs-snmp is signed with Red Hat redhatrelease2 key"
                  }
                ]
              }
            ],
            "Criterions": [

            ]
          }
        ],
        "Criterions": [
          {
            "Comment": "Oracle Linux 9 is installed"
          }
        ]
      }
    ],
    "Criterions": [
      {
        "Comment": "Oracle Linux 9 is installed"
      }
    ]
  },
  "Severity": "Important",
  "Cves": [
    {
      "Impact": "",
      "Href": "",
      "ID": "CVE-2022-29970"
    }
  ],
  "Issued": {
    "Date": "2022-05-18"
  }
}