{
  "Title": "RHSA-2022:1173: httpd security update (Important)",
  "Description": "The httpd packages provide the Apache HTTP Server, a powerful, efficient, and extensible web server.\nSecurity Fix(es):\n* httpd: Errors encountered during the discarding of request body lead to HTTP request smuggling (CVE-2022-22720)\nFor more details about the security issue(s), including the impact, a CVSS score, acknowledgments, and other related information, refer to the CVE page(s) listed in the References section.",
  "Platform": [
    "Red Hat Enterprise Linux 6 Extended Lifecycle Support"
  ],
  "References": [
    {
      "Source": "RHSA",
      "URI": "https://access.redhat.com/errata/RHSA-2022:1173",
      "ID": "RHSA-2022:1173"
    },
    {
      "Source": "CVE",
      "URI": "https://access.redhat.com/security/cve/CVE-2022-22720",
      "ID": "CVE-2022-22720"
    }
  ],
  "Criteria": {
    "Operator": "OR",
    "Criterias": [
      {
        "Operator": "AND",
        "Criterias": [
          {
            "Operator": "OR",
            "Criterias": [
              {
                "Operator": "AND",
                "Criterias": [

                ],
                "Criterions": [
                  {
                    "Comment": "httpd is earlier than 0:2.2.15-70.el6_10"
                  },
                  {
                    "Comment": "httpd is signed with Red Hat redhatrelease2 key"
                  }
                ]
              },
              {
                "Operator": "AND",
                "Criterias": [

                ],
                "Criterions": [
                  {
                    "Comment": "httpd-devel is earlier than 0:2.2.15-70.el6_10"
                  },
                  {
                    "Comment": "httpd-devel is signed with Red Hat redhatrelease2 key"
                  }
                ]
              },
              {
                "Operator": "AND",
                "Criterias": [

                ],
                "Criterions": [
                  {
                    "Comment": "httpd-manual is earlier than 0:2.2.15-70.el6_10"
                  },
                  {
                    "Comment": "httpd-manual is signed with Red Hat redhatrelease2 key"
                  }
                ]
              },
              {
                "Operator": "AND",
                "Criterias": [

                ],
                "Criterions": [
                  {
                    "Comment": "httpd-tools is earlier than 0:2.2.15-70.el6_10"
                  },
                  {
                    "Comment": "httpd-tools is signed with Red Hat redhatrelease2 key"
                  }
                ]
              },
              {
                "Operator": "AND",
                "Criterias": [

                ],
                "Criterions": [
                  {
                    "Comment": "mod_ssl is earlier than 1:2.2.15-70.el6_10"
                  },
                  {
                    "Comment": "mod_ssl is signed with Red Hat redhatrelease2 key"
                  }
                ]
              }
            ],
            "Criterions": [

            ]
          }
        ],
        "Criterions": [
          {
            "Comment": "Oracle Linux 6 is installed"
          }
        ]
      }
    ],
    "Criterions": [
      {
        "Comment": "Oracle Linux 6 Extended Lifecycle Support is installed"
      }
    ]
  },
  "Severity": "Important",
  "Cves": [
    {
      "Impact": "",
      "Href": "",
      "ID": "CVE-2022-22720"
    }
  ],
  "Issued": {
    "Date": "2022-04-04"
  }
}