{
  "Title": "RHSA-2022:7826: dotnet7.0 security, bug fix, and enhancement update (Moderate)",
  "Description": ".NET is a managed-software framework. It implements a subset of the .NET framework APIs and several new APIs, and it includes a CLR implementation.\nNew versions of .NET that address a security vulnerability are now available. The updated versions are .NET SDK 7.0.100 RC 2 and .NET Runtime 7.0.0 RC 2.\nThe following packages have been upgraded to a later upstream version: dotnet7.0 (7.0.100). (BZ#2134642).\nSecurity Fix(es):\n* dotnet: Nuget cache poisoning on Linux via world-writable cache directory (CVE-2022-41032)\nFor more details about the security issue(s), including the impact, a CVSS score, acknowledgments, and other related information, refer to the CVE page(s) listed in the References section.",
  "Platform": [
    "Red Hat Enterprise Linux 8"
  ],
  "References": [
    {
      "Source": "RHSA",
      "URI": "https://access.redhat.com/errata/RHSA-2022:7826",
      "ID": "RHSA-2022:7826"
    },
    {
      "Source": "CVE",
      "URI": "https://access.redhat.com/security/cve/CVE-2022-41032",
      "ID": "CVE-2022-41032"
    }
  ],
  "Criteria": {
    "Operator": "OR",
    "Criterias": [
      {
        "Operator": "AND",
        "Criterias": [
          {
            "Operator": "OR",
            "Criterias": [

            ],
            "Criterions": [
              {
                "Comment": "Oracle Linux 8 is installed"
              },
              {
                "Comment": "Red Hat CoreOS 4 is installed"
              }
            ]
          },
          {
            "Operator": "OR",
            "Criterias": [
              {
                "Operator": "AND",
                "Criterias": [

                ],
                "Criterions": [
                  {
                    "Comment": "aspnetcore-runtime-7.0 is earlier than 0:7.0.0-0.4.rc2.el8_7"
                  },
                  {
                    "Comment": "aspnetcore-runtime-7.0 is signed with Red Hat redhatrelease2 key"
                  }
                ]
              },
              {
                "Operator": "AND",
                "Criterias": [

                ],
                "Criterions": [
                  {
                    "Comment": "aspnetcore-targeting-pack-7.0 is earlier than 0:7.0.0-0.4.rc2.el8_7"
                  },
                  {
                    "Comment": "aspnetcore-targeting-pack-7.0 is signed with Red Hat redhatrelease2 key"
                  }
                ]
              },
              {
                "Operator": "AND",
                "Criterias": [

                ],
                "Criterions": [
                  {
                    "Comment": "dotnet is earlier than 0:7.0.100-0.4.rc2.el8_7"
                  },
                  {
                    "Comment": "dotnet is signed with Red Hat redhatrelease2 key"
                  }
                ]
              },
              {
                "Operator": "AND",
                "Criterias": [

                ],
                "Criterions": [
                  {
                    "Comment": "dotnet-apphost-pack-7.0 is earlier than 0:7.0.0-0.4.rc2.el8_7"
                  },
                  {
                    "Comment": "dotnet-apphost-pack-7.0 is signed with Red Hat redhatrelease2 key"
                  }
                ]
              },
              {
                "Operator": "AND",
                "Criterias": [

                ],
                "Criterions": [
                  {
                    "Comment": "dotnet-host is earlier than 0:7.0.0-0.4.rc2.el8_7"
                  },
                  {
                    "Comment": "dotnet-host is signed with Red Hat redhatrelease2 key"
                  }
                ]
              },
              {
                "Operator": "AND",
                "Criterias": [

                ],
                "Criterions": [
                  {
                    "Comment": "dotnet-hostfxr-7.0 is earlier than 0:7.0.0-0.4.rc2.el8_7"
                  },
                  {
                    "Comment": "dotnet-hostfxr-7.0 is signed with Red Hat redhatrelease2 key"
                  }
                ]
              },
              {
                "Operator": "AND",
                "Criterias": [

                ],
                "Criterions": [
                  {
                    "Comment": "dotnet-runtime-7.0 is earlier than 0:7.0.0-0.4.rc2.el8_7"
                  },
                  {
                    "Comment": "dotnet-runtime-7.0 is signed with Red Hat redhatrelease2 key"
                  }
                ]
              },
              {
                "Operator": "AND",
                "Criterias": [

                ],
                "Criterions": [
                  {
                    "Comment": "dotnet-sdk-7.0 is earlier than 0:7.0.100-0.4.rc2.el8_7"
                  },
                  {
                    "Comment": "dotnet-sdk-7.0 is signed with Red Hat redhatrelease2 key"
                  }
                ]
              },
              {
                "Operator": "AND",
                "Criterias": [

                ],
                "Criterions": [
                  {
                    "Comment": "dotnet-sdk-7.0-source-built-artifacts is earlier than 0:7.0.100-0.4.rc2.el8_7"
                  },
                  {
                    "Comment": "dotnet-sdk-7.0-source-built-artifacts is signed with Red Hat redhatrelease2 key"
                  }
                ]
              },
              {
                "Operator": "AND",
                "Criterias": [

                ],
                "Criterions": [
                  {
                    "Comment": "dotnet-targeting-pack-7.0 is earlier than 0:7.0.0-0.4.rc2.el8_7"
                  },
                  {
                    "Comment": "dotnet-targeting-pack-7.0 is signed with Red Hat redhatrelease2 key"
                  }
                ]
              },
              {
                "Operator": "AND",
                "Criterias": [

                ],
                "Criterions": [
                  {
                    "Comment": "dotnet-templates-7.0 is earlier than 0:7.0.100-0.4.rc2.el8_7"
                  },
                  {
                    "Comment": "dotnet-templates-7.0 is signed with Red Hat redhatrelease2 key"
                  }
                ]
              },
              {
                "Operator": "AND",
                "Criterias": [

                ],
                "Criterions": [
                  {
                    "Comment": "netstandard-targeting-pack-2.1 is earlier than 0:7.0.100-0.4.rc2.el8_7"
                  },
                  {
                    "Comment": "netstandard-targeting-pack-2.1 is signed with Red Hat redhatrelease2 key"
                  }
                ]
              }
            ],
            "Criterions": [

            ]
          }
        ],
        "Criterions": [

        ]
      }
    ],
    "Criterions": [
      {
        "Comment": "Oracle Linux 8 is installed"
      }
    ]
  },
  "Severity": "Moderate",
  "Cves": [
    {
      "Impact": "",
      "Href": "",
      "ID": "CVE-2022-41032"
    }
  ],
  "Issued": {
    "Date": "2022-11-08"
  }
}