{
  "Title": "RHBA-2015:0965: nss, nss-util, and nspr bug fix and enhancement update (Low)",
  "Description": "Network Security Services (NSS) is a set of libraries designed to support cross-platform development of security-enabled client and server applications. Netscape Portable Runtime (NSPR) provides platform independence for non-GUI operating system facilities.\nThe nss and nss-util packages have been upgraded to upstream versions 3.18, and the nspr packages have been upgraded to upstream version 4.10.8. The upgraded versions provide a number of bug fixes and enhancements over the previous versions. Notably, these upgrades allow users to upgrade to Mozilla Firefox 38 Extended Support Release. (BZ#1211371, BZ#1211372, BZ#1211373)\nUsers of nss, nss-util, and nspr are advised to upgrade to these updated packages, which fix these bugs and add these enhancements.",
  "Platform": [
    "Red Hat Enterprise Linux 7"
  ],
  "References": [
    {
      "Source": "RHSA",
      "URI": "https://access.redhat.com/errata/RHBA-2015:0965",
      "ID": "RHBA-2015:0965"
    },
    {
      "Source": "CVE",
      "URI": "https://access.redhat.com/security/cve/CVE-2014-1569",
      "ID": "CVE-2014-1569"
    }
  ],
  "Criteria": {
    "Operator": "OR",
    "Criterias": [
      {
        "Operator": "AND",
        "Criterias": [
          {
            "Operator": "OR",
            "Criterias": [
              {
                "Operator": "AND",
                "Criterias": [

                ],
                "Criterions": [
                  {
                    "Comment": "nspr is earlier than 0:4.10.8-1.el7_1"
                  },
                  {
                    "Comment": "nspr is signed with Red Hat redhatrelease2 key"
                  }
                ]
              },
              {
                "Operator": "AND",
                "Criterias": [

                ],
                "Criterions": [
                  {
                    "Comment": "nspr-devel is earlier than 0:4.10.8-1.el7_1"
                  },
                  {
                    "Comment": "nspr-devel is signed with Red Hat redhatrelease2 key"
                  }
                ]
              },
              {
                "Operator": "AND",
                "Criterias": [

                ],
                "Criterions": [
                  {
                    "Comment": "nss-util is earlier than 0:3.18.0-1.el7_1"
                  },
                  {
                    "Comment": "nss-util is signed with Red Hat redhatrelease2 key"
                  }
                ]
              },
              {
                "Operator": "AND",
                "Criterias": [

                ],
                "Criterions": [
                  {
                    "Comment": "nss-util-devel is earlier than 0:3.18.0-1.el7_1"
                  },
                  {
                    "Comment": "nss-util-devel is signed with Red Hat redhatrelease2 key"
                  }
                ]
              },
              {
                "Operator": "AND",
                "Criterias": [

                ],
                "Criterions": [
                  {
                    "Comment": "nss is earlier than 0:3.18.0-2.2.el7_1"
                  },
                  {
                    "Comment": "nss is signed with Red Hat redhatrelease2 key"
                  }
                ]
              },
              {
                "Operator": "AND",
                "Criterias": [

                ],
                "Criterions": [
                  {
                    "Comment": "nss-devel is earlier than 0:3.18.0-2.2.el7_1"
                  },
                  {
                    "Comment": "nss-devel is signed with Red Hat redhatrelease2 key"
                  }
                ]
              },
              {
                "Operator": "AND",
                "Criterias": [

                ],
                "Criterions": [
                  {
                    "Comment": "nss-pkcs11-devel is earlier than 0:3.18.0-2.2.el7_1"
                  },
                  {
                    "Comment": "nss-pkcs11-devel is signed with Red Hat redhatrelease2 key"
                  }
                ]
              },
              {
                "Operator": "AND",
                "Criterias": [

                ],
                "Criterions": [
                  {
                    "Comment": "nss-sysinit is earlier than 0:3.18.0-2.2.el7_1"
                  },
                  {
                    "Comment": "nss-sysinit is signed with Red Hat redhatrelease2 key"
                  }
                ]
              },
              {
                "Operator": "AND",
                "Criterias": [

                ],
                "Criterions": [
                  {
                    "Comment": "nss-tools is earlier than 0:3.18.0-2.2.el7_1"
                  },
                  {
                    "Comment": "nss-tools is signed with Red Hat redhatrelease2 key"
                  }
                ]
              }
            ],
            "Criterions": [

            ]
          }
        ],
        "Criterions": [
          {
            "Comment": "Oracle Linux 7 is installed"
          }
        ]
      }
    ],
    "Criterions": [
      {
        "Comment": "Oracle Linux 7 is installed"
      }
    ]
  },
  "Severity": "Low",
  "Cves": [
    {
      "Impact": "",
      "Href": "",
      "ID": "CVE-2014-1569"
    }
  ],
  "Issued": {
    "Date": "2015-05-12"
  }
}