{
  "Title": "RHBA-2015:2395: redhat-upgrade-tool bug fix update (Important)",
  "Description": "The Red Hat Upgrade Tool is used for performing an in-place upgrade of the current system to the next major version of Red Hat Enterprise Linux. It determines what packages are needed for the upgrade and gathers them from the source or sources given. It also fetches and sets up the boot images needed to run the upgrade and sets up the system to perform the upgrade on the next system boot. Running the Red Hat Upgrade Tool requires running the Preupgrade Assistant as a prerequisite.\nUsers of redhat-upgrade-tool are advised to upgrade to this updated package, which fixes one bug.",
  "Platform": [
    "Red Hat Enterprise Linux 7"
  ],
  "References": [
    {
      "Source": "RHSA",
      "URI": "https://access.redhat.com/errata/RHBA-2015:2395",
      "ID": "RHBA-2015:2395"
    },
    {
      "Source": "CVE",
      "URI": "https://access.redhat.com/security/cve/CVE-2014-3585",
      "ID": "CVE-2014-3585"
    }
  ],
  "Criteria": {
    "Operator": "OR",
    "Criterias": [
      {
        "Operator": "AND",
        "Criterias": [

        ],
        "Criterions": [
          {
            "Comment": "Oracle Linux 7 is installed"
          },
          {
            "Comment": "redhat-upgrade-tool is earlier than 2:0.9.3-1.el7"
          },
          {
            "Comment": "redhat-upgrade-tool is signed with Red Hat redhatrelease2 key"
          }
        ]
      }
    ],
    "Criterions": [
      {
        "Comment": "Oracle Linux 7 is installed"
      }
    ]
  },
  "Severity": "Important",
  "Cves": [
    {
      "Impact": "",
      "Href": "",
      "ID": "CVE-2014-3585"
    }
  ],
  "Issued": {
    "Date": "2015-11-19"
  }
}