{
  "Title": "RHSA-2015:2518: java-1.5.0-ibm security update (Important)",
  "Description": "IBM J2SE version 5.0 includes the IBM Java Runtime Environment and the IBM\nJava Software Development Kit.\nThis update fixes several vulnerabilities in the IBM Java Runtime\nEnvironment and the IBM Java Software Development Kit. Further information\nabout these flaws can be found on the IBM Java Security alerts page, listed\nin the References section. (CVE-2015-4805, CVE-2015-4806, CVE-2015-4843,\nCVE-2015-4844, CVE-2015-4860, CVE-2015-4872, CVE-2015-4883, CVE-2015-4902,\nCVE-2015-4903)\nRed Hat would like to thank Andrea Palazzo of Truel IT for reporting the\nCVE-2015-4806 issue.\nIBM Java SDK and JRE 5.0 will not receive software updates after September\n2015. This date is referred to as the End of Service (EOS) date. Customers\nare advised to migrate to current versions of IBM Java at this time. IBM\nJava SDK and JRE versions 6 and 7 are available via the Red Hat Enterprise\nLinux 5 and 6 Supplementary content sets and will continue to receive\nupdates based on IBM's lifecycle policy, linked to in the References\nsection.\nCustomers can also consider OpenJDK, an open source implementation of\nthe Java SE specification. OpenJDK is available by default on supported\nhardware architectures.\nAll users of java-1.5.0-ibm are advised to upgrade to these updated\npackages, containing the IBM J2SE 5.0 SR16-FP14 release. All running\ninstances of IBM Java must be restarted for this update to take effect.",
  "Platform": [
    "Supplementary for Red Hat Enterprise Linux 5",
    "Supplementary for Red Hat Enterprise Linux 6"
  ],
  "References": [
    {
      "Source": "RHSA",
      "URI": "https://rhn.redhat.com/errata/RHSA-2015-2518.html",
      "ID": "RHSA-2015:2518-00"
    },
    {
      "Source": "CVE",
      "URI": "https://access.redhat.com/security/cve/CVE-2015-4805",
      "ID": "CVE-2015-4805"
    },
    {
      "Source": "CVE",
      "URI": "https://access.redhat.com/security/cve/CVE-2015-4806",
      "ID": "CVE-2015-4806"
    },
    {
      "Source": "CVE",
      "URI": "https://access.redhat.com/security/cve/CVE-2015-4843",
      "ID": "CVE-2015-4843"
    },
    {
      "Source": "CVE",
      "URI": "https://access.redhat.com/security/cve/CVE-2015-4844",
      "ID": "CVE-2015-4844"
    },
    {
      "Source": "CVE",
      "URI": "https://access.redhat.com/security/cve/CVE-2015-4860",
      "ID": "CVE-2015-4860"
    },
    {
      "Source": "CVE",
      "URI": "https://access.redhat.com/security/cve/CVE-2015-4872",
      "ID": "CVE-2015-4872"
    },
    {
      "Source": "CVE",
      "URI": "https://access.redhat.com/security/cve/CVE-2015-4883",
      "ID": "CVE-2015-4883"
    },
    {
      "Source": "CVE",
      "URI": "https://access.redhat.com/security/cve/CVE-2015-4902",
      "ID": "CVE-2015-4902"
    },
    {
      "Source": "CVE",
      "URI": "https://access.redhat.com/security/cve/CVE-2015-4903",
      "ID": "CVE-2015-4903"
    }
  ],
  "Criteria": {
    "Operator": "OR",
    "Criterias": [
      {
        "Operator": "AND",
        "Criterias": [
          {
            "Operator": "OR",
            "Criterias": [
              {
                "Operator": "AND",
                "Criterias": [

                ],
                "Criterions": [
                  {
                    "Comment": "java-1.5.0-ibm is earlier than 1:1.5.0.16.14-1jpp.1.el5"
                  },
                  {
                    "Comment": "java-1.5.0-ibm is signed with Red Hat redhatrelease key"
                  }
                ]
              },
              {
                "Operator": "AND",
                "Criterias": [

                ],
                "Criterions": [
                  {
                    "Comment": "java-1.5.0-ibm-accessibility is earlier than 1:1.5.0.16.14-1jpp.1.el5"
                  },
                  {
                    "Comment": "java-1.5.0-ibm-accessibility is signed with Red Hat redhatrelease key"
                  }
                ]
              },
              {
                "Operator": "AND",
                "Criterias": [

                ],
                "Criterions": [
                  {
                    "Comment": "java-1.5.0-ibm-demo is earlier than 1:1.5.0.16.14-1jpp.1.el5"
                  },
                  {
                    "Comment": "java-1.5.0-ibm-demo is signed with Red Hat redhatrelease key"
                  }
                ]
              },
              {
                "Operator": "AND",
                "Criterias": [

                ],
                "Criterions": [
                  {
                    "Comment": "java-1.5.0-ibm-devel is earlier than 1:1.5.0.16.14-1jpp.1.el5"
                  },
                  {
                    "Comment": "java-1.5.0-ibm-devel is signed with Red Hat redhatrelease key"
                  }
                ]
              },
              {
                "Operator": "AND",
                "Criterias": [

                ],
                "Criterions": [
                  {
                    "Comment": "java-1.5.0-ibm-javacomm is earlier than 1:1.5.0.16.14-1jpp.1.el5"
                  },
                  {
                    "Comment": "java-1.5.0-ibm-javacomm is signed with Red Hat redhatrelease key"
                  }
                ]
              },
              {
                "Operator": "AND",
                "Criterias": [

                ],
                "Criterions": [
                  {
                    "Comment": "java-1.5.0-ibm-jdbc is earlier than 1:1.5.0.16.14-1jpp.1.el5"
                  },
                  {
                    "Comment": "java-1.5.0-ibm-jdbc is signed with Red Hat redhatrelease key"
                  }
                ]
              },
              {
                "Operator": "AND",
                "Criterias": [

                ],
                "Criterions": [
                  {
                    "Comment": "java-1.5.0-ibm-plugin is earlier than 1:1.5.0.16.14-1jpp.1.el5"
                  },
                  {
                    "Comment": "java-1.5.0-ibm-plugin is signed with Red Hat redhatrelease key"
                  }
                ]
              },
              {
                "Operator": "AND",
                "Criterias": [

                ],
                "Criterions": [
                  {
                    "Comment": "java-1.5.0-ibm-src is earlier than 1:1.5.0.16.14-1jpp.1.el5"
                  },
                  {
                    "Comment": "java-1.5.0-ibm-src is signed with Red Hat redhatrelease key"
                  }
                ]
              }
            ],
            "Criterions": [

            ]
          }
        ],
        "Criterions": [
          {
            "Comment": "Oracle Linux 5 is installed"
          }
        ]
      },
      {
        "Operator": "AND",
        "Criterias": [
          {
            "Operator": "OR",
            "Criterias": [

            ],
            "Criterions": [
              {
                "Comment": "Oracle Linux 6 Client is installed"
              },
              {
                "Comment": "Oracle Linux 6 Server is installed"
              },
              {
                "Comment": "Oracle Linux 6 Workstation is installed"
              },
              {
                "Comment": "Oracle Linux 6 ComputeNode is installed"
              }
            ]
          },
          {
            "Operator": "OR",
            "Criterias": [
              {
                "Operator": "AND",
                "Criterias": [

                ],
                "Criterions": [
                  {
                    "Comment": "java-1.5.0-ibm is earlier than 1:1.5.0.16.14-1jpp.1.el6_7"
                  },
                  {
                    "Comment": "java-1.5.0-ibm is signed with Red Hat redhatrelease2 key"
                  }
                ]
              },
              {
                "Operator": "AND",
                "Criterias": [

                ],
                "Criterions": [
                  {
                    "Comment": "java-1.5.0-ibm-demo is earlier than 1:1.5.0.16.14-1jpp.1.el6_7"
                  },
                  {
                    "Comment": "java-1.5.0-ibm-demo is signed with Red Hat redhatrelease2 key"
                  }
                ]
              },
              {
                "Operator": "AND",
                "Criterias": [

                ],
                "Criterions": [
                  {
                    "Comment": "java-1.5.0-ibm-devel is earlier than 1:1.5.0.16.14-1jpp.1.el6_7"
                  },
                  {
                    "Comment": "java-1.5.0-ibm-devel is signed with Red Hat redhatrelease2 key"
                  }
                ]
              },
              {
                "Operator": "AND",
                "Criterias": [

                ],
                "Criterions": [
                  {
                    "Comment": "java-1.5.0-ibm-javacomm is earlier than 1:1.5.0.16.14-1jpp.1.el6_7"
                  },
                  {
                    "Comment": "java-1.5.0-ibm-javacomm is signed with Red Hat redhatrelease2 key"
                  }
                ]
              },
              {
                "Operator": "AND",
                "Criterias": [

                ],
                "Criterions": [
                  {
                    "Comment": "java-1.5.0-ibm-jdbc is earlier than 1:1.5.0.16.14-1jpp.1.el6_7"
                  },
                  {
                    "Comment": "java-1.5.0-ibm-jdbc is signed with Red Hat redhatrelease2 key"
                  }
                ]
              },
              {
                "Operator": "AND",
                "Criterias": [

                ],
                "Criterions": [
                  {
                    "Comment": "java-1.5.0-ibm-plugin is earlier than 1:1.5.0.16.14-1jpp.1.el6_7"
                  },
                  {
                    "Comment": "java-1.5.0-ibm-plugin is signed with Red Hat redhatrelease2 key"
                  }
                ]
              },
              {
                "Operator": "AND",
                "Criterias": [

                ],
                "Criterions": [
                  {
                    "Comment": "java-1.5.0-ibm-src is earlier than 1:1.5.0.16.14-1jpp.1.el6_7"
                  },
                  {
                    "Comment": "java-1.5.0-ibm-src is signed with Red Hat redhatrelease2 key"
                  }
                ]
              }
            ],
            "Criterions": [

            ]
          }
        ],
        "Criterions": [

        ]
      }
    ],
    "Criterions": [

    ]
  },
  "Severity": "Important",
  "Cves": [
    {
      "Impact": "",
      "Href": "",
      "ID": "CVE-2015-4805"
    },
    {
      "Impact": "",
      "Href": "",
      "ID": "CVE-2015-4806"
    },
    {
      "Impact": "",
      "Href": "",
      "ID": "CVE-2015-4843"
    },
    {
      "Impact": "",
      "Href": "",
      "ID": "CVE-2015-4844"
    },
    {
      "Impact": "",
      "Href": "",
      "ID": "CVE-2015-4860"
    },
    {
      "Impact": "",
      "Href": "",
      "ID": "CVE-2015-4872"
    },
    {
      "Impact": "",
      "Href": "",
      "ID": "CVE-2015-4883"
    },
    {
      "Impact": "",
      "Href": "",
      "ID": "CVE-2015-4902"
    },
    {
      "Impact": "",
      "Href": "",
      "ID": "CVE-2015-4903"
    }
  ],
  "Issued": {
    "Date": "2015-11-25"
  }
}