{
  "Title": "RHSA-2015:2596: libpng security update (Moderate)",
  "Description": "The libpng packages contain a library of functions for creating and\nmanipulating PNG (Portable Network Graphics) image format files.\nIt was discovered that the png_get_PLTE() and png_set_PLTE() functions of\nlibpng did not correctly calculate the maximum palette sizes for bit depths\nof less than 8. In case an application tried to use these functions in\ncombination with properly calculated palette sizes, this could lead to a\nbuffer overflow or out-of-bounds reads. An attacker could exploit this to\ncause a crash or potentially execute arbitrary code by tricking an\nunsuspecting user into processing a specially crafted PNG image. However,\nthe exact impact is dependent on the application using the library.\n(CVE-2015-8126, CVE-2015-8472)\nAll libpng users are advised to upgrade to these updated packages, which\ncontain a backported patch to correct this issue.",
  "Platform": [
    "Red Hat Enterprise Linux 7"
  ],
  "References": [
    {
      "Source": "RHSA",
      "URI": "https://access.redhat.com/errata/RHSA-2015:2596",
      "ID": "RHSA-2015:2596"
    },
    {
      "Source": "CVE",
      "URI": "https://access.redhat.com/security/cve/CVE-2015-8126",
      "ID": "CVE-2015-8126"
    },
    {
      "Source": "CVE",
      "URI": "https://access.redhat.com/security/cve/CVE-2015-8472",
      "ID": "CVE-2015-8472"
    }
  ],
  "Criteria": {
    "Operator": "OR",
    "Criterias": [
      {
        "Operator": "AND",
        "Criterias": [
          {
            "Operator": "OR",
            "Criterias": [
              {
                "Operator": "AND",
                "Criterias": [

                ],
                "Criterions": [
                  {
                    "Comment": "libpng is earlier than 2:1.5.13-7.el7_2"
                  },
                  {
                    "Comment": "libpng is signed with Red Hat redhatrelease2 key"
                  }
                ]
              },
              {
                "Operator": "AND",
                "Criterias": [

                ],
                "Criterions": [
                  {
                    "Comment": "libpng-devel is earlier than 2:1.5.13-7.el7_2"
                  },
                  {
                    "Comment": "libpng-devel is signed with Red Hat redhatrelease2 key"
                  }
                ]
              },
              {
                "Operator": "AND",
                "Criterias": [

                ],
                "Criterions": [
                  {
                    "Comment": "libpng-static is earlier than 2:1.5.13-7.el7_2"
                  },
                  {
                    "Comment": "libpng-static is signed with Red Hat redhatrelease2 key"
                  }
                ]
              }
            ],
            "Criterions": [

            ]
          }
        ],
        "Criterions": [
          {
            "Comment": "Oracle Linux 7 is installed"
          }
        ]
      }
    ],
    "Criterions": [
      {
        "Comment": "Oracle Linux 7 is installed"
      }
    ]
  },
  "Severity": "Moderate",
  "Cves": [
    {
      "Impact": "",
      "Href": "",
      "ID": "CVE-2015-8126"
    },
    {
      "Impact": "",
      "Href": "",
      "ID": "CVE-2015-8472"
    }
  ],
  "Issued": {
    "Date": "2015-12-09"
  }
}