{
  "Title": "RHSA-2015:2545: chromium-browser security update (Critical)",
  "Description": "Chromium is an open-source web browser, powered by WebKit (Blink).\nSeveral flaws were found in the processing of malformed web content. A web\npage containing malicious content could cause Chromium to crash, execute\narbitrary code, or disclose sensitive information when visited by the\nvictim. (CVE-2015-6764, CVE-2015-6765, CVE-2015-6766, CVE-2015-6767,\nCVE-2015-6768, CVE-2015-6769, CVE-2015-6770, CVE-2015-6771, CVE-2015-6772,\nCVE-2015-6773, CVE-2015-6774, CVE-2015-6775, CVE-2015-6776, CVE-2015-6777,\nCVE-2015-6778, CVE-2015-6779, CVE-2015-6780, CVE-2015-6781, CVE-2015-6782,\nCVE-2015-6784, CVE-2015-6785, CVE-2015-6786, CVE-2015-6787)\nAll Chromium users should upgrade to these updated packages, which contain\nChromium version 47.0.2526.73, which corrects these issues. After\ninstalling the update, Chromium must be restarted for the changes to take \neffect.",
  "Platform": [
    "Supplementary for Red Hat Enterprise Linux 6"
  ],
  "References": [
    {
      "Source": "RHSA",
      "URI": "https://rhn.redhat.com/errata/RHSA-2015-2545.html",
      "ID": "RHSA-2015:2545-01"
    },
    {
      "Source": "CVE",
      "URI": "https://access.redhat.com/security/cve/CVE-2015-6764",
      "ID": "CVE-2015-6764"
    },
    {
      "Source": "CVE",
      "URI": "https://access.redhat.com/security/cve/CVE-2015-6765",
      "ID": "CVE-2015-6765"
    },
    {
      "Source": "CVE",
      "URI": "https://access.redhat.com/security/cve/CVE-2015-6766",
      "ID": "CVE-2015-6766"
    },
    {
      "Source": "CVE",
      "URI": "https://access.redhat.com/security/cve/CVE-2015-6767",
      "ID": "CVE-2015-6767"
    },
    {
      "Source": "CVE",
      "URI": "https://access.redhat.com/security/cve/CVE-2015-6768",
      "ID": "CVE-2015-6768"
    },
    {
      "Source": "CVE",
      "URI": "https://access.redhat.com/security/cve/CVE-2015-6769",
      "ID": "CVE-2015-6769"
    },
    {
      "Source": "CVE",
      "URI": "https://access.redhat.com/security/cve/CVE-2015-6770",
      "ID": "CVE-2015-6770"
    },
    {
      "Source": "CVE",
      "URI": "https://access.redhat.com/security/cve/CVE-2015-6771",
      "ID": "CVE-2015-6771"
    },
    {
      "Source": "CVE",
      "URI": "https://access.redhat.com/security/cve/CVE-2015-6772",
      "ID": "CVE-2015-6772"
    },
    {
      "Source": "CVE",
      "URI": "https://access.redhat.com/security/cve/CVE-2015-6773",
      "ID": "CVE-2015-6773"
    },
    {
      "Source": "CVE",
      "URI": "https://access.redhat.com/security/cve/CVE-2015-6774",
      "ID": "CVE-2015-6774"
    },
    {
      "Source": "CVE",
      "URI": "https://access.redhat.com/security/cve/CVE-2015-6775",
      "ID": "CVE-2015-6775"
    },
    {
      "Source": "CVE",
      "URI": "https://access.redhat.com/security/cve/CVE-2015-6776",
      "ID": "CVE-2015-6776"
    },
    {
      "Source": "CVE",
      "URI": "https://access.redhat.com/security/cve/CVE-2015-6777",
      "ID": "CVE-2015-6777"
    },
    {
      "Source": "CVE",
      "URI": "https://access.redhat.com/security/cve/CVE-2015-6778",
      "ID": "CVE-2015-6778"
    },
    {
      "Source": "CVE",
      "URI": "https://access.redhat.com/security/cve/CVE-2015-6779",
      "ID": "CVE-2015-6779"
    },
    {
      "Source": "CVE",
      "URI": "https://access.redhat.com/security/cve/CVE-2015-6780",
      "ID": "CVE-2015-6780"
    },
    {
      "Source": "CVE",
      "URI": "https://access.redhat.com/security/cve/CVE-2015-6781",
      "ID": "CVE-2015-6781"
    },
    {
      "Source": "CVE",
      "URI": "https://access.redhat.com/security/cve/CVE-2015-6782",
      "ID": "CVE-2015-6782"
    },
    {
      "Source": "CVE",
      "URI": "https://access.redhat.com/security/cve/CVE-2015-6784",
      "ID": "CVE-2015-6784"
    },
    {
      "Source": "CVE",
      "URI": "https://access.redhat.com/security/cve/CVE-2015-6785",
      "ID": "CVE-2015-6785"
    },
    {
      "Source": "CVE",
      "URI": "https://access.redhat.com/security/cve/CVE-2015-6786",
      "ID": "CVE-2015-6786"
    },
    {
      "Source": "CVE",
      "URI": "https://access.redhat.com/security/cve/CVE-2015-6787",
      "ID": "CVE-2015-6787"
    },
    {
      "Source": "CVE",
      "URI": "https://access.redhat.com/security/cve/CVE-2015-8478",
      "ID": "CVE-2015-8478"
    },
    {
      "Source": "CVE",
      "URI": "https://access.redhat.com/security/cve/CVE-2015-8479",
      "ID": "CVE-2015-8479"
    },
    {
      "Source": "CVE",
      "URI": "https://access.redhat.com/security/cve/CVE-2015-8480",
      "ID": "CVE-2015-8480"
    }
  ],
  "Criteria": {
    "Operator": "AND",
    "Criterias": [
      {
        "Operator": "OR",
        "Criterias": [

        ],
        "Criterions": [
          {
            "Comment": "Oracle Linux 6 Client is installed"
          },
          {
            "Comment": "Oracle Linux 6 Server is installed"
          },
          {
            "Comment": "Oracle Linux 6 Workstation is installed"
          },
          {
            "Comment": "Oracle Linux 6 ComputeNode is installed"
          }
        ]
      }
    ],
    "Criterions": [
      {
        "Comment": "chromium-browser is earlier than 0:47.0.2526.73-1.el6"
      },
      {
        "Comment": "chromium-browser is signed with Red Hat redhatrelease2 key"
      }
    ]
  },
  "Severity": "Critical",
  "Cves": [
    {
      "Impact": "",
      "Href": "",
      "ID": "CVE-2015-6764"
    },
    {
      "Impact": "",
      "Href": "",
      "ID": "CVE-2015-6765"
    },
    {
      "Impact": "",
      "Href": "",
      "ID": "CVE-2015-6766"
    },
    {
      "Impact": "",
      "Href": "",
      "ID": "CVE-2015-6767"
    },
    {
      "Impact": "",
      "Href": "",
      "ID": "CVE-2015-6768"
    },
    {
      "Impact": "",
      "Href": "",
      "ID": "CVE-2015-6769"
    },
    {
      "Impact": "",
      "Href": "",
      "ID": "CVE-2015-6770"
    },
    {
      "Impact": "",
      "Href": "",
      "ID": "CVE-2015-6771"
    },
    {
      "Impact": "",
      "Href": "",
      "ID": "CVE-2015-6772"
    },
    {
      "Impact": "",
      "Href": "",
      "ID": "CVE-2015-6773"
    },
    {
      "Impact": "",
      "Href": "",
      "ID": "CVE-2015-6774"
    },
    {
      "Impact": "",
      "Href": "",
      "ID": "CVE-2015-6775"
    },
    {
      "Impact": "",
      "Href": "",
      "ID": "CVE-2015-6776"
    },
    {
      "Impact": "",
      "Href": "",
      "ID": "CVE-2015-6777"
    },
    {
      "Impact": "",
      "Href": "",
      "ID": "CVE-2015-6778"
    },
    {
      "Impact": "",
      "Href": "",
      "ID": "CVE-2015-6779"
    },
    {
      "Impact": "",
      "Href": "",
      "ID": "CVE-2015-6780"
    },
    {
      "Impact": "",
      "Href": "",
      "ID": "CVE-2015-6781"
    },
    {
      "Impact": "",
      "Href": "",
      "ID": "CVE-2015-6782"
    },
    {
      "Impact": "",
      "Href": "",
      "ID": "CVE-2015-6784"
    },
    {
      "Impact": "",
      "Href": "",
      "ID": "CVE-2015-6785"
    },
    {
      "Impact": "",
      "Href": "",
      "ID": "CVE-2015-6786"
    },
    {
      "Impact": "",
      "Href": "",
      "ID": "CVE-2015-6787"
    },
    {
      "Impact": "",
      "Href": "",
      "ID": "CVE-2015-8478"
    },
    {
      "Impact": "",
      "Href": "",
      "ID": "CVE-2015-8479"
    },
    {
      "Impact": "",
      "Href": "",
      "ID": "CVE-2015-8480"
    }
  ],
  "Issued": {
    "Date": "2015-12-03"
  }
}