{
  "Title": "RHSA-2015:1207: firefox security update (Critical)",
  "Description": "Mozilla Firefox is an open source web browser. XULRunner provides the XUL\nRuntime environment for Mozilla Firefox.\nSeveral flaws were found in the processing of malformed web content. A web\npage containing malicious content could cause Firefox to crash or,\npotentially, execute arbitrary code with the privileges of the user running\nFirefox. (CVE-2015-2724, CVE-2015-2725, CVE-2015-2722, CVE-2015-2727,\nCVE-2015-2728, CVE-2015-2729, CVE-2015-2731, CVE-2015-2733, CVE-2015-2734,\nCVE-2015-2735, CVE-2015-2736, CVE-2015-2737, CVE-2015-2738, CVE-2015-2739,\nCVE-2015-2740)\nIt was found that Firefox skipped key-pinning checks when handling an error\nthat could be overridden by the user (for example an expired certificate\nerror). This flaw allowed a user to override a pinned certificate, which is\nan action the user should not be able to perform. (CVE-2015-2741)\nA flaw was discovered in Mozilla's PDF.js PDF file viewer. When combined\nwith another vulnerability, it could allow execution of arbitrary code with\nthe privileges of the user running Firefox. (CVE-2015-2743)\nRed Hat would like to thank the Mozilla project for reporting these issues.\nUpstream acknowledges Bob Clary, Christian Holler, Bobby Holley, Andrew\nMcCreight, Terrence Cole, Steve Fink, Mats Palmgren, Wes Kocher, Andreas\nPehrson, Jann Horn, Paul Bandha, Holger Fuhrmannek, Herre, Looben Yan,\nRonald Crane, and Jonas Jenwald as the original reporters of these issues.\nAll Firefox users should upgrade to these updated packages, which contain\nFirefox version 38.1 ESR, which corrects these issues. After installing the\nupdate, Firefox must be restarted for the changes to take effect.",
  "Platform": [
    "Red Hat Enterprise Linux 5",
    "Red Hat Enterprise Linux 6",
    "Red Hat Enterprise Linux 7"
  ],
  "References": [
    {
      "Source": "RHSA",
      "URI": "https://access.redhat.com/errata/RHSA-2015:1207",
      "ID": "RHSA-2015:1207"
    },
    {
      "Source": "CVE",
      "URI": "https://access.redhat.com/security/cve/CVE-2015-2722",
      "ID": "CVE-2015-2722"
    },
    {
      "Source": "CVE",
      "URI": "https://access.redhat.com/security/cve/CVE-2015-2724",
      "ID": "CVE-2015-2724"
    },
    {
      "Source": "CVE",
      "URI": "https://access.redhat.com/security/cve/CVE-2015-2725",
      "ID": "CVE-2015-2725"
    },
    {
      "Source": "CVE",
      "URI": "https://access.redhat.com/security/cve/CVE-2015-2727",
      "ID": "CVE-2015-2727"
    },
    {
      "Source": "CVE",
      "URI": "https://access.redhat.com/security/cve/CVE-2015-2728",
      "ID": "CVE-2015-2728"
    },
    {
      "Source": "CVE",
      "URI": "https://access.redhat.com/security/cve/CVE-2015-2729",
      "ID": "CVE-2015-2729"
    },
    {
      "Source": "CVE",
      "URI": "https://access.redhat.com/security/cve/CVE-2015-2731",
      "ID": "CVE-2015-2731"
    },
    {
      "Source": "CVE",
      "URI": "https://access.redhat.com/security/cve/CVE-2015-2733",
      "ID": "CVE-2015-2733"
    },
    {
      "Source": "CVE",
      "URI": "https://access.redhat.com/security/cve/CVE-2015-2734",
      "ID": "CVE-2015-2734"
    },
    {
      "Source": "CVE",
      "URI": "https://access.redhat.com/security/cve/CVE-2015-2735",
      "ID": "CVE-2015-2735"
    },
    {
      "Source": "CVE",
      "URI": "https://access.redhat.com/security/cve/CVE-2015-2736",
      "ID": "CVE-2015-2736"
    },
    {
      "Source": "CVE",
      "URI": "https://access.redhat.com/security/cve/CVE-2015-2737",
      "ID": "CVE-2015-2737"
    },
    {
      "Source": "CVE",
      "URI": "https://access.redhat.com/security/cve/CVE-2015-2738",
      "ID": "CVE-2015-2738"
    },
    {
      "Source": "CVE",
      "URI": "https://access.redhat.com/security/cve/CVE-2015-2739",
      "ID": "CVE-2015-2739"
    },
    {
      "Source": "CVE",
      "URI": "https://access.redhat.com/security/cve/CVE-2015-2740",
      "ID": "CVE-2015-2740"
    },
    {
      "Source": "CVE",
      "URI": "https://access.redhat.com/security/cve/CVE-2015-2741",
      "ID": "CVE-2015-2741"
    },
    {
      "Source": "CVE",
      "URI": "https://access.redhat.com/security/cve/CVE-2015-2743",
      "ID": "CVE-2015-2743"
    }
  ],
  "Criteria": {
    "Operator": "OR",
    "Criterias": [
      {
        "Operator": "AND",
        "Criterias": [

        ],
        "Criterions": [
          {
            "Comment": "Oracle Linux 5 is installed"
          },
          {
            "Comment": "firefox is earlier than 0:38.1.0-1.el5_11"
          },
          {
            "Comment": "firefox is signed with Red Hat redhatrelease2 key"
          }
        ]
      },
      {
        "Operator": "AND",
        "Criterias": [

        ],
        "Criterions": [
          {
            "Comment": "Oracle Linux 6 is installed"
          },
          {
            "Comment": "firefox is earlier than 0:38.1.0-1.el6_6"
          },
          {
            "Comment": "firefox is signed with Red Hat redhatrelease2 key"
          }
        ]
      },
      {
        "Operator": "AND",
        "Criterias": [

        ],
        "Criterions": [
          {
            "Comment": "Oracle Linux 7 is installed"
          },
          {
            "Comment": "firefox is earlier than 0:38.1.0-1.el7_1"
          },
          {
            "Comment": "firefox is signed with Red Hat redhatrelease2 key"
          }
        ]
      }
    ],
    "Criterions": [
      {
        "Comment": "Oracle Linux 5 is installed"
      }
    ]
  },
  "Severity": "Critical",
  "Cves": [
    {
      "Impact": "",
      "Href": "",
      "ID": "CVE-2015-2722"
    },
    {
      "Impact": "",
      "Href": "",
      "ID": "CVE-2015-2724"
    },
    {
      "Impact": "",
      "Href": "",
      "ID": "CVE-2015-2725"
    },
    {
      "Impact": "",
      "Href": "",
      "ID": "CVE-2015-2727"
    },
    {
      "Impact": "",
      "Href": "",
      "ID": "CVE-2015-2728"
    },
    {
      "Impact": "",
      "Href": "",
      "ID": "CVE-2015-2729"
    },
    {
      "Impact": "",
      "Href": "",
      "ID": "CVE-2015-2731"
    },
    {
      "Impact": "",
      "Href": "",
      "ID": "CVE-2015-2733"
    },
    {
      "Impact": "",
      "Href": "",
      "ID": "CVE-2015-2734"
    },
    {
      "Impact": "",
      "Href": "",
      "ID": "CVE-2015-2735"
    },
    {
      "Impact": "",
      "Href": "",
      "ID": "CVE-2015-2736"
    },
    {
      "Impact": "",
      "Href": "",
      "ID": "CVE-2015-2737"
    },
    {
      "Impact": "",
      "Href": "",
      "ID": "CVE-2015-2738"
    },
    {
      "Impact": "",
      "Href": "",
      "ID": "CVE-2015-2739"
    },
    {
      "Impact": "",
      "Href": "",
      "ID": "CVE-2015-2740"
    },
    {
      "Impact": "",
      "Href": "",
      "ID": "CVE-2015-2741"
    },
    {
      "Impact": "",
      "Href": "",
      "ID": "CVE-2015-2743"
    }
  ],
  "Issued": {
    "Date": "2015-07-03"
  }
}