{
  "Title": "RHSA-2015:0809: java-1.8.0-openjdk security update (Important)",
  "Description": "The java-1.8.0-openjdk packages provide the OpenJDK 8 Java Runtime\nEnvironment and the OpenJDK 8 Java Software Development Kit.\nAn off-by-one flaw, leading to a buffer overflow, was found in the font\nparsing code in the 2D component in OpenJDK. A specially crafted font file\ncould possibly cause the Java Virtual Machine to execute arbitrary code,\nallowing an untrusted Java application or applet to bypass Java sandbox\nrestrictions. (CVE-2015-0469)\nA flaw was found in the way the Hotspot component in OpenJDK handled\nphantom references. An untrusted Java application or applet could use this\nflaw to corrupt the Java Virtual Machine memory and, possibly, execute\narbitrary code, bypassing Java sandbox restrictions. (CVE-2015-0460)\nA flaw was found in the way the JSSE component in OpenJDK parsed X.509\ncertificate options. A specially crafted certificate could cause JSSE to\nraise an exception, possibly causing an application using JSSE to exit\nunexpectedly. (CVE-2015-0488)\nMultiple flaws were discovered in the Beans and Hotspot components in\nOpenJDK. An untrusted Java application or applet could use these flaws to\nbypass certain Java sandbox restrictions. (CVE-2015-0477, CVE-2015-0470)\nA directory traversal flaw was found in the way the jar tool extracted JAR\narchive files. A specially crafted JAR archive could cause jar to overwrite\narbitrary files writable by the user running jar when the archive was\nextracted. (CVE-2005-1080, CVE-2015-0480)\nIt was found that the RSA implementation in the JCE component in OpenJDK\ndid not follow recommended practices for implementing RSA signatures.\n(CVE-2015-0478)\nThe CVE-2015-0478 issue was discovered by Florian Weimer of Red Hat\nProduct Security.\nAll users of java-1.8.0-openjdk are advised to upgrade to these updated\npackages, which resolve these issues. All running instances of OpenJDK Java\nmust be restarted for the update to take effect.",
  "Platform": [
    "Red Hat Enterprise Linux 6",
    "Red Hat Enterprise Linux 7"
  ],
  "References": [
    {
      "Source": "RHSA",
      "URI": "https://access.redhat.com/errata/RHSA-2015:0809",
      "ID": "RHSA-2015:0809"
    },
    {
      "Source": "CVE",
      "URI": "https://access.redhat.com/security/cve/CVE-2005-1080",
      "ID": "CVE-2005-1080"
    },
    {
      "Source": "CVE",
      "URI": "https://access.redhat.com/security/cve/CVE-2015-0460",
      "ID": "CVE-2015-0460"
    },
    {
      "Source": "CVE",
      "URI": "https://access.redhat.com/security/cve/CVE-2015-0469",
      "ID": "CVE-2015-0469"
    },
    {
      "Source": "CVE",
      "URI": "https://access.redhat.com/security/cve/CVE-2015-0470",
      "ID": "CVE-2015-0470"
    },
    {
      "Source": "CVE",
      "URI": "https://access.redhat.com/security/cve/CVE-2015-0477",
      "ID": "CVE-2015-0477"
    },
    {
      "Source": "CVE",
      "URI": "https://access.redhat.com/security/cve/CVE-2015-0478",
      "ID": "CVE-2015-0478"
    },
    {
      "Source": "CVE",
      "URI": "https://access.redhat.com/security/cve/CVE-2015-0480",
      "ID": "CVE-2015-0480"
    },
    {
      "Source": "CVE",
      "URI": "https://access.redhat.com/security/cve/CVE-2015-0488",
      "ID": "CVE-2015-0488"
    }
  ],
  "Criteria": {
    "Operator": "OR",
    "Criterias": [
      {
        "Operator": "AND",
        "Criterias": [
          {
            "Operator": "OR",
            "Criterias": [
              {
                "Operator": "AND",
                "Criterias": [

                ],
                "Criterions": [
                  {
                    "Comment": "java-1.8.0-openjdk is earlier than 1:1.8.0.45-28.b13.el6_6"
                  },
                  {
                    "Comment": "java-1.8.0-openjdk is signed with Red Hat redhatrelease2 key"
                  }
                ]
              },
              {
                "Operator": "AND",
                "Criterias": [

                ],
                "Criterions": [
                  {
                    "Comment": "java-1.8.0-openjdk-demo is earlier than 1:1.8.0.45-28.b13.el6_6"
                  },
                  {
                    "Comment": "java-1.8.0-openjdk-demo is signed with Red Hat redhatrelease2 key"
                  }
                ]
              },
              {
                "Operator": "AND",
                "Criterias": [

                ],
                "Criterions": [
                  {
                    "Comment": "java-1.8.0-openjdk-devel is earlier than 1:1.8.0.45-28.b13.el6_6"
                  },
                  {
                    "Comment": "java-1.8.0-openjdk-devel is signed with Red Hat redhatrelease2 key"
                  }
                ]
              },
              {
                "Operator": "AND",
                "Criterias": [

                ],
                "Criterions": [
                  {
                    "Comment": "java-1.8.0-openjdk-headless is earlier than 1:1.8.0.45-28.b13.el6_6"
                  },
                  {
                    "Comment": "java-1.8.0-openjdk-headless is signed with Red Hat redhatrelease2 key"
                  }
                ]
              },
              {
                "Operator": "AND",
                "Criterias": [

                ],
                "Criterions": [
                  {
                    "Comment": "java-1.8.0-openjdk-javadoc is earlier than 1:1.8.0.45-28.b13.el6_6"
                  },
                  {
                    "Comment": "java-1.8.0-openjdk-javadoc is signed with Red Hat redhatrelease2 key"
                  }
                ]
              },
              {
                "Operator": "AND",
                "Criterias": [

                ],
                "Criterions": [
                  {
                    "Comment": "java-1.8.0-openjdk-src is earlier than 1:1.8.0.45-28.b13.el6_6"
                  },
                  {
                    "Comment": "java-1.8.0-openjdk-src is signed with Red Hat redhatrelease2 key"
                  }
                ]
              }
            ],
            "Criterions": [

            ]
          }
        ],
        "Criterions": [
          {
            "Comment": "Oracle Linux 6 is installed"
          }
        ]
      },
      {
        "Operator": "AND",
        "Criterias": [
          {
            "Operator": "OR",
            "Criterias": [
              {
                "Operator": "AND",
                "Criterias": [

                ],
                "Criterions": [
                  {
                    "Comment": "java-1.8.0-openjdk is earlier than 1:1.8.0.45-30.b13.el7_1"
                  },
                  {
                    "Comment": "java-1.8.0-openjdk is signed with Red Hat redhatrelease2 key"
                  }
                ]
              },
              {
                "Operator": "AND",
                "Criterias": [

                ],
                "Criterions": [
                  {
                    "Comment": "java-1.8.0-openjdk-accessibility is earlier than 1:1.8.0.45-30.b13.el7_1"
                  },
                  {
                    "Comment": "java-1.8.0-openjdk-accessibility is signed with Red Hat redhatrelease2 key"
                  }
                ]
              },
              {
                "Operator": "AND",
                "Criterias": [

                ],
                "Criterions": [
                  {
                    "Comment": "java-1.8.0-openjdk-demo is earlier than 1:1.8.0.45-30.b13.el7_1"
                  },
                  {
                    "Comment": "java-1.8.0-openjdk-demo is signed with Red Hat redhatrelease2 key"
                  }
                ]
              },
              {
                "Operator": "AND",
                "Criterias": [

                ],
                "Criterions": [
                  {
                    "Comment": "java-1.8.0-openjdk-devel is earlier than 1:1.8.0.45-30.b13.el7_1"
                  },
                  {
                    "Comment": "java-1.8.0-openjdk-devel is signed with Red Hat redhatrelease2 key"
                  }
                ]
              },
              {
                "Operator": "AND",
                "Criterias": [

                ],
                "Criterions": [
                  {
                    "Comment": "java-1.8.0-openjdk-headless is earlier than 1:1.8.0.45-30.b13.el7_1"
                  },
                  {
                    "Comment": "java-1.8.0-openjdk-headless is signed with Red Hat redhatrelease2 key"
                  }
                ]
              },
              {
                "Operator": "AND",
                "Criterias": [

                ],
                "Criterions": [
                  {
                    "Comment": "java-1.8.0-openjdk-javadoc is earlier than 1:1.8.0.45-30.b13.el7_1"
                  },
                  {
                    "Comment": "java-1.8.0-openjdk-javadoc is signed with Red Hat redhatrelease2 key"
                  }
                ]
              },
              {
                "Operator": "AND",
                "Criterias": [

                ],
                "Criterions": [
                  {
                    "Comment": "java-1.8.0-openjdk-src is earlier than 1:1.8.0.45-30.b13.el7_1"
                  },
                  {
                    "Comment": "java-1.8.0-openjdk-src is signed with Red Hat redhatrelease2 key"
                  }
                ]
              }
            ],
            "Criterions": [

            ]
          }
        ],
        "Criterions": [
          {
            "Comment": "Oracle Linux 7 is installed"
          }
        ]
      }
    ],
    "Criterions": [
      {
        "Comment": "Oracle Linux 6 is installed"
      }
    ]
  },
  "Severity": "Important",
  "Cves": [
    {
      "Impact": "",
      "Href": "",
      "ID": "CVE-2005-1080"
    },
    {
      "Impact": "",
      "Href": "",
      "ID": "CVE-2015-0460"
    },
    {
      "Impact": "",
      "Href": "",
      "ID": "CVE-2015-0469"
    },
    {
      "Impact": "",
      "Href": "",
      "ID": "CVE-2015-0470"
    },
    {
      "Impact": "",
      "Href": "",
      "ID": "CVE-2015-0477"
    },
    {
      "Impact": "",
      "Href": "",
      "ID": "CVE-2015-0478"
    },
    {
      "Impact": "",
      "Href": "",
      "ID": "CVE-2015-0480"
    },
    {
      "Impact": "",
      "Href": "",
      "ID": "CVE-2015-0488"
    }
  ],
  "Issued": {
    "Date": "2015-04-15"
  }
}