{
  "Title": "RHSA-2015:0749: libxml2 security update (Moderate)",
  "Description": "The libxml2 library is a development toolbox providing the implementation\nof various XML standards.\nIt was discovered that libxml2 loaded external parameter entities even when\nentity substitution was disabled. A remote attacker able to provide a\nspecially crafted XML file to an application linked against libxml2 could\nuse this flaw to conduct XML External Entity (XXE) attacks, possibly\nresulting in a denial of service or an information leak on the system.\n(CVE-2014-0191)\nThe CVE-2014-0191 issue was discovered by Daniel P. Berrange of Red Hat.\nAll libxml2 users are advised to upgrade to these updated packages, which\ncontain a backported patch to correct this issue. The desktop must be\nrestarted (log out, then log back in) for this update to take effect.",
  "Platform": [
    "Red Hat Enterprise Linux 7"
  ],
  "References": [
    {
      "Source": "RHSA",
      "URI": "https://access.redhat.com/errata/RHSA-2015:0749",
      "ID": "RHSA-2015:0749"
    },
    {
      "Source": "CVE",
      "URI": "https://access.redhat.com/security/cve/CVE-2014-0191",
      "ID": "CVE-2014-0191"
    }
  ],
  "Criteria": {
    "Operator": "OR",
    "Criterias": [
      {
        "Operator": "AND",
        "Criterias": [
          {
            "Operator": "OR",
            "Criterias": [
              {
                "Operator": "AND",
                "Criterias": [

                ],
                "Criterions": [
                  {
                    "Comment": "libxml2 is earlier than 0:2.9.1-5.el7_1.2"
                  },
                  {
                    "Comment": "libxml2 is signed with Red Hat redhatrelease2 key"
                  }
                ]
              },
              {
                "Operator": "AND",
                "Criterias": [

                ],
                "Criterions": [
                  {
                    "Comment": "libxml2-devel is earlier than 0:2.9.1-5.el7_1.2"
                  },
                  {
                    "Comment": "libxml2-devel is signed with Red Hat redhatrelease2 key"
                  }
                ]
              },
              {
                "Operator": "AND",
                "Criterias": [

                ],
                "Criterions": [
                  {
                    "Comment": "libxml2-python is earlier than 0:2.9.1-5.el7_1.2"
                  },
                  {
                    "Comment": "libxml2-python is signed with Red Hat redhatrelease2 key"
                  }
                ]
              },
              {
                "Operator": "AND",
                "Criterias": [

                ],
                "Criterions": [
                  {
                    "Comment": "libxml2-static is earlier than 0:2.9.1-5.el7_1.2"
                  },
                  {
                    "Comment": "libxml2-static is signed with Red Hat redhatrelease2 key"
                  }
                ]
              }
            ],
            "Criterions": [

            ]
          }
        ],
        "Criterions": [
          {
            "Comment": "Oracle Linux 7 is installed"
          }
        ]
      }
    ],
    "Criterions": [
      {
        "Comment": "Oracle Linux 7 is installed"
      }
    ]
  },
  "Severity": "Moderate",
  "Cves": [
    {
      "Impact": "",
      "Href": "",
      "ID": "CVE-2014-0191"
    }
  ],
  "Issued": {
    "Date": "2015-03-30"
  }
}