{
  "Title": "RHSA-2015:1841: chromium-browser security update (Important)",
  "Description": "Chromium is an open-source web browser, powered by WebKit (Blink).\nTwo flaws were found in the processing of malformed web content. A web page\ncontaining malicious content could cause Chromium to bypass cross origin\nrestrictions, and access or modify data from an unrelated web site.\n(CVE-2015-1303, CVE-2015-1304)\nAll Chromium users should upgrade to these updated packages, which contain\nChromium version 45.0.2454.101, which corrects these issues. After\ninstalling the update, Chromium must be restarted for the changes to take \neffect.",
  "Platform": [
    "Supplementary for Red Hat Enterprise Linux 6"
  ],
  "References": [
    {
      "Source": "RHSA",
      "URI": "https://rhn.redhat.com/errata/RHSA-2015-1841.html",
      "ID": "RHSA-2015:1841-01"
    },
    {
      "Source": "CVE",
      "URI": "https://access.redhat.com/security/cve/CVE-2015-1302",
      "ID": "CVE-2015-1302"
    },
    {
      "Source": "CVE",
      "URI": "https://access.redhat.com/security/cve/CVE-2015-1303",
      "ID": "CVE-2015-1303"
    },
    {
      "Source": "CVE",
      "URI": "https://access.redhat.com/security/cve/CVE-2015-1304",
      "ID": "CVE-2015-1304"
    }
  ],
  "Criteria": {
    "Operator": "AND",
    "Criterias": [
      {
        "Operator": "OR",
        "Criterias": [

        ],
        "Criterions": [
          {
            "Comment": "Oracle Linux 6 Client is installed"
          },
          {
            "Comment": "Oracle Linux 6 Server is installed"
          },
          {
            "Comment": "Oracle Linux 6 Workstation is installed"
          },
          {
            "Comment": "Oracle Linux 6 ComputeNode is installed"
          }
        ]
      }
    ],
    "Criterions": [
      {
        "Comment": "chromium-browser is earlier than 0:45.0.2454.101-1.el6"
      },
      {
        "Comment": "chromium-browser is signed with Red Hat redhatrelease2 key"
      }
    ]
  },
  "Severity": "Important",
  "Cves": [
    {
      "Impact": "",
      "Href": "",
      "ID": "CVE-2015-1302"
    },
    {
      "Impact": "",
      "Href": "",
      "ID": "CVE-2015-1303"
    },
    {
      "Impact": "",
      "Href": "",
      "ID": "CVE-2015-1304"
    }
  ],
  "Issued": {
    "Date": "2015-09-29"
  }
}