{
  "Title": "RHSA-2015:1833: qemu-kvm security update (Moderate)",
  "Description": "KVM (Kernel-based Virtual Machine) is a full virtualization solution for\nLinux on AMD64 and Intel 64 systems. The qemu-kvm package provides the\nuser-space component for running virtual machines using KVM.\nAn information leak flaw was found in the way QEMU's RTL8139 emulation\nimplementation processed network packets under RTL8139 controller's C+ mode\nof operation. An unprivileged guest user could use this flaw to read up to\n65 KB of uninitialized QEMU heap memory. (CVE-2015-5165)\nRed Hat would like to thank the Xen project for reporting this issue.\nUpstream acknowledges Donghai Zhu of Alibaba as the original reporter.\nAll qemu-kvm users are advised to upgrade to these updated packages, which\ncontain a backported patch to correct this issue. After installing this\nupdate, shut down all running virtual machines. Once all virtual machines\nhave shut down, start them again for this update to take effect.",
  "Platform": [
    "Red Hat Enterprise Linux 6"
  ],
  "References": [
    {
      "Source": "RHSA",
      "URI": "https://access.redhat.com/errata/RHSA-2015:1833",
      "ID": "RHSA-2015:1833"
    },
    {
      "Source": "CVE",
      "URI": "https://access.redhat.com/security/cve/CVE-2015-5165",
      "ID": "CVE-2015-5165"
    }
  ],
  "Criteria": {
    "Operator": "OR",
    "Criterias": [
      {
        "Operator": "AND",
        "Criterias": [
          {
            "Operator": "OR",
            "Criterias": [
              {
                "Operator": "AND",
                "Criterias": [

                ],
                "Criterions": [
                  {
                    "Comment": "qemu-guest-agent is earlier than 2:0.12.1.2-2.479.el6_7.1"
                  },
                  {
                    "Comment": "qemu-guest-agent is signed with Red Hat redhatrelease2 key"
                  }
                ]
              },
              {
                "Operator": "AND",
                "Criterias": [

                ],
                "Criterions": [
                  {
                    "Comment": "qemu-img is earlier than 2:0.12.1.2-2.479.el6_7.1"
                  },
                  {
                    "Comment": "qemu-img is signed with Red Hat redhatrelease2 key"
                  }
                ]
              },
              {
                "Operator": "AND",
                "Criterias": [

                ],
                "Criterions": [
                  {
                    "Comment": "qemu-kvm is earlier than 2:0.12.1.2-2.479.el6_7.1"
                  },
                  {
                    "Comment": "qemu-kvm is signed with Red Hat redhatrelease2 key"
                  }
                ]
              },
              {
                "Operator": "AND",
                "Criterias": [

                ],
                "Criterions": [
                  {
                    "Comment": "qemu-kvm-tools is earlier than 2:0.12.1.2-2.479.el6_7.1"
                  },
                  {
                    "Comment": "qemu-kvm-tools is signed with Red Hat redhatrelease2 key"
                  }
                ]
              }
            ],
            "Criterions": [

            ]
          }
        ],
        "Criterions": [
          {
            "Comment": "Oracle Linux 6 is installed"
          }
        ]
      }
    ],
    "Criterions": [
      {
        "Comment": "Oracle Linux 6 is installed"
      }
    ]
  },
  "Severity": "Moderate",
  "Cves": [
    {
      "Impact": "",
      "Href": "",
      "ID": "CVE-2015-5165"
    }
  ],
  "Issued": {
    "Date": "2015-09-22"
  }
}