{
  "Title": "RHSA-2015:0988: firefox security update (Critical)",
  "Description": "Mozilla Firefox is an open source web browser. XULRunner provides the XUL\nRuntime environment for Mozilla Firefox.\nSeveral flaws were found in the processing of malformed web content. A web\npage containing malicious content could cause Firefox to crash or,\npotentially, execute arbitrary code with the privileges of the user running\nFirefox. (CVE-2015-2708, CVE-2015-0797, CVE-2015-2710, CVE-2015-2713)\nA heap-based buffer overflow flaw was found in the way Firefox processed\ncompressed XML data. An attacker could create specially crafted compressed\nXML content that, when processed by Firefox, could cause it to crash or\nexecute arbitrary code with the privileges of the user running Firefox.\n(CVE-2015-2716)\nRed Hat would like to thank the Mozilla project for reporting these issues.\nUpstream acknowledges Jesse Ruderman, Mats Palmgren, Byron Campen, Steve\nFink, Aki Helin, Atte Kettunen, Scott Bell, and Ucha Gobejishvili as the\noriginal reporters of these issues.\nAll Firefox users should upgrade to these updated packages, which contain\nFirefox version 38.0 ESR, which corrects these issues. After installing the\nupdate, Firefox must be restarted for the changes to take effect.",
  "Platform": [
    "Red Hat Enterprise Linux 5",
    "Red Hat Enterprise Linux 6",
    "Red Hat Enterprise Linux 7"
  ],
  "References": [
    {
      "Source": "RHSA",
      "URI": "https://access.redhat.com/errata/RHSA-2015:0988",
      "ID": "RHSA-2015:0988"
    },
    {
      "Source": "CVE",
      "URI": "https://access.redhat.com/security/cve/CVE-2015-0797",
      "ID": "CVE-2015-0797"
    },
    {
      "Source": "CVE",
      "URI": "https://access.redhat.com/security/cve/CVE-2015-2708",
      "ID": "CVE-2015-2708"
    },
    {
      "Source": "CVE",
      "URI": "https://access.redhat.com/security/cve/CVE-2015-2710",
      "ID": "CVE-2015-2710"
    },
    {
      "Source": "CVE",
      "URI": "https://access.redhat.com/security/cve/CVE-2015-2713",
      "ID": "CVE-2015-2713"
    },
    {
      "Source": "CVE",
      "URI": "https://access.redhat.com/security/cve/CVE-2015-2716",
      "ID": "CVE-2015-2716"
    },
    {
      "Source": "CVE",
      "URI": "https://access.redhat.com/security/cve/CVE-2015-4496",
      "ID": "CVE-2015-4496"
    }
  ],
  "Criteria": {
    "Operator": "OR",
    "Criterias": [
      {
        "Operator": "AND",
        "Criterias": [

        ],
        "Criterions": [
          {
            "Comment": "Oracle Linux 5 is installed"
          },
          {
            "Comment": "firefox is earlier than 0:38.0-4.el5_11"
          },
          {
            "Comment": "firefox is signed with Red Hat redhatrelease2 key"
          }
        ]
      },
      {
        "Operator": "AND",
        "Criterias": [

        ],
        "Criterions": [
          {
            "Comment": "Oracle Linux 6 is installed"
          },
          {
            "Comment": "firefox is earlier than 0:38.0-4.el6_6"
          },
          {
            "Comment": "firefox is signed with Red Hat redhatrelease2 key"
          }
        ]
      },
      {
        "Operator": "AND",
        "Criterias": [

        ],
        "Criterions": [
          {
            "Comment": "Oracle Linux 7 is installed"
          },
          {
            "Comment": "firefox is earlier than 0:38.0-3.el7_1"
          },
          {
            "Comment": "firefox is signed with Red Hat redhatrelease2 key"
          }
        ]
      }
    ],
    "Criterions": [
      {
        "Comment": "Oracle Linux 5 is installed"
      }
    ]
  },
  "Severity": "Critical",
  "Cves": [
    {
      "Impact": "",
      "Href": "",
      "ID": "CVE-2015-0797"
    },
    {
      "Impact": "",
      "Href": "",
      "ID": "CVE-2015-2708"
    },
    {
      "Impact": "",
      "Href": "",
      "ID": "CVE-2015-2710"
    },
    {
      "Impact": "",
      "Href": "",
      "ID": "CVE-2015-2713"
    },
    {
      "Impact": "",
      "Href": "",
      "ID": "CVE-2015-2716"
    },
    {
      "Impact": "",
      "Href": "",
      "ID": "CVE-2015-4496"
    }
  ],
  "Issued": {
    "Date": "2015-05-12"
  }
}