{
  "Title": "RHSA-2015:1123: cups security update (Important)",
  "Description": "CUPS provides a portable printing layer for Linux, UNIX, and similar\noperating systems.\nA string reference count bug was found in cupsd, causing premature freeing\nof string objects. An attacker can submit a malicious print job that\nexploits this flaw to dismantle ACLs protecting privileged operations,\nallowing a replacement configuration file to be uploaded which in turn\nallows the attacker to run arbitrary code in the CUPS server (CVE-2015-1158)\nA cross-site scripting flaw was found in the cups web templating engine. An \nattacker could use this flaw to bypass the default configuration settings \nthat bind the CUPS scheduler to the 'localhost' or loopback interface.\n(CVE-2015-1159)\nAn integer overflow leading to a heap-based buffer overflow was found in\nthe way cups handled compressed raster image files. An attacker could\ncreate a specially-crafted image file, which when passed via the cups\nRaster filter, could cause the cups filter to crash. (CVE-2014-9679)\nRed Hat would like to thank the CERT/CC for reporting CVE-2015-1158 and \nCVE-2015-1159 issues.\nAll cups users are advised to upgrade to these updated packages, which\ncontain backported patches to correct these issues. After installing this\nupdate, the cupsd daemon will be restarted automatically.",
  "Platform": [
    "Red Hat Enterprise Linux 6",
    "Red Hat Enterprise Linux 7"
  ],
  "References": [
    {
      "Source": "RHSA",
      "URI": "https://access.redhat.com/errata/RHSA-2015:1123",
      "ID": "RHSA-2015:1123"
    },
    {
      "Source": "CVE",
      "URI": "https://access.redhat.com/security/cve/CVE-2014-9679",
      "ID": "CVE-2014-9679"
    },
    {
      "Source": "CVE",
      "URI": "https://access.redhat.com/security/cve/CVE-2015-1158",
      "ID": "CVE-2015-1158"
    },
    {
      "Source": "CVE",
      "URI": "https://access.redhat.com/security/cve/CVE-2015-1159",
      "ID": "CVE-2015-1159"
    }
  ],
  "Criteria": {
    "Operator": "OR",
    "Criterias": [
      {
        "Operator": "AND",
        "Criterias": [
          {
            "Operator": "OR",
            "Criterias": [
              {
                "Operator": "AND",
                "Criterias": [

                ],
                "Criterions": [
                  {
                    "Comment": "cups is earlier than 1:1.4.2-67.el6_6.1"
                  },
                  {
                    "Comment": "cups is signed with Red Hat redhatrelease2 key"
                  }
                ]
              },
              {
                "Operator": "AND",
                "Criterias": [

                ],
                "Criterions": [
                  {
                    "Comment": "cups-devel is earlier than 1:1.4.2-67.el6_6.1"
                  },
                  {
                    "Comment": "cups-devel is signed with Red Hat redhatrelease2 key"
                  }
                ]
              },
              {
                "Operator": "AND",
                "Criterias": [

                ],
                "Criterions": [
                  {
                    "Comment": "cups-libs is earlier than 1:1.4.2-67.el6_6.1"
                  },
                  {
                    "Comment": "cups-libs is signed with Red Hat redhatrelease2 key"
                  }
                ]
              },
              {
                "Operator": "AND",
                "Criterias": [

                ],
                "Criterions": [
                  {
                    "Comment": "cups-lpd is earlier than 1:1.4.2-67.el6_6.1"
                  },
                  {
                    "Comment": "cups-lpd is signed with Red Hat redhatrelease2 key"
                  }
                ]
              },
              {
                "Operator": "AND",
                "Criterias": [

                ],
                "Criterions": [
                  {
                    "Comment": "cups-php is earlier than 1:1.4.2-67.el6_6.1"
                  },
                  {
                    "Comment": "cups-php is signed with Red Hat redhatrelease2 key"
                  }
                ]
              }
            ],
            "Criterions": [

            ]
          }
        ],
        "Criterions": [
          {
            "Comment": "Oracle Linux 6 is installed"
          }
        ]
      },
      {
        "Operator": "AND",
        "Criterias": [
          {
            "Operator": "OR",
            "Criterias": [
              {
                "Operator": "AND",
                "Criterias": [

                ],
                "Criterions": [
                  {
                    "Comment": "cups is earlier than 1:1.6.3-17.el7_1.1"
                  },
                  {
                    "Comment": "cups is signed with Red Hat redhatrelease2 key"
                  }
                ]
              },
              {
                "Operator": "AND",
                "Criterias": [

                ],
                "Criterions": [
                  {
                    "Comment": "cups-client is earlier than 1:1.6.3-17.el7_1.1"
                  },
                  {
                    "Comment": "cups-client is signed with Red Hat redhatrelease2 key"
                  }
                ]
              },
              {
                "Operator": "AND",
                "Criterias": [

                ],
                "Criterions": [
                  {
                    "Comment": "cups-devel is earlier than 1:1.6.3-17.el7_1.1"
                  },
                  {
                    "Comment": "cups-devel is signed with Red Hat redhatrelease2 key"
                  }
                ]
              },
              {
                "Operator": "AND",
                "Criterias": [

                ],
                "Criterions": [
                  {
                    "Comment": "cups-filesystem is earlier than 1:1.6.3-17.el7_1.1"
                  },
                  {
                    "Comment": "cups-filesystem is signed with Red Hat redhatrelease2 key"
                  }
                ]
              },
              {
                "Operator": "AND",
                "Criterias": [

                ],
                "Criterions": [
                  {
                    "Comment": "cups-ipptool is earlier than 1:1.6.3-17.el7_1.1"
                  },
                  {
                    "Comment": "cups-ipptool is signed with Red Hat redhatrelease2 key"
                  }
                ]
              },
              {
                "Operator": "AND",
                "Criterias": [

                ],
                "Criterions": [
                  {
                    "Comment": "cups-libs is earlier than 1:1.6.3-17.el7_1.1"
                  },
                  {
                    "Comment": "cups-libs is signed with Red Hat redhatrelease2 key"
                  }
                ]
              },
              {
                "Operator": "AND",
                "Criterias": [

                ],
                "Criterions": [
                  {
                    "Comment": "cups-lpd is earlier than 1:1.6.3-17.el7_1.1"
                  },
                  {
                    "Comment": "cups-lpd is signed with Red Hat redhatrelease2 key"
                  }
                ]
              }
            ],
            "Criterions": [

            ]
          }
        ],
        "Criterions": [
          {
            "Comment": "Oracle Linux 7 is installed"
          }
        ]
      }
    ],
    "Criterions": [
      {
        "Comment": "Oracle Linux 6 is installed"
      }
    ]
  },
  "Severity": "Important",
  "Cves": [
    {
      "Impact": "",
      "Href": "",
      "ID": "CVE-2014-9679"
    },
    {
      "Impact": "",
      "Href": "",
      "ID": "CVE-2015-1158"
    },
    {
      "Impact": "",
      "Href": "",
      "ID": "CVE-2015-1159"
    }
  ],
  "Issued": {
    "Date": "2015-06-17"
  }
}