{
  "Title": "RHSA-2015:1980: nss and nspr security update (Critical)",
  "Description": "Network Security Services (NSS) is a set of libraries designed to support\ncross-platform development of security-enabled client and server\napplications. Netscape Portable Runtime (NSPR) provides platform\nindependence for non-GUI operating system facilities.\nA use-after-poison flaw and a heap-based buffer overflow flaw were found in\nthe way NSS parsed certain ASN.1 structures. An attacker could use these\nflaws to cause NSS to crash or execute arbitrary code with the permissions\nof the user running an application compiled against the NSS library.\n(CVE-2015-7181, CVE-2015-7182)\nA heap-based buffer overflow was found in NSPR. An attacker could use this\nflaw to cause NSPR to crash or execute arbitrary code with the permissions\nof the user running an application compiled against the NSPR library.\n(CVE-2015-7183)\nRed Hat would like to thank the Mozilla project for reporting these issues.\nUpstream acknowledges Tyson Smith, David Keeler and Ryan Sleevi as the\noriginal reporter.\nAll nss and nspr users are advised to upgrade to these updated packages,\nwhich contain backported patches to correct these issues.",
  "Platform": [
    "Red Hat Enterprise Linux 5"
  ],
  "References": [
    {
      "Source": "RHSA",
      "URI": "https://access.redhat.com/errata/RHSA-2015:1980",
      "ID": "RHSA-2015:1980"
    },
    {
      "Source": "CVE",
      "URI": "https://access.redhat.com/security/cve/CVE-2015-7181",
      "ID": "CVE-2015-7181"
    },
    {
      "Source": "CVE",
      "URI": "https://access.redhat.com/security/cve/CVE-2015-7182",
      "ID": "CVE-2015-7182"
    },
    {
      "Source": "CVE",
      "URI": "https://access.redhat.com/security/cve/CVE-2015-7183",
      "ID": "CVE-2015-7183"
    }
  ],
  "Criteria": {
    "Operator": "OR",
    "Criterias": [
      {
        "Operator": "AND",
        "Criterias": [
          {
            "Operator": "OR",
            "Criterias": [
              {
                "Operator": "AND",
                "Criterias": [

                ],
                "Criterions": [
                  {
                    "Comment": "nss is earlier than 0:3.19.1-2.el5_11"
                  },
                  {
                    "Comment": "nss is signed with Red Hat redhatrelease2 key"
                  }
                ]
              },
              {
                "Operator": "AND",
                "Criterias": [

                ],
                "Criterions": [
                  {
                    "Comment": "nss-devel is earlier than 0:3.19.1-2.el5_11"
                  },
                  {
                    "Comment": "nss-devel is signed with Red Hat redhatrelease2 key"
                  }
                ]
              },
              {
                "Operator": "AND",
                "Criterias": [

                ],
                "Criterions": [
                  {
                    "Comment": "nss-pkcs11-devel is earlier than 0:3.19.1-2.el5_11"
                  },
                  {
                    "Comment": "nss-pkcs11-devel is signed with Red Hat redhatrelease2 key"
                  }
                ]
              },
              {
                "Operator": "AND",
                "Criterias": [

                ],
                "Criterions": [
                  {
                    "Comment": "nss-tools is earlier than 0:3.19.1-2.el5_11"
                  },
                  {
                    "Comment": "nss-tools is signed with Red Hat redhatrelease2 key"
                  }
                ]
              },
              {
                "Operator": "AND",
                "Criterias": [

                ],
                "Criterions": [
                  {
                    "Comment": "nspr is earlier than 0:4.10.8-2.el5_11"
                  },
                  {
                    "Comment": "nspr is signed with Red Hat redhatrelease2 key"
                  }
                ]
              },
              {
                "Operator": "AND",
                "Criterias": [

                ],
                "Criterions": [
                  {
                    "Comment": "nspr-devel is earlier than 0:4.10.8-2.el5_11"
                  },
                  {
                    "Comment": "nspr-devel is signed with Red Hat redhatrelease2 key"
                  }
                ]
              }
            ],
            "Criterions": [

            ]
          }
        ],
        "Criterions": [
          {
            "Comment": "Oracle Linux 5 is installed"
          }
        ]
      }
    ],
    "Criterions": [
      {
        "Comment": "Oracle Linux 5 is installed"
      }
    ]
  },
  "Severity": "Critical",
  "Cves": [
    {
      "Impact": "",
      "Href": "",
      "ID": "CVE-2015-7181"
    },
    {
      "Impact": "",
      "Href": "",
      "ID": "CVE-2015-7182"
    },
    {
      "Impact": "",
      "Href": "",
      "ID": "CVE-2015-7183"
    }
  ],
  "Issued": {
    "Date": "2015-11-04"
  }
}