{
  "Title": "RHSA-2015:2360: cups-filters security, bug fix, and enhancement update (Moderate)",
  "Description": "The cups-filters packages contain back ends, filters, and other software\nthat was once part of the core Common UNIX Printing System (CUPS)\ndistribution but is now maintained independently.\nA heap-based buffer overflow flaw and an integer overflow flaw leading to a\nheap-based buffer overflow were discovered in the way the texttopdf utility\nof cups-filter processed print jobs with a specially crafted line size.\nAn attacker able to submit print jobs could use these flaws to crash\ntexttopdf or, possibly, execute arbitrary code with the privileges of the\n\"lp\" user. (CVE-2015-3258, CVE-2015-3279)\nThe CVE-2015-3258 issue was discovered by Petr Sklenar of Red Hat.\nNotably, this update also fixes the following bug:\n* Previously, when polling CUPS printers from a CUPS server, when a printer\nname contained an underscore (_), the client displayed the name containing\na hyphen (-) instead. This made the print queue unavailable. With this\nupdate, CUPS allows the underscore character in printer names, and printers\nappear as shown on the CUPS server as expected. (BZ#1167408)\nIn addition, this update adds the following enhancement:\n* Now, the information from local and remote CUPS servers is cached during\neach poll, and the CUPS server load is reduced. (BZ#1191691)\nAll cups-filters users are advised to upgrade to these updated packages,\nwhich contain backported patches to correct these issues and add this\nenhancement.",
  "Platform": [
    "Red Hat Enterprise Linux 7"
  ],
  "References": [
    {
      "Source": "RHSA",
      "URI": "https://access.redhat.com/errata/RHSA-2015:2360",
      "ID": "RHSA-2015:2360"
    },
    {
      "Source": "CVE",
      "URI": "https://access.redhat.com/security/cve/CVE-2015-3258",
      "ID": "CVE-2015-3258"
    },
    {
      "Source": "CVE",
      "URI": "https://access.redhat.com/security/cve/CVE-2015-3279",
      "ID": "CVE-2015-3279"
    }
  ],
  "Criteria": {
    "Operator": "OR",
    "Criterias": [
      {
        "Operator": "AND",
        "Criterias": [
          {
            "Operator": "OR",
            "Criterias": [
              {
                "Operator": "AND",
                "Criterias": [

                ],
                "Criterions": [
                  {
                    "Comment": "cups-filters is earlier than 0:1.0.35-21.el7"
                  },
                  {
                    "Comment": "cups-filters is signed with Red Hat redhatrelease2 key"
                  }
                ]
              },
              {
                "Operator": "AND",
                "Criterias": [

                ],
                "Criterions": [
                  {
                    "Comment": "cups-filters-devel is earlier than 0:1.0.35-21.el7"
                  },
                  {
                    "Comment": "cups-filters-devel is signed with Red Hat redhatrelease2 key"
                  }
                ]
              },
              {
                "Operator": "AND",
                "Criterias": [

                ],
                "Criterions": [
                  {
                    "Comment": "cups-filters-libs is earlier than 0:1.0.35-21.el7"
                  },
                  {
                    "Comment": "cups-filters-libs is signed with Red Hat redhatrelease2 key"
                  }
                ]
              }
            ],
            "Criterions": [

            ]
          }
        ],
        "Criterions": [
          {
            "Comment": "Oracle Linux 7 is installed"
          }
        ]
      }
    ],
    "Criterions": [
      {
        "Comment": "Oracle Linux 7 is installed"
      }
    ]
  },
  "Severity": "Moderate",
  "Cves": [
    {
      "Impact": "",
      "Href": "",
      "ID": "CVE-2015-3258"
    },
    {
      "Impact": "",
      "Href": "",
      "ID": "CVE-2015-3279"
    }
  ],
  "Issued": {
    "Date": "2015-11-19"
  }
}