{
  "Title": "RHSA-2015:1439: wpa_supplicant security and enhancement update (Low)",
  "Description": "The wpa_supplicant package contains an 802.1X Supplicant with support for\nWEP, WPA, WPA2 (IEEE 802.11i / RSN), and various EAP authentication\nmethods. It implements key negotiation with a WPA Authenticator for client\nstations and controls the roaming and IEEE 802.11 authentication and\nassociation of the WLAN driver.\nAn integer underflow flaw, leading to a buffer over-read, was found in the\nway wpa_supplicant handled WMM Action frames. A specially crafted frame\ncould possibly allow an attacker within Wi-Fi radio range to cause\nwpa_supplicant to crash. (CVE-2015-4142)\nThis update includes the following enhancement:\n* Prior to this update, wpa_supplicant did not provide a way to require the\nhost name to be listed in an X.509 certificate's Common Name or Subject\nAlternative Name, and only allowed host name suffix or subject substring\nchecks. This update introduces a new configuration directive,\n'domain_match', which adds a full host name check. (BZ#1186806)\nAll wpa_supplicant users are advised to upgrade to this updated package,\nwhich contains a backported patch to correct this issue and adds this\nenhancement. After installing this update, the wpa_supplicant service will\nbe restarted automatically.",
  "Platform": [
    "Red Hat Enterprise Linux 6"
  ],
  "References": [
    {
      "Source": "RHSA",
      "URI": "https://access.redhat.com/errata/RHSA-2015:1439",
      "ID": "RHSA-2015:1439"
    },
    {
      "Source": "CVE",
      "URI": "https://access.redhat.com/security/cve/CVE-2015-4142",
      "ID": "CVE-2015-4142"
    }
  ],
  "Criteria": {
    "Operator": "OR",
    "Criterias": [
      {
        "Operator": "AND",
        "Criterias": [

        ],
        "Criterions": [
          {
            "Comment": "Oracle Linux 6 is installed"
          },
          {
            "Comment": "wpa_supplicant is earlier than 1:0.7.3-6.el6"
          },
          {
            "Comment": "wpa_supplicant is signed with Red Hat redhatrelease2 key"
          }
        ]
      }
    ],
    "Criterions": [
      {
        "Comment": "Oracle Linux 6 is installed"
      }
    ]
  },
  "Severity": "Low",
  "Cves": [
    {
      "Impact": "",
      "Href": "",
      "ID": "CVE-2015-4142"
    }
  ],
  "Issued": {
    "Date": "2015-07-20"
  }
}