{
  "Title": "RHSA-2015:1814: flash-plugin security update (Critical)",
  "Description": "The flash-plugin package contains a Mozilla Firefox compatible Adobe Flash\nPlayer web browser plug-in.\nThis update fixes multiple vulnerabilities in Adobe Flash Player. These\nvulnerabilities, detailed in the Adobe Security Bulletin APSB15-23 listed\nin the References section, could allow an attacker to create a specially\ncrafted SWF file that would cause flash-plugin to crash, execute arbitrary\ncode, or disclose sensitive information when the victim loaded a page\ncontaining the malicious SWF content. (CVE-2015-5567, CVE-2015-5568,\nCVE-2015-5570, CVE-2015-5571, CVE-2015-5572, CVE-2015-5573, CVE-2015-5574,\nCVE-2015-5575, CVE-2015-5576, CVE-2015-5577, CVE-2015-5578, CVE-2015-5579,\nCVE-2015-5580, CVE-2015-5581, CVE-2015-5582, CVE-2015-5584, CVE-2015-5587,\nCVE-2015-5588, CVE-2015-6676, CVE-2015-6677, CVE-2015-6678, CVE-2015-6679,\nCVE-2015-6682)\nAll users of Adobe Flash Player should install this updated package, which\nupgrades Flash Player to version 11.2.202.521.",
  "Platform": [
    "Supplementary for Red Hat Enterprise Linux 6",
    "Supplementary for Red Hat Enterprise Linux 5"
  ],
  "References": [
    {
      "Source": "RHSA",
      "URI": "https://rhn.redhat.com/errata/RHSA-2015-1814.html",
      "ID": "RHSA-2015:1814-00"
    },
    {
      "Source": "CVE",
      "URI": "https://access.redhat.com/security/cve/CVE-2015-5567",
      "ID": "CVE-2015-5567"
    },
    {
      "Source": "CVE",
      "URI": "https://access.redhat.com/security/cve/CVE-2015-5568",
      "ID": "CVE-2015-5568"
    },
    {
      "Source": "CVE",
      "URI": "https://access.redhat.com/security/cve/CVE-2015-5570",
      "ID": "CVE-2015-5570"
    },
    {
      "Source": "CVE",
      "URI": "https://access.redhat.com/security/cve/CVE-2015-5571",
      "ID": "CVE-2015-5571"
    },
    {
      "Source": "CVE",
      "URI": "https://access.redhat.com/security/cve/CVE-2015-5572",
      "ID": "CVE-2015-5572"
    },
    {
      "Source": "CVE",
      "URI": "https://access.redhat.com/security/cve/CVE-2015-5573",
      "ID": "CVE-2015-5573"
    },
    {
      "Source": "CVE",
      "URI": "https://access.redhat.com/security/cve/CVE-2015-5574",
      "ID": "CVE-2015-5574"
    },
    {
      "Source": "CVE",
      "URI": "https://access.redhat.com/security/cve/CVE-2015-5575",
      "ID": "CVE-2015-5575"
    },
    {
      "Source": "CVE",
      "URI": "https://access.redhat.com/security/cve/CVE-2015-5576",
      "ID": "CVE-2015-5576"
    },
    {
      "Source": "CVE",
      "URI": "https://access.redhat.com/security/cve/CVE-2015-5577",
      "ID": "CVE-2015-5577"
    },
    {
      "Source": "CVE",
      "URI": "https://access.redhat.com/security/cve/CVE-2015-5578",
      "ID": "CVE-2015-5578"
    },
    {
      "Source": "CVE",
      "URI": "https://access.redhat.com/security/cve/CVE-2015-5579",
      "ID": "CVE-2015-5579"
    },
    {
      "Source": "CVE",
      "URI": "https://access.redhat.com/security/cve/CVE-2015-5580",
      "ID": "CVE-2015-5580"
    },
    {
      "Source": "CVE",
      "URI": "https://access.redhat.com/security/cve/CVE-2015-5581",
      "ID": "CVE-2015-5581"
    },
    {
      "Source": "CVE",
      "URI": "https://access.redhat.com/security/cve/CVE-2015-5582",
      "ID": "CVE-2015-5582"
    },
    {
      "Source": "CVE",
      "URI": "https://access.redhat.com/security/cve/CVE-2015-5584",
      "ID": "CVE-2015-5584"
    },
    {
      "Source": "CVE",
      "URI": "https://access.redhat.com/security/cve/CVE-2015-5587",
      "ID": "CVE-2015-5587"
    },
    {
      "Source": "CVE",
      "URI": "https://access.redhat.com/security/cve/CVE-2015-5588",
      "ID": "CVE-2015-5588"
    },
    {
      "Source": "CVE",
      "URI": "https://access.redhat.com/security/cve/CVE-2015-6676",
      "ID": "CVE-2015-6676"
    },
    {
      "Source": "CVE",
      "URI": "https://access.redhat.com/security/cve/CVE-2015-6677",
      "ID": "CVE-2015-6677"
    },
    {
      "Source": "CVE",
      "URI": "https://access.redhat.com/security/cve/CVE-2015-6678",
      "ID": "CVE-2015-6678"
    },
    {
      "Source": "CVE",
      "URI": "https://access.redhat.com/security/cve/CVE-2015-6679",
      "ID": "CVE-2015-6679"
    },
    {
      "Source": "CVE",
      "URI": "https://access.redhat.com/security/cve/CVE-2015-6682",
      "ID": "CVE-2015-6682"
    }
  ],
  "Criteria": {
    "Operator": "OR",
    "Criterias": [
      {
        "Operator": "AND",
        "Criterias": [

        ],
        "Criterions": [
          {
            "Comment": "Oracle Linux 5 is installed"
          },
          {
            "Comment": "flash-plugin is earlier than 0:11.2.202.521-1.el5"
          },
          {
            "Comment": "flash-plugin is signed with Red Hat redhatrelease key"
          }
        ]
      },
      {
        "Operator": "AND",
        "Criterias": [
          {
            "Operator": "OR",
            "Criterias": [

            ],
            "Criterions": [
              {
                "Comment": "Oracle Linux 6 Client is installed"
              },
              {
                "Comment": "Oracle Linux 6 Server is installed"
              },
              {
                "Comment": "Oracle Linux 6 Workstation is installed"
              },
              {
                "Comment": "Oracle Linux 6 ComputeNode is installed"
              }
            ]
          }
        ],
        "Criterions": [
          {
            "Comment": "flash-plugin is earlier than 0:11.2.202.521-1.el6_7"
          },
          {
            "Comment": "flash-plugin is signed with Red Hat redhatrelease2 key"
          }
        ]
      }
    ],
    "Criterions": [

    ]
  },
  "Severity": "Critical",
  "Cves": [
    {
      "Impact": "",
      "Href": "",
      "ID": "CVE-2015-5567"
    },
    {
      "Impact": "",
      "Href": "",
      "ID": "CVE-2015-5568"
    },
    {
      "Impact": "",
      "Href": "",
      "ID": "CVE-2015-5570"
    },
    {
      "Impact": "",
      "Href": "",
      "ID": "CVE-2015-5571"
    },
    {
      "Impact": "",
      "Href": "",
      "ID": "CVE-2015-5572"
    },
    {
      "Impact": "",
      "Href": "",
      "ID": "CVE-2015-5573"
    },
    {
      "Impact": "",
      "Href": "",
      "ID": "CVE-2015-5574"
    },
    {
      "Impact": "",
      "Href": "",
      "ID": "CVE-2015-5575"
    },
    {
      "Impact": "",
      "Href": "",
      "ID": "CVE-2015-5576"
    },
    {
      "Impact": "",
      "Href": "",
      "ID": "CVE-2015-5577"
    },
    {
      "Impact": "",
      "Href": "",
      "ID": "CVE-2015-5578"
    },
    {
      "Impact": "",
      "Href": "",
      "ID": "CVE-2015-5579"
    },
    {
      "Impact": "",
      "Href": "",
      "ID": "CVE-2015-5580"
    },
    {
      "Impact": "",
      "Href": "",
      "ID": "CVE-2015-5581"
    },
    {
      "Impact": "",
      "Href": "",
      "ID": "CVE-2015-5582"
    },
    {
      "Impact": "",
      "Href": "",
      "ID": "CVE-2015-5584"
    },
    {
      "Impact": "",
      "Href": "",
      "ID": "CVE-2015-5587"
    },
    {
      "Impact": "",
      "Href": "",
      "ID": "CVE-2015-5588"
    },
    {
      "Impact": "",
      "Href": "",
      "ID": "CVE-2015-6676"
    },
    {
      "Impact": "",
      "Href": "",
      "ID": "CVE-2015-6677"
    },
    {
      "Impact": "",
      "Href": "",
      "ID": "CVE-2015-6678"
    },
    {
      "Impact": "",
      "Href": "",
      "ID": "CVE-2015-6679"
    },
    {
      "Impact": "",
      "Href": "",
      "ID": "CVE-2015-6682"
    }
  ],
  "Issued": {
    "Date": "2015-09-22"
  }
}