{
  "Title": "RHSA-2015:1005: flash-plugin security update (Critical)",
  "Description": "The flash-plugin package contains a Mozilla Firefox compatible Adobe Flash\nPlayer web browser plug-in.\nThis update fixes multiple vulnerabilities in Adobe Flash Player. These\nvulnerabilities are detailed in the Adobe Security Bulletin APSB15-09\nlisted in the References section.\nMultiple flaws were found in the way flash-plugin displayed certain SWF\ncontent. An attacker could use these flaws to create a specially crafted\nSWF file that would cause flash-plugin to crash or, potentially, execute\narbitrary code when the victim loaded a page containing the malicious SWF\ncontent. (CVE-2015-3077, CVE-2015-3078, CVE-2015-3080, CVE-2015-3082,\nCVE-2015-3083, CVE-2015-3084, CVE-2015-3085, CVE-2015-3086, CVE-2015-3087,\nCVE-2015-3088, CVE-2015-3089, CVE-2015-3090, CVE-2015-3093)\nA security bypass flaw was found in flash-plugin that could lead to the\ndisclosure of sensitive information. (CVE-2015-3079)\nTwo memory information leak flaws were found in flash-plugin that could\nallow an attacker to potentially bypass ASLR (Address Space Layout\nRandomization) protection, and make it easier to exploit other flaws.\n(CVE-2015-3091, CVE-2015-3092)\nAll users of Adobe Flash Player should install this updated package, which\nupgrades Flash Player to version 11.2.202.460.",
  "Platform": [
    "Supplementary for Red Hat Enterprise Linux 6",
    "Supplementary for Red Hat Enterprise Linux 5"
  ],
  "References": [
    {
      "Source": "RHSA",
      "URI": "https://rhn.redhat.com/errata/RHSA-2015-1005.html",
      "ID": "RHSA-2015:1005-00"
    },
    {
      "Source": "CVE",
      "URI": "https://access.redhat.com/security/cve/CVE-2015-3077",
      "ID": "CVE-2015-3077"
    },
    {
      "Source": "CVE",
      "URI": "https://access.redhat.com/security/cve/CVE-2015-3078",
      "ID": "CVE-2015-3078"
    },
    {
      "Source": "CVE",
      "URI": "https://access.redhat.com/security/cve/CVE-2015-3079",
      "ID": "CVE-2015-3079"
    },
    {
      "Source": "CVE",
      "URI": "https://access.redhat.com/security/cve/CVE-2015-3080",
      "ID": "CVE-2015-3080"
    },
    {
      "Source": "CVE",
      "URI": "https://access.redhat.com/security/cve/CVE-2015-3082",
      "ID": "CVE-2015-3082"
    },
    {
      "Source": "CVE",
      "URI": "https://access.redhat.com/security/cve/CVE-2015-3083",
      "ID": "CVE-2015-3083"
    },
    {
      "Source": "CVE",
      "URI": "https://access.redhat.com/security/cve/CVE-2015-3084",
      "ID": "CVE-2015-3084"
    },
    {
      "Source": "CVE",
      "URI": "https://access.redhat.com/security/cve/CVE-2015-3085",
      "ID": "CVE-2015-3085"
    },
    {
      "Source": "CVE",
      "URI": "https://access.redhat.com/security/cve/CVE-2015-3086",
      "ID": "CVE-2015-3086"
    },
    {
      "Source": "CVE",
      "URI": "https://access.redhat.com/security/cve/CVE-2015-3087",
      "ID": "CVE-2015-3087"
    },
    {
      "Source": "CVE",
      "URI": "https://access.redhat.com/security/cve/CVE-2015-3088",
      "ID": "CVE-2015-3088"
    },
    {
      "Source": "CVE",
      "URI": "https://access.redhat.com/security/cve/CVE-2015-3089",
      "ID": "CVE-2015-3089"
    },
    {
      "Source": "CVE",
      "URI": "https://access.redhat.com/security/cve/CVE-2015-3090",
      "ID": "CVE-2015-3090"
    },
    {
      "Source": "CVE",
      "URI": "https://access.redhat.com/security/cve/CVE-2015-3091",
      "ID": "CVE-2015-3091"
    },
    {
      "Source": "CVE",
      "URI": "https://access.redhat.com/security/cve/CVE-2015-3092",
      "ID": "CVE-2015-3092"
    },
    {
      "Source": "CVE",
      "URI": "https://access.redhat.com/security/cve/CVE-2015-3093",
      "ID": "CVE-2015-3093"
    }
  ],
  "Criteria": {
    "Operator": "OR",
    "Criterias": [
      {
        "Operator": "AND",
        "Criterias": [

        ],
        "Criterions": [
          {
            "Comment": "Oracle Linux 5 is installed"
          },
          {
            "Comment": "flash-plugin is earlier than 0:11.2.202.460-1.el5"
          },
          {
            "Comment": "flash-plugin is signed with Red Hat redhatrelease key"
          }
        ]
      },
      {
        "Operator": "AND",
        "Criterias": [
          {
            "Operator": "OR",
            "Criterias": [

            ],
            "Criterions": [
              {
                "Comment": "Oracle Linux 6 Client is installed"
              },
              {
                "Comment": "Oracle Linux 6 Server is installed"
              },
              {
                "Comment": "Oracle Linux 6 Workstation is installed"
              },
              {
                "Comment": "Oracle Linux 6 ComputeNode is installed"
              }
            ]
          }
        ],
        "Criterions": [
          {
            "Comment": "flash-plugin is earlier than 0:11.2.202.460-1.el6_6"
          },
          {
            "Comment": "flash-plugin is signed with Red Hat redhatrelease2 key"
          }
        ]
      }
    ],
    "Criterions": [

    ]
  },
  "Severity": "Critical",
  "Cves": [
    {
      "Impact": "",
      "Href": "",
      "ID": "CVE-2015-3077"
    },
    {
      "Impact": "",
      "Href": "",
      "ID": "CVE-2015-3078"
    },
    {
      "Impact": "",
      "Href": "",
      "ID": "CVE-2015-3079"
    },
    {
      "Impact": "",
      "Href": "",
      "ID": "CVE-2015-3080"
    },
    {
      "Impact": "",
      "Href": "",
      "ID": "CVE-2015-3082"
    },
    {
      "Impact": "",
      "Href": "",
      "ID": "CVE-2015-3083"
    },
    {
      "Impact": "",
      "Href": "",
      "ID": "CVE-2015-3084"
    },
    {
      "Impact": "",
      "Href": "",
      "ID": "CVE-2015-3085"
    },
    {
      "Impact": "",
      "Href": "",
      "ID": "CVE-2015-3086"
    },
    {
      "Impact": "",
      "Href": "",
      "ID": "CVE-2015-3087"
    },
    {
      "Impact": "",
      "Href": "",
      "ID": "CVE-2015-3088"
    },
    {
      "Impact": "",
      "Href": "",
      "ID": "CVE-2015-3089"
    },
    {
      "Impact": "",
      "Href": "",
      "ID": "CVE-2015-3090"
    },
    {
      "Impact": "",
      "Href": "",
      "ID": "CVE-2015-3091"
    },
    {
      "Impact": "",
      "Href": "",
      "ID": "CVE-2015-3092"
    },
    {
      "Impact": "",
      "Href": "",
      "ID": "CVE-2015-3093"
    }
  ],
  "Issued": {
    "Date": "2015-05-13"
  }
}