{
  "Title": "RHSA-2015:2617: openssl security update (Moderate)",
  "Description": "OpenSSL is a toolkit that implements the Secure Sockets Layer (SSL v2/v3)\nand Transport Layer Security (TLS v1) protocols, as well as a\nfull-strength, general purpose cryptography library.\nA NULL pointer derefernce flaw was found in the way OpenSSL verified\nsignatures using the RSA PSS algorithm. A remote attacked could possibly\nuse this flaw to crash a TLS/SSL client using OpenSSL, or a TLS/SSL server\nusing OpenSSL if it enabled client authentication. (CVE-2015-3194)\nA memory leak vulnerability was found in the way OpenSSL parsed PKCS#7 and\nCMS data. A remote attacker could use this flaw to cause an application\nthat parses PKCS#7 or CMS data from untrusted sources to use an excessive\namount of memory and possibly crash. (CVE-2015-3195)\nA race condition flaw, leading to a double free, was found in the way\nOpenSSL handled pre-shared key (PSK) identify hints. A remote attacker\ncould use this flaw to crash a multi-threaded SSL/TLS client using\nOpenSSL. (CVE-2015-3196)\nAll openssl users are advised to upgrade to these updated packages, which\ncontain backported patches to correct these issues. For the update to take\neffect, all services linked to the OpenSSL library must be restarted, or\nthe system rebooted.",
  "Platform": [
    "Red Hat Enterprise Linux 6",
    "Red Hat Enterprise Linux 7"
  ],
  "References": [
    {
      "Source": "RHSA",
      "URI": "https://access.redhat.com/errata/RHSA-2015:2617",
      "ID": "RHSA-2015:2617"
    },
    {
      "Source": "CVE",
      "URI": "https://access.redhat.com/security/cve/CVE-2015-3194",
      "ID": "CVE-2015-3194"
    },
    {
      "Source": "CVE",
      "URI": "https://access.redhat.com/security/cve/CVE-2015-3195",
      "ID": "CVE-2015-3195"
    },
    {
      "Source": "CVE",
      "URI": "https://access.redhat.com/security/cve/CVE-2015-3196",
      "ID": "CVE-2015-3196"
    }
  ],
  "Criteria": {
    "Operator": "OR",
    "Criterias": [
      {
        "Operator": "AND",
        "Criterias": [
          {
            "Operator": "OR",
            "Criterias": [
              {
                "Operator": "AND",
                "Criterias": [

                ],
                "Criterions": [
                  {
                    "Comment": "openssl is earlier than 0:1.0.1e-42.el6_7.1"
                  },
                  {
                    "Comment": "openssl is signed with Red Hat redhatrelease2 key"
                  }
                ]
              },
              {
                "Operator": "AND",
                "Criterias": [

                ],
                "Criterions": [
                  {
                    "Comment": "openssl-devel is earlier than 0:1.0.1e-42.el6_7.1"
                  },
                  {
                    "Comment": "openssl-devel is signed with Red Hat redhatrelease2 key"
                  }
                ]
              },
              {
                "Operator": "AND",
                "Criterias": [

                ],
                "Criterions": [
                  {
                    "Comment": "openssl-perl is earlier than 0:1.0.1e-42.el6_7.1"
                  },
                  {
                    "Comment": "openssl-perl is signed with Red Hat redhatrelease2 key"
                  }
                ]
              },
              {
                "Operator": "AND",
                "Criterias": [

                ],
                "Criterions": [
                  {
                    "Comment": "openssl-static is earlier than 0:1.0.1e-42.el6_7.1"
                  },
                  {
                    "Comment": "openssl-static is signed with Red Hat redhatrelease2 key"
                  }
                ]
              }
            ],
            "Criterions": [

            ]
          }
        ],
        "Criterions": [
          {
            "Comment": "Oracle Linux 6 is installed"
          }
        ]
      },
      {
        "Operator": "AND",
        "Criterias": [
          {
            "Operator": "OR",
            "Criterias": [
              {
                "Operator": "AND",
                "Criterias": [

                ],
                "Criterions": [
                  {
                    "Comment": "openssl is earlier than 1:1.0.1e-51.el7_2.1"
                  },
                  {
                    "Comment": "openssl is signed with Red Hat redhatrelease2 key"
                  }
                ]
              },
              {
                "Operator": "AND",
                "Criterias": [

                ],
                "Criterions": [
                  {
                    "Comment": "openssl-devel is earlier than 1:1.0.1e-51.el7_2.1"
                  },
                  {
                    "Comment": "openssl-devel is signed with Red Hat redhatrelease2 key"
                  }
                ]
              },
              {
                "Operator": "AND",
                "Criterias": [

                ],
                "Criterions": [
                  {
                    "Comment": "openssl-libs is earlier than 1:1.0.1e-51.el7_2.1"
                  },
                  {
                    "Comment": "openssl-libs is signed with Red Hat redhatrelease2 key"
                  }
                ]
              },
              {
                "Operator": "AND",
                "Criterias": [

                ],
                "Criterions": [
                  {
                    "Comment": "openssl-perl is earlier than 1:1.0.1e-51.el7_2.1"
                  },
                  {
                    "Comment": "openssl-perl is signed with Red Hat redhatrelease2 key"
                  }
                ]
              },
              {
                "Operator": "AND",
                "Criterias": [

                ],
                "Criterions": [
                  {
                    "Comment": "openssl-static is earlier than 1:1.0.1e-51.el7_2.1"
                  },
                  {
                    "Comment": "openssl-static is signed with Red Hat redhatrelease2 key"
                  }
                ]
              }
            ],
            "Criterions": [

            ]
          }
        ],
        "Criterions": [
          {
            "Comment": "Oracle Linux 7 is installed"
          }
        ]
      }
    ],
    "Criterions": [
      {
        "Comment": "Oracle Linux 6 is installed"
      }
    ]
  },
  "Severity": "Moderate",
  "Cves": [
    {
      "Impact": "",
      "Href": "",
      "ID": "CVE-2015-3194"
    },
    {
      "Impact": "",
      "Href": "",
      "ID": "CVE-2015-3195"
    },
    {
      "Impact": "",
      "Href": "",
      "ID": "CVE-2015-3196"
    }
  ],
  "Issued": {
    "Date": "2015-12-14"
  }
}