{
  "Title": "RHSA-2015:1982: firefox security update (Critical)",
  "Description": "Mozilla Firefox is an open source web browser. XULRunner provides the XUL\nRuntime environment for Mozilla Firefox.\nSeveral flaws were found in the processing of malformed web content. A web\npage containing malicious content could cause Firefox to crash or,\npotentially, execute arbitrary code with the privileges of the user running\nFirefox. (CVE-2015-4513, CVE-2015-7189, CVE-2015-7194, CVE-2015-7196,\nCVE-2015-7198, CVE-2015-7197)\nA same-origin policy bypass flaw was found in the way Firefox handled\ncertain cross-origin resource sharing (CORS) requests. A web page\ncontaining malicious content could cause Firefox to disclose sensitive\ninformation. (CVE-2015-7193)\nA same-origin policy bypass flaw was found in the way Firefox handled URLs\ncontaining IP addresses with white-space characters. This could lead to\ncross-site scripting attacks. (CVE-2015-7188)\nRed Hat would like to thank the Mozilla project for reporting these issues.\nUpstream acknowledges Christian Holler, David Major, Jesse Ruderman, Tyson\nSmith, Boris Zbarsky, Randell Jesup, Olli Pettay, Karl Tomlinson, Jeff\nWalden, and Gary Kwong, Michał Bentkowski, Looben Yang, Shinto K Anto,\nGustavo Grieco, Vytautas Staraitis, Ronald Crane, and Ehsan Akhgari as the\noriginal reporters of these issues.\nAll Firefox users should upgrade to these updated packages, which contain\nFirefox version 38.4.0 ESR, which corrects these issues. After installing\nthe update, Firefox must be restarted for the changes to take effect.",
  "Platform": [
    "Red Hat Enterprise Linux 5",
    "Red Hat Enterprise Linux 6",
    "Red Hat Enterprise Linux 7"
  ],
  "References": [
    {
      "Source": "RHSA",
      "URI": "https://access.redhat.com/errata/RHSA-2015:1982",
      "ID": "RHSA-2015:1982"
    },
    {
      "Source": "CVE",
      "URI": "https://access.redhat.com/security/cve/CVE-2015-4513",
      "ID": "CVE-2015-4513"
    },
    {
      "Source": "CVE",
      "URI": "https://access.redhat.com/security/cve/CVE-2015-7188",
      "ID": "CVE-2015-7188"
    },
    {
      "Source": "CVE",
      "URI": "https://access.redhat.com/security/cve/CVE-2015-7189",
      "ID": "CVE-2015-7189"
    },
    {
      "Source": "CVE",
      "URI": "https://access.redhat.com/security/cve/CVE-2015-7193",
      "ID": "CVE-2015-7193"
    },
    {
      "Source": "CVE",
      "URI": "https://access.redhat.com/security/cve/CVE-2015-7194",
      "ID": "CVE-2015-7194"
    },
    {
      "Source": "CVE",
      "URI": "https://access.redhat.com/security/cve/CVE-2015-7196",
      "ID": "CVE-2015-7196"
    },
    {
      "Source": "CVE",
      "URI": "https://access.redhat.com/security/cve/CVE-2015-7197",
      "ID": "CVE-2015-7197"
    },
    {
      "Source": "CVE",
      "URI": "https://access.redhat.com/security/cve/CVE-2015-7198",
      "ID": "CVE-2015-7198"
    },
    {
      "Source": "CVE",
      "URI": "https://access.redhat.com/security/cve/CVE-2015-7199",
      "ID": "CVE-2015-7199"
    },
    {
      "Source": "CVE",
      "URI": "https://access.redhat.com/security/cve/CVE-2015-7200",
      "ID": "CVE-2015-7200"
    }
  ],
  "Criteria": {
    "Operator": "OR",
    "Criterias": [
      {
        "Operator": "AND",
        "Criterias": [

        ],
        "Criterions": [
          {
            "Comment": "Oracle Linux 5 is installed"
          },
          {
            "Comment": "firefox is earlier than 0:38.4.0-1.el5_11"
          },
          {
            "Comment": "firefox is signed with Red Hat redhatrelease2 key"
          }
        ]
      },
      {
        "Operator": "AND",
        "Criterias": [

        ],
        "Criterions": [
          {
            "Comment": "Oracle Linux 6 is installed"
          },
          {
            "Comment": "firefox is earlier than 0:38.4.0-1.el6_7"
          },
          {
            "Comment": "firefox is signed with Red Hat redhatrelease2 key"
          }
        ]
      },
      {
        "Operator": "AND",
        "Criterias": [

        ],
        "Criterions": [
          {
            "Comment": "Oracle Linux 7 is installed"
          },
          {
            "Comment": "firefox is earlier than 0:38.4.0-1.el7_1"
          },
          {
            "Comment": "firefox is signed with Red Hat redhatrelease2 key"
          }
        ]
      }
    ],
    "Criterions": [
      {
        "Comment": "Oracle Linux 5 is installed"
      }
    ]
  },
  "Severity": "Critical",
  "Cves": [
    {
      "Impact": "",
      "Href": "",
      "ID": "CVE-2015-4513"
    },
    {
      "Impact": "",
      "Href": "",
      "ID": "CVE-2015-7188"
    },
    {
      "Impact": "",
      "Href": "",
      "ID": "CVE-2015-7189"
    },
    {
      "Impact": "",
      "Href": "",
      "ID": "CVE-2015-7193"
    },
    {
      "Impact": "",
      "Href": "",
      "ID": "CVE-2015-7194"
    },
    {
      "Impact": "",
      "Href": "",
      "ID": "CVE-2015-7196"
    },
    {
      "Impact": "",
      "Href": "",
      "ID": "CVE-2015-7197"
    },
    {
      "Impact": "",
      "Href": "",
      "ID": "CVE-2015-7198"
    },
    {
      "Impact": "",
      "Href": "",
      "ID": "CVE-2015-7199"
    },
    {
      "Impact": "",
      "Href": "",
      "ID": "CVE-2015-7200"
    }
  ],
  "Issued": {
    "Date": "2015-11-04"
  }
}