{
  "Title": "RHSA-2015:2697: flash-plugin security update (Critical)",
  "Description": "The flash-plugin package contains a Mozilla Firefox compatible Adobe \nFlash Player web browser plug-in.\nThis update fixes multiple vulnerabilities in Adobe Flash Player. These\nvulnerabilities, detailed in the Adobe Security Bulletin APSB16-01\nlisted in the References section, could allow an attacker to create a \nspecially crafted SWF file that would cause flash-plugin to crash, \nexecute arbitrary code, or disclose sensitive information when the \nvictim loaded a page containing the malicious SWF content. \n(CVE-2015-8459, CVE-2015-8460, CVE-2015-8634, CVE-2015-8635, \nCVE-2015-8636, CVE-2015-8638, CVE-2015-8639, CVE-2015-8640, \nCVE-2015-8641, CVE-2015-8642, CVE-2015-8643, CVE-2015-8644, \nCVE-2015-8645, CVE-2015-8646, CVE-2015-8647, CVE-2015-8648, \nCVE-2015-8649, CVE-2015-8650, CVE-2015-8651)\nAll users of Adobe Flash Player should install this updated package, \nwhich upgrades Flash Player to version 11.2.202.559.",
  "Platform": [
    "Supplementary for Red Hat Enterprise Linux 5",
    "Supplementary for Red Hat Enterprise Linux 6"
  ],
  "References": [
    {
      "Source": "RHSA",
      "URI": "https://rhn.redhat.com/errata/RHSA-2015-2697.html",
      "ID": "RHSA-2015:2697-00"
    },
    {
      "Source": "CVE",
      "URI": "https://access.redhat.com/security/cve/CVE-2015-8459",
      "ID": "CVE-2015-8459"
    },
    {
      "Source": "CVE",
      "URI": "https://access.redhat.com/security/cve/CVE-2015-8460",
      "ID": "CVE-2015-8460"
    },
    {
      "Source": "CVE",
      "URI": "https://access.redhat.com/security/cve/CVE-2015-8634",
      "ID": "CVE-2015-8634"
    },
    {
      "Source": "CVE",
      "URI": "https://access.redhat.com/security/cve/CVE-2015-8635",
      "ID": "CVE-2015-8635"
    },
    {
      "Source": "CVE",
      "URI": "https://access.redhat.com/security/cve/CVE-2015-8636",
      "ID": "CVE-2015-8636"
    },
    {
      "Source": "CVE",
      "URI": "https://access.redhat.com/security/cve/CVE-2015-8638",
      "ID": "CVE-2015-8638"
    },
    {
      "Source": "CVE",
      "URI": "https://access.redhat.com/security/cve/CVE-2015-8639",
      "ID": "CVE-2015-8639"
    },
    {
      "Source": "CVE",
      "URI": "https://access.redhat.com/security/cve/CVE-2015-8640",
      "ID": "CVE-2015-8640"
    },
    {
      "Source": "CVE",
      "URI": "https://access.redhat.com/security/cve/CVE-2015-8641",
      "ID": "CVE-2015-8641"
    },
    {
      "Source": "CVE",
      "URI": "https://access.redhat.com/security/cve/CVE-2015-8642",
      "ID": "CVE-2015-8642"
    },
    {
      "Source": "CVE",
      "URI": "https://access.redhat.com/security/cve/CVE-2015-8643",
      "ID": "CVE-2015-8643"
    },
    {
      "Source": "CVE",
      "URI": "https://access.redhat.com/security/cve/CVE-2015-8644",
      "ID": "CVE-2015-8644"
    },
    {
      "Source": "CVE",
      "URI": "https://access.redhat.com/security/cve/CVE-2015-8645",
      "ID": "CVE-2015-8645"
    },
    {
      "Source": "CVE",
      "URI": "https://access.redhat.com/security/cve/CVE-2015-8646",
      "ID": "CVE-2015-8646"
    },
    {
      "Source": "CVE",
      "URI": "https://access.redhat.com/security/cve/CVE-2015-8647",
      "ID": "CVE-2015-8647"
    },
    {
      "Source": "CVE",
      "URI": "https://access.redhat.com/security/cve/CVE-2015-8648",
      "ID": "CVE-2015-8648"
    },
    {
      "Source": "CVE",
      "URI": "https://access.redhat.com/security/cve/CVE-2015-8649",
      "ID": "CVE-2015-8649"
    },
    {
      "Source": "CVE",
      "URI": "https://access.redhat.com/security/cve/CVE-2015-8650",
      "ID": "CVE-2015-8650"
    },
    {
      "Source": "CVE",
      "URI": "https://access.redhat.com/security/cve/CVE-2015-8651",
      "ID": "CVE-2015-8651"
    }
  ],
  "Criteria": {
    "Operator": "OR",
    "Criterias": [
      {
        "Operator": "AND",
        "Criterias": [

        ],
        "Criterions": [
          {
            "Comment": "Oracle Linux 5 is installed"
          },
          {
            "Comment": "flash-plugin is earlier than 0:11.2.202.559-1.el5"
          },
          {
            "Comment": "flash-plugin is signed with Red Hat redhatrelease key"
          }
        ]
      },
      {
        "Operator": "AND",
        "Criterias": [
          {
            "Operator": "OR",
            "Criterias": [

            ],
            "Criterions": [
              {
                "Comment": "Oracle Linux 6 Client is installed"
              },
              {
                "Comment": "Oracle Linux 6 Server is installed"
              },
              {
                "Comment": "Oracle Linux 6 Workstation is installed"
              },
              {
                "Comment": "Oracle Linux 6 ComputeNode is installed"
              }
            ]
          }
        ],
        "Criterions": [
          {
            "Comment": "flash-plugin is earlier than 0:11.2.202.559-1.el6_7"
          },
          {
            "Comment": "flash-plugin is signed with Red Hat redhatrelease2 key"
          }
        ]
      }
    ],
    "Criterions": [

    ]
  },
  "Severity": "Critical",
  "Cves": [
    {
      "Impact": "",
      "Href": "",
      "ID": "CVE-2015-8459"
    },
    {
      "Impact": "",
      "Href": "",
      "ID": "CVE-2015-8460"
    },
    {
      "Impact": "",
      "Href": "",
      "ID": "CVE-2015-8634"
    },
    {
      "Impact": "",
      "Href": "",
      "ID": "CVE-2015-8635"
    },
    {
      "Impact": "",
      "Href": "",
      "ID": "CVE-2015-8636"
    },
    {
      "Impact": "",
      "Href": "",
      "ID": "CVE-2015-8638"
    },
    {
      "Impact": "",
      "Href": "",
      "ID": "CVE-2015-8639"
    },
    {
      "Impact": "",
      "Href": "",
      "ID": "CVE-2015-8640"
    },
    {
      "Impact": "",
      "Href": "",
      "ID": "CVE-2015-8641"
    },
    {
      "Impact": "",
      "Href": "",
      "ID": "CVE-2015-8642"
    },
    {
      "Impact": "",
      "Href": "",
      "ID": "CVE-2015-8643"
    },
    {
      "Impact": "",
      "Href": "",
      "ID": "CVE-2015-8644"
    },
    {
      "Impact": "",
      "Href": "",
      "ID": "CVE-2015-8645"
    },
    {
      "Impact": "",
      "Href": "",
      "ID": "CVE-2015-8646"
    },
    {
      "Impact": "",
      "Href": "",
      "ID": "CVE-2015-8647"
    },
    {
      "Impact": "",
      "Href": "",
      "ID": "CVE-2015-8648"
    },
    {
      "Impact": "",
      "Href": "",
      "ID": "CVE-2015-8649"
    },
    {
      "Impact": "",
      "Href": "",
      "ID": "CVE-2015-8650"
    },
    {
      "Impact": "",
      "Href": "",
      "ID": "CVE-2015-8651"
    }
  ],
  "Issued": {
    "Date": "2015-12-29"
  }
}