{
  "Title": "RHSA-2015:1943: qemu-kvm security update (Moderate)",
  "Description": "KVM (Kernel-based Virtual Machine) is a full virtualization solution for\nLinux on AMD64 and Intel 64 systems. The qemu-kvm package provides the\nuser-space component for running virtual machines using KVM.\nIt was found that the QEMU's websocket frame decoder processed incoming\nframes without limiting resources used to process the header and the\npayload. An attacker able to access a guest's VNC console could use this\nflaw to trigger a denial of service on the host by exhausting all available\nmemory and CPU. (CVE-2015-1779)\nThis issue was discovered by Daniel P. Berrange of Red Hat.\nAll qemu-kvm users are advised to upgrade to these updated packages, which\ncontain a backported patch to correct this issue. After installing this\nupdate, shut down all running virtual machines. Once all virtual machines\nhave shut down, start them again for this update to take effect.",
  "Platform": [
    "Red Hat Enterprise Linux 7"
  ],
  "References": [
    {
      "Source": "RHSA",
      "URI": "https://access.redhat.com/errata/RHSA-2015:1943",
      "ID": "RHSA-2015:1943"
    },
    {
      "Source": "CVE",
      "URI": "https://access.redhat.com/security/cve/CVE-2015-1779",
      "ID": "CVE-2015-1779"
    }
  ],
  "Criteria": {
    "Operator": "OR",
    "Criterias": [
      {
        "Operator": "AND",
        "Criterias": [
          {
            "Operator": "OR",
            "Criterias": [
              {
                "Operator": "AND",
                "Criterias": [

                ],
                "Criterions": [
                  {
                    "Comment": "libcacard is earlier than 10:1.5.3-86.el7_1.8"
                  },
                  {
                    "Comment": "libcacard is signed with Red Hat redhatrelease2 key"
                  }
                ]
              },
              {
                "Operator": "AND",
                "Criterias": [

                ],
                "Criterions": [
                  {
                    "Comment": "libcacard-devel is earlier than 10:1.5.3-86.el7_1.8"
                  },
                  {
                    "Comment": "libcacard-devel is signed with Red Hat redhatrelease2 key"
                  }
                ]
              },
              {
                "Operator": "AND",
                "Criterias": [

                ],
                "Criterions": [
                  {
                    "Comment": "libcacard-tools is earlier than 10:1.5.3-86.el7_1.8"
                  },
                  {
                    "Comment": "libcacard-tools is signed with Red Hat redhatrelease2 key"
                  }
                ]
              },
              {
                "Operator": "AND",
                "Criterias": [

                ],
                "Criterions": [
                  {
                    "Comment": "qemu-img is earlier than 10:1.5.3-86.el7_1.8"
                  },
                  {
                    "Comment": "qemu-img is signed with Red Hat redhatrelease2 key"
                  }
                ]
              },
              {
                "Operator": "AND",
                "Criterias": [

                ],
                "Criterions": [
                  {
                    "Comment": "qemu-kvm is earlier than 10:1.5.3-86.el7_1.8"
                  },
                  {
                    "Comment": "qemu-kvm is signed with Red Hat redhatrelease2 key"
                  }
                ]
              },
              {
                "Operator": "AND",
                "Criterias": [

                ],
                "Criterions": [
                  {
                    "Comment": "qemu-kvm-common is earlier than 10:1.5.3-86.el7_1.8"
                  },
                  {
                    "Comment": "qemu-kvm-common is signed with Red Hat redhatrelease2 key"
                  }
                ]
              },
              {
                "Operator": "AND",
                "Criterias": [

                ],
                "Criterions": [
                  {
                    "Comment": "qemu-kvm-tools is earlier than 10:1.5.3-86.el7_1.8"
                  },
                  {
                    "Comment": "qemu-kvm-tools is signed with Red Hat redhatrelease2 key"
                  }
                ]
              }
            ],
            "Criterions": [

            ]
          }
        ],
        "Criterions": [
          {
            "Comment": "Oracle Linux 7 is installed"
          }
        ]
      }
    ],
    "Criterions": [
      {
        "Comment": "Oracle Linux 7 is installed"
      }
    ]
  },
  "Severity": "Moderate",
  "Cves": [
    {
      "Impact": "",
      "Href": "",
      "ID": "CVE-2015-1779"
    }
  ],
  "Issued": {
    "Date": "2015-10-27"
  }
}