{
  "Title": "RHSA-2015:2151: xfsprogs security, bug fix and enhancement update (Low)",
  "Description": "The xfsprogs packages contain a set of commands to use the XFS file system,\nincluding the mkfs.xfs command to construct an XFS system.\nIt was discovered that the xfs_metadump tool of the xfsprogs suite did not\nfully adhere to the standards of obfuscation described in its man page. In\ncase a user with the necessary privileges used xfs_metadump and relied on\nthe advertised obfuscation, the generated data could contain unexpected\ntraces of potentially sensitive information. (CVE-2012-2150)\nThe xfsprogs packages have been upgraded to upstream version 3.2.2, which\nprovides a number of bug fixes and enhancements over the previous version.\nThis release also includes updates present in upstream version 3.2.3,\nalthough it omits the mkfs.xfs default disk format change (for metadata\nchecksumming) which is present upstream. (BZ#1223991)\nUsers of xfsprogs are advised to upgrade to these updated packages, which\nfix these bugs and add these enhancements.",
  "Platform": [
    "Red Hat Enterprise Linux 7"
  ],
  "References": [
    {
      "Source": "RHSA",
      "URI": "https://access.redhat.com/errata/RHSA-2015:2151",
      "ID": "RHSA-2015:2151"
    },
    {
      "Source": "CVE",
      "URI": "https://access.redhat.com/security/cve/CVE-2012-2150",
      "ID": "CVE-2012-2150"
    }
  ],
  "Criteria": {
    "Operator": "OR",
    "Criterias": [
      {
        "Operator": "AND",
        "Criterias": [
          {
            "Operator": "OR",
            "Criterias": [
              {
                "Operator": "AND",
                "Criterias": [

                ],
                "Criterions": [
                  {
                    "Comment": "xfsprogs is earlier than 0:3.2.2-2.el7"
                  },
                  {
                    "Comment": "xfsprogs is signed with Red Hat redhatrelease2 key"
                  }
                ]
              },
              {
                "Operator": "AND",
                "Criterias": [

                ],
                "Criterions": [
                  {
                    "Comment": "xfsprogs-devel is earlier than 0:3.2.2-2.el7"
                  },
                  {
                    "Comment": "xfsprogs-devel is signed with Red Hat redhatrelease2 key"
                  }
                ]
              },
              {
                "Operator": "AND",
                "Criterias": [

                ],
                "Criterions": [
                  {
                    "Comment": "xfsprogs-qa-devel is earlier than 0:3.2.2-2.el7"
                  },
                  {
                    "Comment": "xfsprogs-qa-devel is signed with Red Hat redhatrelease2 key"
                  }
                ]
              }
            ],
            "Criterions": [

            ]
          }
        ],
        "Criterions": [
          {
            "Comment": "Oracle Linux 7 is installed"
          }
        ]
      }
    ],
    "Criterions": [
      {
        "Comment": "Oracle Linux 7 is installed"
      }
    ]
  },
  "Severity": "Low",
  "Cves": [
    {
      "Impact": "",
      "Href": "",
      "ID": "CVE-2012-2150"
    }
  ],
  "Issued": {
    "Date": "2015-11-19"
  }
}