{
  "Title": "RHSA-2015:2231: ntp security, bug fix, and enhancement update (Moderate)",
  "Description": "The Network Time Protocol (NTP) is used to synchronize a computer's time\nwith another referenced time source. These packages include the ntpd\nservice which continuously adjusts system time and utilities used to query\nand configure the ntpd service.\nIt was found that because NTP's access control was based on a source IP\naddress, an attacker could bypass source IP restrictions and send\nmalicious control and configuration packets by spoofing ::1 addresses.\n(CVE-2014-9298, CVE-2014-9751)\nA denial of service flaw was found in the way NTP hosts that were peering\nwith each other authenticated themselves before updating their internal\nstate variables. An attacker could send packets to one peer host, which\ncould cascade to other peers, and stop the synchronization process among\nthe reached peers. (CVE-2015-1799)\nA flaw was found in the way the ntp-keygen utility generated MD5 symmetric\nkeys on big-endian systems. An attacker could possibly use this flaw to\nguess generated MD5 keys, which could then be used to spoof an NTP client\nor server. (CVE-2015-3405)\nA stack-based buffer overflow was found in the way the NTP autokey protocol\nwas implemented. When an NTP client decrypted a secret received from an NTP\nserver, it could cause that client to crash. (CVE-2014-9297, CVE-2014-9750)\nIt was found that ntpd did not check whether a Message Authentication Code\n(MAC) was present in a received packet when ntpd was configured to use\nsymmetric cryptographic keys. A man-in-the-middle attacker could use this\nflaw to send crafted packets that would be accepted by a client or a peer\nwithout the attacker knowing the symmetric key. (CVE-2015-1798)\nThe CVE-2015-1798 and CVE-2015-1799 issues were discovered by Miroslav\nLichvár of Red Hat.\nBug fixes:\n* The ntpd service truncated symmetric keys specified in the key file to 20\nbytes. As a consequence, it was impossible to configure NTP authentication\nto work with peers that use longer keys. With this update, the maximum key\nlength has been changed to 32 bytes. (BZ#1191111)\n* The ntpd service could previously join multicast groups only when\nstarting, which caused problems if ntpd was started during system boot\nbefore network was configured. With this update, ntpd attempts to join\nmulticast groups every time network configuration is changed. (BZ#1207014)\n* Previously, the ntp-keygen utility used the exponent of 3 when generating\nRSA keys. Consequently, generating RSA keys failed when FIPS mode was\nenabled. With this update, ntp-keygen has been modified to use the exponent\nof 65537, and generating keys in FIPS mode now works as expected.\n(BZ#1191116)\n* The ntpd service dropped incoming NTP packets if their source port was\nlower than 123 (the NTP port). With this update, ntpd no longer checks the\nsource port number, and clients behind NAT are now able to correctly\nsynchronize with the server. (BZ#1171640)\nEnhancements:\n* This update adds support for configurable Differentiated Services Code\nPoints (DSCP) in NTP packets, simplifying configuration in large networks\nwhere different NTP implementations or versions are using different DSCP\nvalues. (BZ#1202828)\n* This update adds the ability to configure separate clock stepping\nthresholds for each direction (backward and forward). Use the \"stepback\"\nand \"stepfwd\" options to configure each threshold. (BZ#1193154)\n* Support for nanosecond resolution has been added to the Structural\nHealth Monitoring (SHM) reference clock. Prior to this update, when a\nPrecision Time Protocol (PTP) hardware clock was used as a time source to\nsynchronize the system clock, the accuracy of the synchronization was\nlimited due to the microsecond resolution of the SHM protocol. The\nnanosecond extension in the SHM protocol now allows sub-microsecond\nsynchronization of the system clock. (BZ#1117702)\nAll ntp users are advised to upgrade to these updated packages, which\ncontain backported patches to correct these issues and add these\nenhancements.",
  "Platform": [
    "Red Hat Enterprise Linux 7"
  ],
  "References": [
    {
      "Source": "RHSA",
      "URI": "https://access.redhat.com/errata/RHSA-2015:2231",
      "ID": "RHSA-2015:2231"
    },
    {
      "Source": "CVE",
      "URI": "https://access.redhat.com/security/cve/CVE-2014-9297",
      "ID": "CVE-2014-9297"
    },
    {
      "Source": "CVE",
      "URI": "https://access.redhat.com/security/cve/CVE-2014-9298",
      "ID": "CVE-2014-9298"
    },
    {
      "Source": "CVE",
      "URI": "https://access.redhat.com/security/cve/CVE-2014-9750",
      "ID": "CVE-2014-9750"
    },
    {
      "Source": "CVE",
      "URI": "https://access.redhat.com/security/cve/CVE-2014-9751",
      "ID": "CVE-2014-9751"
    },
    {
      "Source": "CVE",
      "URI": "https://access.redhat.com/security/cve/CVE-2015-1798",
      "ID": "CVE-2015-1798"
    },
    {
      "Source": "CVE",
      "URI": "https://access.redhat.com/security/cve/CVE-2015-1799",
      "ID": "CVE-2015-1799"
    },
    {
      "Source": "CVE",
      "URI": "https://access.redhat.com/security/cve/CVE-2015-3405",
      "ID": "CVE-2015-3405"
    }
  ],
  "Criteria": {
    "Operator": "OR",
    "Criterias": [
      {
        "Operator": "AND",
        "Criterias": [
          {
            "Operator": "OR",
            "Criterias": [
              {
                "Operator": "AND",
                "Criterias": [

                ],
                "Criterions": [
                  {
                    "Comment": "ntp is earlier than 0:4.2.6p5-22.el7"
                  },
                  {
                    "Comment": "ntp is signed with Red Hat redhatrelease2 key"
                  }
                ]
              },
              {
                "Operator": "AND",
                "Criterias": [

                ],
                "Criterions": [
                  {
                    "Comment": "ntp-doc is earlier than 0:4.2.6p5-22.el7"
                  },
                  {
                    "Comment": "ntp-doc is signed with Red Hat redhatrelease2 key"
                  }
                ]
              },
              {
                "Operator": "AND",
                "Criterias": [

                ],
                "Criterions": [
                  {
                    "Comment": "ntp-perl is earlier than 0:4.2.6p5-22.el7"
                  },
                  {
                    "Comment": "ntp-perl is signed with Red Hat redhatrelease2 key"
                  }
                ]
              },
              {
                "Operator": "AND",
                "Criterias": [

                ],
                "Criterions": [
                  {
                    "Comment": "ntpdate is earlier than 0:4.2.6p5-22.el7"
                  },
                  {
                    "Comment": "ntpdate is signed with Red Hat redhatrelease2 key"
                  }
                ]
              },
              {
                "Operator": "AND",
                "Criterias": [

                ],
                "Criterions": [
                  {
                    "Comment": "sntp is earlier than 0:4.2.6p5-22.el7"
                  },
                  {
                    "Comment": "sntp is signed with Red Hat redhatrelease2 key"
                  }
                ]
              }
            ],
            "Criterions": [

            ]
          }
        ],
        "Criterions": [
          {
            "Comment": "Oracle Linux 7 is installed"
          }
        ]
      }
    ],
    "Criterions": [
      {
        "Comment": "Oracle Linux 7 is installed"
      }
    ]
  },
  "Severity": "Moderate",
  "Cves": [
    {
      "Impact": "",
      "Href": "",
      "ID": "CVE-2014-9297"
    },
    {
      "Impact": "",
      "Href": "",
      "ID": "CVE-2014-9298"
    },
    {
      "Impact": "",
      "Href": "",
      "ID": "CVE-2014-9750"
    },
    {
      "Impact": "",
      "Href": "",
      "ID": "CVE-2014-9751"
    },
    {
      "Impact": "",
      "Href": "",
      "ID": "CVE-2015-1798"
    },
    {
      "Impact": "",
      "Href": "",
      "ID": "CVE-2015-1799"
    },
    {
      "Impact": "",
      "Href": "",
      "ID": "CVE-2015-3405"
    }
  ],
  "Issued": {
    "Date": "2015-11-19"
  }
}