{
  "Title": "RHSA-2015:1214: flash-plugin security update (Critical)",
  "Description": "The flash-plugin package contains a Mozilla Firefox compatible Adobe Flash\nPlayer web browser plug-in.\nThis update fixes multiple vulnerabilities in Adobe Flash Player. These\nvulnerabilities are detailed in the Adobe Security Bulletin APSB15-16\nlisted in the References section.\nMultiple flaws were found in the way flash-plugin displayed certain SWF\ncontent. An attacker could use these flaws to create a specially crafted\nSWF file that would cause flash-plugin to crash or, potentially, execute\narbitrary code when the victim loaded a page containing the malicious SWF\ncontent. (CVE-2015-3117, CVE-2015-3118, CVE-2015-3119, CVE-2015-3120,\nCVE-2015-3121, CVE-2015-3122, CVE-2015-3123, CVE-2015-3124, CVE-2015-3126,\nCVE-2015-3127, CVE-2015-3128, CVE-2015-3129, CVE-2015-3130, CVE-2015-3131,\nCVE-2015-3132, CVE-2015-3133, CVE-2015-3134, CVE-2015-3135, CVE-2015-3136,\nCVE-2015-3137, CVE-2015-4428, CVE-2015-4429, CVE-2015-4430, CVE-2015-4431,\nCVE-2015-4432, CVE-2015-4433, CVE-2015-5117, CVE-2015-5118, CVE-2015-5119)\nMultiple security bypass flaws were found in flash-plugin that could lead\nto the disclosure of sensitive information. (CVE-2014-0578, CVE-2015-3114,\nCVE-2015-3115, CVE-2015-3116, CVE-2015-3125, CVE-2015-5116)\nAll users of Adobe Flash Player should install this updated package, which\nupgrades Flash Player to version 11.2.202.481.",
  "Platform": [
    "Supplementary for Red Hat Enterprise Linux 5",
    "Supplementary for Red Hat Enterprise Linux 6"
  ],
  "References": [
    {
      "Source": "RHSA",
      "URI": "https://rhn.redhat.com/errata/RHSA-2015-1214.html",
      "ID": "RHSA-2015:1214-01"
    },
    {
      "Source": "CVE",
      "URI": "https://access.redhat.com/security/cve/CVE-2014-0578",
      "ID": "CVE-2014-0578"
    },
    {
      "Source": "CVE",
      "URI": "https://access.redhat.com/security/cve/CVE-2015-3114",
      "ID": "CVE-2015-3114"
    },
    {
      "Source": "CVE",
      "URI": "https://access.redhat.com/security/cve/CVE-2015-3115",
      "ID": "CVE-2015-3115"
    },
    {
      "Source": "CVE",
      "URI": "https://access.redhat.com/security/cve/CVE-2015-3116",
      "ID": "CVE-2015-3116"
    },
    {
      "Source": "CVE",
      "URI": "https://access.redhat.com/security/cve/CVE-2015-3117",
      "ID": "CVE-2015-3117"
    },
    {
      "Source": "CVE",
      "URI": "https://access.redhat.com/security/cve/CVE-2015-3118",
      "ID": "CVE-2015-3118"
    },
    {
      "Source": "CVE",
      "URI": "https://access.redhat.com/security/cve/CVE-2015-3119",
      "ID": "CVE-2015-3119"
    },
    {
      "Source": "CVE",
      "URI": "https://access.redhat.com/security/cve/CVE-2015-3120",
      "ID": "CVE-2015-3120"
    },
    {
      "Source": "CVE",
      "URI": "https://access.redhat.com/security/cve/CVE-2015-3121",
      "ID": "CVE-2015-3121"
    },
    {
      "Source": "CVE",
      "URI": "https://access.redhat.com/security/cve/CVE-2015-3122",
      "ID": "CVE-2015-3122"
    },
    {
      "Source": "CVE",
      "URI": "https://access.redhat.com/security/cve/CVE-2015-3123",
      "ID": "CVE-2015-3123"
    },
    {
      "Source": "CVE",
      "URI": "https://access.redhat.com/security/cve/CVE-2015-3124",
      "ID": "CVE-2015-3124"
    },
    {
      "Source": "CVE",
      "URI": "https://access.redhat.com/security/cve/CVE-2015-3125",
      "ID": "CVE-2015-3125"
    },
    {
      "Source": "CVE",
      "URI": "https://access.redhat.com/security/cve/CVE-2015-3126",
      "ID": "CVE-2015-3126"
    },
    {
      "Source": "CVE",
      "URI": "https://access.redhat.com/security/cve/CVE-2015-3127",
      "ID": "CVE-2015-3127"
    },
    {
      "Source": "CVE",
      "URI": "https://access.redhat.com/security/cve/CVE-2015-3128",
      "ID": "CVE-2015-3128"
    },
    {
      "Source": "CVE",
      "URI": "https://access.redhat.com/security/cve/CVE-2015-3129",
      "ID": "CVE-2015-3129"
    },
    {
      "Source": "CVE",
      "URI": "https://access.redhat.com/security/cve/CVE-2015-3130",
      "ID": "CVE-2015-3130"
    },
    {
      "Source": "CVE",
      "URI": "https://access.redhat.com/security/cve/CVE-2015-3131",
      "ID": "CVE-2015-3131"
    },
    {
      "Source": "CVE",
      "URI": "https://access.redhat.com/security/cve/CVE-2015-3132",
      "ID": "CVE-2015-3132"
    },
    {
      "Source": "CVE",
      "URI": "https://access.redhat.com/security/cve/CVE-2015-3133",
      "ID": "CVE-2015-3133"
    },
    {
      "Source": "CVE",
      "URI": "https://access.redhat.com/security/cve/CVE-2015-3134",
      "ID": "CVE-2015-3134"
    },
    {
      "Source": "CVE",
      "URI": "https://access.redhat.com/security/cve/CVE-2015-3135",
      "ID": "CVE-2015-3135"
    },
    {
      "Source": "CVE",
      "URI": "https://access.redhat.com/security/cve/CVE-2015-3136",
      "ID": "CVE-2015-3136"
    },
    {
      "Source": "CVE",
      "URI": "https://access.redhat.com/security/cve/CVE-2015-3137",
      "ID": "CVE-2015-3137"
    },
    {
      "Source": "CVE",
      "URI": "https://access.redhat.com/security/cve/CVE-2015-4428",
      "ID": "CVE-2015-4428"
    },
    {
      "Source": "CVE",
      "URI": "https://access.redhat.com/security/cve/CVE-2015-4429",
      "ID": "CVE-2015-4429"
    },
    {
      "Source": "CVE",
      "URI": "https://access.redhat.com/security/cve/CVE-2015-4430",
      "ID": "CVE-2015-4430"
    },
    {
      "Source": "CVE",
      "URI": "https://access.redhat.com/security/cve/CVE-2015-4431",
      "ID": "CVE-2015-4431"
    },
    {
      "Source": "CVE",
      "URI": "https://access.redhat.com/security/cve/CVE-2015-4432",
      "ID": "CVE-2015-4432"
    },
    {
      "Source": "CVE",
      "URI": "https://access.redhat.com/security/cve/CVE-2015-4433",
      "ID": "CVE-2015-4433"
    },
    {
      "Source": "CVE",
      "URI": "https://access.redhat.com/security/cve/CVE-2015-5116",
      "ID": "CVE-2015-5116"
    },
    {
      "Source": "CVE",
      "URI": "https://access.redhat.com/security/cve/CVE-2015-5117",
      "ID": "CVE-2015-5117"
    },
    {
      "Source": "CVE",
      "URI": "https://access.redhat.com/security/cve/CVE-2015-5118",
      "ID": "CVE-2015-5118"
    },
    {
      "Source": "CVE",
      "URI": "https://access.redhat.com/security/cve/CVE-2015-5119",
      "ID": "CVE-2015-5119"
    },
    {
      "Source": "CVE",
      "URI": "https://access.redhat.com/security/cve/CVE-2015-5124",
      "ID": "CVE-2015-5124"
    }
  ],
  "Criteria": {
    "Operator": "OR",
    "Criterias": [
      {
        "Operator": "AND",
        "Criterias": [

        ],
        "Criterions": [
          {
            "Comment": "Oracle Linux 5 is installed"
          },
          {
            "Comment": "flash-plugin is earlier than 0:11.2.202.481-1.el5"
          },
          {
            "Comment": "flash-plugin is signed with Red Hat redhatrelease key"
          }
        ]
      },
      {
        "Operator": "AND",
        "Criterias": [
          {
            "Operator": "OR",
            "Criterias": [

            ],
            "Criterions": [
              {
                "Comment": "Oracle Linux 6 Client is installed"
              },
              {
                "Comment": "Oracle Linux 6 Server is installed"
              },
              {
                "Comment": "Oracle Linux 6 Workstation is installed"
              },
              {
                "Comment": "Oracle Linux 6 ComputeNode is installed"
              }
            ]
          }
        ],
        "Criterions": [
          {
            "Comment": "flash-plugin is earlier than 0:11.2.202.481-1.el6_6"
          },
          {
            "Comment": "flash-plugin is signed with Red Hat redhatrelease2 key"
          }
        ]
      }
    ],
    "Criterions": [

    ]
  },
  "Severity": "Critical",
  "Cves": [
    {
      "Impact": "",
      "Href": "",
      "ID": "CVE-2014-0578"
    },
    {
      "Impact": "",
      "Href": "",
      "ID": "CVE-2015-3114"
    },
    {
      "Impact": "",
      "Href": "",
      "ID": "CVE-2015-3115"
    },
    {
      "Impact": "",
      "Href": "",
      "ID": "CVE-2015-3116"
    },
    {
      "Impact": "",
      "Href": "",
      "ID": "CVE-2015-3117"
    },
    {
      "Impact": "",
      "Href": "",
      "ID": "CVE-2015-3118"
    },
    {
      "Impact": "",
      "Href": "",
      "ID": "CVE-2015-3119"
    },
    {
      "Impact": "",
      "Href": "",
      "ID": "CVE-2015-3120"
    },
    {
      "Impact": "",
      "Href": "",
      "ID": "CVE-2015-3121"
    },
    {
      "Impact": "",
      "Href": "",
      "ID": "CVE-2015-3122"
    },
    {
      "Impact": "",
      "Href": "",
      "ID": "CVE-2015-3123"
    },
    {
      "Impact": "",
      "Href": "",
      "ID": "CVE-2015-3124"
    },
    {
      "Impact": "",
      "Href": "",
      "ID": "CVE-2015-3125"
    },
    {
      "Impact": "",
      "Href": "",
      "ID": "CVE-2015-3126"
    },
    {
      "Impact": "",
      "Href": "",
      "ID": "CVE-2015-3127"
    },
    {
      "Impact": "",
      "Href": "",
      "ID": "CVE-2015-3128"
    },
    {
      "Impact": "",
      "Href": "",
      "ID": "CVE-2015-3129"
    },
    {
      "Impact": "",
      "Href": "",
      "ID": "CVE-2015-3130"
    },
    {
      "Impact": "",
      "Href": "",
      "ID": "CVE-2015-3131"
    },
    {
      "Impact": "",
      "Href": "",
      "ID": "CVE-2015-3132"
    },
    {
      "Impact": "",
      "Href": "",
      "ID": "CVE-2015-3133"
    },
    {
      "Impact": "",
      "Href": "",
      "ID": "CVE-2015-3134"
    },
    {
      "Impact": "",
      "Href": "",
      "ID": "CVE-2015-3135"
    },
    {
      "Impact": "",
      "Href": "",
      "ID": "CVE-2015-3136"
    },
    {
      "Impact": "",
      "Href": "",
      "ID": "CVE-2015-3137"
    },
    {
      "Impact": "",
      "Href": "",
      "ID": "CVE-2015-4428"
    },
    {
      "Impact": "",
      "Href": "",
      "ID": "CVE-2015-4429"
    },
    {
      "Impact": "",
      "Href": "",
      "ID": "CVE-2015-4430"
    },
    {
      "Impact": "",
      "Href": "",
      "ID": "CVE-2015-4431"
    },
    {
      "Impact": "",
      "Href": "",
      "ID": "CVE-2015-4432"
    },
    {
      "Impact": "",
      "Href": "",
      "ID": "CVE-2015-4433"
    },
    {
      "Impact": "",
      "Href": "",
      "ID": "CVE-2015-5116"
    },
    {
      "Impact": "",
      "Href": "",
      "ID": "CVE-2015-5117"
    },
    {
      "Impact": "",
      "Href": "",
      "ID": "CVE-2015-5118"
    },
    {
      "Impact": "",
      "Href": "",
      "ID": "CVE-2015-5119"
    },
    {
      "Impact": "",
      "Href": "",
      "ID": "CVE-2015-5124"
    }
  ],
  "Issued": {
    "Date": "2015-07-08"
  }
}