{
  "Title": "RHSA-2015:0921: chromium-browser security and bug fix update (Important)",
  "Description": "Chromium is an open-source web browser, powered by WebKit (Blink).\nSeveral flaws were found in the processing of malformed web content. A web\npage containing malicious content could cause Chromium to crash or,\npotentially, execute arbitrary code with the privileges of the user running\nChromium. (CVE-2015-1243, CVE-2015-1250)\nThis update also fixes the following bug:\n* Prior to this update, Chromium did not accept GNOME's system proxy\nsettings due to having GConf support disabled. This issue has been resolved\nin this update. (BZ#1217065)\nAll Chromium users should upgrade to these updated packages, which contain\nChromium version 42.0.2311.135, which corrects these issues. After\ninstalling the update, Chromium must be restarted for the changes to take\neffect.",
  "Platform": [
    "Supplementary for Red Hat Enterprise Linux 6"
  ],
  "References": [
    {
      "Source": "RHSA",
      "URI": "https://rhn.redhat.com/errata/RHSA-2015-0921.html",
      "ID": "RHSA-2015:0921-00"
    },
    {
      "Source": "CVE",
      "URI": "https://access.redhat.com/security/cve/CVE-2015-1243",
      "ID": "CVE-2015-1243"
    },
    {
      "Source": "CVE",
      "URI": "https://access.redhat.com/security/cve/CVE-2015-1250",
      "ID": "CVE-2015-1250"
    }
  ],
  "Criteria": {
    "Operator": "AND",
    "Criterias": [
      {
        "Operator": "OR",
        "Criterias": [

        ],
        "Criterions": [
          {
            "Comment": "Oracle Linux 6 Client is installed"
          },
          {
            "Comment": "Oracle Linux 6 Server is installed"
          },
          {
            "Comment": "Oracle Linux 6 Workstation is installed"
          },
          {
            "Comment": "Oracle Linux 6 ComputeNode is installed"
          }
        ]
      }
    ],
    "Criterions": [
      {
        "Comment": "chromium-browser is earlier than 0:42.0.2311.135-1.el6_6"
      },
      {
        "Comment": "chromium-browser is signed with Red Hat redhatrelease2 key"
      }
    ]
  },
  "Severity": "Important",
  "Cves": [
    {
      "Impact": "",
      "Href": "",
      "ID": "CVE-2015-1243"
    },
    {
      "Impact": "",
      "Href": "",
      "ID": "CVE-2015-1250"
    }
  ],
  "Issued": {
    "Date": "2015-04-30"
  }
}