{
  "Title": "RHSA-2015:0869: kvm security update (Important)",
  "Description": "KVM (Kernel-based Virtual Machine) is a full virtualization solution for\nLinux on AMD64 and Intel 64 systems. KVM is a Linux kernel module built for\nthe standard Red Hat Enterprise Linux kernel.\nIt was found that KVM's Write to Model Specific Register (WRMSR)\ninstruction emulation would write non-canonical values passed in by the\nguest to certain MSRs in the host's context. A privileged guest user could\nuse this flaw to crash the host. (CVE-2014-3610)\nA race condition flaw was found in the way the Linux kernel's KVM subsystem\nhandled PIT (Programmable Interval Timer) emulation. A guest user who has\naccess to the PIT I/O ports could use this flaw to crash the host.\n(CVE-2014-3611)\nRed Hat would like to thank Lars Bull of Google and Nadav Amit for\nreporting the CVE-2014-3610 issue, and Lars Bull of Google for reporting\nthe CVE-2014-3611 issue.\nAll kvm users are advised to upgrade to these updated packages, which\ncontain backported patches to correct these issues. Note: The procedure in\nthe Solution section must be performed before this update will take effect.",
  "Platform": [
    "Red Hat Enterprise Linux 5"
  ],
  "References": [
    {
      "Source": "RHSA",
      "URI": "https://access.redhat.com/errata/RHSA-2015:0869",
      "ID": "RHSA-2015:0869"
    },
    {
      "Source": "CVE",
      "URI": "https://access.redhat.com/security/cve/CVE-2014-3610",
      "ID": "CVE-2014-3610"
    },
    {
      "Source": "CVE",
      "URI": "https://access.redhat.com/security/cve/CVE-2014-3611",
      "ID": "CVE-2014-3611"
    }
  ],
  "Criteria": {
    "Operator": "OR",
    "Criterias": [
      {
        "Operator": "AND",
        "Criterias": [
          {
            "Operator": "OR",
            "Criterias": [
              {
                "Operator": "AND",
                "Criterias": [

                ],
                "Criterions": [
                  {
                    "Comment": "kmod-kvm is earlier than 0:83-270.el5_11"
                  },
                  {
                    "Comment": "kmod-kvm is signed with Red Hat redhatrelease2 key"
                  }
                ]
              },
              {
                "Operator": "AND",
                "Criterias": [

                ],
                "Criterions": [
                  {
                    "Comment": "kmod-kvm-debug is earlier than 0:83-270.el5_11"
                  },
                  {
                    "Comment": "kmod-kvm-debug is signed with Red Hat redhatrelease2 key"
                  }
                ]
              },
              {
                "Operator": "AND",
                "Criterias": [

                ],
                "Criterions": [
                  {
                    "Comment": "kvm is earlier than 0:83-270.el5_11"
                  },
                  {
                    "Comment": "kvm is signed with Red Hat redhatrelease2 key"
                  }
                ]
              },
              {
                "Operator": "AND",
                "Criterias": [

                ],
                "Criterions": [
                  {
                    "Comment": "kvm-qemu-img is earlier than 0:83-270.el5_11"
                  },
                  {
                    "Comment": "kvm-qemu-img is signed with Red Hat redhatrelease2 key"
                  }
                ]
              },
              {
                "Operator": "AND",
                "Criterias": [

                ],
                "Criterions": [
                  {
                    "Comment": "kvm-tools is earlier than 0:83-270.el5_11"
                  },
                  {
                    "Comment": "kvm-tools is signed with Red Hat redhatrelease2 key"
                  }
                ]
              }
            ],
            "Criterions": [

            ]
          }
        ],
        "Criterions": [
          {
            "Comment": "Oracle Linux 5 is installed"
          }
        ]
      }
    ],
    "Criterions": [
      {
        "Comment": "Oracle Linux 5 is installed"
      }
    ]
  },
  "Severity": "Important",
  "Cves": [
    {
      "Impact": "",
      "Href": "",
      "ID": "CVE-2014-3610"
    },
    {
      "Impact": "",
      "Href": "",
      "ID": "CVE-2014-3611"
    }
  ],
  "Issued": {
    "Date": "2015-04-22"
  }
}