{
  "Title": "RHSA-2015:1707: bind97 security update (Important)",
  "Description": "The Berkeley Internet Name Domain (BIND) is an implementation of the Domain\nName System (DNS) protocols. BIND includes a DNS server (named); a resolver\nlibrary (routines for applications to use when interfacing with DNS); and\ntools for verifying that the DNS server is operating correctly.\nA denial of service flaw was found in the way BIND parsed certain malformed\nDNSSEC keys. A remote attacker could use this flaw to send a specially\ncrafted DNS query (for example, a query requiring a response from a zone\ncontaining a deliberately malformed key) that would cause named functioning\nas a validating resolver to crash. (CVE-2015-5722)\nRed Hat would like to thank ISC for reporting this issue. Upstream\nacknowledges Hanno Böck as the original reporter.\nAll bind97 users are advised to upgrade to these updated packages, which\ncontain a backported patch to correct this issue. After installing the\nupdate, the BIND daemon (named) will be restarted automatically.",
  "Platform": [
    "Red Hat Enterprise Linux 5"
  ],
  "References": [
    {
      "Source": "RHSA",
      "URI": "https://access.redhat.com/errata/RHSA-2015:1707",
      "ID": "RHSA-2015:1707"
    },
    {
      "Source": "CVE",
      "URI": "https://access.redhat.com/security/cve/CVE-2015-5722",
      "ID": "CVE-2015-5722"
    }
  ],
  "Criteria": {
    "Operator": "OR",
    "Criterias": [
      {
        "Operator": "AND",
        "Criterias": [
          {
            "Operator": "OR",
            "Criterias": [
              {
                "Operator": "AND",
                "Criterias": [

                ],
                "Criterions": [
                  {
                    "Comment": "bind97 is earlier than 32:9.7.0-21.P2.el5_11.3"
                  },
                  {
                    "Comment": "bind97 is signed with Red Hat redhatrelease2 key"
                  }
                ]
              },
              {
                "Operator": "AND",
                "Criterias": [

                ],
                "Criterions": [
                  {
                    "Comment": "bind97-chroot is earlier than 32:9.7.0-21.P2.el5_11.3"
                  },
                  {
                    "Comment": "bind97-chroot is signed with Red Hat redhatrelease2 key"
                  }
                ]
              },
              {
                "Operator": "AND",
                "Criterias": [

                ],
                "Criterions": [
                  {
                    "Comment": "bind97-devel is earlier than 32:9.7.0-21.P2.el5_11.3"
                  },
                  {
                    "Comment": "bind97-devel is signed with Red Hat redhatrelease2 key"
                  }
                ]
              },
              {
                "Operator": "AND",
                "Criterias": [

                ],
                "Criterions": [
                  {
                    "Comment": "bind97-libs is earlier than 32:9.7.0-21.P2.el5_11.3"
                  },
                  {
                    "Comment": "bind97-libs is signed with Red Hat redhatrelease2 key"
                  }
                ]
              },
              {
                "Operator": "AND",
                "Criterias": [

                ],
                "Criterions": [
                  {
                    "Comment": "bind97-utils is earlier than 32:9.7.0-21.P2.el5_11.3"
                  },
                  {
                    "Comment": "bind97-utils is signed with Red Hat redhatrelease2 key"
                  }
                ]
              }
            ],
            "Criterions": [

            ]
          }
        ],
        "Criterions": [
          {
            "Comment": "Oracle Linux 5 is installed"
          }
        ]
      }
    ],
    "Criterions": [
      {
        "Comment": "Oracle Linux 5 is installed"
      }
    ]
  },
  "Severity": "Important",
  "Cves": [
    {
      "Impact": "",
      "Href": "",
      "ID": "CVE-2015-5722"
    }
  ],
  "Issued": {
    "Date": "2015-09-03"
  }
}