{
  "Title": "RHSA-2015:0165: subversion security update (Moderate)",
  "Description": "Subversion (SVN) is a concurrent version control system which enables one\nor more users to collaborate in developing and maintaining a hierarchy of\nfiles and directories while keeping a history of all changes. The\nmod_dav_svn module is used with the Apache HTTP Server to allow access\nto Subversion repositories via HTTP.\nA NULL pointer dereference flaw was found in the way the mod_dav_svn module\nhandled REPORT requests. A remote, unauthenticated attacker could use a\nspecially crafted REPORT request to crash mod_dav_svn. (CVE-2014-3580)\nIt was discovered that Subversion clients retrieved cached authentication\ncredentials using the MD5 hash of the server realm string without also\nchecking the server's URL. A malicious server able to provide a realm that\ntriggers an MD5 collision could possibly use this flaw to obtain the\ncredentials for a different realm. (CVE-2014-3528)\nRed Hat would like to thank the Subversion project for reporting\nCVE-2014-3580. Upstream acknowledges Evgeny Kotkov of VisualSVN as the\noriginal reporter.\nAll subversion users should upgrade to these updated packages, which\ncontain backported patches to correct these issues. After installing the\nupdated packages, for the update to take effect, you must restart the httpd\ndaemon, if you are using mod_dav_svn, and the svnserve daemon, if you are\nserving Subversion repositories via the svn:// protocol.",
  "Platform": [
    "Red Hat Enterprise Linux 6"
  ],
  "References": [
    {
      "Source": "RHSA",
      "URI": "https://access.redhat.com/errata/RHSA-2015:0165",
      "ID": "RHSA-2015:0165"
    },
    {
      "Source": "CVE",
      "URI": "https://access.redhat.com/security/cve/CVE-2014-3528",
      "ID": "CVE-2014-3528"
    },
    {
      "Source": "CVE",
      "URI": "https://access.redhat.com/security/cve/CVE-2014-3580",
      "ID": "CVE-2014-3580"
    }
  ],
  "Criteria": {
    "Operator": "OR",
    "Criterias": [
      {
        "Operator": "AND",
        "Criterias": [
          {
            "Operator": "OR",
            "Criterias": [
              {
                "Operator": "AND",
                "Criterias": [

                ],
                "Criterions": [
                  {
                    "Comment": "mod_dav_svn is earlier than 0:1.6.11-12.el6_6"
                  },
                  {
                    "Comment": "mod_dav_svn is signed with Red Hat redhatrelease2 key"
                  }
                ]
              },
              {
                "Operator": "AND",
                "Criterias": [

                ],
                "Criterions": [
                  {
                    "Comment": "subversion is earlier than 0:1.6.11-12.el6_6"
                  },
                  {
                    "Comment": "subversion is signed with Red Hat redhatrelease2 key"
                  }
                ]
              },
              {
                "Operator": "AND",
                "Criterias": [

                ],
                "Criterions": [
                  {
                    "Comment": "subversion-devel is earlier than 0:1.6.11-12.el6_6"
                  },
                  {
                    "Comment": "subversion-devel is signed with Red Hat redhatrelease2 key"
                  }
                ]
              },
              {
                "Operator": "AND",
                "Criterias": [

                ],
                "Criterions": [
                  {
                    "Comment": "subversion-gnome is earlier than 0:1.6.11-12.el6_6"
                  },
                  {
                    "Comment": "subversion-gnome is signed with Red Hat redhatrelease2 key"
                  }
                ]
              },
              {
                "Operator": "AND",
                "Criterias": [

                ],
                "Criterions": [
                  {
                    "Comment": "subversion-javahl is earlier than 0:1.6.11-12.el6_6"
                  },
                  {
                    "Comment": "subversion-javahl is signed with Red Hat redhatrelease2 key"
                  }
                ]
              },
              {
                "Operator": "AND",
                "Criterias": [

                ],
                "Criterions": [
                  {
                    "Comment": "subversion-kde is earlier than 0:1.6.11-12.el6_6"
                  },
                  {
                    "Comment": "subversion-kde is signed with Red Hat redhatrelease2 key"
                  }
                ]
              },
              {
                "Operator": "AND",
                "Criterias": [

                ],
                "Criterions": [
                  {
                    "Comment": "subversion-perl is earlier than 0:1.6.11-12.el6_6"
                  },
                  {
                    "Comment": "subversion-perl is signed with Red Hat redhatrelease2 key"
                  }
                ]
              },
              {
                "Operator": "AND",
                "Criterias": [

                ],
                "Criterions": [
                  {
                    "Comment": "subversion-ruby is earlier than 0:1.6.11-12.el6_6"
                  },
                  {
                    "Comment": "subversion-ruby is signed with Red Hat redhatrelease2 key"
                  }
                ]
              },
              {
                "Operator": "AND",
                "Criterias": [

                ],
                "Criterions": [
                  {
                    "Comment": "subversion-svn2cl is earlier than 0:1.6.11-12.el6_6"
                  },
                  {
                    "Comment": "subversion-svn2cl is signed with Red Hat redhatrelease2 key"
                  }
                ]
              }
            ],
            "Criterions": [

            ]
          }
        ],
        "Criterions": [
          {
            "Comment": "Oracle Linux 6 is installed"
          }
        ]
      }
    ],
    "Criterions": [
      {
        "Comment": "Oracle Linux 6 is installed"
      }
    ]
  },
  "Severity": "Moderate",
  "Cves": [
    {
      "Impact": "",
      "Href": "",
      "ID": "CVE-2014-3528"
    },
    {
      "Impact": "",
      "Href": "",
      "ID": "CVE-2014-3580"
    }
  ],
  "Issued": {
    "Date": "2015-02-10"
  }
}