{
  "Title": "RHSA-2015:1243: java-1.6.0-sun security update (Important)",
  "Description": "Oracle Java SE version 6 includes the Oracle Java Runtime Environment and\nthe Oracle Java Software Development Kit.\nThis update fixes several vulnerabilities in the Oracle Java Runtime\nEnvironment and the Oracle Java Software Development Kit. Further\ninformation about these flaws can be found on the Oracle Java SE Critical\nPatch Update Advisory page, listed in the References section.\n(CVE-2015-2590, CVE-2015-2601, CVE-2015-2621, CVE-2015-2625, CVE-2015-2627,\nCVE-2015-2628, CVE-2015-2632, CVE-2015-2637, CVE-2015-2638, CVE-2015-2664,\nCVE-2015-2808, CVE-2015-4000, CVE-2015-4731, CVE-2015-4732, CVE-2015-4733,\nCVE-2015-4748, CVE-2015-4749, CVE-2015-4760)\nNote: With this update, Oracle JDK now disables RC4 TLS/SSL cipher suites\nby default to address the CVE-2015-2808 issue. Refer to Red Hat Bugzilla\nbug 1207101, linked to in the References section, for additional details\nabout this change.\nNote: This update forces the TLS/SSL client implementation in Oracle JDK to\nreject DH key sizes below 768 bits to address the CVE-2015-4000 issue.\nRefer to Red Hat Bugzilla bug 1223211, linked to in the References section,\nfor additional details about this change.\nAll users of java-1.6.0-sun are advised to upgrade to these updated\npackages, which provide Oracle Java 6 Update 101 and resolve these issues.\nAll running instances of Oracle Java must be restarted for the update to\ntake effect.",
  "Platform": [
    "Oracle Java for Red Hat Enterprise Linux 5",
    "Oracle Java for Red Hat Enterprise Linux 6",
    "Oracle Java for Red Hat Enterprise Linux 7"
  ],
  "References": [
    {
      "Source": "RHSA",
      "URI": "https://access.redhat.com/errata/RHSA-2015:1243",
      "ID": "RHSA-2015:1243"
    },
    {
      "Source": "CVE",
      "URI": "https://access.redhat.com/security/cve/CVE-2015-2590",
      "ID": "CVE-2015-2590"
    },
    {
      "Source": "CVE",
      "URI": "https://access.redhat.com/security/cve/CVE-2015-2601",
      "ID": "CVE-2015-2601"
    },
    {
      "Source": "CVE",
      "URI": "https://access.redhat.com/security/cve/CVE-2015-2621",
      "ID": "CVE-2015-2621"
    },
    {
      "Source": "CVE",
      "URI": "https://access.redhat.com/security/cve/CVE-2015-2625",
      "ID": "CVE-2015-2625"
    },
    {
      "Source": "CVE",
      "URI": "https://access.redhat.com/security/cve/CVE-2015-2627",
      "ID": "CVE-2015-2627"
    },
    {
      "Source": "CVE",
      "URI": "https://access.redhat.com/security/cve/CVE-2015-2628",
      "ID": "CVE-2015-2628"
    },
    {
      "Source": "CVE",
      "URI": "https://access.redhat.com/security/cve/CVE-2015-2632",
      "ID": "CVE-2015-2632"
    },
    {
      "Source": "CVE",
      "URI": "https://access.redhat.com/security/cve/CVE-2015-2637",
      "ID": "CVE-2015-2637"
    },
    {
      "Source": "CVE",
      "URI": "https://access.redhat.com/security/cve/CVE-2015-2638",
      "ID": "CVE-2015-2638"
    },
    {
      "Source": "CVE",
      "URI": "https://access.redhat.com/security/cve/CVE-2015-2664",
      "ID": "CVE-2015-2664"
    },
    {
      "Source": "CVE",
      "URI": "https://access.redhat.com/security/cve/CVE-2015-2808",
      "ID": "CVE-2015-2808"
    },
    {
      "Source": "CVE",
      "URI": "https://access.redhat.com/security/cve/CVE-2015-4000",
      "ID": "CVE-2015-4000"
    },
    {
      "Source": "CVE",
      "URI": "https://access.redhat.com/security/cve/CVE-2015-4731",
      "ID": "CVE-2015-4731"
    },
    {
      "Source": "CVE",
      "URI": "https://access.redhat.com/security/cve/CVE-2015-4732",
      "ID": "CVE-2015-4732"
    },
    {
      "Source": "CVE",
      "URI": "https://access.redhat.com/security/cve/CVE-2015-4733",
      "ID": "CVE-2015-4733"
    },
    {
      "Source": "CVE",
      "URI": "https://access.redhat.com/security/cve/CVE-2015-4748",
      "ID": "CVE-2015-4748"
    },
    {
      "Source": "CVE",
      "URI": "https://access.redhat.com/security/cve/CVE-2015-4749",
      "ID": "CVE-2015-4749"
    },
    {
      "Source": "CVE",
      "URI": "https://access.redhat.com/security/cve/CVE-2015-4760",
      "ID": "CVE-2015-4760"
    }
  ],
  "Criteria": {
    "Operator": "OR",
    "Criterias": [
      {
        "Operator": "AND",
        "Criterias": [
          {
            "Operator": "OR",
            "Criterias": [
              {
                "Operator": "AND",
                "Criterias": [

                ],
                "Criterions": [
                  {
                    "Comment": "java-1.6.0-sun is earlier than 1:1.6.0.101-1jpp.1.el5_11"
                  },
                  {
                    "Comment": "java-1.6.0-sun is signed with Red Hat redhatrelease key"
                  }
                ]
              },
              {
                "Operator": "AND",
                "Criterias": [

                ],
                "Criterions": [
                  {
                    "Comment": "java-1.6.0-sun-demo is earlier than 1:1.6.0.101-1jpp.1.el5_11"
                  },
                  {
                    "Comment": "java-1.6.0-sun-demo is signed with Red Hat redhatrelease key"
                  }
                ]
              },
              {
                "Operator": "AND",
                "Criterias": [

                ],
                "Criterions": [
                  {
                    "Comment": "java-1.6.0-sun-devel is earlier than 1:1.6.0.101-1jpp.1.el5_11"
                  },
                  {
                    "Comment": "java-1.6.0-sun-devel is signed with Red Hat redhatrelease key"
                  }
                ]
              },
              {
                "Operator": "AND",
                "Criterias": [

                ],
                "Criterions": [
                  {
                    "Comment": "java-1.6.0-sun-jdbc is earlier than 1:1.6.0.101-1jpp.1.el5_11"
                  },
                  {
                    "Comment": "java-1.6.0-sun-jdbc is signed with Red Hat redhatrelease key"
                  }
                ]
              },
              {
                "Operator": "AND",
                "Criterias": [

                ],
                "Criterions": [
                  {
                    "Comment": "java-1.6.0-sun-plugin is earlier than 1:1.6.0.101-1jpp.1.el5_11"
                  },
                  {
                    "Comment": "java-1.6.0-sun-plugin is signed with Red Hat redhatrelease key"
                  }
                ]
              },
              {
                "Operator": "AND",
                "Criterias": [

                ],
                "Criterions": [
                  {
                    "Comment": "java-1.6.0-sun-src is earlier than 1:1.6.0.101-1jpp.1.el5_11"
                  },
                  {
                    "Comment": "java-1.6.0-sun-src is signed with Red Hat redhatrelease key"
                  }
                ]
              }
            ],
            "Criterions": [

            ]
          }
        ],
        "Criterions": [
          {
            "Comment": "Oracle Linux 5 is installed"
          }
        ]
      },
      {
        "Operator": "AND",
        "Criterias": [
          {
            "Operator": "OR",
            "Criterias": [
              {
                "Operator": "AND",
                "Criterias": [

                ],
                "Criterions": [
                  {
                    "Comment": "java-1.6.0-sun is earlier than 1:1.6.0.101-1jpp.1.el6_6"
                  },
                  {
                    "Comment": "java-1.6.0-sun is signed with Red Hat redhatrelease2 key"
                  }
                ]
              },
              {
                "Operator": "AND",
                "Criterias": [

                ],
                "Criterions": [
                  {
                    "Comment": "java-1.6.0-sun-demo is earlier than 1:1.6.0.101-1jpp.1.el6_6"
                  },
                  {
                    "Comment": "java-1.6.0-sun-demo is signed with Red Hat redhatrelease2 key"
                  }
                ]
              },
              {
                "Operator": "AND",
                "Criterias": [

                ],
                "Criterions": [
                  {
                    "Comment": "java-1.6.0-sun-devel is earlier than 1:1.6.0.101-1jpp.1.el6_6"
                  },
                  {
                    "Comment": "java-1.6.0-sun-devel is signed with Red Hat redhatrelease2 key"
                  }
                ]
              },
              {
                "Operator": "AND",
                "Criterias": [

                ],
                "Criterions": [
                  {
                    "Comment": "java-1.6.0-sun-jdbc is earlier than 1:1.6.0.101-1jpp.1.el6_6"
                  },
                  {
                    "Comment": "java-1.6.0-sun-jdbc is signed with Red Hat redhatrelease2 key"
                  }
                ]
              },
              {
                "Operator": "AND",
                "Criterias": [

                ],
                "Criterions": [
                  {
                    "Comment": "java-1.6.0-sun-plugin is earlier than 1:1.6.0.101-1jpp.1.el6_6"
                  },
                  {
                    "Comment": "java-1.6.0-sun-plugin is signed with Red Hat redhatrelease2 key"
                  }
                ]
              },
              {
                "Operator": "AND",
                "Criterias": [

                ],
                "Criterions": [
                  {
                    "Comment": "java-1.6.0-sun-src is earlier than 1:1.6.0.101-1jpp.1.el6_6"
                  },
                  {
                    "Comment": "java-1.6.0-sun-src is signed with Red Hat redhatrelease2 key"
                  }
                ]
              }
            ],
            "Criterions": [

            ]
          }
        ],
        "Criterions": [
          {
            "Comment": "Oracle Linux 6 is installed"
          }
        ]
      },
      {
        "Operator": "AND",
        "Criterias": [
          {
            "Operator": "OR",
            "Criterias": [
              {
                "Operator": "AND",
                "Criterias": [

                ],
                "Criterions": [
                  {
                    "Comment": "java-1.6.0-sun is earlier than 1:1.6.0.101-1jpp.1.el7_1"
                  },
                  {
                    "Comment": "java-1.6.0-sun is signed with Red Hat redhatrelease2 key"
                  }
                ]
              },
              {
                "Operator": "AND",
                "Criterias": [

                ],
                "Criterions": [
                  {
                    "Comment": "java-1.6.0-sun-demo is earlier than 1:1.6.0.101-1jpp.1.el7_1"
                  },
                  {
                    "Comment": "java-1.6.0-sun-demo is signed with Red Hat redhatrelease2 key"
                  }
                ]
              },
              {
                "Operator": "AND",
                "Criterias": [

                ],
                "Criterions": [
                  {
                    "Comment": "java-1.6.0-sun-devel is earlier than 1:1.6.0.101-1jpp.1.el7_1"
                  },
                  {
                    "Comment": "java-1.6.0-sun-devel is signed with Red Hat redhatrelease2 key"
                  }
                ]
              },
              {
                "Operator": "AND",
                "Criterias": [

                ],
                "Criterions": [
                  {
                    "Comment": "java-1.6.0-sun-jdbc is earlier than 1:1.6.0.101-1jpp.1.el7_1"
                  },
                  {
                    "Comment": "java-1.6.0-sun-jdbc is signed with Red Hat redhatrelease2 key"
                  }
                ]
              },
              {
                "Operator": "AND",
                "Criterias": [

                ],
                "Criterions": [
                  {
                    "Comment": "java-1.6.0-sun-plugin is earlier than 1:1.6.0.101-1jpp.1.el7_1"
                  },
                  {
                    "Comment": "java-1.6.0-sun-plugin is signed with Red Hat redhatrelease2 key"
                  }
                ]
              },
              {
                "Operator": "AND",
                "Criterias": [

                ],
                "Criterions": [
                  {
                    "Comment": "java-1.6.0-sun-src is earlier than 1:1.6.0.101-1jpp.1.el7_1"
                  },
                  {
                    "Comment": "java-1.6.0-sun-src is signed with Red Hat redhatrelease2 key"
                  }
                ]
              }
            ],
            "Criterions": [

            ]
          }
        ],
        "Criterions": [
          {
            "Comment": "Oracle Linux 7 is installed"
          }
        ]
      }
    ],
    "Criterions": [
      {
        "Comment": "Oracle Linux 5 is installed"
      }
    ]
  },
  "Severity": "Important",
  "Cves": [
    {
      "Impact": "",
      "Href": "",
      "ID": "CVE-2015-2590"
    },
    {
      "Impact": "",
      "Href": "",
      "ID": "CVE-2015-2601"
    },
    {
      "Impact": "",
      "Href": "",
      "ID": "CVE-2015-2621"
    },
    {
      "Impact": "",
      "Href": "",
      "ID": "CVE-2015-2625"
    },
    {
      "Impact": "",
      "Href": "",
      "ID": "CVE-2015-2627"
    },
    {
      "Impact": "",
      "Href": "",
      "ID": "CVE-2015-2628"
    },
    {
      "Impact": "",
      "Href": "",
      "ID": "CVE-2015-2632"
    },
    {
      "Impact": "",
      "Href": "",
      "ID": "CVE-2015-2637"
    },
    {
      "Impact": "",
      "Href": "",
      "ID": "CVE-2015-2638"
    },
    {
      "Impact": "",
      "Href": "",
      "ID": "CVE-2015-2664"
    },
    {
      "Impact": "",
      "Href": "",
      "ID": "CVE-2015-2808"
    },
    {
      "Impact": "",
      "Href": "",
      "ID": "CVE-2015-4000"
    },
    {
      "Impact": "",
      "Href": "",
      "ID": "CVE-2015-4731"
    },
    {
      "Impact": "",
      "Href": "",
      "ID": "CVE-2015-4732"
    },
    {
      "Impact": "",
      "Href": "",
      "ID": "CVE-2015-4733"
    },
    {
      "Impact": "",
      "Href": "",
      "ID": "CVE-2015-4748"
    },
    {
      "Impact": "",
      "Href": "",
      "ID": "CVE-2015-4749"
    },
    {
      "Impact": "",
      "Href": "",
      "ID": "CVE-2015-4760"
    }
  ],
  "Issued": {
    "Date": "2015-07-17"
  }
}