{
  "Title": "RHSA-2015:0990: pcs security and bug fix update (Important)",
  "Description": "The pcs packages provide a command-line tool and a web UI to configure and\nmanage the Pacemaker and Corosync tools.\nIt was found that the pcs daemon did not sign cookies containing session\ndata that were sent to clients connecting via the pcsd web UI. A remote\nattacker could use this flaw to forge cookies and bypass authorization\nchecks, possibly gaining elevated privileges in the pcsd web UI. Note: the\npcsd web UI is not enabled by default. (CVE-2015-1848)\nThis issue was discovered by Tomas Jelinek of Red Hat.\nThis update also fixes the following bug:\n* When the IPv6 protocol was disabled on a system, starting the pcsd daemon\non this system previously failed. This update adds the ability for pcsd to\nfall back to IPv4 when IPv6 is not available. As a result, pcsd starts\nproperly and uses IPv4 if IPv6 is disabled. (BZ#1212115)\nAll pcs users are advised to upgrade to these updated packages, which\ncontain backported patches to correct these issues. After installing the\nupdated packages, the pcsd daemon will be restarted automatically.",
  "Platform": [
    "Red Hat Enterprise Linux 6"
  ],
  "References": [
    {
      "Source": "RHSA",
      "URI": "https://access.redhat.com/errata/RHSA-2015:0990",
      "ID": "RHSA-2015:0990"
    },
    {
      "Source": "CVE",
      "URI": "https://access.redhat.com/security/cve/CVE-2015-1848",
      "ID": "CVE-2015-1848"
    },
    {
      "Source": "CVE",
      "URI": "https://access.redhat.com/security/cve/CVE-2015-3983",
      "ID": "CVE-2015-3983"
    }
  ],
  "Criteria": {
    "Operator": "OR",
    "Criterias": [
      {
        "Operator": "AND",
        "Criterias": [

        ],
        "Criterions": [
          {
            "Comment": "Oracle Linux 6 is installed"
          },
          {
            "Comment": "pcs is earlier than 0:0.9.123-9.el6_6.2"
          },
          {
            "Comment": "pcs is signed with Red Hat redhatrelease2 key"
          }
        ]
      }
    ],
    "Criterions": [
      {
        "Comment": "Oracle Linux 6 is installed"
      }
    ]
  },
  "Severity": "Important",
  "Cves": [
    {
      "Impact": "",
      "Href": "",
      "ID": "CVE-2015-1848"
    },
    {
      "Impact": "",
      "Href": "",
      "ID": "CVE-2015-3983"
    }
  ],
  "Issued": {
    "Date": "2015-05-12"
  }
}