{
  "Title": "RHSA-2015:1012: thunderbird security update (Important)",
  "Description": "Mozilla Thunderbird is a standalone mail and newsgroup client.\nSeveral flaws were found in the processing of malformed web content. A web\npage containing malicious content could cause Thunderbird to crash or,\npotentially, execute arbitrary code with the privileges of the user running\nThunderbird. (CVE-2015-2708, CVE-2015-2710, CVE-2015-2713)\nA heap-based buffer overflow flaw was found in the way Thunderbird\nprocessed compressed XML data. An attacker could create specially crafted\ncompressed XML content that, when processed by Thunderbird, could cause it\nto crash or execute arbitrary code with the privileges of the user running\nThunderbird. (CVE-2015-2716)\nNote: All of the above issues cannot be exploited by a specially crafted\nHTML mail message as JavaScript is disabled by default for mail messages.\nThey could be exploited another way in Thunderbird, for example, when\nviewing the full remote content of an RSS feed.\nRed Hat would like to thank the Mozilla project for reporting these issues.\nUpstream acknowledges Jesse Ruderman, Mats Palmgren, Byron Campen, Steve\nFink, Atte Kettunen, Scott Bell, and Ucha Gobejishvili as the original\nreporters of these issues.\nFor technical details regarding these flaws, refer to the Mozilla security\nadvisories for Thunderbird 31.7. You can find a link to the Mozilla\nadvisories in the References section of this erratum.\nAll Thunderbird users should upgrade to this updated package, which\ncontains Thunderbird version 31.7, which corrects these issues.\nAfter installing the update, Thunderbird must be restarted for the changes\nto take effect.",
  "Platform": [
    "Red Hat Enterprise Linux 5",
    "Red Hat Enterprise Linux 6",
    "Red Hat Enterprise Linux 7"
  ],
  "References": [
    {
      "Source": "RHSA",
      "URI": "https://access.redhat.com/errata/RHSA-2015:1012",
      "ID": "RHSA-2015:1012"
    },
    {
      "Source": "CVE",
      "URI": "https://access.redhat.com/security/cve/CVE-2015-2708",
      "ID": "CVE-2015-2708"
    },
    {
      "Source": "CVE",
      "URI": "https://access.redhat.com/security/cve/CVE-2015-2710",
      "ID": "CVE-2015-2710"
    },
    {
      "Source": "CVE",
      "URI": "https://access.redhat.com/security/cve/CVE-2015-2713",
      "ID": "CVE-2015-2713"
    },
    {
      "Source": "CVE",
      "URI": "https://access.redhat.com/security/cve/CVE-2015-2716",
      "ID": "CVE-2015-2716"
    }
  ],
  "Criteria": {
    "Operator": "OR",
    "Criterias": [
      {
        "Operator": "AND",
        "Criterias": [

        ],
        "Criterions": [
          {
            "Comment": "Oracle Linux 5 is installed"
          },
          {
            "Comment": "thunderbird is earlier than 0:31.7.0-1.el5_11"
          },
          {
            "Comment": "thunderbird is signed with Red Hat redhatrelease2 key"
          }
        ]
      },
      {
        "Operator": "AND",
        "Criterias": [

        ],
        "Criterions": [
          {
            "Comment": "Oracle Linux 6 is installed"
          },
          {
            "Comment": "thunderbird is earlier than 0:31.7.0-1.el6_6"
          },
          {
            "Comment": "thunderbird is signed with Red Hat redhatrelease2 key"
          }
        ]
      },
      {
        "Operator": "AND",
        "Criterias": [

        ],
        "Criterions": [
          {
            "Comment": "Oracle Linux 7 is installed"
          },
          {
            "Comment": "thunderbird is earlier than 0:31.7.0-1.el7_1"
          },
          {
            "Comment": "thunderbird is signed with Red Hat redhatrelease2 key"
          }
        ]
      }
    ],
    "Criterions": [
      {
        "Comment": "Oracle Linux 5 is installed"
      }
    ]
  },
  "Severity": "Important",
  "Cves": [
    {
      "Impact": "",
      "Href": "",
      "ID": "CVE-2015-2708"
    },
    {
      "Impact": "",
      "Href": "",
      "ID": "CVE-2015-2710"
    },
    {
      "Impact": "",
      "Href": "",
      "ID": "CVE-2015-2713"
    },
    {
      "Impact": "",
      "Href": "",
      "ID": "CVE-2015-2716"
    }
  ],
  "Issued": {
    "Date": "2015-05-18"
  }
}