{
  "Title": "RHSA-2015:0998: qemu-kvm security update (Important)",
  "Description": "KVM (Kernel-based Virtual Machine) is a full virtualization solution for\nLinux on AMD64 and Intel 64 systems. The qemu-kvm package provides the\nuser-space component for running virtual machines using KVM.\nAn out-of-bounds memory access flaw was found in the way QEMU's virtual\nFloppy Disk Controller (FDC) handled FIFO buffer access while processing\ncertain FDC commands. A privileged guest user could use this flaw to crash\nthe guest or, potentially, execute arbitrary code on the host with the\nprivileges of the host's QEMU process corresponding to the guest.\n(CVE-2015-3456)\nRed Hat would like to thank Jason Geffner of CrowdStrike for reporting\nthis issue.\nAll qemu-kvm users are advised to upgrade to these updated packages, which\ncontain a backported patch to correct this issue. After installing this\nupdate, shut down all running virtual machines. Once all virtual machines\nhave shut down, start them again for this update to take effect.",
  "Platform": [
    "Red Hat Enterprise Linux 6"
  ],
  "References": [
    {
      "Source": "RHSA",
      "URI": "https://access.redhat.com/errata/RHSA-2015:0998",
      "ID": "RHSA-2015:0998"
    },
    {
      "Source": "CVE",
      "URI": "https://access.redhat.com/security/cve/CVE-2015-3456",
      "ID": "CVE-2015-3456"
    }
  ],
  "Criteria": {
    "Operator": "OR",
    "Criterias": [
      {
        "Operator": "AND",
        "Criterias": [
          {
            "Operator": "OR",
            "Criterias": [
              {
                "Operator": "AND",
                "Criterias": [

                ],
                "Criterions": [
                  {
                    "Comment": "qemu-guest-agent is earlier than 2:0.12.1.2-2.448.el6_6.3"
                  },
                  {
                    "Comment": "qemu-guest-agent is signed with Red Hat redhatrelease2 key"
                  }
                ]
              },
              {
                "Operator": "AND",
                "Criterias": [

                ],
                "Criterions": [
                  {
                    "Comment": "qemu-img is earlier than 2:0.12.1.2-2.448.el6_6.3"
                  },
                  {
                    "Comment": "qemu-img is signed with Red Hat redhatrelease2 key"
                  }
                ]
              },
              {
                "Operator": "AND",
                "Criterias": [

                ],
                "Criterions": [
                  {
                    "Comment": "qemu-kvm is earlier than 2:0.12.1.2-2.448.el6_6.3"
                  },
                  {
                    "Comment": "qemu-kvm is signed with Red Hat redhatrelease2 key"
                  }
                ]
              },
              {
                "Operator": "AND",
                "Criterias": [

                ],
                "Criterions": [
                  {
                    "Comment": "qemu-kvm-tools is earlier than 2:0.12.1.2-2.448.el6_6.3"
                  },
                  {
                    "Comment": "qemu-kvm-tools is signed with Red Hat redhatrelease2 key"
                  }
                ]
              }
            ],
            "Criterions": [

            ]
          }
        ],
        "Criterions": [
          {
            "Comment": "Oracle Linux 6 is installed"
          }
        ]
      }
    ],
    "Criterions": [
      {
        "Comment": "Oracle Linux 6 is installed"
      }
    ]
  },
  "Severity": "Important",
  "Cves": [
    {
      "Impact": "",
      "Href": "",
      "ID": "CVE-2015-3456"
    }
  ],
  "Issued": {
    "Date": "2015-05-13"
  }
}