{
  "Title": "RHSA-2015:2657: firefox security update (Critical)",
  "Description": "Mozilla Firefox is an open source web browser. XULRunner provides the XUL\nRuntime environment for Mozilla Firefox.\nSeveral flaws were found in the processing of malformed web content. A web\npage containing malicious content could cause Firefox to crash or,\npotentially, execute arbitrary code with the privileges of the user running\nFirefox. (CVE-2015-7201, CVE-2015-7205, CVE-2015-7210, CVE-2015-7212,\nCVE-2015-7213, CVE-2015-7222)\nA flaw was found in the way Firefox handled content using the 'data:' and\n'view-source:' URIs. An attacker could use this flaw to bypass the\nsame-origin policy and read data from cross-site URLs and local files.\n(CVE-2015-7214)\nRed Hat would like to thank the Mozilla project for reporting these issues.\nUpstream acknowledges Andrei Vaida, Jesse Ruderman, Bob Clary, Looben Yang,\nAbhishek Arya, Ronald Crane, Gerald Squelart, and Tsubasa Iinuma as the\noriginal reporters of these issues.\nAll Firefox users should upgrade to these updated packages, which contain\nFirefox version 38.5.0 ESR, which corrects these issues. After installing\nthe update, Firefox must be restarted for the changes to take effect.",
  "Platform": [
    "Red Hat Enterprise Linux 5",
    "Red Hat Enterprise Linux 6",
    "Red Hat Enterprise Linux 7"
  ],
  "References": [
    {
      "Source": "RHSA",
      "URI": "https://access.redhat.com/errata/RHSA-2015:2657",
      "ID": "RHSA-2015:2657"
    },
    {
      "Source": "CVE",
      "URI": "https://access.redhat.com/security/cve/CVE-2015-7201",
      "ID": "CVE-2015-7201"
    },
    {
      "Source": "CVE",
      "URI": "https://access.redhat.com/security/cve/CVE-2015-7205",
      "ID": "CVE-2015-7205"
    },
    {
      "Source": "CVE",
      "URI": "https://access.redhat.com/security/cve/CVE-2015-7210",
      "ID": "CVE-2015-7210"
    },
    {
      "Source": "CVE",
      "URI": "https://access.redhat.com/security/cve/CVE-2015-7212",
      "ID": "CVE-2015-7212"
    },
    {
      "Source": "CVE",
      "URI": "https://access.redhat.com/security/cve/CVE-2015-7213",
      "ID": "CVE-2015-7213"
    },
    {
      "Source": "CVE",
      "URI": "https://access.redhat.com/security/cve/CVE-2015-7214",
      "ID": "CVE-2015-7214"
    },
    {
      "Source": "CVE",
      "URI": "https://access.redhat.com/security/cve/CVE-2015-7222",
      "ID": "CVE-2015-7222"
    }
  ],
  "Criteria": {
    "Operator": "OR",
    "Criterias": [
      {
        "Operator": "AND",
        "Criterias": [

        ],
        "Criterions": [
          {
            "Comment": "Oracle Linux 5 is installed"
          },
          {
            "Comment": "firefox is earlier than 0:38.5.0-2.el5_11"
          },
          {
            "Comment": "firefox is signed with Red Hat redhatrelease2 key"
          }
        ]
      },
      {
        "Operator": "AND",
        "Criterias": [

        ],
        "Criterions": [
          {
            "Comment": "Oracle Linux 6 is installed"
          },
          {
            "Comment": "firefox is earlier than 0:38.5.0-2.el6_7"
          },
          {
            "Comment": "firefox is signed with Red Hat redhatrelease2 key"
          }
        ]
      },
      {
        "Operator": "AND",
        "Criterias": [

        ],
        "Criterions": [
          {
            "Comment": "Oracle Linux 7 is installed"
          },
          {
            "Comment": "firefox is earlier than 0:38.5.0-3.el7_2"
          },
          {
            "Comment": "firefox is signed with Red Hat redhatrelease2 key"
          }
        ]
      }
    ],
    "Criterions": [
      {
        "Comment": "Oracle Linux 5 is installed"
      }
    ]
  },
  "Severity": "Critical",
  "Cves": [
    {
      "Impact": "",
      "Href": "",
      "ID": "CVE-2015-7201"
    },
    {
      "Impact": "",
      "Href": "",
      "ID": "CVE-2015-7205"
    },
    {
      "Impact": "",
      "Href": "",
      "ID": "CVE-2015-7210"
    },
    {
      "Impact": "",
      "Href": "",
      "ID": "CVE-2015-7212"
    },
    {
      "Impact": "",
      "Href": "",
      "ID": "CVE-2015-7213"
    },
    {
      "Impact": "",
      "Href": "",
      "ID": "CVE-2015-7214"
    },
    {
      "Impact": "",
      "Href": "",
      "ID": "CVE-2015-7222"
    }
  ],
  "Issued": {
    "Date": "2015-12-16"
  }
}