{
  "Title": "RHSA-2015:1486: java-1.6.0-ibm security update (Critical)",
  "Description": "IBM Java SE version 6 includes the IBM Java Runtime Environment and the IBM\nJava Software Development Kit.\nThis update fixes several vulnerabilities in the IBM Java Runtime\nEnvironment and the IBM Java Software Development Kit. Further information\nabout these flaws can be found on the IBM Java Security alerts page, listed\nin the References section. (CVE-2015-1931, CVE-2015-2590, CVE-2015-2601,\nCVE-2015-2621, CVE-2015-2625, CVE-2015-2632, CVE-2015-2637, CVE-2015-2638,\nCVE-2015-2664, CVE-2015-4000, CVE-2015-4731, CVE-2015-4732, CVE-2015-4733,\nCVE-2015-4748, CVE-2015-4749, CVE-2015-4760)\nNote: This update forces the TLS/SSL client implementation in IBM JDK to\nreject DH key sizes below 768 bits to address the CVE-2015-4000 issue.\nRefer to Red Hat Bugzilla bug 1223211, linked to in the References section,\nfor additional details about this change.\nAll users of java-1.6.0-ibm are advised to upgrade to these updated\npackages, containing the IBM Java SE 6 SR16-FP7 release. All running\ninstances of IBM Java must be restarted for the update to take effect.",
  "Platform": [
    "Supplementary for Red Hat Enterprise Linux 5",
    "Supplementary for Red Hat Enterprise Linux 6"
  ],
  "References": [
    {
      "Source": "RHSA",
      "URI": "https://rhn.redhat.com/errata/RHSA-2015-1486.html",
      "ID": "RHSA-2015:1486-00"
    },
    {
      "Source": "CVE",
      "URI": "https://access.redhat.com/security/cve/CVE-2015-1931",
      "ID": "CVE-2015-1931"
    },
    {
      "Source": "CVE",
      "URI": "https://access.redhat.com/security/cve/CVE-2015-2590",
      "ID": "CVE-2015-2590"
    },
    {
      "Source": "CVE",
      "URI": "https://access.redhat.com/security/cve/CVE-2015-2601",
      "ID": "CVE-2015-2601"
    },
    {
      "Source": "CVE",
      "URI": "https://access.redhat.com/security/cve/CVE-2015-2621",
      "ID": "CVE-2015-2621"
    },
    {
      "Source": "CVE",
      "URI": "https://access.redhat.com/security/cve/CVE-2015-2625",
      "ID": "CVE-2015-2625"
    },
    {
      "Source": "CVE",
      "URI": "https://access.redhat.com/security/cve/CVE-2015-2632",
      "ID": "CVE-2015-2632"
    },
    {
      "Source": "CVE",
      "URI": "https://access.redhat.com/security/cve/CVE-2015-2637",
      "ID": "CVE-2015-2637"
    },
    {
      "Source": "CVE",
      "URI": "https://access.redhat.com/security/cve/CVE-2015-2638",
      "ID": "CVE-2015-2638"
    },
    {
      "Source": "CVE",
      "URI": "https://access.redhat.com/security/cve/CVE-2015-2664",
      "ID": "CVE-2015-2664"
    },
    {
      "Source": "CVE",
      "URI": "https://access.redhat.com/security/cve/CVE-2015-4000",
      "ID": "CVE-2015-4000"
    },
    {
      "Source": "CVE",
      "URI": "https://access.redhat.com/security/cve/CVE-2015-4731",
      "ID": "CVE-2015-4731"
    },
    {
      "Source": "CVE",
      "URI": "https://access.redhat.com/security/cve/CVE-2015-4732",
      "ID": "CVE-2015-4732"
    },
    {
      "Source": "CVE",
      "URI": "https://access.redhat.com/security/cve/CVE-2015-4733",
      "ID": "CVE-2015-4733"
    },
    {
      "Source": "CVE",
      "URI": "https://access.redhat.com/security/cve/CVE-2015-4748",
      "ID": "CVE-2015-4748"
    },
    {
      "Source": "CVE",
      "URI": "https://access.redhat.com/security/cve/CVE-2015-4749",
      "ID": "CVE-2015-4749"
    },
    {
      "Source": "CVE",
      "URI": "https://access.redhat.com/security/cve/CVE-2015-4760",
      "ID": "CVE-2015-4760"
    }
  ],
  "Criteria": {
    "Operator": "OR",
    "Criterias": [
      {
        "Operator": "AND",
        "Criterias": [
          {
            "Operator": "OR",
            "Criterias": [
              {
                "Operator": "AND",
                "Criterias": [

                ],
                "Criterions": [
                  {
                    "Comment": "java-1.6.0-ibm is earlier than 1:1.6.0.16.7-1jpp.1.el5"
                  },
                  {
                    "Comment": "java-1.6.0-ibm is signed with Red Hat redhatrelease key"
                  }
                ]
              },
              {
                "Operator": "AND",
                "Criterias": [

                ],
                "Criterions": [
                  {
                    "Comment": "java-1.6.0-ibm-accessibility is earlier than 1:1.6.0.16.7-1jpp.1.el5"
                  },
                  {
                    "Comment": "java-1.6.0-ibm-accessibility is signed with Red Hat redhatrelease key"
                  }
                ]
              },
              {
                "Operator": "AND",
                "Criterias": [

                ],
                "Criterions": [
                  {
                    "Comment": "java-1.6.0-ibm-demo is earlier than 1:1.6.0.16.7-1jpp.1.el5"
                  },
                  {
                    "Comment": "java-1.6.0-ibm-demo is signed with Red Hat redhatrelease key"
                  }
                ]
              },
              {
                "Operator": "AND",
                "Criterias": [

                ],
                "Criterions": [
                  {
                    "Comment": "java-1.6.0-ibm-devel is earlier than 1:1.6.0.16.7-1jpp.1.el5"
                  },
                  {
                    "Comment": "java-1.6.0-ibm-devel is signed with Red Hat redhatrelease key"
                  }
                ]
              },
              {
                "Operator": "AND",
                "Criterias": [

                ],
                "Criterions": [
                  {
                    "Comment": "java-1.6.0-ibm-javacomm is earlier than 1:1.6.0.16.7-1jpp.1.el5"
                  },
                  {
                    "Comment": "java-1.6.0-ibm-javacomm is signed with Red Hat redhatrelease key"
                  }
                ]
              },
              {
                "Operator": "AND",
                "Criterias": [

                ],
                "Criterions": [
                  {
                    "Comment": "java-1.6.0-ibm-jdbc is earlier than 1:1.6.0.16.7-1jpp.1.el5"
                  },
                  {
                    "Comment": "java-1.6.0-ibm-jdbc is signed with Red Hat redhatrelease key"
                  }
                ]
              },
              {
                "Operator": "AND",
                "Criterias": [

                ],
                "Criterions": [
                  {
                    "Comment": "java-1.6.0-ibm-plugin is earlier than 1:1.6.0.16.7-1jpp.1.el5"
                  },
                  {
                    "Comment": "java-1.6.0-ibm-plugin is signed with Red Hat redhatrelease key"
                  }
                ]
              },
              {
                "Operator": "AND",
                "Criterias": [

                ],
                "Criterions": [
                  {
                    "Comment": "java-1.6.0-ibm-src is earlier than 1:1.6.0.16.7-1jpp.1.el5"
                  },
                  {
                    "Comment": "java-1.6.0-ibm-src is signed with Red Hat redhatrelease key"
                  }
                ]
              }
            ],
            "Criterions": [

            ]
          }
        ],
        "Criterions": [
          {
            "Comment": "Oracle Linux 5 is installed"
          }
        ]
      },
      {
        "Operator": "AND",
        "Criterias": [
          {
            "Operator": "OR",
            "Criterias": [

            ],
            "Criterions": [
              {
                "Comment": "Oracle Linux 6 Client is installed"
              },
              {
                "Comment": "Oracle Linux 6 Server is installed"
              },
              {
                "Comment": "Oracle Linux 6 Workstation is installed"
              },
              {
                "Comment": "Oracle Linux 6 ComputeNode is installed"
              }
            ]
          },
          {
            "Operator": "OR",
            "Criterias": [
              {
                "Operator": "AND",
                "Criterias": [

                ],
                "Criterions": [
                  {
                    "Comment": "java-1.6.0-ibm is earlier than 1:1.6.0.16.7-1jpp.1.el6_7"
                  },
                  {
                    "Comment": "java-1.6.0-ibm is signed with Red Hat redhatrelease2 key"
                  }
                ]
              },
              {
                "Operator": "AND",
                "Criterias": [

                ],
                "Criterions": [
                  {
                    "Comment": "java-1.6.0-ibm-demo is earlier than 1:1.6.0.16.7-1jpp.1.el6_7"
                  },
                  {
                    "Comment": "java-1.6.0-ibm-demo is signed with Red Hat redhatrelease2 key"
                  }
                ]
              },
              {
                "Operator": "AND",
                "Criterias": [

                ],
                "Criterions": [
                  {
                    "Comment": "java-1.6.0-ibm-devel is earlier than 1:1.6.0.16.7-1jpp.1.el6_7"
                  },
                  {
                    "Comment": "java-1.6.0-ibm-devel is signed with Red Hat redhatrelease2 key"
                  }
                ]
              },
              {
                "Operator": "AND",
                "Criterias": [

                ],
                "Criterions": [
                  {
                    "Comment": "java-1.6.0-ibm-javacomm is earlier than 1:1.6.0.16.7-1jpp.1.el6_7"
                  },
                  {
                    "Comment": "java-1.6.0-ibm-javacomm is signed with Red Hat redhatrelease2 key"
                  }
                ]
              },
              {
                "Operator": "AND",
                "Criterias": [

                ],
                "Criterions": [
                  {
                    "Comment": "java-1.6.0-ibm-jdbc is earlier than 1:1.6.0.16.7-1jpp.1.el6_7"
                  },
                  {
                    "Comment": "java-1.6.0-ibm-jdbc is signed with Red Hat redhatrelease2 key"
                  }
                ]
              },
              {
                "Operator": "AND",
                "Criterias": [

                ],
                "Criterions": [
                  {
                    "Comment": "java-1.6.0-ibm-plugin is earlier than 1:1.6.0.16.7-1jpp.1.el6_7"
                  },
                  {
                    "Comment": "java-1.6.0-ibm-plugin is signed with Red Hat redhatrelease2 key"
                  }
                ]
              },
              {
                "Operator": "AND",
                "Criterias": [

                ],
                "Criterions": [
                  {
                    "Comment": "java-1.6.0-ibm-src is earlier than 1:1.6.0.16.7-1jpp.1.el6_7"
                  },
                  {
                    "Comment": "java-1.6.0-ibm-src is signed with Red Hat redhatrelease2 key"
                  }
                ]
              }
            ],
            "Criterions": [

            ]
          }
        ],
        "Criterions": [

        ]
      }
    ],
    "Criterions": [

    ]
  },
  "Severity": "Critical",
  "Cves": [
    {
      "Impact": "",
      "Href": "",
      "ID": "CVE-2015-1931"
    },
    {
      "Impact": "",
      "Href": "",
      "ID": "CVE-2015-2590"
    },
    {
      "Impact": "",
      "Href": "",
      "ID": "CVE-2015-2601"
    },
    {
      "Impact": "",
      "Href": "",
      "ID": "CVE-2015-2621"
    },
    {
      "Impact": "",
      "Href": "",
      "ID": "CVE-2015-2625"
    },
    {
      "Impact": "",
      "Href": "",
      "ID": "CVE-2015-2632"
    },
    {
      "Impact": "",
      "Href": "",
      "ID": "CVE-2015-2637"
    },
    {
      "Impact": "",
      "Href": "",
      "ID": "CVE-2015-2638"
    },
    {
      "Impact": "",
      "Href": "",
      "ID": "CVE-2015-2664"
    },
    {
      "Impact": "",
      "Href": "",
      "ID": "CVE-2015-4000"
    },
    {
      "Impact": "",
      "Href": "",
      "ID": "CVE-2015-4731"
    },
    {
      "Impact": "",
      "Href": "",
      "ID": "CVE-2015-4732"
    },
    {
      "Impact": "",
      "Href": "",
      "ID": "CVE-2015-4733"
    },
    {
      "Impact": "",
      "Href": "",
      "ID": "CVE-2015-4748"
    },
    {
      "Impact": "",
      "Href": "",
      "ID": "CVE-2015-4749"
    },
    {
      "Impact": "",
      "Href": "",
      "ID": "CVE-2015-4760"
    }
  ],
  "Issued": {
    "Date": "2015-07-22"
  }
}