{
  "Title": "RHSA-2015:0330: pcre security and enhancement update (Low)",
  "Description": "PCRE is a Perl-compatible regular expression library.\nA flaw was found in the way PCRE handled certain malformed regular\nexpressions. This issue could cause an application (for example, Konqueror)\nlinked against PCRE to crash while parsing malicious regular expressions.\n(CVE-2014-8964)\nThis update also adds the following enhancement:\n* Support for the little-endian variant of IBM Power Systems has been added to the pcre packages. (BZ#1123498, BZ#1125642)\nAll pcre users are advised to upgrade to these updated packages, which\ncontain a backported patch to correct this issue and add this enhancement.",
  "Platform": [
    "Red Hat Enterprise Linux 7"
  ],
  "References": [
    {
      "Source": "RHSA",
      "URI": "https://access.redhat.com/errata/RHSA-2015:0330",
      "ID": "RHSA-2015:0330"
    },
    {
      "Source": "CVE",
      "URI": "https://access.redhat.com/security/cve/CVE-2014-8964",
      "ID": "CVE-2014-8964"
    }
  ],
  "Criteria": {
    "Operator": "OR",
    "Criterias": [
      {
        "Operator": "AND",
        "Criterias": [
          {
            "Operator": "OR",
            "Criterias": [
              {
                "Operator": "AND",
                "Criterias": [

                ],
                "Criterions": [
                  {
                    "Comment": "pcre is earlier than 0:8.32-14.el7"
                  },
                  {
                    "Comment": "pcre is signed with Red Hat redhatrelease2 key"
                  }
                ]
              },
              {
                "Operator": "AND",
                "Criterias": [

                ],
                "Criterions": [
                  {
                    "Comment": "pcre-devel is earlier than 0:8.32-14.el7"
                  },
                  {
                    "Comment": "pcre-devel is signed with Red Hat redhatrelease2 key"
                  }
                ]
              },
              {
                "Operator": "AND",
                "Criterias": [

                ],
                "Criterions": [
                  {
                    "Comment": "pcre-static is earlier than 0:8.32-14.el7"
                  },
                  {
                    "Comment": "pcre-static is signed with Red Hat redhatrelease2 key"
                  }
                ]
              },
              {
                "Operator": "AND",
                "Criterias": [

                ],
                "Criterions": [
                  {
                    "Comment": "pcre-tools is earlier than 0:8.32-14.el7"
                  },
                  {
                    "Comment": "pcre-tools is signed with Red Hat redhatrelease2 key"
                  }
                ]
              }
            ],
            "Criterions": [

            ]
          }
        ],
        "Criterions": [
          {
            "Comment": "Oracle Linux 7 is installed"
          }
        ]
      }
    ],
    "Criterions": [
      {
        "Comment": "Oracle Linux 7 is installed"
      }
    ]
  },
  "Severity": "Low",
  "Cves": [
    {
      "Impact": "",
      "Href": "",
      "ID": "CVE-2014-8964"
    }
  ],
  "Issued": {
    "Date": "2015-03-05"
  }
}