{
  "Title": "RHSA-2015:1664: nss security, bug fix, and enhancement update (Moderate)",
  "Description": "Network Security Services (NSS) is a set of libraries designed to support\ncross-platform development of security-enabled client and server\napplications.\nIt was found that NSS permitted skipping of the ServerKeyExchange packet\nduring a handshake involving ECDHE (Elliptic Curve Diffie-Hellman key\nExchange). A remote attacker could use this flaw to bypass the\nforward-secrecy of a TLS/SSL connection. (CVE-2015-2721)\nA flaw was found in the way NSS verified certain ECDSA (Elliptic Curve\nDigital Signature Algorithm) signatures. Under certain conditions, an\nattacker could use this flaw to conduct signature forgery attacks.\n(CVE-2015-2730)\nRed Hat would like to thank the Mozilla project for reporting this issue.\nUpstream acknowledges Karthikeyan Bhargavan as the original reporter of\nCVE-2015-2721, and Watson Ladd as the original reporter of CVE-2015-2730.\nThe nss packages have been upgraded to upstream version 3.19.1, which\nprovides a number of bug fixes and enhancements over the previous version.\nAll nss users are advised to upgrade to these updated packages, which\ncorrect these issues.",
  "Platform": [
    "Red Hat Enterprise Linux 5"
  ],
  "References": [
    {
      "Source": "RHSA",
      "URI": "https://access.redhat.com/errata/RHSA-2015:1664",
      "ID": "RHSA-2015:1664"
    },
    {
      "Source": "CVE",
      "URI": "https://access.redhat.com/security/cve/CVE-2015-2721",
      "ID": "CVE-2015-2721"
    },
    {
      "Source": "CVE",
      "URI": "https://access.redhat.com/security/cve/CVE-2015-2730",
      "ID": "CVE-2015-2730"
    }
  ],
  "Criteria": {
    "Operator": "OR",
    "Criterias": [
      {
        "Operator": "AND",
        "Criterias": [
          {
            "Operator": "OR",
            "Criterias": [
              {
                "Operator": "AND",
                "Criterias": [

                ],
                "Criterions": [
                  {
                    "Comment": "nss is earlier than 0:3.19.1-1.el5_11"
                  },
                  {
                    "Comment": "nss is signed with Red Hat redhatrelease2 key"
                  }
                ]
              },
              {
                "Operator": "AND",
                "Criterias": [

                ],
                "Criterions": [
                  {
                    "Comment": "nss-devel is earlier than 0:3.19.1-1.el5_11"
                  },
                  {
                    "Comment": "nss-devel is signed with Red Hat redhatrelease2 key"
                  }
                ]
              },
              {
                "Operator": "AND",
                "Criterias": [

                ],
                "Criterions": [
                  {
                    "Comment": "nss-pkcs11-devel is earlier than 0:3.19.1-1.el5_11"
                  },
                  {
                    "Comment": "nss-pkcs11-devel is signed with Red Hat redhatrelease2 key"
                  }
                ]
              },
              {
                "Operator": "AND",
                "Criterias": [

                ],
                "Criterions": [
                  {
                    "Comment": "nss-tools is earlier than 0:3.19.1-1.el5_11"
                  },
                  {
                    "Comment": "nss-tools is signed with Red Hat redhatrelease2 key"
                  }
                ]
              }
            ],
            "Criterions": [

            ]
          }
        ],
        "Criterions": [
          {
            "Comment": "Oracle Linux 5 is installed"
          }
        ]
      }
    ],
    "Criterions": [
      {
        "Comment": "Oracle Linux 5 is installed"
      }
    ]
  },
  "Severity": "Moderate",
  "Cves": [
    {
      "Impact": "",
      "Href": "",
      "ID": "CVE-2015-2721"
    },
    {
      "Impact": "",
      "Href": "",
      "ID": "CVE-2015-2730"
    }
  ],
  "Issued": {
    "Date": "2015-08-24"
  }
}