{
  "Title": "RHSA-2015:1586: firefox security update (Critical)",
  "Description": "Mozilla Firefox is an open source web browser. XULRunner provides the XUL\nRuntime environment for Mozilla Firefox.\nSeveral flaws were found in the processing of malformed web content. A web\npage containing malicious content could cause Firefox to crash or,\npotentially, execute arbitrary code with the privileges of the user running\nFirefox. (CVE-2015-4473, CVE-2015-4475, CVE-2015-4478, CVE-2015-4479,\nCVE-2015-4480, CVE-2015-4493, CVE-2015-4484, CVE-2015-4491, CVE-2015-4485,\nCVE-2015-4486, CVE-2015-4487, CVE-2015-4488, CVE-2015-4489, CVE-2015-4492)\nRed Hat would like to thank the Mozilla project for reporting these issues.\nUpstream acknowledges Gary Kwong, Christian Holler, Byron Campen, Aki\nHelin, André Bargull, Massimiliano Tomassoli, laf.intel, Massimiliano\nTomassoli, Tyson Smith, Jukka Jylänki, Gustavo Grieco, Abhishek Arya,\nRonald Crane, and Looben Yang as the original reporters of these issues.\nAll Firefox users should upgrade to these updated packages, which contain\nFirefox version 38.2 ESR, which corrects these issues. After installing the\nupdate, Firefox must be restarted for the changes to take effect.",
  "Platform": [
    "Red Hat Enterprise Linux 5",
    "Red Hat Enterprise Linux 6",
    "Red Hat Enterprise Linux 7"
  ],
  "References": [
    {
      "Source": "RHSA",
      "URI": "https://access.redhat.com/errata/RHSA-2015:1586",
      "ID": "RHSA-2015:1586"
    },
    {
      "Source": "CVE",
      "URI": "https://access.redhat.com/security/cve/CVE-2015-4473",
      "ID": "CVE-2015-4473"
    },
    {
      "Source": "CVE",
      "URI": "https://access.redhat.com/security/cve/CVE-2015-4475",
      "ID": "CVE-2015-4475"
    },
    {
      "Source": "CVE",
      "URI": "https://access.redhat.com/security/cve/CVE-2015-4478",
      "ID": "CVE-2015-4478"
    },
    {
      "Source": "CVE",
      "URI": "https://access.redhat.com/security/cve/CVE-2015-4479",
      "ID": "CVE-2015-4479"
    },
    {
      "Source": "CVE",
      "URI": "https://access.redhat.com/security/cve/CVE-2015-4480",
      "ID": "CVE-2015-4480"
    },
    {
      "Source": "CVE",
      "URI": "https://access.redhat.com/security/cve/CVE-2015-4484",
      "ID": "CVE-2015-4484"
    },
    {
      "Source": "CVE",
      "URI": "https://access.redhat.com/security/cve/CVE-2015-4485",
      "ID": "CVE-2015-4485"
    },
    {
      "Source": "CVE",
      "URI": "https://access.redhat.com/security/cve/CVE-2015-4486",
      "ID": "CVE-2015-4486"
    },
    {
      "Source": "CVE",
      "URI": "https://access.redhat.com/security/cve/CVE-2015-4487",
      "ID": "CVE-2015-4487"
    },
    {
      "Source": "CVE",
      "URI": "https://access.redhat.com/security/cve/CVE-2015-4488",
      "ID": "CVE-2015-4488"
    },
    {
      "Source": "CVE",
      "URI": "https://access.redhat.com/security/cve/CVE-2015-4489",
      "ID": "CVE-2015-4489"
    },
    {
      "Source": "CVE",
      "URI": "https://access.redhat.com/security/cve/CVE-2015-4491",
      "ID": "CVE-2015-4491"
    },
    {
      "Source": "CVE",
      "URI": "https://access.redhat.com/security/cve/CVE-2015-4492",
      "ID": "CVE-2015-4492"
    },
    {
      "Source": "CVE",
      "URI": "https://access.redhat.com/security/cve/CVE-2015-4493",
      "ID": "CVE-2015-4493"
    }
  ],
  "Criteria": {
    "Operator": "OR",
    "Criterias": [
      {
        "Operator": "AND",
        "Criterias": [

        ],
        "Criterions": [
          {
            "Comment": "Oracle Linux 5 is installed"
          },
          {
            "Comment": "firefox is earlier than 0:38.2.0-4.el5_11"
          },
          {
            "Comment": "firefox is signed with Red Hat redhatrelease2 key"
          }
        ]
      },
      {
        "Operator": "AND",
        "Criterias": [

        ],
        "Criterions": [
          {
            "Comment": "Oracle Linux 6 is installed"
          },
          {
            "Comment": "firefox is earlier than 0:38.2.0-4.el6_7"
          },
          {
            "Comment": "firefox is signed with Red Hat redhatrelease2 key"
          }
        ]
      },
      {
        "Operator": "AND",
        "Criterias": [

        ],
        "Criterions": [
          {
            "Comment": "Oracle Linux 7 is installed"
          },
          {
            "Comment": "firefox is earlier than 0:38.2.0-4.el7_1"
          },
          {
            "Comment": "firefox is signed with Red Hat redhatrelease2 key"
          }
        ]
      }
    ],
    "Criterions": [
      {
        "Comment": "Oracle Linux 5 is installed"
      }
    ]
  },
  "Severity": "Critical",
  "Cves": [
    {
      "Impact": "",
      "Href": "",
      "ID": "CVE-2015-4473"
    },
    {
      "Impact": "",
      "Href": "",
      "ID": "CVE-2015-4475"
    },
    {
      "Impact": "",
      "Href": "",
      "ID": "CVE-2015-4478"
    },
    {
      "Impact": "",
      "Href": "",
      "ID": "CVE-2015-4479"
    },
    {
      "Impact": "",
      "Href": "",
      "ID": "CVE-2015-4480"
    },
    {
      "Impact": "",
      "Href": "",
      "ID": "CVE-2015-4484"
    },
    {
      "Impact": "",
      "Href": "",
      "ID": "CVE-2015-4485"
    },
    {
      "Impact": "",
      "Href": "",
      "ID": "CVE-2015-4486"
    },
    {
      "Impact": "",
      "Href": "",
      "ID": "CVE-2015-4487"
    },
    {
      "Impact": "",
      "Href": "",
      "ID": "CVE-2015-4488"
    },
    {
      "Impact": "",
      "Href": "",
      "ID": "CVE-2015-4489"
    },
    {
      "Impact": "",
      "Href": "",
      "ID": "CVE-2015-4491"
    },
    {
      "Impact": "",
      "Href": "",
      "ID": "CVE-2015-4492"
    },
    {
      "Impact": "",
      "Href": "",
      "ID": "CVE-2015-4493"
    }
  ],
  "Issued": {
    "Date": "2015-08-11"
  }
}