{
  "Title": "RHSA-2015:0140: flash-plugin security update (Critical)",
  "Description": "The flash-plugin package contains a Mozilla Firefox compatible Adobe Flash\nPlayer web browser plug-in.\nThis update fixes multiple vulnerabilities in Adobe Flash Player. These\nvulnerabilities are detailed in the Adobe Security Bulletin APSB15-04\nlisted in the References section.\nMultiple flaws were found in the way flash-plugin displayed certain SWF\ncontent. An attacker could use these flaws to create a specially crafted\nSWF file that would cause flash-plugin to crash or, potentially, execute\narbitrary code when the victim loaded a page containing the malicious SWF\ncontent. (CVE-2015-0314, CVE-2015-0315, CVE-2015-0316, CVE-2015-0317,\nCVE-2015-0318, CVE-2015-0319, CVE-2015-0320, CVE-2015-0321, CVE-2015-0322,\nCVE-2015-0323, CVE-2015-0324, CVE-2015-0325, CVE-2015-0326, CVE-2015-0327,\nCVE-2015-0328, CVE-2015-0329, CVE-2015-0330)\nAll users of Adobe Flash Player should install this updated package, which\nupgrades Flash Player to version 11.2.202.442.",
  "Platform": [
    "Supplementary for Red Hat Enterprise Linux 6",
    "Supplementary for Red Hat Enterprise Linux 5"
  ],
  "References": [
    {
      "Source": "RHSA",
      "URI": "https://rhn.redhat.com/errata/RHSA-2015-0140.html",
      "ID": "RHSA-2015:0140-01"
    },
    {
      "Source": "CVE",
      "URI": "https://access.redhat.com/security/cve/CVE-2015-0314",
      "ID": "CVE-2015-0314"
    },
    {
      "Source": "CVE",
      "URI": "https://access.redhat.com/security/cve/CVE-2015-0315",
      "ID": "CVE-2015-0315"
    },
    {
      "Source": "CVE",
      "URI": "https://access.redhat.com/security/cve/CVE-2015-0316",
      "ID": "CVE-2015-0316"
    },
    {
      "Source": "CVE",
      "URI": "https://access.redhat.com/security/cve/CVE-2015-0317",
      "ID": "CVE-2015-0317"
    },
    {
      "Source": "CVE",
      "URI": "https://access.redhat.com/security/cve/CVE-2015-0318",
      "ID": "CVE-2015-0318"
    },
    {
      "Source": "CVE",
      "URI": "https://access.redhat.com/security/cve/CVE-2015-0319",
      "ID": "CVE-2015-0319"
    },
    {
      "Source": "CVE",
      "URI": "https://access.redhat.com/security/cve/CVE-2015-0320",
      "ID": "CVE-2015-0320"
    },
    {
      "Source": "CVE",
      "URI": "https://access.redhat.com/security/cve/CVE-2015-0321",
      "ID": "CVE-2015-0321"
    },
    {
      "Source": "CVE",
      "URI": "https://access.redhat.com/security/cve/CVE-2015-0322",
      "ID": "CVE-2015-0322"
    },
    {
      "Source": "CVE",
      "URI": "https://access.redhat.com/security/cve/CVE-2015-0323",
      "ID": "CVE-2015-0323"
    },
    {
      "Source": "CVE",
      "URI": "https://access.redhat.com/security/cve/CVE-2015-0324",
      "ID": "CVE-2015-0324"
    },
    {
      "Source": "CVE",
      "URI": "https://access.redhat.com/security/cve/CVE-2015-0325",
      "ID": "CVE-2015-0325"
    },
    {
      "Source": "CVE",
      "URI": "https://access.redhat.com/security/cve/CVE-2015-0326",
      "ID": "CVE-2015-0326"
    },
    {
      "Source": "CVE",
      "URI": "https://access.redhat.com/security/cve/CVE-2015-0327",
      "ID": "CVE-2015-0327"
    },
    {
      "Source": "CVE",
      "URI": "https://access.redhat.com/security/cve/CVE-2015-0328",
      "ID": "CVE-2015-0328"
    },
    {
      "Source": "CVE",
      "URI": "https://access.redhat.com/security/cve/CVE-2015-0329",
      "ID": "CVE-2015-0329"
    },
    {
      "Source": "CVE",
      "URI": "https://access.redhat.com/security/cve/CVE-2015-0330",
      "ID": "CVE-2015-0330"
    },
    {
      "Source": "CVE",
      "URI": "https://access.redhat.com/security/cve/CVE-2015-0331",
      "ID": "CVE-2015-0331"
    }
  ],
  "Criteria": {
    "Operator": "OR",
    "Criterias": [
      {
        "Operator": "AND",
        "Criterias": [

        ],
        "Criterions": [
          {
            "Comment": "Oracle Linux 5 is installed"
          },
          {
            "Comment": "flash-plugin is earlier than 0:11.2.202.442-1.el5"
          },
          {
            "Comment": "flash-plugin is signed with Red Hat redhatrelease key"
          }
        ]
      },
      {
        "Operator": "AND",
        "Criterias": [
          {
            "Operator": "OR",
            "Criterias": [

            ],
            "Criterions": [
              {
                "Comment": "Oracle Linux 6 Client is installed"
              },
              {
                "Comment": "Oracle Linux 6 Server is installed"
              },
              {
                "Comment": "Oracle Linux 6 Workstation is installed"
              },
              {
                "Comment": "Oracle Linux 6 ComputeNode is installed"
              }
            ]
          }
        ],
        "Criterions": [
          {
            "Comment": "flash-plugin is earlier than 0:11.2.202.442-1.el6"
          },
          {
            "Comment": "flash-plugin is signed with Red Hat redhatrelease2 key"
          }
        ]
      }
    ],
    "Criterions": [

    ]
  },
  "Severity": "Critical",
  "Cves": [
    {
      "Impact": "",
      "Href": "",
      "ID": "CVE-2015-0314"
    },
    {
      "Impact": "",
      "Href": "",
      "ID": "CVE-2015-0315"
    },
    {
      "Impact": "",
      "Href": "",
      "ID": "CVE-2015-0316"
    },
    {
      "Impact": "",
      "Href": "",
      "ID": "CVE-2015-0317"
    },
    {
      "Impact": "",
      "Href": "",
      "ID": "CVE-2015-0318"
    },
    {
      "Impact": "",
      "Href": "",
      "ID": "CVE-2015-0319"
    },
    {
      "Impact": "",
      "Href": "",
      "ID": "CVE-2015-0320"
    },
    {
      "Impact": "",
      "Href": "",
      "ID": "CVE-2015-0321"
    },
    {
      "Impact": "",
      "Href": "",
      "ID": "CVE-2015-0322"
    },
    {
      "Impact": "",
      "Href": "",
      "ID": "CVE-2015-0323"
    },
    {
      "Impact": "",
      "Href": "",
      "ID": "CVE-2015-0324"
    },
    {
      "Impact": "",
      "Href": "",
      "ID": "CVE-2015-0325"
    },
    {
      "Impact": "",
      "Href": "",
      "ID": "CVE-2015-0326"
    },
    {
      "Impact": "",
      "Href": "",
      "ID": "CVE-2015-0327"
    },
    {
      "Impact": "",
      "Href": "",
      "ID": "CVE-2015-0328"
    },
    {
      "Impact": "",
      "Href": "",
      "ID": "CVE-2015-0329"
    },
    {
      "Impact": "",
      "Href": "",
      "ID": "CVE-2015-0330"
    },
    {
      "Impact": "",
      "Href": "",
      "ID": "CVE-2015-0331"
    }
  ],
  "Issued": {
    "Date": "2015-02-06"
  }
}