{
  "Title": "RHSA-2015:0816: chromium-browser security update (Important)",
  "Description": "Chromium is an open-source web browser, powered by WebKit (Blink).\nSeveral flaws were found in the processing of malformed web content. A web\npage containing malicious content could cause Chromium to crash or,\npotentially, execute arbitrary code with the privileges of the user running\nChromium.(CVE-2015-1235, CVE-2015-1236, CVE-2015-1237, CVE-2015-1238,\nCVE-2015-1240, CVE-2015-1241, CVE-2015-1242, CVE-2015-1244, CVE-2015-1245,\nCVE-2015-1246, CVE-2015-1247, CVE-2015-1248, CVE-2015-1249)\nAll Chromium users should upgrade to these updated packages, which contain\nChromium version 42.0.2311.90, which corrects these issues. After\ninstalling the update, Chromium must be restarted for the changes to take\neffect.",
  "Platform": [
    "Supplementary for Red Hat Enterprise Linux 6"
  ],
  "References": [
    {
      "Source": "RHSA",
      "URI": "https://rhn.redhat.com/errata/RHSA-2015-0816.html",
      "ID": "RHSA-2015:0816-00"
    },
    {
      "Source": "CVE",
      "URI": "https://access.redhat.com/security/cve/CVE-2015-1235",
      "ID": "CVE-2015-1235"
    },
    {
      "Source": "CVE",
      "URI": "https://access.redhat.com/security/cve/CVE-2015-1236",
      "ID": "CVE-2015-1236"
    },
    {
      "Source": "CVE",
      "URI": "https://access.redhat.com/security/cve/CVE-2015-1237",
      "ID": "CVE-2015-1237"
    },
    {
      "Source": "CVE",
      "URI": "https://access.redhat.com/security/cve/CVE-2015-1238",
      "ID": "CVE-2015-1238"
    },
    {
      "Source": "CVE",
      "URI": "https://access.redhat.com/security/cve/CVE-2015-1240",
      "ID": "CVE-2015-1240"
    },
    {
      "Source": "CVE",
      "URI": "https://access.redhat.com/security/cve/CVE-2015-1241",
      "ID": "CVE-2015-1241"
    },
    {
      "Source": "CVE",
      "URI": "https://access.redhat.com/security/cve/CVE-2015-1242",
      "ID": "CVE-2015-1242"
    },
    {
      "Source": "CVE",
      "URI": "https://access.redhat.com/security/cve/CVE-2015-1244",
      "ID": "CVE-2015-1244"
    },
    {
      "Source": "CVE",
      "URI": "https://access.redhat.com/security/cve/CVE-2015-1245",
      "ID": "CVE-2015-1245"
    },
    {
      "Source": "CVE",
      "URI": "https://access.redhat.com/security/cve/CVE-2015-1246",
      "ID": "CVE-2015-1246"
    },
    {
      "Source": "CVE",
      "URI": "https://access.redhat.com/security/cve/CVE-2015-1247",
      "ID": "CVE-2015-1247"
    },
    {
      "Source": "CVE",
      "URI": "https://access.redhat.com/security/cve/CVE-2015-1248",
      "ID": "CVE-2015-1248"
    },
    {
      "Source": "CVE",
      "URI": "https://access.redhat.com/security/cve/CVE-2015-1249",
      "ID": "CVE-2015-1249"
    }
  ],
  "Criteria": {
    "Operator": "AND",
    "Criterias": [
      {
        "Operator": "OR",
        "Criterias": [

        ],
        "Criterions": [
          {
            "Comment": "Oracle Linux 6 Client is installed"
          },
          {
            "Comment": "Oracle Linux 6 Server is installed"
          },
          {
            "Comment": "Oracle Linux 6 Workstation is installed"
          },
          {
            "Comment": "Oracle Linux 6 ComputeNode is installed"
          }
        ]
      }
    ],
    "Criterions": [
      {
        "Comment": "chromium-browser is earlier than 0:42.0.2311.90-1.el6_6"
      },
      {
        "Comment": "chromium-browser is signed with Red Hat redhatrelease2 key"
      }
    ]
  },
  "Severity": "Important",
  "Cves": [
    {
      "Impact": "",
      "Href": "",
      "ID": "CVE-2015-1235"
    },
    {
      "Impact": "",
      "Href": "",
      "ID": "CVE-2015-1236"
    },
    {
      "Impact": "",
      "Href": "",
      "ID": "CVE-2015-1237"
    },
    {
      "Impact": "",
      "Href": "",
      "ID": "CVE-2015-1238"
    },
    {
      "Impact": "",
      "Href": "",
      "ID": "CVE-2015-1240"
    },
    {
      "Impact": "",
      "Href": "",
      "ID": "CVE-2015-1241"
    },
    {
      "Impact": "",
      "Href": "",
      "ID": "CVE-2015-1242"
    },
    {
      "Impact": "",
      "Href": "",
      "ID": "CVE-2015-1244"
    },
    {
      "Impact": "",
      "Href": "",
      "ID": "CVE-2015-1245"
    },
    {
      "Impact": "",
      "Href": "",
      "ID": "CVE-2015-1246"
    },
    {
      "Impact": "",
      "Href": "",
      "ID": "CVE-2015-1247"
    },
    {
      "Impact": "",
      "Href": "",
      "ID": "CVE-2015-1248"
    },
    {
      "Impact": "",
      "Href": "",
      "ID": "CVE-2015-1249"
    }
  ],
  "Issued": {
    "Date": "2015-04-16"
  }
}