{
  "Title": "RHSA-2015:0672: bind security update (Moderate)",
  "Description": "The Berkeley Internet Name Domain (BIND) is an implementation of the Domain\nName System (DNS) protocols. BIND includes a DNS server (named); a resolver\nlibrary (routines for applications to use when interfacing with DNS); and\ntools for verifying that the DNS server is operating correctly.\nA flaw was found in the way BIND handled trust anchor management. A remote\nattacker could use this flaw to cause the BIND daemon (named) to crash\nunder certain conditions. (CVE-2015-1349)\nRed Hat would like to thank ISC for reporting this issue.\nAll bind users are advised to upgrade to these updated packages, which\ncontain a backported patch to correct this issue. After installing the\nupdate, the BIND daemon (named) will be restarted automatically.",
  "Platform": [
    "Red Hat Enterprise Linux 6",
    "Red Hat Enterprise Linux 7"
  ],
  "References": [
    {
      "Source": "RHSA",
      "URI": "https://access.redhat.com/errata/RHSA-2015:0672",
      "ID": "RHSA-2015:0672"
    },
    {
      "Source": "CVE",
      "URI": "https://access.redhat.com/security/cve/CVE-2015-1349",
      "ID": "CVE-2015-1349"
    }
  ],
  "Criteria": {
    "Operator": "OR",
    "Criterias": [
      {
        "Operator": "AND",
        "Criterias": [
          {
            "Operator": "OR",
            "Criterias": [
              {
                "Operator": "AND",
                "Criterias": [

                ],
                "Criterions": [
                  {
                    "Comment": "bind is earlier than 32:9.8.2-0.30.rc1.el6_6.2"
                  },
                  {
                    "Comment": "bind is signed with Red Hat redhatrelease2 key"
                  }
                ]
              },
              {
                "Operator": "AND",
                "Criterias": [

                ],
                "Criterions": [
                  {
                    "Comment": "bind-chroot is earlier than 32:9.8.2-0.30.rc1.el6_6.2"
                  },
                  {
                    "Comment": "bind-chroot is signed with Red Hat redhatrelease2 key"
                  }
                ]
              },
              {
                "Operator": "AND",
                "Criterias": [

                ],
                "Criterions": [
                  {
                    "Comment": "bind-devel is earlier than 32:9.8.2-0.30.rc1.el6_6.2"
                  },
                  {
                    "Comment": "bind-devel is signed with Red Hat redhatrelease2 key"
                  }
                ]
              },
              {
                "Operator": "AND",
                "Criterias": [

                ],
                "Criterions": [
                  {
                    "Comment": "bind-libs is earlier than 32:9.8.2-0.30.rc1.el6_6.2"
                  },
                  {
                    "Comment": "bind-libs is signed with Red Hat redhatrelease2 key"
                  }
                ]
              },
              {
                "Operator": "AND",
                "Criterias": [

                ],
                "Criterions": [
                  {
                    "Comment": "bind-sdb is earlier than 32:9.8.2-0.30.rc1.el6_6.2"
                  },
                  {
                    "Comment": "bind-sdb is signed with Red Hat redhatrelease2 key"
                  }
                ]
              },
              {
                "Operator": "AND",
                "Criterias": [

                ],
                "Criterions": [
                  {
                    "Comment": "bind-utils is earlier than 32:9.8.2-0.30.rc1.el6_6.2"
                  },
                  {
                    "Comment": "bind-utils is signed with Red Hat redhatrelease2 key"
                  }
                ]
              }
            ],
            "Criterions": [

            ]
          }
        ],
        "Criterions": [
          {
            "Comment": "Oracle Linux 6 is installed"
          }
        ]
      },
      {
        "Operator": "AND",
        "Criterias": [
          {
            "Operator": "OR",
            "Criterias": [
              {
                "Operator": "AND",
                "Criterias": [

                ],
                "Criterions": [
                  {
                    "Comment": "bind is earlier than 32:9.9.4-18.el7_1.1"
                  },
                  {
                    "Comment": "bind is signed with Red Hat redhatrelease2 key"
                  }
                ]
              },
              {
                "Operator": "AND",
                "Criterias": [

                ],
                "Criterions": [
                  {
                    "Comment": "bind-chroot is earlier than 32:9.9.4-18.el7_1.1"
                  },
                  {
                    "Comment": "bind-chroot is signed with Red Hat redhatrelease2 key"
                  }
                ]
              },
              {
                "Operator": "AND",
                "Criterias": [

                ],
                "Criterions": [
                  {
                    "Comment": "bind-devel is earlier than 32:9.9.4-18.el7_1.1"
                  },
                  {
                    "Comment": "bind-devel is signed with Red Hat redhatrelease2 key"
                  }
                ]
              },
              {
                "Operator": "AND",
                "Criterias": [

                ],
                "Criterions": [
                  {
                    "Comment": "bind-libs is earlier than 32:9.9.4-18.el7_1.1"
                  },
                  {
                    "Comment": "bind-libs is signed with Red Hat redhatrelease2 key"
                  }
                ]
              },
              {
                "Operator": "AND",
                "Criterias": [

                ],
                "Criterions": [
                  {
                    "Comment": "bind-libs-lite is earlier than 32:9.9.4-18.el7_1.1"
                  },
                  {
                    "Comment": "bind-libs-lite is signed with Red Hat redhatrelease2 key"
                  }
                ]
              },
              {
                "Operator": "AND",
                "Criterias": [

                ],
                "Criterions": [
                  {
                    "Comment": "bind-license is earlier than 32:9.9.4-18.el7_1.1"
                  },
                  {
                    "Comment": "bind-license is signed with Red Hat redhatrelease2 key"
                  }
                ]
              },
              {
                "Operator": "AND",
                "Criterias": [

                ],
                "Criterions": [
                  {
                    "Comment": "bind-lite-devel is earlier than 32:9.9.4-18.el7_1.1"
                  },
                  {
                    "Comment": "bind-lite-devel is signed with Red Hat redhatrelease2 key"
                  }
                ]
              },
              {
                "Operator": "AND",
                "Criterias": [

                ],
                "Criterions": [
                  {
                    "Comment": "bind-sdb is earlier than 32:9.9.4-18.el7_1.1"
                  },
                  {
                    "Comment": "bind-sdb is signed with Red Hat redhatrelease2 key"
                  }
                ]
              },
              {
                "Operator": "AND",
                "Criterias": [

                ],
                "Criterions": [
                  {
                    "Comment": "bind-sdb-chroot is earlier than 32:9.9.4-18.el7_1.1"
                  },
                  {
                    "Comment": "bind-sdb-chroot is signed with Red Hat redhatrelease2 key"
                  }
                ]
              },
              {
                "Operator": "AND",
                "Criterias": [

                ],
                "Criterions": [
                  {
                    "Comment": "bind-utils is earlier than 32:9.9.4-18.el7_1.1"
                  },
                  {
                    "Comment": "bind-utils is signed with Red Hat redhatrelease2 key"
                  }
                ]
              }
            ],
            "Criterions": [

            ]
          }
        ],
        "Criterions": [
          {
            "Comment": "Oracle Linux 7 is installed"
          }
        ]
      }
    ],
    "Criterions": [
      {
        "Comment": "Oracle Linux 6 is installed"
      }
    ]
  },
  "Severity": "Moderate",
  "Cves": [
    {
      "Impact": "",
      "Href": "",
      "ID": "CVE-2015-1349"
    }
  ],
  "Issued": {
    "Date": "2015-03-11"
  }
}