{
  "Title": "RHSA-2018:1927: pcs security update (Moderate)",
  "Description": "The pcs packages provide a command-line configuration system for the Pacemaker and Corosync utilities.\nSecurity Fix(es):\n* pcs: Debug parameter removal bypass, allowing information disclosure (CVE-2018-1086)\nFor more details about the security issue(s), including the impact, a CVSS score, and other related information, refer to the CVE page(s) listed in the References section.\nThis issue was discovered by Cedric Buissart (Red Hat).\nAdditional Changes:\nFor detailed information on changes in this release, see the Red Hat Enterprise Linux 6.10 Release Notes and Red Hat Enterprise Linux 6.10 Technical Notes linked from the References section.",
  "Platform": [
    "Red Hat Enterprise Linux 6"
  ],
  "References": [
    {
      "Source": "RHSA",
      "URI": "https://access.redhat.com/errata/RHSA-2018:1927",
      "ID": "RHSA-2018:1927"
    },
    {
      "Source": "CVE",
      "URI": "https://access.redhat.com/security/cve/CVE-2018-1086",
      "ID": "CVE-2018-1086"
    }
  ],
  "Criteria": {
    "Operator": "OR",
    "Criterias": [
      {
        "Operator": "AND",
        "Criterias": [

        ],
        "Criterions": [
          {
            "Comment": "Oracle Linux 6 is installed"
          },
          {
            "Comment": "pcs is earlier than 0:0.9.155-3.el6"
          },
          {
            "Comment": "pcs is signed with Red Hat redhatrelease2 key"
          }
        ]
      }
    ],
    "Criterions": [
      {
        "Comment": "Oracle Linux 6 is installed"
      }
    ]
  },
  "Severity": "Moderate",
  "Cves": [
    {
      "Impact": "",
      "Href": "",
      "ID": "CVE-2018-1086"
    }
  ],
  "Issued": {
    "Date": "2018-06-19"
  }
}