{
  "Title": "RHSA-2018:3157: curl and nss-pem security and bug fix update (Moderate)",
  "Description": "The curl packages provide the libcurl library and the curl utility for downloading files from servers using various protocols, including HTTP, FTP, and LDAP.\nThe nss-pem package provides the PEM file reader for Network Security Services (NSS) implemented as a PKCS#11 module.\nSecurity Fix(es):\n* curl: HTTP authentication leak in redirects (CVE-2018-1000007)\n* curl: FTP path trickery leads to NIL byte out of bounds write (CVE-2018-1000120)\n* curl: RTSP RTP buffer over-read (CVE-2018-1000122)\n* curl: Out-of-bounds heap read when missing RTSP headers allows information leak of denial of service (CVE-2018-1000301)\n* curl: LDAP NULL pointer dereference (CVE-2018-1000121)\nFor more details about the security issue(s), including the impact, a CVSS score, and other related information, refer to the CVE page(s) listed in the References section.\nRed Hat would like to thank the Curl project for reporting these issues. Upstream acknowledges Craig de Stigter as the original reporter of CVE-2018-1000007; Duy Phan Thanh as the original reporter of CVE-2018-1000120; Max Dymond as the original reporter of CVE-2018-1000122; the OSS-fuzz project as the original reporter of CVE-2018-1000301; and Dario Weisser as the original reporter of CVE-2018-1000121.\nAdditional Changes:\nFor detailed information on changes in this release, see the Red Hat Enterprise Linux 7.6 Release Notes linked from the References section.",
  "Platform": [
    "Red Hat Enterprise Linux 7"
  ],
  "References": [
    {
      "Source": "RHSA",
      "URI": "https://access.redhat.com/errata/RHSA-2018:3157",
      "ID": "RHSA-2018:3157"
    },
    {
      "Source": "CVE",
      "URI": "https://access.redhat.com/security/cve/CVE-2018-1000007",
      "ID": "CVE-2018-1000007"
    },
    {
      "Source": "CVE",
      "URI": "https://access.redhat.com/security/cve/CVE-2018-1000120",
      "ID": "CVE-2018-1000120"
    },
    {
      "Source": "CVE",
      "URI": "https://access.redhat.com/security/cve/CVE-2018-1000121",
      "ID": "CVE-2018-1000121"
    },
    {
      "Source": "CVE",
      "URI": "https://access.redhat.com/security/cve/CVE-2018-1000122",
      "ID": "CVE-2018-1000122"
    },
    {
      "Source": "CVE",
      "URI": "https://access.redhat.com/security/cve/CVE-2018-1000301",
      "ID": "CVE-2018-1000301"
    }
  ],
  "Criteria": {
    "Operator": "OR",
    "Criterias": [
      {
        "Operator": "AND",
        "Criterias": [
          {
            "Operator": "OR",
            "Criterias": [
              {
                "Operator": "AND",
                "Criterias": [

                ],
                "Criterions": [
                  {
                    "Comment": "curl is earlier than 0:7.29.0-51.el7"
                  },
                  {
                    "Comment": "curl is signed with Red Hat redhatrelease2 key"
                  }
                ]
              },
              {
                "Operator": "AND",
                "Criterias": [

                ],
                "Criterions": [
                  {
                    "Comment": "libcurl is earlier than 0:7.29.0-51.el7"
                  },
                  {
                    "Comment": "libcurl is signed with Red Hat redhatrelease2 key"
                  }
                ]
              },
              {
                "Operator": "AND",
                "Criterias": [

                ],
                "Criterions": [
                  {
                    "Comment": "libcurl-devel is earlier than 0:7.29.0-51.el7"
                  },
                  {
                    "Comment": "libcurl-devel is signed with Red Hat redhatrelease2 key"
                  }
                ]
              },
              {
                "Operator": "AND",
                "Criterias": [

                ],
                "Criterions": [
                  {
                    "Comment": "nss-pem is earlier than 0:1.0.3-5.el7"
                  },
                  {
                    "Comment": "nss-pem is signed with Red Hat redhatrelease2 key"
                  }
                ]
              }
            ],
            "Criterions": [

            ]
          }
        ],
        "Criterions": [
          {
            "Comment": "Oracle Linux 7 is installed"
          }
        ]
      }
    ],
    "Criterions": [
      {
        "Comment": "Oracle Linux 7 is installed"
      }
    ]
  },
  "Severity": "Moderate",
  "Cves": [
    {
      "Impact": "",
      "Href": "",
      "ID": "CVE-2018-1000007"
    },
    {
      "Impact": "",
      "Href": "",
      "ID": "CVE-2018-1000120"
    },
    {
      "Impact": "",
      "Href": "",
      "ID": "CVE-2018-1000121"
    },
    {
      "Impact": "",
      "Href": "",
      "ID": "CVE-2018-1000122"
    },
    {
      "Impact": "",
      "Href": "",
      "ID": "CVE-2018-1000301"
    }
  ],
  "Issued": {
    "Date": "2018-10-30"
  }
}