{
  "Title": "RHSA-2018:3113: libvirt security, bug fix, and enhancement update (Moderate)",
  "Description": "The libvirt library contains a C API for managing and interacting with the virtualization capabilities of Linux and other operating systems. In addition, libvirt provides tools for remote management of virtualized systems.\nThe following packages have been upgraded to a later upstream version: libvirt (4.5.0). (BZ#1563169)\nSecurity Fix(es):\n* libvirt: guest could inject executable code via libnss_dns.so loaded by libvirt_lxc before init (CVE-2018-6764)\nFor more details about the security issue(s), including the impact, a CVSS score, and other related information, refer to the CVE page(s) listed in the References section.\nAdditional Changes:\nFor detailed information on changes in this release, see the Red Hat Enterprise Linux 7.6 Release Notes linked from the References section.",
  "Platform": [
    "Red Hat Enterprise Linux 7"
  ],
  "References": [
    {
      "Source": "RHSA",
      "URI": "https://access.redhat.com/errata/RHSA-2018:3113",
      "ID": "RHSA-2018:3113"
    },
    {
      "Source": "CVE",
      "URI": "https://access.redhat.com/security/cve/CVE-2018-6764",
      "ID": "CVE-2018-6764"
    }
  ],
  "Criteria": {
    "Operator": "OR",
    "Criterias": [
      {
        "Operator": "AND",
        "Criterias": [
          {
            "Operator": "OR",
            "Criterias": [
              {
                "Operator": "AND",
                "Criterias": [

                ],
                "Criterions": [
                  {
                    "Comment": "libvirt is earlier than 0:4.5.0-10.el7"
                  },
                  {
                    "Comment": "libvirt is signed with Red Hat redhatrelease2 key"
                  }
                ]
              },
              {
                "Operator": "AND",
                "Criterias": [

                ],
                "Criterions": [
                  {
                    "Comment": "libvirt-admin is earlier than 0:4.5.0-10.el7"
                  },
                  {
                    "Comment": "libvirt-admin is signed with Red Hat redhatrelease2 key"
                  }
                ]
              },
              {
                "Operator": "AND",
                "Criterias": [

                ],
                "Criterions": [
                  {
                    "Comment": "libvirt-bash-completion is earlier than 0:4.5.0-10.el7"
                  },
                  {
                    "Comment": "libvirt-bash-completion is signed with Red Hat redhatrelease2 key"
                  }
                ]
              },
              {
                "Operator": "AND",
                "Criterias": [

                ],
                "Criterions": [
                  {
                    "Comment": "libvirt-client is earlier than 0:4.5.0-10.el7"
                  },
                  {
                    "Comment": "libvirt-client is signed with Red Hat redhatrelease2 key"
                  }
                ]
              },
              {
                "Operator": "AND",
                "Criterias": [

                ],
                "Criterions": [
                  {
                    "Comment": "libvirt-daemon is earlier than 0:4.5.0-10.el7"
                  },
                  {
                    "Comment": "libvirt-daemon is signed with Red Hat redhatrelease2 key"
                  }
                ]
              },
              {
                "Operator": "AND",
                "Criterias": [

                ],
                "Criterions": [
                  {
                    "Comment": "libvirt-daemon-config-network is earlier than 0:4.5.0-10.el7"
                  },
                  {
                    "Comment": "libvirt-daemon-config-network is signed with Red Hat redhatrelease2 key"
                  }
                ]
              },
              {
                "Operator": "AND",
                "Criterias": [

                ],
                "Criterions": [
                  {
                    "Comment": "libvirt-daemon-config-nwfilter is earlier than 0:4.5.0-10.el7"
                  },
                  {
                    "Comment": "libvirt-daemon-config-nwfilter is signed with Red Hat redhatrelease2 key"
                  }
                ]
              },
              {
                "Operator": "AND",
                "Criterias": [

                ],
                "Criterions": [
                  {
                    "Comment": "libvirt-daemon-driver-interface is earlier than 0:4.5.0-10.el7"
                  },
                  {
                    "Comment": "libvirt-daemon-driver-interface is signed with Red Hat redhatrelease2 key"
                  }
                ]
              },
              {
                "Operator": "AND",
                "Criterias": [

                ],
                "Criterions": [
                  {
                    "Comment": "libvirt-daemon-driver-lxc is earlier than 0:4.5.0-10.el7"
                  },
                  {
                    "Comment": "libvirt-daemon-driver-lxc is signed with Red Hat redhatrelease2 key"
                  }
                ]
              },
              {
                "Operator": "AND",
                "Criterias": [

                ],
                "Criterions": [
                  {
                    "Comment": "libvirt-daemon-driver-network is earlier than 0:4.5.0-10.el7"
                  },
                  {
                    "Comment": "libvirt-daemon-driver-network is signed with Red Hat redhatrelease2 key"
                  }
                ]
              },
              {
                "Operator": "AND",
                "Criterias": [

                ],
                "Criterions": [
                  {
                    "Comment": "libvirt-daemon-driver-nodedev is earlier than 0:4.5.0-10.el7"
                  },
                  {
                    "Comment": "libvirt-daemon-driver-nodedev is signed with Red Hat redhatrelease2 key"
                  }
                ]
              },
              {
                "Operator": "AND",
                "Criterias": [

                ],
                "Criterions": [
                  {
                    "Comment": "libvirt-daemon-driver-nwfilter is earlier than 0:4.5.0-10.el7"
                  },
                  {
                    "Comment": "libvirt-daemon-driver-nwfilter is signed with Red Hat redhatrelease2 key"
                  }
                ]
              },
              {
                "Operator": "AND",
                "Criterias": [

                ],
                "Criterions": [
                  {
                    "Comment": "libvirt-daemon-driver-qemu is earlier than 0:4.5.0-10.el7"
                  },
                  {
                    "Comment": "libvirt-daemon-driver-qemu is signed with Red Hat redhatrelease2 key"
                  }
                ]
              },
              {
                "Operator": "AND",
                "Criterias": [

                ],
                "Criterions": [
                  {
                    "Comment": "libvirt-daemon-driver-secret is earlier than 0:4.5.0-10.el7"
                  },
                  {
                    "Comment": "libvirt-daemon-driver-secret is signed with Red Hat redhatrelease2 key"
                  }
                ]
              },
              {
                "Operator": "AND",
                "Criterias": [

                ],
                "Criterions": [
                  {
                    "Comment": "libvirt-daemon-driver-storage is earlier than 0:4.5.0-10.el7"
                  },
                  {
                    "Comment": "libvirt-daemon-driver-storage is signed with Red Hat redhatrelease2 key"
                  }
                ]
              },
              {
                "Operator": "AND",
                "Criterias": [

                ],
                "Criterions": [
                  {
                    "Comment": "libvirt-daemon-driver-storage-core is earlier than 0:4.5.0-10.el7"
                  },
                  {
                    "Comment": "libvirt-daemon-driver-storage-core is signed with Red Hat redhatrelease2 key"
                  }
                ]
              },
              {
                "Operator": "AND",
                "Criterias": [

                ],
                "Criterions": [
                  {
                    "Comment": "libvirt-daemon-driver-storage-disk is earlier than 0:4.5.0-10.el7"
                  },
                  {
                    "Comment": "libvirt-daemon-driver-storage-disk is signed with Red Hat redhatrelease2 key"
                  }
                ]
              },
              {
                "Operator": "AND",
                "Criterias": [

                ],
                "Criterions": [
                  {
                    "Comment": "libvirt-daemon-driver-storage-gluster is earlier than 0:4.5.0-10.el7"
                  },
                  {
                    "Comment": "libvirt-daemon-driver-storage-gluster is signed with Red Hat redhatrelease2 key"
                  }
                ]
              },
              {
                "Operator": "AND",
                "Criterias": [

                ],
                "Criterions": [
                  {
                    "Comment": "libvirt-daemon-driver-storage-iscsi is earlier than 0:4.5.0-10.el7"
                  },
                  {
                    "Comment": "libvirt-daemon-driver-storage-iscsi is signed with Red Hat redhatrelease2 key"
                  }
                ]
              },
              {
                "Operator": "AND",
                "Criterias": [

                ],
                "Criterions": [
                  {
                    "Comment": "libvirt-daemon-driver-storage-logical is earlier than 0:4.5.0-10.el7"
                  },
                  {
                    "Comment": "libvirt-daemon-driver-storage-logical is signed with Red Hat redhatrelease2 key"
                  }
                ]
              },
              {
                "Operator": "AND",
                "Criterias": [

                ],
                "Criterions": [
                  {
                    "Comment": "libvirt-daemon-driver-storage-mpath is earlier than 0:4.5.0-10.el7"
                  },
                  {
                    "Comment": "libvirt-daemon-driver-storage-mpath is signed with Red Hat redhatrelease2 key"
                  }
                ]
              },
              {
                "Operator": "AND",
                "Criterias": [

                ],
                "Criterions": [
                  {
                    "Comment": "libvirt-daemon-driver-storage-rbd is earlier than 0:4.5.0-10.el7"
                  },
                  {
                    "Comment": "libvirt-daemon-driver-storage-rbd is signed with Red Hat redhatrelease2 key"
                  }
                ]
              },
              {
                "Operator": "AND",
                "Criterias": [

                ],
                "Criterions": [
                  {
                    "Comment": "libvirt-daemon-driver-storage-scsi is earlier than 0:4.5.0-10.el7"
                  },
                  {
                    "Comment": "libvirt-daemon-driver-storage-scsi is signed with Red Hat redhatrelease2 key"
                  }
                ]
              },
              {
                "Operator": "AND",
                "Criterias": [

                ],
                "Criterions": [
                  {
                    "Comment": "libvirt-daemon-kvm is earlier than 0:4.5.0-10.el7"
                  },
                  {
                    "Comment": "libvirt-daemon-kvm is signed with Red Hat redhatrelease2 key"
                  }
                ]
              },
              {
                "Operator": "AND",
                "Criterias": [

                ],
                "Criterions": [
                  {
                    "Comment": "libvirt-daemon-lxc is earlier than 0:4.5.0-10.el7"
                  },
                  {
                    "Comment": "libvirt-daemon-lxc is signed with Red Hat redhatrelease2 key"
                  }
                ]
              },
              {
                "Operator": "AND",
                "Criterias": [

                ],
                "Criterions": [
                  {
                    "Comment": "libvirt-devel is earlier than 0:4.5.0-10.el7"
                  },
                  {
                    "Comment": "libvirt-devel is signed with Red Hat redhatrelease2 key"
                  }
                ]
              },
              {
                "Operator": "AND",
                "Criterias": [

                ],
                "Criterions": [
                  {
                    "Comment": "libvirt-docs is earlier than 0:4.5.0-10.el7"
                  },
                  {
                    "Comment": "libvirt-docs is signed with Red Hat redhatrelease2 key"
                  }
                ]
              },
              {
                "Operator": "AND",
                "Criterias": [

                ],
                "Criterions": [
                  {
                    "Comment": "libvirt-libs is earlier than 0:4.5.0-10.el7"
                  },
                  {
                    "Comment": "libvirt-libs is signed with Red Hat redhatrelease2 key"
                  }
                ]
              },
              {
                "Operator": "AND",
                "Criterias": [

                ],
                "Criterions": [
                  {
                    "Comment": "libvirt-lock-sanlock is earlier than 0:4.5.0-10.el7"
                  },
                  {
                    "Comment": "libvirt-lock-sanlock is signed with Red Hat redhatrelease2 key"
                  }
                ]
              },
              {
                "Operator": "AND",
                "Criterias": [

                ],
                "Criterions": [
                  {
                    "Comment": "libvirt-login-shell is earlier than 0:4.5.0-10.el7"
                  },
                  {
                    "Comment": "libvirt-login-shell is signed with Red Hat redhatrelease2 key"
                  }
                ]
              },
              {
                "Operator": "AND",
                "Criterias": [

                ],
                "Criterions": [
                  {
                    "Comment": "libvirt-nss is earlier than 0:4.5.0-10.el7"
                  },
                  {
                    "Comment": "libvirt-nss is signed with Red Hat redhatrelease2 key"
                  }
                ]
              }
            ],
            "Criterions": [

            ]
          }
        ],
        "Criterions": [
          {
            "Comment": "Oracle Linux 7 is installed"
          }
        ]
      }
    ],
    "Criterions": [
      {
        "Comment": "Oracle Linux 7 is installed"
      }
    ]
  },
  "Severity": "Moderate",
  "Cves": [
    {
      "Impact": "",
      "Href": "",
      "ID": "CVE-2018-6764"
    }
  ],
  "Issued": {
    "Date": "2018-10-30"
  }
}