{
  "Title": "RHSA-2018:3092: glibc security, bug fix, and enhancement update (Moderate)",
  "Description": "The glibc packages provide the standard C libraries (libc), POSIX thread libraries (libpthread), standard math libraries (libm), and the name service cache daemon (nscd) used by multiple programs on the system. Without these libraries, the Linux system cannot function correctly.\nSecurity Fix(es):\n* glibc: Incorrect handling of RPATH in elf/dl-load.c can be used to execute code loaded from arbitrary libraries (CVE-2017-16997)\n* glibc: Integer overflow in posix_memalign in memalign functions (CVE-2018-6485)\n* glibc: Integer overflow in stdlib/canonicalize.c on 32-bit architectures leading to stack-based buffer overflow (CVE-2018-11236)\n* glibc: Buffer overflow in __mempcpy_avx512_no_vzeroupper (CVE-2018-11237)\nFor more details about the security issue(s), including the impact, a CVSS score, and other related information, refer to the CVE page(s) listed in the References section.\nAdditional Changes:\nFor detailed information on changes in this release, see the Red Hat Enterprise Linux 7.6 Release Notes linked from the References section.",
  "Platform": [
    "Red Hat Enterprise Linux 7"
  ],
  "References": [
    {
      "Source": "RHSA",
      "URI": "https://access.redhat.com/errata/RHSA-2018:3092",
      "ID": "RHSA-2018:3092"
    },
    {
      "Source": "CVE",
      "URI": "https://access.redhat.com/security/cve/CVE-2017-16997",
      "ID": "CVE-2017-16997"
    },
    {
      "Source": "CVE",
      "URI": "https://access.redhat.com/security/cve/CVE-2018-11236",
      "ID": "CVE-2018-11236"
    },
    {
      "Source": "CVE",
      "URI": "https://access.redhat.com/security/cve/CVE-2018-11237",
      "ID": "CVE-2018-11237"
    },
    {
      "Source": "CVE",
      "URI": "https://access.redhat.com/security/cve/CVE-2018-6485",
      "ID": "CVE-2018-6485"
    }
  ],
  "Criteria": {
    "Operator": "OR",
    "Criterias": [
      {
        "Operator": "AND",
        "Criterias": [
          {
            "Operator": "OR",
            "Criterias": [
              {
                "Operator": "AND",
                "Criterias": [

                ],
                "Criterions": [
                  {
                    "Comment": "glibc is earlier than 0:2.17-260.el7"
                  },
                  {
                    "Comment": "glibc is signed with Red Hat redhatrelease2 key"
                  }
                ]
              },
              {
                "Operator": "AND",
                "Criterias": [

                ],
                "Criterions": [
                  {
                    "Comment": "glibc-common is earlier than 0:2.17-260.el7"
                  },
                  {
                    "Comment": "glibc-common is signed with Red Hat redhatrelease2 key"
                  }
                ]
              },
              {
                "Operator": "AND",
                "Criterias": [

                ],
                "Criterions": [
                  {
                    "Comment": "glibc-devel is earlier than 0:2.17-260.el7"
                  },
                  {
                    "Comment": "glibc-devel is signed with Red Hat redhatrelease2 key"
                  }
                ]
              },
              {
                "Operator": "AND",
                "Criterias": [

                ],
                "Criterions": [
                  {
                    "Comment": "glibc-headers is earlier than 0:2.17-260.el7"
                  },
                  {
                    "Comment": "glibc-headers is signed with Red Hat redhatrelease2 key"
                  }
                ]
              },
              {
                "Operator": "AND",
                "Criterias": [

                ],
                "Criterions": [
                  {
                    "Comment": "glibc-static is earlier than 0:2.17-260.el7"
                  },
                  {
                    "Comment": "glibc-static is signed with Red Hat redhatrelease2 key"
                  }
                ]
              },
              {
                "Operator": "AND",
                "Criterias": [

                ],
                "Criterions": [
                  {
                    "Comment": "glibc-utils is earlier than 0:2.17-260.el7"
                  },
                  {
                    "Comment": "glibc-utils is signed with Red Hat redhatrelease2 key"
                  }
                ]
              },
              {
                "Operator": "AND",
                "Criterias": [

                ],
                "Criterions": [
                  {
                    "Comment": "nscd is earlier than 0:2.17-260.el7"
                  },
                  {
                    "Comment": "nscd is signed with Red Hat redhatrelease2 key"
                  }
                ]
              }
            ],
            "Criterions": [

            ]
          }
        ],
        "Criterions": [
          {
            "Comment": "Oracle Linux 7 is installed"
          }
        ]
      }
    ],
    "Criterions": [
      {
        "Comment": "Oracle Linux 7 is installed"
      }
    ]
  },
  "Severity": "Moderate",
  "Cves": [
    {
      "Impact": "",
      "Href": "",
      "ID": "CVE-2017-16997"
    },
    {
      "Impact": "",
      "Href": "",
      "ID": "CVE-2018-11236"
    },
    {
      "Impact": "",
      "Href": "",
      "ID": "CVE-2018-11237"
    },
    {
      "Impact": "",
      "Href": "",
      "ID": "CVE-2018-6485"
    }
  ],
  "Issued": {
    "Date": "2018-10-30"
  }
}