{
  "Title": "RHSA-2018:3760: ghostscript security update (Important)",
  "Description": "The Ghostscript suite contains utilities for rendering PostScript and PDF documents. Ghostscript translates PostScript code to common bitmap formats so that the code can be displayed or printed.\nSecurity Fix(es):\n* It was discovered that the ghostscript /invalidaccess checks fail under certain conditions. An attacker could possibly exploit this to bypass the -dSAFER protection and, for example, execute arbitrary shell commands via a specially crafted PostScript document. (CVE-2018-16509)\nRed Hat would like to thank Tavis Ormandy (Google Project Zero) for reporting this issue.",
  "Platform": [
    "Red Hat Enterprise Linux 6"
  ],
  "References": [
    {
      "Source": "RHSA",
      "URI": "https://access.redhat.com/errata/RHSA-2018:3760",
      "ID": "RHSA-2018:3760"
    },
    {
      "Source": "CVE",
      "URI": "https://access.redhat.com/security/cve/CVE-2018-16509",
      "ID": "CVE-2018-16509"
    }
  ],
  "Criteria": {
    "Operator": "OR",
    "Criterias": [
      {
        "Operator": "AND",
        "Criterias": [
          {
            "Operator": "OR",
            "Criterias": [
              {
                "Operator": "AND",
                "Criterias": [

                ],
                "Criterions": [
                  {
                    "Comment": "ghostscript is earlier than 0:8.70-24.el6_10.2"
                  },
                  {
                    "Comment": "ghostscript is signed with Red Hat redhatrelease2 key"
                  }
                ]
              },
              {
                "Operator": "AND",
                "Criterias": [

                ],
                "Criterions": [
                  {
                    "Comment": "ghostscript-devel is earlier than 0:8.70-24.el6_10.2"
                  },
                  {
                    "Comment": "ghostscript-devel is signed with Red Hat redhatrelease2 key"
                  }
                ]
              },
              {
                "Operator": "AND",
                "Criterias": [

                ],
                "Criterions": [
                  {
                    "Comment": "ghostscript-doc is earlier than 0:8.70-24.el6_10.2"
                  },
                  {
                    "Comment": "ghostscript-doc is signed with Red Hat redhatrelease2 key"
                  }
                ]
              },
              {
                "Operator": "AND",
                "Criterias": [

                ],
                "Criterions": [
                  {
                    "Comment": "ghostscript-gtk is earlier than 0:8.70-24.el6_10.2"
                  },
                  {
                    "Comment": "ghostscript-gtk is signed with Red Hat redhatrelease2 key"
                  }
                ]
              }
            ],
            "Criterions": [

            ]
          }
        ],
        "Criterions": [
          {
            "Comment": "Oracle Linux 6 is installed"
          }
        ]
      }
    ],
    "Criterions": [
      {
        "Comment": "Oracle Linux 6 is installed"
      }
    ]
  },
  "Severity": "Important",
  "Cves": [
    {
      "Impact": "",
      "Href": "",
      "ID": "CVE-2018-16509"
    }
  ],
  "Issued": {
    "Date": "2018-12-03"
  }
}