{
  "Title": "RHSA-2018:2240: openslp security update (Important)",
  "Description": "OpenSLP is an open source implementation of the Service Location Protocol (SLP) which is an Internet Engineering Task Force (IETF) standards track protocol and provides a framework to allow networking applications to discover the existence, location, and configuration of networked services in enterprise networks.\nSecurity Fix(es):\n* openslp: Heap memory corruption in slpd/slpd_process.c allows denial of service or potentially code execution (CVE-2017-17833)\nFor more details about the security issue(s), including the impact, a CVSS score, and other related information, refer to the CVE page(s) listed in the References section.",
  "Platform": [
    "Red Hat Enterprise Linux 7"
  ],
  "References": [
    {
      "Source": "RHSA",
      "URI": "https://access.redhat.com/errata/RHSA-2018:2240",
      "ID": "RHSA-2018:2240"
    },
    {
      "Source": "CVE",
      "URI": "https://access.redhat.com/security/cve/CVE-2017-17833",
      "ID": "CVE-2017-17833"
    }
  ],
  "Criteria": {
    "Operator": "OR",
    "Criterias": [
      {
        "Operator": "AND",
        "Criterias": [
          {
            "Operator": "OR",
            "Criterias": [
              {
                "Operator": "AND",
                "Criterias": [

                ],
                "Criterions": [
                  {
                    "Comment": "openslp is earlier than 1:2.0.0-7.el7_5"
                  },
                  {
                    "Comment": "openslp is signed with Red Hat redhatrelease2 key"
                  }
                ]
              },
              {
                "Operator": "AND",
                "Criterias": [

                ],
                "Criterions": [
                  {
                    "Comment": "openslp-devel is earlier than 1:2.0.0-7.el7_5"
                  },
                  {
                    "Comment": "openslp-devel is signed with Red Hat redhatrelease2 key"
                  }
                ]
              },
              {
                "Operator": "AND",
                "Criterias": [

                ],
                "Criterions": [
                  {
                    "Comment": "openslp-server is earlier than 1:2.0.0-7.el7_5"
                  },
                  {
                    "Comment": "openslp-server is signed with Red Hat redhatrelease2 key"
                  }
                ]
              }
            ],
            "Criterions": [

            ]
          }
        ],
        "Criterions": [
          {
            "Comment": "Oracle Linux 7 is installed"
          }
        ]
      }
    ],
    "Criterions": [
      {
        "Comment": "Oracle Linux 7 is installed"
      }
    ]
  },
  "Severity": "Important",
  "Cves": [
    {
      "Impact": "",
      "Href": "",
      "ID": "CVE-2017-17833"
    }
  ],
  "Issued": {
    "Date": "2018-07-23"
  }
}