{
  "Title": "RHSA-2018:0406: php security update (Moderate)",
  "Description": "PHP is an HTML-embedded scripting language commonly used with the Apache HTTP Server.\nSecurity Fix(es):\n* php: Buffer over-read from unitialized data in gdImageCreateFromGifCtx function (CVE-2017-7890)\nFor more details about the security issue(s), including the impact, a CVSS score, and other related information, refer to the CVE page(s) listed in the References section.",
  "Platform": [
    "Red Hat Enterprise Linux 7"
  ],
  "References": [
    {
      "Source": "RHSA",
      "URI": "https://access.redhat.com/errata/RHSA-2018:0406",
      "ID": "RHSA-2018:0406"
    },
    {
      "Source": "CVE",
      "URI": "https://access.redhat.com/security/cve/CVE-2017-7890",
      "ID": "CVE-2017-7890"
    }
  ],
  "Criteria": {
    "Operator": "OR",
    "Criterias": [
      {
        "Operator": "AND",
        "Criterias": [
          {
            "Operator": "OR",
            "Criterias": [
              {
                "Operator": "AND",
                "Criterias": [

                ],
                "Criterions": [
                  {
                    "Comment": "php is earlier than 0:5.4.16-43.el7_4.1"
                  },
                  {
                    "Comment": "php is signed with Red Hat redhatrelease2 key"
                  }
                ]
              },
              {
                "Operator": "AND",
                "Criterias": [

                ],
                "Criterions": [
                  {
                    "Comment": "php-bcmath is earlier than 0:5.4.16-43.el7_4.1"
                  },
                  {
                    "Comment": "php-bcmath is signed with Red Hat redhatrelease2 key"
                  }
                ]
              },
              {
                "Operator": "AND",
                "Criterias": [

                ],
                "Criterions": [
                  {
                    "Comment": "php-cli is earlier than 0:5.4.16-43.el7_4.1"
                  },
                  {
                    "Comment": "php-cli is signed with Red Hat redhatrelease2 key"
                  }
                ]
              },
              {
                "Operator": "AND",
                "Criterias": [

                ],
                "Criterions": [
                  {
                    "Comment": "php-common is earlier than 0:5.4.16-43.el7_4.1"
                  },
                  {
                    "Comment": "php-common is signed with Red Hat redhatrelease2 key"
                  }
                ]
              },
              {
                "Operator": "AND",
                "Criterias": [

                ],
                "Criterions": [
                  {
                    "Comment": "php-dba is earlier than 0:5.4.16-43.el7_4.1"
                  },
                  {
                    "Comment": "php-dba is signed with Red Hat redhatrelease2 key"
                  }
                ]
              },
              {
                "Operator": "AND",
                "Criterias": [

                ],
                "Criterions": [
                  {
                    "Comment": "php-devel is earlier than 0:5.4.16-43.el7_4.1"
                  },
                  {
                    "Comment": "php-devel is signed with Red Hat redhatrelease2 key"
                  }
                ]
              },
              {
                "Operator": "AND",
                "Criterias": [

                ],
                "Criterions": [
                  {
                    "Comment": "php-embedded is earlier than 0:5.4.16-43.el7_4.1"
                  },
                  {
                    "Comment": "php-embedded is signed with Red Hat redhatrelease2 key"
                  }
                ]
              },
              {
                "Operator": "AND",
                "Criterias": [

                ],
                "Criterions": [
                  {
                    "Comment": "php-enchant is earlier than 0:5.4.16-43.el7_4.1"
                  },
                  {
                    "Comment": "php-enchant is signed with Red Hat redhatrelease2 key"
                  }
                ]
              },
              {
                "Operator": "AND",
                "Criterias": [

                ],
                "Criterions": [
                  {
                    "Comment": "php-fpm is earlier than 0:5.4.16-43.el7_4.1"
                  },
                  {
                    "Comment": "php-fpm is signed with Red Hat redhatrelease2 key"
                  }
                ]
              },
              {
                "Operator": "AND",
                "Criterias": [

                ],
                "Criterions": [
                  {
                    "Comment": "php-gd is earlier than 0:5.4.16-43.el7_4.1"
                  },
                  {
                    "Comment": "php-gd is signed with Red Hat redhatrelease2 key"
                  }
                ]
              },
              {
                "Operator": "AND",
                "Criterias": [

                ],
                "Criterions": [
                  {
                    "Comment": "php-intl is earlier than 0:5.4.16-43.el7_4.1"
                  },
                  {
                    "Comment": "php-intl is signed with Red Hat redhatrelease2 key"
                  }
                ]
              },
              {
                "Operator": "AND",
                "Criterias": [

                ],
                "Criterions": [
                  {
                    "Comment": "php-ldap is earlier than 0:5.4.16-43.el7_4.1"
                  },
                  {
                    "Comment": "php-ldap is signed with Red Hat redhatrelease2 key"
                  }
                ]
              },
              {
                "Operator": "AND",
                "Criterias": [

                ],
                "Criterions": [
                  {
                    "Comment": "php-mbstring is earlier than 0:5.4.16-43.el7_4.1"
                  },
                  {
                    "Comment": "php-mbstring is signed with Red Hat redhatrelease2 key"
                  }
                ]
              },
              {
                "Operator": "AND",
                "Criterias": [

                ],
                "Criterions": [
                  {
                    "Comment": "php-mysql is earlier than 0:5.4.16-43.el7_4.1"
                  },
                  {
                    "Comment": "php-mysql is signed with Red Hat redhatrelease2 key"
                  }
                ]
              },
              {
                "Operator": "AND",
                "Criterias": [

                ],
                "Criterions": [
                  {
                    "Comment": "php-mysqlnd is earlier than 0:5.4.16-43.el7_4.1"
                  },
                  {
                    "Comment": "php-mysqlnd is signed with Red Hat redhatrelease2 key"
                  }
                ]
              },
              {
                "Operator": "AND",
                "Criterias": [

                ],
                "Criterions": [
                  {
                    "Comment": "php-odbc is earlier than 0:5.4.16-43.el7_4.1"
                  },
                  {
                    "Comment": "php-odbc is signed with Red Hat redhatrelease2 key"
                  }
                ]
              },
              {
                "Operator": "AND",
                "Criterias": [

                ],
                "Criterions": [
                  {
                    "Comment": "php-pdo is earlier than 0:5.4.16-43.el7_4.1"
                  },
                  {
                    "Comment": "php-pdo is signed with Red Hat redhatrelease2 key"
                  }
                ]
              },
              {
                "Operator": "AND",
                "Criterias": [

                ],
                "Criterions": [
                  {
                    "Comment": "php-pgsql is earlier than 0:5.4.16-43.el7_4.1"
                  },
                  {
                    "Comment": "php-pgsql is signed with Red Hat redhatrelease2 key"
                  }
                ]
              },
              {
                "Operator": "AND",
                "Criterias": [

                ],
                "Criterions": [
                  {
                    "Comment": "php-process is earlier than 0:5.4.16-43.el7_4.1"
                  },
                  {
                    "Comment": "php-process is signed with Red Hat redhatrelease2 key"
                  }
                ]
              },
              {
                "Operator": "AND",
                "Criterias": [

                ],
                "Criterions": [
                  {
                    "Comment": "php-pspell is earlier than 0:5.4.16-43.el7_4.1"
                  },
                  {
                    "Comment": "php-pspell is signed with Red Hat redhatrelease2 key"
                  }
                ]
              },
              {
                "Operator": "AND",
                "Criterias": [

                ],
                "Criterions": [
                  {
                    "Comment": "php-recode is earlier than 0:5.4.16-43.el7_4.1"
                  },
                  {
                    "Comment": "php-recode is signed with Red Hat redhatrelease2 key"
                  }
                ]
              },
              {
                "Operator": "AND",
                "Criterias": [

                ],
                "Criterions": [
                  {
                    "Comment": "php-snmp is earlier than 0:5.4.16-43.el7_4.1"
                  },
                  {
                    "Comment": "php-snmp is signed with Red Hat redhatrelease2 key"
                  }
                ]
              },
              {
                "Operator": "AND",
                "Criterias": [

                ],
                "Criterions": [
                  {
                    "Comment": "php-soap is earlier than 0:5.4.16-43.el7_4.1"
                  },
                  {
                    "Comment": "php-soap is signed with Red Hat redhatrelease2 key"
                  }
                ]
              },
              {
                "Operator": "AND",
                "Criterias": [

                ],
                "Criterions": [
                  {
                    "Comment": "php-xml is earlier than 0:5.4.16-43.el7_4.1"
                  },
                  {
                    "Comment": "php-xml is signed with Red Hat redhatrelease2 key"
                  }
                ]
              },
              {
                "Operator": "AND",
                "Criterias": [

                ],
                "Criterions": [
                  {
                    "Comment": "php-xmlrpc is earlier than 0:5.4.16-43.el7_4.1"
                  },
                  {
                    "Comment": "php-xmlrpc is signed with Red Hat redhatrelease2 key"
                  }
                ]
              }
            ],
            "Criterions": [

            ]
          }
        ],
        "Criterions": [
          {
            "Comment": "Oracle Linux 7 is installed"
          }
        ]
      }
    ],
    "Criterions": [
      {
        "Comment": "Oracle Linux 7 is installed"
      }
    ]
  },
  "Severity": "Moderate",
  "Cves": [
    {
      "Impact": "",
      "Href": "",
      "ID": "CVE-2017-7890"
    }
  ],
  "Issued": {
    "Date": "2018-03-06"
  }
}