{
  "Title": "RHSA-2018:1206: java-1.7.0-oracle security update (Critical)",
  "Description": "Oracle Java SE version 7 includes the Oracle Java Runtime Environment and the Oracle Java Software Development Kit.\nThis update upgrades Oracle Java SE 7 to version 7 Update 181.\nSecurity Fix(es):\n* OpenJDK: incorrect handling of Reference clones can lead to sandbox bypass (Hotspot, 8192025) (CVE-2018-2814)\n* OpenJDK: unrestricted deserialization of data from JCEKS key stores (Security, 8189997) (CVE-2018-2794)\n* OpenJDK: insufficient consistency checks in deserialization of multiple classes (Security, 8189977) (CVE-2018-2795)\n* OpenJDK: unbounded memory allocation during deserialization in PriorityBlockingQueue (Concurrency, 8189981) (CVE-2018-2796)\n* OpenJDK: unbounded memory allocation during deserialization in TabularDataSupport (JMX, 8189985) (CVE-2018-2797)\n* OpenJDK: unbounded memory allocation during deserialization in Container (AWT, 8189989) (CVE-2018-2798)\n* OpenJDK: unbounded memory allocation during deserialization in NamedNodeMapImpl (JAXP, 8189993) (CVE-2018-2799)\n* OpenJDK: RMI HTTP transport enabled by default (RMI, 8193833) (CVE-2018-2800)\n* OpenJDK: unbounded memory allocation during deserialization in StubIORImpl (Serialization, 8192757) (CVE-2018-2815)\n* OpenJDK: incorrect merging of sections in the JAR manifest (Security, 8189969) (CVE-2018-2790)\nFor more details about the security issue(s), including the impact, a CVSS score, and other related information, refer to the CVE page(s) listed in the References section.",
  "Platform": [
    "Oracle Java for Red Hat Enterprise Linux 6"
  ],
  "References": [
    {
      "Source": "RHSA",
      "URI": "https://access.redhat.com/errata/RHSA-2018:1206",
      "ID": "RHSA-2018:1206"
    },
    {
      "Source": "CVE",
      "URI": "https://access.redhat.com/security/cve/CVE-2018-2790",
      "ID": "CVE-2018-2790"
    },
    {
      "Source": "CVE",
      "URI": "https://access.redhat.com/security/cve/CVE-2018-2794",
      "ID": "CVE-2018-2794"
    },
    {
      "Source": "CVE",
      "URI": "https://access.redhat.com/security/cve/CVE-2018-2795",
      "ID": "CVE-2018-2795"
    },
    {
      "Source": "CVE",
      "URI": "https://access.redhat.com/security/cve/CVE-2018-2796",
      "ID": "CVE-2018-2796"
    },
    {
      "Source": "CVE",
      "URI": "https://access.redhat.com/security/cve/CVE-2018-2797",
      "ID": "CVE-2018-2797"
    },
    {
      "Source": "CVE",
      "URI": "https://access.redhat.com/security/cve/CVE-2018-2798",
      "ID": "CVE-2018-2798"
    },
    {
      "Source": "CVE",
      "URI": "https://access.redhat.com/security/cve/CVE-2018-2799",
      "ID": "CVE-2018-2799"
    },
    {
      "Source": "CVE",
      "URI": "https://access.redhat.com/security/cve/CVE-2018-2800",
      "ID": "CVE-2018-2800"
    },
    {
      "Source": "CVE",
      "URI": "https://access.redhat.com/security/cve/CVE-2018-2814",
      "ID": "CVE-2018-2814"
    },
    {
      "Source": "CVE",
      "URI": "https://access.redhat.com/security/cve/CVE-2018-2815",
      "ID": "CVE-2018-2815"
    }
  ],
  "Criteria": {
    "Operator": "OR",
    "Criterias": [
      {
        "Operator": "AND",
        "Criterias": [
          {
            "Operator": "OR",
            "Criterias": [
              {
                "Operator": "AND",
                "Criterias": [

                ],
                "Criterions": [
                  {
                    "Comment": "java-1.7.0-oracle is earlier than 1:1.7.0.181-1jpp.1.el6"
                  },
                  {
                    "Comment": "java-1.7.0-oracle is signed with Red Hat redhatrelease2 key"
                  }
                ]
              },
              {
                "Operator": "AND",
                "Criterias": [

                ],
                "Criterions": [
                  {
                    "Comment": "java-1.7.0-oracle-devel is earlier than 1:1.7.0.181-1jpp.1.el6"
                  },
                  {
                    "Comment": "java-1.7.0-oracle-devel is signed with Red Hat redhatrelease2 key"
                  }
                ]
              },
              {
                "Operator": "AND",
                "Criterias": [

                ],
                "Criterions": [
                  {
                    "Comment": "java-1.7.0-oracle-javafx is earlier than 1:1.7.0.181-1jpp.1.el6"
                  },
                  {
                    "Comment": "java-1.7.0-oracle-javafx is signed with Red Hat redhatrelease2 key"
                  }
                ]
              },
              {
                "Operator": "AND",
                "Criterias": [

                ],
                "Criterions": [
                  {
                    "Comment": "java-1.7.0-oracle-jdbc is earlier than 1:1.7.0.181-1jpp.1.el6"
                  },
                  {
                    "Comment": "java-1.7.0-oracle-jdbc is signed with Red Hat redhatrelease2 key"
                  }
                ]
              },
              {
                "Operator": "AND",
                "Criterias": [

                ],
                "Criterions": [
                  {
                    "Comment": "java-1.7.0-oracle-plugin is earlier than 1:1.7.0.181-1jpp.1.el6"
                  },
                  {
                    "Comment": "java-1.7.0-oracle-plugin is signed with Red Hat redhatrelease2 key"
                  }
                ]
              },
              {
                "Operator": "AND",
                "Criterias": [

                ],
                "Criterions": [
                  {
                    "Comment": "java-1.7.0-oracle-src is earlier than 1:1.7.0.181-1jpp.1.el6"
                  },
                  {
                    "Comment": "java-1.7.0-oracle-src is signed with Red Hat redhatrelease2 key"
                  }
                ]
              }
            ],
            "Criterions": [

            ]
          }
        ],
        "Criterions": [
          {
            "Comment": "Oracle Linux 6 is installed"
          }
        ]
      }
    ],
    "Criterions": [
      {
        "Comment": "Oracle Linux 6 is installed"
      }
    ]
  },
  "Severity": "Critical",
  "Cves": [
    {
      "Impact": "",
      "Href": "",
      "ID": "CVE-2018-2790"
    },
    {
      "Impact": "",
      "Href": "",
      "ID": "CVE-2018-2794"
    },
    {
      "Impact": "",
      "Href": "",
      "ID": "CVE-2018-2795"
    },
    {
      "Impact": "",
      "Href": "",
      "ID": "CVE-2018-2796"
    },
    {
      "Impact": "",
      "Href": "",
      "ID": "CVE-2018-2797"
    },
    {
      "Impact": "",
      "Href": "",
      "ID": "CVE-2018-2798"
    },
    {
      "Impact": "",
      "Href": "",
      "ID": "CVE-2018-2799"
    },
    {
      "Impact": "",
      "Href": "",
      "ID": "CVE-2018-2800"
    },
    {
      "Impact": "",
      "Href": "",
      "ID": "CVE-2018-2814"
    },
    {
      "Impact": "",
      "Href": "",
      "ID": "CVE-2018-2815"
    }
  ],
  "Issued": {
    "Date": "2018-04-23"
  }
}