{
  "Title": "RHSA-2018:1223: librelp security update (Critical)",
  "Description": "Librelp is an easy-to-use library for the Reliable Event Logging Protocol (RELP) protocol. RELP is a general-purpose, extensible logging protocol.\nSecurity Fix(es):\n* librelp: Stack-based buffer overflow in relpTcpChkPeerName function in src/tcp.c (CVE-2018-1000140)\nFor more details about the security issue(s), including the impact, a CVSS score, and other related information, refer to the CVE page(s) listed in the References section.\nRed Hat would like to thank Rainer Gerhards (rsyslog) for reporting this issue. Upstream acknowledges Bas van Schaik (lgtm.com / Semmle) and Kevin Backhouse (lgtm.com / Semmle) as the original reporters.",
  "Platform": [
    "Red Hat Enterprise Linux 7"
  ],
  "References": [
    {
      "Source": "RHSA",
      "URI": "https://access.redhat.com/errata/RHSA-2018:1223",
      "ID": "RHSA-2018:1223"
    },
    {
      "Source": "CVE",
      "URI": "https://access.redhat.com/security/cve/CVE-2018-1000140",
      "ID": "CVE-2018-1000140"
    }
  ],
  "Criteria": {
    "Operator": "OR",
    "Criterias": [
      {
        "Operator": "AND",
        "Criterias": [
          {
            "Operator": "OR",
            "Criterias": [
              {
                "Operator": "AND",
                "Criterias": [

                ],
                "Criterions": [
                  {
                    "Comment": "librelp is earlier than 0:1.2.12-1.el7_5.1"
                  },
                  {
                    "Comment": "librelp is signed with Red Hat redhatrelease2 key"
                  }
                ]
              },
              {
                "Operator": "AND",
                "Criterias": [

                ],
                "Criterions": [
                  {
                    "Comment": "librelp-devel is earlier than 0:1.2.12-1.el7_5.1"
                  },
                  {
                    "Comment": "librelp-devel is signed with Red Hat redhatrelease2 key"
                  }
                ]
              }
            ],
            "Criterions": [

            ]
          }
        ],
        "Criterions": [
          {
            "Comment": "Oracle Linux 7 is installed"
          }
        ]
      }
    ],
    "Criterions": [
      {
        "Comment": "Oracle Linux 7 is installed"
      }
    ]
  },
  "Severity": "Critical",
  "Cves": [
    {
      "Impact": "",
      "Href": "",
      "ID": "CVE-2018-1000140"
    }
  ],
  "Issued": {
    "Date": "2018-04-24"
  }
}