{
  "Title": "RHSA-2018:3854: ntp security update (Low)",
  "Description": "The Network Time Protocol (NTP) is used to synchronize a computer's time with another referenced time source. These packages include the ntpd service which continuously adjusts system time and utilities used to query and configure the ntpd service.\nSecurity Fix(es):\n* ntp: Stack-based buffer overflow in ntpq and ntpdc allows denial of service or code execution (CVE-2018-12327)\nFor more details about the security issue(s), including the impact, a CVSS score, and other related information, refer to the CVE page(s) listed in the References section.",
  "Platform": [
    "Red Hat Enterprise Linux 6"
  ],
  "References": [
    {
      "Source": "RHSA",
      "URI": "https://access.redhat.com/errata/RHSA-2018:3854",
      "ID": "RHSA-2018:3854"
    },
    {
      "Source": "CVE",
      "URI": "https://access.redhat.com/security/cve/CVE-2018-12327",
      "ID": "CVE-2018-12327"
    }
  ],
  "Criteria": {
    "Operator": "OR",
    "Criterias": [
      {
        "Operator": "AND",
        "Criterias": [
          {
            "Operator": "OR",
            "Criterias": [
              {
                "Operator": "AND",
                "Criterias": [

                ],
                "Criterions": [
                  {
                    "Comment": "ntp is earlier than 0:4.2.6p5-15.el6_10"
                  },
                  {
                    "Comment": "ntp is signed with Red Hat redhatrelease2 key"
                  }
                ]
              },
              {
                "Operator": "AND",
                "Criterias": [

                ],
                "Criterions": [
                  {
                    "Comment": "ntp-doc is earlier than 0:4.2.6p5-15.el6_10"
                  },
                  {
                    "Comment": "ntp-doc is signed with Red Hat redhatrelease2 key"
                  }
                ]
              },
              {
                "Operator": "AND",
                "Criterias": [

                ],
                "Criterions": [
                  {
                    "Comment": "ntp-perl is earlier than 0:4.2.6p5-15.el6_10"
                  },
                  {
                    "Comment": "ntp-perl is signed with Red Hat redhatrelease2 key"
                  }
                ]
              },
              {
                "Operator": "AND",
                "Criterias": [

                ],
                "Criterions": [
                  {
                    "Comment": "ntpdate is earlier than 0:4.2.6p5-15.el6_10"
                  },
                  {
                    "Comment": "ntpdate is signed with Red Hat redhatrelease2 key"
                  }
                ]
              }
            ],
            "Criterions": [

            ]
          }
        ],
        "Criterions": [
          {
            "Comment": "Oracle Linux 6 is installed"
          }
        ]
      }
    ],
    "Criterions": [
      {
        "Comment": "Oracle Linux 6 is installed"
      }
    ]
  },
  "Severity": "Low",
  "Cves": [
    {
      "Impact": "",
      "Href": "",
      "ID": "CVE-2018-12327"
    }
  ],
  "Issued": {
    "Date": "2018-12-19"
  }
}