{
  "Title": "RHSA-2018:0980: openssh security, bug fix, and enhancement update (Low)",
  "Description": "OpenSSH is an SSH protocol implementation supported by a number of Linux, UNIX, and similar operating systems. It includes the core files necessary for both the OpenSSH client and server.\nSecurity Fix(es):\n* openssh: Improper write operations in readonly mode allow for zero-length file creation (CVE-2017-15906)\nFor more details about the security issue(s), including the impact, a CVSS score, and other related information, refer to the CVE page(s) listed in the References section.\nAdditional Changes:\nFor detailed information on changes in this release, see the Red Hat Enterprise Linux 7.5 Release Notes linked from the References section.",
  "Platform": [
    "Red Hat Enterprise Linux 7"
  ],
  "References": [
    {
      "Source": "RHSA",
      "URI": "https://access.redhat.com/errata/RHSA-2018:0980",
      "ID": "RHSA-2018:0980"
    },
    {
      "Source": "CVE",
      "URI": "https://access.redhat.com/security/cve/CVE-2017-15906",
      "ID": "CVE-2017-15906"
    }
  ],
  "Criteria": {
    "Operator": "OR",
    "Criterias": [
      {
        "Operator": "AND",
        "Criterias": [
          {
            "Operator": "OR",
            "Criterias": [
              {
                "Operator": "AND",
                "Criterias": [

                ],
                "Criterions": [
                  {
                    "Comment": "openssh is earlier than 0:7.4p1-16.el7"
                  },
                  {
                    "Comment": "openssh is signed with Red Hat redhatrelease2 key"
                  }
                ]
              },
              {
                "Operator": "AND",
                "Criterias": [

                ],
                "Criterions": [
                  {
                    "Comment": "openssh-askpass is earlier than 0:7.4p1-16.el7"
                  },
                  {
                    "Comment": "openssh-askpass is signed with Red Hat redhatrelease2 key"
                  }
                ]
              },
              {
                "Operator": "AND",
                "Criterias": [

                ],
                "Criterions": [
                  {
                    "Comment": "openssh-cavs is earlier than 0:7.4p1-16.el7"
                  },
                  {
                    "Comment": "openssh-cavs is signed with Red Hat redhatrelease2 key"
                  }
                ]
              },
              {
                "Operator": "AND",
                "Criterias": [

                ],
                "Criterions": [
                  {
                    "Comment": "openssh-clients is earlier than 0:7.4p1-16.el7"
                  },
                  {
                    "Comment": "openssh-clients is signed with Red Hat redhatrelease2 key"
                  }
                ]
              },
              {
                "Operator": "AND",
                "Criterias": [

                ],
                "Criterions": [
                  {
                    "Comment": "openssh-keycat is earlier than 0:7.4p1-16.el7"
                  },
                  {
                    "Comment": "openssh-keycat is signed with Red Hat redhatrelease2 key"
                  }
                ]
              },
              {
                "Operator": "AND",
                "Criterias": [

                ],
                "Criterions": [
                  {
                    "Comment": "openssh-ldap is earlier than 0:7.4p1-16.el7"
                  },
                  {
                    "Comment": "openssh-ldap is signed with Red Hat redhatrelease2 key"
                  }
                ]
              },
              {
                "Operator": "AND",
                "Criterias": [

                ],
                "Criterions": [
                  {
                    "Comment": "openssh-server is earlier than 0:7.4p1-16.el7"
                  },
                  {
                    "Comment": "openssh-server is signed with Red Hat redhatrelease2 key"
                  }
                ]
              },
              {
                "Operator": "AND",
                "Criterias": [

                ],
                "Criterions": [
                  {
                    "Comment": "openssh-server-sysvinit is earlier than 0:7.4p1-16.el7"
                  },
                  {
                    "Comment": "openssh-server-sysvinit is signed with Red Hat redhatrelease2 key"
                  }
                ]
              },
              {
                "Operator": "AND",
                "Criterias": [

                ],
                "Criterions": [
                  {
                    "Comment": "pam_ssh_agent_auth is earlier than 0:0.10.3-2.16.el7"
                  },
                  {
                    "Comment": "pam_ssh_agent_auth is signed with Red Hat redhatrelease2 key"
                  }
                ]
              }
            ],
            "Criterions": [

            ]
          }
        ],
        "Criterions": [
          {
            "Comment": "Oracle Linux 7 is installed"
          }
        ]
      }
    ],
    "Criterions": [
      {
        "Comment": "Oracle Linux 7 is installed"
      }
    ]
  },
  "Severity": "Low",
  "Cves": [
    {
      "Impact": "",
      "Href": "",
      "ID": "CVE-2017-15906"
    }
  ],
  "Issued": {
    "Date": "2018-04-10"
  }
}