{
  "Title": "RHSA-2018:3052: wget security and bug fix update (Moderate)",
  "Description": "The wget packages provide the GNU Wget file retrieval utility for HTTP, HTTPS, and FTP protocols.\nSecurity Fix(es):\n* wget: Cookie injection allows malicious website to write arbitrary cookie entries into cookie jar (CVE-2018-0494)\nFor more details about the security issue(s), including the impact, a CVSS score, and other related information, refer to the CVE page(s) listed in the References section.\nAdditional Changes:\nFor detailed information on changes in this release, see the Red Hat Enterprise Linux 7.6 Release Notes linked from the References section.",
  "Platform": [
    "Red Hat Enterprise Linux 7"
  ],
  "References": [
    {
      "Source": "RHSA",
      "URI": "https://access.redhat.com/errata/RHSA-2018:3052",
      "ID": "RHSA-2018:3052"
    },
    {
      "Source": "CVE",
      "URI": "https://access.redhat.com/security/cve/CVE-2018-0494",
      "ID": "CVE-2018-0494"
    }
  ],
  "Criteria": {
    "Operator": "OR",
    "Criterias": [
      {
        "Operator": "AND",
        "Criterias": [

        ],
        "Criterions": [
          {
            "Comment": "Oracle Linux 7 is installed"
          },
          {
            "Comment": "wget is earlier than 0:1.14-18.el7"
          },
          {
            "Comment": "wget is signed with Red Hat redhatrelease2 key"
          }
        ]
      }
    ],
    "Criterions": [
      {
        "Comment": "Oracle Linux 7 is installed"
      }
    ]
  },
  "Severity": "Moderate",
  "Cves": [
    {
      "Impact": "",
      "Href": "",
      "ID": "CVE-2018-0494"
    }
  ],
  "Issued": {
    "Date": "2018-10-30"
  }
}