{
  "Title": "RHSA-2018:1454: dhcp security update (Critical)",
  "Description": "The Dynamic Host Configuration Protocol (DHCP) is a protocol that allows individual devices on an IP network to get their own network configuration information, including an IP address, a subnet mask, and a broadcast address. The dhcp packages provide a relay agent and ISC DHCP service required to enable and administer DHCP on a network.\nSecurity Fix(es):\n* A command injection flaw was found in the NetworkManager integration script included in the DHCP client packages in Red Hat Enterprise Linux. A malicious DHCP server, or an attacker on the local network able to spoof DHCP responses, could use this flaw to execute arbitrary commands with root privileges on systems using NetworkManager and configured to obtain network configuration using the DHCP protocol. (CVE-2018-1111)\nRed Hat would like to thank Felix Wilhelm (Google Security Team) for reporting this issue.",
  "Platform": [
    "Red Hat Enterprise Linux 6"
  ],
  "References": [
    {
      "Source": "RHSA",
      "URI": "https://access.redhat.com/errata/RHSA-2018:1454",
      "ID": "RHSA-2018:1454"
    },
    {
      "Source": "CVE",
      "URI": "https://access.redhat.com/security/cve/CVE-2018-1111",
      "ID": "CVE-2018-1111"
    }
  ],
  "Criteria": {
    "Operator": "OR",
    "Criterias": [
      {
        "Operator": "AND",
        "Criterias": [
          {
            "Operator": "OR",
            "Criterias": [
              {
                "Operator": "AND",
                "Criterias": [

                ],
                "Criterions": [
                  {
                    "Comment": "dhclient is earlier than 12:4.1.1-53.P1.el6_9.4"
                  },
                  {
                    "Comment": "dhclient is signed with Red Hat redhatrelease2 key"
                  }
                ]
              },
              {
                "Operator": "AND",
                "Criterias": [

                ],
                "Criterions": [
                  {
                    "Comment": "dhcp is earlier than 12:4.1.1-53.P1.el6_9.4"
                  },
                  {
                    "Comment": "dhcp is signed with Red Hat redhatrelease2 key"
                  }
                ]
              },
              {
                "Operator": "AND",
                "Criterias": [

                ],
                "Criterions": [
                  {
                    "Comment": "dhcp-common is earlier than 12:4.1.1-53.P1.el6_9.4"
                  },
                  {
                    "Comment": "dhcp-common is signed with Red Hat redhatrelease2 key"
                  }
                ]
              },
              {
                "Operator": "AND",
                "Criterias": [

                ],
                "Criterions": [
                  {
                    "Comment": "dhcp-devel is earlier than 12:4.1.1-53.P1.el6_9.4"
                  },
                  {
                    "Comment": "dhcp-devel is signed with Red Hat redhatrelease2 key"
                  }
                ]
              }
            ],
            "Criterions": [

            ]
          }
        ],
        "Criterions": [
          {
            "Comment": "Oracle Linux 6 is installed"
          }
        ]
      }
    ],
    "Criterions": [
      {
        "Comment": "Oracle Linux 6 is installed"
      }
    ]
  },
  "Severity": "Critical",
  "Cves": [
    {
      "Impact": "",
      "Href": "",
      "ID": "CVE-2018-1111"
    }
  ],
  "Issued": {
    "Date": "2018-05-15"
  }
}