{
  "Title": "RHSA-2018:3665: NetworkManager security update (Important)",
  "Description": "NetworkManager is a system network service that manages network devices and connections, attempting to keep active network connectivity when available. Its capabilities include managing Ethernet, wireless, mobile broadband (WWAN), and PPPoE devices, as well as providing VPN integration with a variety of different VPN services.\nSecurity Fix(es):\n* systemd: Out-of-bounds heap write in systemd-networkd dhcpv6 option handling (CVE-2018-15688)\nFor more details about the security issue(s), including the impact, a CVSS score, and other related information, refer to the CVE page(s) listed in the References section.\nRed Hat would like to thank Ubuntu Security Team for reporting this issue. Upstream acknowledges Felix Wilhelm (Google) as the original reporter.",
  "Platform": [
    "Red Hat Enterprise Linux 7"
  ],
  "References": [
    {
      "Source": "RHSA",
      "URI": "https://access.redhat.com/errata/RHSA-2018:3665",
      "ID": "RHSA-2018:3665"
    },
    {
      "Source": "CVE",
      "URI": "https://access.redhat.com/security/cve/CVE-2018-15688",
      "ID": "CVE-2018-15688"
    }
  ],
  "Criteria": {
    "Operator": "OR",
    "Criterias": [
      {
        "Operator": "AND",
        "Criterias": [
          {
            "Operator": "OR",
            "Criterias": [
              {
                "Operator": "AND",
                "Criterias": [

                ],
                "Criterions": [
                  {
                    "Comment": "NetworkManager is earlier than 1:1.12.0-8.el7_6"
                  },
                  {
                    "Comment": "NetworkManager is signed with Red Hat redhatrelease2 key"
                  }
                ]
              },
              {
                "Operator": "AND",
                "Criterias": [

                ],
                "Criterions": [
                  {
                    "Comment": "NetworkManager-adsl is earlier than 1:1.12.0-8.el7_6"
                  },
                  {
                    "Comment": "NetworkManager-adsl is signed with Red Hat redhatrelease2 key"
                  }
                ]
              },
              {
                "Operator": "AND",
                "Criterias": [

                ],
                "Criterions": [
                  {
                    "Comment": "NetworkManager-bluetooth is earlier than 1:1.12.0-8.el7_6"
                  },
                  {
                    "Comment": "NetworkManager-bluetooth is signed with Red Hat redhatrelease2 key"
                  }
                ]
              },
              {
                "Operator": "AND",
                "Criterias": [

                ],
                "Criterions": [
                  {
                    "Comment": "NetworkManager-config-server is earlier than 1:1.12.0-8.el7_6"
                  },
                  {
                    "Comment": "NetworkManager-config-server is signed with Red Hat redhatrelease2 key"
                  }
                ]
              },
              {
                "Operator": "AND",
                "Criterias": [

                ],
                "Criterions": [
                  {
                    "Comment": "NetworkManager-dispatcher-routing-rules is earlier than 1:1.12.0-8.el7_6"
                  },
                  {
                    "Comment": "NetworkManager-dispatcher-routing-rules is signed with Red Hat redhatrelease2 key"
                  }
                ]
              },
              {
                "Operator": "AND",
                "Criterias": [

                ],
                "Criterions": [
                  {
                    "Comment": "NetworkManager-glib is earlier than 1:1.12.0-8.el7_6"
                  },
                  {
                    "Comment": "NetworkManager-glib is signed with Red Hat redhatrelease2 key"
                  }
                ]
              },
              {
                "Operator": "AND",
                "Criterias": [

                ],
                "Criterions": [
                  {
                    "Comment": "NetworkManager-glib-devel is earlier than 1:1.12.0-8.el7_6"
                  },
                  {
                    "Comment": "NetworkManager-glib-devel is signed with Red Hat redhatrelease2 key"
                  }
                ]
              },
              {
                "Operator": "AND",
                "Criterias": [

                ],
                "Criterions": [
                  {
                    "Comment": "NetworkManager-libnm is earlier than 1:1.12.0-8.el7_6"
                  },
                  {
                    "Comment": "NetworkManager-libnm is signed with Red Hat redhatrelease2 key"
                  }
                ]
              },
              {
                "Operator": "AND",
                "Criterias": [

                ],
                "Criterions": [
                  {
                    "Comment": "NetworkManager-libnm-devel is earlier than 1:1.12.0-8.el7_6"
                  },
                  {
                    "Comment": "NetworkManager-libnm-devel is signed with Red Hat redhatrelease2 key"
                  }
                ]
              },
              {
                "Operator": "AND",
                "Criterias": [

                ],
                "Criterions": [
                  {
                    "Comment": "NetworkManager-ovs is earlier than 1:1.12.0-8.el7_6"
                  },
                  {
                    "Comment": "NetworkManager-ovs is signed with Red Hat redhatrelease2 key"
                  }
                ]
              },
              {
                "Operator": "AND",
                "Criterias": [

                ],
                "Criterions": [
                  {
                    "Comment": "NetworkManager-ppp is earlier than 1:1.12.0-8.el7_6"
                  },
                  {
                    "Comment": "NetworkManager-ppp is signed with Red Hat redhatrelease2 key"
                  }
                ]
              },
              {
                "Operator": "AND",
                "Criterias": [

                ],
                "Criterions": [
                  {
                    "Comment": "NetworkManager-team is earlier than 1:1.12.0-8.el7_6"
                  },
                  {
                    "Comment": "NetworkManager-team is signed with Red Hat redhatrelease2 key"
                  }
                ]
              },
              {
                "Operator": "AND",
                "Criterias": [

                ],
                "Criterions": [
                  {
                    "Comment": "NetworkManager-tui is earlier than 1:1.12.0-8.el7_6"
                  },
                  {
                    "Comment": "NetworkManager-tui is signed with Red Hat redhatrelease2 key"
                  }
                ]
              },
              {
                "Operator": "AND",
                "Criterias": [

                ],
                "Criterions": [
                  {
                    "Comment": "NetworkManager-wifi is earlier than 1:1.12.0-8.el7_6"
                  },
                  {
                    "Comment": "NetworkManager-wifi is signed with Red Hat redhatrelease2 key"
                  }
                ]
              },
              {
                "Operator": "AND",
                "Criterias": [

                ],
                "Criterions": [
                  {
                    "Comment": "NetworkManager-wwan is earlier than 1:1.12.0-8.el7_6"
                  },
                  {
                    "Comment": "NetworkManager-wwan is signed with Red Hat redhatrelease2 key"
                  }
                ]
              }
            ],
            "Criterions": [

            ]
          }
        ],
        "Criterions": [
          {
            "Comment": "Oracle Linux 7 is installed"
          }
        ]
      }
    ],
    "Criterions": [
      {
        "Comment": "Oracle Linux 7 is installed"
      }
    ]
  },
  "Severity": "Important",
  "Cves": [
    {
      "Impact": "",
      "Href": "",
      "ID": "CVE-2018-15688"
    }
  ],
  "Issued": {
    "Date": "2018-11-27"
  }
}