{
  "Title": "RHSA-2018:1633: qemu-kvm security update (Important)",
  "Description": "Kernel-based Virtual Machine (KVM) is a full virtualization solution for Linux on a variety of architectures. The qemu-kvm packages provide the user-space component for running virtual machines that use KVM.\nSecurity Fix(es):\n* An industry-wide issue was found in the way many modern microprocessor designs have implemented speculative execution of Load & Store instructions (a commonly used performance optimization). It relies on the presence of a precisely-defined instruction sequence in the privileged code as well as the fact that memory read from address to which a recent memory write has occurred may see an older value and subsequently cause an update into the microprocessor's data cache even for speculatively executed instructions that never actually commit (retire). As a result, an unprivileged attacker could use this flaw to read privileged memory by conducting targeted cache side-channel attacks. (CVE-2018-3639)\nNote: This is the qemu-kvm side of the CVE-2018-3639 mitigation.\nRed Hat would like to thank Ken Johnson (Microsoft Security Response Center) and Jann Horn (Google Project Zero) for reporting this issue.",
  "Platform": [
    "Red Hat Enterprise Linux 7"
  ],
  "References": [
    {
      "Source": "RHSA",
      "URI": "https://access.redhat.com/errata/RHSA-2018:1633",
      "ID": "RHSA-2018:1633"
    },
    {
      "Source": "CVE",
      "URI": "https://access.redhat.com/security/cve/CVE-2018-3639",
      "ID": "CVE-2018-3639"
    }
  ],
  "Criteria": {
    "Operator": "OR",
    "Criterias": [
      {
        "Operator": "AND",
        "Criterias": [
          {
            "Operator": "OR",
            "Criterias": [
              {
                "Operator": "AND",
                "Criterias": [

                ],
                "Criterions": [
                  {
                    "Comment": "qemu-img is earlier than 10:1.5.3-156.el7_5.2"
                  },
                  {
                    "Comment": "qemu-img is signed with Red Hat redhatrelease2 key"
                  }
                ]
              },
              {
                "Operator": "AND",
                "Criterias": [

                ],
                "Criterions": [
                  {
                    "Comment": "qemu-kvm is earlier than 10:1.5.3-156.el7_5.2"
                  },
                  {
                    "Comment": "qemu-kvm is signed with Red Hat redhatrelease2 key"
                  }
                ]
              },
              {
                "Operator": "AND",
                "Criterias": [

                ],
                "Criterions": [
                  {
                    "Comment": "qemu-kvm-common is earlier than 10:1.5.3-156.el7_5.2"
                  },
                  {
                    "Comment": "qemu-kvm-common is signed with Red Hat redhatrelease2 key"
                  }
                ]
              },
              {
                "Operator": "AND",
                "Criterias": [

                ],
                "Criterions": [
                  {
                    "Comment": "qemu-kvm-tools is earlier than 10:1.5.3-156.el7_5.2"
                  },
                  {
                    "Comment": "qemu-kvm-tools is signed with Red Hat redhatrelease2 key"
                  }
                ]
              }
            ],
            "Criterions": [

            ]
          }
        ],
        "Criterions": [
          {
            "Comment": "Oracle Linux 7 is installed"
          }
        ]
      }
    ],
    "Criterions": [
      {
        "Comment": "Oracle Linux 7 is installed"
      }
    ]
  },
  "Severity": "Important",
  "Cves": [
    {
      "Impact": "",
      "Href": "",
      "ID": "CVE-2018-3639"
    }
  ],
  "Issued": {
    "Date": "2018-05-22"
  }
}