{
  "Title": "RHSA-2018:1780: xmlrpc security update (Important)",
  "Description": "Apache XML-RPC is a Java implementation of XML-RPC, a popular protocol that uses XML over HTTP to implement remote procedure calls.\nSecurity Fix(es):\n* xmlrpc: Deserialization of untrusted Java object through <ex:serializable> tag (CVE-2016-5003)\nFor more details about the security issue(s), including the impact, a CVSS score, and other related information, refer to the CVE page(s) listed in the References section.",
  "Platform": [
    "Red Hat Enterprise Linux 7"
  ],
  "References": [
    {
      "Source": "RHSA",
      "URI": "https://access.redhat.com/errata/RHSA-2018:1780",
      "ID": "RHSA-2018:1780"
    },
    {
      "Source": "CVE",
      "URI": "https://access.redhat.com/security/cve/CVE-2016-5003",
      "ID": "CVE-2016-5003"
    }
  ],
  "Criteria": {
    "Operator": "OR",
    "Criterias": [
      {
        "Operator": "AND",
        "Criterias": [
          {
            "Operator": "OR",
            "Criterias": [
              {
                "Operator": "AND",
                "Criterias": [

                ],
                "Criterions": [
                  {
                    "Comment": "xmlrpc-client is earlier than 1:3.1.3-9.el7_5"
                  },
                  {
                    "Comment": "xmlrpc-client is signed with Red Hat redhatrelease2 key"
                  }
                ]
              },
              {
                "Operator": "AND",
                "Criterias": [

                ],
                "Criterions": [
                  {
                    "Comment": "xmlrpc-common is earlier than 1:3.1.3-9.el7_5"
                  },
                  {
                    "Comment": "xmlrpc-common is signed with Red Hat redhatrelease2 key"
                  }
                ]
              },
              {
                "Operator": "AND",
                "Criterias": [

                ],
                "Criterions": [
                  {
                    "Comment": "xmlrpc-javadoc is earlier than 1:3.1.3-9.el7_5"
                  },
                  {
                    "Comment": "xmlrpc-javadoc is signed with Red Hat redhatrelease2 key"
                  }
                ]
              },
              {
                "Operator": "AND",
                "Criterias": [

                ],
                "Criterions": [
                  {
                    "Comment": "xmlrpc-server is earlier than 1:3.1.3-9.el7_5"
                  },
                  {
                    "Comment": "xmlrpc-server is signed with Red Hat redhatrelease2 key"
                  }
                ]
              }
            ],
            "Criterions": [

            ]
          }
        ],
        "Criterions": [
          {
            "Comment": "Oracle Linux 7 is installed"
          }
        ]
      }
    ],
    "Criterions": [
      {
        "Comment": "Oracle Linux 7 is installed"
      }
    ]
  },
  "Severity": "Important",
  "Cves": [
    {
      "Impact": "",
      "Href": "",
      "ID": "CVE-2016-5003"
    }
  ],
  "Issued": {
    "Date": "2018-05-31"
  }
}