{
  "Title": "RHSA-2018:1929: libvirt security update (Low)",
  "Description": "The libvirt library contains a C API for managing and interacting with the virtualization capabilities of Linux and other operating systems. In addition, libvirt provides tools for remote management of virtualized systems.\nSecurity Fix(es):\n* libvirt: Resource exhaustion via qemuMonitorIORead() method (CVE-2018-5748)\n* libvirt: Incomplete fix for CVE-2018-5748 triggered by QEMU guest agent (CVE-2018-1064)\nFor more details about the security issue(s), including the impact, a CVSS score, and other related information, refer to the CVE page(s) listed in the References section.\nThe CVE-2018-5748 issue was discovered by Daniel P. Berrange (Red Hat) and Peter Krempa (Red Hat), and the CVE-2018-1064 issue was discovered by Daniel P. Berrange (Red Hat).\nAdditional Changes:\nFor detailed information on changes in this release, see the Red Hat Enterprise Linux 6.10 Release Notes and Red Hat Enterprise Linux 6.10 Technical Notes linked from the References section.",
  "Platform": [
    "Red Hat Enterprise Linux 6"
  ],
  "References": [
    {
      "Source": "RHSA",
      "URI": "https://access.redhat.com/errata/RHSA-2018:1929",
      "ID": "RHSA-2018:1929"
    },
    {
      "Source": "CVE",
      "URI": "https://access.redhat.com/security/cve/CVE-2018-1064",
      "ID": "CVE-2018-1064"
    },
    {
      "Source": "CVE",
      "URI": "https://access.redhat.com/security/cve/CVE-2018-5748",
      "ID": "CVE-2018-5748"
    }
  ],
  "Criteria": {
    "Operator": "OR",
    "Criterias": [
      {
        "Operator": "AND",
        "Criterias": [
          {
            "Operator": "OR",
            "Criterias": [
              {
                "Operator": "AND",
                "Criterias": [

                ],
                "Criterions": [
                  {
                    "Comment": "libvirt is earlier than 0:0.10.2-64.el6"
                  },
                  {
                    "Comment": "libvirt is signed with Red Hat redhatrelease2 key"
                  }
                ]
              },
              {
                "Operator": "AND",
                "Criterias": [

                ],
                "Criterions": [
                  {
                    "Comment": "libvirt-client is earlier than 0:0.10.2-64.el6"
                  },
                  {
                    "Comment": "libvirt-client is signed with Red Hat redhatrelease2 key"
                  }
                ]
              },
              {
                "Operator": "AND",
                "Criterias": [

                ],
                "Criterions": [
                  {
                    "Comment": "libvirt-devel is earlier than 0:0.10.2-64.el6"
                  },
                  {
                    "Comment": "libvirt-devel is signed with Red Hat redhatrelease2 key"
                  }
                ]
              },
              {
                "Operator": "AND",
                "Criterias": [

                ],
                "Criterions": [
                  {
                    "Comment": "libvirt-lock-sanlock is earlier than 0:0.10.2-64.el6"
                  },
                  {
                    "Comment": "libvirt-lock-sanlock is signed with Red Hat redhatrelease2 key"
                  }
                ]
              },
              {
                "Operator": "AND",
                "Criterias": [

                ],
                "Criterions": [
                  {
                    "Comment": "libvirt-python is earlier than 0:0.10.2-64.el6"
                  },
                  {
                    "Comment": "libvirt-python is signed with Red Hat redhatrelease2 key"
                  }
                ]
              }
            ],
            "Criterions": [

            ]
          }
        ],
        "Criterions": [
          {
            "Comment": "Oracle Linux 6 is installed"
          }
        ]
      }
    ],
    "Criterions": [
      {
        "Comment": "Oracle Linux 6 is installed"
      }
    ]
  },
  "Severity": "Low",
  "Cves": [
    {
      "Impact": "",
      "Href": "",
      "ID": "CVE-2018-1064"
    },
    {
      "Impact": "",
      "Href": "",
      "ID": "CVE-2018-5748"
    }
  ],
  "Issued": {
    "Date": "2018-06-19"
  }
}