{
  "Title": "RHSA-2018:2942: java-1.8.0-openjdk security update (Critical)",
  "Description": "The java-1.8.0-openjdk packages provide the OpenJDK 8 Java Runtime Environment and the OpenJDK 8 Java Software Development Kit.\nSecurity Fix(es):\n* OpenJDK: Improper field access checks (Hotspot, 8199226) (CVE-2018-3169)\n* OpenJDK: Unrestricted access to scripting engine (Scripting, 8202936) (CVE-2018-3183)\n* OpenJDK: Incomplete enforcement of the trustURLCodebase restriction (JNDI, 8199177) (CVE-2018-3149)\n* OpenJDK: Incorrect handling of unsigned attributes in singed Jar manifests (Security, 8194534) (CVE-2018-3136)\n* OpenJDK: Leak of sensitive header data via HTTP redirect (Networking, 8196902) (CVE-2018-3139)\n* OpenJDK: Missing endpoint identification algorithm check during TLS session resumption (JSSE, 8202613) (CVE-2018-3180)\n* OpenJDK: Infinite loop in RIFF format reader (Sound, 8205361) (CVE-2018-3214)\nFor more details about the security issue(s), including the impact, a CVSS score, and other related information, refer to the CVE page(s) listed in the References section.",
  "Platform": [
    "Red Hat Enterprise Linux 7"
  ],
  "References": [
    {
      "Source": "RHSA",
      "URI": "https://access.redhat.com/errata/RHSA-2018:2942",
      "ID": "RHSA-2018:2942"
    },
    {
      "Source": "CVE",
      "URI": "https://access.redhat.com/security/cve/CVE-2018-3136",
      "ID": "CVE-2018-3136"
    },
    {
      "Source": "CVE",
      "URI": "https://access.redhat.com/security/cve/CVE-2018-3139",
      "ID": "CVE-2018-3139"
    },
    {
      "Source": "CVE",
      "URI": "https://access.redhat.com/security/cve/CVE-2018-3149",
      "ID": "CVE-2018-3149"
    },
    {
      "Source": "CVE",
      "URI": "https://access.redhat.com/security/cve/CVE-2018-3169",
      "ID": "CVE-2018-3169"
    },
    {
      "Source": "CVE",
      "URI": "https://access.redhat.com/security/cve/CVE-2018-3180",
      "ID": "CVE-2018-3180"
    },
    {
      "Source": "CVE",
      "URI": "https://access.redhat.com/security/cve/CVE-2018-3183",
      "ID": "CVE-2018-3183"
    },
    {
      "Source": "CVE",
      "URI": "https://access.redhat.com/security/cve/CVE-2018-3214",
      "ID": "CVE-2018-3214"
    }
  ],
  "Criteria": {
    "Operator": "OR",
    "Criterias": [
      {
        "Operator": "AND",
        "Criterias": [
          {
            "Operator": "OR",
            "Criterias": [
              {
                "Operator": "AND",
                "Criterias": [

                ],
                "Criterions": [
                  {
                    "Comment": "java-1.8.0-openjdk is earlier than 1:1.8.0.191.b12-0.el7_5"
                  },
                  {
                    "Comment": "java-1.8.0-openjdk is signed with Red Hat redhatrelease2 key"
                  }
                ]
              },
              {
                "Operator": "AND",
                "Criterias": [

                ],
                "Criterions": [
                  {
                    "Comment": "java-1.8.0-openjdk-accessibility is earlier than 1:1.8.0.191.b12-0.el7_5"
                  },
                  {
                    "Comment": "java-1.8.0-openjdk-accessibility is signed with Red Hat redhatrelease2 key"
                  }
                ]
              },
              {
                "Operator": "AND",
                "Criterias": [

                ],
                "Criterions": [
                  {
                    "Comment": "java-1.8.0-openjdk-accessibility-debug is earlier than 1:1.8.0.191.b12-0.el7_5"
                  },
                  {
                    "Comment": "java-1.8.0-openjdk-accessibility-debug is signed with Red Hat redhatrelease2 key"
                  }
                ]
              },
              {
                "Operator": "AND",
                "Criterias": [

                ],
                "Criterions": [
                  {
                    "Comment": "java-1.8.0-openjdk-debug is earlier than 1:1.8.0.191.b12-0.el7_5"
                  },
                  {
                    "Comment": "java-1.8.0-openjdk-debug is signed with Red Hat redhatrelease2 key"
                  }
                ]
              },
              {
                "Operator": "AND",
                "Criterias": [

                ],
                "Criterions": [
                  {
                    "Comment": "java-1.8.0-openjdk-demo is earlier than 1:1.8.0.191.b12-0.el7_5"
                  },
                  {
                    "Comment": "java-1.8.0-openjdk-demo is signed with Red Hat redhatrelease2 key"
                  }
                ]
              },
              {
                "Operator": "AND",
                "Criterias": [

                ],
                "Criterions": [
                  {
                    "Comment": "java-1.8.0-openjdk-demo-debug is earlier than 1:1.8.0.191.b12-0.el7_5"
                  },
                  {
                    "Comment": "java-1.8.0-openjdk-demo-debug is signed with Red Hat redhatrelease2 key"
                  }
                ]
              },
              {
                "Operator": "AND",
                "Criterias": [

                ],
                "Criterions": [
                  {
                    "Comment": "java-1.8.0-openjdk-devel is earlier than 1:1.8.0.191.b12-0.el7_5"
                  },
                  {
                    "Comment": "java-1.8.0-openjdk-devel is signed with Red Hat redhatrelease2 key"
                  }
                ]
              },
              {
                "Operator": "AND",
                "Criterias": [

                ],
                "Criterions": [
                  {
                    "Comment": "java-1.8.0-openjdk-devel-debug is earlier than 1:1.8.0.191.b12-0.el7_5"
                  },
                  {
                    "Comment": "java-1.8.0-openjdk-devel-debug is signed with Red Hat redhatrelease2 key"
                  }
                ]
              },
              {
                "Operator": "AND",
                "Criterias": [

                ],
                "Criterions": [
                  {
                    "Comment": "java-1.8.0-openjdk-headless is earlier than 1:1.8.0.191.b12-0.el7_5"
                  },
                  {
                    "Comment": "java-1.8.0-openjdk-headless is signed with Red Hat redhatrelease2 key"
                  }
                ]
              },
              {
                "Operator": "AND",
                "Criterias": [

                ],
                "Criterions": [
                  {
                    "Comment": "java-1.8.0-openjdk-headless-debug is earlier than 1:1.8.0.191.b12-0.el7_5"
                  },
                  {
                    "Comment": "java-1.8.0-openjdk-headless-debug is signed with Red Hat redhatrelease2 key"
                  }
                ]
              },
              {
                "Operator": "AND",
                "Criterias": [

                ],
                "Criterions": [
                  {
                    "Comment": "java-1.8.0-openjdk-javadoc is earlier than 1:1.8.0.191.b12-0.el7_5"
                  },
                  {
                    "Comment": "java-1.8.0-openjdk-javadoc is signed with Red Hat redhatrelease2 key"
                  }
                ]
              },
              {
                "Operator": "AND",
                "Criterias": [

                ],
                "Criterions": [
                  {
                    "Comment": "java-1.8.0-openjdk-javadoc-debug is earlier than 1:1.8.0.191.b12-0.el7_5"
                  },
                  {
                    "Comment": "java-1.8.0-openjdk-javadoc-debug is signed with Red Hat redhatrelease2 key"
                  }
                ]
              },
              {
                "Operator": "AND",
                "Criterias": [

                ],
                "Criterions": [
                  {
                    "Comment": "java-1.8.0-openjdk-javadoc-zip is earlier than 1:1.8.0.191.b12-0.el7_5"
                  },
                  {
                    "Comment": "java-1.8.0-openjdk-javadoc-zip is signed with Red Hat redhatrelease2 key"
                  }
                ]
              },
              {
                "Operator": "AND",
                "Criterias": [

                ],
                "Criterions": [
                  {
                    "Comment": "java-1.8.0-openjdk-javadoc-zip-debug is earlier than 1:1.8.0.191.b12-0.el7_5"
                  },
                  {
                    "Comment": "java-1.8.0-openjdk-javadoc-zip-debug is signed with Red Hat redhatrelease2 key"
                  }
                ]
              },
              {
                "Operator": "AND",
                "Criterias": [

                ],
                "Criterions": [
                  {
                    "Comment": "java-1.8.0-openjdk-src is earlier than 1:1.8.0.191.b12-0.el7_5"
                  },
                  {
                    "Comment": "java-1.8.0-openjdk-src is signed with Red Hat redhatrelease2 key"
                  }
                ]
              },
              {
                "Operator": "AND",
                "Criterias": [

                ],
                "Criterions": [
                  {
                    "Comment": "java-1.8.0-openjdk-src-debug is earlier than 1:1.8.0.191.b12-0.el7_5"
                  },
                  {
                    "Comment": "java-1.8.0-openjdk-src-debug is signed with Red Hat redhatrelease2 key"
                  }
                ]
              }
            ],
            "Criterions": [

            ]
          }
        ],
        "Criterions": [
          {
            "Comment": "Oracle Linux 7 is installed"
          }
        ]
      }
    ],
    "Criterions": [
      {
        "Comment": "Oracle Linux 7 is installed"
      }
    ]
  },
  "Severity": "Critical",
  "Cves": [
    {
      "Impact": "",
      "Href": "",
      "ID": "CVE-2018-3136"
    },
    {
      "Impact": "",
      "Href": "",
      "ID": "CVE-2018-3139"
    },
    {
      "Impact": "",
      "Href": "",
      "ID": "CVE-2018-3149"
    },
    {
      "Impact": "",
      "Href": "",
      "ID": "CVE-2018-3169"
    },
    {
      "Impact": "",
      "Href": "",
      "ID": "CVE-2018-3180"
    },
    {
      "Impact": "",
      "Href": "",
      "ID": "CVE-2018-3183"
    },
    {
      "Impact": "",
      "Href": "",
      "ID": "CVE-2018-3214"
    }
  ],
  "Issued": {
    "Date": "2018-10-17"
  }
}