{
  "Title": "RHSA-2018:0842: xdg-user-dirs security and bug fix update (Low)",
  "Description": "xdg-user-dirs is a tool to create and configure default desktop user directories such as the Music and the Desktop directories.\nSecurity Fix(es):\n* xdg-user-dirs, gnome-session: Xsession creation of XDG user directories does not honor system umask policy (CVE-2017-15131)\nFor more details about the security issue(s), including the impact, a CVSS score, and other related information, refer to the CVE page(s) listed in the References section.\nAdditional Changes:\nFor detailed information on changes in this release, see the Red Hat Enterprise Linux 7.5 Release Notes linked from the References section.",
  "Platform": [
    "Red Hat Enterprise Linux 7"
  ],
  "References": [
    {
      "Source": "RHSA",
      "URI": "https://access.redhat.com/errata/RHSA-2018:0842",
      "ID": "RHSA-2018:0842"
    },
    {
      "Source": "CVE",
      "URI": "https://access.redhat.com/security/cve/CVE-2017-15131",
      "ID": "CVE-2017-15131"
    }
  ],
  "Criteria": {
    "Operator": "OR",
    "Criterias": [
      {
        "Operator": "AND",
        "Criterias": [

        ],
        "Criterions": [
          {
            "Comment": "Oracle Linux 7 is installed"
          },
          {
            "Comment": "xdg-user-dirs is earlier than 0:0.15-5.el7"
          },
          {
            "Comment": "xdg-user-dirs is signed with Red Hat redhatrelease2 key"
          }
        ]
      }
    ],
    "Criterions": [
      {
        "Comment": "Oracle Linux 7 is installed"
      }
    ]
  },
  "Severity": "Low",
  "Cves": [
    {
      "Impact": "",
      "Href": "",
      "ID": "CVE-2017-15131"
    }
  ],
  "Issued": {
    "Date": "2018-04-10"
  }
}