{
  "Title": "RHSA-2018:2916: spamassassin security update (Important)",
  "Description": "The SpamAssassin tool provides a way to reduce unsolicited commercial email (spam) from incoming email.\nSecurity Fix(es):\n* spamassassin: Certain unclosed tags in crafted emails allow for scan timeouts and result in denial of service (CVE-2017-15705)\n* spamassassin: Local user code injection in the meta rule syntax (CVE-2018-11781)\nFor more details about the security issue(s), including the impact, a CVSS score, and other related information, refer to the CVE page(s) listed in the References section.",
  "Platform": [
    "Red Hat Enterprise Linux 7"
  ],
  "References": [
    {
      "Source": "RHSA",
      "URI": "https://access.redhat.com/errata/RHSA-2018:2916",
      "ID": "RHSA-2018:2916"
    },
    {
      "Source": "CVE",
      "URI": "https://access.redhat.com/security/cve/CVE-2017-15705",
      "ID": "CVE-2017-15705"
    },
    {
      "Source": "CVE",
      "URI": "https://access.redhat.com/security/cve/CVE-2018-11781",
      "ID": "CVE-2018-11781"
    }
  ],
  "Criteria": {
    "Operator": "OR",
    "Criterias": [
      {
        "Operator": "AND",
        "Criterias": [

        ],
        "Criterions": [
          {
            "Comment": "Oracle Linux 7 is installed"
          },
          {
            "Comment": "spamassassin is earlier than 0:3.4.0-4.el7_5"
          },
          {
            "Comment": "spamassassin is signed with Red Hat redhatrelease2 key"
          }
        ]
      }
    ],
    "Criterions": [
      {
        "Comment": "Oracle Linux 7 is installed"
      }
    ]
  },
  "Severity": "Important",
  "Cves": [
    {
      "Impact": "",
      "Href": "",
      "ID": "CVE-2017-15705"
    },
    {
      "Impact": "",
      "Href": "",
      "ID": "CVE-2018-11781"
    }
  ],
  "Issued": {
    "Date": "2018-10-11"
  }
}