{
  "Title": "RHSA-2018:1883: samba4 security and bug fix update (Low)",
  "Description": "Samba is an open-source implementation of the Server Message Block (SMB) or Common Internet File System (CIFS) protocol, which allows PC-compatible machines to share files, printers, and other information.\nSecurity Fix(es):\n* samba: Null pointer indirection in printer server process (CVE-2018-1050)\nFor more details about the security issue(s), including the impact, a CVSS score, and other related information, refer to the CVE page(s) listed in the References section.\nRed Hat would like to thank the Samba project for reporting this issue.\nAdditional Changes:\nFor detailed information on changes in this release, see the Red Hat Enterprise Linux 6.10 Release Notes and Red Hat Enterprise Linux 6.10 Technical Notes linked from the References section.",
  "Platform": [
    "Red Hat Enterprise Linux 6"
  ],
  "References": [
    {
      "Source": "RHSA",
      "URI": "https://access.redhat.com/errata/RHSA-2018:1883",
      "ID": "RHSA-2018:1883"
    },
    {
      "Source": "CVE",
      "URI": "https://access.redhat.com/security/cve/CVE-2018-1050",
      "ID": "CVE-2018-1050"
    }
  ],
  "Criteria": {
    "Operator": "OR",
    "Criterias": [
      {
        "Operator": "AND",
        "Criterias": [
          {
            "Operator": "OR",
            "Criterias": [
              {
                "Operator": "AND",
                "Criterias": [

                ],
                "Criterions": [
                  {
                    "Comment": "samba4 is earlier than 0:4.2.10-15.el6"
                  },
                  {
                    "Comment": "samba4 is signed with Red Hat redhatrelease2 key"
                  }
                ]
              },
              {
                "Operator": "AND",
                "Criterias": [

                ],
                "Criterions": [
                  {
                    "Comment": "samba4-client is earlier than 0:4.2.10-15.el6"
                  },
                  {
                    "Comment": "samba4-client is signed with Red Hat redhatrelease2 key"
                  }
                ]
              },
              {
                "Operator": "AND",
                "Criterias": [

                ],
                "Criterions": [
                  {
                    "Comment": "samba4-common is earlier than 0:4.2.10-15.el6"
                  },
                  {
                    "Comment": "samba4-common is signed with Red Hat redhatrelease2 key"
                  }
                ]
              },
              {
                "Operator": "AND",
                "Criterias": [

                ],
                "Criterions": [
                  {
                    "Comment": "samba4-dc is earlier than 0:4.2.10-15.el6"
                  },
                  {
                    "Comment": "samba4-dc is signed with Red Hat redhatrelease2 key"
                  }
                ]
              },
              {
                "Operator": "AND",
                "Criterias": [

                ],
                "Criterions": [
                  {
                    "Comment": "samba4-dc-libs is earlier than 0:4.2.10-15.el6"
                  },
                  {
                    "Comment": "samba4-dc-libs is signed with Red Hat redhatrelease2 key"
                  }
                ]
              },
              {
                "Operator": "AND",
                "Criterias": [

                ],
                "Criterions": [
                  {
                    "Comment": "samba4-devel is earlier than 0:4.2.10-15.el6"
                  },
                  {
                    "Comment": "samba4-devel is signed with Red Hat redhatrelease2 key"
                  }
                ]
              },
              {
                "Operator": "AND",
                "Criterias": [

                ],
                "Criterions": [
                  {
                    "Comment": "samba4-libs is earlier than 0:4.2.10-15.el6"
                  },
                  {
                    "Comment": "samba4-libs is signed with Red Hat redhatrelease2 key"
                  }
                ]
              },
              {
                "Operator": "AND",
                "Criterias": [

                ],
                "Criterions": [
                  {
                    "Comment": "samba4-pidl is earlier than 0:4.2.10-15.el6"
                  },
                  {
                    "Comment": "samba4-pidl is signed with Red Hat redhatrelease2 key"
                  }
                ]
              },
              {
                "Operator": "AND",
                "Criterias": [

                ],
                "Criterions": [
                  {
                    "Comment": "samba4-python is earlier than 0:4.2.10-15.el6"
                  },
                  {
                    "Comment": "samba4-python is signed with Red Hat redhatrelease2 key"
                  }
                ]
              },
              {
                "Operator": "AND",
                "Criterias": [

                ],
                "Criterions": [
                  {
                    "Comment": "samba4-test is earlier than 0:4.2.10-15.el6"
                  },
                  {
                    "Comment": "samba4-test is signed with Red Hat redhatrelease2 key"
                  }
                ]
              },
              {
                "Operator": "AND",
                "Criterias": [

                ],
                "Criterions": [
                  {
                    "Comment": "samba4-winbind is earlier than 0:4.2.10-15.el6"
                  },
                  {
                    "Comment": "samba4-winbind is signed with Red Hat redhatrelease2 key"
                  }
                ]
              },
              {
                "Operator": "AND",
                "Criterias": [

                ],
                "Criterions": [
                  {
                    "Comment": "samba4-winbind-clients is earlier than 0:4.2.10-15.el6"
                  },
                  {
                    "Comment": "samba4-winbind-clients is signed with Red Hat redhatrelease2 key"
                  }
                ]
              },
              {
                "Operator": "AND",
                "Criterias": [

                ],
                "Criterions": [
                  {
                    "Comment": "samba4-winbind-krb5-locator is earlier than 0:4.2.10-15.el6"
                  },
                  {
                    "Comment": "samba4-winbind-krb5-locator is signed with Red Hat redhatrelease2 key"
                  }
                ]
              }
            ],
            "Criterions": [

            ]
          }
        ],
        "Criterions": [
          {
            "Comment": "Oracle Linux 6 is installed"
          }
        ]
      }
    ],
    "Criterions": [
      {
        "Comment": "Oracle Linux 6 is installed"
      }
    ]
  },
  "Severity": "Low",
  "Cves": [
    {
      "Impact": "",
      "Href": "",
      "ID": "CVE-2018-1050"
    }
  ],
  "Issued": {
    "Date": "2018-06-19"
  }
}