{
  "Title": "RHSA-2018:3002: java-1.8.0-oracle security update (Critical)",
  "Description": "Oracle Java SE version 8 includes the Oracle Java Runtime Environment and the Oracle Java Software Development Kit.\nThis update upgrades Oracle Java SE 8 to version 8 Update 191.\nSecurity Fix(es):\n* OpenJDK: Improper field access checks (Hotspot, 8199226) (CVE-2018-3169)\n* OpenJDK: Unrestricted access to scripting engine (Scripting, 8202936) (CVE-2018-3183)\n* Oracle JDK: unspecified vulnerability fixed in 8u191 (JavaFX) (CVE-2018-3209)\n* OpenJDK: Incomplete enforcement of the trustURLCodebase restriction (JNDI, 8199177) (CVE-2018-3149)\n* OpenJDK: Incorrect handling of unsigned attributes in signed Jar manifests (Security, 8194534) (CVE-2018-3136)\n* OpenJDK: Leak of sensitive header data via HTTP redirect (Networking, 8196902) (CVE-2018-3139)\n* OpenJDK: Missing endpoint identification algorithm check during TLS session resumption (JSSE, 8202613) (CVE-2018-3180)\n* Oracle JDK: unspecified vulnerability fixed in 8u191 and 11.0.1 (Serviceability) (CVE-2018-3211)\n* OpenJDK: Infinite loop in RIFF format reader (Sound, 8205361) (CVE-2018-3214)\n* libpng: Integer overflow and resultant divide-by-zero in pngrutil.c:png_check_chunk_length() allows for denial of service (CVE-2018-13785)\nFor more details about the security issue(s), including the impact, a CVSS score, and other related information, refer to the CVE page(s) listed in the References section.",
  "Platform": [
    "Oracle Java for Red Hat Enterprise Linux 7"
  ],
  "References": [
    {
      "Source": "RHSA",
      "URI": "https://access.redhat.com/errata/RHSA-2018:3002",
      "ID": "RHSA-2018:3002"
    },
    {
      "Source": "CVE",
      "URI": "https://access.redhat.com/security/cve/CVE-2018-13785",
      "ID": "CVE-2018-13785"
    },
    {
      "Source": "CVE",
      "URI": "https://access.redhat.com/security/cve/CVE-2018-3136",
      "ID": "CVE-2018-3136"
    },
    {
      "Source": "CVE",
      "URI": "https://access.redhat.com/security/cve/CVE-2018-3139",
      "ID": "CVE-2018-3139"
    },
    {
      "Source": "CVE",
      "URI": "https://access.redhat.com/security/cve/CVE-2018-3149",
      "ID": "CVE-2018-3149"
    },
    {
      "Source": "CVE",
      "URI": "https://access.redhat.com/security/cve/CVE-2018-3169",
      "ID": "CVE-2018-3169"
    },
    {
      "Source": "CVE",
      "URI": "https://access.redhat.com/security/cve/CVE-2018-3180",
      "ID": "CVE-2018-3180"
    },
    {
      "Source": "CVE",
      "URI": "https://access.redhat.com/security/cve/CVE-2018-3183",
      "ID": "CVE-2018-3183"
    },
    {
      "Source": "CVE",
      "URI": "https://access.redhat.com/security/cve/CVE-2018-3209",
      "ID": "CVE-2018-3209"
    },
    {
      "Source": "CVE",
      "URI": "https://access.redhat.com/security/cve/CVE-2018-3211",
      "ID": "CVE-2018-3211"
    },
    {
      "Source": "CVE",
      "URI": "https://access.redhat.com/security/cve/CVE-2018-3214",
      "ID": "CVE-2018-3214"
    }
  ],
  "Criteria": {
    "Operator": "OR",
    "Criterias": [
      {
        "Operator": "AND",
        "Criterias": [
          {
            "Operator": "OR",
            "Criterias": [
              {
                "Operator": "AND",
                "Criterias": [

                ],
                "Criterions": [
                  {
                    "Comment": "java-1.8.0-oracle is earlier than 1:1.8.0.191-1jpp.1.el7"
                  },
                  {
                    "Comment": "java-1.8.0-oracle is signed with Red Hat redhatrelease2 key"
                  }
                ]
              },
              {
                "Operator": "AND",
                "Criterias": [

                ],
                "Criterions": [
                  {
                    "Comment": "java-1.8.0-oracle-devel is earlier than 1:1.8.0.191-1jpp.1.el7"
                  },
                  {
                    "Comment": "java-1.8.0-oracle-devel is signed with Red Hat redhatrelease2 key"
                  }
                ]
              },
              {
                "Operator": "AND",
                "Criterias": [

                ],
                "Criterions": [
                  {
                    "Comment": "java-1.8.0-oracle-javafx is earlier than 1:1.8.0.191-1jpp.1.el7"
                  },
                  {
                    "Comment": "java-1.8.0-oracle-javafx is signed with Red Hat redhatrelease2 key"
                  }
                ]
              },
              {
                "Operator": "AND",
                "Criterias": [

                ],
                "Criterions": [
                  {
                    "Comment": "java-1.8.0-oracle-jdbc is earlier than 1:1.8.0.191-1jpp.1.el7"
                  },
                  {
                    "Comment": "java-1.8.0-oracle-jdbc is signed with Red Hat redhatrelease2 key"
                  }
                ]
              },
              {
                "Operator": "AND",
                "Criterias": [

                ],
                "Criterions": [
                  {
                    "Comment": "java-1.8.0-oracle-plugin is earlier than 1:1.8.0.191-1jpp.1.el7"
                  },
                  {
                    "Comment": "java-1.8.0-oracle-plugin is signed with Red Hat redhatrelease2 key"
                  }
                ]
              },
              {
                "Operator": "AND",
                "Criterias": [

                ],
                "Criterions": [
                  {
                    "Comment": "java-1.8.0-oracle-src is earlier than 1:1.8.0.191-1jpp.1.el7"
                  },
                  {
                    "Comment": "java-1.8.0-oracle-src is signed with Red Hat redhatrelease2 key"
                  }
                ]
              }
            ],
            "Criterions": [

            ]
          }
        ],
        "Criterions": [
          {
            "Comment": "Oracle Linux 7 is installed"
          }
        ]
      }
    ],
    "Criterions": [
      {
        "Comment": "Oracle Linux 7 is installed"
      }
    ]
  },
  "Severity": "Critical",
  "Cves": [
    {
      "Impact": "",
      "Href": "",
      "ID": "CVE-2018-13785"
    },
    {
      "Impact": "",
      "Href": "",
      "ID": "CVE-2018-3136"
    },
    {
      "Impact": "",
      "Href": "",
      "ID": "CVE-2018-3139"
    },
    {
      "Impact": "",
      "Href": "",
      "ID": "CVE-2018-3149"
    },
    {
      "Impact": "",
      "Href": "",
      "ID": "CVE-2018-3169"
    },
    {
      "Impact": "",
      "Href": "",
      "ID": "CVE-2018-3180"
    },
    {
      "Impact": "",
      "Href": "",
      "ID": "CVE-2018-3183"
    },
    {
      "Impact": "",
      "Href": "",
      "ID": "CVE-2018-3209"
    },
    {
      "Impact": "",
      "Href": "",
      "ID": "CVE-2018-3211"
    },
    {
      "Impact": "",
      "Href": "",
      "ID": "CVE-2018-3214"
    }
  ],
  "Issued": {
    "Date": "2018-10-24"
  }
}