{
  "Title": "RHSA-2018:0516: qemu-kvm security update (Moderate)",
  "Description": "Kernel-based Virtual Machine (KVM) is a full virtualization solution for Linux on a variety of architectures. The qemu-kvm packages provide the user-space component for running virtual machines that use KVM.\nSecurity Fix(es):\n* Qemu: cirrus: OOB access issue in mode4and5 write functions (CVE-2017-15289)\nFor more details about the security issue(s), including the impact, a CVSS score, acknowledgments, and other related information, refer to the CVE page(s) listed in the References section.",
  "Platform": [
    "Red Hat Enterprise Linux 6"
  ],
  "References": [
    {
      "Source": "RHSA",
      "URI": "https://access.redhat.com/errata/RHSA-2018:0516",
      "ID": "RHSA-2018:0516"
    },
    {
      "Source": "CVE",
      "URI": "https://access.redhat.com/security/cve/CVE-2017-15289",
      "ID": "CVE-2017-15289"
    }
  ],
  "Criteria": {
    "Operator": "OR",
    "Criterias": [
      {
        "Operator": "AND",
        "Criterias": [
          {
            "Operator": "OR",
            "Criterias": [
              {
                "Operator": "AND",
                "Criterias": [

                ],
                "Criterions": [
                  {
                    "Comment": "qemu-guest-agent is earlier than 2:0.12.1.2-2.503.el6_9.5"
                  },
                  {
                    "Comment": "qemu-guest-agent is signed with Red Hat redhatrelease2 key"
                  }
                ]
              },
              {
                "Operator": "AND",
                "Criterias": [

                ],
                "Criterions": [
                  {
                    "Comment": "qemu-img is earlier than 2:0.12.1.2-2.503.el6_9.5"
                  },
                  {
                    "Comment": "qemu-img is signed with Red Hat redhatrelease2 key"
                  }
                ]
              },
              {
                "Operator": "AND",
                "Criterias": [

                ],
                "Criterions": [
                  {
                    "Comment": "qemu-kvm is earlier than 2:0.12.1.2-2.503.el6_9.5"
                  },
                  {
                    "Comment": "qemu-kvm is signed with Red Hat redhatrelease2 key"
                  }
                ]
              },
              {
                "Operator": "AND",
                "Criterias": [

                ],
                "Criterions": [
                  {
                    "Comment": "qemu-kvm-tools is earlier than 2:0.12.1.2-2.503.el6_9.5"
                  },
                  {
                    "Comment": "qemu-kvm-tools is signed with Red Hat redhatrelease2 key"
                  }
                ]
              }
            ],
            "Criterions": [

            ]
          }
        ],
        "Criterions": [
          {
            "Comment": "Oracle Linux 6 is installed"
          }
        ]
      }
    ],
    "Criterions": [
      {
        "Comment": "Oracle Linux 6 is installed"
      }
    ]
  },
  "Severity": "Moderate",
  "Cves": [
    {
      "Impact": "",
      "Href": "",
      "ID": "CVE-2017-15289"
    }
  ],
  "Issued": {
    "Date": "2018-03-13"
  }
}