{
  "Title": "RHSA-2018:2241: java-1.8.0-openjdk security update (Moderate)",
  "Description": "The java-1.8.0-openjdk packages provide the OpenJDK 8 Java Runtime Environment and the OpenJDK 8 Java Software Development Kit.\nSecurity Fix(es):\n* OpenJDK: insufficient index validation in PatternSyntaxException getMessage() (Concurrency, 8199547) (CVE-2018-2952)\nFor more details about the security issue(s), including the impact, a CVSS score, and other related information, refer to the CVE page(s) listed in the References section.",
  "Platform": [
    "Red Hat Enterprise Linux 6"
  ],
  "References": [
    {
      "Source": "RHSA",
      "URI": "https://access.redhat.com/errata/RHSA-2018:2241",
      "ID": "RHSA-2018:2241"
    },
    {
      "Source": "CVE",
      "URI": "https://access.redhat.com/security/cve/CVE-2018-2952",
      "ID": "CVE-2018-2952"
    }
  ],
  "Criteria": {
    "Operator": "OR",
    "Criterias": [
      {
        "Operator": "AND",
        "Criterias": [
          {
            "Operator": "OR",
            "Criterias": [
              {
                "Operator": "AND",
                "Criterias": [

                ],
                "Criterions": [
                  {
                    "Comment": "java-1.8.0-openjdk is earlier than 1:1.8.0.181-3.b13.el6_10"
                  },
                  {
                    "Comment": "java-1.8.0-openjdk is signed with Red Hat redhatrelease2 key"
                  }
                ]
              },
              {
                "Operator": "AND",
                "Criterias": [

                ],
                "Criterions": [
                  {
                    "Comment": "java-1.8.0-openjdk-debug is earlier than 1:1.8.0.181-3.b13.el6_10"
                  },
                  {
                    "Comment": "java-1.8.0-openjdk-debug is signed with Red Hat redhatrelease2 key"
                  }
                ]
              },
              {
                "Operator": "AND",
                "Criterias": [

                ],
                "Criterions": [
                  {
                    "Comment": "java-1.8.0-openjdk-demo is earlier than 1:1.8.0.181-3.b13.el6_10"
                  },
                  {
                    "Comment": "java-1.8.0-openjdk-demo is signed with Red Hat redhatrelease2 key"
                  }
                ]
              },
              {
                "Operator": "AND",
                "Criterias": [

                ],
                "Criterions": [
                  {
                    "Comment": "java-1.8.0-openjdk-demo-debug is earlier than 1:1.8.0.181-3.b13.el6_10"
                  },
                  {
                    "Comment": "java-1.8.0-openjdk-demo-debug is signed with Red Hat redhatrelease2 key"
                  }
                ]
              },
              {
                "Operator": "AND",
                "Criterias": [

                ],
                "Criterions": [
                  {
                    "Comment": "java-1.8.0-openjdk-devel is earlier than 1:1.8.0.181-3.b13.el6_10"
                  },
                  {
                    "Comment": "java-1.8.0-openjdk-devel is signed with Red Hat redhatrelease2 key"
                  }
                ]
              },
              {
                "Operator": "AND",
                "Criterias": [

                ],
                "Criterions": [
                  {
                    "Comment": "java-1.8.0-openjdk-devel-debug is earlier than 1:1.8.0.181-3.b13.el6_10"
                  },
                  {
                    "Comment": "java-1.8.0-openjdk-devel-debug is signed with Red Hat redhatrelease2 key"
                  }
                ]
              },
              {
                "Operator": "AND",
                "Criterias": [

                ],
                "Criterions": [
                  {
                    "Comment": "java-1.8.0-openjdk-headless is earlier than 1:1.8.0.181-3.b13.el6_10"
                  },
                  {
                    "Comment": "java-1.8.0-openjdk-headless is signed with Red Hat redhatrelease2 key"
                  }
                ]
              },
              {
                "Operator": "AND",
                "Criterias": [

                ],
                "Criterions": [
                  {
                    "Comment": "java-1.8.0-openjdk-headless-debug is earlier than 1:1.8.0.181-3.b13.el6_10"
                  },
                  {
                    "Comment": "java-1.8.0-openjdk-headless-debug is signed with Red Hat redhatrelease2 key"
                  }
                ]
              },
              {
                "Operator": "AND",
                "Criterias": [

                ],
                "Criterions": [
                  {
                    "Comment": "java-1.8.0-openjdk-javadoc is earlier than 1:1.8.0.181-3.b13.el6_10"
                  },
                  {
                    "Comment": "java-1.8.0-openjdk-javadoc is signed with Red Hat redhatrelease2 key"
                  }
                ]
              },
              {
                "Operator": "AND",
                "Criterias": [

                ],
                "Criterions": [
                  {
                    "Comment": "java-1.8.0-openjdk-javadoc-debug is earlier than 1:1.8.0.181-3.b13.el6_10"
                  },
                  {
                    "Comment": "java-1.8.0-openjdk-javadoc-debug is signed with Red Hat redhatrelease2 key"
                  }
                ]
              },
              {
                "Operator": "AND",
                "Criterias": [

                ],
                "Criterions": [
                  {
                    "Comment": "java-1.8.0-openjdk-src is earlier than 1:1.8.0.181-3.b13.el6_10"
                  },
                  {
                    "Comment": "java-1.8.0-openjdk-src is signed with Red Hat redhatrelease2 key"
                  }
                ]
              },
              {
                "Operator": "AND",
                "Criterias": [

                ],
                "Criterions": [
                  {
                    "Comment": "java-1.8.0-openjdk-src-debug is earlier than 1:1.8.0.181-3.b13.el6_10"
                  },
                  {
                    "Comment": "java-1.8.0-openjdk-src-debug is signed with Red Hat redhatrelease2 key"
                  }
                ]
              }
            ],
            "Criterions": [

            ]
          }
        ],
        "Criterions": [
          {
            "Comment": "Oracle Linux 6 is installed"
          }
        ]
      }
    ],
    "Criterions": [
      {
        "Comment": "Oracle Linux 6 is installed"
      }
    ]
  },
  "Severity": "Moderate",
  "Cves": [
    {
      "Impact": "",
      "Href": "",
      "ID": "CVE-2018-2952"
    }
  ],
  "Issued": {
    "Date": "2018-07-23"
  }
}