{
  "Title": "RHSA-2018:3242: glusterfs security, bug fix, and enhancement update (Moderate)",
  "Description": "GlusterFS is a key building block of Red Hat Gluster Storage. It is based on a stackable user-space design and can deliver exceptional performance for diverse workloads. GlusterFS aggregates various storage servers over network interconnections into one large, parallel network file system.\nThe following packages have been upgraded to a later upstream version: glusterfs (3.12.2). (BZ#1579734)\nSecurity Fix(es):\n* glusterfs: Improper deserialization in dict.c:dict_unserialize() can allow attackers to read arbitrary memory (CVE-2018-10911)\nFor more details about the security issue(s), including the impact, a CVSS score, and other related information, refer to the CVE page(s) listed in the References section.\nRed Hat would like to thank Michael Hanselmann (hansmi.ch) for reporting this issue.\nAdditional Changes:\nFor detailed information on changes in this release, see the Red Hat Enterprise Linux 7.6 Release Notes linked from the References section.",
  "Platform": [
    "Red Hat Enterprise Linux 7"
  ],
  "References": [
    {
      "Source": "RHSA",
      "URI": "https://access.redhat.com/errata/RHSA-2018:3242",
      "ID": "RHSA-2018:3242"
    },
    {
      "Source": "CVE",
      "URI": "https://access.redhat.com/security/cve/CVE-2018-10911",
      "ID": "CVE-2018-10911"
    }
  ],
  "Criteria": {
    "Operator": "OR",
    "Criterias": [
      {
        "Operator": "AND",
        "Criterias": [
          {
            "Operator": "OR",
            "Criterias": [
              {
                "Operator": "AND",
                "Criterias": [

                ],
                "Criterions": [
                  {
                    "Comment": "glusterfs is earlier than 0:3.12.2-18.el7"
                  },
                  {
                    "Comment": "glusterfs is signed with Red Hat redhatrelease2 key"
                  }
                ]
              },
              {
                "Operator": "AND",
                "Criterias": [

                ],
                "Criterions": [
                  {
                    "Comment": "glusterfs-api is earlier than 0:3.12.2-18.el7"
                  },
                  {
                    "Comment": "glusterfs-api is signed with Red Hat redhatrelease2 key"
                  }
                ]
              },
              {
                "Operator": "AND",
                "Criterias": [

                ],
                "Criterions": [
                  {
                    "Comment": "glusterfs-api-devel is earlier than 0:3.12.2-18.el7"
                  },
                  {
                    "Comment": "glusterfs-api-devel is signed with Red Hat redhatrelease2 key"
                  }
                ]
              },
              {
                "Operator": "AND",
                "Criterias": [

                ],
                "Criterions": [
                  {
                    "Comment": "glusterfs-cli is earlier than 0:3.12.2-18.el7"
                  },
                  {
                    "Comment": "glusterfs-cli is signed with Red Hat redhatrelease2 key"
                  }
                ]
              },
              {
                "Operator": "AND",
                "Criterias": [

                ],
                "Criterions": [
                  {
                    "Comment": "glusterfs-client-xlators is earlier than 0:3.12.2-18.el7"
                  },
                  {
                    "Comment": "glusterfs-client-xlators is signed with Red Hat redhatrelease2 key"
                  }
                ]
              },
              {
                "Operator": "AND",
                "Criterias": [

                ],
                "Criterions": [
                  {
                    "Comment": "glusterfs-devel is earlier than 0:3.12.2-18.el7"
                  },
                  {
                    "Comment": "glusterfs-devel is signed with Red Hat redhatrelease2 key"
                  }
                ]
              },
              {
                "Operator": "AND",
                "Criterias": [

                ],
                "Criterions": [
                  {
                    "Comment": "glusterfs-fuse is earlier than 0:3.12.2-18.el7"
                  },
                  {
                    "Comment": "glusterfs-fuse is signed with Red Hat redhatrelease2 key"
                  }
                ]
              },
              {
                "Operator": "AND",
                "Criterias": [

                ],
                "Criterions": [
                  {
                    "Comment": "glusterfs-libs is earlier than 0:3.12.2-18.el7"
                  },
                  {
                    "Comment": "glusterfs-libs is signed with Red Hat redhatrelease2 key"
                  }
                ]
              },
              {
                "Operator": "AND",
                "Criterias": [

                ],
                "Criterions": [
                  {
                    "Comment": "glusterfs-rdma is earlier than 0:3.12.2-18.el7"
                  },
                  {
                    "Comment": "glusterfs-rdma is signed with Red Hat redhatrelease2 key"
                  }
                ]
              },
              {
                "Operator": "AND",
                "Criterias": [

                ],
                "Criterions": [
                  {
                    "Comment": "python2-gluster is earlier than 0:3.12.2-18.el7"
                  },
                  {
                    "Comment": "python2-gluster is signed with Red Hat redhatrelease2 key"
                  }
                ]
              }
            ],
            "Criterions": [

            ]
          }
        ],
        "Criterions": [
          {
            "Comment": "Oracle Linux 7 is installed"
          }
        ]
      }
    ],
    "Criterions": [
      {
        "Comment": "Oracle Linux 7 is installed"
      }
    ]
  },
  "Severity": "Moderate",
  "Cves": [
    {
      "Impact": "",
      "Href": "",
      "ID": "CVE-2018-10911"
    }
  ],
  "Issued": {
    "Date": "2018-10-30"
  }
}