{
  "Title": "RHSA-2018:2254: java-1.7.0-oracle security update (Critical)",
  "Description": "Oracle Java SE version 7 includes the Oracle Java Runtime Environment and the Oracle Java Software Development Kit.\nThis update upgrades Oracle Java SE 7 to version 7 Update 191.\nSecurity Fix(es):\n* Oracle JDK: unspecified vulnerability fixed in 7u191, 8u181, and 10.0.2 (JavaFX) (CVE-2018-2941)\n* Oracle JDK: unspecified vulnerability fixed in 6u201, 7u191, 8u181, and 10.0.2 (Libraries) (CVE-2018-2940)\n* OpenJDK: insufficient index validation in PatternSyntaxException getMessage() (Concurrency, 8199547) (CVE-2018-2952)\n* Oracle JDK: unspecified vulnerability fixed in 6u201, 7u191, 8u181, and 10.0.2 (JSSE) (CVE-2018-2973)\nFor more details about the security issue(s), including the impact, a CVSS score, and other related information, refer to the CVE page(s) listed in the References section.",
  "Platform": [
    "Oracle Java for Red Hat Enterprise Linux 7"
  ],
  "References": [
    {
      "Source": "RHSA",
      "URI": "https://access.redhat.com/errata/RHSA-2018:2254",
      "ID": "RHSA-2018:2254"
    },
    {
      "Source": "CVE",
      "URI": "https://access.redhat.com/security/cve/CVE-2018-2940",
      "ID": "CVE-2018-2940"
    },
    {
      "Source": "CVE",
      "URI": "https://access.redhat.com/security/cve/CVE-2018-2941",
      "ID": "CVE-2018-2941"
    },
    {
      "Source": "CVE",
      "URI": "https://access.redhat.com/security/cve/CVE-2018-2952",
      "ID": "CVE-2018-2952"
    },
    {
      "Source": "CVE",
      "URI": "https://access.redhat.com/security/cve/CVE-2018-2973",
      "ID": "CVE-2018-2973"
    }
  ],
  "Criteria": {
    "Operator": "OR",
    "Criterias": [
      {
        "Operator": "AND",
        "Criterias": [
          {
            "Operator": "OR",
            "Criterias": [
              {
                "Operator": "AND",
                "Criterias": [

                ],
                "Criterions": [
                  {
                    "Comment": "java-1.7.0-oracle is earlier than 1:1.7.0.191-1jpp.2.el7"
                  },
                  {
                    "Comment": "java-1.7.0-oracle is signed with Red Hat redhatrelease2 key"
                  }
                ]
              },
              {
                "Operator": "AND",
                "Criterias": [

                ],
                "Criterions": [
                  {
                    "Comment": "java-1.7.0-oracle-devel is earlier than 1:1.7.0.191-1jpp.2.el7"
                  },
                  {
                    "Comment": "java-1.7.0-oracle-devel is signed with Red Hat redhatrelease2 key"
                  }
                ]
              },
              {
                "Operator": "AND",
                "Criterias": [

                ],
                "Criterions": [
                  {
                    "Comment": "java-1.7.0-oracle-javafx is earlier than 1:1.7.0.191-1jpp.2.el7"
                  },
                  {
                    "Comment": "java-1.7.0-oracle-javafx is signed with Red Hat redhatrelease2 key"
                  }
                ]
              },
              {
                "Operator": "AND",
                "Criterias": [

                ],
                "Criterions": [
                  {
                    "Comment": "java-1.7.0-oracle-jdbc is earlier than 1:1.7.0.191-1jpp.2.el7"
                  },
                  {
                    "Comment": "java-1.7.0-oracle-jdbc is signed with Red Hat redhatrelease2 key"
                  }
                ]
              },
              {
                "Operator": "AND",
                "Criterias": [

                ],
                "Criterions": [
                  {
                    "Comment": "java-1.7.0-oracle-plugin is earlier than 1:1.7.0.191-1jpp.2.el7"
                  },
                  {
                    "Comment": "java-1.7.0-oracle-plugin is signed with Red Hat redhatrelease2 key"
                  }
                ]
              },
              {
                "Operator": "AND",
                "Criterias": [

                ],
                "Criterions": [
                  {
                    "Comment": "java-1.7.0-oracle-src is earlier than 1:1.7.0.191-1jpp.2.el7"
                  },
                  {
                    "Comment": "java-1.7.0-oracle-src is signed with Red Hat redhatrelease2 key"
                  }
                ]
              }
            ],
            "Criterions": [

            ]
          }
        ],
        "Criterions": [
          {
            "Comment": "Oracle Linux 7 is installed"
          }
        ]
      }
    ],
    "Criterions": [
      {
        "Comment": "Oracle Linux 7 is installed"
      }
    ]
  },
  "Severity": "Critical",
  "Cves": [
    {
      "Impact": "",
      "Href": "",
      "ID": "CVE-2018-2940"
    },
    {
      "Impact": "",
      "Href": "",
      "ID": "CVE-2018-2941"
    },
    {
      "Impact": "",
      "Href": "",
      "ID": "CVE-2018-2952"
    },
    {
      "Impact": "",
      "Href": "",
      "ID": "CVE-2018-2973"
    }
  ],
  "Issued": {
    "Date": "2018-07-24"
  }
}