{
  "Title": "RHSA-2018:2112: firefox security update (Critical)",
  "Description": "Mozilla Firefox is an open-source web browser, designed for standards compliance, performance, and portability.\nThis update upgrades Firefox to version 60.1.0 ESR.\nSecurity Fix(es):\n* Mozilla: Memory safety bugs fixed in Firefox 61, Firefox ESR 60.1, and Firefox ESR 52.9 (CVE-2018-5188)\n* Mozilla: Buffer overflow using computed size of canvas element (CVE-2018-12359)\n* Mozilla: Use-after-free using focus() (CVE-2018-12360)\n* Mozilla: Media recorder segmentation fault when track type is changed during capture (CVE-2018-5156)\n* Skia: Heap buffer overflow rasterizing paths in SVG (CVE-2018-6126)\n* Mozilla: Integer overflow in SSSE3 scaler (CVE-2018-12362)\n* Mozilla: Use-after-free when appending DOM nodes (CVE-2018-12363)\n* Mozilla: CSRF attacks through 307 redirects and NPAPI plugins (CVE-2018-12364)\n* Mozilla: address bar username and password spoofing in reader mode (CVE-2017-7762)\n* Mozilla: Compromised IPC child process can list local filenames (CVE-2018-12365)\n* Mozilla: Invalid data handling during QCMS transformations (CVE-2018-12366)\nFor more details about the security issue(s), including the impact, a CVSS score, and other related information, refer to the CVE page(s) listed in the References section.\nRed Hat would like to thank the Mozilla project for reporting these issues. Upstream acknowledges Alex Gaynor, Christoph Diehl, Christian Holler, Jason Kratzer, David Major, Jon Coppeard, Nicolas B. Pierron, Marcia Knous, Ronald Crane, Nils, F. Alonso (revskills), David Black, and OSS-Fuzz as the original reporters.",
  "Platform": [
    "Red Hat Enterprise Linux 6"
  ],
  "References": [
    {
      "Source": "RHSA",
      "URI": "https://access.redhat.com/errata/RHSA-2018:2112",
      "ID": "RHSA-2018:2112"
    },
    {
      "Source": "CVE",
      "URI": "https://access.redhat.com/security/cve/CVE-2017-7762",
      "ID": "CVE-2017-7762"
    },
    {
      "Source": "CVE",
      "URI": "https://access.redhat.com/security/cve/CVE-2018-12359",
      "ID": "CVE-2018-12359"
    },
    {
      "Source": "CVE",
      "URI": "https://access.redhat.com/security/cve/CVE-2018-12360",
      "ID": "CVE-2018-12360"
    },
    {
      "Source": "CVE",
      "URI": "https://access.redhat.com/security/cve/CVE-2018-12362",
      "ID": "CVE-2018-12362"
    },
    {
      "Source": "CVE",
      "URI": "https://access.redhat.com/security/cve/CVE-2018-12363",
      "ID": "CVE-2018-12363"
    },
    {
      "Source": "CVE",
      "URI": "https://access.redhat.com/security/cve/CVE-2018-12364",
      "ID": "CVE-2018-12364"
    },
    {
      "Source": "CVE",
      "URI": "https://access.redhat.com/security/cve/CVE-2018-12365",
      "ID": "CVE-2018-12365"
    },
    {
      "Source": "CVE",
      "URI": "https://access.redhat.com/security/cve/CVE-2018-12366",
      "ID": "CVE-2018-12366"
    },
    {
      "Source": "CVE",
      "URI": "https://access.redhat.com/security/cve/CVE-2018-5156",
      "ID": "CVE-2018-5156"
    },
    {
      "Source": "CVE",
      "URI": "https://access.redhat.com/security/cve/CVE-2018-5188",
      "ID": "CVE-2018-5188"
    },
    {
      "Source": "CVE",
      "URI": "https://access.redhat.com/security/cve/CVE-2018-6126",
      "ID": "CVE-2018-6126"
    }
  ],
  "Criteria": {
    "Operator": "OR",
    "Criterias": [
      {
        "Operator": "AND",
        "Criterias": [

        ],
        "Criterions": [
          {
            "Comment": "Oracle Linux 6 is installed"
          },
          {
            "Comment": "firefox is earlier than 0:60.1.0-5.el6"
          },
          {
            "Comment": "firefox is signed with Red Hat redhatrelease2 key"
          }
        ]
      }
    ],
    "Criterions": [
      {
        "Comment": "Oracle Linux 6 is installed"
      }
    ]
  },
  "Severity": "Critical",
  "Cves": [
    {
      "Impact": "",
      "Href": "",
      "ID": "CVE-2017-7762"
    },
    {
      "Impact": "",
      "Href": "",
      "ID": "CVE-2018-12359"
    },
    {
      "Impact": "",
      "Href": "",
      "ID": "CVE-2018-12360"
    },
    {
      "Impact": "",
      "Href": "",
      "ID": "CVE-2018-12362"
    },
    {
      "Impact": "",
      "Href": "",
      "ID": "CVE-2018-12363"
    },
    {
      "Impact": "",
      "Href": "",
      "ID": "CVE-2018-12364"
    },
    {
      "Impact": "",
      "Href": "",
      "ID": "CVE-2018-12365"
    },
    {
      "Impact": "",
      "Href": "",
      "ID": "CVE-2018-12366"
    },
    {
      "Impact": "",
      "Href": "",
      "ID": "CVE-2018-5156"
    },
    {
      "Impact": "",
      "Href": "",
      "ID": "CVE-2018-5188"
    },
    {
      "Impact": "",
      "Href": "",
      "ID": "CVE-2018-6126"
    }
  ],
  "Issued": {
    "Date": "2018-06-28"
  }
}