{
  "Title": "RHSA-2018:2757: 389-ds-base security and bug fix update (Moderate)",
  "Description": "389 Directory Server is an LDAP version 3 (LDAPv3) compliant server. The base packages include the Lightweight Directory Access Protocol (LDAP) server and command-line utilities for server administration.\nSecurity Fix(es):\n* 389-ds-base: race condition on reference counter leads to DoS using persistent search (CVE-2018-10850)\n* 389-ds-base: ldapsearch with server side sort allows users to cause a crash (CVE-2018-10935)\n* 389-ds-base: Server crash through modify command with large DN (CVE-2018-14624)\n* 389-ds-base: Crash in delete_passwdPolicy when persistent search connections are terminated unexpectedly (CVE-2018-14638)\nFor more details about the security issue(s), including the impact, a CVSS score, and other related information, refer to the CVE page(s) listed in the References section.\nThe CVE-2018-10850 issue was discovered by Thierry Bordaz (Red Hat) and the CVE-2018-14638 issue was discovered by Viktor Ashirov (Red Hat).\nBug Fix(es):\n* Previously, the nucn-stans framework was enabled by default in Directory Server, but the framework is not stable. As a consequence, deadlocks and file descriptor leaks could occur. This update changes the default value of the nsslapd-enable-nunc-stans parameter to \"off\". As a result, Directory Server is now stable. (BZ#1614836)\n* When a search evaluates the \"shadowAccount\" entry, Directory Server adds the shadow attributes to the entry. If the fine-grained password policy is enabled, the \"shadowAccount\" entry can contain its own \"pwdpolicysubentry\" policy attribute. Previously, to retrieve this attribute, the server started an internal search for each \"shadowAccount\" entry, which was unnecessary because the entry was already known to the server. With this update, Directory Server only starts internal searches if the entry is not known. As a result, the performance of searches, such as response time and throughput, is improved. (BZ#1615924)",
  "Platform": [
    "Red Hat Enterprise Linux 7"
  ],
  "References": [
    {
      "Source": "RHSA",
      "URI": "https://access.redhat.com/errata/RHSA-2018:2757",
      "ID": "RHSA-2018:2757"
    },
    {
      "Source": "CVE",
      "URI": "https://access.redhat.com/security/cve/CVE-2018-10850",
      "ID": "CVE-2018-10850"
    },
    {
      "Source": "CVE",
      "URI": "https://access.redhat.com/security/cve/CVE-2018-10935",
      "ID": "CVE-2018-10935"
    },
    {
      "Source": "CVE",
      "URI": "https://access.redhat.com/security/cve/CVE-2018-14624",
      "ID": "CVE-2018-14624"
    },
    {
      "Source": "CVE",
      "URI": "https://access.redhat.com/security/cve/CVE-2018-14638",
      "ID": "CVE-2018-14638"
    }
  ],
  "Criteria": {
    "Operator": "OR",
    "Criterias": [
      {
        "Operator": "AND",
        "Criterias": [
          {
            "Operator": "OR",
            "Criterias": [
              {
                "Operator": "AND",
                "Criterias": [

                ],
                "Criterions": [
                  {
                    "Comment": "389-ds-base is earlier than 0:1.3.7.5-28.el7_5"
                  },
                  {
                    "Comment": "389-ds-base is signed with Red Hat redhatrelease2 key"
                  }
                ]
              },
              {
                "Operator": "AND",
                "Criterias": [

                ],
                "Criterions": [
                  {
                    "Comment": "389-ds-base-devel is earlier than 0:1.3.7.5-28.el7_5"
                  },
                  {
                    "Comment": "389-ds-base-devel is signed with Red Hat redhatrelease2 key"
                  }
                ]
              },
              {
                "Operator": "AND",
                "Criterias": [

                ],
                "Criterions": [
                  {
                    "Comment": "389-ds-base-libs is earlier than 0:1.3.7.5-28.el7_5"
                  },
                  {
                    "Comment": "389-ds-base-libs is signed with Red Hat redhatrelease2 key"
                  }
                ]
              },
              {
                "Operator": "AND",
                "Criterias": [

                ],
                "Criterions": [
                  {
                    "Comment": "389-ds-base-snmp is earlier than 0:1.3.7.5-28.el7_5"
                  },
                  {
                    "Comment": "389-ds-base-snmp is signed with Red Hat redhatrelease2 key"
                  }
                ]
              }
            ],
            "Criterions": [

            ]
          }
        ],
        "Criterions": [
          {
            "Comment": "Oracle Linux 7 is installed"
          }
        ]
      }
    ],
    "Criterions": [
      {
        "Comment": "Oracle Linux 7 is installed"
      }
    ]
  },
  "Severity": "Moderate",
  "Cves": [
    {
      "Impact": "",
      "Href": "",
      "ID": "CVE-2018-10850"
    },
    {
      "Impact": "",
      "Href": "",
      "ID": "CVE-2018-10935"
    },
    {
      "Impact": "",
      "Href": "",
      "ID": "CVE-2018-14624"
    },
    {
      "Impact": "",
      "Href": "",
      "ID": "CVE-2018-14638"
    }
  ],
  "Issued": {
    "Date": "2018-09-25"
  }
}