{
  "Title": "RHSA-2018:2918: ghostscript security update (Important)",
  "Description": "The Ghostscript suite contains utilities for rendering PostScript and PDF documents. Ghostscript translates PostScript code to common bitmap formats so that the code can be displayed or printed.\nSecurity Fix(es):\n* It was discovered that the ghostscript /invalidaccess checks fail under certain conditions. An attacker could possibly exploit this to bypass the -dSAFER protection and, for example, execute arbitrary shell commands via a specially crafted PostScript document. (CVE-2018-16509)\n* ghostscript: LockDistillerParams type confusion (699656) (CVE-2018-15910)\n* ghostscript: .definemodifiedfont memory corruption if /typecheck is handled (699668) (CVE-2018-16542)\n* ghostscript: Stack-based out-of-bounds write in pdf_set_text_matrix function in gdevpdts.c (CVE-2018-10194)\nFor more details about the security issue(s), including the impact, a CVSS score, and other related information, refer to the CVE page(s) listed in the References section.\nRed Hat would like to thank Tavis Ormandy (Google Project Zero) for reporting CVE-2018-16509, CVE-2018-15910, and CVE-2018-16542.",
  "Platform": [
    "Red Hat Enterprise Linux 7"
  ],
  "References": [
    {
      "Source": "RHSA",
      "URI": "https://access.redhat.com/errata/RHSA-2018:2918",
      "ID": "RHSA-2018:2918"
    },
    {
      "Source": "CVE",
      "URI": "https://access.redhat.com/security/cve/CVE-2018-10194",
      "ID": "CVE-2018-10194"
    },
    {
      "Source": "CVE",
      "URI": "https://access.redhat.com/security/cve/CVE-2018-15910",
      "ID": "CVE-2018-15910"
    },
    {
      "Source": "CVE",
      "URI": "https://access.redhat.com/security/cve/CVE-2018-16509",
      "ID": "CVE-2018-16509"
    },
    {
      "Source": "CVE",
      "URI": "https://access.redhat.com/security/cve/CVE-2018-16542",
      "ID": "CVE-2018-16542"
    }
  ],
  "Criteria": {
    "Operator": "OR",
    "Criterias": [
      {
        "Operator": "AND",
        "Criterias": [
          {
            "Operator": "OR",
            "Criterias": [
              {
                "Operator": "AND",
                "Criterias": [

                ],
                "Criterions": [
                  {
                    "Comment": "ghostscript is earlier than 0:9.07-29.el7_5.2"
                  },
                  {
                    "Comment": "ghostscript is signed with Red Hat redhatrelease2 key"
                  }
                ]
              },
              {
                "Operator": "AND",
                "Criterias": [

                ],
                "Criterions": [
                  {
                    "Comment": "ghostscript-cups is earlier than 0:9.07-29.el7_5.2"
                  },
                  {
                    "Comment": "ghostscript-cups is signed with Red Hat redhatrelease2 key"
                  }
                ]
              },
              {
                "Operator": "AND",
                "Criterias": [

                ],
                "Criterions": [
                  {
                    "Comment": "ghostscript-devel is earlier than 0:9.07-29.el7_5.2"
                  },
                  {
                    "Comment": "ghostscript-devel is signed with Red Hat redhatrelease2 key"
                  }
                ]
              },
              {
                "Operator": "AND",
                "Criterias": [

                ],
                "Criterions": [
                  {
                    "Comment": "ghostscript-doc is earlier than 0:9.07-29.el7_5.2"
                  },
                  {
                    "Comment": "ghostscript-doc is signed with Red Hat redhatrelease2 key"
                  }
                ]
              },
              {
                "Operator": "AND",
                "Criterias": [

                ],
                "Criterions": [
                  {
                    "Comment": "ghostscript-gtk is earlier than 0:9.07-29.el7_5.2"
                  },
                  {
                    "Comment": "ghostscript-gtk is signed with Red Hat redhatrelease2 key"
                  }
                ]
              }
            ],
            "Criterions": [

            ]
          }
        ],
        "Criterions": [
          {
            "Comment": "Oracle Linux 7 is installed"
          }
        ]
      }
    ],
    "Criterions": [
      {
        "Comment": "Oracle Linux 7 is installed"
      }
    ]
  },
  "Severity": "Important",
  "Cves": [
    {
      "Impact": "",
      "Href": "",
      "ID": "CVE-2018-10194"
    },
    {
      "Impact": "",
      "Href": "",
      "ID": "CVE-2018-15910"
    },
    {
      "Impact": "",
      "Href": "",
      "ID": "CVE-2018-16509"
    },
    {
      "Impact": "",
      "Href": "",
      "ID": "CVE-2018-16542"
    }
  ],
  "Issued": {
    "Date": "2018-10-16"
  }
}