{
  "Title": "RHSA-2018:3324: fuse security update (Moderate)",
  "Description": "The fuse packages contain the File System in Userspace (FUSE) tools to mount a FUSE file system. With FUSE, it is possible to implement a fully functional file system in a user-space program.\nSecurity Fix(es):\n* fuse: bypass of the \"user_allow_other\" restriction when SELinux is active (CVE-2018-10906)\nFor more details about the security issue(s), including the impact, a CVSS score, and other related information, refer to the CVE page(s) listed in the References section.\nAdditional Changes:\nFor detailed information on changes in this release, see the Red Hat Enterprise Linux 7.6 Release Notes linked from the References section.",
  "Platform": [
    "Red Hat Enterprise Linux 7"
  ],
  "References": [
    {
      "Source": "RHSA",
      "URI": "https://access.redhat.com/errata/RHSA-2018:3324",
      "ID": "RHSA-2018:3324"
    },
    {
      "Source": "CVE",
      "URI": "https://access.redhat.com/security/cve/CVE-2018-10906",
      "ID": "CVE-2018-10906"
    }
  ],
  "Criteria": {
    "Operator": "OR",
    "Criterias": [
      {
        "Operator": "AND",
        "Criterias": [
          {
            "Operator": "OR",
            "Criterias": [
              {
                "Operator": "AND",
                "Criterias": [

                ],
                "Criterions": [
                  {
                    "Comment": "fuse is earlier than 0:2.9.2-11.el7"
                  },
                  {
                    "Comment": "fuse is signed with Red Hat redhatrelease2 key"
                  }
                ]
              },
              {
                "Operator": "AND",
                "Criterias": [

                ],
                "Criterions": [
                  {
                    "Comment": "fuse-devel is earlier than 0:2.9.2-11.el7"
                  },
                  {
                    "Comment": "fuse-devel is signed with Red Hat redhatrelease2 key"
                  }
                ]
              },
              {
                "Operator": "AND",
                "Criterias": [

                ],
                "Criterions": [
                  {
                    "Comment": "fuse-libs is earlier than 0:2.9.2-11.el7"
                  },
                  {
                    "Comment": "fuse-libs is signed with Red Hat redhatrelease2 key"
                  }
                ]
              }
            ],
            "Criterions": [

            ]
          }
        ],
        "Criterions": [
          {
            "Comment": "Oracle Linux 7 is installed"
          }
        ]
      }
    ],
    "Criterions": [
      {
        "Comment": "Oracle Linux 7 is installed"
      }
    ]
  },
  "Severity": "Moderate",
  "Cves": [
    {
      "Impact": "",
      "Href": "",
      "ID": "CVE-2018-10906"
    }
  ],
  "Issued": {
    "Date": "2018-10-30"
  }
}