{
  "Title": "RHSA-2018:1932: zsh security update (Moderate)",
  "Description": "The zsh shell is a command interpreter usable as an interactive login shell and as a shell script command processor. Zsh resembles the ksh shell (the Korn shell), but includes many enhancements. Zsh supports command-line editing, built-in spelling correction, programmable command completion, shell functions (with autoloading), a history mechanism, and more.\nSecurity Fix(es):\n* zsh: Stack-based buffer overflow in gen_matches_files() at compctl.c (CVE-2018-1083)\n* zsh: buffer overflow when scanning very long directory paths for symbolic links (CVE-2014-10072)\n* zsh: buffer overrun in symlinks (CVE-2017-18206)\n* zsh: buffer overflow in utils.c:checkmailpath() can lead to local arbitrary code execution (CVE-2018-1100)\nFor more details about the security issue(s), including the impact, a CVSS score, and other related information, refer to the CVE page(s) listed in the References section.\nThe CVE-2018-1083 and CVE-2018-1100 issues were discovered by Richard Maciel Costa (Red Hat).\nAdditional Changes:\nFor detailed information on changes in this release, see the Red Hat Enterprise Linux 6.10 Release Notes and Red Hat Enterprise Linux 6.10 Technical Notes linked from the References section.",
  "Platform": [
    "Red Hat Enterprise Linux 6"
  ],
  "References": [
    {
      "Source": "RHSA",
      "URI": "https://access.redhat.com/errata/RHSA-2018:1932",
      "ID": "RHSA-2018:1932"
    },
    {
      "Source": "CVE",
      "URI": "https://access.redhat.com/security/cve/CVE-2014-10072",
      "ID": "CVE-2014-10072"
    },
    {
      "Source": "CVE",
      "URI": "https://access.redhat.com/security/cve/CVE-2017-18206",
      "ID": "CVE-2017-18206"
    },
    {
      "Source": "CVE",
      "URI": "https://access.redhat.com/security/cve/CVE-2018-1083",
      "ID": "CVE-2018-1083"
    },
    {
      "Source": "CVE",
      "URI": "https://access.redhat.com/security/cve/CVE-2018-1100",
      "ID": "CVE-2018-1100"
    }
  ],
  "Criteria": {
    "Operator": "OR",
    "Criterias": [
      {
        "Operator": "AND",
        "Criterias": [
          {
            "Operator": "OR",
            "Criterias": [
              {
                "Operator": "AND",
                "Criterias": [

                ],
                "Criterions": [
                  {
                    "Comment": "zsh is earlier than 0:4.3.11-8.el6"
                  },
                  {
                    "Comment": "zsh is signed with Red Hat redhatrelease2 key"
                  }
                ]
              },
              {
                "Operator": "AND",
                "Criterias": [

                ],
                "Criterions": [
                  {
                    "Comment": "zsh-html is earlier than 0:4.3.11-8.el6"
                  },
                  {
                    "Comment": "zsh-html is signed with Red Hat redhatrelease2 key"
                  }
                ]
              }
            ],
            "Criterions": [

            ]
          }
        ],
        "Criterions": [
          {
            "Comment": "Oracle Linux 6 is installed"
          }
        ]
      }
    ],
    "Criterions": [
      {
        "Comment": "Oracle Linux 6 is installed"
      }
    ]
  },
  "Severity": "Moderate",
  "Cves": [
    {
      "Impact": "",
      "Href": "",
      "ID": "CVE-2014-10072"
    },
    {
      "Impact": "",
      "Href": "",
      "ID": "CVE-2017-18206"
    },
    {
      "Impact": "",
      "Href": "",
      "ID": "CVE-2018-1083"
    },
    {
      "Impact": "",
      "Href": "",
      "ID": "CVE-2018-1100"
    }
  ],
  "Issued": {
    "Date": "2018-06-19"
  }
}