{
  "Title": "RHSA-2018:0527: firefox security update (Critical)",
  "Description": "Mozilla Firefox is an open source web browser.\nThis update upgrades Firefox to version 52.7.0 ESR.\nSecurity Fix(es):\n* Mozilla: Memory safety bugs fixed in Firefox 59 and Firefox ESR 52.7 (MFSA 2018-07) (CVE-2018-5125)\n* Mozilla: Buffer overflow manipulating SVG animatedPathSegList (MFSA 2018-07) (CVE-2018-5127)\n* Mozilla: Out-of-bounds write with malformed IPC messages (MFSA 2018-07) (CVE-2018-5129)\n* Mozilla: Mismatched RTP payload type can trigger memory corruption (MFSA 2018-07) (CVE-2018-5130)\n* Mozilla: Fetch API improperly returns cached copies of no-store/no-cache resources (MFSA 2018-07) (CVE-2018-5131)\n* Mozilla: Integer overflow during Unicode conversion (MFSA 2018-07) (CVE-2018-5144)\n* Mozilla: Memory safety bugs fixed in Firefox ESR 52.7 (MFSA 2018-07) (CVE-2018-5145)\nFor more details about the security issue(s), including the impact, a CVSS score, acknowledgments, and other related information, refer to the CVE page(s) listed in the References section.",
  "Platform": [
    "Red Hat Enterprise Linux 7"
  ],
  "References": [
    {
      "Source": "RHSA",
      "URI": "https://access.redhat.com/errata/RHSA-2018:0527",
      "ID": "RHSA-2018:0527"
    },
    {
      "Source": "CVE",
      "URI": "https://access.redhat.com/security/cve/CVE-2018-5125",
      "ID": "CVE-2018-5125"
    },
    {
      "Source": "CVE",
      "URI": "https://access.redhat.com/security/cve/CVE-2018-5127",
      "ID": "CVE-2018-5127"
    },
    {
      "Source": "CVE",
      "URI": "https://access.redhat.com/security/cve/CVE-2018-5129",
      "ID": "CVE-2018-5129"
    },
    {
      "Source": "CVE",
      "URI": "https://access.redhat.com/security/cve/CVE-2018-5130",
      "ID": "CVE-2018-5130"
    },
    {
      "Source": "CVE",
      "URI": "https://access.redhat.com/security/cve/CVE-2018-5131",
      "ID": "CVE-2018-5131"
    },
    {
      "Source": "CVE",
      "URI": "https://access.redhat.com/security/cve/CVE-2018-5144",
      "ID": "CVE-2018-5144"
    },
    {
      "Source": "CVE",
      "URI": "https://access.redhat.com/security/cve/CVE-2018-5145",
      "ID": "CVE-2018-5145"
    }
  ],
  "Criteria": {
    "Operator": "OR",
    "Criterias": [
      {
        "Operator": "AND",
        "Criterias": [

        ],
        "Criterions": [
          {
            "Comment": "Oracle Linux 7 is installed"
          },
          {
            "Comment": "firefox is earlier than 0:52.7.0-1.el7_4"
          },
          {
            "Comment": "firefox is signed with Red Hat redhatrelease2 key"
          }
        ]
      }
    ],
    "Criterions": [
      {
        "Comment": "Oracle Linux 7 is installed"
      }
    ]
  },
  "Severity": "Critical",
  "Cves": [
    {
      "Impact": "",
      "Href": "",
      "ID": "CVE-2018-5125"
    },
    {
      "Impact": "",
      "Href": "",
      "ID": "CVE-2018-5127"
    },
    {
      "Impact": "",
      "Href": "",
      "ID": "CVE-2018-5129"
    },
    {
      "Impact": "",
      "Href": "",
      "ID": "CVE-2018-5130"
    },
    {
      "Impact": "",
      "Href": "",
      "ID": "CVE-2018-5131"
    },
    {
      "Impact": "",
      "Href": "",
      "ID": "CVE-2018-5144"
    },
    {
      "Impact": "",
      "Href": "",
      "ID": "CVE-2018-5145"
    }
  ],
  "Issued": {
    "Date": "2018-03-15"
  }
}