{
  "Title": "RHBA-2016:2206: evolution-data-server bug fix update (Moderate)",
  "Description": "The evolution-data-server packages provide a unified back end for applications which interact with contacts, tasks and calendar information. Evolution Data Server was originally developed as a back end for the Evolution information management application, but is now used by various other applications.\nFor detailed information on changes in this release, see the Red Hat Enterprise Linux 7.3 Release Notes linked from the References section.\nUsers of evolution-data-server are advised to upgrade to these updated packages.",
  "Platform": [
    "Red Hat Enterprise Linux 7"
  ],
  "References": [
    {
      "Source": "RHSA",
      "URI": "https://access.redhat.com/errata/RHBA-2016:2206",
      "ID": "RHBA-2016:2206"
    },
    {
      "Source": "CVE",
      "URI": "https://access.redhat.com/security/cve/CVE-2016-10727",
      "ID": "CVE-2016-10727"
    }
  ],
  "Criteria": {
    "Operator": "OR",
    "Criterias": [
      {
        "Operator": "AND",
        "Criterias": [
          {
            "Operator": "OR",
            "Criterias": [
              {
                "Operator": "AND",
                "Criterias": [

                ],
                "Criterions": [
                  {
                    "Comment": "openchange is earlier than 0:2.3-2.el7"
                  },
                  {
                    "Comment": "openchange is signed with Red Hat redhatrelease2 key"
                  }
                ]
              },
              {
                "Operator": "AND",
                "Criterias": [

                ],
                "Criterions": [
                  {
                    "Comment": "openchange-client is earlier than 0:2.3-2.el7"
                  },
                  {
                    "Comment": "openchange-client is signed with Red Hat redhatrelease2 key"
                  }
                ]
              },
              {
                "Operator": "AND",
                "Criterias": [

                ],
                "Criterions": [
                  {
                    "Comment": "openchange-devel is earlier than 0:2.3-2.el7"
                  },
                  {
                    "Comment": "openchange-devel is signed with Red Hat redhatrelease2 key"
                  }
                ]
              },
              {
                "Operator": "AND",
                "Criterias": [

                ],
                "Criterions": [
                  {
                    "Comment": "openchange-devel-docs is earlier than 0:2.3-2.el7"
                  },
                  {
                    "Comment": "openchange-devel-docs is signed with Red Hat redhatrelease2 key"
                  }
                ]
              },
              {
                "Operator": "AND",
                "Criterias": [

                ],
                "Criterions": [
                  {
                    "Comment": "evolution-ews is earlier than 0:3.12.11-9.el7"
                  },
                  {
                    "Comment": "evolution-ews is signed with Red Hat redhatrelease2 key"
                  }
                ]
              },
              {
                "Operator": "AND",
                "Criterias": [

                ],
                "Criterions": [
                  {
                    "Comment": "evolution-mapi is earlier than 0:3.12.10-5.el7"
                  },
                  {
                    "Comment": "evolution-mapi is signed with Red Hat redhatrelease2 key"
                  }
                ]
              },
              {
                "Operator": "AND",
                "Criterias": [

                ],
                "Criterions": [
                  {
                    "Comment": "evolution-mapi-devel is earlier than 0:3.12.10-5.el7"
                  },
                  {
                    "Comment": "evolution-mapi-devel is signed with Red Hat redhatrelease2 key"
                  }
                ]
              },
              {
                "Operator": "AND",
                "Criterias": [

                ],
                "Criterions": [
                  {
                    "Comment": "evolution-data-server is earlier than 0:3.12.11-37.el7"
                  },
                  {
                    "Comment": "evolution-data-server is signed with Red Hat redhatrelease2 key"
                  }
                ]
              },
              {
                "Operator": "AND",
                "Criterias": [

                ],
                "Criterions": [
                  {
                    "Comment": "evolution-data-server-devel is earlier than 0:3.12.11-37.el7"
                  },
                  {
                    "Comment": "evolution-data-server-devel is signed with Red Hat redhatrelease2 key"
                  }
                ]
              },
              {
                "Operator": "AND",
                "Criterias": [

                ],
                "Criterions": [
                  {
                    "Comment": "evolution-data-server-doc is earlier than 0:3.12.11-37.el7"
                  },
                  {
                    "Comment": "evolution-data-server-doc is signed with Red Hat redhatrelease2 key"
                  }
                ]
              }
            ],
            "Criterions": [

            ]
          }
        ],
        "Criterions": [
          {
            "Comment": "Oracle Linux 7 is installed"
          }
        ]
      }
    ],
    "Criterions": [
      {
        "Comment": "Oracle Linux 7 is installed"
      }
    ]
  },
  "Severity": "Moderate",
  "Cves": [
    {
      "Impact": "",
      "Href": "",
      "ID": "CVE-2016-10727"
    }
  ],
  "Issued": {
    "Date": "2016-11-03"
  }
}