{
  "Title": "RHSA-2016:0459: bind security update (Important)",
  "Description": "The Berkeley Internet Name Domain (BIND) is an implementation of the Domain\nName System (DNS) protocols. BIND includes a DNS server (named); a resolver\nlibrary (routines for applications to use when interfacing with DNS); and\ntools for verifying that the DNS server is operating correctly.\nA denial of service flaw was found in the way BIND parsed signature records\nfor DNAME records. By sending a specially crafted query, a remote attacker\ncould use this flaw to cause named to crash. (CVE-2016-1286)\nA denial of service flaw was found in the way BIND processed certain\ncontrol channel input. A remote attacker able to send a malformed packet to\nthe control channel could use this flaw to cause named to crash.\n(CVE-2016-1285)\nRed Hat would like to thank ISC for reporting these issues.\nAll bind users are advised to upgrade to these updated packages, which\ncontain backported patches to correct these issues. After installing the\nupdate, the BIND daemon (named) will be restarted automatically.",
  "Platform": [
    "Red Hat Enterprise Linux 5",
    "Red Hat Enterprise Linux 6",
    "Red Hat Enterprise Linux 7"
  ],
  "References": [
    {
      "Source": "RHSA",
      "URI": "https://access.redhat.com/errata/RHSA-2016:0459",
      "ID": "RHSA-2016:0459"
    },
    {
      "Source": "CVE",
      "URI": "https://access.redhat.com/security/cve/CVE-2016-1285",
      "ID": "CVE-2016-1285"
    },
    {
      "Source": "CVE",
      "URI": "https://access.redhat.com/security/cve/CVE-2016-1286",
      "ID": "CVE-2016-1286"
    }
  ],
  "Criteria": {
    "Operator": "OR",
    "Criterias": [
      {
        "Operator": "AND",
        "Criterias": [
          {
            "Operator": "OR",
            "Criterias": [
              {
                "Operator": "AND",
                "Criterias": [

                ],
                "Criterions": [
                  {
                    "Comment": "bind is earlier than 30:9.3.6-25.P1.el5_11.8"
                  },
                  {
                    "Comment": "bind is signed with Red Hat redhatrelease2 key"
                  }
                ]
              },
              {
                "Operator": "AND",
                "Criterias": [

                ],
                "Criterions": [
                  {
                    "Comment": "bind-chroot is earlier than 30:9.3.6-25.P1.el5_11.8"
                  },
                  {
                    "Comment": "bind-chroot is signed with Red Hat redhatrelease2 key"
                  }
                ]
              },
              {
                "Operator": "AND",
                "Criterias": [

                ],
                "Criterions": [
                  {
                    "Comment": "bind-devel is earlier than 30:9.3.6-25.P1.el5_11.8"
                  },
                  {
                    "Comment": "bind-devel is signed with Red Hat redhatrelease2 key"
                  }
                ]
              },
              {
                "Operator": "AND",
                "Criterias": [

                ],
                "Criterions": [
                  {
                    "Comment": "bind-libbind-devel is earlier than 30:9.3.6-25.P1.el5_11.8"
                  },
                  {
                    "Comment": "bind-libbind-devel is signed with Red Hat redhatrelease2 key"
                  }
                ]
              },
              {
                "Operator": "AND",
                "Criterias": [

                ],
                "Criterions": [
                  {
                    "Comment": "bind-libs is earlier than 30:9.3.6-25.P1.el5_11.8"
                  },
                  {
                    "Comment": "bind-libs is signed with Red Hat redhatrelease2 key"
                  }
                ]
              },
              {
                "Operator": "AND",
                "Criterias": [

                ],
                "Criterions": [
                  {
                    "Comment": "bind-sdb is earlier than 30:9.3.6-25.P1.el5_11.8"
                  },
                  {
                    "Comment": "bind-sdb is signed with Red Hat redhatrelease2 key"
                  }
                ]
              },
              {
                "Operator": "AND",
                "Criterias": [

                ],
                "Criterions": [
                  {
                    "Comment": "bind-utils is earlier than 30:9.3.6-25.P1.el5_11.8"
                  },
                  {
                    "Comment": "bind-utils is signed with Red Hat redhatrelease2 key"
                  }
                ]
              },
              {
                "Operator": "AND",
                "Criterias": [

                ],
                "Criterions": [
                  {
                    "Comment": "caching-nameserver is earlier than 30:9.3.6-25.P1.el5_11.8"
                  },
                  {
                    "Comment": "caching-nameserver is signed with Red Hat redhatrelease2 key"
                  }
                ]
              }
            ],
            "Criterions": [

            ]
          }
        ],
        "Criterions": [
          {
            "Comment": "Oracle Linux 5 is installed"
          }
        ]
      },
      {
        "Operator": "AND",
        "Criterias": [
          {
            "Operator": "OR",
            "Criterias": [
              {
                "Operator": "AND",
                "Criterias": [

                ],
                "Criterions": [
                  {
                    "Comment": "bind is earlier than 32:9.8.2-0.37.rc1.el6_7.7"
                  },
                  {
                    "Comment": "bind is signed with Red Hat redhatrelease2 key"
                  }
                ]
              },
              {
                "Operator": "AND",
                "Criterias": [

                ],
                "Criterions": [
                  {
                    "Comment": "bind-chroot is earlier than 32:9.8.2-0.37.rc1.el6_7.7"
                  },
                  {
                    "Comment": "bind-chroot is signed with Red Hat redhatrelease2 key"
                  }
                ]
              },
              {
                "Operator": "AND",
                "Criterias": [

                ],
                "Criterions": [
                  {
                    "Comment": "bind-devel is earlier than 32:9.8.2-0.37.rc1.el6_7.7"
                  },
                  {
                    "Comment": "bind-devel is signed with Red Hat redhatrelease2 key"
                  }
                ]
              },
              {
                "Operator": "AND",
                "Criterias": [

                ],
                "Criterions": [
                  {
                    "Comment": "bind-libs is earlier than 32:9.8.2-0.37.rc1.el6_7.7"
                  },
                  {
                    "Comment": "bind-libs is signed with Red Hat redhatrelease2 key"
                  }
                ]
              },
              {
                "Operator": "AND",
                "Criterias": [

                ],
                "Criterions": [
                  {
                    "Comment": "bind-sdb is earlier than 32:9.8.2-0.37.rc1.el6_7.7"
                  },
                  {
                    "Comment": "bind-sdb is signed with Red Hat redhatrelease2 key"
                  }
                ]
              },
              {
                "Operator": "AND",
                "Criterias": [

                ],
                "Criterions": [
                  {
                    "Comment": "bind-utils is earlier than 32:9.8.2-0.37.rc1.el6_7.7"
                  },
                  {
                    "Comment": "bind-utils is signed with Red Hat redhatrelease2 key"
                  }
                ]
              }
            ],
            "Criterions": [

            ]
          }
        ],
        "Criterions": [
          {
            "Comment": "Oracle Linux 6 is installed"
          }
        ]
      },
      {
        "Operator": "AND",
        "Criterias": [
          {
            "Operator": "OR",
            "Criterias": [
              {
                "Operator": "AND",
                "Criterias": [

                ],
                "Criterions": [
                  {
                    "Comment": "bind is earlier than 32:9.9.4-29.el7_2.3"
                  },
                  {
                    "Comment": "bind is signed with Red Hat redhatrelease2 key"
                  }
                ]
              },
              {
                "Operator": "AND",
                "Criterias": [

                ],
                "Criterions": [
                  {
                    "Comment": "bind-chroot is earlier than 32:9.9.4-29.el7_2.3"
                  },
                  {
                    "Comment": "bind-chroot is signed with Red Hat redhatrelease2 key"
                  }
                ]
              },
              {
                "Operator": "AND",
                "Criterias": [

                ],
                "Criterions": [
                  {
                    "Comment": "bind-devel is earlier than 32:9.9.4-29.el7_2.3"
                  },
                  {
                    "Comment": "bind-devel is signed with Red Hat redhatrelease2 key"
                  }
                ]
              },
              {
                "Operator": "AND",
                "Criterias": [

                ],
                "Criterions": [
                  {
                    "Comment": "bind-libs is earlier than 32:9.9.4-29.el7_2.3"
                  },
                  {
                    "Comment": "bind-libs is signed with Red Hat redhatrelease2 key"
                  }
                ]
              },
              {
                "Operator": "AND",
                "Criterias": [

                ],
                "Criterions": [
                  {
                    "Comment": "bind-libs-lite is earlier than 32:9.9.4-29.el7_2.3"
                  },
                  {
                    "Comment": "bind-libs-lite is signed with Red Hat redhatrelease2 key"
                  }
                ]
              },
              {
                "Operator": "AND",
                "Criterias": [

                ],
                "Criterions": [
                  {
                    "Comment": "bind-license is earlier than 32:9.9.4-29.el7_2.3"
                  },
                  {
                    "Comment": "bind-license is signed with Red Hat redhatrelease2 key"
                  }
                ]
              },
              {
                "Operator": "AND",
                "Criterias": [

                ],
                "Criterions": [
                  {
                    "Comment": "bind-lite-devel is earlier than 32:9.9.4-29.el7_2.3"
                  },
                  {
                    "Comment": "bind-lite-devel is signed with Red Hat redhatrelease2 key"
                  }
                ]
              },
              {
                "Operator": "AND",
                "Criterias": [

                ],
                "Criterions": [
                  {
                    "Comment": "bind-pkcs11 is earlier than 32:9.9.4-29.el7_2.3"
                  },
                  {
                    "Comment": "bind-pkcs11 is signed with Red Hat redhatrelease2 key"
                  }
                ]
              },
              {
                "Operator": "AND",
                "Criterias": [

                ],
                "Criterions": [
                  {
                    "Comment": "bind-pkcs11-devel is earlier than 32:9.9.4-29.el7_2.3"
                  },
                  {
                    "Comment": "bind-pkcs11-devel is signed with Red Hat redhatrelease2 key"
                  }
                ]
              },
              {
                "Operator": "AND",
                "Criterias": [

                ],
                "Criterions": [
                  {
                    "Comment": "bind-pkcs11-libs is earlier than 32:9.9.4-29.el7_2.3"
                  },
                  {
                    "Comment": "bind-pkcs11-libs is signed with Red Hat redhatrelease2 key"
                  }
                ]
              },
              {
                "Operator": "AND",
                "Criterias": [

                ],
                "Criterions": [
                  {
                    "Comment": "bind-pkcs11-utils is earlier than 32:9.9.4-29.el7_2.3"
                  },
                  {
                    "Comment": "bind-pkcs11-utils is signed with Red Hat redhatrelease2 key"
                  }
                ]
              },
              {
                "Operator": "AND",
                "Criterias": [

                ],
                "Criterions": [
                  {
                    "Comment": "bind-sdb is earlier than 32:9.9.4-29.el7_2.3"
                  },
                  {
                    "Comment": "bind-sdb is signed with Red Hat redhatrelease2 key"
                  }
                ]
              },
              {
                "Operator": "AND",
                "Criterias": [

                ],
                "Criterions": [
                  {
                    "Comment": "bind-sdb-chroot is earlier than 32:9.9.4-29.el7_2.3"
                  },
                  {
                    "Comment": "bind-sdb-chroot is signed with Red Hat redhatrelease2 key"
                  }
                ]
              },
              {
                "Operator": "AND",
                "Criterias": [

                ],
                "Criterions": [
                  {
                    "Comment": "bind-utils is earlier than 32:9.9.4-29.el7_2.3"
                  },
                  {
                    "Comment": "bind-utils is signed with Red Hat redhatrelease2 key"
                  }
                ]
              }
            ],
            "Criterions": [

            ]
          }
        ],
        "Criterions": [
          {
            "Comment": "Oracle Linux 7 is installed"
          }
        ]
      }
    ],
    "Criterions": [
      {
        "Comment": "Oracle Linux 5 is installed"
      }
    ]
  },
  "Severity": "Important",
  "Cves": [
    {
      "Impact": "",
      "Href": "",
      "ID": "CVE-2016-1285"
    },
    {
      "Impact": "",
      "Href": "",
      "ID": "CVE-2016-1286"
    }
  ],
  "Issued": {
    "Date": "2016-03-16"
  }
}