{
  "Title": "RHSA-2016:0175: glibc security and bug fix update (Critical)",
  "Description": "The glibc packages provide the standard C libraries (libc), POSIX thread\nlibraries (libpthread), standard math libraries (libm), and the Name\nServer Caching Daemon (nscd) used by multiple programs on the system.\nWithout these libraries, the Linux system cannot function correctly.\nA stack-based buffer overflow was found in the way the libresolv library\nperformed dual A/AAAA DNS queries. A remote attacker could create a\nspecially crafted DNS response which could cause libresolv to crash or,\npotentially, execute code with the permissions of the user running the\nlibrary. Note: this issue is only exposed when libresolv is called from the\nnss_dns NSS service module. (CVE-2015-7547)\nThis issue was discovered by the Google Security Team and Red Hat.\nThis update also fixes the following bugs:\n* The dynamic loader has been enhanced to allow the loading of more shared\nlibraries that make use of static thread local storage. While static thread\nlocal storage is the fastest access mechanism it may also prevent the\nshared library from being loaded at all since the static storage space is a\nlimited and shared process-global resource. Applications which would\npreviously fail with \"dlopen: cannot load any more object with static TLS\"\nshould now start up correctly. (BZ#1291270)\n* A bug in the POSIX realtime support would cause asynchronous I/O or\ncertain timer API calls to fail and return errors in the presence of large\nthread-local storage data that exceeded PTHREAD_STACK_MIN in size\n(generally 16 KiB). The bug in librt has been corrected and the impacted\nAPIs no longer return errors when large thread-local storage data is\npresent in the application. (BZ#1301625)\nAll glibc users are advised to upgrade to these updated packages, which\ncontain backported patches to correct these issues.",
  "Platform": [
    "Red Hat Enterprise Linux 6"
  ],
  "References": [
    {
      "Source": "RHSA",
      "URI": "https://access.redhat.com/errata/RHSA-2016:0175",
      "ID": "RHSA-2016:0175"
    },
    {
      "Source": "CVE",
      "URI": "https://access.redhat.com/security/cve/CVE-2015-7547",
      "ID": "CVE-2015-7547"
    }
  ],
  "Criteria": {
    "Operator": "OR",
    "Criterias": [
      {
        "Operator": "AND",
        "Criterias": [
          {
            "Operator": "OR",
            "Criterias": [
              {
                "Operator": "AND",
                "Criterias": [

                ],
                "Criterions": [
                  {
                    "Comment": "glibc is earlier than 0:2.12-1.166.el6_7.7"
                  },
                  {
                    "Comment": "glibc is signed with Red Hat redhatrelease2 key"
                  }
                ]
              },
              {
                "Operator": "AND",
                "Criterias": [

                ],
                "Criterions": [
                  {
                    "Comment": "glibc-common is earlier than 0:2.12-1.166.el6_7.7"
                  },
                  {
                    "Comment": "glibc-common is signed with Red Hat redhatrelease2 key"
                  }
                ]
              },
              {
                "Operator": "AND",
                "Criterias": [

                ],
                "Criterions": [
                  {
                    "Comment": "glibc-devel is earlier than 0:2.12-1.166.el6_7.7"
                  },
                  {
                    "Comment": "glibc-devel is signed with Red Hat redhatrelease2 key"
                  }
                ]
              },
              {
                "Operator": "AND",
                "Criterias": [

                ],
                "Criterions": [
                  {
                    "Comment": "glibc-headers is earlier than 0:2.12-1.166.el6_7.7"
                  },
                  {
                    "Comment": "glibc-headers is signed with Red Hat redhatrelease2 key"
                  }
                ]
              },
              {
                "Operator": "AND",
                "Criterias": [

                ],
                "Criterions": [
                  {
                    "Comment": "glibc-static is earlier than 0:2.12-1.166.el6_7.7"
                  },
                  {
                    "Comment": "glibc-static is signed with Red Hat redhatrelease2 key"
                  }
                ]
              },
              {
                "Operator": "AND",
                "Criterias": [

                ],
                "Criterions": [
                  {
                    "Comment": "glibc-utils is earlier than 0:2.12-1.166.el6_7.7"
                  },
                  {
                    "Comment": "glibc-utils is signed with Red Hat redhatrelease2 key"
                  }
                ]
              },
              {
                "Operator": "AND",
                "Criterias": [

                ],
                "Criterions": [
                  {
                    "Comment": "nscd is earlier than 0:2.12-1.166.el6_7.7"
                  },
                  {
                    "Comment": "nscd is signed with Red Hat redhatrelease2 key"
                  }
                ]
              }
            ],
            "Criterions": [

            ]
          }
        ],
        "Criterions": [
          {
            "Comment": "Oracle Linux 6 is installed"
          }
        ]
      }
    ],
    "Criterions": [
      {
        "Comment": "Oracle Linux 6 is installed"
      }
    ]
  },
  "Severity": "Critical",
  "Cves": [
    {
      "Impact": "",
      "Href": "",
      "ID": "CVE-2015-7547"
    }
  ],
  "Issued": {
    "Date": "2016-02-16"
  }
}