{
  "Title": "RHSA-2016:1487: samba4 security update (Moderate)",
  "Description": "Samba is an open-source implementation of the Server Message Block (SMB) or Common Internet File System (CIFS) protocol, which allows PC-compatible machines to share files, printers, and other information.\nSecurity Fix(es):\n* A flaw was found in the way Samba initiated signed DCE/RPC connections. A man-in-the-middle attacker could use this flaw to downgrade the connection to not use signing and therefore impersonate the server. (CVE-2016-2119)\nRed Hat would like to thank the Samba project for reporting this issue. Upstream acknowledges Stefan Metzmacher as the original reporter.",
  "Platform": [
    "Red Hat Enterprise Linux 6"
  ],
  "References": [
    {
      "Source": "RHSA",
      "URI": "https://access.redhat.com/errata/RHSA-2016:1487",
      "ID": "RHSA-2016:1487"
    },
    {
      "Source": "CVE",
      "URI": "https://access.redhat.com/security/cve/CVE-2016-2119",
      "ID": "CVE-2016-2119"
    }
  ],
  "Criteria": {
    "Operator": "OR",
    "Criterias": [
      {
        "Operator": "AND",
        "Criterias": [
          {
            "Operator": "OR",
            "Criterias": [
              {
                "Operator": "AND",
                "Criterias": [

                ],
                "Criterions": [
                  {
                    "Comment": "samba4 is earlier than 0:4.2.10-7.el6_8"
                  },
                  {
                    "Comment": "samba4 is signed with Red Hat redhatrelease2 key"
                  }
                ]
              },
              {
                "Operator": "AND",
                "Criterias": [

                ],
                "Criterions": [
                  {
                    "Comment": "samba4-client is earlier than 0:4.2.10-7.el6_8"
                  },
                  {
                    "Comment": "samba4-client is signed with Red Hat redhatrelease2 key"
                  }
                ]
              },
              {
                "Operator": "AND",
                "Criterias": [

                ],
                "Criterions": [
                  {
                    "Comment": "samba4-common is earlier than 0:4.2.10-7.el6_8"
                  },
                  {
                    "Comment": "samba4-common is signed with Red Hat redhatrelease2 key"
                  }
                ]
              },
              {
                "Operator": "AND",
                "Criterias": [

                ],
                "Criterions": [
                  {
                    "Comment": "samba4-dc is earlier than 0:4.2.10-7.el6_8"
                  },
                  {
                    "Comment": "samba4-dc is signed with Red Hat redhatrelease2 key"
                  }
                ]
              },
              {
                "Operator": "AND",
                "Criterias": [

                ],
                "Criterions": [
                  {
                    "Comment": "samba4-dc-libs is earlier than 0:4.2.10-7.el6_8"
                  },
                  {
                    "Comment": "samba4-dc-libs is signed with Red Hat redhatrelease2 key"
                  }
                ]
              },
              {
                "Operator": "AND",
                "Criterias": [

                ],
                "Criterions": [
                  {
                    "Comment": "samba4-devel is earlier than 0:4.2.10-7.el6_8"
                  },
                  {
                    "Comment": "samba4-devel is signed with Red Hat redhatrelease2 key"
                  }
                ]
              },
              {
                "Operator": "AND",
                "Criterias": [

                ],
                "Criterions": [
                  {
                    "Comment": "samba4-libs is earlier than 0:4.2.10-7.el6_8"
                  },
                  {
                    "Comment": "samba4-libs is signed with Red Hat redhatrelease2 key"
                  }
                ]
              },
              {
                "Operator": "AND",
                "Criterias": [

                ],
                "Criterions": [
                  {
                    "Comment": "samba4-pidl is earlier than 0:4.2.10-7.el6_8"
                  },
                  {
                    "Comment": "samba4-pidl is signed with Red Hat redhatrelease2 key"
                  }
                ]
              },
              {
                "Operator": "AND",
                "Criterias": [

                ],
                "Criterions": [
                  {
                    "Comment": "samba4-python is earlier than 0:4.2.10-7.el6_8"
                  },
                  {
                    "Comment": "samba4-python is signed with Red Hat redhatrelease2 key"
                  }
                ]
              },
              {
                "Operator": "AND",
                "Criterias": [

                ],
                "Criterions": [
                  {
                    "Comment": "samba4-test is earlier than 0:4.2.10-7.el6_8"
                  },
                  {
                    "Comment": "samba4-test is signed with Red Hat redhatrelease2 key"
                  }
                ]
              },
              {
                "Operator": "AND",
                "Criterias": [

                ],
                "Criterions": [
                  {
                    "Comment": "samba4-winbind is earlier than 0:4.2.10-7.el6_8"
                  },
                  {
                    "Comment": "samba4-winbind is signed with Red Hat redhatrelease2 key"
                  }
                ]
              },
              {
                "Operator": "AND",
                "Criterias": [

                ],
                "Criterions": [
                  {
                    "Comment": "samba4-winbind-clients is earlier than 0:4.2.10-7.el6_8"
                  },
                  {
                    "Comment": "samba4-winbind-clients is signed with Red Hat redhatrelease2 key"
                  }
                ]
              },
              {
                "Operator": "AND",
                "Criterias": [

                ],
                "Criterions": [
                  {
                    "Comment": "samba4-winbind-krb5-locator is earlier than 0:4.2.10-7.el6_8"
                  },
                  {
                    "Comment": "samba4-winbind-krb5-locator is signed with Red Hat redhatrelease2 key"
                  }
                ]
              }
            ],
            "Criterions": [

            ]
          }
        ],
        "Criterions": [
          {
            "Comment": "Oracle Linux 6 is installed"
          }
        ]
      }
    ],
    "Criterions": [
      {
        "Comment": "Oracle Linux 6 is installed"
      }
    ]
  },
  "Severity": "Moderate",
  "Cves": [
    {
      "Impact": "",
      "Href": "",
      "ID": "CVE-2016-2119"
    }
  ],
  "Issued": {
    "Date": "2016-07-26"
  }
}