{
  "Title": "RHSA-2016:1776: java-1.6.0-openjdk security update (Important)",
  "Description": "The java-1.6.0-openjdk packages provide the OpenJDK 6 Java Runtime Environment and the OpenJDK 6 Java Software Development Kit.\nSecurity Fix(es):\n* An insufficient bytecode verification flaw was discovered in the Hotspot component in OpenJDK. An untrusted Java application or applet could use this flaw to completely bypass Java sandbox restrictions. (CVE-2016-3606)\n* Multiple denial of service flaws were found in the JAXP component in OpenJDK. A specially crafted XML file could cause a Java application using JAXP to consume an excessive amount of CPU and memory when parsed. (CVE-2016-3500, CVE-2016-3508)\n* Multiple flaws were found in the CORBA and Hotsport components in OpenJDK. An untrusted Java application or applet could use these flaws to bypass certain Java sandbox restrictions. (CVE-2016-3458, CVE-2016-3550)",
  "Platform": [
    "Red Hat Enterprise Linux 5",
    "Red Hat Enterprise Linux 6",
    "Red Hat Enterprise Linux 7"
  ],
  "References": [
    {
      "Source": "RHSA",
      "URI": "https://access.redhat.com/errata/RHSA-2016:1776",
      "ID": "RHSA-2016:1776"
    },
    {
      "Source": "CVE",
      "URI": "https://access.redhat.com/security/cve/CVE-2016-3458",
      "ID": "CVE-2016-3458"
    },
    {
      "Source": "CVE",
      "URI": "https://access.redhat.com/security/cve/CVE-2016-3500",
      "ID": "CVE-2016-3500"
    },
    {
      "Source": "CVE",
      "URI": "https://access.redhat.com/security/cve/CVE-2016-3508",
      "ID": "CVE-2016-3508"
    },
    {
      "Source": "CVE",
      "URI": "https://access.redhat.com/security/cve/CVE-2016-3550",
      "ID": "CVE-2016-3550"
    },
    {
      "Source": "CVE",
      "URI": "https://access.redhat.com/security/cve/CVE-2016-3606",
      "ID": "CVE-2016-3606"
    }
  ],
  "Criteria": {
    "Operator": "OR",
    "Criterias": [
      {
        "Operator": "AND",
        "Criterias": [
          {
            "Operator": "OR",
            "Criterias": [
              {
                "Operator": "AND",
                "Criterias": [

                ],
                "Criterions": [
                  {
                    "Comment": "java-1.6.0-openjdk is earlier than 1:1.6.0.40-1.13.12.4.el5_11"
                  },
                  {
                    "Comment": "java-1.6.0-openjdk is signed with Red Hat redhatrelease2 key"
                  }
                ]
              },
              {
                "Operator": "AND",
                "Criterias": [

                ],
                "Criterions": [
                  {
                    "Comment": "java-1.6.0-openjdk-demo is earlier than 1:1.6.0.40-1.13.12.4.el5_11"
                  },
                  {
                    "Comment": "java-1.6.0-openjdk-demo is signed with Red Hat redhatrelease2 key"
                  }
                ]
              },
              {
                "Operator": "AND",
                "Criterias": [

                ],
                "Criterions": [
                  {
                    "Comment": "java-1.6.0-openjdk-devel is earlier than 1:1.6.0.40-1.13.12.4.el5_11"
                  },
                  {
                    "Comment": "java-1.6.0-openjdk-devel is signed with Red Hat redhatrelease2 key"
                  }
                ]
              },
              {
                "Operator": "AND",
                "Criterias": [

                ],
                "Criterions": [
                  {
                    "Comment": "java-1.6.0-openjdk-javadoc is earlier than 1:1.6.0.40-1.13.12.4.el5_11"
                  },
                  {
                    "Comment": "java-1.6.0-openjdk-javadoc is signed with Red Hat redhatrelease2 key"
                  }
                ]
              },
              {
                "Operator": "AND",
                "Criterias": [

                ],
                "Criterions": [
                  {
                    "Comment": "java-1.6.0-openjdk-src is earlier than 1:1.6.0.40-1.13.12.4.el5_11"
                  },
                  {
                    "Comment": "java-1.6.0-openjdk-src is signed with Red Hat redhatrelease2 key"
                  }
                ]
              }
            ],
            "Criterions": [

            ]
          }
        ],
        "Criterions": [
          {
            "Comment": "Oracle Linux 5 is installed"
          }
        ]
      },
      {
        "Operator": "AND",
        "Criterias": [
          {
            "Operator": "OR",
            "Criterias": [
              {
                "Operator": "AND",
                "Criterias": [

                ],
                "Criterions": [
                  {
                    "Comment": "java-1.6.0-openjdk is earlier than 1:1.6.0.40-1.13.12.5.el7_2"
                  },
                  {
                    "Comment": "java-1.6.0-openjdk is signed with Red Hat redhatrelease2 key"
                  }
                ]
              },
              {
                "Operator": "AND",
                "Criterias": [

                ],
                "Criterions": [
                  {
                    "Comment": "java-1.6.0-openjdk-demo is earlier than 1:1.6.0.40-1.13.12.5.el7_2"
                  },
                  {
                    "Comment": "java-1.6.0-openjdk-demo is signed with Red Hat redhatrelease2 key"
                  }
                ]
              },
              {
                "Operator": "AND",
                "Criterias": [

                ],
                "Criterions": [
                  {
                    "Comment": "java-1.6.0-openjdk-devel is earlier than 1:1.6.0.40-1.13.12.5.el7_2"
                  },
                  {
                    "Comment": "java-1.6.0-openjdk-devel is signed with Red Hat redhatrelease2 key"
                  }
                ]
              },
              {
                "Operator": "AND",
                "Criterias": [

                ],
                "Criterions": [
                  {
                    "Comment": "java-1.6.0-openjdk-javadoc is earlier than 1:1.6.0.40-1.13.12.5.el7_2"
                  },
                  {
                    "Comment": "java-1.6.0-openjdk-javadoc is signed with Red Hat redhatrelease2 key"
                  }
                ]
              },
              {
                "Operator": "AND",
                "Criterias": [

                ],
                "Criterions": [
                  {
                    "Comment": "java-1.6.0-openjdk-src is earlier than 1:1.6.0.40-1.13.12.5.el7_2"
                  },
                  {
                    "Comment": "java-1.6.0-openjdk-src is signed with Red Hat redhatrelease2 key"
                  }
                ]
              }
            ],
            "Criterions": [

            ]
          }
        ],
        "Criterions": [
          {
            "Comment": "Oracle Linux 7 is installed"
          }
        ]
      },
      {
        "Operator": "AND",
        "Criterias": [
          {
            "Operator": "OR",
            "Criterias": [
              {
                "Operator": "AND",
                "Criterias": [

                ],
                "Criterions": [
                  {
                    "Comment": "java-1.6.0-openjdk is earlier than 1:1.6.0.40-1.13.12.6.el6_8"
                  },
                  {
                    "Comment": "java-1.6.0-openjdk is signed with Red Hat redhatrelease2 key"
                  }
                ]
              },
              {
                "Operator": "AND",
                "Criterias": [

                ],
                "Criterions": [
                  {
                    "Comment": "java-1.6.0-openjdk-demo is earlier than 1:1.6.0.40-1.13.12.6.el6_8"
                  },
                  {
                    "Comment": "java-1.6.0-openjdk-demo is signed with Red Hat redhatrelease2 key"
                  }
                ]
              },
              {
                "Operator": "AND",
                "Criterias": [

                ],
                "Criterions": [
                  {
                    "Comment": "java-1.6.0-openjdk-devel is earlier than 1:1.6.0.40-1.13.12.6.el6_8"
                  },
                  {
                    "Comment": "java-1.6.0-openjdk-devel is signed with Red Hat redhatrelease2 key"
                  }
                ]
              },
              {
                "Operator": "AND",
                "Criterias": [

                ],
                "Criterions": [
                  {
                    "Comment": "java-1.6.0-openjdk-javadoc is earlier than 1:1.6.0.40-1.13.12.6.el6_8"
                  },
                  {
                    "Comment": "java-1.6.0-openjdk-javadoc is signed with Red Hat redhatrelease2 key"
                  }
                ]
              },
              {
                "Operator": "AND",
                "Criterias": [

                ],
                "Criterions": [
                  {
                    "Comment": "java-1.6.0-openjdk-src is earlier than 1:1.6.0.40-1.13.12.6.el6_8"
                  },
                  {
                    "Comment": "java-1.6.0-openjdk-src is signed with Red Hat redhatrelease2 key"
                  }
                ]
              }
            ],
            "Criterions": [

            ]
          }
        ],
        "Criterions": [
          {
            "Comment": "Oracle Linux 6 is installed"
          }
        ]
      }
    ],
    "Criterions": [
      {
        "Comment": "Oracle Linux 5 is installed"
      }
    ]
  },
  "Severity": "Important",
  "Cves": [
    {
      "Impact": "",
      "Href": "",
      "ID": "CVE-2016-3458"
    },
    {
      "Impact": "",
      "Href": "",
      "ID": "CVE-2016-3500"
    },
    {
      "Impact": "",
      "Href": "",
      "ID": "CVE-2016-3508"
    },
    {
      "Impact": "",
      "Href": "",
      "ID": "CVE-2016-3550"
    },
    {
      "Impact": "",
      "Href": "",
      "ID": "CVE-2016-3606"
    }
  ],
  "Issued": {
    "Date": "2016-08-26"
  }
}