{
  "Title": "RHSA-2016:1546: libtiff security update (Important)",
  "Description": "The libtiff packages contain a library of functions for manipulating Tagged Image File Format (TIFF) files.\nSecurity Fix(es):\n* Multiple flaws have been discovered in libtiff. A remote attacker could exploit these flaws to cause a crash or memory corruption and, possibly, execute arbitrary code by tricking an application linked against libtiff into processing specially crafted files. (CVE-2014-9655, CVE-2015-1547, CVE-2015-8784, CVE-2015-8683, CVE-2015-8665, CVE-2015-8781, CVE-2015-8782, CVE-2015-8783, CVE-2016-3990, CVE-2016-5320)\n* Multiple flaws have been discovered in various libtiff tools (bmp2tiff, pal2rgb, thumbnail, tiff2bw, tiff2pdf, tiffcrop, tiffdither, tiffsplit, tiff2rgba). By tricking a user into processing a specially crafted file, a remote attacker could exploit these flaws to cause a crash or memory corruption and, possibly, execute arbitrary code with the privileges of the user running the libtiff tool. (CVE-2014-8127, CVE-2014-8129, CVE-2014-8130, CVE-2014-9330, CVE-2015-7554, CVE-2015-8668, CVE-2016-3632, CVE-2016-3945, CVE-2016-3991)",
  "Platform": [
    "Red Hat Enterprise Linux 7"
  ],
  "References": [
    {
      "Source": "RHSA",
      "URI": "https://access.redhat.com/errata/RHSA-2016:1546",
      "ID": "RHSA-2016:1546"
    },
    {
      "Source": "CVE",
      "URI": "https://access.redhat.com/security/cve/CVE-2014-8127",
      "ID": "CVE-2014-8127"
    },
    {
      "Source": "CVE",
      "URI": "https://access.redhat.com/security/cve/CVE-2014-8129",
      "ID": "CVE-2014-8129"
    },
    {
      "Source": "CVE",
      "URI": "https://access.redhat.com/security/cve/CVE-2014-8130",
      "ID": "CVE-2014-8130"
    },
    {
      "Source": "CVE",
      "URI": "https://access.redhat.com/security/cve/CVE-2014-9330",
      "ID": "CVE-2014-9330"
    },
    {
      "Source": "CVE",
      "URI": "https://access.redhat.com/security/cve/CVE-2014-9655",
      "ID": "CVE-2014-9655"
    },
    {
      "Source": "CVE",
      "URI": "https://access.redhat.com/security/cve/CVE-2015-1547",
      "ID": "CVE-2015-1547"
    },
    {
      "Source": "CVE",
      "URI": "https://access.redhat.com/security/cve/CVE-2015-7554",
      "ID": "CVE-2015-7554"
    },
    {
      "Source": "CVE",
      "URI": "https://access.redhat.com/security/cve/CVE-2015-8665",
      "ID": "CVE-2015-8665"
    },
    {
      "Source": "CVE",
      "URI": "https://access.redhat.com/security/cve/CVE-2015-8668",
      "ID": "CVE-2015-8668"
    },
    {
      "Source": "CVE",
      "URI": "https://access.redhat.com/security/cve/CVE-2015-8683",
      "ID": "CVE-2015-8683"
    },
    {
      "Source": "CVE",
      "URI": "https://access.redhat.com/security/cve/CVE-2015-8781",
      "ID": "CVE-2015-8781"
    },
    {
      "Source": "CVE",
      "URI": "https://access.redhat.com/security/cve/CVE-2015-8782",
      "ID": "CVE-2015-8782"
    },
    {
      "Source": "CVE",
      "URI": "https://access.redhat.com/security/cve/CVE-2015-8783",
      "ID": "CVE-2015-8783"
    },
    {
      "Source": "CVE",
      "URI": "https://access.redhat.com/security/cve/CVE-2015-8784",
      "ID": "CVE-2015-8784"
    },
    {
      "Source": "CVE",
      "URI": "https://access.redhat.com/security/cve/CVE-2016-3632",
      "ID": "CVE-2016-3632"
    },
    {
      "Source": "CVE",
      "URI": "https://access.redhat.com/security/cve/CVE-2016-3945",
      "ID": "CVE-2016-3945"
    },
    {
      "Source": "CVE",
      "URI": "https://access.redhat.com/security/cve/CVE-2016-3990",
      "ID": "CVE-2016-3990"
    },
    {
      "Source": "CVE",
      "URI": "https://access.redhat.com/security/cve/CVE-2016-3991",
      "ID": "CVE-2016-3991"
    },
    {
      "Source": "CVE",
      "URI": "https://access.redhat.com/security/cve/CVE-2016-5320",
      "ID": "CVE-2016-5320"
    }
  ],
  "Criteria": {
    "Operator": "OR",
    "Criterias": [
      {
        "Operator": "AND",
        "Criterias": [
          {
            "Operator": "OR",
            "Criterias": [
              {
                "Operator": "AND",
                "Criterias": [

                ],
                "Criterions": [
                  {
                    "Comment": "libtiff is earlier than 0:4.0.3-25.el7_2"
                  },
                  {
                    "Comment": "libtiff is signed with Red Hat redhatrelease2 key"
                  }
                ]
              },
              {
                "Operator": "AND",
                "Criterias": [

                ],
                "Criterions": [
                  {
                    "Comment": "libtiff-devel is earlier than 0:4.0.3-25.el7_2"
                  },
                  {
                    "Comment": "libtiff-devel is signed with Red Hat redhatrelease2 key"
                  }
                ]
              },
              {
                "Operator": "AND",
                "Criterias": [

                ],
                "Criterions": [
                  {
                    "Comment": "libtiff-static is earlier than 0:4.0.3-25.el7_2"
                  },
                  {
                    "Comment": "libtiff-static is signed with Red Hat redhatrelease2 key"
                  }
                ]
              },
              {
                "Operator": "AND",
                "Criterias": [

                ],
                "Criterions": [
                  {
                    "Comment": "libtiff-tools is earlier than 0:4.0.3-25.el7_2"
                  },
                  {
                    "Comment": "libtiff-tools is signed with Red Hat redhatrelease2 key"
                  }
                ]
              }
            ],
            "Criterions": [

            ]
          }
        ],
        "Criterions": [
          {
            "Comment": "Oracle Linux 7 is installed"
          }
        ]
      }
    ],
    "Criterions": [
      {
        "Comment": "Oracle Linux 7 is installed"
      }
    ]
  },
  "Severity": "Important",
  "Cves": [
    {
      "Impact": "",
      "Href": "",
      "ID": "CVE-2014-8127"
    },
    {
      "Impact": "",
      "Href": "",
      "ID": "CVE-2014-8129"
    },
    {
      "Impact": "",
      "Href": "",
      "ID": "CVE-2014-8130"
    },
    {
      "Impact": "",
      "Href": "",
      "ID": "CVE-2014-9330"
    },
    {
      "Impact": "",
      "Href": "",
      "ID": "CVE-2014-9655"
    },
    {
      "Impact": "",
      "Href": "",
      "ID": "CVE-2015-1547"
    },
    {
      "Impact": "",
      "Href": "",
      "ID": "CVE-2015-7554"
    },
    {
      "Impact": "",
      "Href": "",
      "ID": "CVE-2015-8665"
    },
    {
      "Impact": "",
      "Href": "",
      "ID": "CVE-2015-8668"
    },
    {
      "Impact": "",
      "Href": "",
      "ID": "CVE-2015-8683"
    },
    {
      "Impact": "",
      "Href": "",
      "ID": "CVE-2015-8781"
    },
    {
      "Impact": "",
      "Href": "",
      "ID": "CVE-2015-8782"
    },
    {
      "Impact": "",
      "Href": "",
      "ID": "CVE-2015-8783"
    },
    {
      "Impact": "",
      "Href": "",
      "ID": "CVE-2015-8784"
    },
    {
      "Impact": "",
      "Href": "",
      "ID": "CVE-2016-3632"
    },
    {
      "Impact": "",
      "Href": "",
      "ID": "CVE-2016-3945"
    },
    {
      "Impact": "",
      "Href": "",
      "ID": "CVE-2016-3990"
    },
    {
      "Impact": "",
      "Href": "",
      "ID": "CVE-2016-3991"
    },
    {
      "Impact": "",
      "Href": "",
      "ID": "CVE-2016-5320"
    }
  ],
  "Issued": {
    "Date": "2016-08-02"
  }
}