{
  "Title": "RHSA-2016:2587: wget security and bug fix update (Moderate)",
  "Description": "The wget packages provide the GNU Wget file retrieval utility for HTTP, HTTPS, and FTP protocols.\nSecurity Fix(es):\n* It was found that wget used a file name provided by the server for the downloaded file when following an HTTP redirect to a FTP server resource. This could cause wget to create a file with a different name than expected, possibly allowing the server to execute arbitrary code on the client. (CVE-2016-4971)\nRed Hat would like to thank GNU wget project for reporting this issue. Upstream acknowledges Dawid Golunski as the original reporter.\nAdditional Changes:\nFor detailed information on changes in this release, see the Red Hat Enterprise Linux 7.3 Release Notes linked from the References section.",
  "Platform": [
    "Red Hat Enterprise Linux 7"
  ],
  "References": [
    {
      "Source": "RHSA",
      "URI": "https://access.redhat.com/errata/RHSA-2016:2587",
      "ID": "RHSA-2016:2587"
    },
    {
      "Source": "CVE",
      "URI": "https://access.redhat.com/security/cve/CVE-2016-4971",
      "ID": "CVE-2016-4971"
    }
  ],
  "Criteria": {
    "Operator": "OR",
    "Criterias": [
      {
        "Operator": "AND",
        "Criterias": [

        ],
        "Criterions": [
          {
            "Comment": "Oracle Linux 7 is installed"
          },
          {
            "Comment": "wget is earlier than 0:1.14-13.el7"
          },
          {
            "Comment": "wget is signed with Red Hat redhatrelease2 key"
          }
        ]
      }
    ],
    "Criterions": [
      {
        "Comment": "Oracle Linux 7 is installed"
      }
    ]
  },
  "Severity": "Moderate",
  "Cves": [
    {
      "Impact": "",
      "Href": "",
      "ID": "CVE-2016-4971"
    }
  ],
  "Issued": {
    "Date": "2016-11-03"
  }
}