{
  "Title": "RHSA-2016:2819: memcached security update (Important)",
  "Description": "memcached is a high-performance, distributed memory object caching system, generic in nature, but intended for use in speeding up dynamic web applications by alleviating database load.\nSecurity Fix(es):\n* Two integer overflow flaws, leading to heap-based buffer overflows, were found in the memcached binary protocol. An attacker could create a specially crafted message that would cause the memcached server to crash or, potentially, execute arbitrary code. (CVE-2016-8704, CVE-2016-8705)\n* An integer overflow flaw, leading to a heap-based buffer overflow, was found in memcached's parsing of SASL authentication messages. An attacker could create a specially crafted message that would cause the memcached server to crash or, potentially, execute arbitrary code. (CVE-2016-8706)",
  "Platform": [
    "Red Hat Enterprise Linux 7"
  ],
  "References": [
    {
      "Source": "RHSA",
      "URI": "https://access.redhat.com/errata/RHSA-2016:2819",
      "ID": "RHSA-2016:2819"
    },
    {
      "Source": "CVE",
      "URI": "https://access.redhat.com/security/cve/CVE-2016-8704",
      "ID": "CVE-2016-8704"
    },
    {
      "Source": "CVE",
      "URI": "https://access.redhat.com/security/cve/CVE-2016-8705",
      "ID": "CVE-2016-8705"
    },
    {
      "Source": "CVE",
      "URI": "https://access.redhat.com/security/cve/CVE-2016-8706",
      "ID": "CVE-2016-8706"
    }
  ],
  "Criteria": {
    "Operator": "OR",
    "Criterias": [
      {
        "Operator": "AND",
        "Criterias": [
          {
            "Operator": "OR",
            "Criterias": [
              {
                "Operator": "AND",
                "Criterias": [

                ],
                "Criterions": [
                  {
                    "Comment": "memcached is earlier than 0:1.4.15-10.el7_3.1"
                  },
                  {
                    "Comment": "memcached is signed with Red Hat redhatrelease2 key"
                  }
                ]
              },
              {
                "Operator": "AND",
                "Criterias": [

                ],
                "Criterions": [
                  {
                    "Comment": "memcached-devel is earlier than 0:1.4.15-10.el7_3.1"
                  },
                  {
                    "Comment": "memcached-devel is signed with Red Hat redhatrelease2 key"
                  }
                ]
              }
            ],
            "Criterions": [

            ]
          }
        ],
        "Criterions": [
          {
            "Comment": "Oracle Linux 7 is installed"
          }
        ]
      }
    ],
    "Criterions": [
      {
        "Comment": "Oracle Linux 7 is installed"
      }
    ]
  },
  "Severity": "Important",
  "Cves": [
    {
      "Impact": "",
      "Href": "",
      "ID": "CVE-2016-8704"
    },
    {
      "Impact": "",
      "Href": "",
      "ID": "CVE-2016-8705"
    },
    {
      "Impact": "",
      "Href": "",
      "ID": "CVE-2016-8706"
    }
  ],
  "Issued": {
    "Date": "2016-11-23"
  }
}