{
  "Title": "RHSA-2016:0359: chromium-browser security update (Important)",
  "Description": "Chromium is an open-source web browser, powered by WebKit (Blink).\nSeveral flaws were found in the processing of malformed web content. A web\npage containing malicious content could cause Chromium to crash, execute\narbitrary code, or disclose sensitive information when visited by the\nvictim. (CVE-2016-1630, CVE-2016-1631, CVE-2016-1632, CVE-2016-1633,\nCVE-2016-1634, CVE-2016-1635, CVE-2016-1636, CVE-2016-1637, CVE-2016-1638,\nCVE-2016-1639, CVE-2016-1640, CVE-2016-1641, CVE-2016-1642)\nAll Chromium users should upgrade to these updated packages, which\ncontain Chromium version 49.0.2623.75, which corrects these issues.\nAfter installing the update, Chromium must be restarted for the changes\nto take effect.",
  "Platform": [
    "Supplementary for Red Hat Enterprise Linux 6"
  ],
  "References": [
    {
      "Source": "RHSA",
      "URI": "https://rhn.redhat.com/errata/RHSA-2016-0359.html",
      "ID": "RHSA-2016:0359-01"
    },
    {
      "Source": "CVE",
      "URI": "https://access.redhat.com/security/cve/CVE-2016-1630",
      "ID": "CVE-2016-1630"
    },
    {
      "Source": "CVE",
      "URI": "https://access.redhat.com/security/cve/CVE-2016-1631",
      "ID": "CVE-2016-1631"
    },
    {
      "Source": "CVE",
      "URI": "https://access.redhat.com/security/cve/CVE-2016-1632",
      "ID": "CVE-2016-1632"
    },
    {
      "Source": "CVE",
      "URI": "https://access.redhat.com/security/cve/CVE-2016-1633",
      "ID": "CVE-2016-1633"
    },
    {
      "Source": "CVE",
      "URI": "https://access.redhat.com/security/cve/CVE-2016-1634",
      "ID": "CVE-2016-1634"
    },
    {
      "Source": "CVE",
      "URI": "https://access.redhat.com/security/cve/CVE-2016-1635",
      "ID": "CVE-2016-1635"
    },
    {
      "Source": "CVE",
      "URI": "https://access.redhat.com/security/cve/CVE-2016-1636",
      "ID": "CVE-2016-1636"
    },
    {
      "Source": "CVE",
      "URI": "https://access.redhat.com/security/cve/CVE-2016-1637",
      "ID": "CVE-2016-1637"
    },
    {
      "Source": "CVE",
      "URI": "https://access.redhat.com/security/cve/CVE-2016-1638",
      "ID": "CVE-2016-1638"
    },
    {
      "Source": "CVE",
      "URI": "https://access.redhat.com/security/cve/CVE-2016-1639",
      "ID": "CVE-2016-1639"
    },
    {
      "Source": "CVE",
      "URI": "https://access.redhat.com/security/cve/CVE-2016-1640",
      "ID": "CVE-2016-1640"
    },
    {
      "Source": "CVE",
      "URI": "https://access.redhat.com/security/cve/CVE-2016-1641",
      "ID": "CVE-2016-1641"
    },
    {
      "Source": "CVE",
      "URI": "https://access.redhat.com/security/cve/CVE-2016-1642",
      "ID": "CVE-2016-1642"
    },
    {
      "Source": "CVE",
      "URI": "https://access.redhat.com/security/cve/CVE-2016-2843",
      "ID": "CVE-2016-2843"
    },
    {
      "Source": "CVE",
      "URI": "https://access.redhat.com/security/cve/CVE-2016-2844",
      "ID": "CVE-2016-2844"
    },
    {
      "Source": "CVE",
      "URI": "https://access.redhat.com/security/cve/CVE-2016-2845",
      "ID": "CVE-2016-2845"
    }
  ],
  "Criteria": {
    "Operator": "AND",
    "Criterias": [
      {
        "Operator": "OR",
        "Criterias": [

        ],
        "Criterions": [
          {
            "Comment": "Oracle Linux 6 Client is installed"
          },
          {
            "Comment": "Oracle Linux 6 Server is installed"
          },
          {
            "Comment": "Oracle Linux 6 Workstation is installed"
          },
          {
            "Comment": "Oracle Linux 6 ComputeNode is installed"
          }
        ]
      }
    ],
    "Criterions": [
      {
        "Comment": "chromium-browser is earlier than 0:49.0.2623.75-1.el6"
      },
      {
        "Comment": "chromium-browser is signed with Red Hat redhatrelease2 key"
      }
    ]
  },
  "Severity": "Important",
  "Cves": [
    {
      "Impact": "",
      "Href": "",
      "ID": "CVE-2016-1630"
    },
    {
      "Impact": "",
      "Href": "",
      "ID": "CVE-2016-1631"
    },
    {
      "Impact": "",
      "Href": "",
      "ID": "CVE-2016-1632"
    },
    {
      "Impact": "",
      "Href": "",
      "ID": "CVE-2016-1633"
    },
    {
      "Impact": "",
      "Href": "",
      "ID": "CVE-2016-1634"
    },
    {
      "Impact": "",
      "Href": "",
      "ID": "CVE-2016-1635"
    },
    {
      "Impact": "",
      "Href": "",
      "ID": "CVE-2016-1636"
    },
    {
      "Impact": "",
      "Href": "",
      "ID": "CVE-2016-1637"
    },
    {
      "Impact": "",
      "Href": "",
      "ID": "CVE-2016-1638"
    },
    {
      "Impact": "",
      "Href": "",
      "ID": "CVE-2016-1639"
    },
    {
      "Impact": "",
      "Href": "",
      "ID": "CVE-2016-1640"
    },
    {
      "Impact": "",
      "Href": "",
      "ID": "CVE-2016-1641"
    },
    {
      "Impact": "",
      "Href": "",
      "ID": "CVE-2016-1642"
    },
    {
      "Impact": "",
      "Href": "",
      "ID": "CVE-2016-2843"
    },
    {
      "Impact": "",
      "Href": "",
      "ID": "CVE-2016-2844"
    },
    {
      "Impact": "",
      "Href": "",
      "ID": "CVE-2016-2845"
    }
  ],
  "Issued": {
    "Date": "2016-03-07"
  }
}