{
  "Title": "RHSA-2016:2606: postgresql security and bug fix update (Moderate)",
  "Description": "PostgreSQL is an advanced object-relational database management system (DBMS).\nThe following packages have been upgraded to a newer upstream version: postgresql (9.2.18).\nSecurity Fix(es):\n* A flaw was found in the way PostgreSQL server handled certain SQL statements containing CASE/WHEN commands. A remote, authenticated attacker could use a specially crafted SQL statement to cause PostgreSQL to crash or disclose a few bytes of server memory or possibly execute arbitrary code. (CVE-2016-5423)\n* A flaw was found in the way PostgreSQL client programs handled database and role names containing newlines, carriage returns, double quotes, or backslashes. By crafting such an object name, roles with the CREATEDB or CREATEROLE option could escalate their privileges to superuser when a superuser next executes maintenance with a vulnerable client program. (CVE-2016-5424)\nRed Hat would like to thank the PostgreSQL project for reporting these issues. Upstream acknowledges Heikki Linnakangas as the original reporter of CVE-2016-5423; and Nathan Bossart as the original reporter of CVE-2016-5424.\nAdditional Changes:\nFor detailed information on changes in this release, see the Red Hat Enterprise Linux 7.3 Release Notes linked from the References section.",
  "Platform": [
    "Red Hat Enterprise Linux 7"
  ],
  "References": [
    {
      "Source": "RHSA",
      "URI": "https://access.redhat.com/errata/RHSA-2016:2606",
      "ID": "RHSA-2016:2606"
    },
    {
      "Source": "CVE",
      "URI": "https://access.redhat.com/security/cve/CVE-2016-5423",
      "ID": "CVE-2016-5423"
    },
    {
      "Source": "CVE",
      "URI": "https://access.redhat.com/security/cve/CVE-2016-5424",
      "ID": "CVE-2016-5424"
    }
  ],
  "Criteria": {
    "Operator": "OR",
    "Criterias": [
      {
        "Operator": "AND",
        "Criterias": [
          {
            "Operator": "OR",
            "Criterias": [
              {
                "Operator": "AND",
                "Criterias": [

                ],
                "Criterions": [
                  {
                    "Comment": "postgresql is earlier than 0:9.2.18-1.el7"
                  },
                  {
                    "Comment": "postgresql is signed with Red Hat redhatrelease2 key"
                  }
                ]
              },
              {
                "Operator": "AND",
                "Criterias": [

                ],
                "Criterions": [
                  {
                    "Comment": "postgresql-contrib is earlier than 0:9.2.18-1.el7"
                  },
                  {
                    "Comment": "postgresql-contrib is signed with Red Hat redhatrelease2 key"
                  }
                ]
              },
              {
                "Operator": "AND",
                "Criterias": [

                ],
                "Criterions": [
                  {
                    "Comment": "postgresql-devel is earlier than 0:9.2.18-1.el7"
                  },
                  {
                    "Comment": "postgresql-devel is signed with Red Hat redhatrelease2 key"
                  }
                ]
              },
              {
                "Operator": "AND",
                "Criterias": [

                ],
                "Criterions": [
                  {
                    "Comment": "postgresql-docs is earlier than 0:9.2.18-1.el7"
                  },
                  {
                    "Comment": "postgresql-docs is signed with Red Hat redhatrelease2 key"
                  }
                ]
              },
              {
                "Operator": "AND",
                "Criterias": [

                ],
                "Criterions": [
                  {
                    "Comment": "postgresql-libs is earlier than 0:9.2.18-1.el7"
                  },
                  {
                    "Comment": "postgresql-libs is signed with Red Hat redhatrelease2 key"
                  }
                ]
              },
              {
                "Operator": "AND",
                "Criterias": [

                ],
                "Criterions": [
                  {
                    "Comment": "postgresql-plperl is earlier than 0:9.2.18-1.el7"
                  },
                  {
                    "Comment": "postgresql-plperl is signed with Red Hat redhatrelease2 key"
                  }
                ]
              },
              {
                "Operator": "AND",
                "Criterias": [

                ],
                "Criterions": [
                  {
                    "Comment": "postgresql-plpython is earlier than 0:9.2.18-1.el7"
                  },
                  {
                    "Comment": "postgresql-plpython is signed with Red Hat redhatrelease2 key"
                  }
                ]
              },
              {
                "Operator": "AND",
                "Criterias": [

                ],
                "Criterions": [
                  {
                    "Comment": "postgresql-pltcl is earlier than 0:9.2.18-1.el7"
                  },
                  {
                    "Comment": "postgresql-pltcl is signed with Red Hat redhatrelease2 key"
                  }
                ]
              },
              {
                "Operator": "AND",
                "Criterias": [

                ],
                "Criterions": [
                  {
                    "Comment": "postgresql-server is earlier than 0:9.2.18-1.el7"
                  },
                  {
                    "Comment": "postgresql-server is signed with Red Hat redhatrelease2 key"
                  }
                ]
              },
              {
                "Operator": "AND",
                "Criterias": [

                ],
                "Criterions": [
                  {
                    "Comment": "postgresql-test is earlier than 0:9.2.18-1.el7"
                  },
                  {
                    "Comment": "postgresql-test is signed with Red Hat redhatrelease2 key"
                  }
                ]
              },
              {
                "Operator": "AND",
                "Criterias": [

                ],
                "Criterions": [
                  {
                    "Comment": "postgresql-upgrade is earlier than 0:9.2.18-1.el7"
                  },
                  {
                    "Comment": "postgresql-upgrade is signed with Red Hat redhatrelease2 key"
                  }
                ]
              }
            ],
            "Criterions": [

            ]
          }
        ],
        "Criterions": [
          {
            "Comment": "Oracle Linux 7 is installed"
          }
        ]
      }
    ],
    "Criterions": [
      {
        "Comment": "Oracle Linux 7 is installed"
      }
    ]
  },
  "Severity": "Moderate",
  "Cves": [
    {
      "Impact": "",
      "Href": "",
      "ID": "CVE-2016-5423"
    },
    {
      "Impact": "",
      "Href": "",
      "ID": "CVE-2016-5424"
    }
  ],
  "Issued": {
    "Date": "2016-11-03"
  }
}