{
  "Title": "RHSA-2016:0724: qemu-kvm security update (Important)",
  "Description": "KVM (Kernel-based Virtual Machine) is a full virtualization solution for Linux on AMD64 and Intel 64 systems. The qemu-kvm packages provide the user-space component for running virtual machines using KVM.\nSecurity Fix(es):\n* An out-of-bounds read/write access flaw was found in the way QEMU's VGA emulation with VESA BIOS Extensions (VBE) support performed read/write operations via I/O port methods. A privileged guest user could use this flaw to execute arbitrary code on the host with the privileges of the host's QEMU process. (CVE-2016-3710)\nRed Hat would like to thank Wei Xiao (360 Marvel Team) and Qinghao Tang (360 Marvel Team) for reporting this issue.",
  "Platform": [
    "Red Hat Enterprise Linux 7"
  ],
  "References": [
    {
      "Source": "RHSA",
      "URI": "https://access.redhat.com/errata/RHSA-2016:0724",
      "ID": "RHSA-2016:0724"
    },
    {
      "Source": "CVE",
      "URI": "https://access.redhat.com/security/cve/CVE-2016-3710",
      "ID": "CVE-2016-3710"
    }
  ],
  "Criteria": {
    "Operator": "OR",
    "Criterias": [
      {
        "Operator": "AND",
        "Criterias": [
          {
            "Operator": "OR",
            "Criterias": [
              {
                "Operator": "AND",
                "Criterias": [

                ],
                "Criterions": [
                  {
                    "Comment": "libcacard is earlier than 10:1.5.3-105.el7_2.4"
                  },
                  {
                    "Comment": "libcacard is signed with Red Hat redhatrelease2 key"
                  }
                ]
              },
              {
                "Operator": "AND",
                "Criterias": [

                ],
                "Criterions": [
                  {
                    "Comment": "libcacard-devel is earlier than 10:1.5.3-105.el7_2.4"
                  },
                  {
                    "Comment": "libcacard-devel is signed with Red Hat redhatrelease2 key"
                  }
                ]
              },
              {
                "Operator": "AND",
                "Criterias": [

                ],
                "Criterions": [
                  {
                    "Comment": "libcacard-tools is earlier than 10:1.5.3-105.el7_2.4"
                  },
                  {
                    "Comment": "libcacard-tools is signed with Red Hat redhatrelease2 key"
                  }
                ]
              },
              {
                "Operator": "AND",
                "Criterias": [

                ],
                "Criterions": [
                  {
                    "Comment": "qemu-img is earlier than 10:1.5.3-105.el7_2.4"
                  },
                  {
                    "Comment": "qemu-img is signed with Red Hat redhatrelease2 key"
                  }
                ]
              },
              {
                "Operator": "AND",
                "Criterias": [

                ],
                "Criterions": [
                  {
                    "Comment": "qemu-kvm is earlier than 10:1.5.3-105.el7_2.4"
                  },
                  {
                    "Comment": "qemu-kvm is signed with Red Hat redhatrelease2 key"
                  }
                ]
              },
              {
                "Operator": "AND",
                "Criterias": [

                ],
                "Criterions": [
                  {
                    "Comment": "qemu-kvm-common is earlier than 10:1.5.3-105.el7_2.4"
                  },
                  {
                    "Comment": "qemu-kvm-common is signed with Red Hat redhatrelease2 key"
                  }
                ]
              },
              {
                "Operator": "AND",
                "Criterias": [

                ],
                "Criterions": [
                  {
                    "Comment": "qemu-kvm-tools is earlier than 10:1.5.3-105.el7_2.4"
                  },
                  {
                    "Comment": "qemu-kvm-tools is signed with Red Hat redhatrelease2 key"
                  }
                ]
              }
            ],
            "Criterions": [

            ]
          }
        ],
        "Criterions": [
          {
            "Comment": "Oracle Linux 7 is installed"
          }
        ]
      }
    ],
    "Criterions": [
      {
        "Comment": "Oracle Linux 7 is installed"
      }
    ]
  },
  "Severity": "Important",
  "Cves": [
    {
      "Impact": "",
      "Href": "",
      "ID": "CVE-2016-3710"
    }
  ],
  "Issued": {
    "Date": "2016-05-09"
  }
}