{
  "Title": "RHSA-2016:0450: kernel security update (Important)",
  "Description": "The kernel packages contain the Linux kernel, the core of any Linux\noperating system.\n* An integer overflow flaw was found in the way the Linux kernel's Frame\nBuffer device implementation mapped kernel memory to user space via the\nmmap syscall. A local user able to access a frame buffer device file\n(/dev/fb*) could possibly use this flaw to escalate their privileges on the\nsystem. (CVE-2013-2596, Important)\n* It was found that the Xen hypervisor x86 CPU emulator implementation did\nnot correctly handle certain instructions with segment overrides,\npotentially resulting in a memory corruption. A malicious guest user could\nuse this flaw to read arbitrary data relating to other guests, cause a\ndenial of service on the host, or potentially escalate their privileges on\nthe host. (CVE-2015-2151, Important)\nThis update also fixes the following bugs:\n* Previously, the CPU power of a CPU group could be zero. As a consequence,\na kernel panic occurred at \"find_busiest_group+570\" with do_divide_error.\nThe provided patch ensures that the division is only performed if the CPU\npower is not zero, and the aforementioned panic no longer occurs.\n(BZ#1209728)\n* Prior to this update, a bug occurred when performing an online resize of\nan ext4 file system which had been previously converted from ext3. As a\nconsequence, the kernel crashed. The provided patch fixes online resizing\nfor such file systems by limiting the blockgroup search loop for non-extent\nfiles, and the mentioned kernel crash no longer occurs. (BZ#1301100)\nAll kernel users are advised to upgrade to these updated packages, which\ncontain backported patches to correct these issues. The system must be\nrebooted for this update to take effect.",
  "Platform": [
    "Red Hat Enterprise Linux 5"
  ],
  "References": [
    {
      "Source": "RHSA",
      "URI": "https://access.redhat.com/errata/RHSA-2016:0450",
      "ID": "RHSA-2016:0450"
    },
    {
      "Source": "CVE",
      "URI": "https://access.redhat.com/security/cve/CVE-2013-2596",
      "ID": "CVE-2013-2596"
    },
    {
      "Source": "CVE",
      "URI": "https://access.redhat.com/security/cve/CVE-2015-2151",
      "ID": "CVE-2015-2151"
    }
  ],
  "Criteria": {
    "Operator": "OR",
    "Criterias": [
      {
        "Operator": "AND",
        "Criterias": [
          {
            "Operator": "OR",
            "Criterias": [

            ],
            "Criterions": [
              {
                "Comment": "kernel earlier than 0:2.6.18-409.el5 is currently running"
              },
              {
                "Comment": "kernel earlier than 0:2.6.18-409.el5 is set to boot up on next boot"
              }
            ]
          },
          {
            "Operator": "OR",
            "Criterias": [
              {
                "Operator": "AND",
                "Criterias": [

                ],
                "Criterions": [
                  {
                    "Comment": "kernel is earlier than 0:2.6.18-409.el5"
                  },
                  {
                    "Comment": "kernel is signed with Red Hat redhatrelease key"
                  }
                ]
              },
              {
                "Operator": "AND",
                "Criterias": [

                ],
                "Criterions": [
                  {
                    "Comment": "kernel-PAE is earlier than 0:2.6.18-409.el5"
                  },
                  {
                    "Comment": "kernel-PAE is signed with Red Hat redhatrelease key"
                  }
                ]
              },
              {
                "Operator": "AND",
                "Criterias": [

                ],
                "Criterions": [
                  {
                    "Comment": "kernel-PAE-devel is earlier than 0:2.6.18-409.el5"
                  },
                  {
                    "Comment": "kernel-PAE-devel is signed with Red Hat redhatrelease key"
                  }
                ]
              },
              {
                "Operator": "AND",
                "Criterias": [

                ],
                "Criterions": [
                  {
                    "Comment": "kernel-debug is earlier than 0:2.6.18-409.el5"
                  },
                  {
                    "Comment": "kernel-debug is signed with Red Hat redhatrelease key"
                  }
                ]
              },
              {
                "Operator": "AND",
                "Criterias": [

                ],
                "Criterions": [
                  {
                    "Comment": "kernel-debug-devel is earlier than 0:2.6.18-409.el5"
                  },
                  {
                    "Comment": "kernel-debug-devel is signed with Red Hat redhatrelease key"
                  }
                ]
              },
              {
                "Operator": "AND",
                "Criterias": [

                ],
                "Criterions": [
                  {
                    "Comment": "kernel-devel is earlier than 0:2.6.18-409.el5"
                  },
                  {
                    "Comment": "kernel-devel is signed with Red Hat redhatrelease key"
                  }
                ]
              },
              {
                "Operator": "AND",
                "Criterias": [

                ],
                "Criterions": [
                  {
                    "Comment": "kernel-doc is earlier than 0:2.6.18-409.el5"
                  },
                  {
                    "Comment": "kernel-doc is signed with Red Hat redhatrelease key"
                  }
                ]
              },
              {
                "Operator": "AND",
                "Criterias": [

                ],
                "Criterions": [
                  {
                    "Comment": "kernel-headers is earlier than 0:2.6.18-409.el5"
                  },
                  {
                    "Comment": "kernel-headers is signed with Red Hat redhatrelease key"
                  }
                ]
              },
              {
                "Operator": "AND",
                "Criterias": [

                ],
                "Criterions": [
                  {
                    "Comment": "kernel-kdump is earlier than 0:2.6.18-409.el5"
                  },
                  {
                    "Comment": "kernel-kdump is signed with Red Hat redhatrelease key"
                  }
                ]
              },
              {
                "Operator": "AND",
                "Criterias": [

                ],
                "Criterions": [
                  {
                    "Comment": "kernel-kdump-devel is earlier than 0:2.6.18-409.el5"
                  },
                  {
                    "Comment": "kernel-kdump-devel is signed with Red Hat redhatrelease key"
                  }
                ]
              },
              {
                "Operator": "AND",
                "Criterias": [

                ],
                "Criterions": [
                  {
                    "Comment": "kernel-xen is earlier than 0:2.6.18-409.el5"
                  },
                  {
                    "Comment": "kernel-xen is signed with Red Hat redhatrelease key"
                  }
                ]
              },
              {
                "Operator": "AND",
                "Criterias": [

                ],
                "Criterions": [
                  {
                    "Comment": "kernel-xen-devel is earlier than 0:2.6.18-409.el5"
                  },
                  {
                    "Comment": "kernel-xen-devel is signed with Red Hat redhatrelease key"
                  }
                ]
              }
            ],
            "Criterions": [

            ]
          }
        ],
        "Criterions": [
          {
            "Comment": "Oracle Linux 5 is installed"
          }
        ]
      }
    ],
    "Criterions": [
      {
        "Comment": "Oracle Linux 5 is installed"
      }
    ]
  },
  "Severity": "Important",
  "Cves": [
    {
      "Impact": "",
      "Href": "",
      "ID": "CVE-2013-2596"
    },
    {
      "Impact": "",
      "Href": "",
      "ID": "CVE-2015-2151"
    }
  ],
  "Issued": {
    "Date": "2016-03-15"
  }
}