{
  "Title": "RHSA-2016:2582: nettle security and bug fix update (Moderate)",
  "Description": "Nettle is a cryptographic library that is designed to fit easily in almost any context: In cryptographic toolkits for object-oriented languages, such as C++, Python, or Pike, in applications like lsh or GnuPG, or even in kernel space.\nSecurity Fix(es):\n* Multiple flaws were found in the way nettle implemented elliptic curve scalar multiplication. These flaws could potentially introduce cryptographic weaknesses into nettle's functionality. (CVE-2015-8803, CVE-2015-8804, CVE-2015-8805)\n* It was found that nettle's RSA and DSA decryption code was vulnerable to cache-related side channel attacks. An attacker could use this flaw to recover the private key from a co-located virtual-machine instance. (CVE-2016-6489)\nAdditional Changes:\nFor detailed information on changes in this release, see the Red Hat Enterprise Linux 7.3 Release Notes linked from the References section.",
  "Platform": [
    "Red Hat Enterprise Linux 7"
  ],
  "References": [
    {
      "Source": "RHSA",
      "URI": "https://access.redhat.com/errata/RHSA-2016:2582",
      "ID": "RHSA-2016:2582"
    },
    {
      "Source": "CVE",
      "URI": "https://access.redhat.com/security/cve/CVE-2015-8803",
      "ID": "CVE-2015-8803"
    },
    {
      "Source": "CVE",
      "URI": "https://access.redhat.com/security/cve/CVE-2015-8804",
      "ID": "CVE-2015-8804"
    },
    {
      "Source": "CVE",
      "URI": "https://access.redhat.com/security/cve/CVE-2015-8805",
      "ID": "CVE-2015-8805"
    },
    {
      "Source": "CVE",
      "URI": "https://access.redhat.com/security/cve/CVE-2016-6489",
      "ID": "CVE-2016-6489"
    }
  ],
  "Criteria": {
    "Operator": "OR",
    "Criterias": [
      {
        "Operator": "AND",
        "Criterias": [
          {
            "Operator": "OR",
            "Criterias": [
              {
                "Operator": "AND",
                "Criterias": [

                ],
                "Criterions": [
                  {
                    "Comment": "nettle is earlier than 0:2.7.1-8.el7"
                  },
                  {
                    "Comment": "nettle is signed with Red Hat redhatrelease2 key"
                  }
                ]
              },
              {
                "Operator": "AND",
                "Criterias": [

                ],
                "Criterions": [
                  {
                    "Comment": "nettle-devel is earlier than 0:2.7.1-8.el7"
                  },
                  {
                    "Comment": "nettle-devel is signed with Red Hat redhatrelease2 key"
                  }
                ]
              }
            ],
            "Criterions": [

            ]
          }
        ],
        "Criterions": [
          {
            "Comment": "Oracle Linux 7 is installed"
          }
        ]
      }
    ],
    "Criterions": [
      {
        "Comment": "Oracle Linux 7 is installed"
      }
    ]
  },
  "Severity": "Moderate",
  "Cves": [
    {
      "Impact": "",
      "Href": "",
      "ID": "CVE-2015-8803"
    },
    {
      "Impact": "",
      "Href": "",
      "ID": "CVE-2015-8804"
    },
    {
      "Impact": "",
      "Href": "",
      "ID": "CVE-2015-8805"
    },
    {
      "Impact": "",
      "Href": "",
      "ID": "CVE-2016-6489"
    }
  ],
  "Issued": {
    "Date": "2016-11-03"
  }
}