{
  "Title": "RHSA-2016:0460: thunderbird security update (Important)",
  "Description": "Mozilla Thunderbird is a standalone mail and newsgroup client.\nSeveral flaws were found in the processing of malformed web content. A web\npage containing malicious content could cause Thunderbird to crash or,\npotentially, execute arbitrary code with the privileges of the user running\nThunderbird. (CVE-2016-1952, CVE-2016-1954, CVE-2016-1957, CVE-2016-1960,\nCVE-2016-1961, CVE-2016-1974, CVE-2016-1964, CVE-2016-1966)\nMultiple security flaws were found in the graphite2 font library shipped\nwith Thunderbird. A web page containing malicious content could cause\nThunderbird to crash or, potentially, execute arbitrary code with the\nprivileges of the user running Thunderbird. (CVE-2016-1977, CVE-2016-2790,\nCVE-2016-2791, CVE-2016-2792, CVE-2016-2793, CVE-2016-2794, CVE-2016-2795,\nCVE-2016-2796, CVE-2016-2797, CVE-2016-2798, CVE-2016-2799, CVE-2016-2800,\nCVE-2016-2801, CVE-2016-2802)\nRed Hat would like to thank the Mozilla project for reporting these issues.\nUpstream acknowledges Bob Clary, Christoph Diehl, Christian Holler, Andrew\nMcCreight, Daniel Holbert, Jesse Ruderman, Randell Jesup, Nicolas\nGolubovic, Jose Martinez, Romina Santillan, ca0nguyen, lokihardt, Nicolas\nGrégoire, the Communications Electronics Security Group (UK) of the GCHQ,\nHolger Fuhrmannek, Ronald Crane, and Tyson Smith as the original reporters\nof these issues.\nFor technical details regarding these flaws, refer to the Mozilla security\nadvisories for Thunderbird 38.7.0. You can find a link to the Mozilla\nadvisories in the References section of this erratum.\nAll Thunderbird users should upgrade to this updated package, which\ncontains Thunderbird version 38.7.0, which corrects these issues. After\ninstalling the update, Thunderbird must be restarted for the changes to\ntake effect.",
  "Platform": [
    "Red Hat Enterprise Linux 5",
    "Red Hat Enterprise Linux 6",
    "Red Hat Enterprise Linux 7"
  ],
  "References": [
    {
      "Source": "RHSA",
      "URI": "https://access.redhat.com/errata/RHSA-2016:0460",
      "ID": "RHSA-2016:0460"
    },
    {
      "Source": "CVE",
      "URI": "https://access.redhat.com/security/cve/CVE-2016-1952",
      "ID": "CVE-2016-1952"
    },
    {
      "Source": "CVE",
      "URI": "https://access.redhat.com/security/cve/CVE-2016-1954",
      "ID": "CVE-2016-1954"
    },
    {
      "Source": "CVE",
      "URI": "https://access.redhat.com/security/cve/CVE-2016-1957",
      "ID": "CVE-2016-1957"
    },
    {
      "Source": "CVE",
      "URI": "https://access.redhat.com/security/cve/CVE-2016-1960",
      "ID": "CVE-2016-1960"
    },
    {
      "Source": "CVE",
      "URI": "https://access.redhat.com/security/cve/CVE-2016-1961",
      "ID": "CVE-2016-1961"
    },
    {
      "Source": "CVE",
      "URI": "https://access.redhat.com/security/cve/CVE-2016-1964",
      "ID": "CVE-2016-1964"
    },
    {
      "Source": "CVE",
      "URI": "https://access.redhat.com/security/cve/CVE-2016-1966",
      "ID": "CVE-2016-1966"
    },
    {
      "Source": "CVE",
      "URI": "https://access.redhat.com/security/cve/CVE-2016-1974",
      "ID": "CVE-2016-1974"
    },
    {
      "Source": "CVE",
      "URI": "https://access.redhat.com/security/cve/CVE-2016-1977",
      "ID": "CVE-2016-1977"
    },
    {
      "Source": "CVE",
      "URI": "https://access.redhat.com/security/cve/CVE-2016-2790",
      "ID": "CVE-2016-2790"
    },
    {
      "Source": "CVE",
      "URI": "https://access.redhat.com/security/cve/CVE-2016-2791",
      "ID": "CVE-2016-2791"
    },
    {
      "Source": "CVE",
      "URI": "https://access.redhat.com/security/cve/CVE-2016-2792",
      "ID": "CVE-2016-2792"
    },
    {
      "Source": "CVE",
      "URI": "https://access.redhat.com/security/cve/CVE-2016-2793",
      "ID": "CVE-2016-2793"
    },
    {
      "Source": "CVE",
      "URI": "https://access.redhat.com/security/cve/CVE-2016-2794",
      "ID": "CVE-2016-2794"
    },
    {
      "Source": "CVE",
      "URI": "https://access.redhat.com/security/cve/CVE-2016-2795",
      "ID": "CVE-2016-2795"
    },
    {
      "Source": "CVE",
      "URI": "https://access.redhat.com/security/cve/CVE-2016-2796",
      "ID": "CVE-2016-2796"
    },
    {
      "Source": "CVE",
      "URI": "https://access.redhat.com/security/cve/CVE-2016-2797",
      "ID": "CVE-2016-2797"
    },
    {
      "Source": "CVE",
      "URI": "https://access.redhat.com/security/cve/CVE-2016-2798",
      "ID": "CVE-2016-2798"
    },
    {
      "Source": "CVE",
      "URI": "https://access.redhat.com/security/cve/CVE-2016-2799",
      "ID": "CVE-2016-2799"
    },
    {
      "Source": "CVE",
      "URI": "https://access.redhat.com/security/cve/CVE-2016-2800",
      "ID": "CVE-2016-2800"
    },
    {
      "Source": "CVE",
      "URI": "https://access.redhat.com/security/cve/CVE-2016-2801",
      "ID": "CVE-2016-2801"
    },
    {
      "Source": "CVE",
      "URI": "https://access.redhat.com/security/cve/CVE-2016-2802",
      "ID": "CVE-2016-2802"
    }
  ],
  "Criteria": {
    "Operator": "OR",
    "Criterias": [
      {
        "Operator": "AND",
        "Criterias": [

        ],
        "Criterions": [
          {
            "Comment": "Oracle Linux 5 is installed"
          },
          {
            "Comment": "thunderbird is earlier than 0:38.7.0-1.el5_11"
          },
          {
            "Comment": "thunderbird is signed with Red Hat redhatrelease2 key"
          }
        ]
      },
      {
        "Operator": "AND",
        "Criterias": [

        ],
        "Criterions": [
          {
            "Comment": "Oracle Linux 6 is installed"
          },
          {
            "Comment": "thunderbird is earlier than 0:38.7.0-1.el6_7"
          },
          {
            "Comment": "thunderbird is signed with Red Hat redhatrelease2 key"
          }
        ]
      },
      {
        "Operator": "AND",
        "Criterias": [

        ],
        "Criterions": [
          {
            "Comment": "Oracle Linux 7 is installed"
          },
          {
            "Comment": "thunderbird is earlier than 0:38.7.0-1.el7_2"
          },
          {
            "Comment": "thunderbird is signed with Red Hat redhatrelease2 key"
          }
        ]
      }
    ],
    "Criterions": [
      {
        "Comment": "Oracle Linux 5 is installed"
      }
    ]
  },
  "Severity": "Important",
  "Cves": [
    {
      "Impact": "",
      "Href": "",
      "ID": "CVE-2016-1952"
    },
    {
      "Impact": "",
      "Href": "",
      "ID": "CVE-2016-1954"
    },
    {
      "Impact": "",
      "Href": "",
      "ID": "CVE-2016-1957"
    },
    {
      "Impact": "",
      "Href": "",
      "ID": "CVE-2016-1960"
    },
    {
      "Impact": "",
      "Href": "",
      "ID": "CVE-2016-1961"
    },
    {
      "Impact": "",
      "Href": "",
      "ID": "CVE-2016-1964"
    },
    {
      "Impact": "",
      "Href": "",
      "ID": "CVE-2016-1966"
    },
    {
      "Impact": "",
      "Href": "",
      "ID": "CVE-2016-1974"
    },
    {
      "Impact": "",
      "Href": "",
      "ID": "CVE-2016-1977"
    },
    {
      "Impact": "",
      "Href": "",
      "ID": "CVE-2016-2790"
    },
    {
      "Impact": "",
      "Href": "",
      "ID": "CVE-2016-2791"
    },
    {
      "Impact": "",
      "Href": "",
      "ID": "CVE-2016-2792"
    },
    {
      "Impact": "",
      "Href": "",
      "ID": "CVE-2016-2793"
    },
    {
      "Impact": "",
      "Href": "",
      "ID": "CVE-2016-2794"
    },
    {
      "Impact": "",
      "Href": "",
      "ID": "CVE-2016-2795"
    },
    {
      "Impact": "",
      "Href": "",
      "ID": "CVE-2016-2796"
    },
    {
      "Impact": "",
      "Href": "",
      "ID": "CVE-2016-2797"
    },
    {
      "Impact": "",
      "Href": "",
      "ID": "CVE-2016-2798"
    },
    {
      "Impact": "",
      "Href": "",
      "ID": "CVE-2016-2799"
    },
    {
      "Impact": "",
      "Href": "",
      "ID": "CVE-2016-2800"
    },
    {
      "Impact": "",
      "Href": "",
      "ID": "CVE-2016-2801"
    },
    {
      "Impact": "",
      "Href": "",
      "ID": "CVE-2016-2802"
    }
  ],
  "Issued": {
    "Date": "2016-03-16"
  }
}