{
  "Title": "RHSA-2016:0188: sos security and bug fix update (Moderate)",
  "Description": "The sos package contains a set of utilities that gather information from\nsystem hardware, logs, and configuration files. The information can then be\nused for diagnostic purposes and debugging.\nAn insecure temporary file use flaw was found in the way sos created\ncertain sosreport files. A local attacker could possibly use this flaw to\nperform a symbolic link attack to reveal the contents of sosreport files,\nor in some cases modify arbitrary files and escalate their privileges on\nthe system. (CVE-2015-7529)\nThis issue was discovered by Mateusz Guzik of Red Hat.\nThis update also fixes the following bug:\n* Previously, the sosreport tool was not collecting the /var/lib/ceph and\n/var/run/ceph directories when run with the ceph plug-in enabled, causing\nthe generated sosreport archive to miss vital troubleshooting information\nabout ceph. With this update, the ceph plug-in for sosreport collects these\ndirectories, and the generated report contains more useful information.\n(BZ#1291347)\nAll users of sos are advised to upgrade to this updated package, which\ncontains backported patches to correct these issues.",
  "Platform": [
    "Red Hat Enterprise Linux 7"
  ],
  "References": [
    {
      "Source": "RHSA",
      "URI": "https://access.redhat.com/errata/RHSA-2016:0188",
      "ID": "RHSA-2016:0188"
    },
    {
      "Source": "CVE",
      "URI": "https://access.redhat.com/security/cve/CVE-2015-7529",
      "ID": "CVE-2015-7529"
    }
  ],
  "Criteria": {
    "Operator": "OR",
    "Criterias": [
      {
        "Operator": "AND",
        "Criterias": [

        ],
        "Criterions": [
          {
            "Comment": "Oracle Linux 7 is installed"
          },
          {
            "Comment": "sos is earlier than 0:3.2-35.el7_2.3"
          },
          {
            "Comment": "sos is signed with Red Hat redhatrelease2 key"
          }
        ]
      }
    ],
    "Criterions": [
      {
        "Comment": "Oracle Linux 7 is installed"
      }
    ]
  },
  "Severity": "Moderate",
  "Cves": [
    {
      "Impact": "",
      "Href": "",
      "ID": "CVE-2015-7529"
    }
  ],
  "Issued": {
    "Date": "2016-02-16"
  }
}