{
  "Title": "RHSA-2016:0684: nss and nspr security, bug fix, and enhancement update (Moderate)",
  "Description": "Network Security Services (NSS) is a set of libraries designed to support the cross-platform development of security-enabled client and server applications. Netscape Portable Runtime (NSPR) provides platform independence for non-GUI operating system facilities.\nThe following packages have been upgraded to a newer upstream version: nss 3.21.0, nspr 4.11.0. (BZ#1297944, BZ#1297943)\nSecurity Fix(es):\n* A use-after-free flaw was found in the way NSS handled DHE (Diffie-Hellman key exchange) and ECDHE (Elliptic Curve Diffie-Hellman key exchange) handshake messages. A remote attacker could send a specially crafted handshake message that, when parsed by an application linked against NSS, would cause that application to crash or, under certain special conditions, execute arbitrary code using the permissions of the user running the application. (CVE-2016-1978)\n* A use-after-free flaw was found in the way NSS processed certain DER (Distinguished Encoding Rules) encoded cryptographic keys. An attacker could use this flaw to create a specially crafted DER encoded certificate which, when parsed by an application compiled against the NSS library, could cause that application to crash, or execute arbitrary code using the permissions of the user running the application. (CVE-2016-1979)\nRed Hat would like to thank the Mozilla project for reporting these issues. Upstream acknowledges Eric Rescorla as the original reporter of CVE-2016-1978; and Tim Taubert as the original reporter of CVE-2016-1979.",
  "Platform": [
    "Red Hat Enterprise Linux 5"
  ],
  "References": [
    {
      "Source": "RHSA",
      "URI": "https://access.redhat.com/errata/RHSA-2016:0684",
      "ID": "RHSA-2016:0684"
    },
    {
      "Source": "CVE",
      "URI": "https://access.redhat.com/security/cve/CVE-2016-1978",
      "ID": "CVE-2016-1978"
    },
    {
      "Source": "CVE",
      "URI": "https://access.redhat.com/security/cve/CVE-2016-1979",
      "ID": "CVE-2016-1979"
    }
  ],
  "Criteria": {
    "Operator": "OR",
    "Criterias": [
      {
        "Operator": "AND",
        "Criterias": [
          {
            "Operator": "OR",
            "Criterias": [
              {
                "Operator": "AND",
                "Criterias": [

                ],
                "Criterions": [
                  {
                    "Comment": "nspr is earlier than 0:4.11.0-1.el5_11"
                  },
                  {
                    "Comment": "nspr is signed with Red Hat redhatrelease2 key"
                  }
                ]
              },
              {
                "Operator": "AND",
                "Criterias": [

                ],
                "Criterions": [
                  {
                    "Comment": "nspr-devel is earlier than 0:4.11.0-1.el5_11"
                  },
                  {
                    "Comment": "nspr-devel is signed with Red Hat redhatrelease2 key"
                  }
                ]
              },
              {
                "Operator": "AND",
                "Criterias": [

                ],
                "Criterions": [
                  {
                    "Comment": "nss is earlier than 0:3.21.0-6.el5_11"
                  },
                  {
                    "Comment": "nss is signed with Red Hat redhatrelease2 key"
                  }
                ]
              },
              {
                "Operator": "AND",
                "Criterias": [

                ],
                "Criterions": [
                  {
                    "Comment": "nss-devel is earlier than 0:3.21.0-6.el5_11"
                  },
                  {
                    "Comment": "nss-devel is signed with Red Hat redhatrelease2 key"
                  }
                ]
              },
              {
                "Operator": "AND",
                "Criterias": [

                ],
                "Criterions": [
                  {
                    "Comment": "nss-pkcs11-devel is earlier than 0:3.21.0-6.el5_11"
                  },
                  {
                    "Comment": "nss-pkcs11-devel is signed with Red Hat redhatrelease2 key"
                  }
                ]
              },
              {
                "Operator": "AND",
                "Criterias": [

                ],
                "Criterions": [
                  {
                    "Comment": "nss-tools is earlier than 0:3.21.0-6.el5_11"
                  },
                  {
                    "Comment": "nss-tools is signed with Red Hat redhatrelease2 key"
                  }
                ]
              }
            ],
            "Criterions": [

            ]
          }
        ],
        "Criterions": [
          {
            "Comment": "Oracle Linux 5 is installed"
          }
        ]
      }
    ],
    "Criterions": [
      {
        "Comment": "Oracle Linux 5 is installed"
      }
    ]
  },
  "Severity": "Moderate",
  "Cves": [
    {
      "Impact": "",
      "Href": "",
      "ID": "CVE-2016-1978"
    },
    {
      "Impact": "",
      "Href": "",
      "ID": "CVE-2016-1979"
    }
  ],
  "Issued": {
    "Date": "2016-04-25"
  }
}