{
  "Title": "RHSA-2016:2586: python security, bug fix, and enhancement update (Low)",
  "Description": "Python is an interpreted, interactive, object-oriented programming language, which includes modules, classes, exceptions, very high level dynamic data types and dynamic typing. Python supports interfaces to many system calls and libraries, as well as to various windowing systems.\nSecurity Fix(es):\n* A vulnerability was discovered in Python, in the built-in zipimporter. A specially crafted zip file placed in a module path such that it would be loaded by a later \"import\" statement could cause a heap overflow, leading to arbitrary code execution. (CVE-2016-5636)\nAdditional Changes:\nFor detailed information on changes in this release, see the Red Hat Enterprise Linux 7.3 Release Notes linked from the References section.",
  "Platform": [
    "Red Hat Enterprise Linux 7"
  ],
  "References": [
    {
      "Source": "RHSA",
      "URI": "https://access.redhat.com/errata/RHSA-2016:2586",
      "ID": "RHSA-2016:2586"
    },
    {
      "Source": "CVE",
      "URI": "https://access.redhat.com/security/cve/CVE-2016-5636",
      "ID": "CVE-2016-5636"
    }
  ],
  "Criteria": {
    "Operator": "OR",
    "Criterias": [
      {
        "Operator": "AND",
        "Criterias": [
          {
            "Operator": "OR",
            "Criterias": [
              {
                "Operator": "AND",
                "Criterias": [

                ],
                "Criterions": [
                  {
                    "Comment": "python is earlier than 0:2.7.5-48.el7"
                  },
                  {
                    "Comment": "python is signed with Red Hat redhatrelease2 key"
                  }
                ]
              },
              {
                "Operator": "AND",
                "Criterias": [

                ],
                "Criterions": [
                  {
                    "Comment": "python-debug is earlier than 0:2.7.5-48.el7"
                  },
                  {
                    "Comment": "python-debug is signed with Red Hat redhatrelease2 key"
                  }
                ]
              },
              {
                "Operator": "AND",
                "Criterias": [

                ],
                "Criterions": [
                  {
                    "Comment": "python-devel is earlier than 0:2.7.5-48.el7"
                  },
                  {
                    "Comment": "python-devel is signed with Red Hat redhatrelease2 key"
                  }
                ]
              },
              {
                "Operator": "AND",
                "Criterias": [

                ],
                "Criterions": [
                  {
                    "Comment": "python-libs is earlier than 0:2.7.5-48.el7"
                  },
                  {
                    "Comment": "python-libs is signed with Red Hat redhatrelease2 key"
                  }
                ]
              },
              {
                "Operator": "AND",
                "Criterias": [

                ],
                "Criterions": [
                  {
                    "Comment": "python-test is earlier than 0:2.7.5-48.el7"
                  },
                  {
                    "Comment": "python-test is signed with Red Hat redhatrelease2 key"
                  }
                ]
              },
              {
                "Operator": "AND",
                "Criterias": [

                ],
                "Criterions": [
                  {
                    "Comment": "python-tools is earlier than 0:2.7.5-48.el7"
                  },
                  {
                    "Comment": "python-tools is signed with Red Hat redhatrelease2 key"
                  }
                ]
              },
              {
                "Operator": "AND",
                "Criterias": [

                ],
                "Criterions": [
                  {
                    "Comment": "tkinter is earlier than 0:2.7.5-48.el7"
                  },
                  {
                    "Comment": "tkinter is signed with Red Hat redhatrelease2 key"
                  }
                ]
              }
            ],
            "Criterions": [

            ]
          }
        ],
        "Criterions": [
          {
            "Comment": "Oracle Linux 7 is installed"
          }
        ]
      }
    ],
    "Criterions": [
      {
        "Comment": "Oracle Linux 7 is installed"
      }
    ]
  },
  "Severity": "Low",
  "Cves": [
    {
      "Impact": "",
      "Href": "",
      "ID": "CVE-2016-5636"
    }
  ],
  "Issued": {
    "Date": "2016-11-03"
  }
}