{
  "Title": "RHSA-2016:0741: openssh security, bug fix, and enhancement update (Moderate)",
  "Description": "OpenSSH is an SSH protocol implementation supported by a number of Linux, UNIX, and similar operating systems. It includes the core files necessary for both the OpenSSH client and server.\nSecurity Fix(es):\n* It was found that the OpenSSH client did not properly enforce the ForwardX11Timeout setting. A malicious or compromised remote X application could possibly use this flaw to establish a trusted connection to the local X server, even if only untrusted X11 forwarding was requested. (CVE-2015-5352)\n* A flaw was found in the way OpenSSH handled PAM authentication when using privilege separation. An attacker with valid credentials on the system and able to fully compromise a non-privileged pre-authentication process using a different flaw could use this flaw to authenticate as other users. (CVE-2015-6563)\n* A use-after-free flaw was found in OpenSSH. An attacker able to fully compromise a non-privileged pre-authentication process using a different flaw could possibly cause sshd to crash or execute arbitrary code with root privileges. (CVE-2015-6564)\n* An access flaw was discovered in OpenSSH; the OpenSSH client did not correctly handle failures to generate authentication cookies for untrusted X11 forwarding. A malicious or compromised remote X application could possibly use this flaw to establish a trusted connection to the local X server, even if only untrusted X11 forwarding was requested. (CVE-2016-1908)\nFor detailed information on changes in this release, see the Red Hat Enterprise Linux 6.8 Release Notes and Red Hat Enterprise Linux 6.8 Technical Notes linked from the References section.",
  "Platform": [
    "Red Hat Enterprise Linux 6"
  ],
  "References": [
    {
      "Source": "RHSA",
      "URI": "https://access.redhat.com/errata/RHSA-2016:0741",
      "ID": "RHSA-2016:0741"
    },
    {
      "Source": "CVE",
      "URI": "https://access.redhat.com/security/cve/CVE-2015-5352",
      "ID": "CVE-2015-5352"
    },
    {
      "Source": "CVE",
      "URI": "https://access.redhat.com/security/cve/CVE-2015-6563",
      "ID": "CVE-2015-6563"
    },
    {
      "Source": "CVE",
      "URI": "https://access.redhat.com/security/cve/CVE-2015-6564",
      "ID": "CVE-2015-6564"
    },
    {
      "Source": "CVE",
      "URI": "https://access.redhat.com/security/cve/CVE-2016-1908",
      "ID": "CVE-2016-1908"
    }
  ],
  "Criteria": {
    "Operator": "OR",
    "Criterias": [
      {
        "Operator": "AND",
        "Criterias": [
          {
            "Operator": "OR",
            "Criterias": [
              {
                "Operator": "AND",
                "Criterias": [

                ],
                "Criterions": [
                  {
                    "Comment": "openssh is earlier than 0:5.3p1-117.el6"
                  },
                  {
                    "Comment": "openssh is signed with Red Hat redhatrelease2 key"
                  }
                ]
              },
              {
                "Operator": "AND",
                "Criterias": [

                ],
                "Criterions": [
                  {
                    "Comment": "openssh-askpass is earlier than 0:5.3p1-117.el6"
                  },
                  {
                    "Comment": "openssh-askpass is signed with Red Hat redhatrelease2 key"
                  }
                ]
              },
              {
                "Operator": "AND",
                "Criterias": [

                ],
                "Criterions": [
                  {
                    "Comment": "openssh-clients is earlier than 0:5.3p1-117.el6"
                  },
                  {
                    "Comment": "openssh-clients is signed with Red Hat redhatrelease2 key"
                  }
                ]
              },
              {
                "Operator": "AND",
                "Criterias": [

                ],
                "Criterions": [
                  {
                    "Comment": "openssh-ldap is earlier than 0:5.3p1-117.el6"
                  },
                  {
                    "Comment": "openssh-ldap is signed with Red Hat redhatrelease2 key"
                  }
                ]
              },
              {
                "Operator": "AND",
                "Criterias": [

                ],
                "Criterions": [
                  {
                    "Comment": "openssh-server is earlier than 0:5.3p1-117.el6"
                  },
                  {
                    "Comment": "openssh-server is signed with Red Hat redhatrelease2 key"
                  }
                ]
              },
              {
                "Operator": "AND",
                "Criterias": [

                ],
                "Criterions": [
                  {
                    "Comment": "pam_ssh_agent_auth is earlier than 0:0.9.3-117.el6"
                  },
                  {
                    "Comment": "pam_ssh_agent_auth is signed with Red Hat redhatrelease2 key"
                  }
                ]
              }
            ],
            "Criterions": [

            ]
          }
        ],
        "Criterions": [
          {
            "Comment": "Oracle Linux 6 is installed"
          }
        ]
      }
    ],
    "Criterions": [
      {
        "Comment": "Oracle Linux 6 is installed"
      }
    ]
  },
  "Severity": "Moderate",
  "Cves": [
    {
      "Impact": "",
      "Href": "",
      "ID": "CVE-2015-5352"
    },
    {
      "Impact": "",
      "Href": "",
      "ID": "CVE-2015-6563"
    },
    {
      "Impact": "",
      "Href": "",
      "ID": "CVE-2015-6564"
    },
    {
      "Impact": "",
      "Href": "",
      "ID": "CVE-2016-1908"
    }
  ],
  "Issued": {
    "Date": "2016-05-10"
  }
}