{
  "Title": "RHSA-2016:2141: bind security update (Important)",
  "Description": "The Berkeley Internet Name Domain (BIND) is an implementation of the Domain Name System (DNS) protocols. BIND includes a DNS server (named); a resolver library (routines for applications to use when interfacing with DNS); and tools for verifying that the DNS server is operating correctly.\nSecurity Fix(es):\n* A denial of service flaw was found in the way BIND handled responses containing a DNAME answer. A remote attacker could use this flaw to make named exit unexpectedly with an assertion failure via a specially crafted DNS response. (CVE-2016-8864)\nRed Hat would like to thank ISC for reporting this issue. Upstream acknowledges Tony Finch (University of Cambridge) and Marco Davids (SIDN Labs) as the original reporters.",
  "Platform": [
    "Red Hat Enterprise Linux 5",
    "Red Hat Enterprise Linux 6"
  ],
  "References": [
    {
      "Source": "RHSA",
      "URI": "https://access.redhat.com/errata/RHSA-2016:2141",
      "ID": "RHSA-2016:2141"
    },
    {
      "Source": "CVE",
      "URI": "https://access.redhat.com/security/cve/CVE-2016-8864",
      "ID": "CVE-2016-8864"
    }
  ],
  "Criteria": {
    "Operator": "OR",
    "Criterias": [
      {
        "Operator": "AND",
        "Criterias": [
          {
            "Operator": "OR",
            "Criterias": [
              {
                "Operator": "AND",
                "Criterias": [

                ],
                "Criterions": [
                  {
                    "Comment": "bind is earlier than 30:9.3.6-25.P1.el5_11.11"
                  },
                  {
                    "Comment": "bind is signed with Red Hat redhatrelease2 key"
                  }
                ]
              },
              {
                "Operator": "AND",
                "Criterias": [

                ],
                "Criterions": [
                  {
                    "Comment": "bind-chroot is earlier than 30:9.3.6-25.P1.el5_11.11"
                  },
                  {
                    "Comment": "bind-chroot is signed with Red Hat redhatrelease2 key"
                  }
                ]
              },
              {
                "Operator": "AND",
                "Criterias": [

                ],
                "Criterions": [
                  {
                    "Comment": "bind-devel is earlier than 30:9.3.6-25.P1.el5_11.11"
                  },
                  {
                    "Comment": "bind-devel is signed with Red Hat redhatrelease2 key"
                  }
                ]
              },
              {
                "Operator": "AND",
                "Criterias": [

                ],
                "Criterions": [
                  {
                    "Comment": "bind-libbind-devel is earlier than 30:9.3.6-25.P1.el5_11.11"
                  },
                  {
                    "Comment": "bind-libbind-devel is signed with Red Hat redhatrelease2 key"
                  }
                ]
              },
              {
                "Operator": "AND",
                "Criterias": [

                ],
                "Criterions": [
                  {
                    "Comment": "bind-libs is earlier than 30:9.3.6-25.P1.el5_11.11"
                  },
                  {
                    "Comment": "bind-libs is signed with Red Hat redhatrelease2 key"
                  }
                ]
              },
              {
                "Operator": "AND",
                "Criterias": [

                ],
                "Criterions": [
                  {
                    "Comment": "bind-sdb is earlier than 30:9.3.6-25.P1.el5_11.11"
                  },
                  {
                    "Comment": "bind-sdb is signed with Red Hat redhatrelease2 key"
                  }
                ]
              },
              {
                "Operator": "AND",
                "Criterias": [

                ],
                "Criterions": [
                  {
                    "Comment": "bind-utils is earlier than 30:9.3.6-25.P1.el5_11.11"
                  },
                  {
                    "Comment": "bind-utils is signed with Red Hat redhatrelease2 key"
                  }
                ]
              },
              {
                "Operator": "AND",
                "Criterias": [

                ],
                "Criterions": [
                  {
                    "Comment": "caching-nameserver is earlier than 30:9.3.6-25.P1.el5_11.11"
                  },
                  {
                    "Comment": "caching-nameserver is signed with Red Hat redhatrelease2 key"
                  }
                ]
              }
            ],
            "Criterions": [

            ]
          }
        ],
        "Criterions": [
          {
            "Comment": "Oracle Linux 5 is installed"
          }
        ]
      },
      {
        "Operator": "AND",
        "Criterias": [
          {
            "Operator": "OR",
            "Criterias": [
              {
                "Operator": "AND",
                "Criterias": [

                ],
                "Criterions": [
                  {
                    "Comment": "bind is earlier than 32:9.8.2-0.47.rc1.el6_8.3"
                  },
                  {
                    "Comment": "bind is signed with Red Hat redhatrelease2 key"
                  }
                ]
              },
              {
                "Operator": "AND",
                "Criterias": [

                ],
                "Criterions": [
                  {
                    "Comment": "bind-chroot is earlier than 32:9.8.2-0.47.rc1.el6_8.3"
                  },
                  {
                    "Comment": "bind-chroot is signed with Red Hat redhatrelease2 key"
                  }
                ]
              },
              {
                "Operator": "AND",
                "Criterias": [

                ],
                "Criterions": [
                  {
                    "Comment": "bind-devel is earlier than 32:9.8.2-0.47.rc1.el6_8.3"
                  },
                  {
                    "Comment": "bind-devel is signed with Red Hat redhatrelease2 key"
                  }
                ]
              },
              {
                "Operator": "AND",
                "Criterias": [

                ],
                "Criterions": [
                  {
                    "Comment": "bind-libs is earlier than 32:9.8.2-0.47.rc1.el6_8.3"
                  },
                  {
                    "Comment": "bind-libs is signed with Red Hat redhatrelease2 key"
                  }
                ]
              },
              {
                "Operator": "AND",
                "Criterias": [

                ],
                "Criterions": [
                  {
                    "Comment": "bind-sdb is earlier than 32:9.8.2-0.47.rc1.el6_8.3"
                  },
                  {
                    "Comment": "bind-sdb is signed with Red Hat redhatrelease2 key"
                  }
                ]
              },
              {
                "Operator": "AND",
                "Criterias": [

                ],
                "Criterions": [
                  {
                    "Comment": "bind-utils is earlier than 32:9.8.2-0.47.rc1.el6_8.3"
                  },
                  {
                    "Comment": "bind-utils is signed with Red Hat redhatrelease2 key"
                  }
                ]
              }
            ],
            "Criterions": [

            ]
          }
        ],
        "Criterions": [
          {
            "Comment": "Oracle Linux 6 is installed"
          }
        ]
      }
    ],
    "Criterions": [
      {
        "Comment": "Oracle Linux 5 is installed"
      }
    ]
  },
  "Severity": "Important",
  "Cves": [
    {
      "Impact": "",
      "Href": "",
      "ID": "CVE-2016-8864"
    }
  ],
  "Issued": {
    "Date": "2016-11-02"
  }
}