{
  "Title": "RHSA-2016:0594: graphite2 security, bug fix, and enhancement update (Important)",
  "Description": "Graphite2 is a project within SIL's Non-Roman Script Initiative and Language Software Development groups to provide rendering capabilities for complex non-Roman writing systems. Graphite can be used to create \"smart fonts\" capable of displaying writing systems with various complex behaviors. With respect to the Text Encoding Model, Graphite handles the \"Rendering\" aspect of writing system implementation.\nThe following packages have been upgraded to a newer upstream version: graphite2 (1.3.6).\nSecurity Fix(es):\n* Various vulnerabilities have been discovered in Graphite2. An attacker able to trick an unsuspecting user into opening specially crafted font files in an application using Graphite2 could exploit these flaws to cause the application to crash or, potentially, execute arbitrary code with the privileges of the application. (CVE-2016-1521, CVE-2016-1522, CVE-2016-1523, CVE-2016-1526)",
  "Platform": [
    "Red Hat Enterprise Linux 7"
  ],
  "References": [
    {
      "Source": "RHSA",
      "URI": "https://access.redhat.com/errata/RHSA-2016:0594",
      "ID": "RHSA-2016:0594"
    },
    {
      "Source": "CVE",
      "URI": "https://access.redhat.com/security/cve/CVE-2016-1521",
      "ID": "CVE-2016-1521"
    },
    {
      "Source": "CVE",
      "URI": "https://access.redhat.com/security/cve/CVE-2016-1522",
      "ID": "CVE-2016-1522"
    },
    {
      "Source": "CVE",
      "URI": "https://access.redhat.com/security/cve/CVE-2016-1523",
      "ID": "CVE-2016-1523"
    },
    {
      "Source": "CVE",
      "URI": "https://access.redhat.com/security/cve/CVE-2016-1526",
      "ID": "CVE-2016-1526"
    }
  ],
  "Criteria": {
    "Operator": "OR",
    "Criterias": [
      {
        "Operator": "AND",
        "Criterias": [
          {
            "Operator": "OR",
            "Criterias": [
              {
                "Operator": "AND",
                "Criterias": [

                ],
                "Criterions": [
                  {
                    "Comment": "graphite2 is earlier than 0:1.3.6-1.el7_2"
                  },
                  {
                    "Comment": "graphite2 is signed with Red Hat redhatrelease2 key"
                  }
                ]
              },
              {
                "Operator": "AND",
                "Criterias": [

                ],
                "Criterions": [
                  {
                    "Comment": "graphite2-devel is earlier than 0:1.3.6-1.el7_2"
                  },
                  {
                    "Comment": "graphite2-devel is signed with Red Hat redhatrelease2 key"
                  }
                ]
              }
            ],
            "Criterions": [

            ]
          }
        ],
        "Criterions": [
          {
            "Comment": "Oracle Linux 7 is installed"
          }
        ]
      }
    ],
    "Criterions": [
      {
        "Comment": "Oracle Linux 7 is installed"
      }
    ]
  },
  "Severity": "Important",
  "Cves": [
    {
      "Impact": "",
      "Href": "",
      "ID": "CVE-2016-1521"
    },
    {
      "Impact": "",
      "Href": "",
      "ID": "CVE-2016-1522"
    },
    {
      "Impact": "",
      "Href": "",
      "ID": "CVE-2016-1523"
    },
    {
      "Impact": "",
      "Href": "",
      "ID": "CVE-2016-1526"
    }
  ],
  "Issued": {
    "Date": "2016-04-05"
  }
}