{
  "Title": "RHSA-2016:0760: file security, bug fix, and enhancement update (Moderate)",
  "Description": "The file command is used to identify a particular file according to the type of data the file contains. It can identify many different file types, including Executable and Linkable Format (ELF) binary files, system libraries, RPM packages, and different graphics formats.\nSecurity Fix(es):\n* Multiple flaws were found in the file regular expression rules for detecting various files. A remote attacker could use these flaws to cause file to consume an excessive amount of CPU. (CVE-2014-3538)\n* A denial of service flaw was found in the way file parsed certain Composite Document Format (CDF) files. A remote attacker could use this flaw to crash file via a specially crafted CDF file. (CVE-2014-3587)\n* Multiple flaws were found in the way file parsed Executable and Linkable Format (ELF) files. A remote attacker could use these flaws to cause file to crash, disclose portions of its memory, or consume an excessive amount of system resources. (CVE-2014-3710, CVE-2014-8116, CVE-2014-8117, CVE-2014-9620, CVE-2014-9653)\nRed Hat would like to thank Thomas Jarosch (Intra2net AG) for reporting CVE-2014-8116 and CVE-2014-8117. The CVE-2014-3538 issue was discovered by Jan Kaluža (Red Hat Web Stack Team) and the CVE-2014-3710 issue was discovered by Francisco Alonso (Red Hat Product Security).\nFor detailed information on changes in this release, see the Red Hat Enterprise Linux 6.8 Release Notes and Red Hat Enterprise Linux 6.8 Technical Notes linked from the References section.",
  "Platform": [
    "Red Hat Enterprise Linux 6"
  ],
  "References": [
    {
      "Source": "RHSA",
      "URI": "https://access.redhat.com/errata/RHSA-2016:0760",
      "ID": "RHSA-2016:0760"
    },
    {
      "Source": "CVE",
      "URI": "https://access.redhat.com/security/cve/CVE-2014-3538",
      "ID": "CVE-2014-3538"
    },
    {
      "Source": "CVE",
      "URI": "https://access.redhat.com/security/cve/CVE-2014-3587",
      "ID": "CVE-2014-3587"
    },
    {
      "Source": "CVE",
      "URI": "https://access.redhat.com/security/cve/CVE-2014-3710",
      "ID": "CVE-2014-3710"
    },
    {
      "Source": "CVE",
      "URI": "https://access.redhat.com/security/cve/CVE-2014-8116",
      "ID": "CVE-2014-8116"
    },
    {
      "Source": "CVE",
      "URI": "https://access.redhat.com/security/cve/CVE-2014-8117",
      "ID": "CVE-2014-8117"
    },
    {
      "Source": "CVE",
      "URI": "https://access.redhat.com/security/cve/CVE-2014-9620",
      "ID": "CVE-2014-9620"
    },
    {
      "Source": "CVE",
      "URI": "https://access.redhat.com/security/cve/CVE-2014-9653",
      "ID": "CVE-2014-9653"
    }
  ],
  "Criteria": {
    "Operator": "OR",
    "Criterias": [
      {
        "Operator": "AND",
        "Criterias": [
          {
            "Operator": "OR",
            "Criterias": [
              {
                "Operator": "AND",
                "Criterias": [

                ],
                "Criterions": [
                  {
                    "Comment": "file is earlier than 0:5.04-30.el6"
                  },
                  {
                    "Comment": "file is signed with Red Hat redhatrelease2 key"
                  }
                ]
              },
              {
                "Operator": "AND",
                "Criterias": [

                ],
                "Criterions": [
                  {
                    "Comment": "file-devel is earlier than 0:5.04-30.el6"
                  },
                  {
                    "Comment": "file-devel is signed with Red Hat redhatrelease2 key"
                  }
                ]
              },
              {
                "Operator": "AND",
                "Criterias": [

                ],
                "Criterions": [
                  {
                    "Comment": "file-libs is earlier than 0:5.04-30.el6"
                  },
                  {
                    "Comment": "file-libs is signed with Red Hat redhatrelease2 key"
                  }
                ]
              },
              {
                "Operator": "AND",
                "Criterias": [

                ],
                "Criterions": [
                  {
                    "Comment": "file-static is earlier than 0:5.04-30.el6"
                  },
                  {
                    "Comment": "file-static is signed with Red Hat redhatrelease2 key"
                  }
                ]
              },
              {
                "Operator": "AND",
                "Criterias": [

                ],
                "Criterions": [
                  {
                    "Comment": "python-magic is earlier than 0:5.04-30.el6"
                  },
                  {
                    "Comment": "python-magic is signed with Red Hat redhatrelease2 key"
                  }
                ]
              }
            ],
            "Criterions": [

            ]
          }
        ],
        "Criterions": [
          {
            "Comment": "Oracle Linux 6 is installed"
          }
        ]
      }
    ],
    "Criterions": [
      {
        "Comment": "Oracle Linux 6 is installed"
      }
    ]
  },
  "Severity": "Moderate",
  "Cves": [
    {
      "Impact": "",
      "Href": "",
      "ID": "CVE-2014-3538"
    },
    {
      "Impact": "",
      "Href": "",
      "ID": "CVE-2014-3587"
    },
    {
      "Impact": "",
      "Href": "",
      "ID": "CVE-2014-3710"
    },
    {
      "Impact": "",
      "Href": "",
      "ID": "CVE-2014-8116"
    },
    {
      "Impact": "",
      "Href": "",
      "ID": "CVE-2014-8117"
    },
    {
      "Impact": "",
      "Href": "",
      "ID": "CVE-2014-9620"
    },
    {
      "Impact": "",
      "Href": "",
      "ID": "CVE-2014-9653"
    }
  ],
  "Issued": {
    "Date": "2016-05-10"
  }
}