{
  "Title": "RHSA-2016:0458: bind97 security update (Important)",
  "Description": "The Berkeley Internet Name Domain (BIND) is an implementation of the Domain\nName System (DNS) protocols. BIND includes a DNS server (named); a resolver\nlibrary (routines for applications to use when interfacing with DNS); and\ntools for verifying that the DNS server is operating correctly.\nA denial of service flaw was found in the way BIND parsed signature records\nfor DNAME records. By sending a specially crafted query, a remote attacker\ncould use this flaw to cause named to crash. (CVE-2016-1286)\nA denial of service flaw was found in the way BIND processed certain\ncontrol channel input. A remote attacker able to send a malformed packet to\nthe control channel could use this flaw to cause named to crash.\n(CVE-2016-1285)\nRed Hat would like to thank ISC for reporting these issues.\nAll bind97 users are advised to upgrade to these updated packages, which\ncontain backported patches to correct these issues. After installing the\nupdate, the BIND daemon (named) will be restarted automatically.",
  "Platform": [
    "Red Hat Enterprise Linux 5"
  ],
  "References": [
    {
      "Source": "RHSA",
      "URI": "https://access.redhat.com/errata/RHSA-2016:0458",
      "ID": "RHSA-2016:0458"
    },
    {
      "Source": "CVE",
      "URI": "https://access.redhat.com/security/cve/CVE-2016-1285",
      "ID": "CVE-2016-1285"
    },
    {
      "Source": "CVE",
      "URI": "https://access.redhat.com/security/cve/CVE-2016-1286",
      "ID": "CVE-2016-1286"
    }
  ],
  "Criteria": {
    "Operator": "OR",
    "Criterias": [
      {
        "Operator": "AND",
        "Criterias": [
          {
            "Operator": "OR",
            "Criterias": [
              {
                "Operator": "AND",
                "Criterias": [

                ],
                "Criterions": [
                  {
                    "Comment": "bind97 is earlier than 32:9.7.0-21.P2.el5_11.6"
                  },
                  {
                    "Comment": "bind97 is signed with Red Hat redhatrelease2 key"
                  }
                ]
              },
              {
                "Operator": "AND",
                "Criterias": [

                ],
                "Criterions": [
                  {
                    "Comment": "bind97-chroot is earlier than 32:9.7.0-21.P2.el5_11.6"
                  },
                  {
                    "Comment": "bind97-chroot is signed with Red Hat redhatrelease2 key"
                  }
                ]
              },
              {
                "Operator": "AND",
                "Criterias": [

                ],
                "Criterions": [
                  {
                    "Comment": "bind97-devel is earlier than 32:9.7.0-21.P2.el5_11.6"
                  },
                  {
                    "Comment": "bind97-devel is signed with Red Hat redhatrelease2 key"
                  }
                ]
              },
              {
                "Operator": "AND",
                "Criterias": [

                ],
                "Criterions": [
                  {
                    "Comment": "bind97-libs is earlier than 32:9.7.0-21.P2.el5_11.6"
                  },
                  {
                    "Comment": "bind97-libs is signed with Red Hat redhatrelease2 key"
                  }
                ]
              },
              {
                "Operator": "AND",
                "Criterias": [

                ],
                "Criterions": [
                  {
                    "Comment": "bind97-utils is earlier than 32:9.7.0-21.P2.el5_11.6"
                  },
                  {
                    "Comment": "bind97-utils is signed with Red Hat redhatrelease2 key"
                  }
                ]
              }
            ],
            "Criterions": [

            ]
          }
        ],
        "Criterions": [
          {
            "Comment": "Oracle Linux 5 is installed"
          }
        ]
      }
    ],
    "Criterions": [
      {
        "Comment": "Oracle Linux 5 is installed"
      }
    ]
  },
  "Severity": "Important",
  "Cves": [
    {
      "Impact": "",
      "Href": "",
      "ID": "CVE-2016-1285"
    },
    {
      "Impact": "",
      "Href": "",
      "ID": "CVE-2016-1286"
    }
  ],
  "Issued": {
    "Date": "2016-03-16"
  }
}