{
  "Title": "RHSA-2016:0778: icedtea-web security, bug fix, and enhancement update (Moderate)",
  "Description": "The IcedTea-Web project provides a Java web browser plug-in and an implementation of Java Web Start, which is based on the Netx project. It also contains a configuration tool for managing deployment settings for the plug-in and Web Start implementations. IcedTea-Web now also contains PolicyEditor - a simple tool to configure Java policies.\nThe following packages have been upgraded to a newer upstream version: icedtea-web (1.6.2). (BZ#1275523)\nSecurity Fix(es):\n* It was discovered that IcedTea-Web did not properly sanitize applet URLs when storing applet trust settings. A malicious web page could use this flaw to inject trust-settings configuration, and cause applets to be executed without user approval. (CVE-2015-5234)\n* It was discovered that IcedTea-Web did not properly determine an applet's origin when asking the user if the applet should be run. A malicious page could use this flaw to cause IcedTea-Web to execute the applet without user approval, or confuse the user into approving applet execution based on an incorrectly indicated applet origin. (CVE-2015-5235)\nRed Hat would like to thank Andrea Palazzo (Truel IT) for reporting these issues.\nFor detailed information on changes in this release, see the Red Hat Enterprise Linux 6.8 Release Notes and Red Hat Enterprise Linux 6.8 Technical Notes linked from the References section.",
  "Platform": [
    "Red Hat Enterprise Linux 6"
  ],
  "References": [
    {
      "Source": "RHSA",
      "URI": "https://access.redhat.com/errata/RHSA-2016:0778",
      "ID": "RHSA-2016:0778"
    },
    {
      "Source": "CVE",
      "URI": "https://access.redhat.com/security/cve/CVE-2015-5234",
      "ID": "CVE-2015-5234"
    },
    {
      "Source": "CVE",
      "URI": "https://access.redhat.com/security/cve/CVE-2015-5235",
      "ID": "CVE-2015-5235"
    }
  ],
  "Criteria": {
    "Operator": "OR",
    "Criterias": [
      {
        "Operator": "AND",
        "Criterias": [
          {
            "Operator": "OR",
            "Criterias": [
              {
                "Operator": "AND",
                "Criterias": [

                ],
                "Criterions": [
                  {
                    "Comment": "icedtea-web is earlier than 0:1.6.2-1.el6"
                  },
                  {
                    "Comment": "icedtea-web is signed with Red Hat redhatrelease2 key"
                  }
                ]
              },
              {
                "Operator": "AND",
                "Criterias": [

                ],
                "Criterions": [
                  {
                    "Comment": "icedtea-web-javadoc is earlier than 0:1.6.2-1.el6"
                  },
                  {
                    "Comment": "icedtea-web-javadoc is signed with Red Hat redhatrelease2 key"
                  }
                ]
              }
            ],
            "Criterions": [

            ]
          }
        ],
        "Criterions": [
          {
            "Comment": "Oracle Linux 6 is installed"
          }
        ]
      }
    ],
    "Criterions": [
      {
        "Comment": "Oracle Linux 6 is installed"
      }
    ]
  },
  "Severity": "Moderate",
  "Cves": [
    {
      "Impact": "",
      "Href": "",
      "ID": "CVE-2015-5234"
    },
    {
      "Impact": "",
      "Href": "",
      "ID": "CVE-2015-5235"
    }
  ],
  "Issued": {
    "Date": "2016-05-10"
  }
}