{
  "Title": "RHSA-2016:1267: setroubleshoot and setroubleshoot-plugins security update (Important)",
  "Description": "The setroubleshoot packages provide tools to help diagnose SELinux problems. When Access Vector Cache (AVC) messages are returned, an alert can be generated that provides information about the problem and helps to track its resolution.\nThe setroubleshoot-plugins package provides a set of analysis plugins for use with setroubleshoot. Each plugin has the capacity to analyze SELinux AVC data and system data to provide user friendly reports describing how to interpret SELinux AVC denials.\nSecurity Fix(es):\n* Shell command injection flaws were found in the way the setroubleshoot executed external commands. A local attacker able to trigger certain SELinux denials could use these flaws to execute arbitrary code with root privileges. (CVE-2016-4445, CVE-2016-4989)\n* Shell command injection flaws were found in the way the setroubleshoot allow_execmod and allow_execstack plugins executed external commands. A local attacker able to trigger an execmod or execstack SELinux denial could use these flaws to execute arbitrary code with root privileges. (CVE-2016-4444, CVE-2016-4446)\nThe CVE-2016-4444 and CVE-2016-4446 issues were discovered by Milos Malik (Red Hat) and the CVE-2016-4445 and CVE-2016-4989 issues were discovered by Red Hat Product Security.",
  "Platform": [
    "Red Hat Enterprise Linux 6"
  ],
  "References": [
    {
      "Source": "RHSA",
      "URI": "https://access.redhat.com/errata/RHSA-2016:1267",
      "ID": "RHSA-2016:1267"
    },
    {
      "Source": "CVE",
      "URI": "https://access.redhat.com/security/cve/CVE-2016-4444",
      "ID": "CVE-2016-4444"
    },
    {
      "Source": "CVE",
      "URI": "https://access.redhat.com/security/cve/CVE-2016-4445",
      "ID": "CVE-2016-4445"
    },
    {
      "Source": "CVE",
      "URI": "https://access.redhat.com/security/cve/CVE-2016-4446",
      "ID": "CVE-2016-4446"
    },
    {
      "Source": "CVE",
      "URI": "https://access.redhat.com/security/cve/CVE-2016-4989",
      "ID": "CVE-2016-4989"
    }
  ],
  "Criteria": {
    "Operator": "OR",
    "Criterias": [
      {
        "Operator": "AND",
        "Criterias": [
          {
            "Operator": "OR",
            "Criterias": [
              {
                "Operator": "AND",
                "Criterias": [

                ],
                "Criterions": [
                  {
                    "Comment": "setroubleshoot-plugins is earlier than 0:3.0.40-3.1.el6_8"
                  },
                  {
                    "Comment": "setroubleshoot-plugins is signed with Red Hat redhatrelease2 key"
                  }
                ]
              },
              {
                "Operator": "AND",
                "Criterias": [

                ],
                "Criterions": [
                  {
                    "Comment": "setroubleshoot is earlier than 0:3.0.47-12.el6_8"
                  },
                  {
                    "Comment": "setroubleshoot is signed with Red Hat redhatrelease2 key"
                  }
                ]
              },
              {
                "Operator": "AND",
                "Criterias": [

                ],
                "Criterions": [
                  {
                    "Comment": "setroubleshoot-doc is earlier than 0:3.0.47-12.el6_8"
                  },
                  {
                    "Comment": "setroubleshoot-doc is signed with Red Hat redhatrelease2 key"
                  }
                ]
              },
              {
                "Operator": "AND",
                "Criterias": [

                ],
                "Criterions": [
                  {
                    "Comment": "setroubleshoot-server is earlier than 0:3.0.47-12.el6_8"
                  },
                  {
                    "Comment": "setroubleshoot-server is signed with Red Hat redhatrelease2 key"
                  }
                ]
              }
            ],
            "Criterions": [

            ]
          }
        ],
        "Criterions": [
          {
            "Comment": "Oracle Linux 6 is installed"
          }
        ]
      }
    ],
    "Criterions": [
      {
        "Comment": "Oracle Linux 6 is installed"
      }
    ]
  },
  "Severity": "Important",
  "Cves": [
    {
      "Impact": "",
      "Href": "",
      "ID": "CVE-2016-4444"
    },
    {
      "Impact": "",
      "Href": "",
      "ID": "CVE-2016-4445"
    },
    {
      "Impact": "",
      "Href": "",
      "ID": "CVE-2016-4446"
    },
    {
      "Impact": "",
      "Href": "",
      "ID": "CVE-2016-4989"
    }
  ],
  "Issued": {
    "Date": "2016-06-21"
  }
}