{
  "Title": "RHSA-2016:2592: subscription-manager security, bug fix, and enhancement update (Moderate)",
  "Description": "The subscription-manager packages provide programs and libraries to allow users to manage subscriptions and yum repositories from the Red Hat entitlement platform.\nThe subscription-manager-migration-data package provides certificates for migrating a system from the legacy Red Hat Network Classic (RHN) to Red Hat Subscription Management (RHSM).\nThe python-rhsm packages provide a library for communicating with the representational state transfer (REST) interface of a Red Hat Unified Entitlement Platform. The Subscription Management tools use this interface to manage system entitlements, certificates, and access to content.\nThe following packages have been upgraded to a newer upstream version: subscription-manager (1.17.15), python-rhsm (1.17.9), subscription-manager-migration-data (2.0.31). (BZ#1328553, BZ#1328555, BZ#1328559)\nSecurity Fix(es):\n* It was found that subscription-manager set weak permissions on files in /var/lib/rhsm/, causing an information disclosure. A local, unprivileged user could use this flaw to access sensitive data that could potentially be used in a social engineering attack. (CVE-2016-4455)\nRed Hat would like to thank Robert Scheck for reporting this issue.\nAdditional Changes:\nFor detailed information on changes in this release, see the Red Hat Enterprise Linux 7.3 Release Notes linked from the References section.",
  "Platform": [
    "Red Hat Enterprise Linux 7"
  ],
  "References": [
    {
      "Source": "RHSA",
      "URI": "https://access.redhat.com/errata/RHSA-2016:2592",
      "ID": "RHSA-2016:2592"
    },
    {
      "Source": "CVE",
      "URI": "https://access.redhat.com/security/cve/CVE-2016-4455",
      "ID": "CVE-2016-4455"
    }
  ],
  "Criteria": {
    "Operator": "OR",
    "Criterias": [
      {
        "Operator": "AND",
        "Criterias": [
          {
            "Operator": "OR",
            "Criterias": [
              {
                "Operator": "AND",
                "Criterias": [

                ],
                "Criterions": [
                  {
                    "Comment": "subscription-manager-migration-data is earlier than 0:2.0.31-1.el7"
                  },
                  {
                    "Comment": "subscription-manager-migration-data is signed with Red Hat redhatrelease2 key"
                  }
                ]
              },
              {
                "Operator": "AND",
                "Criterias": [

                ],
                "Criterions": [
                  {
                    "Comment": "python-rhsm is earlier than 0:1.17.9-1.el7"
                  },
                  {
                    "Comment": "python-rhsm is signed with Red Hat redhatrelease2 key"
                  }
                ]
              },
              {
                "Operator": "AND",
                "Criterias": [

                ],
                "Criterions": [
                  {
                    "Comment": "python-rhsm-certificates is earlier than 0:1.17.9-1.el7"
                  },
                  {
                    "Comment": "python-rhsm-certificates is signed with Red Hat redhatrelease2 key"
                  }
                ]
              },
              {
                "Operator": "AND",
                "Criterias": [

                ],
                "Criterions": [
                  {
                    "Comment": "subscription-manager is earlier than 0:1.17.15-1.el7"
                  },
                  {
                    "Comment": "subscription-manager is signed with Red Hat redhatrelease2 key"
                  }
                ]
              },
              {
                "Operator": "AND",
                "Criterias": [

                ],
                "Criterions": [
                  {
                    "Comment": "subscription-manager-gui is earlier than 0:1.17.15-1.el7"
                  },
                  {
                    "Comment": "subscription-manager-gui is signed with Red Hat redhatrelease2 key"
                  }
                ]
              },
              {
                "Operator": "AND",
                "Criterias": [

                ],
                "Criterions": [
                  {
                    "Comment": "subscription-manager-initial-setup-addon is earlier than 0:1.17.15-1.el7"
                  },
                  {
                    "Comment": "subscription-manager-initial-setup-addon is signed with Red Hat redhatrelease2 key"
                  }
                ]
              },
              {
                "Operator": "AND",
                "Criterias": [

                ],
                "Criterions": [
                  {
                    "Comment": "subscription-manager-migration is earlier than 0:1.17.15-1.el7"
                  },
                  {
                    "Comment": "subscription-manager-migration is signed with Red Hat redhatrelease2 key"
                  }
                ]
              },
              {
                "Operator": "AND",
                "Criterias": [

                ],
                "Criterions": [
                  {
                    "Comment": "subscription-manager-plugin-container is earlier than 0:1.17.15-1.el7"
                  },
                  {
                    "Comment": "subscription-manager-plugin-container is signed with Red Hat redhatrelease2 key"
                  }
                ]
              },
              {
                "Operator": "AND",
                "Criterias": [

                ],
                "Criterions": [
                  {
                    "Comment": "subscription-manager-plugin-ostree is earlier than 0:1.17.15-1.el7"
                  },
                  {
                    "Comment": "subscription-manager-plugin-ostree is signed with Red Hat redhatrelease2 key"
                  }
                ]
              }
            ],
            "Criterions": [

            ]
          }
        ],
        "Criterions": [
          {
            "Comment": "Oracle Linux 7 is installed"
          }
        ]
      }
    ],
    "Criterions": [
      {
        "Comment": "Oracle Linux 7 is installed"
      }
    ]
  },
  "Severity": "Moderate",
  "Cves": [
    {
      "Impact": "",
      "Href": "",
      "ID": "CVE-2016-4455"
    }
  ],
  "Issued": {
    "Date": "2016-11-03"
  }
}