{
  "Title": "RHSA-2016:0676: java-1.7.0-openjdk security update (Critical)",
  "Description": "The java-1.7.0-openjdk packages provide the OpenJDK 7 Java Runtime Environment and the OpenJDK 7 Java Software Development Kit.\nSecurity Fix(es):\n* Multiple flaws were discovered in the Serialization and Hotspot components in OpenJDK. An untrusted Java application or applet could use these flaws to completely bypass Java sandbox restrictions. (CVE-2016-0686, CVE-2016-0687)\n* It was discovered that the RMI server implementation in the JMX component in OpenJDK did not restrict which classes can be deserialized when deserializing authentication credentials. A remote, unauthenticated attacker able to connect to a JMX port could possibly use this flaw to trigger deserialization flaws. (CVE-2016-3427)\n* It was discovered that the JAXP component in OpenJDK failed to properly handle Unicode surrogate pairs used as part of the XML attribute values. Specially crafted XML input could cause a Java application to use an excessive amount of memory when parsed. (CVE-2016-3425)\n* It was discovered that the Security component in OpenJDK failed to check the digest algorithm strength when generating DSA signatures. The use of a digest weaker than the key strength could lead to the generation of signatures that were weaker than expected. (CVE-2016-0695)",
  "Platform": [
    "Red Hat Enterprise Linux 5",
    "Red Hat Enterprise Linux 7"
  ],
  "References": [
    {
      "Source": "RHSA",
      "URI": "https://access.redhat.com/errata/RHSA-2016:0676",
      "ID": "RHSA-2016:0676"
    },
    {
      "Source": "CVE",
      "URI": "https://access.redhat.com/security/cve/CVE-2016-0686",
      "ID": "CVE-2016-0686"
    },
    {
      "Source": "CVE",
      "URI": "https://access.redhat.com/security/cve/CVE-2016-0687",
      "ID": "CVE-2016-0687"
    },
    {
      "Source": "CVE",
      "URI": "https://access.redhat.com/security/cve/CVE-2016-0695",
      "ID": "CVE-2016-0695"
    },
    {
      "Source": "CVE",
      "URI": "https://access.redhat.com/security/cve/CVE-2016-3425",
      "ID": "CVE-2016-3425"
    },
    {
      "Source": "CVE",
      "URI": "https://access.redhat.com/security/cve/CVE-2016-3427",
      "ID": "CVE-2016-3427"
    }
  ],
  "Criteria": {
    "Operator": "OR",
    "Criterias": [
      {
        "Operator": "AND",
        "Criterias": [
          {
            "Operator": "OR",
            "Criterias": [
              {
                "Operator": "AND",
                "Criterias": [

                ],
                "Criterions": [
                  {
                    "Comment": "java-1.7.0-openjdk is earlier than 1:1.7.0.101-2.6.6.1.el5_11"
                  },
                  {
                    "Comment": "java-1.7.0-openjdk is signed with Red Hat redhatrelease2 key"
                  }
                ]
              },
              {
                "Operator": "AND",
                "Criterias": [

                ],
                "Criterions": [
                  {
                    "Comment": "java-1.7.0-openjdk-demo is earlier than 1:1.7.0.101-2.6.6.1.el5_11"
                  },
                  {
                    "Comment": "java-1.7.0-openjdk-demo is signed with Red Hat redhatrelease2 key"
                  }
                ]
              },
              {
                "Operator": "AND",
                "Criterias": [

                ],
                "Criterions": [
                  {
                    "Comment": "java-1.7.0-openjdk-devel is earlier than 1:1.7.0.101-2.6.6.1.el5_11"
                  },
                  {
                    "Comment": "java-1.7.0-openjdk-devel is signed with Red Hat redhatrelease2 key"
                  }
                ]
              },
              {
                "Operator": "AND",
                "Criterias": [

                ],
                "Criterions": [
                  {
                    "Comment": "java-1.7.0-openjdk-javadoc is earlier than 1:1.7.0.101-2.6.6.1.el5_11"
                  },
                  {
                    "Comment": "java-1.7.0-openjdk-javadoc is signed with Red Hat redhatrelease2 key"
                  }
                ]
              },
              {
                "Operator": "AND",
                "Criterias": [

                ],
                "Criterions": [
                  {
                    "Comment": "java-1.7.0-openjdk-src is earlier than 1:1.7.0.101-2.6.6.1.el5_11"
                  },
                  {
                    "Comment": "java-1.7.0-openjdk-src is signed with Red Hat redhatrelease2 key"
                  }
                ]
              }
            ],
            "Criterions": [

            ]
          }
        ],
        "Criterions": [
          {
            "Comment": "Oracle Linux 5 is installed"
          }
        ]
      },
      {
        "Operator": "AND",
        "Criterias": [
          {
            "Operator": "OR",
            "Criterias": [
              {
                "Operator": "AND",
                "Criterias": [

                ],
                "Criterions": [
                  {
                    "Comment": "java-1.7.0-openjdk is earlier than 1:1.7.0.101-2.6.6.1.el7_2"
                  },
                  {
                    "Comment": "java-1.7.0-openjdk is signed with Red Hat redhatrelease2 key"
                  }
                ]
              },
              {
                "Operator": "AND",
                "Criterias": [

                ],
                "Criterions": [
                  {
                    "Comment": "java-1.7.0-openjdk-accessibility is earlier than 1:1.7.0.101-2.6.6.1.el7_2"
                  },
                  {
                    "Comment": "java-1.7.0-openjdk-accessibility is signed with Red Hat redhatrelease2 key"
                  }
                ]
              },
              {
                "Operator": "AND",
                "Criterias": [

                ],
                "Criterions": [
                  {
                    "Comment": "java-1.7.0-openjdk-demo is earlier than 1:1.7.0.101-2.6.6.1.el7_2"
                  },
                  {
                    "Comment": "java-1.7.0-openjdk-demo is signed with Red Hat redhatrelease2 key"
                  }
                ]
              },
              {
                "Operator": "AND",
                "Criterias": [

                ],
                "Criterions": [
                  {
                    "Comment": "java-1.7.0-openjdk-devel is earlier than 1:1.7.0.101-2.6.6.1.el7_2"
                  },
                  {
                    "Comment": "java-1.7.0-openjdk-devel is signed with Red Hat redhatrelease2 key"
                  }
                ]
              },
              {
                "Operator": "AND",
                "Criterias": [

                ],
                "Criterions": [
                  {
                    "Comment": "java-1.7.0-openjdk-headless is earlier than 1:1.7.0.101-2.6.6.1.el7_2"
                  },
                  {
                    "Comment": "java-1.7.0-openjdk-headless is signed with Red Hat redhatrelease2 key"
                  }
                ]
              },
              {
                "Operator": "AND",
                "Criterias": [

                ],
                "Criterions": [
                  {
                    "Comment": "java-1.7.0-openjdk-javadoc is earlier than 1:1.7.0.101-2.6.6.1.el7_2"
                  },
                  {
                    "Comment": "java-1.7.0-openjdk-javadoc is signed with Red Hat redhatrelease2 key"
                  }
                ]
              },
              {
                "Operator": "AND",
                "Criterias": [

                ],
                "Criterions": [
                  {
                    "Comment": "java-1.7.0-openjdk-src is earlier than 1:1.7.0.101-2.6.6.1.el7_2"
                  },
                  {
                    "Comment": "java-1.7.0-openjdk-src is signed with Red Hat redhatrelease2 key"
                  }
                ]
              }
            ],
            "Criterions": [

            ]
          }
        ],
        "Criterions": [
          {
            "Comment": "Oracle Linux 7 is installed"
          }
        ]
      }
    ],
    "Criterions": [
      {
        "Comment": "Oracle Linux 5 is installed"
      }
    ]
  },
  "Severity": "Critical",
  "Cves": [
    {
      "Impact": "",
      "Href": "",
      "ID": "CVE-2016-0686"
    },
    {
      "Impact": "",
      "Href": "",
      "ID": "CVE-2016-0687"
    },
    {
      "Impact": "",
      "Href": "",
      "ID": "CVE-2016-0695"
    },
    {
      "Impact": "",
      "Href": "",
      "ID": "CVE-2016-3425"
    },
    {
      "Impact": "",
      "Href": "",
      "ID": "CVE-2016-3427"
    }
  ],
  "Issued": {
    "Date": "2016-04-21"
  }
}