{
  "Title": "RHSA-2016:2946: firefox security update (Critical)",
  "Description": "Mozilla Firefox is an open source web browser.\nThis update upgrades Firefox to version 45.6.0 ESR.\nSecurity Fix(es):\n* Multiple flaws were found in the processing of malformed web content. A web page containing malicious content could cause Firefox to crash or, potentially, execute arbitrary code with the privileges of the user running Firefox. (CVE-2016-9893, CVE-2016-9899, CVE-2016-9895, CVE-2016-9897, CVE-2016-9898, CVE-2016-9900, CVE-2016-9901, CVE-2016-9902, CVE-2016-9904, CVE-2016-9905)\nRed Hat would like to thank the Mozilla project for reporting these issues. Upstream acknowledges Philipp, Wladimir Palant, Nils, Jann Horn, Aral, Andrew Krasichkov, insertscript, Jan de Mooij, Iris Hsiao, Christian Holler, Carsten Book, Timothy Nikkel, Christoph Diehl, Olli Pettay, Raymond Forbes, and Boris Zbarsky as the original reporters.",
  "Platform": [
    "Red Hat Enterprise Linux 5",
    "Red Hat Enterprise Linux 6",
    "Red Hat Enterprise Linux 7"
  ],
  "References": [
    {
      "Source": "RHSA",
      "URI": "https://access.redhat.com/errata/RHSA-2016:2946",
      "ID": "RHSA-2016:2946"
    },
    {
      "Source": "CVE",
      "URI": "https://access.redhat.com/security/cve/CVE-2016-9893",
      "ID": "CVE-2016-9893"
    },
    {
      "Source": "CVE",
      "URI": "https://access.redhat.com/security/cve/CVE-2016-9895",
      "ID": "CVE-2016-9895"
    },
    {
      "Source": "CVE",
      "URI": "https://access.redhat.com/security/cve/CVE-2016-9897",
      "ID": "CVE-2016-9897"
    },
    {
      "Source": "CVE",
      "URI": "https://access.redhat.com/security/cve/CVE-2016-9898",
      "ID": "CVE-2016-9898"
    },
    {
      "Source": "CVE",
      "URI": "https://access.redhat.com/security/cve/CVE-2016-9899",
      "ID": "CVE-2016-9899"
    },
    {
      "Source": "CVE",
      "URI": "https://access.redhat.com/security/cve/CVE-2016-9900",
      "ID": "CVE-2016-9900"
    },
    {
      "Source": "CVE",
      "URI": "https://access.redhat.com/security/cve/CVE-2016-9901",
      "ID": "CVE-2016-9901"
    },
    {
      "Source": "CVE",
      "URI": "https://access.redhat.com/security/cve/CVE-2016-9902",
      "ID": "CVE-2016-9902"
    },
    {
      "Source": "CVE",
      "URI": "https://access.redhat.com/security/cve/CVE-2016-9904",
      "ID": "CVE-2016-9904"
    },
    {
      "Source": "CVE",
      "URI": "https://access.redhat.com/security/cve/CVE-2016-9905",
      "ID": "CVE-2016-9905"
    }
  ],
  "Criteria": {
    "Operator": "OR",
    "Criterias": [
      {
        "Operator": "AND",
        "Criterias": [

        ],
        "Criterions": [
          {
            "Comment": "Oracle Linux 5 is installed"
          },
          {
            "Comment": "firefox is earlier than 0:45.6.0-1.el5_11"
          },
          {
            "Comment": "firefox is signed with Red Hat redhatrelease2 key"
          }
        ]
      },
      {
        "Operator": "AND",
        "Criterias": [

        ],
        "Criterions": [
          {
            "Comment": "Oracle Linux 6 is installed"
          },
          {
            "Comment": "firefox is earlier than 0:45.6.0-1.el6_8"
          },
          {
            "Comment": "firefox is signed with Red Hat redhatrelease2 key"
          }
        ]
      },
      {
        "Operator": "AND",
        "Criterias": [

        ],
        "Criterions": [
          {
            "Comment": "Oracle Linux 7 is installed"
          },
          {
            "Comment": "firefox is earlier than 0:45.6.0-1.el7_3"
          },
          {
            "Comment": "firefox is signed with Red Hat redhatrelease2 key"
          }
        ]
      }
    ],
    "Criterions": [
      {
        "Comment": "Oracle Linux 5 is installed"
      }
    ]
  },
  "Severity": "Critical",
  "Cves": [
    {
      "Impact": "",
      "Href": "",
      "ID": "CVE-2016-9893"
    },
    {
      "Impact": "",
      "Href": "",
      "ID": "CVE-2016-9895"
    },
    {
      "Impact": "",
      "Href": "",
      "ID": "CVE-2016-9897"
    },
    {
      "Impact": "",
      "Href": "",
      "ID": "CVE-2016-9898"
    },
    {
      "Impact": "",
      "Href": "",
      "ID": "CVE-2016-9899"
    },
    {
      "Impact": "",
      "Href": "",
      "ID": "CVE-2016-9900"
    },
    {
      "Impact": "",
      "Href": "",
      "ID": "CVE-2016-9901"
    },
    {
      "Impact": "",
      "Href": "",
      "ID": "CVE-2016-9902"
    },
    {
      "Impact": "",
      "Href": "",
      "ID": "CVE-2016-9904"
    },
    {
      "Impact": "",
      "Href": "",
      "ID": "CVE-2016-9905"
    }
  ],
  "Issued": {
    "Date": "2016-12-14"
  }
}