{
  "Title": "RHSA-2016:2591: krb5 security, bug fix, and enhancement update (Low)",
  "Description": "Kerberos is a network authentication system, which can improve the security of your network by eliminating the insecure practice of sending passwords over the network in unencrypted form. It allows clients and servers to authenticate to each other with the help of a trusted third party, the Kerberos key distribution center (KDC).\nThe following packages have been upgraded to a newer upstream version: krb5 (1.14.1). (BZ#1292153)\nSecurity Fix(es):\n* A NULL pointer dereference flaw was found in MIT Kerberos kadmind service. An authenticated attacker with permission to modify a principal entry could use this flaw to cause kadmind to dereference a null pointer and crash by supplying an empty DB argument to the modify_principal command, if kadmind was configured to use the LDAP KDB module. (CVE-2016-3119)\n* A NULL pointer dereference flaw was found in MIT Kerberos krb5kdc service. An authenticated attacker could use this flaw to cause krb5kdc to dereference a null pointer and crash by making an S4U2Self request, if the restrict_anonymous_to_tgt option was set to true. (CVE-2016-3120)\nAdditional Changes:\nFor detailed information on changes in this release, see the Red Hat Enterprise Linux 7.3 Release Notes linked from the References section.",
  "Platform": [
    "Red Hat Enterprise Linux 7"
  ],
  "References": [
    {
      "Source": "RHSA",
      "URI": "https://access.redhat.com/errata/RHSA-2016:2591",
      "ID": "RHSA-2016:2591"
    },
    {
      "Source": "CVE",
      "URI": "https://access.redhat.com/security/cve/CVE-2016-3119",
      "ID": "CVE-2016-3119"
    },
    {
      "Source": "CVE",
      "URI": "https://access.redhat.com/security/cve/CVE-2016-3120",
      "ID": "CVE-2016-3120"
    }
  ],
  "Criteria": {
    "Operator": "OR",
    "Criterias": [
      {
        "Operator": "AND",
        "Criterias": [
          {
            "Operator": "OR",
            "Criterias": [
              {
                "Operator": "AND",
                "Criterias": [

                ],
                "Criterions": [
                  {
                    "Comment": "krb5-devel is earlier than 0:1.14.1-26.el7"
                  },
                  {
                    "Comment": "krb5-devel is signed with Red Hat redhatrelease2 key"
                  }
                ]
              },
              {
                "Operator": "AND",
                "Criterias": [

                ],
                "Criterions": [
                  {
                    "Comment": "krb5-libs is earlier than 0:1.14.1-26.el7"
                  },
                  {
                    "Comment": "krb5-libs is signed with Red Hat redhatrelease2 key"
                  }
                ]
              },
              {
                "Operator": "AND",
                "Criterias": [

                ],
                "Criterions": [
                  {
                    "Comment": "krb5-pkinit is earlier than 0:1.14.1-26.el7"
                  },
                  {
                    "Comment": "krb5-pkinit is signed with Red Hat redhatrelease2 key"
                  }
                ]
              },
              {
                "Operator": "AND",
                "Criterias": [

                ],
                "Criterions": [
                  {
                    "Comment": "krb5-server is earlier than 0:1.14.1-26.el7"
                  },
                  {
                    "Comment": "krb5-server is signed with Red Hat redhatrelease2 key"
                  }
                ]
              },
              {
                "Operator": "AND",
                "Criterias": [

                ],
                "Criterions": [
                  {
                    "Comment": "krb5-server-ldap is earlier than 0:1.14.1-26.el7"
                  },
                  {
                    "Comment": "krb5-server-ldap is signed with Red Hat redhatrelease2 key"
                  }
                ]
              },
              {
                "Operator": "AND",
                "Criterias": [

                ],
                "Criterions": [
                  {
                    "Comment": "krb5-workstation is earlier than 0:1.14.1-26.el7"
                  },
                  {
                    "Comment": "krb5-workstation is signed with Red Hat redhatrelease2 key"
                  }
                ]
              },
              {
                "Operator": "AND",
                "Criterias": [

                ],
                "Criterions": [
                  {
                    "Comment": "libkadm5 is earlier than 0:1.14.1-26.el7"
                  },
                  {
                    "Comment": "libkadm5 is signed with Red Hat redhatrelease2 key"
                  }
                ]
              }
            ],
            "Criterions": [

            ]
          }
        ],
        "Criterions": [
          {
            "Comment": "Oracle Linux 7 is installed"
          }
        ]
      }
    ],
    "Criterions": [
      {
        "Comment": "Oracle Linux 7 is installed"
      }
    ]
  },
  "Severity": "Low",
  "Cves": [
    {
      "Impact": "",
      "Href": "",
      "ID": "CVE-2016-3119"
    },
    {
      "Impact": "",
      "Href": "",
      "ID": "CVE-2016-3120"
    }
  ],
  "Issued": {
    "Date": "2016-11-03"
  }
}