{
  "Title": "RHSA-2016:2593: sudo security, bug fix, and enhancement update (Low)",
  "Description": "The sudo packages contain the sudo utility which allows system administrators to provide certain users with the permission to execute privileged commands, which are used for system management purposes, without having to log in as root.\nSecurity Fix(es):\n* It was discovered that the default sudo configuration preserved the value of INPUTRC from the user's environment, which could lead to information disclosure. A local user with sudo access to a restricted program that uses readline could use this flaw to read content from specially formatted files with elevated privileges provided by sudo. (CVE-2016-7091)\nNote: With this update, INPUTRC was removed from the env_keep list in /etc/sudoers to avoid having sudo preserve the value of this variable when invoking privileged commands.\nRed Hat would like to thank Grisha Levit for reporting this issue.\nAdditional Changes:\nFor detailed information on changes in this release, see the Red Hat Enterprise Linux 7.3 Release Notes linked from the References section.",
  "Platform": [
    "Red Hat Enterprise Linux 7"
  ],
  "References": [
    {
      "Source": "RHSA",
      "URI": "https://access.redhat.com/errata/RHSA-2016:2593",
      "ID": "RHSA-2016:2593"
    },
    {
      "Source": "CVE",
      "URI": "https://access.redhat.com/security/cve/CVE-2016-7091",
      "ID": "CVE-2016-7091"
    }
  ],
  "Criteria": {
    "Operator": "OR",
    "Criterias": [
      {
        "Operator": "AND",
        "Criterias": [
          {
            "Operator": "OR",
            "Criterias": [
              {
                "Operator": "AND",
                "Criterias": [

                ],
                "Criterions": [
                  {
                    "Comment": "sudo is earlier than 0:1.8.6p7-20.el7"
                  },
                  {
                    "Comment": "sudo is signed with Red Hat redhatrelease2 key"
                  }
                ]
              },
              {
                "Operator": "AND",
                "Criterias": [

                ],
                "Criterions": [
                  {
                    "Comment": "sudo-devel is earlier than 0:1.8.6p7-20.el7"
                  },
                  {
                    "Comment": "sudo-devel is signed with Red Hat redhatrelease2 key"
                  }
                ]
              }
            ],
            "Criterions": [

            ]
          }
        ],
        "Criterions": [
          {
            "Comment": "Oracle Linux 7 is installed"
          }
        ]
      }
    ],
    "Criterions": [
      {
        "Comment": "Oracle Linux 7 is installed"
      }
    ]
  },
  "Severity": "Low",
  "Cves": [
    {
      "Impact": "",
      "Href": "",
      "ID": "CVE-2016-7091"
    }
  ],
  "Issued": {
    "Date": "2016-11-03"
  }
}