{
  "Title": "RHSA-2016:2601: fontconfig security and bug fix update (Moderate)",
  "Description": "Fontconfig is designed to locate fonts within the system and select them according to requirements specified by applications.\nSecurity Fix(es):\n* It was found that cache files were insufficiently validated in fontconfig. A local attacker could create a specially crafted cache file to trigger arbitrary free() calls, which in turn could lead to arbitrary code execution. (CVE-2016-5384)\nRed Hat would like to thank Tobias Stoeckmann for reporting this issue.\nAdditional Changes:\nFor detailed information on changes in this release, see the Red Hat Enterprise Linux 7.3 Release Notes linked from the References section.",
  "Platform": [
    "Red Hat Enterprise Linux 7"
  ],
  "References": [
    {
      "Source": "RHSA",
      "URI": "https://access.redhat.com/errata/RHSA-2016:2601",
      "ID": "RHSA-2016:2601"
    },
    {
      "Source": "CVE",
      "URI": "https://access.redhat.com/security/cve/CVE-2016-5384",
      "ID": "CVE-2016-5384"
    }
  ],
  "Criteria": {
    "Operator": "OR",
    "Criterias": [
      {
        "Operator": "AND",
        "Criterias": [
          {
            "Operator": "OR",
            "Criterias": [
              {
                "Operator": "AND",
                "Criterias": [

                ],
                "Criterions": [
                  {
                    "Comment": "fontconfig is earlier than 0:2.10.95-10.el7"
                  },
                  {
                    "Comment": "fontconfig is signed with Red Hat redhatrelease2 key"
                  }
                ]
              },
              {
                "Operator": "AND",
                "Criterias": [

                ],
                "Criterions": [
                  {
                    "Comment": "fontconfig-devel is earlier than 0:2.10.95-10.el7"
                  },
                  {
                    "Comment": "fontconfig-devel is signed with Red Hat redhatrelease2 key"
                  }
                ]
              },
              {
                "Operator": "AND",
                "Criterias": [

                ],
                "Criterions": [
                  {
                    "Comment": "fontconfig-devel-doc is earlier than 0:2.10.95-10.el7"
                  },
                  {
                    "Comment": "fontconfig-devel-doc is signed with Red Hat redhatrelease2 key"
                  }
                ]
              }
            ],
            "Criterions": [

            ]
          }
        ],
        "Criterions": [
          {
            "Comment": "Oracle Linux 7 is installed"
          }
        ]
      }
    ],
    "Criterions": [
      {
        "Comment": "Oracle Linux 7 is installed"
      }
    ]
  },
  "Severity": "Moderate",
  "Cves": [
    {
      "Impact": "",
      "Href": "",
      "ID": "CVE-2016-5384"
    }
  ],
  "Issued": {
    "Date": "2016-11-03"
  }
}