{
  "Title": "RHSA-2016:2602: mod_nss security, bug fix, and enhancement update (Low)",
  "Description": "The mod_nss module provides strong cryptography for the Apache HTTP Server via the Secure Sockets Layer (SSL) and Transport Layer Security (TLS) protocols, using the Network Security Services (NSS) security library.\nThe following packages have been upgraded to a newer upstream version: mod_nss (1.0.14). (BZ#1299063)\nSecurity Fix(es):\n* A flaw was found in the way mod_nss parsed certain OpenSSL-style cipher strings. As a result, mod_nss could potentially use ciphers that were not intended to be enabled. (CVE-2016-3099)\nThis issue was discovered by Rob Crittenden (Red Hat).\nAdditional Changes:\nFor detailed information on changes in this release, see the Red Hat Enterprise Linux 7.3 Release Notes linked from the References section.",
  "Platform": [
    "Red Hat Enterprise Linux 7"
  ],
  "References": [
    {
      "Source": "RHSA",
      "URI": "https://access.redhat.com/errata/RHSA-2016:2602",
      "ID": "RHSA-2016:2602"
    },
    {
      "Source": "CVE",
      "URI": "https://access.redhat.com/security/cve/CVE-2016-3099",
      "ID": "CVE-2016-3099"
    }
  ],
  "Criteria": {
    "Operator": "OR",
    "Criterias": [
      {
        "Operator": "AND",
        "Criterias": [

        ],
        "Criterions": [
          {
            "Comment": "Oracle Linux 7 is installed"
          },
          {
            "Comment": "mod_nss is earlier than 0:1.0.14-7.el7"
          },
          {
            "Comment": "mod_nss is signed with Red Hat redhatrelease2 key"
          }
        ]
      }
    ],
    "Criterions": [
      {
        "Comment": "Oracle Linux 7 is installed"
      }
    ]
  },
  "Severity": "Low",
  "Cves": [
    {
      "Impact": "",
      "Href": "",
      "ID": "CVE-2016-3099"
    }
  ],
  "Issued": {
    "Date": "2016-11-03"
  }
}