{
  "Title": "RHSA-2016:0525: chromium-browser security update (Important)",
  "Description": "Chromium is an open-source web browser, powered by WebKit (Blink).\nThis update upgrades Chromium to version 49.0.2623.108.\nSecurity Fix(es):\nSeveral flaws were found in the processing of malformed web content. A web page containing malicious content could cause Chromium to crash, execute arbitrary code, or disclose sensitive information when visited by the victim. (CVE-2016-1646, CVE-2016-1647, CVE-2016-1648, CVE-2016-1649, CVE-2016-1650)",
  "Platform": [
    "Red Hat Enterprise Linux 6 Supplementary"
  ],
  "References": [
    {
      "Source": "RHSA",
      "URI": "https://rhn.redhat.com/errata/RHSA-2016-0525.html",
      "ID": "RHSA-2016:0525-01"
    },
    {
      "Source": "CVE",
      "URI": "https://access.redhat.com/security/cve/CVE-2016-1646",
      "ID": "CVE-2016-1646"
    },
    {
      "Source": "CVE",
      "URI": "https://access.redhat.com/security/cve/CVE-2016-1647",
      "ID": "CVE-2016-1647"
    },
    {
      "Source": "CVE",
      "URI": "https://access.redhat.com/security/cve/CVE-2016-1648",
      "ID": "CVE-2016-1648"
    },
    {
      "Source": "CVE",
      "URI": "https://access.redhat.com/security/cve/CVE-2016-1649",
      "ID": "CVE-2016-1649"
    },
    {
      "Source": "CVE",
      "URI": "https://access.redhat.com/security/cve/CVE-2016-1650",
      "ID": "CVE-2016-1650"
    },
    {
      "Source": "CVE",
      "URI": "https://access.redhat.com/security/cve/CVE-2016-3679",
      "ID": "CVE-2016-3679"
    }
  ],
  "Criteria": {
    "Operator": "AND",
    "Criterias": [
      {
        "Operator": "OR",
        "Criterias": [

        ],
        "Criterions": [
          {
            "Comment": "Oracle Linux 6 Client is installed"
          },
          {
            "Comment": "Oracle Linux 6 Server is installed"
          },
          {
            "Comment": "Oracle Linux 6 Workstation is installed"
          },
          {
            "Comment": "Oracle Linux 6 ComputeNode is installed"
          }
        ]
      }
    ],
    "Criterions": [
      {
        "Comment": "chromium-browser is earlier than 0:49.0.2623.108-1.el6"
      },
      {
        "Comment": "chromium-browser is signed with Red Hat redhatrelease2 key"
      }
    ]
  },
  "Severity": "Important",
  "Cves": [
    {
      "Impact": "",
      "Href": "",
      "ID": "CVE-2016-1646"
    },
    {
      "Impact": "",
      "Href": "",
      "ID": "CVE-2016-1647"
    },
    {
      "Impact": "",
      "Href": "",
      "ID": "CVE-2016-1648"
    },
    {
      "Impact": "",
      "Href": "",
      "ID": "CVE-2016-1649"
    },
    {
      "Impact": "",
      "Href": "",
      "ID": "CVE-2016-1650"
    },
    {
      "Impact": "",
      "Href": "",
      "ID": "CVE-2016-3679"
    }
  ],
  "Issued": {
    "Date": "2016-03-30"
  }
}