{
  "Title": "RHSA-2016:2110: kernel-rt security update (Important)",
  "Description": "The kernel-rt packages provide the Real Time Linux Kernel, which enables fine-tuning for systems with extremely high determinism requirements.\nSecurity Fix(es):\n* A race condition was found in the way the Linux kernel's memory subsystem handled the copy-on-write (COW) breakage of private read-only memory mappings. An unprivileged, local user could use this flaw to gain write access to otherwise read-only memory mappings and thus increase their privileges on the system. (CVE-2016-5195, Important)\n* Linux kernel built with the 802.1Q/802.1ad VLAN(CONFIG_VLAN_8021Q) OR Virtual eXtensible Local Area Network(CONFIG_VXLAN) with Transparent Ethernet Bridging(TEB) GRO support, is vulnerable to a stack overflow issue. It could occur while receiving large packets via GRO path; As an unlimited recursion could unfold in both VLAN and TEB modules, leading to a stack corruption in the kernel. (CVE-2016-7039, Important)\nRed Hat would like to thank Phil Oester for reporting CVE-2016-5195.",
  "Platform": [
    "Red Hat Enterprise Linux 7"
  ],
  "References": [
    {
      "Source": "RHSA",
      "URI": "https://access.redhat.com/errata/RHSA-2016:2110",
      "ID": "RHSA-2016:2110"
    },
    {
      "Source": "CVE",
      "URI": "https://access.redhat.com/security/cve/CVE-2016-5195",
      "ID": "CVE-2016-5195"
    },
    {
      "Source": "CVE",
      "URI": "https://access.redhat.com/security/cve/CVE-2016-7039",
      "ID": "CVE-2016-7039"
    },
    {
      "Source": "CVE",
      "URI": "https://access.redhat.com/security/cve/CVE-2016-8666",
      "ID": "CVE-2016-8666"
    }
  ],
  "Criteria": {
    "Operator": "OR",
    "Criterias": [
      {
        "Operator": "AND",
        "Criterias": [
          {
            "Operator": "OR",
            "Criterias": [

            ],
            "Criterions": [
              {
                "Comment": "kernel-rt earlier than 0:3.10.0-327.36.3.rt56.238.el7 is currently running"
              },
              {
                "Comment": "kernel-rt earlier than 0:3.10.0-327.36.3.rt56.238.el7 is set to boot up on next boot"
              }
            ]
          },
          {
            "Operator": "OR",
            "Criterias": [
              {
                "Operator": "AND",
                "Criterias": [

                ],
                "Criterions": [
                  {
                    "Comment": "kernel-rt is earlier than 0:3.10.0-327.36.3.rt56.238.el7"
                  },
                  {
                    "Comment": "kernel-rt is signed with Red Hat redhatrelease2 key"
                  }
                ]
              },
              {
                "Operator": "AND",
                "Criterias": [

                ],
                "Criterions": [
                  {
                    "Comment": "kernel-rt-debug is earlier than 0:3.10.0-327.36.3.rt56.238.el7"
                  },
                  {
                    "Comment": "kernel-rt-debug is signed with Red Hat redhatrelease2 key"
                  }
                ]
              },
              {
                "Operator": "AND",
                "Criterias": [

                ],
                "Criterions": [
                  {
                    "Comment": "kernel-rt-debug-devel is earlier than 0:3.10.0-327.36.3.rt56.238.el7"
                  },
                  {
                    "Comment": "kernel-rt-debug-devel is signed with Red Hat redhatrelease2 key"
                  }
                ]
              },
              {
                "Operator": "AND",
                "Criterias": [

                ],
                "Criterions": [
                  {
                    "Comment": "kernel-rt-debug-kvm is earlier than 0:3.10.0-327.36.3.rt56.238.el7"
                  },
                  {
                    "Comment": "kernel-rt-debug-kvm is signed with Red Hat redhatrelease2 key"
                  }
                ]
              },
              {
                "Operator": "AND",
                "Criterias": [

                ],
                "Criterions": [
                  {
                    "Comment": "kernel-rt-devel is earlier than 0:3.10.0-327.36.3.rt56.238.el7"
                  },
                  {
                    "Comment": "kernel-rt-devel is signed with Red Hat redhatrelease2 key"
                  }
                ]
              },
              {
                "Operator": "AND",
                "Criterias": [

                ],
                "Criterions": [
                  {
                    "Comment": "kernel-rt-doc is earlier than 0:3.10.0-327.36.3.rt56.238.el7"
                  },
                  {
                    "Comment": "kernel-rt-doc is signed with Red Hat redhatrelease2 key"
                  }
                ]
              },
              {
                "Operator": "AND",
                "Criterias": [

                ],
                "Criterions": [
                  {
                    "Comment": "kernel-rt-kvm is earlier than 0:3.10.0-327.36.3.rt56.238.el7"
                  },
                  {
                    "Comment": "kernel-rt-kvm is signed with Red Hat redhatrelease2 key"
                  }
                ]
              },
              {
                "Operator": "AND",
                "Criterias": [

                ],
                "Criterions": [
                  {
                    "Comment": "kernel-rt-trace is earlier than 0:3.10.0-327.36.3.rt56.238.el7"
                  },
                  {
                    "Comment": "kernel-rt-trace is signed with Red Hat redhatrelease2 key"
                  }
                ]
              },
              {
                "Operator": "AND",
                "Criterias": [

                ],
                "Criterions": [
                  {
                    "Comment": "kernel-rt-trace-devel is earlier than 0:3.10.0-327.36.3.rt56.238.el7"
                  },
                  {
                    "Comment": "kernel-rt-trace-devel is signed with Red Hat redhatrelease2 key"
                  }
                ]
              },
              {
                "Operator": "AND",
                "Criterias": [

                ],
                "Criterions": [
                  {
                    "Comment": "kernel-rt-trace-kvm is earlier than 0:3.10.0-327.36.3.rt56.238.el7"
                  },
                  {
                    "Comment": "kernel-rt-trace-kvm is signed with Red Hat redhatrelease2 key"
                  }
                ]
              }
            ],
            "Criterions": [

            ]
          }
        ],
        "Criterions": [
          {
            "Comment": "Oracle Linux 7 is installed"
          }
        ]
      }
    ],
    "Criterions": [
      {
        "Comment": "Oracle Linux 7 is installed"
      }
    ]
  },
  "Severity": "Important",
  "Cves": [
    {
      "Impact": "",
      "Href": "",
      "ID": "CVE-2016-5195"
    },
    {
      "Impact": "",
      "Href": "",
      "ID": "CVE-2016-7039"
    },
    {
      "Impact": "",
      "Href": "",
      "ID": "CVE-2016-8666"
    }
  ],
  "Issued": {
    "Date": "2016-10-26"
  }
}