{
  "Title": "RHSA-2016:1422: httpd security and bug fix update (Important)",
  "Description": "The httpd packages provide the Apache HTTP Server, a powerful, efficient, and extensible web server.\nSecurity Fix(es):\n* It was discovered that httpd used the value of the Proxy header from HTTP requests to initialize the HTTP_PROXY environment variable for CGI scripts, which in turn was incorrectly used by certain HTTP client implementations to configure the proxy for outgoing HTTP requests. A remote attacker could possibly use this flaw to redirect HTTP requests performed by a CGI script to an attacker-controlled proxy via a malicious HTTP request. (CVE-2016-5387)\nNote: After this update, httpd will no longer pass the value of the Proxy request header to scripts via the HTTP_PROXY environment variable.\nRed Hat would like to thank Scott Geary (VendHQ) for reporting this issue.\nBug Fix(es):\n* In a caching proxy configuration, the mod_cache module would treat content as stale if the Expires header changed when refreshing a cached response. As a consequence, an origin server returning content without a fixed Expires header would not be treated as cacheable. The mod_cache module has been fixed to ignore changes in the Expires header when refreshing content. As a result, such content is now cacheable, improving performance and reducing load at the origin server. (BZ#1347648)\n* The HTTP status code 451 \"Unavailable For Legal Reasons\" was not usable in the httpd configuration. As a consequence, modules such as mod_rewrite could not be configured to return a 451 error if required for legal purposes. The 451 status code has been added to the list of available error codes, and modules can now be configured to return a 451 error if required. (BZ#1353269)",
  "Platform": [
    "Red Hat Enterprise Linux 7"
  ],
  "References": [
    {
      "Source": "RHSA",
      "URI": "https://access.redhat.com/errata/RHSA-2016:1422",
      "ID": "RHSA-2016:1422"
    },
    {
      "Source": "CVE",
      "URI": "https://access.redhat.com/security/cve/CVE-2016-5387",
      "ID": "CVE-2016-5387"
    }
  ],
  "Criteria": {
    "Operator": "OR",
    "Criterias": [
      {
        "Operator": "AND",
        "Criterias": [
          {
            "Operator": "OR",
            "Criterias": [
              {
                "Operator": "AND",
                "Criterias": [

                ],
                "Criterions": [
                  {
                    "Comment": "httpd is earlier than 0:2.4.6-40.el7_2.4"
                  },
                  {
                    "Comment": "httpd is signed with Red Hat redhatrelease2 key"
                  }
                ]
              },
              {
                "Operator": "AND",
                "Criterias": [

                ],
                "Criterions": [
                  {
                    "Comment": "httpd-devel is earlier than 0:2.4.6-40.el7_2.4"
                  },
                  {
                    "Comment": "httpd-devel is signed with Red Hat redhatrelease2 key"
                  }
                ]
              },
              {
                "Operator": "AND",
                "Criterias": [

                ],
                "Criterions": [
                  {
                    "Comment": "httpd-manual is earlier than 0:2.4.6-40.el7_2.4"
                  },
                  {
                    "Comment": "httpd-manual is signed with Red Hat redhatrelease2 key"
                  }
                ]
              },
              {
                "Operator": "AND",
                "Criterias": [

                ],
                "Criterions": [
                  {
                    "Comment": "httpd-tools is earlier than 0:2.4.6-40.el7_2.4"
                  },
                  {
                    "Comment": "httpd-tools is signed with Red Hat redhatrelease2 key"
                  }
                ]
              },
              {
                "Operator": "AND",
                "Criterias": [

                ],
                "Criterions": [
                  {
                    "Comment": "mod_ldap is earlier than 0:2.4.6-40.el7_2.4"
                  },
                  {
                    "Comment": "mod_ldap is signed with Red Hat redhatrelease2 key"
                  }
                ]
              },
              {
                "Operator": "AND",
                "Criterias": [

                ],
                "Criterions": [
                  {
                    "Comment": "mod_proxy_html is earlier than 1:2.4.6-40.el7_2.4"
                  },
                  {
                    "Comment": "mod_proxy_html is signed with Red Hat redhatrelease2 key"
                  }
                ]
              },
              {
                "Operator": "AND",
                "Criterias": [

                ],
                "Criterions": [
                  {
                    "Comment": "mod_session is earlier than 0:2.4.6-40.el7_2.4"
                  },
                  {
                    "Comment": "mod_session is signed with Red Hat redhatrelease2 key"
                  }
                ]
              },
              {
                "Operator": "AND",
                "Criterias": [

                ],
                "Criterions": [
                  {
                    "Comment": "mod_ssl is earlier than 1:2.4.6-40.el7_2.4"
                  },
                  {
                    "Comment": "mod_ssl is signed with Red Hat redhatrelease2 key"
                  }
                ]
              }
            ],
            "Criterions": [

            ]
          }
        ],
        "Criterions": [
          {
            "Comment": "Oracle Linux 7 is installed"
          }
        ]
      }
    ],
    "Criterions": [
      {
        "Comment": "Oracle Linux 7 is installed"
      }
    ]
  },
  "Severity": "Important",
  "Cves": [
    {
      "Impact": "",
      "Href": "",
      "ID": "CVE-2016-5387"
    }
  ],
  "Issued": {
    "Date": "2016-07-18"
  }
}