{
  "Title": "RHSA-2016:2578: pacemaker security, bug fix, and enhancement update (Moderate)",
  "Description": "The Pacemaker cluster resource manager is a collection of technologies working together to provide data integrity and the ability to maintain application availability in the event of a failure.\nThe following packages have been upgraded to a newer upstream version: pacemaker (1.1.15). (BZ#1304771)\nSecurity Fix(es):\n* It was found that the connection between a pacemaker cluster and a pacemaker_remote node could be shut down using a new unauthenticated connection. A remote attacker could use this flaw to cause a denial of service. (CVE-2016-7797)\nRed Hat would like to thank Alain Moulle (ATOS/BULL) for reporting this issue.\nAdditional Changes:\nFor detailed information on changes in this release, see the Red Hat Enterprise Linux 7.3 Release Notes linked from the References section.",
  "Platform": [
    "Red Hat Enterprise Linux 7"
  ],
  "References": [
    {
      "Source": "RHSA",
      "URI": "https://access.redhat.com/errata/RHSA-2016:2578",
      "ID": "RHSA-2016:2578"
    },
    {
      "Source": "CVE",
      "URI": "https://access.redhat.com/security/cve/CVE-2016-7797",
      "ID": "CVE-2016-7797"
    }
  ],
  "Criteria": {
    "Operator": "OR",
    "Criterias": [
      {
        "Operator": "AND",
        "Criterias": [
          {
            "Operator": "OR",
            "Criterias": [
              {
                "Operator": "AND",
                "Criterias": [

                ],
                "Criterions": [
                  {
                    "Comment": "pacemaker is earlier than 0:1.1.15-11.el7"
                  },
                  {
                    "Comment": "pacemaker is signed with Red Hat redhatrelease2 key"
                  }
                ]
              },
              {
                "Operator": "AND",
                "Criterias": [

                ],
                "Criterions": [
                  {
                    "Comment": "pacemaker-cli is earlier than 0:1.1.15-11.el7"
                  },
                  {
                    "Comment": "pacemaker-cli is signed with Red Hat redhatrelease2 key"
                  }
                ]
              },
              {
                "Operator": "AND",
                "Criterias": [

                ],
                "Criterions": [
                  {
                    "Comment": "pacemaker-cluster-libs is earlier than 0:1.1.15-11.el7"
                  },
                  {
                    "Comment": "pacemaker-cluster-libs is signed with Red Hat redhatrelease2 key"
                  }
                ]
              },
              {
                "Operator": "AND",
                "Criterias": [

                ],
                "Criterions": [
                  {
                    "Comment": "pacemaker-cts is earlier than 0:1.1.15-11.el7"
                  },
                  {
                    "Comment": "pacemaker-cts is signed with Red Hat redhatrelease2 key"
                  }
                ]
              },
              {
                "Operator": "AND",
                "Criterias": [

                ],
                "Criterions": [
                  {
                    "Comment": "pacemaker-doc is earlier than 0:1.1.15-11.el7"
                  },
                  {
                    "Comment": "pacemaker-doc is signed with Red Hat redhatrelease2 key"
                  }
                ]
              },
              {
                "Operator": "AND",
                "Criterias": [

                ],
                "Criterions": [
                  {
                    "Comment": "pacemaker-libs is earlier than 0:1.1.15-11.el7"
                  },
                  {
                    "Comment": "pacemaker-libs is signed with Red Hat redhatrelease2 key"
                  }
                ]
              },
              {
                "Operator": "AND",
                "Criterias": [

                ],
                "Criterions": [
                  {
                    "Comment": "pacemaker-libs-devel is earlier than 0:1.1.15-11.el7"
                  },
                  {
                    "Comment": "pacemaker-libs-devel is signed with Red Hat redhatrelease2 key"
                  }
                ]
              },
              {
                "Operator": "AND",
                "Criterias": [

                ],
                "Criterions": [
                  {
                    "Comment": "pacemaker-nagios-plugins-metadata is earlier than 0:1.1.15-11.el7"
                  },
                  {
                    "Comment": "pacemaker-nagios-plugins-metadata is signed with Red Hat redhatrelease2 key"
                  }
                ]
              },
              {
                "Operator": "AND",
                "Criterias": [

                ],
                "Criterions": [
                  {
                    "Comment": "pacemaker-remote is earlier than 0:1.1.15-11.el7"
                  },
                  {
                    "Comment": "pacemaker-remote is signed with Red Hat redhatrelease2 key"
                  }
                ]
              }
            ],
            "Criterions": [

            ]
          }
        ],
        "Criterions": [
          {
            "Comment": "Oracle Linux 7 is installed"
          }
        ]
      }
    ],
    "Criterions": [
      {
        "Comment": "Oracle Linux 7 is installed"
      }
    ]
  },
  "Severity": "Moderate",
  "Cves": [
    {
      "Impact": "",
      "Href": "",
      "ID": "CVE-2016-7797"
    }
  ],
  "Issued": {
    "Date": "2016-11-03"
  }
}