{
  "Title": "RHSA-2016:2974: gstreamer-plugins-bad-free security update (Important)",
  "Description": "GStreamer is a streaming media framework based on graphs of filters which operate on media data. The gstreamer-plugins-bad-free package contains a collection of plug-ins for GStreamer.\nSecurity Fix(es):\n* An integer overflow flaw, leading to a heap-based buffer overflow, was found in GStreamer's VMware VMnc video file format decoding plug-in. A remote attacker could use this flaw to cause an application using GStreamer to crash or, potentially, execute arbitrary code with the privileges of the user running the application. (CVE-2016-9445)\n* A memory corruption flaw was found in GStreamer's Nintendo NSF music file format decoding plug-in. A remote attacker could use this flaw to cause an application using GStreamer to crash or, potentially, execute arbitrary code with the privileges of the user running the application. (CVE-2016-9447)\nNote: This updates removes the vulnerable Nintendo NSF plug-in.",
  "Platform": [
    "Red Hat Enterprise Linux 6"
  ],
  "References": [
    {
      "Source": "RHSA",
      "URI": "https://access.redhat.com/errata/RHSA-2016:2974",
      "ID": "RHSA-2016:2974"
    },
    {
      "Source": "CVE",
      "URI": "https://access.redhat.com/security/cve/CVE-2016-9445",
      "ID": "CVE-2016-9445"
    },
    {
      "Source": "CVE",
      "URI": "https://access.redhat.com/security/cve/CVE-2016-9447",
      "ID": "CVE-2016-9447"
    }
  ],
  "Criteria": {
    "Operator": "OR",
    "Criterias": [
      {
        "Operator": "AND",
        "Criterias": [
          {
            "Operator": "OR",
            "Criterias": [
              {
                "Operator": "AND",
                "Criterias": [

                ],
                "Criterions": [
                  {
                    "Comment": "gstreamer-plugins-bad-free is earlier than 0:0.10.19-5.el6_8"
                  },
                  {
                    "Comment": "gstreamer-plugins-bad-free is signed with Red Hat redhatrelease2 key"
                  }
                ]
              },
              {
                "Operator": "AND",
                "Criterias": [

                ],
                "Criterions": [
                  {
                    "Comment": "gstreamer-plugins-bad-free-devel is earlier than 0:0.10.19-5.el6_8"
                  },
                  {
                    "Comment": "gstreamer-plugins-bad-free-devel is signed with Red Hat redhatrelease2 key"
                  }
                ]
              },
              {
                "Operator": "AND",
                "Criterias": [

                ],
                "Criterions": [
                  {
                    "Comment": "gstreamer-plugins-bad-free-devel-docs is earlier than 0:0.10.19-5.el6_8"
                  },
                  {
                    "Comment": "gstreamer-plugins-bad-free-devel-docs is signed with Red Hat redhatrelease2 key"
                  }
                ]
              },
              {
                "Operator": "AND",
                "Criterias": [

                ],
                "Criterions": [
                  {
                    "Comment": "gstreamer-plugins-bad-free-extras is earlier than 0:0.10.19-5.el6_8"
                  },
                  {
                    "Comment": "gstreamer-plugins-bad-free-extras is signed with Red Hat redhatrelease2 key"
                  }
                ]
              }
            ],
            "Criterions": [

            ]
          }
        ],
        "Criterions": [
          {
            "Comment": "Oracle Linux 6 is installed"
          }
        ]
      }
    ],
    "Criterions": [
      {
        "Comment": "Oracle Linux 6 is installed"
      }
    ]
  },
  "Severity": "Important",
  "Cves": [
    {
      "Impact": "",
      "Href": "",
      "ID": "CVE-2016-9445"
    },
    {
      "Impact": "",
      "Href": "",
      "ID": "CVE-2016-9447"
    }
  ],
  "Issued": {
    "Date": "2016-12-21"
  }
}