{
  "Title": "RHBA-2019:2261: webkitgtk4 bug fix update (Moderate)",
  "Description": "WebKitGTK+ is a full-featured port of the WebKit portable web rendering engine to the GTK+ platform. These packages provide WebKitGTK+ for GTK+ 3.\nFor detailed information on changes in this release, see the Red Hat Enterprise Linux 7.7 Release Notes linked from the References section.\nUsers of webkitgtk4 are advised to upgrade to these updated packages.",
  "Platform": [
    "Red Hat Enterprise Linux 7"
  ],
  "References": [
    {
      "Source": "RHSA",
      "URI": "https://access.redhat.com/errata/RHBA-2019:2261",
      "ID": "RHBA-2019:2261"
    },
    {
      "Source": "CVE",
      "URI": "https://access.redhat.com/security/cve/CVE-2019-7285",
      "ID": "CVE-2019-7285"
    },
    {
      "Source": "CVE",
      "URI": "https://access.redhat.com/security/cve/CVE-2019-7292",
      "ID": "CVE-2019-7292"
    },
    {
      "Source": "CVE",
      "URI": "https://access.redhat.com/security/cve/CVE-2019-8503",
      "ID": "CVE-2019-8503"
    },
    {
      "Source": "CVE",
      "URI": "https://access.redhat.com/security/cve/CVE-2019-8515",
      "ID": "CVE-2019-8515"
    },
    {
      "Source": "CVE",
      "URI": "https://access.redhat.com/security/cve/CVE-2019-8518",
      "ID": "CVE-2019-8518"
    },
    {
      "Source": "CVE",
      "URI": "https://access.redhat.com/security/cve/CVE-2019-8523",
      "ID": "CVE-2019-8523"
    }
  ],
  "Criteria": {
    "Operator": "OR",
    "Criterias": [
      {
        "Operator": "AND",
        "Criterias": [
          {
            "Operator": "OR",
            "Criterias": [
              {
                "Operator": "AND",
                "Criterias": [

                ],
                "Criterions": [
                  {
                    "Comment": "webkitgtk4 is earlier than 0:2.22.7-2.el7"
                  },
                  {
                    "Comment": "webkitgtk4 is signed with Red Hat redhatrelease2 key"
                  }
                ]
              },
              {
                "Operator": "AND",
                "Criterias": [

                ],
                "Criterions": [
                  {
                    "Comment": "webkitgtk4-devel is earlier than 0:2.22.7-2.el7"
                  },
                  {
                    "Comment": "webkitgtk4-devel is signed with Red Hat redhatrelease2 key"
                  }
                ]
              },
              {
                "Operator": "AND",
                "Criterias": [

                ],
                "Criterions": [
                  {
                    "Comment": "webkitgtk4-doc is earlier than 0:2.22.7-2.el7"
                  },
                  {
                    "Comment": "webkitgtk4-doc is signed with Red Hat redhatrelease2 key"
                  }
                ]
              },
              {
                "Operator": "AND",
                "Criterias": [

                ],
                "Criterions": [
                  {
                    "Comment": "webkitgtk4-jsc is earlier than 0:2.22.7-2.el7"
                  },
                  {
                    "Comment": "webkitgtk4-jsc is signed with Red Hat redhatrelease2 key"
                  }
                ]
              },
              {
                "Operator": "AND",
                "Criterias": [

                ],
                "Criterions": [
                  {
                    "Comment": "webkitgtk4-jsc-devel is earlier than 0:2.22.7-2.el7"
                  },
                  {
                    "Comment": "webkitgtk4-jsc-devel is signed with Red Hat redhatrelease2 key"
                  }
                ]
              },
              {
                "Operator": "AND",
                "Criterias": [

                ],
                "Criterions": [
                  {
                    "Comment": "webkitgtk4-plugin-process-gtk2 is earlier than 0:2.22.7-2.el7"
                  },
                  {
                    "Comment": "webkitgtk4-plugin-process-gtk2 is signed with Red Hat redhatrelease2 key"
                  }
                ]
              }
            ],
            "Criterions": [

            ]
          }
        ],
        "Criterions": [
          {
            "Comment": "Oracle Linux 7 is installed"
          }
        ]
      }
    ],
    "Criterions": [
      {
        "Comment": "Oracle Linux 7 is installed"
      }
    ]
  },
  "Severity": "Moderate",
  "Cves": [
    {
      "Impact": "",
      "Href": "",
      "ID": "CVE-2019-7285"
    },
    {
      "Impact": "",
      "Href": "",
      "ID": "CVE-2019-7292"
    },
    {
      "Impact": "",
      "Href": "",
      "ID": "CVE-2019-8503"
    },
    {
      "Impact": "",
      "Href": "",
      "ID": "CVE-2019-8515"
    },
    {
      "Impact": "",
      "Href": "",
      "ID": "CVE-2019-8518"
    },
    {
      "Impact": "",
      "Href": "",
      "ID": "CVE-2019-8523"
    }
  ],
  "Issued": {
    "Date": "2019-08-06"
  }
}