{
  "Title": "RHBA-2019:1992: cloud-init bug fix and enhancement update (Moderate)",
  "Description": "The cloud-init packages provide a set of init scripts for cloud instances. Cloud instances need special scripts to run during initialization to retrieve and install SSH keys, and to let the user run various scripts.\nUsers of cloud-init are advised to upgrade to these updated packages.",
  "Platform": [
    "Red Hat Enterprise Linux 8"
  ],
  "References": [
    {
      "Source": "RHSA",
      "URI": "https://access.redhat.com/errata/RHBA-2019:1992",
      "ID": "RHBA-2019:1992"
    },
    {
      "Source": "CVE",
      "URI": "https://access.redhat.com/security/cve/CVE-2019-0816",
      "ID": "CVE-2019-0816"
    }
  ],
  "Criteria": {
    "Operator": "OR",
    "Criterias": [
      {
        "Operator": "AND",
        "Criterias": [
          {
            "Operator": "OR",
            "Criterias": [

            ],
            "Criterions": [
              {
                "Comment": "Oracle Linux 8 is installed"
              },
              {
                "Comment": "Red Hat CoreOS 4 is installed"
              }
            ]
          }
        ],
        "Criterions": [
          {
            "Comment": "cloud-init is earlier than 0:18.5-1.el8.4"
          },
          {
            "Comment": "cloud-init is signed with Red Hat redhatrelease2 key"
          }
        ]
      }
    ],
    "Criterions": [
      {
        "Comment": "Oracle Linux 8 is installed"
      }
    ]
  },
  "Severity": "Moderate",
  "Cves": [
    {
      "Impact": "",
      "Href": "",
      "ID": "CVE-2019-0816"
    }
  ],
  "Issued": {
    "Date": "2019-07-30"
  }
}