{
  "Title": "RHEA-2019:3847: microcode_ctl bug fix and enhancement update (Important)",
  "Description": "The microcode_ctl packages provide microcode updates for Intel x86 processors.\nThis update adds the following enhancement:\n* Update Intel microcode version to microcode-20191112 (BZ#1755017)\nUsers of microcode_ctl are advised to upgrade to these updated packages, which\nadd this enhancement.",
  "Platform": [
    "Red Hat Enterprise Linux 6"
  ],
  "References": [
    {
      "Source": "RHSA",
      "URI": "https://access.redhat.com/errata/RHEA-2019:3847",
      "ID": "RHEA-2019:3847"
    },
    {
      "Source": "CVE",
      "URI": "https://access.redhat.com/security/cve/CVE-2019-0117",
      "ID": "CVE-2019-0117"
    }
  ],
  "Criteria": {
    "Operator": "OR",
    "Criterias": [
      {
        "Operator": "AND",
        "Criterias": [

        ],
        "Criterions": [
          {
            "Comment": "Oracle Linux 6 is installed"
          },
          {
            "Comment": "microcode_ctl is earlier than 2:1.17-33.19.el6_10"
          },
          {
            "Comment": "microcode_ctl is signed with Red Hat redhatrelease2 key"
          }
        ]
      }
    ],
    "Criterions": [
      {
        "Comment": "Oracle Linux 6 is installed"
      }
    ]
  },
  "Severity": "Important",
  "Cves": [
    {
      "Impact": "",
      "Href": "",
      "ID": "CVE-2019-0117"
    }
  ],
  "Issued": {
    "Date": "2019-11-12"
  }
}