{
  "Title": "RHEA-2019:3845: microcode_ctl bug fix and enhancement update (Important)",
  "Description": "The microcode_ctl packages provide microcode updates for Intel x86 processors.\nWith this update, the Intel microcode version has been updated to microcode-20191112.\nUsers of microcode_ctl are advised to upgrade to these updated packages, which add this enhancement.",
  "Platform": [
    "Red Hat Enterprise Linux 8"
  ],
  "References": [
    {
      "Source": "RHSA",
      "URI": "https://access.redhat.com/errata/RHEA-2019:3845",
      "ID": "RHEA-2019:3845"
    },
    {
      "Source": "CVE",
      "URI": "https://access.redhat.com/security/cve/CVE-2019-0117",
      "ID": "CVE-2019-0117"
    }
  ],
  "Criteria": {
    "Operator": "OR",
    "Criterias": [
      {
        "Operator": "AND",
        "Criterias": [
          {
            "Operator": "OR",
            "Criterias": [

            ],
            "Criterions": [
              {
                "Comment": "Oracle Linux 8 is installed"
              },
              {
                "Comment": "Red Hat CoreOS 4 is installed"
              }
            ]
          }
        ],
        "Criterions": [
          {
            "Comment": "microcode_ctl is earlier than 4:20190618-1.20191112.1.el8_1"
          },
          {
            "Comment": "microcode_ctl is signed with Red Hat redhatrelease2 key"
          }
        ]
      }
    ],
    "Criterions": [
      {
        "Comment": "Oracle Linux 8 is installed"
      }
    ]
  },
  "Severity": "Important",
  "Cves": [
    {
      "Impact": "",
      "Href": "",
      "ID": "CVE-2019-0117"
    }
  ],
  "Issued": {
    "Date": "2019-11-12"
  }
}