{
  "Title": "RHSA-2019:2052: libjpeg-turbo security update (Moderate)",
  "Description": "The libjpeg-turbo packages contain a library of functions for manipulating JPEG images. They also contain simple client programs for accessing the libjpeg functions. These packages provide the same functionality and API as libjpeg but with better performance.\nSecurity Fix(es):\n* libjpeg: null pointer dereference in cjpeg (CVE-2016-3616)\n* libjpeg-turbo: heap-based buffer over-read via crafted 8-bit BMP in get_8bit_row in rdbmp.c leads to denial of service (CVE-2018-14498)\n* libjpeg-turbo: Divide By Zero in alloc_sarray function in jmemmgr.c (CVE-2018-11212)\n* libjpeg: Segmentation fault in get_text_gray_row function in rdppm.c (CVE-2018-11213)\n* libjpeg: Segmentation fault in get_text_rgb_row function in rdppm.c (CVE-2018-11214)\n* libjpeg: \"cjpeg\" utility large loop because read_pixel in rdtarga.c mishandles EOF (CVE-2018-11813)\nFor more details about the security issue(s), including the impact, a CVSS score, acknowledgments, and other related information, refer to the CVE page(s) listed in the References section.\nAdditional Changes:\nFor detailed information on changes in this release, see the Red Hat Enterprise Linux 7.7 Release Notes linked from the References section.",
  "Platform": [
    "Red Hat Enterprise Linux 7"
  ],
  "References": [
    {
      "Source": "RHSA",
      "URI": "https://access.redhat.com/errata/RHSA-2019:2052",
      "ID": "RHSA-2019:2052"
    },
    {
      "Source": "CVE",
      "URI": "https://access.redhat.com/security/cve/CVE-2016-3616",
      "ID": "CVE-2016-3616"
    },
    {
      "Source": "CVE",
      "URI": "https://access.redhat.com/security/cve/CVE-2018-11212",
      "ID": "CVE-2018-11212"
    },
    {
      "Source": "CVE",
      "URI": "https://access.redhat.com/security/cve/CVE-2018-11213",
      "ID": "CVE-2018-11213"
    },
    {
      "Source": "CVE",
      "URI": "https://access.redhat.com/security/cve/CVE-2018-11214",
      "ID": "CVE-2018-11214"
    },
    {
      "Source": "CVE",
      "URI": "https://access.redhat.com/security/cve/CVE-2018-11813",
      "ID": "CVE-2018-11813"
    },
    {
      "Source": "CVE",
      "URI": "https://access.redhat.com/security/cve/CVE-2018-14498",
      "ID": "CVE-2018-14498"
    }
  ],
  "Criteria": {
    "Operator": "OR",
    "Criterias": [
      {
        "Operator": "AND",
        "Criterias": [
          {
            "Operator": "OR",
            "Criterias": [
              {
                "Operator": "AND",
                "Criterias": [

                ],
                "Criterions": [
                  {
                    "Comment": "libjpeg-turbo is earlier than 0:1.2.90-8.el7"
                  },
                  {
                    "Comment": "libjpeg-turbo is signed with Red Hat redhatrelease2 key"
                  }
                ]
              },
              {
                "Operator": "AND",
                "Criterias": [

                ],
                "Criterions": [
                  {
                    "Comment": "libjpeg-turbo-devel is earlier than 0:1.2.90-8.el7"
                  },
                  {
                    "Comment": "libjpeg-turbo-devel is signed with Red Hat redhatrelease2 key"
                  }
                ]
              },
              {
                "Operator": "AND",
                "Criterias": [

                ],
                "Criterions": [
                  {
                    "Comment": "libjpeg-turbo-static is earlier than 0:1.2.90-8.el7"
                  },
                  {
                    "Comment": "libjpeg-turbo-static is signed with Red Hat redhatrelease2 key"
                  }
                ]
              },
              {
                "Operator": "AND",
                "Criterias": [

                ],
                "Criterions": [
                  {
                    "Comment": "libjpeg-turbo-utils is earlier than 0:1.2.90-8.el7"
                  },
                  {
                    "Comment": "libjpeg-turbo-utils is signed with Red Hat redhatrelease2 key"
                  }
                ]
              },
              {
                "Operator": "AND",
                "Criterias": [

                ],
                "Criterions": [
                  {
                    "Comment": "turbojpeg is earlier than 0:1.2.90-8.el7"
                  },
                  {
                    "Comment": "turbojpeg is signed with Red Hat redhatrelease2 key"
                  }
                ]
              },
              {
                "Operator": "AND",
                "Criterias": [

                ],
                "Criterions": [
                  {
                    "Comment": "turbojpeg-devel is earlier than 0:1.2.90-8.el7"
                  },
                  {
                    "Comment": "turbojpeg-devel is signed with Red Hat redhatrelease2 key"
                  }
                ]
              }
            ],
            "Criterions": [

            ]
          }
        ],
        "Criterions": [
          {
            "Comment": "Oracle Linux 7 is installed"
          }
        ]
      }
    ],
    "Criterions": [
      {
        "Comment": "Oracle Linux 7 is installed"
      }
    ]
  },
  "Severity": "Moderate",
  "Cves": [
    {
      "Impact": "",
      "Href": "",
      "ID": "CVE-2016-3616"
    },
    {
      "Impact": "",
      "Href": "",
      "ID": "CVE-2018-11212"
    },
    {
      "Impact": "",
      "Href": "",
      "ID": "CVE-2018-11213"
    },
    {
      "Impact": "",
      "Href": "",
      "ID": "CVE-2018-11214"
    },
    {
      "Impact": "",
      "Href": "",
      "ID": "CVE-2018-11813"
    },
    {
      "Impact": "",
      "Href": "",
      "ID": "CVE-2018-14498"
    }
  ],
  "Issued": {
    "Date": "2019-08-06"
  }
}