{
  "Title": "RHSA-2019:4254: freetype security update (Moderate)",
  "Description": "FreeType is a free, high-quality, portable font engine that can open and manage font files. FreeType loads, hints, and renders individual glyphs efficiently.\nSecurity Fix(es):\n* freetype: a heap-based buffer over-read in T1_Get_Private_Dict in type1/t1parse.c leading to information disclosure (CVE-2015-9381)\n* freetype: mishandling ps_parser_skip_PS_token in an FT_New_Memory_Face operation in skip_comment, psaux/psobjs.c, leads to a buffer over-read (CVE-2015-9382)\nFor more details about the security issue(s), including the impact, a CVSS score, acknowledgments, and other related information, refer to the CVE page(s) listed in the References section.",
  "Platform": [
    "Red Hat Enterprise Linux 6"
  ],
  "References": [
    {
      "Source": "RHSA",
      "URI": "https://access.redhat.com/errata/RHSA-2019:4254",
      "ID": "RHSA-2019:4254"
    },
    {
      "Source": "CVE",
      "URI": "https://access.redhat.com/security/cve/CVE-2015-9381",
      "ID": "CVE-2015-9381"
    },
    {
      "Source": "CVE",
      "URI": "https://access.redhat.com/security/cve/CVE-2015-9382",
      "ID": "CVE-2015-9382"
    }
  ],
  "Criteria": {
    "Operator": "OR",
    "Criterias": [
      {
        "Operator": "AND",
        "Criterias": [
          {
            "Operator": "OR",
            "Criterias": [
              {
                "Operator": "AND",
                "Criterias": [

                ],
                "Criterions": [
                  {
                    "Comment": "freetype is earlier than 0:2.3.11-19.el6_10"
                  },
                  {
                    "Comment": "freetype is signed with Red Hat redhatrelease2 key"
                  }
                ]
              },
              {
                "Operator": "AND",
                "Criterias": [

                ],
                "Criterions": [
                  {
                    "Comment": "freetype-demos is earlier than 0:2.3.11-19.el6_10"
                  },
                  {
                    "Comment": "freetype-demos is signed with Red Hat redhatrelease2 key"
                  }
                ]
              },
              {
                "Operator": "AND",
                "Criterias": [

                ],
                "Criterions": [
                  {
                    "Comment": "freetype-devel is earlier than 0:2.3.11-19.el6_10"
                  },
                  {
                    "Comment": "freetype-devel is signed with Red Hat redhatrelease2 key"
                  }
                ]
              }
            ],
            "Criterions": [

            ]
          }
        ],
        "Criterions": [
          {
            "Comment": "Oracle Linux 6 is installed"
          }
        ]
      }
    ],
    "Criterions": [
      {
        "Comment": "Oracle Linux 6 is installed"
      }
    ]
  },
  "Severity": "Moderate",
  "Cves": [
    {
      "Impact": "",
      "Href": "",
      "ID": "CVE-2015-9381"
    },
    {
      "Impact": "",
      "Href": "",
      "ID": "CVE-2015-9382"
    }
  ],
  "Issued": {
    "Date": "2019-12-17"
  }
}