{
  "Title": "RHSA-2019:0778: java-11-openjdk security update (Moderate)",
  "Description": "The java-11-openjdk packages provide the OpenJDK 11 Java Runtime Environment and the OpenJDK 11 Java Software Development Kit.\nSecurity Fix(es):\n* OpenJDK: Slow conversion of BigDecimal to long (Libraries, 8211936) (CVE-2019-2602)\n* OpenJDK: Incorrect skeleton selection in RMI registry server-side dispatch handling (RMI, 8218453) (CVE-2019-2684)\nFor more details about the security issue(s), including the impact, a CVSS score, acknowledgments, and other related information, refer to the CVE page(s) listed in the References section.",
  "Platform": [
    "Red Hat Enterprise Linux 7"
  ],
  "References": [
    {
      "Source": "RHSA",
      "URI": "https://access.redhat.com/errata/RHSA-2019:0778",
      "ID": "RHSA-2019:0778"
    },
    {
      "Source": "CVE",
      "URI": "https://access.redhat.com/security/cve/CVE-2019-2602",
      "ID": "CVE-2019-2602"
    },
    {
      "Source": "CVE",
      "URI": "https://access.redhat.com/security/cve/CVE-2019-2684",
      "ID": "CVE-2019-2684"
    }
  ],
  "Criteria": {
    "Operator": "OR",
    "Criterias": [
      {
        "Operator": "AND",
        "Criterias": [
          {
            "Operator": "OR",
            "Criterias": [
              {
                "Operator": "AND",
                "Criterias": [

                ],
                "Criterions": [
                  {
                    "Comment": "java-11-openjdk is earlier than 1:11.0.3.7-0.el7_6"
                  },
                  {
                    "Comment": "java-11-openjdk is signed with Red Hat redhatrelease2 key"
                  }
                ]
              },
              {
                "Operator": "AND",
                "Criterias": [

                ],
                "Criterions": [
                  {
                    "Comment": "java-11-openjdk-debug is earlier than 1:11.0.3.7-0.el7_6"
                  },
                  {
                    "Comment": "java-11-openjdk-debug is signed with Red Hat redhatrelease2 key"
                  }
                ]
              },
              {
                "Operator": "AND",
                "Criterias": [

                ],
                "Criterions": [
                  {
                    "Comment": "java-11-openjdk-demo is earlier than 1:11.0.3.7-0.el7_6"
                  },
                  {
                    "Comment": "java-11-openjdk-demo is signed with Red Hat redhatrelease2 key"
                  }
                ]
              },
              {
                "Operator": "AND",
                "Criterias": [

                ],
                "Criterions": [
                  {
                    "Comment": "java-11-openjdk-demo-debug is earlier than 1:11.0.3.7-0.el7_6"
                  },
                  {
                    "Comment": "java-11-openjdk-demo-debug is signed with Red Hat redhatrelease2 key"
                  }
                ]
              },
              {
                "Operator": "AND",
                "Criterias": [

                ],
                "Criterions": [
                  {
                    "Comment": "java-11-openjdk-devel is earlier than 1:11.0.3.7-0.el7_6"
                  },
                  {
                    "Comment": "java-11-openjdk-devel is signed with Red Hat redhatrelease2 key"
                  }
                ]
              },
              {
                "Operator": "AND",
                "Criterias": [

                ],
                "Criterions": [
                  {
                    "Comment": "java-11-openjdk-devel-debug is earlier than 1:11.0.3.7-0.el7_6"
                  },
                  {
                    "Comment": "java-11-openjdk-devel-debug is signed with Red Hat redhatrelease2 key"
                  }
                ]
              },
              {
                "Operator": "AND",
                "Criterias": [

                ],
                "Criterions": [
                  {
                    "Comment": "java-11-openjdk-headless is earlier than 1:11.0.3.7-0.el7_6"
                  },
                  {
                    "Comment": "java-11-openjdk-headless is signed with Red Hat redhatrelease2 key"
                  }
                ]
              },
              {
                "Operator": "AND",
                "Criterias": [

                ],
                "Criterions": [
                  {
                    "Comment": "java-11-openjdk-headless-debug is earlier than 1:11.0.3.7-0.el7_6"
                  },
                  {
                    "Comment": "java-11-openjdk-headless-debug is signed with Red Hat redhatrelease2 key"
                  }
                ]
              },
              {
                "Operator": "AND",
                "Criterias": [

                ],
                "Criterions": [
                  {
                    "Comment": "java-11-openjdk-javadoc is earlier than 1:11.0.3.7-0.el7_6"
                  },
                  {
                    "Comment": "java-11-openjdk-javadoc is signed with Red Hat redhatrelease2 key"
                  }
                ]
              },
              {
                "Operator": "AND",
                "Criterias": [

                ],
                "Criterions": [
                  {
                    "Comment": "java-11-openjdk-javadoc-debug is earlier than 1:11.0.3.7-0.el7_6"
                  },
                  {
                    "Comment": "java-11-openjdk-javadoc-debug is signed with Red Hat redhatrelease2 key"
                  }
                ]
              },
              {
                "Operator": "AND",
                "Criterias": [

                ],
                "Criterions": [
                  {
                    "Comment": "java-11-openjdk-javadoc-zip is earlier than 1:11.0.3.7-0.el7_6"
                  },
                  {
                    "Comment": "java-11-openjdk-javadoc-zip is signed with Red Hat redhatrelease2 key"
                  }
                ]
              },
              {
                "Operator": "AND",
                "Criterias": [

                ],
                "Criterions": [
                  {
                    "Comment": "java-11-openjdk-javadoc-zip-debug is earlier than 1:11.0.3.7-0.el7_6"
                  },
                  {
                    "Comment": "java-11-openjdk-javadoc-zip-debug is signed with Red Hat redhatrelease2 key"
                  }
                ]
              },
              {
                "Operator": "AND",
                "Criterias": [

                ],
                "Criterions": [
                  {
                    "Comment": "java-11-openjdk-jmods is earlier than 1:11.0.3.7-0.el7_6"
                  },
                  {
                    "Comment": "java-11-openjdk-jmods is signed with Red Hat redhatrelease2 key"
                  }
                ]
              },
              {
                "Operator": "AND",
                "Criterias": [

                ],
                "Criterions": [
                  {
                    "Comment": "java-11-openjdk-jmods-debug is earlier than 1:11.0.3.7-0.el7_6"
                  },
                  {
                    "Comment": "java-11-openjdk-jmods-debug is signed with Red Hat redhatrelease2 key"
                  }
                ]
              },
              {
                "Operator": "AND",
                "Criterias": [

                ],
                "Criterions": [
                  {
                    "Comment": "java-11-openjdk-src is earlier than 1:11.0.3.7-0.el7_6"
                  },
                  {
                    "Comment": "java-11-openjdk-src is signed with Red Hat redhatrelease2 key"
                  }
                ]
              },
              {
                "Operator": "AND",
                "Criterias": [

                ],
                "Criterions": [
                  {
                    "Comment": "java-11-openjdk-src-debug is earlier than 1:11.0.3.7-0.el7_6"
                  },
                  {
                    "Comment": "java-11-openjdk-src-debug is signed with Red Hat redhatrelease2 key"
                  }
                ]
              }
            ],
            "Criterions": [

            ]
          }
        ],
        "Criterions": [
          {
            "Comment": "Oracle Linux 7 is installed"
          }
        ]
      }
    ],
    "Criterions": [
      {
        "Comment": "Oracle Linux 7 is installed"
      }
    ]
  },
  "Severity": "Moderate",
  "Cves": [
    {
      "Impact": "",
      "Href": "",
      "ID": "CVE-2019-2602"
    },
    {
      "Impact": "",
      "Href": "",
      "ID": "CVE-2019-2684"
    }
  ],
  "Issued": {
    "Date": "2019-04-17"
  }
}