{
  "Title": "RHSA-2019:3497: http-parser security and bug fix update (Moderate)",
  "Description": "The http-parser package provides a utility for parsing HTTP messages. It parses both requests and responses. The parser is designed to be used in performance HTTP applications. It does not make any system calls or allocations, it does not buffer data, and it can be interrupted at any time. Depending on your architecture, it only requires about 40 bytes of data per message stream.\nSecurity Fix(es):\n* nodejs: Denial of Service with large HTTP headers (CVE-2018-12121)\nFor more details about the security issue(s), including the impact, a CVSS score, acknowledgments, and other related information, refer to the CVE page(s) listed in the References section.\nAdditional Changes:\nFor detailed information on changes in this release, see the Red Hat Enterprise Linux 8.1 Release Notes linked from the References section.",
  "Platform": [
    "Red Hat Enterprise Linux 8"
  ],
  "References": [
    {
      "Source": "RHSA",
      "URI": "https://access.redhat.com/errata/RHSA-2019:3497",
      "ID": "RHSA-2019:3497"
    },
    {
      "Source": "CVE",
      "URI": "https://access.redhat.com/security/cve/CVE-2018-12121",
      "ID": "CVE-2018-12121"
    }
  ],
  "Criteria": {
    "Operator": "OR",
    "Criterias": [
      {
        "Operator": "AND",
        "Criterias": [
          {
            "Operator": "OR",
            "Criterias": [

            ],
            "Criterions": [
              {
                "Comment": "Oracle Linux 8 is installed"
              },
              {
                "Comment": "Red Hat CoreOS 4 is installed"
              }
            ]
          }
        ],
        "Criterions": [
          {
            "Comment": "http-parser is earlier than 0:2.8.0-5.el8"
          },
          {
            "Comment": "http-parser is signed with Red Hat redhatrelease2 key"
          }
        ]
      }
    ],
    "Criterions": [
      {
        "Comment": "Oracle Linux 8 is installed"
      }
    ]
  },
  "Severity": "Moderate",
  "Cves": [
    {
      "Impact": "",
      "Href": "",
      "ID": "CVE-2018-12121"
    }
  ],
  "Issued": {
    "Date": "2019-11-05"
  }
}