{
  "Title": "RHSA-2019:2854: kpatch-patch security update (Important)",
  "Description": "This is a kernel live patch module which can be loaded by the kpatch command line utility to modify the code of a running kernel.\nSecurity Fix(es):\n* A buffer overflow flaw was found in the way Linux kernel's vhost functionality that translates virtqueue buffers to IOVs, logged the buffer descriptors during migration. A privileged guest user able to pass descriptors with invalid length to the host when migration is underway, could use this flaw to increase their privileges on the host. (CVE-2019-14835)\nFor more details about the security issue(s), including the impact, a CVSS score, acknowledgments, and other related information, refer to the CVE page(s) listed in the References section.",
  "Platform": [
    "Red Hat Enterprise Linux 7"
  ],
  "References": [
    {
      "Source": "RHSA",
      "URI": "https://access.redhat.com/errata/RHSA-2019:2854",
      "ID": "RHSA-2019:2854"
    },
    {
      "Source": "CVE",
      "URI": "https://access.redhat.com/security/cve/CVE-2019-14835",
      "ID": "CVE-2019-14835"
    }
  ],
  "Criteria": {
    "Operator": "OR",
    "Criterias": [
      {
        "Operator": "AND",
        "Criterias": [
          {
            "Operator": "OR",
            "Criterias": [
              {
                "Operator": "AND",
                "Criterias": [
                  {
                    "Operator": "OR",
                    "Criterias": [

                    ],
                    "Criterions": [
                      {
                        "Comment": "kernel version 0:3.10.0-1062.1.1.el7 is currently running"
                      },
                      {
                        "Comment": "kernel version 0:3.10.0-1062.1.1.el7 is set to boot up on next boot"
                      }
                    ]
                  },
                  {
                    "Operator": "AND",
                    "Criterias": [
                      {
                        "Operator": "OR",
                        "Criterias": [
                          {
                            "Operator": "AND",
                            "Criterias": [

                            ],
                            "Criterions": [
                              {
                                "Comment": "kpatch-patch-3_10_0-1062_1_1 is earlier than 0:1-1.el7"
                              },
                              {
                                "Comment": "kpatch-patch-3_10_0-1062_1_1 is signed with Red Hat redhatrelease2 key"
                              }
                            ]
                          }
                        ],
                        "Criterions": [
                          {
                            "Comment": "kpatch-patch not installed for 0:3.10.0-1062.1.1.el7"
                          }
                        ]
                      }
                    ],
                    "Criterions": [
                      {
                        "Comment": "kernel version equals 0:3.10.0-1062.1.1.el7"
                      },
                      {
                        "Comment": "kernel is signed with Red Hat redhatrelease2 key"
                      }
                    ]
                  }
                ],
                "Criterions": [

                ]
              },
              {
                "Operator": "AND",
                "Criterias": [
                  {
                    "Operator": "OR",
                    "Criterias": [

                    ],
                    "Criterions": [
                      {
                        "Comment": "kernel version 0:3.10.0-1062.el7 is currently running"
                      },
                      {
                        "Comment": "kernel version 0:3.10.0-1062.el7 is set to boot up on next boot"
                      }
                    ]
                  },
                  {
                    "Operator": "AND",
                    "Criterias": [
                      {
                        "Operator": "OR",
                        "Criterias": [
                          {
                            "Operator": "AND",
                            "Criterias": [

                            ],
                            "Criterions": [
                              {
                                "Comment": "kpatch-patch-3_10_0-1062 is earlier than 0:1-1.el7"
                              },
                              {
                                "Comment": "kpatch-patch-3_10_0-1062 is signed with Red Hat redhatrelease2 key"
                              }
                            ]
                          }
                        ],
                        "Criterions": [
                          {
                            "Comment": "kpatch-patch not installed for 0:3.10.0-1062.el7"
                          }
                        ]
                      }
                    ],
                    "Criterions": [
                      {
                        "Comment": "kernel version equals 0:3.10.0-1062.el7"
                      },
                      {
                        "Comment": "kernel is signed with Red Hat redhatrelease2 key"
                      }
                    ]
                  }
                ],
                "Criterions": [

                ]
              }
            ],
            "Criterions": [

            ]
          }
        ],
        "Criterions": [
          {
            "Comment": "Oracle Linux 7 is installed"
          }
        ]
      }
    ],
    "Criterions": [
      {
        "Comment": "Oracle Linux 7 is installed"
      }
    ]
  },
  "Severity": "Important",
  "Cves": [
    {
      "Impact": "",
      "Href": "",
      "ID": "CVE-2019-14835"
    }
  ],
  "Issued": {
    "Date": "2019-09-21"
  }
}