{
  "Title": "RHSA-2019:4360: libyang security update (Important)",
  "Description": "The libyang package provides a library for YANG data modeling language. libyang is a YANG data modelling language parser and toolkit written (and providing API) in C. The library is used e.g. in libnetconf2, Netopeer2, sysrepo and FRRouting projects.\nSecurity Fix(es):\n* libyang: stack-based buffer overflow in make_canonical when bits leaf type is used (CVE-2019-19333)\n* libyang: stack-based buffer overflow in make_canonical when identityref leaf type is used (CVE-2019-19334)\nFor more details about the security issue(s), including the impact, a CVSS score, acknowledgments, and other related information, refer to the CVE page(s) listed in the References section.\nIMPORTANT:\nThe libyang-devel sub-package has recently been removed from the AppStream repository. If you have previously installed libyang-devel, remove it prior to applying this advisory to make the update successful.",
  "Platform": [
    "Red Hat Enterprise Linux 8"
  ],
  "References": [
    {
      "Source": "RHSA",
      "URI": "https://access.redhat.com/errata/RHSA-2019:4360",
      "ID": "RHSA-2019:4360"
    },
    {
      "Source": "CVE",
      "URI": "https://access.redhat.com/security/cve/CVE-2019-19333",
      "ID": "CVE-2019-19333"
    },
    {
      "Source": "CVE",
      "URI": "https://access.redhat.com/security/cve/CVE-2019-19334",
      "ID": "CVE-2019-19334"
    }
  ],
  "Criteria": {
    "Operator": "OR",
    "Criterias": [
      {
        "Operator": "AND",
        "Criterias": [
          {
            "Operator": "OR",
            "Criterias": [

            ],
            "Criterions": [
              {
                "Comment": "Oracle Linux 8 is installed"
              },
              {
                "Comment": "Red Hat CoreOS 4 is installed"
              }
            ]
          }
        ],
        "Criterions": [
          {
            "Comment": "libyang is earlier than 0:0.16.105-3.el8_1.2"
          },
          {
            "Comment": "libyang is signed with Red Hat redhatrelease2 key"
          }
        ]
      }
    ],
    "Criterions": [
      {
        "Comment": "Oracle Linux 8 is installed"
      }
    ]
  },
  "Severity": "Important",
  "Cves": [
    {
      "Impact": "",
      "Href": "",
      "ID": "CVE-2019-19333"
    },
    {
      "Impact": "",
      "Href": "",
      "ID": "CVE-2019-19334"
    }
  ],
  "Issued": {
    "Date": "2019-12-23"
  }
}