{
  "Title": "RHSA-2019:2807: thunderbird security update (Important)",
  "Description": "Mozilla Thunderbird is a standalone mail and newsgroup client.\nThis update upgrades Thunderbird to version 60.9.0.\nSecurity Fix(es):\n* Mozilla: Covert Content Attack on S/MIME encryption using a crafted multipart/alternative message (CVE-2019-11739)\n* Mozilla: Memory safety bugs fixed in Firefox 69, Firefox ESR 68.1, and Firefox ESR 60.9 (CVE-2019-11740)\n* Mozilla: Same-origin policy violation with SVG filters and canvas to steal cross-origin images (CVE-2019-11742)\n* Mozilla: XSS by breaking out of title and textarea elements using innerHTML (CVE-2019-11744)\n* Mozilla: Use-after-free while manipulating video (CVE-2019-11746)\n* Mozilla: Use-after-free while extracting a key value in IndexedDB (CVE-2019-11752)\n* Mozilla: Cross-origin access to unload event attributes (CVE-2019-11743)\nFor more details about the security issue(s), including the impact, a CVSS score, acknowledgments, and other related information, refer to the CVE page(s) listed in the References section.",
  "Platform": [
    "Red Hat Enterprise Linux 6"
  ],
  "References": [
    {
      "Source": "RHSA",
      "URI": "https://access.redhat.com/errata/RHSA-2019:2807",
      "ID": "RHSA-2019:2807"
    },
    {
      "Source": "CVE",
      "URI": "https://access.redhat.com/security/cve/CVE-2019-11739",
      "ID": "CVE-2019-11739"
    },
    {
      "Source": "CVE",
      "URI": "https://access.redhat.com/security/cve/CVE-2019-11740",
      "ID": "CVE-2019-11740"
    },
    {
      "Source": "CVE",
      "URI": "https://access.redhat.com/security/cve/CVE-2019-11742",
      "ID": "CVE-2019-11742"
    },
    {
      "Source": "CVE",
      "URI": "https://access.redhat.com/security/cve/CVE-2019-11743",
      "ID": "CVE-2019-11743"
    },
    {
      "Source": "CVE",
      "URI": "https://access.redhat.com/security/cve/CVE-2019-11744",
      "ID": "CVE-2019-11744"
    },
    {
      "Source": "CVE",
      "URI": "https://access.redhat.com/security/cve/CVE-2019-11746",
      "ID": "CVE-2019-11746"
    },
    {
      "Source": "CVE",
      "URI": "https://access.redhat.com/security/cve/CVE-2019-11752",
      "ID": "CVE-2019-11752"
    }
  ],
  "Criteria": {
    "Operator": "OR",
    "Criterias": [
      {
        "Operator": "AND",
        "Criterias": [

        ],
        "Criterions": [
          {
            "Comment": "Oracle Linux 6 is installed"
          },
          {
            "Comment": "thunderbird is earlier than 0:60.9.0-1.el6_10"
          },
          {
            "Comment": "thunderbird is signed with Red Hat redhatrelease2 key"
          }
        ]
      }
    ],
    "Criterions": [
      {
        "Comment": "Oracle Linux 6 is installed"
      }
    ]
  },
  "Severity": "Important",
  "Cves": [
    {
      "Impact": "",
      "Href": "",
      "ID": "CVE-2019-11739"
    },
    {
      "Impact": "",
      "Href": "",
      "ID": "CVE-2019-11740"
    },
    {
      "Impact": "",
      "Href": "",
      "ID": "CVE-2019-11742"
    },
    {
      "Impact": "",
      "Href": "",
      "ID": "CVE-2019-11743"
    },
    {
      "Impact": "",
      "Href": "",
      "ID": "CVE-2019-11744"
    },
    {
      "Impact": "",
      "Href": "",
      "ID": "CVE-2019-11746"
    },
    {
      "Impact": "",
      "Href": "",
      "ID": "CVE-2019-11752"
    }
  ],
  "Issued": {
    "Date": "2019-09-19"
  }
}