{
  "Title": "RHSA-2019:1269: firefox security update (Critical)",
  "Description": "Mozilla Firefox is an open-source web browser, designed for standards compliance, performance, and portability.\nThis update upgrades Firefox to version 60.7.0 ESR.\nSecurity Fix(es):\n* Mozilla: Memory safety bugs fixed in Firefox 67 and Firefox ESR 60.7 (CVE-2019-9800)\n* Mozilla: Cross-origin theft of images with createImageBitmap (CVE-2019-9797)\n* Mozilla: Type confusion with object groups and UnboxedObjects (CVE-2019-9816)\n* Mozilla: Stealing of cross-domain images using canvas (CVE-2019-9817)\n* Mozilla: Compartment mismatch with fetch API (CVE-2019-9819)\n* Mozilla: Use-after-free of ChromeEventHandler by DocShell (CVE-2019-9820)\n* Mozilla: Use-after-free in XMLHttpRequest (CVE-2019-11691)\n* Mozilla: Use-after-free removing listeners in the event listener manager (CVE-2019-11692)\n* Mozilla: Buffer overflow in WebGL bufferdata on Linux (CVE-2019-11693)\n* mozilla: Cross-origin theft of images with ImageBitmapRenderingContext (CVE-2018-18511)\n* chromium-browser: Out of bounds read in Skia (CVE-2019-5798)\n* Mozilla: Theft of user history data through drag and drop of hyperlinks to and from bookmarks (CVE-2019-11698)\n* libpng: use-after-free in png_image_free in png.c (CVE-2019-7317)\nFor more details about the security issue(s), including the impact, a CVSS score, acknowledgments, and other related information, refer to the CVE page(s) listed in the References section.",
  "Platform": [
    "Red Hat Enterprise Linux 8"
  ],
  "References": [
    {
      "Source": "RHSA",
      "URI": "https://access.redhat.com/errata/RHSA-2019:1269",
      "ID": "RHSA-2019:1269"
    },
    {
      "Source": "CVE",
      "URI": "https://access.redhat.com/security/cve/CVE-2018-18511",
      "ID": "CVE-2018-18511"
    },
    {
      "Source": "CVE",
      "URI": "https://access.redhat.com/security/cve/CVE-2019-11691",
      "ID": "CVE-2019-11691"
    },
    {
      "Source": "CVE",
      "URI": "https://access.redhat.com/security/cve/CVE-2019-11692",
      "ID": "CVE-2019-11692"
    },
    {
      "Source": "CVE",
      "URI": "https://access.redhat.com/security/cve/CVE-2019-11693",
      "ID": "CVE-2019-11693"
    },
    {
      "Source": "CVE",
      "URI": "https://access.redhat.com/security/cve/CVE-2019-11698",
      "ID": "CVE-2019-11698"
    },
    {
      "Source": "CVE",
      "URI": "https://access.redhat.com/security/cve/CVE-2019-5798",
      "ID": "CVE-2019-5798"
    },
    {
      "Source": "CVE",
      "URI": "https://access.redhat.com/security/cve/CVE-2019-7317",
      "ID": "CVE-2019-7317"
    },
    {
      "Source": "CVE",
      "URI": "https://access.redhat.com/security/cve/CVE-2019-9797",
      "ID": "CVE-2019-9797"
    },
    {
      "Source": "CVE",
      "URI": "https://access.redhat.com/security/cve/CVE-2019-9800",
      "ID": "CVE-2019-9800"
    },
    {
      "Source": "CVE",
      "URI": "https://access.redhat.com/security/cve/CVE-2019-9816",
      "ID": "CVE-2019-9816"
    },
    {
      "Source": "CVE",
      "URI": "https://access.redhat.com/security/cve/CVE-2019-9817",
      "ID": "CVE-2019-9817"
    },
    {
      "Source": "CVE",
      "URI": "https://access.redhat.com/security/cve/CVE-2019-9819",
      "ID": "CVE-2019-9819"
    },
    {
      "Source": "CVE",
      "URI": "https://access.redhat.com/security/cve/CVE-2019-9820",
      "ID": "CVE-2019-9820"
    }
  ],
  "Criteria": {
    "Operator": "OR",
    "Criterias": [
      {
        "Operator": "AND",
        "Criterias": [
          {
            "Operator": "OR",
            "Criterias": [

            ],
            "Criterions": [
              {
                "Comment": "Oracle Linux 8 is installed"
              },
              {
                "Comment": "Red Hat CoreOS 4 is installed"
              }
            ]
          }
        ],
        "Criterions": [
          {
            "Comment": "firefox is earlier than 0:60.7.0-1.el8_0"
          },
          {
            "Comment": "firefox is signed with Red Hat redhatrelease2 key"
          }
        ]
      }
    ],
    "Criterions": [
      {
        "Comment": "Oracle Linux 8 is installed"
      }
    ]
  },
  "Severity": "Critical",
  "Cves": [
    {
      "Impact": "",
      "Href": "",
      "ID": "CVE-2018-18511"
    },
    {
      "Impact": "",
      "Href": "",
      "ID": "CVE-2019-11691"
    },
    {
      "Impact": "",
      "Href": "",
      "ID": "CVE-2019-11692"
    },
    {
      "Impact": "",
      "Href": "",
      "ID": "CVE-2019-11693"
    },
    {
      "Impact": "",
      "Href": "",
      "ID": "CVE-2019-11698"
    },
    {
      "Impact": "",
      "Href": "",
      "ID": "CVE-2019-5798"
    },
    {
      "Impact": "",
      "Href": "",
      "ID": "CVE-2019-7317"
    },
    {
      "Impact": "",
      "Href": "",
      "ID": "CVE-2019-9797"
    },
    {
      "Impact": "",
      "Href": "",
      "ID": "CVE-2019-9800"
    },
    {
      "Impact": "",
      "Href": "",
      "ID": "CVE-2019-9816"
    },
    {
      "Impact": "",
      "Href": "",
      "ID": "CVE-2019-9817"
    },
    {
      "Impact": "",
      "Href": "",
      "ID": "CVE-2019-9819"
    },
    {
      "Impact": "",
      "Href": "",
      "ID": "CVE-2019-9820"
    }
  ],
  "Issued": {
    "Date": "2019-05-23"
  }
}