{
  "Title": "RHSA-2019:0375: flatpak security update (Important)",
  "Description": "Flatpak is a system for building, distributing, and running sandboxed desktop applications on Linux.\nSecurity Fix(es):\n* flatpak: potential /proc based sandbox escape (CVE-2019-8308)\nFor more details about the security issue(s), including the impact, a CVSS score, acknowledgments, and other related information, refer to the CVE page(s) listed in the References section.",
  "Platform": [
    "Red Hat Enterprise Linux 7"
  ],
  "References": [
    {
      "Source": "RHSA",
      "URI": "https://access.redhat.com/errata/RHSA-2019:0375",
      "ID": "RHSA-2019:0375"
    },
    {
      "Source": "CVE",
      "URI": "https://access.redhat.com/security/cve/CVE-2019-8308",
      "ID": "CVE-2019-8308"
    }
  ],
  "Criteria": {
    "Operator": "OR",
    "Criterias": [
      {
        "Operator": "AND",
        "Criterias": [
          {
            "Operator": "OR",
            "Criterias": [
              {
                "Operator": "AND",
                "Criterias": [

                ],
                "Criterions": [
                  {
                    "Comment": "flatpak is earlier than 0:1.0.2-4.el7_6"
                  },
                  {
                    "Comment": "flatpak is signed with Red Hat redhatrelease2 key"
                  }
                ]
              },
              {
                "Operator": "AND",
                "Criterias": [

                ],
                "Criterions": [
                  {
                    "Comment": "flatpak-builder is earlier than 0:1.0.0-4.el7_6"
                  },
                  {
                    "Comment": "flatpak-builder is signed with Red Hat redhatrelease2 key"
                  }
                ]
              },
              {
                "Operator": "AND",
                "Criterias": [

                ],
                "Criterions": [
                  {
                    "Comment": "flatpak-devel is earlier than 0:1.0.2-4.el7_6"
                  },
                  {
                    "Comment": "flatpak-devel is signed with Red Hat redhatrelease2 key"
                  }
                ]
              },
              {
                "Operator": "AND",
                "Criterias": [

                ],
                "Criterions": [
                  {
                    "Comment": "flatpak-libs is earlier than 0:1.0.2-4.el7_6"
                  },
                  {
                    "Comment": "flatpak-libs is signed with Red Hat redhatrelease2 key"
                  }
                ]
              }
            ],
            "Criterions": [

            ]
          }
        ],
        "Criterions": [
          {
            "Comment": "Oracle Linux 7 is installed"
          }
        ]
      }
    ],
    "Criterions": [
      {
        "Comment": "Oracle Linux 7 is installed"
      }
    ]
  },
  "Severity": "Important",
  "Cves": [
    {
      "Impact": "",
      "Href": "",
      "ID": "CVE-2019-8308"
    }
  ],
  "Issued": {
    "Date": "2019-02-19"
  }
}