{
  "Title": "RHSA-2019:2964: patch security update (Important)",
  "Description": "The patch program applies diff files to originals. The diff command is used to compare an original to a changed file. Diff lists the changes made to the file. A person who has the original file can then use the patch command with the diff file to add the changes to their original file (patching the file).\nSecurity Fix(es):\n* patch: do_ed_script in pch.c does not block strings beginning with a ! character (CVE-2018-20969)\n* patch: OS shell command injection when processing crafted patch files (CVE-2019-13638)\nFor more details about the security issue(s), including the impact, a CVSS score, acknowledgments, and other related information, refer to the CVE page(s) listed in the References section.",
  "Platform": [
    "Red Hat Enterprise Linux 7"
  ],
  "References": [
    {
      "Source": "RHSA",
      "URI": "https://access.redhat.com/errata/RHSA-2019:2964",
      "ID": "RHSA-2019:2964"
    },
    {
      "Source": "CVE",
      "URI": "https://access.redhat.com/security/cve/CVE-2018-20969",
      "ID": "CVE-2018-20969"
    },
    {
      "Source": "CVE",
      "URI": "https://access.redhat.com/security/cve/CVE-2019-13638",
      "ID": "CVE-2019-13638"
    }
  ],
  "Criteria": {
    "Operator": "OR",
    "Criterias": [
      {
        "Operator": "AND",
        "Criterias": [

        ],
        "Criterions": [
          {
            "Comment": "Oracle Linux 7 is installed"
          },
          {
            "Comment": "patch is earlier than 0:2.7.1-12.el7_7"
          },
          {
            "Comment": "patch is signed with Red Hat redhatrelease2 key"
          }
        ]
      }
    ],
    "Criterions": [
      {
        "Comment": "Oracle Linux 7 is installed"
      }
    ]
  },
  "Severity": "Important",
  "Cves": [
    {
      "Impact": "",
      "Href": "",
      "ID": "CVE-2018-20969"
    },
    {
      "Impact": "",
      "Href": "",
      "ID": "CVE-2019-13638"
    }
  ],
  "Issued": {
    "Date": "2019-10-03"
  }
}