{
  "Title": "RHSA-2019:2159: unzip security update (Low)",
  "Description": "The unzip utility is used to list, test, and extract files from zip archives.\nSecurity Fix(es):\n* unzip: Buffer overflow in list.c resulting in a denial of service (CVE-2018-18384)\nFor more details about the security issue(s), including the impact, a CVSS score, acknowledgments, and other related information, refer to the CVE page(s) listed in the References section.\nAdditional Changes:\nFor detailed information on changes in this release, see the Red Hat Enterprise Linux 7.7 Release Notes linked from the References section.",
  "Platform": [
    "Red Hat Enterprise Linux 7"
  ],
  "References": [
    {
      "Source": "RHSA",
      "URI": "https://access.redhat.com/errata/RHSA-2019:2159",
      "ID": "RHSA-2019:2159"
    },
    {
      "Source": "CVE",
      "URI": "https://access.redhat.com/security/cve/CVE-2018-18384",
      "ID": "CVE-2018-18384"
    }
  ],
  "Criteria": {
    "Operator": "OR",
    "Criterias": [
      {
        "Operator": "AND",
        "Criterias": [

        ],
        "Criterions": [
          {
            "Comment": "Oracle Linux 7 is installed"
          },
          {
            "Comment": "unzip is earlier than 0:6.0-20.el7"
          },
          {
            "Comment": "unzip is signed with Red Hat redhatrelease2 key"
          }
        ]
      }
    ],
    "Criterions": [
      {
        "Comment": "Oracle Linux 7 is installed"
      }
    ]
  },
  "Severity": "Low",
  "Cves": [
    {
      "Impact": "",
      "Href": "",
      "ID": "CVE-2018-18384"
    }
  ],
  "Issued": {
    "Date": "2019-08-06"
  }
}