{
  "Title": "RHSA-2019:2836: dovecot security update (Important)",
  "Description": "Dovecot is an IMAP server for Linux and other UNIX-like systems, written primarily with security in mind. It also contains a small POP3 server, and supports e-mail in either the maildir or mbox format. The SQL drivers and authentication plug-ins are provided as subpackages. \nSecurity Fix(es):\n* dovecot: improper NULL byte handling in IMAP and ManageSieve protocol parsers leads to out of bounds writes (CVE-2019-11500)\nFor more details about the security issue(s), including the impact, a CVSS score, acknowledgments, and other related information, refer to the CVE page(s) listed in the References section.",
  "Platform": [
    "Red Hat Enterprise Linux 7"
  ],
  "References": [
    {
      "Source": "RHSA",
      "URI": "https://access.redhat.com/errata/RHSA-2019:2836",
      "ID": "RHSA-2019:2836"
    },
    {
      "Source": "CVE",
      "URI": "https://access.redhat.com/security/cve/CVE-2019-11500",
      "ID": "CVE-2019-11500"
    }
  ],
  "Criteria": {
    "Operator": "OR",
    "Criterias": [
      {
        "Operator": "AND",
        "Criterias": [
          {
            "Operator": "OR",
            "Criterias": [
              {
                "Operator": "AND",
                "Criterias": [

                ],
                "Criterions": [
                  {
                    "Comment": "dovecot is earlier than 1:2.2.36-3.el7_7.1"
                  },
                  {
                    "Comment": "dovecot is signed with Red Hat redhatrelease2 key"
                  }
                ]
              },
              {
                "Operator": "AND",
                "Criterias": [

                ],
                "Criterions": [
                  {
                    "Comment": "dovecot-devel is earlier than 1:2.2.36-3.el7_7.1"
                  },
                  {
                    "Comment": "dovecot-devel is signed with Red Hat redhatrelease2 key"
                  }
                ]
              },
              {
                "Operator": "AND",
                "Criterias": [

                ],
                "Criterions": [
                  {
                    "Comment": "dovecot-mysql is earlier than 1:2.2.36-3.el7_7.1"
                  },
                  {
                    "Comment": "dovecot-mysql is signed with Red Hat redhatrelease2 key"
                  }
                ]
              },
              {
                "Operator": "AND",
                "Criterias": [

                ],
                "Criterions": [
                  {
                    "Comment": "dovecot-pgsql is earlier than 1:2.2.36-3.el7_7.1"
                  },
                  {
                    "Comment": "dovecot-pgsql is signed with Red Hat redhatrelease2 key"
                  }
                ]
              },
              {
                "Operator": "AND",
                "Criterias": [

                ],
                "Criterions": [
                  {
                    "Comment": "dovecot-pigeonhole is earlier than 1:2.2.36-3.el7_7.1"
                  },
                  {
                    "Comment": "dovecot-pigeonhole is signed with Red Hat redhatrelease2 key"
                  }
                ]
              }
            ],
            "Criterions": [

            ]
          }
        ],
        "Criterions": [
          {
            "Comment": "Oracle Linux 7 is installed"
          }
        ]
      }
    ],
    "Criterions": [
      {
        "Comment": "Oracle Linux 7 is installed"
      }
    ]
  },
  "Severity": "Important",
  "Cves": [
    {
      "Impact": "",
      "Href": "",
      "ID": "CVE-2019-11500"
    }
  ],
  "Issued": {
    "Date": "2019-09-20"
  }
}