{
  "Title": "RHSA-2019:2336: unixODBC security update (Moderate)",
  "Description": "The unixODBC packages contain a framework that supports accessing databases through the ODBC protocol.\nSecurity Fix(es):\n* unixODBC: Buffer overflow in unicode_to_ansi_copy() can lead to crash or other unspecified impact (CVE-2018-7409)\n* unixODBC: Insecure buffer copy in SQLWriteFileDSN function in odbcinst/SQLWriteFileDSN.c (CVE-2018-7485)\nFor more details about the security issue(s), including the impact, a CVSS score, acknowledgments, and other related information, refer to the CVE page(s) listed in the References section.\nAdditional Changes:\nFor detailed information on changes in this release, see the Red Hat Enterprise Linux 7.7 Release Notes linked from the References section.",
  "Platform": [
    "Red Hat Enterprise Linux 7"
  ],
  "References": [
    {
      "Source": "RHSA",
      "URI": "https://access.redhat.com/errata/RHSA-2019:2336",
      "ID": "RHSA-2019:2336"
    },
    {
      "Source": "CVE",
      "URI": "https://access.redhat.com/security/cve/CVE-2018-7409",
      "ID": "CVE-2018-7409"
    },
    {
      "Source": "CVE",
      "URI": "https://access.redhat.com/security/cve/CVE-2018-7485",
      "ID": "CVE-2018-7485"
    }
  ],
  "Criteria": {
    "Operator": "OR",
    "Criterias": [
      {
        "Operator": "AND",
        "Criterias": [
          {
            "Operator": "OR",
            "Criterias": [
              {
                "Operator": "AND",
                "Criterias": [

                ],
                "Criterions": [
                  {
                    "Comment": "unixODBC is earlier than 0:2.3.1-14.el7"
                  },
                  {
                    "Comment": "unixODBC is signed with Red Hat redhatrelease2 key"
                  }
                ]
              },
              {
                "Operator": "AND",
                "Criterias": [

                ],
                "Criterions": [
                  {
                    "Comment": "unixODBC-devel is earlier than 0:2.3.1-14.el7"
                  },
                  {
                    "Comment": "unixODBC-devel is signed with Red Hat redhatrelease2 key"
                  }
                ]
              }
            ],
            "Criterions": [

            ]
          }
        ],
        "Criterions": [
          {
            "Comment": "Oracle Linux 7 is installed"
          }
        ]
      }
    ],
    "Criterions": [
      {
        "Comment": "Oracle Linux 7 is installed"
      }
    ]
  },
  "Severity": "Moderate",
  "Cves": [
    {
      "Impact": "",
      "Href": "",
      "ID": "CVE-2018-7409"
    },
    {
      "Impact": "",
      "Href": "",
      "ID": "CVE-2018-7485"
    }
  ],
  "Issued": {
    "Date": "2019-08-06"
  }
}