{
  "Title": "RHSA-2019:0983: wget security update (Important)",
  "Description": "The wget packages provide the GNU Wget file retrieval utility for HTTP, HTTPS, and FTP protocols.\nSecurity Fix(es):\n* wget: do_conversion() heap-based buffer overflow vulnerability (CVE-2019-5953)\nFor more details about the security issue(s), including the impact, a CVSS score, acknowledgments, and other related information, refer to the CVE page(s) listed in the References section.",
  "Platform": [
    "Red Hat Enterprise Linux 8"
  ],
  "References": [
    {
      "Source": "RHSA",
      "URI": "https://access.redhat.com/errata/RHSA-2019:0983",
      "ID": "RHSA-2019:0983"
    },
    {
      "Source": "CVE",
      "URI": "https://access.redhat.com/security/cve/CVE-2019-5953",
      "ID": "CVE-2019-5953"
    }
  ],
  "Criteria": {
    "Operator": "OR",
    "Criterias": [
      {
        "Operator": "AND",
        "Criterias": [
          {
            "Operator": "OR",
            "Criterias": [

            ],
            "Criterions": [
              {
                "Comment": "Oracle Linux 8 is installed"
              },
              {
                "Comment": "Red Hat CoreOS 4 is installed"
              }
            ]
          }
        ],
        "Criterions": [
          {
            "Comment": "wget is earlier than 0:1.19.5-7.el8_0.1"
          },
          {
            "Comment": "wget is signed with Red Hat redhatrelease2 key"
          }
        ]
      }
    ],
    "Criterions": [
      {
        "Comment": "Oracle Linux 8 is installed"
      }
    ]
  },
  "Severity": "Important",
  "Cves": [
    {
      "Impact": "",
      "Href": "",
      "ID": "CVE-2019-5953"
    }
  ],
  "Issued": {
    "Date": "2019-05-07"
  }
}