{
  "Title": "RHSA-2019:4205: thunderbird security update (Important)",
  "Description": "Mozilla Thunderbird is a standalone mail and newsgroup client.\nThis update upgrades Thunderbird to version 68.3.0.\nSecurity Fix(es):\n* Mozilla: Use-after-free in worker destruction (CVE-2019-17008)\n* Mozilla: Memory safety bugs fixed in Firefox 71 and Firefox ESR 68.3 (CVE-2019-17012)\n* Mozilla: Buffer overflow in plain text serializer (CVE-2019-17005)\n* Mozilla: Use-after-free when performing device orientation checks (CVE-2019-17010)\n* Mozilla: Use-after-free when retrieving a document in antitracking (CVE-2019-17011)\nFor more details about the security issue(s), including the impact, a CVSS score, acknowledgments, and other related information, refer to the CVE page(s) listed in the References section.",
  "Platform": [
    "Red Hat Enterprise Linux 6"
  ],
  "References": [
    {
      "Source": "RHSA",
      "URI": "https://access.redhat.com/errata/RHSA-2019:4205",
      "ID": "RHSA-2019:4205"
    },
    {
      "Source": "CVE",
      "URI": "https://access.redhat.com/security/cve/CVE-2019-17005",
      "ID": "CVE-2019-17005"
    },
    {
      "Source": "CVE",
      "URI": "https://access.redhat.com/security/cve/CVE-2019-17008",
      "ID": "CVE-2019-17008"
    },
    {
      "Source": "CVE",
      "URI": "https://access.redhat.com/security/cve/CVE-2019-17010",
      "ID": "CVE-2019-17010"
    },
    {
      "Source": "CVE",
      "URI": "https://access.redhat.com/security/cve/CVE-2019-17011",
      "ID": "CVE-2019-17011"
    },
    {
      "Source": "CVE",
      "URI": "https://access.redhat.com/security/cve/CVE-2019-17012",
      "ID": "CVE-2019-17012"
    }
  ],
  "Criteria": {
    "Operator": "OR",
    "Criterias": [
      {
        "Operator": "AND",
        "Criterias": [

        ],
        "Criterions": [
          {
            "Comment": "Oracle Linux 6 is installed"
          },
          {
            "Comment": "thunderbird is earlier than 0:68.3.0-3.el6_10"
          },
          {
            "Comment": "thunderbird is signed with Red Hat redhatrelease2 key"
          }
        ]
      }
    ],
    "Criterions": [
      {
        "Comment": "Oracle Linux 6 is installed"
      }
    ]
  },
  "Severity": "Important",
  "Cves": [
    {
      "Impact": "",
      "Href": "",
      "ID": "CVE-2019-17005"
    },
    {
      "Impact": "",
      "Href": "",
      "ID": "CVE-2019-17008"
    },
    {
      "Impact": "",
      "Href": "",
      "ID": "CVE-2019-17010"
    },
    {
      "Impact": "",
      "Href": "",
      "ID": "CVE-2019-17011"
    },
    {
      "Impact": "",
      "Href": "",
      "ID": "CVE-2019-17012"
    }
  ],
  "Issued": {
    "Date": "2019-12-11"
  }
}