{
  "Title": "RHSA-2019:2035: python-requests security update (Low)",
  "Description": "The python-requests package contains a library designed to make HTTP requests easy for developers.\nSecurity Fix(es):\n* python-requests: Redirect from HTTPS to HTTP does not remove Authorization header (CVE-2018-18074)\nFor more details about the security issue(s), including the impact, a CVSS score, acknowledgments, and other related information, refer to the CVE page(s) listed in the References section.\nAdditional Changes:\nFor detailed information on changes in this release, see the Red Hat Enterprise Linux 7.7 Release Notes linked from the References section.",
  "Platform": [
    "Red Hat Enterprise Linux 7"
  ],
  "References": [
    {
      "Source": "RHSA",
      "URI": "https://access.redhat.com/errata/RHSA-2019:2035",
      "ID": "RHSA-2019:2035"
    },
    {
      "Source": "CVE",
      "URI": "https://access.redhat.com/security/cve/CVE-2018-18074",
      "ID": "CVE-2018-18074"
    }
  ],
  "Criteria": {
    "Operator": "OR",
    "Criterias": [
      {
        "Operator": "AND",
        "Criterias": [

        ],
        "Criterions": [
          {
            "Comment": "Oracle Linux 7 is installed"
          },
          {
            "Comment": "python-requests is earlier than 0:2.6.0-5.el7"
          },
          {
            "Comment": "python-requests is signed with Red Hat redhatrelease2 key"
          }
        ]
      }
    ],
    "Criterions": [
      {
        "Comment": "Oracle Linux 7 is installed"
      }
    ]
  },
  "Severity": "Low",
  "Cves": [
    {
      "Impact": "",
      "Href": "",
      "ID": "CVE-2018-18074"
    }
  ],
  "Issued": {
    "Date": "2019-08-06"
  }
}