{
  "Title": "RHSA-2019:1763: firefox security update (Critical)",
  "Description": "Mozilla Firefox is an open-source web browser, designed for standards compliance, performance, and portability.\nThis update upgrades Firefox to version 60.8.0 ESR.\nSecurity Fix(es):\n* Mozilla: Memory safety bugs fixed in Firefox 68 and Firefox ESR 60.8 (CVE-2019-11709)\n* Mozilla: Sandbox escape via installation of malicious language pack (CVE-2019-9811)\n* Mozilla: Script injection within domain through inner window reuse (CVE-2019-11711)\n* Mozilla: Cross-origin POST requests can be made with NPAPI plugins by following 308 redirects (CVE-2019-11712)\n* Mozilla: Use-after-free with HTTP/2 cached stream (CVE-2019-11713)\n* Mozilla: HTML parsing error can contribute to content XSS (CVE-2019-11715)\n* Mozilla: Caret character improperly escaped in origins (CVE-2019-11717)\n* Mozilla: Same-origin policy treats all files in a directory as having the same-origin (CVE-2019-11730)\nFor more details about the security issue(s), including the impact, a CVSS score, acknowledgments, and other related information, refer to the CVE page(s) listed in the References section.",
  "Platform": [
    "Red Hat Enterprise Linux 7"
  ],
  "References": [
    {
      "Source": "RHSA",
      "URI": "https://access.redhat.com/errata/RHSA-2019:1763",
      "ID": "RHSA-2019:1763"
    },
    {
      "Source": "CVE",
      "URI": "https://access.redhat.com/security/cve/CVE-2019-11709",
      "ID": "CVE-2019-11709"
    },
    {
      "Source": "CVE",
      "URI": "https://access.redhat.com/security/cve/CVE-2019-11711",
      "ID": "CVE-2019-11711"
    },
    {
      "Source": "CVE",
      "URI": "https://access.redhat.com/security/cve/CVE-2019-11712",
      "ID": "CVE-2019-11712"
    },
    {
      "Source": "CVE",
      "URI": "https://access.redhat.com/security/cve/CVE-2019-11713",
      "ID": "CVE-2019-11713"
    },
    {
      "Source": "CVE",
      "URI": "https://access.redhat.com/security/cve/CVE-2019-11715",
      "ID": "CVE-2019-11715"
    },
    {
      "Source": "CVE",
      "URI": "https://access.redhat.com/security/cve/CVE-2019-11717",
      "ID": "CVE-2019-11717"
    },
    {
      "Source": "CVE",
      "URI": "https://access.redhat.com/security/cve/CVE-2019-11730",
      "ID": "CVE-2019-11730"
    },
    {
      "Source": "CVE",
      "URI": "https://access.redhat.com/security/cve/CVE-2019-9811",
      "ID": "CVE-2019-9811"
    }
  ],
  "Criteria": {
    "Operator": "OR",
    "Criterias": [
      {
        "Operator": "AND",
        "Criterias": [

        ],
        "Criterions": [
          {
            "Comment": "Oracle Linux 7 is installed"
          },
          {
            "Comment": "firefox is earlier than 0:60.8.0-1.el7_6"
          },
          {
            "Comment": "firefox is signed with Red Hat redhatrelease2 key"
          }
        ]
      }
    ],
    "Criterions": [
      {
        "Comment": "Oracle Linux 7 is installed"
      }
    ]
  },
  "Severity": "Critical",
  "Cves": [
    {
      "Impact": "",
      "Href": "",
      "ID": "CVE-2019-11709"
    },
    {
      "Impact": "",
      "Href": "",
      "ID": "CVE-2019-11711"
    },
    {
      "Impact": "",
      "Href": "",
      "ID": "CVE-2019-11712"
    },
    {
      "Impact": "",
      "Href": "",
      "ID": "CVE-2019-11713"
    },
    {
      "Impact": "",
      "Href": "",
      "ID": "CVE-2019-11715"
    },
    {
      "Impact": "",
      "Href": "",
      "ID": "CVE-2019-11717"
    },
    {
      "Impact": "",
      "Href": "",
      "ID": "CVE-2019-11730"
    },
    {
      "Impact": "",
      "Href": "",
      "ID": "CVE-2019-9811"
    }
  ],
  "Issued": {
    "Date": "2019-07-11"
  }
}