{
  "Title": "RHSA-2019:1146: java-1.8.0-openjdk security update (Important)",
  "Description": "The java-1.8.0-openjdk packages provide the OpenJDK 8 Java Runtime Environment and the OpenJDK 8 Java Software Development Kit.\nSecurity Fix(es):\n* OpenJDK: Font layout engine out of bounds access setCurrGlyphID() (2D, 8219022) (CVE-2019-2698)\n* OpenJDK: Slow conversion of BigDecimal to long (Libraries, 8211936) (CVE-2019-2602)\n* OpenJDK: Incorrect skeleton selection in RMI registry server-side dispatch handling (RMI, 8218453) (CVE-2019-2684)\nFor more details about the security issue(s), including the impact, a CVSS score, acknowledgments, and other related information, refer to the CVE page(s) listed in the References section.",
  "Platform": [
    "Red Hat Enterprise Linux 8"
  ],
  "References": [
    {
      "Source": "RHSA",
      "URI": "https://access.redhat.com/errata/RHSA-2019:1146",
      "ID": "RHSA-2019:1146"
    },
    {
      "Source": "CVE",
      "URI": "https://access.redhat.com/security/cve/CVE-2019-2602",
      "ID": "CVE-2019-2602"
    },
    {
      "Source": "CVE",
      "URI": "https://access.redhat.com/security/cve/CVE-2019-2684",
      "ID": "CVE-2019-2684"
    },
    {
      "Source": "CVE",
      "URI": "https://access.redhat.com/security/cve/CVE-2019-2698",
      "ID": "CVE-2019-2698"
    }
  ],
  "Criteria": {
    "Operator": "OR",
    "Criterias": [
      {
        "Operator": "AND",
        "Criterias": [
          {
            "Operator": "OR",
            "Criterias": [

            ],
            "Criterions": [
              {
                "Comment": "Oracle Linux 8 is installed"
              },
              {
                "Comment": "Red Hat CoreOS 4 is installed"
              }
            ]
          },
          {
            "Operator": "OR",
            "Criterias": [
              {
                "Operator": "AND",
                "Criterias": [

                ],
                "Criterions": [
                  {
                    "Comment": "java-1.8.0-openjdk is earlier than 1:1.8.0.212.b04-1.el8_0"
                  },
                  {
                    "Comment": "java-1.8.0-openjdk is signed with Red Hat redhatrelease2 key"
                  }
                ]
              },
              {
                "Operator": "AND",
                "Criterias": [

                ],
                "Criterions": [
                  {
                    "Comment": "java-1.8.0-openjdk-accessibility is earlier than 1:1.8.0.212.b04-1.el8_0"
                  },
                  {
                    "Comment": "java-1.8.0-openjdk-accessibility is signed with Red Hat redhatrelease2 key"
                  }
                ]
              },
              {
                "Operator": "AND",
                "Criterias": [

                ],
                "Criterions": [
                  {
                    "Comment": "java-1.8.0-openjdk-demo is earlier than 1:1.8.0.212.b04-1.el8_0"
                  },
                  {
                    "Comment": "java-1.8.0-openjdk-demo is signed with Red Hat redhatrelease2 key"
                  }
                ]
              },
              {
                "Operator": "AND",
                "Criterias": [

                ],
                "Criterions": [
                  {
                    "Comment": "java-1.8.0-openjdk-devel is earlier than 1:1.8.0.212.b04-1.el8_0"
                  },
                  {
                    "Comment": "java-1.8.0-openjdk-devel is signed with Red Hat redhatrelease2 key"
                  }
                ]
              },
              {
                "Operator": "AND",
                "Criterias": [

                ],
                "Criterions": [
                  {
                    "Comment": "java-1.8.0-openjdk-headless is earlier than 1:1.8.0.212.b04-1.el8_0"
                  },
                  {
                    "Comment": "java-1.8.0-openjdk-headless is signed with Red Hat redhatrelease2 key"
                  }
                ]
              },
              {
                "Operator": "AND",
                "Criterias": [

                ],
                "Criterions": [
                  {
                    "Comment": "java-1.8.0-openjdk-javadoc is earlier than 1:1.8.0.212.b04-1.el8_0"
                  },
                  {
                    "Comment": "java-1.8.0-openjdk-javadoc is signed with Red Hat redhatrelease2 key"
                  }
                ]
              },
              {
                "Operator": "AND",
                "Criterias": [

                ],
                "Criterions": [
                  {
                    "Comment": "java-1.8.0-openjdk-javadoc-zip is earlier than 1:1.8.0.212.b04-1.el8_0"
                  },
                  {
                    "Comment": "java-1.8.0-openjdk-javadoc-zip is signed with Red Hat redhatrelease2 key"
                  }
                ]
              },
              {
                "Operator": "AND",
                "Criterias": [

                ],
                "Criterions": [
                  {
                    "Comment": "java-1.8.0-openjdk-src is earlier than 1:1.8.0.212.b04-1.el8_0"
                  },
                  {
                    "Comment": "java-1.8.0-openjdk-src is signed with Red Hat redhatrelease2 key"
                  }
                ]
              }
            ],
            "Criterions": [

            ]
          }
        ],
        "Criterions": [

        ]
      }
    ],
    "Criterions": [
      {
        "Comment": "Oracle Linux 8 is installed"
      }
    ]
  },
  "Severity": "Important",
  "Cves": [
    {
      "Impact": "",
      "Href": "",
      "ID": "CVE-2019-2602"
    },
    {
      "Impact": "",
      "Href": "",
      "ID": "CVE-2019-2684"
    },
    {
      "Impact": "",
      "Href": "",
      "ID": "CVE-2019-2698"
    }
  ],
  "Issued": {
    "Date": "2019-05-13"
  }
}