{
  "Title": "RHSA-2019:2471: openssl security update (Moderate)",
  "Description": "OpenSSL is a toolkit that implements the Secure Sockets Layer (SSL) and Transport Layer Security (TLS) protocols, as well as a full-strength general-purpose cryptography library.\nSecurity Fix(es):\n* openssl: 0-byte record padding oracle (CVE-2019-1559)\nFor more details about the security issue(s), including the impact, a CVSS score, acknowledgments, and other related information, refer to the CVE page(s) listed in the References section.",
  "Platform": [
    "Red Hat Enterprise Linux 6"
  ],
  "References": [
    {
      "Source": "RHSA",
      "URI": "https://access.redhat.com/errata/RHSA-2019:2471",
      "ID": "RHSA-2019:2471"
    },
    {
      "Source": "CVE",
      "URI": "https://access.redhat.com/security/cve/CVE-2019-1559",
      "ID": "CVE-2019-1559"
    }
  ],
  "Criteria": {
    "Operator": "OR",
    "Criterias": [
      {
        "Operator": "AND",
        "Criterias": [
          {
            "Operator": "OR",
            "Criterias": [
              {
                "Operator": "AND",
                "Criterias": [

                ],
                "Criterions": [
                  {
                    "Comment": "openssl is earlier than 0:1.0.1e-58.el6_10"
                  },
                  {
                    "Comment": "openssl is signed with Red Hat redhatrelease2 key"
                  }
                ]
              },
              {
                "Operator": "AND",
                "Criterias": [

                ],
                "Criterions": [
                  {
                    "Comment": "openssl-devel is earlier than 0:1.0.1e-58.el6_10"
                  },
                  {
                    "Comment": "openssl-devel is signed with Red Hat redhatrelease2 key"
                  }
                ]
              },
              {
                "Operator": "AND",
                "Criterias": [

                ],
                "Criterions": [
                  {
                    "Comment": "openssl-perl is earlier than 0:1.0.1e-58.el6_10"
                  },
                  {
                    "Comment": "openssl-perl is signed with Red Hat redhatrelease2 key"
                  }
                ]
              },
              {
                "Operator": "AND",
                "Criterias": [

                ],
                "Criterions": [
                  {
                    "Comment": "openssl-static is earlier than 0:1.0.1e-58.el6_10"
                  },
                  {
                    "Comment": "openssl-static is signed with Red Hat redhatrelease2 key"
                  }
                ]
              }
            ],
            "Criterions": [

            ]
          }
        ],
        "Criterions": [
          {
            "Comment": "Oracle Linux 6 is installed"
          }
        ]
      }
    ],
    "Criterions": [
      {
        "Comment": "Oracle Linux 6 is installed"
      }
    ]
  },
  "Severity": "Moderate",
  "Cves": [
    {
      "Impact": "",
      "Href": "",
      "ID": "CVE-2019-1559"
    }
  ],
  "Issued": {
    "Date": "2019-08-13"
  }
}