{
  "Title": "RHSA-2019:1652: libssh2 security update (Important)",
  "Description": "The libssh2 packages provide a library that implements the SSH2 protocol.\nSecurity Fix(es):\n* libssh2: Integer overflow in transport read resulting in out of bounds write (CVE-2019-3855)\n* libssh2: Integer overflow in keyboard interactive handling resulting in out of bounds write (CVE-2019-3856)\n* libssh2: Integer overflow in SSH packet processing channel resulting in out of bounds write (CVE-2019-3857)\n* libssh2: Integer overflow in user authenticate keyboard interactive allows out-of-bounds writes (CVE-2019-3863)\nFor more details about the security issue(s), including the impact, a CVSS score, acknowledgments, and other related information, refer to the CVE page(s) listed in the References section.",
  "Platform": [
    "Red Hat Enterprise Linux 6"
  ],
  "References": [
    {
      "Source": "RHSA",
      "URI": "https://access.redhat.com/errata/RHSA-2019:1652",
      "ID": "RHSA-2019:1652"
    },
    {
      "Source": "CVE",
      "URI": "https://access.redhat.com/security/cve/CVE-2019-3855",
      "ID": "CVE-2019-3855"
    },
    {
      "Source": "CVE",
      "URI": "https://access.redhat.com/security/cve/CVE-2019-3856",
      "ID": "CVE-2019-3856"
    },
    {
      "Source": "CVE",
      "URI": "https://access.redhat.com/security/cve/CVE-2019-3857",
      "ID": "CVE-2019-3857"
    },
    {
      "Source": "CVE",
      "URI": "https://access.redhat.com/security/cve/CVE-2019-3863",
      "ID": "CVE-2019-3863"
    }
  ],
  "Criteria": {
    "Operator": "OR",
    "Criterias": [
      {
        "Operator": "AND",
        "Criterias": [
          {
            "Operator": "OR",
            "Criterias": [
              {
                "Operator": "AND",
                "Criterias": [

                ],
                "Criterions": [
                  {
                    "Comment": "libssh2 is earlier than 0:1.4.2-3.el6_10.1"
                  },
                  {
                    "Comment": "libssh2 is signed with Red Hat redhatrelease2 key"
                  }
                ]
              },
              {
                "Operator": "AND",
                "Criterias": [

                ],
                "Criterions": [
                  {
                    "Comment": "libssh2-devel is earlier than 0:1.4.2-3.el6_10.1"
                  },
                  {
                    "Comment": "libssh2-devel is signed with Red Hat redhatrelease2 key"
                  }
                ]
              },
              {
                "Operator": "AND",
                "Criterias": [

                ],
                "Criterions": [
                  {
                    "Comment": "libssh2-docs is earlier than 0:1.4.2-3.el6_10.1"
                  },
                  {
                    "Comment": "libssh2-docs is signed with Red Hat redhatrelease2 key"
                  }
                ]
              }
            ],
            "Criterions": [

            ]
          }
        ],
        "Criterions": [
          {
            "Comment": "Oracle Linux 6 is installed"
          }
        ]
      }
    ],
    "Criterions": [
      {
        "Comment": "Oracle Linux 6 is installed"
      }
    ]
  },
  "Severity": "Important",
  "Cves": [
    {
      "Impact": "",
      "Href": "",
      "ID": "CVE-2019-3855"
    },
    {
      "Impact": "",
      "Href": "",
      "ID": "CVE-2019-3856"
    },
    {
      "Impact": "",
      "Href": "",
      "ID": "CVE-2019-3857"
    },
    {
      "Impact": "",
      "Href": "",
      "ID": "CVE-2019-3863"
    }
  ],
  "Issued": {
    "Date": "2019-07-02"
  }
}