{
  "Title": "RHSA-2019:1619: vim security update (Important)",
  "Description": "Vim (Vi IMproved) is an updated and improved version of the vi editor.\nSecurity Fix(es):\n* vim/neovim: ':source!' command allows arbitrary command execution via modelines (CVE-2019-12735)\nFor more details about the security issue(s), including the impact, a CVSS score, acknowledgments, and other related information, refer to the CVE page(s) listed in the References section.",
  "Platform": [
    "Red Hat Enterprise Linux 7",
    "Red Hat Enterprise Linux 8"
  ],
  "References": [
    {
      "Source": "RHSA",
      "URI": "https://access.redhat.com/errata/RHSA-2019:1619",
      "ID": "RHSA-2019:1619"
    },
    {
      "Source": "CVE",
      "URI": "https://access.redhat.com/security/cve/CVE-2019-12735",
      "ID": "CVE-2019-12735"
    }
  ],
  "Criteria": {
    "Operator": "OR",
    "Criterias": [
      {
        "Operator": "AND",
        "Criterias": [
          {
            "Operator": "OR",
            "Criterias": [
              {
                "Operator": "AND",
                "Criterias": [

                ],
                "Criterions": [
                  {
                    "Comment": "vim-X11 is earlier than 2:7.4.160-6.el7_6"
                  },
                  {
                    "Comment": "vim-X11 is signed with Red Hat redhatrelease2 key"
                  }
                ]
              },
              {
                "Operator": "AND",
                "Criterias": [

                ],
                "Criterions": [
                  {
                    "Comment": "vim-common is earlier than 2:7.4.160-6.el7_6"
                  },
                  {
                    "Comment": "vim-common is signed with Red Hat redhatrelease2 key"
                  }
                ]
              },
              {
                "Operator": "AND",
                "Criterias": [

                ],
                "Criterions": [
                  {
                    "Comment": "vim-enhanced is earlier than 2:7.4.160-6.el7_6"
                  },
                  {
                    "Comment": "vim-enhanced is signed with Red Hat redhatrelease2 key"
                  }
                ]
              },
              {
                "Operator": "AND",
                "Criterias": [

                ],
                "Criterions": [
                  {
                    "Comment": "vim-filesystem is earlier than 2:7.4.160-6.el7_6"
                  },
                  {
                    "Comment": "vim-filesystem is signed with Red Hat redhatrelease2 key"
                  }
                ]
              },
              {
                "Operator": "AND",
                "Criterias": [

                ],
                "Criterions": [
                  {
                    "Comment": "vim-minimal is earlier than 2:7.4.160-6.el7_6"
                  },
                  {
                    "Comment": "vim-minimal is signed with Red Hat redhatrelease2 key"
                  }
                ]
              }
            ],
            "Criterions": [

            ]
          }
        ],
        "Criterions": [
          {
            "Comment": "Oracle Linux 7 is installed"
          }
        ]
      },
      {
        "Operator": "AND",
        "Criterias": [
          {
            "Operator": "OR",
            "Criterias": [

            ],
            "Criterions": [
              {
                "Comment": "Oracle Linux 8 is installed"
              },
              {
                "Comment": "Red Hat CoreOS 4 is installed"
              }
            ]
          },
          {
            "Operator": "OR",
            "Criterias": [
              {
                "Operator": "AND",
                "Criterias": [

                ],
                "Criterions": [
                  {
                    "Comment": "vim-X11 is earlier than 2:8.0.1763-11.el8_0"
                  },
                  {
                    "Comment": "vim-X11 is signed with Red Hat redhatrelease2 key"
                  }
                ]
              },
              {
                "Operator": "AND",
                "Criterias": [

                ],
                "Criterions": [
                  {
                    "Comment": "vim-common is earlier than 2:8.0.1763-11.el8_0"
                  },
                  {
                    "Comment": "vim-common is signed with Red Hat redhatrelease2 key"
                  }
                ]
              },
              {
                "Operator": "AND",
                "Criterias": [

                ],
                "Criterions": [
                  {
                    "Comment": "vim-enhanced is earlier than 2:8.0.1763-11.el8_0"
                  },
                  {
                    "Comment": "vim-enhanced is signed with Red Hat redhatrelease2 key"
                  }
                ]
              },
              {
                "Operator": "AND",
                "Criterias": [

                ],
                "Criterions": [
                  {
                    "Comment": "vim-filesystem is earlier than 2:8.0.1763-11.el8_0"
                  },
                  {
                    "Comment": "vim-filesystem is signed with Red Hat redhatrelease2 key"
                  }
                ]
              },
              {
                "Operator": "AND",
                "Criterias": [

                ],
                "Criterions": [
                  {
                    "Comment": "vim-minimal is earlier than 2:8.0.1763-11.el8_0"
                  },
                  {
                    "Comment": "vim-minimal is signed with Red Hat redhatrelease2 key"
                  }
                ]
              }
            ],
            "Criterions": [

            ]
          }
        ],
        "Criterions": [

        ]
      }
    ],
    "Criterions": [
      {
        "Comment": "Oracle Linux 7 is installed"
      }
    ]
  },
  "Severity": "Important",
  "Cves": [
    {
      "Impact": "",
      "Href": "",
      "ID": "CVE-2019-12735"
    }
  ],
  "Issued": {
    "Date": "2019-06-27"
  }
}