{
  "Title": "RHSA-2019:3575: elfutils security, bug fix, and enhancement update (Low)",
  "Description": "The elfutils packages contain a number of utility programs and libraries related to the creation and maintenance of executable code.\nThe following packages have been upgraded to a later upstream version: elfutils (0.176). (BZ#1683705)\nSecurity Fix(es):\n* elfutils: buffer over-read in the ebl_object_note function in eblobjnote.c in libebl (CVE-2019-7146)\n* elfutils: heap-based buffer over-read in read_srclines in dwarf_getsrclines.c in libdw (CVE-2019-7149)\n* elfutils: segmentation fault in elf64_xlatetom in libelf/elf32_xlatetom.c (CVE-2019-7150)\n* elfutils: out of bound write in elf_cvt_note in libelf/note_xlate.h (CVE-2019-7664)\n* elfutils: heap-based buffer over-read in function elf32_xlatetom in elf32_xlatetom.c (CVE-2019-7665)\nFor more details about the security issue(s), including the impact, a CVSS score, acknowledgments, and other related information, refer to the CVE page(s) listed in the References section.\nAdditional Changes:\nFor detailed information on changes in this release, see the Red Hat Enterprise Linux 8.1 Release Notes linked from the References section.",
  "Platform": [
    "Red Hat Enterprise Linux 8"
  ],
  "References": [
    {
      "Source": "RHSA",
      "URI": "https://access.redhat.com/errata/RHSA-2019:3575",
      "ID": "RHSA-2019:3575"
    },
    {
      "Source": "CVE",
      "URI": "https://access.redhat.com/security/cve/CVE-2019-7146",
      "ID": "CVE-2019-7146"
    },
    {
      "Source": "CVE",
      "URI": "https://access.redhat.com/security/cve/CVE-2019-7149",
      "ID": "CVE-2019-7149"
    },
    {
      "Source": "CVE",
      "URI": "https://access.redhat.com/security/cve/CVE-2019-7150",
      "ID": "CVE-2019-7150"
    },
    {
      "Source": "CVE",
      "URI": "https://access.redhat.com/security/cve/CVE-2019-7664",
      "ID": "CVE-2019-7664"
    },
    {
      "Source": "CVE",
      "URI": "https://access.redhat.com/security/cve/CVE-2019-7665",
      "ID": "CVE-2019-7665"
    }
  ],
  "Criteria": {
    "Operator": "OR",
    "Criterias": [
      {
        "Operator": "AND",
        "Criterias": [
          {
            "Operator": "OR",
            "Criterias": [

            ],
            "Criterions": [
              {
                "Comment": "Oracle Linux 8 is installed"
              },
              {
                "Comment": "Red Hat CoreOS 4 is installed"
              }
            ]
          },
          {
            "Operator": "OR",
            "Criterias": [
              {
                "Operator": "AND",
                "Criterias": [

                ],
                "Criterions": [
                  {
                    "Comment": "elfutils is earlier than 0:0.176-5.el8"
                  },
                  {
                    "Comment": "elfutils is signed with Red Hat redhatrelease2 key"
                  }
                ]
              },
              {
                "Operator": "AND",
                "Criterias": [

                ],
                "Criterions": [
                  {
                    "Comment": "elfutils-default-yama-scope is earlier than 0:0.176-5.el8"
                  },
                  {
                    "Comment": "elfutils-default-yama-scope is signed with Red Hat redhatrelease2 key"
                  }
                ]
              },
              {
                "Operator": "AND",
                "Criterias": [

                ],
                "Criterions": [
                  {
                    "Comment": "elfutils-devel is earlier than 0:0.176-5.el8"
                  },
                  {
                    "Comment": "elfutils-devel is signed with Red Hat redhatrelease2 key"
                  }
                ]
              },
              {
                "Operator": "AND",
                "Criterias": [

                ],
                "Criterions": [
                  {
                    "Comment": "elfutils-devel-static is earlier than 0:0.176-5.el8"
                  },
                  {
                    "Comment": "elfutils-devel-static is signed with Red Hat redhatrelease2 key"
                  }
                ]
              },
              {
                "Operator": "AND",
                "Criterias": [

                ],
                "Criterions": [
                  {
                    "Comment": "elfutils-libelf is earlier than 0:0.176-5.el8"
                  },
                  {
                    "Comment": "elfutils-libelf is signed with Red Hat redhatrelease2 key"
                  }
                ]
              },
              {
                "Operator": "AND",
                "Criterias": [

                ],
                "Criterions": [
                  {
                    "Comment": "elfutils-libelf-devel is earlier than 0:0.176-5.el8"
                  },
                  {
                    "Comment": "elfutils-libelf-devel is signed with Red Hat redhatrelease2 key"
                  }
                ]
              },
              {
                "Operator": "AND",
                "Criterias": [

                ],
                "Criterions": [
                  {
                    "Comment": "elfutils-libelf-devel-static is earlier than 0:0.176-5.el8"
                  },
                  {
                    "Comment": "elfutils-libelf-devel-static is signed with Red Hat redhatrelease2 key"
                  }
                ]
              },
              {
                "Operator": "AND",
                "Criterias": [

                ],
                "Criterions": [
                  {
                    "Comment": "elfutils-libs is earlier than 0:0.176-5.el8"
                  },
                  {
                    "Comment": "elfutils-libs is signed with Red Hat redhatrelease2 key"
                  }
                ]
              }
            ],
            "Criterions": [

            ]
          }
        ],
        "Criterions": [

        ]
      }
    ],
    "Criterions": [
      {
        "Comment": "Oracle Linux 8 is installed"
      }
    ]
  },
  "Severity": "Low",
  "Cves": [
    {
      "Impact": "",
      "Href": "",
      "ID": "CVE-2019-7146"
    },
    {
      "Impact": "",
      "Href": "",
      "ID": "CVE-2019-7149"
    },
    {
      "Impact": "",
      "Href": "",
      "ID": "CVE-2019-7150"
    },
    {
      "Impact": "",
      "Href": "",
      "ID": "CVE-2019-7664"
    },
    {
      "Impact": "",
      "Href": "",
      "ID": "CVE-2019-7665"
    }
  ],
  "Issued": {
    "Date": "2019-11-05"
  }
}