{
  "Title": "RHSA-2019:3281: firefox security update (Critical)",
  "Description": "Mozilla Firefox is an open-source web browser, designed for standards compliance, performance, and portability.\nThis update upgrades Firefox to version 68.2.0 ESR.\nSecurity Fix(es):\n* Mozilla: Memory safety bugs fixed in Firefox 70 and Firefox ESR 68.2 (CVE-2019-11764)\n* Mozilla: Use-after-free when creating index updates in IndexedDB (CVE-2019-11757)\n* Mozilla: Potentially exploitable crash due to 360 Total Security (CVE-2019-11758)\n* Mozilla: Stack buffer overflow in HKDF output (CVE-2019-11759)\n* Mozilla: Stack buffer overflow in WebRTC networking (CVE-2019-11760)\n* Mozilla: Unintended access to a privileged JSONView object (CVE-2019-11761)\n* Mozilla: document.domain-based origin isolation has same-origin-property violation (CVE-2019-11762)\n* Mozilla: Incorrect HTML parsing results in XSS bypass technique (CVE-2019-11763)\nFor more details about the security issue(s), including the impact, a CVSS score, acknowledgments, and other related information, refer to the CVE page(s) listed in the References section.",
  "Platform": [
    "Red Hat Enterprise Linux 6"
  ],
  "References": [
    {
      "Source": "RHSA",
      "URI": "https://access.redhat.com/errata/RHSA-2019:3281",
      "ID": "RHSA-2019:3281"
    },
    {
      "Source": "CVE",
      "URI": "https://access.redhat.com/security/cve/CVE-2019-11757",
      "ID": "CVE-2019-11757"
    },
    {
      "Source": "CVE",
      "URI": "https://access.redhat.com/security/cve/CVE-2019-11758",
      "ID": "CVE-2019-11758"
    },
    {
      "Source": "CVE",
      "URI": "https://access.redhat.com/security/cve/CVE-2019-11759",
      "ID": "CVE-2019-11759"
    },
    {
      "Source": "CVE",
      "URI": "https://access.redhat.com/security/cve/CVE-2019-11760",
      "ID": "CVE-2019-11760"
    },
    {
      "Source": "CVE",
      "URI": "https://access.redhat.com/security/cve/CVE-2019-11761",
      "ID": "CVE-2019-11761"
    },
    {
      "Source": "CVE",
      "URI": "https://access.redhat.com/security/cve/CVE-2019-11762",
      "ID": "CVE-2019-11762"
    },
    {
      "Source": "CVE",
      "URI": "https://access.redhat.com/security/cve/CVE-2019-11763",
      "ID": "CVE-2019-11763"
    },
    {
      "Source": "CVE",
      "URI": "https://access.redhat.com/security/cve/CVE-2019-11764",
      "ID": "CVE-2019-11764"
    }
  ],
  "Criteria": {
    "Operator": "OR",
    "Criterias": [
      {
        "Operator": "AND",
        "Criterias": [

        ],
        "Criterions": [
          {
            "Comment": "Oracle Linux 6 is installed"
          },
          {
            "Comment": "firefox is earlier than 0:68.2.0-4.el6_10"
          },
          {
            "Comment": "firefox is signed with Red Hat redhatrelease2 key"
          }
        ]
      }
    ],
    "Criterions": [
      {
        "Comment": "Oracle Linux 6 is installed"
      }
    ]
  },
  "Severity": "Critical",
  "Cves": [
    {
      "Impact": "",
      "Href": "",
      "ID": "CVE-2019-11757"
    },
    {
      "Impact": "",
      "Href": "",
      "ID": "CVE-2019-11758"
    },
    {
      "Impact": "",
      "Href": "",
      "ID": "CVE-2019-11759"
    },
    {
      "Impact": "",
      "Href": "",
      "ID": "CVE-2019-11760"
    },
    {
      "Impact": "",
      "Href": "",
      "ID": "CVE-2019-11761"
    },
    {
      "Impact": "",
      "Href": "",
      "ID": "CVE-2019-11762"
    },
    {
      "Impact": "",
      "Href": "",
      "ID": "CVE-2019-11763"
    },
    {
      "Impact": "",
      "Href": "",
      "ID": "CVE-2019-11764"
    }
  ],
  "Issued": {
    "Date": "2019-10-31"
  }
}