{
  "Title": "RHSA-2019:1238: java-1.8.0-ibm security update (Critical)",
  "Description": "IBM Java SE version 8 includes the IBM Java Runtime Environment and the IBM Java Software Development Kit.\nThis update upgrades IBM Java SE 8 to version 8 SR5-FP35.\nSecurity Fix(es):\n* IBM JDK: buffer overflow in jio_snprintf() and jio_vsnprintf() (CVE-2018-12547)\n* IBM JDK: missing null check when accelerating Unsafe calls (CVE-2018-12549)\n* Oracle JDK: Unspecified vulnerability fixed in 7u221 and 8u211 (2D) (CVE-2019-2697)\n* OpenJDK: Font layout engine out of bounds access setCurrGlyphID() (2D, 8219022) (CVE-2019-2698)\n* OpenJDK: memory disclosure in FileChannelImpl (Libraries, 8206290) (CVE-2019-2422)\n* OpenJDK: Slow conversion of BigDecimal to long (Libraries, 8211936) (CVE-2019-2602)\n* OpenJDK: Incorrect skeleton selection in RMI registry server-side dispatch handling (RMI, 8218453) (CVE-2019-2684)\n* IBM JDK: Read beyond the end of bytecode array causing JVM crash (CVE-2019-10245)\n* libjpeg-turbo: Divide By Zero in alloc_sarray function in jmemmgr.c (CVE-2018-11212)\n* Oracle JDK: unspecified vulnerability fixed in 8u201 (Deployment) (CVE-2019-2449)\nFor more details about the security issue(s), including the impact, a CVSS score, acknowledgments, and other related information, refer to the CVE page(s) listed in the References section.",
  "Platform": [
    "Red Hat Enterprise Linux 8"
  ],
  "References": [
    {
      "Source": "RHSA",
      "URI": "https://access.redhat.com/errata/RHSA-2019:1238",
      "ID": "RHSA-2019:1238"
    },
    {
      "Source": "CVE",
      "URI": "https://access.redhat.com/security/cve/CVE-2018-11212",
      "ID": "CVE-2018-11212"
    },
    {
      "Source": "CVE",
      "URI": "https://access.redhat.com/security/cve/CVE-2018-12547",
      "ID": "CVE-2018-12547"
    },
    {
      "Source": "CVE",
      "URI": "https://access.redhat.com/security/cve/CVE-2018-12549",
      "ID": "CVE-2018-12549"
    },
    {
      "Source": "CVE",
      "URI": "https://access.redhat.com/security/cve/CVE-2019-10245",
      "ID": "CVE-2019-10245"
    },
    {
      "Source": "CVE",
      "URI": "https://access.redhat.com/security/cve/CVE-2019-2422",
      "ID": "CVE-2019-2422"
    },
    {
      "Source": "CVE",
      "URI": "https://access.redhat.com/security/cve/CVE-2019-2449",
      "ID": "CVE-2019-2449"
    },
    {
      "Source": "CVE",
      "URI": "https://access.redhat.com/security/cve/CVE-2019-2602",
      "ID": "CVE-2019-2602"
    },
    {
      "Source": "CVE",
      "URI": "https://access.redhat.com/security/cve/CVE-2019-2684",
      "ID": "CVE-2019-2684"
    },
    {
      "Source": "CVE",
      "URI": "https://access.redhat.com/security/cve/CVE-2019-2697",
      "ID": "CVE-2019-2697"
    },
    {
      "Source": "CVE",
      "URI": "https://access.redhat.com/security/cve/CVE-2019-2698",
      "ID": "CVE-2019-2698"
    }
  ],
  "Criteria": {
    "Operator": "OR",
    "Criterias": [
      {
        "Operator": "AND",
        "Criterias": [
          {
            "Operator": "OR",
            "Criterias": [

            ],
            "Criterions": [
              {
                "Comment": "Oracle Linux 8 is installed"
              },
              {
                "Comment": "Red Hat CoreOS 4 is installed"
              }
            ]
          },
          {
            "Operator": "OR",
            "Criterias": [
              {
                "Operator": "AND",
                "Criterias": [

                ],
                "Criterions": [
                  {
                    "Comment": "java-1.8.0-ibm is earlier than 1:1.8.0.5.35-3.el8_0"
                  },
                  {
                    "Comment": "java-1.8.0-ibm is signed with Red Hat redhatrelease2 key"
                  }
                ]
              },
              {
                "Operator": "AND",
                "Criterias": [

                ],
                "Criterions": [
                  {
                    "Comment": "java-1.8.0-ibm-demo is earlier than 1:1.8.0.5.35-3.el8_0"
                  },
                  {
                    "Comment": "java-1.8.0-ibm-demo is signed with Red Hat redhatrelease2 key"
                  }
                ]
              },
              {
                "Operator": "AND",
                "Criterias": [

                ],
                "Criterions": [
                  {
                    "Comment": "java-1.8.0-ibm-devel is earlier than 1:1.8.0.5.35-3.el8_0"
                  },
                  {
                    "Comment": "java-1.8.0-ibm-devel is signed with Red Hat redhatrelease2 key"
                  }
                ]
              },
              {
                "Operator": "AND",
                "Criterias": [

                ],
                "Criterions": [
                  {
                    "Comment": "java-1.8.0-ibm-headless is earlier than 1:1.8.0.5.35-3.el8_0"
                  },
                  {
                    "Comment": "java-1.8.0-ibm-headless is signed with Red Hat redhatrelease2 key"
                  }
                ]
              },
              {
                "Operator": "AND",
                "Criterias": [

                ],
                "Criterions": [
                  {
                    "Comment": "java-1.8.0-ibm-jdbc is earlier than 1:1.8.0.5.35-3.el8_0"
                  },
                  {
                    "Comment": "java-1.8.0-ibm-jdbc is signed with Red Hat redhatrelease2 key"
                  }
                ]
              },
              {
                "Operator": "AND",
                "Criterias": [

                ],
                "Criterions": [
                  {
                    "Comment": "java-1.8.0-ibm-plugin is earlier than 1:1.8.0.5.35-3.el8_0"
                  },
                  {
                    "Comment": "java-1.8.0-ibm-plugin is signed with Red Hat redhatrelease2 key"
                  }
                ]
              },
              {
                "Operator": "AND",
                "Criterias": [

                ],
                "Criterions": [
                  {
                    "Comment": "java-1.8.0-ibm-src is earlier than 1:1.8.0.5.35-3.el8_0"
                  },
                  {
                    "Comment": "java-1.8.0-ibm-src is signed with Red Hat redhatrelease2 key"
                  }
                ]
              },
              {
                "Operator": "AND",
                "Criterias": [

                ],
                "Criterions": [
                  {
                    "Comment": "java-1.8.0-ibm-webstart is earlier than 1:1.8.0.5.35-3.el8_0"
                  },
                  {
                    "Comment": "java-1.8.0-ibm-webstart is signed with Red Hat redhatrelease2 key"
                  }
                ]
              }
            ],
            "Criterions": [

            ]
          }
        ],
        "Criterions": [

        ]
      }
    ],
    "Criterions": [
      {
        "Comment": "Oracle Linux 8 is installed"
      }
    ]
  },
  "Severity": "Critical",
  "Cves": [
    {
      "Impact": "",
      "Href": "",
      "ID": "CVE-2018-11212"
    },
    {
      "Impact": "",
      "Href": "",
      "ID": "CVE-2018-12547"
    },
    {
      "Impact": "",
      "Href": "",
      "ID": "CVE-2018-12549"
    },
    {
      "Impact": "",
      "Href": "",
      "ID": "CVE-2019-10245"
    },
    {
      "Impact": "",
      "Href": "",
      "ID": "CVE-2019-2422"
    },
    {
      "Impact": "",
      "Href": "",
      "ID": "CVE-2019-2449"
    },
    {
      "Impact": "",
      "Href": "",
      "ID": "CVE-2019-2602"
    },
    {
      "Impact": "",
      "Href": "",
      "ID": "CVE-2019-2684"
    },
    {
      "Impact": "",
      "Href": "",
      "ID": "CVE-2019-2697"
    },
    {
      "Impact": "",
      "Href": "",
      "ID": "CVE-2019-2698"
    }
  ],
  "Issued": {
    "Date": "2019-05-16"
  }
}