{
  "Title": "RHSA-2019:0966: firefox security update (Critical)",
  "Description": "Mozilla Firefox is an open-source web browser, designed for standards compliance, performance, and portability.\nThis update upgrades Firefox to version 60.6.1 ESR. (BZ#1690308)\nSecurity Fix(es):\n* Mozilla: Memory safety bugs fixed in Firefox 66 and Firefox ESR 60.6 (CVE-2019-9788)\n* Mozilla: Use-after-free when removing in-use DOM elements (CVE-2019-9790)\n* Mozilla: Type inference is incorrect for constructors entered through on-stack replacement with IonMonkey (CVE-2019-9791)\n* Mozilla: IonMonkey leaks JS_OPTIMIZED_OUT magic value to script (CVE-2019-9792)\n* Mozilla: IonMonkey MArraySlice has incorrect alias information (CVE-2019-9810)\n* Mozilla: Ionmonkey type confusion with __proto__ mutations (CVE-2019-9813)\n* Mozilla: Improper bounds checks when Spectre mitigations are disabled (CVE-2019-9793)\n* Mozilla: Type-confusion in IonMonkey JIT compiler (CVE-2019-9795)\n* Mozilla: Use-after-free with SMIL animation controller (CVE-2019-9796)\n* Mozilla: Proxy Auto-Configuration file can define localhost access to be proxied (CVE-2018-18506)\nFor more details about the security issue(s), including the impact, a CVSS score, acknowledgments, and other related information, refer to the CVE page(s) listed in the References section.",
  "Platform": [
    "Red Hat Enterprise Linux 8"
  ],
  "References": [
    {
      "Source": "RHSA",
      "URI": "https://access.redhat.com/errata/RHSA-2019:0966",
      "ID": "RHSA-2019:0966"
    },
    {
      "Source": "CVE",
      "URI": "https://access.redhat.com/security/cve/CVE-2018-18506",
      "ID": "CVE-2018-18506"
    },
    {
      "Source": "CVE",
      "URI": "https://access.redhat.com/security/cve/CVE-2019-9788",
      "ID": "CVE-2019-9788"
    },
    {
      "Source": "CVE",
      "URI": "https://access.redhat.com/security/cve/CVE-2019-9790",
      "ID": "CVE-2019-9790"
    },
    {
      "Source": "CVE",
      "URI": "https://access.redhat.com/security/cve/CVE-2019-9791",
      "ID": "CVE-2019-9791"
    },
    {
      "Source": "CVE",
      "URI": "https://access.redhat.com/security/cve/CVE-2019-9792",
      "ID": "CVE-2019-9792"
    },
    {
      "Source": "CVE",
      "URI": "https://access.redhat.com/security/cve/CVE-2019-9793",
      "ID": "CVE-2019-9793"
    },
    {
      "Source": "CVE",
      "URI": "https://access.redhat.com/security/cve/CVE-2019-9795",
      "ID": "CVE-2019-9795"
    },
    {
      "Source": "CVE",
      "URI": "https://access.redhat.com/security/cve/CVE-2019-9796",
      "ID": "CVE-2019-9796"
    },
    {
      "Source": "CVE",
      "URI": "https://access.redhat.com/security/cve/CVE-2019-9810",
      "ID": "CVE-2019-9810"
    },
    {
      "Source": "CVE",
      "URI": "https://access.redhat.com/security/cve/CVE-2019-9813",
      "ID": "CVE-2019-9813"
    }
  ],
  "Criteria": {
    "Operator": "OR",
    "Criterias": [
      {
        "Operator": "AND",
        "Criterias": [
          {
            "Operator": "OR",
            "Criterias": [

            ],
            "Criterions": [
              {
                "Comment": "Oracle Linux 8 is installed"
              },
              {
                "Comment": "Red Hat CoreOS 4 is installed"
              }
            ]
          }
        ],
        "Criterions": [
          {
            "Comment": "firefox is earlier than 0:60.6.1-1.el8"
          },
          {
            "Comment": "firefox is signed with Red Hat redhatrelease2 key"
          }
        ]
      }
    ],
    "Criterions": [
      {
        "Comment": "Oracle Linux 8 is installed"
      }
    ]
  },
  "Severity": "Critical",
  "Cves": [
    {
      "Impact": "",
      "Href": "",
      "ID": "CVE-2018-18506"
    },
    {
      "Impact": "",
      "Href": "",
      "ID": "CVE-2019-9788"
    },
    {
      "Impact": "",
      "Href": "",
      "ID": "CVE-2019-9790"
    },
    {
      "Impact": "",
      "Href": "",
      "ID": "CVE-2019-9791"
    },
    {
      "Impact": "",
      "Href": "",
      "ID": "CVE-2019-9792"
    },
    {
      "Impact": "",
      "Href": "",
      "ID": "CVE-2019-9793"
    },
    {
      "Impact": "",
      "Href": "",
      "ID": "CVE-2019-9795"
    },
    {
      "Impact": "",
      "Href": "",
      "ID": "CVE-2019-9796"
    },
    {
      "Impact": "",
      "Href": "",
      "ID": "CVE-2019-9810"
    },
    {
      "Impact": "",
      "Href": "",
      "ID": "CVE-2019-9813"
    }
  ],
  "Issued": {
    "Date": "2019-05-07"
  }
}