{
  "Title": "RHSA-2019:4269: container-tools:rhel8 security and bug fix update (Important)",
  "Description": "The container-tools module contains tools for working with containers, notably podman, buildah, skopeo, and runc.\nSecurity Fix(es):\n* HTTP/2: flood using PING frames results in unbounded memory growth (CVE-2019-9512)\n* HTTP/2: flood using HEADERS frames results in unbounded memory growth (CVE-2019-9514)\n* runc: AppArmor/SELinux bypass with malicious image that specifies a volume at /proc (CVE-2019-16884)\nFor more details about the security issue(s), including the impact, a CVSS score, acknowledgments, and other related information, refer to the CVE page(s) listed in the References section.\nBug Fix(es):\n* avc: podman run --security-opt label=type:svirt_qemu_net_t (BZ#1764318)\n* backport json-file logging support to 1.4.2 (BZ#1770176)\n* Selinux won't allow SCTP inter pod communication (BZ#1774382)",
  "Platform": [
    "Red Hat Enterprise Linux 8"
  ],
  "References": [
    {
      "Source": "RHSA",
      "URI": "https://access.redhat.com/errata/RHSA-2019:4269",
      "ID": "RHSA-2019:4269"
    },
    {
      "Source": "CVE",
      "URI": "https://access.redhat.com/security/cve/CVE-2019-16884",
      "ID": "CVE-2019-16884"
    },
    {
      "Source": "CVE",
      "URI": "https://access.redhat.com/security/cve/CVE-2019-18466",
      "ID": "CVE-2019-18466"
    },
    {
      "Source": "CVE",
      "URI": "https://access.redhat.com/security/cve/CVE-2019-9512",
      "ID": "CVE-2019-9512"
    },
    {
      "Source": "CVE",
      "URI": "https://access.redhat.com/security/cve/CVE-2019-9514",
      "ID": "CVE-2019-9514"
    }
  ],
  "Criteria": {
    "Operator": "OR",
    "Criterias": [
      {
        "Operator": "AND",
        "Criterias": [
          {
            "Operator": "OR",
            "Criterias": [

            ],
            "Criterions": [
              {
                "Comment": "Oracle Linux 8 is installed"
              },
              {
                "Comment": "Red Hat CoreOS 4 is installed"
              }
            ]
          },
          {
            "Operator": "OR",
            "Criterias": [
              {
                "Operator": "AND",
                "Criterias": [
                  {
                    "Operator": "OR",
                    "Criterias": [
                      {
                        "Operator": "AND",
                        "Criterias": [

                        ],
                        "Criterions": [
                          {
                            "Comment": "buildah is earlier than 0:1.9.0-5.module+el8.1.0+4240+893c1ab8"
                          },
                          {
                            "Comment": "buildah is signed with Red Hat redhatrelease2 key"
                          }
                        ]
                      },
                      {
                        "Operator": "AND",
                        "Criterias": [

                        ],
                        "Criterions": [
                          {
                            "Comment": "buildah-tests is earlier than 0:1.9.0-5.module+el8.1.0+4240+893c1ab8"
                          },
                          {
                            "Comment": "buildah-tests is signed with Red Hat redhatrelease2 key"
                          }
                        ]
                      },
                      {
                        "Operator": "AND",
                        "Criterias": [

                        ],
                        "Criterions": [
                          {
                            "Comment": "cockpit-podman is earlier than 0:4-1.module+el8.1.0+4081+b29780af"
                          },
                          {
                            "Comment": "cockpit-podman is signed with Red Hat redhatrelease2 key"
                          }
                        ]
                      },
                      {
                        "Operator": "AND",
                        "Criterias": [

                        ],
                        "Criterions": [
                          {
                            "Comment": "container-selinux is earlier than 2:2.123.0-2.module+el8.1.0+4900+9d7326b8"
                          },
                          {
                            "Comment": "container-selinux is signed with Red Hat redhatrelease2 key"
                          }
                        ]
                      },
                      {
                        "Operator": "AND",
                        "Criterias": [

                        ],
                        "Criterions": [
                          {
                            "Comment": "containernetworking-plugins is earlier than 0:0.8.1-3.module+el8.1.0+4881+045289ee"
                          },
                          {
                            "Comment": "containernetworking-plugins is signed with Red Hat redhatrelease2 key"
                          }
                        ]
                      },
                      {
                        "Operator": "AND",
                        "Criterias": [

                        ],
                        "Criterions": [
                          {
                            "Comment": "containers-common is earlier than 1:0.1.37-6.module+el8.1.0+4876+e678a192"
                          },
                          {
                            "Comment": "containers-common is signed with Red Hat redhatrelease2 key"
                          }
                        ]
                      },
                      {
                        "Operator": "AND",
                        "Criterias": [

                        ],
                        "Criterions": [
                          {
                            "Comment": "fuse-overlayfs is earlier than 0:0.4.1-1.module+el8.1.0+4081+b29780af"
                          },
                          {
                            "Comment": "fuse-overlayfs is signed with Red Hat redhatrelease2 key"
                          }
                        ]
                      },
                      {
                        "Operator": "AND",
                        "Criterias": [

                        ],
                        "Criterions": [
                          {
                            "Comment": "oci-systemd-hook is earlier than 1:0.1.15-2.git2d0b8a3.module+el8.1.0+4081+b29780af"
                          },
                          {
                            "Comment": "oci-systemd-hook is signed with Red Hat redhatrelease2 key"
                          }
                        ]
                      },
                      {
                        "Operator": "AND",
                        "Criterias": [

                        ],
                        "Criterions": [
                          {
                            "Comment": "oci-umount is earlier than 2:2.3.4-2.git87f9237.module+el8.1.0+4081+b29780af"
                          },
                          {
                            "Comment": "oci-umount is signed with Red Hat redhatrelease2 key"
                          }
                        ]
                      },
                      {
                        "Operator": "AND",
                        "Criterias": [

                        ],
                        "Criterions": [
                          {
                            "Comment": "podman is earlier than 0:1.4.2-6.module+el8.1.0+4830+f49150d7"
                          },
                          {
                            "Comment": "podman is signed with Red Hat redhatrelease2 key"
                          }
                        ]
                      },
                      {
                        "Operator": "AND",
                        "Criterias": [

                        ],
                        "Criterions": [
                          {
                            "Comment": "podman-docker is earlier than 0:1.4.2-6.module+el8.1.0+4830+f49150d7"
                          },
                          {
                            "Comment": "podman-docker is signed with Red Hat redhatrelease2 key"
                          }
                        ]
                      },
                      {
                        "Operator": "AND",
                        "Criterias": [

                        ],
                        "Criterions": [
                          {
                            "Comment": "podman-manpages is earlier than 0:1.4.2-6.module+el8.1.0+4830+f49150d7"
                          },
                          {
                            "Comment": "podman-manpages is signed with Red Hat redhatrelease2 key"
                          }
                        ]
                      },
                      {
                        "Operator": "AND",
                        "Criterias": [

                        ],
                        "Criterions": [
                          {
                            "Comment": "podman-remote is earlier than 0:1.4.2-6.module+el8.1.0+4830+f49150d7"
                          },
                          {
                            "Comment": "podman-remote is signed with Red Hat redhatrelease2 key"
                          }
                        ]
                      },
                      {
                        "Operator": "AND",
                        "Criterias": [

                        ],
                        "Criterions": [
                          {
                            "Comment": "podman-tests is earlier than 0:1.4.2-6.module+el8.1.0+4830+f49150d7"
                          },
                          {
                            "Comment": "podman-tests is signed with Red Hat redhatrelease2 key"
                          }
                        ]
                      },
                      {
                        "Operator": "AND",
                        "Criterias": [

                        ],
                        "Criterions": [
                          {
                            "Comment": "python-podman-api is earlier than 0:1.2.0-0.1.gitd0a45fe.module+el8.1.0+4081+b29780af"
                          },
                          {
                            "Comment": "python-podman-api is signed with Red Hat redhatrelease2 key"
                          }
                        ]
                      },
                      {
                        "Operator": "AND",
                        "Criterias": [

                        ],
                        "Criterions": [
                          {
                            "Comment": "runc is earlier than 0:1.0.0-61.rc8.module+el8.1.0+4873+4a24e241"
                          },
                          {
                            "Comment": "runc is signed with Red Hat redhatrelease2 key"
                          }
                        ]
                      },
                      {
                        "Operator": "AND",
                        "Criterias": [

                        ],
                        "Criterions": [
                          {
                            "Comment": "skopeo is earlier than 1:0.1.37-6.module+el8.1.0+4876+e678a192"
                          },
                          {
                            "Comment": "skopeo is signed with Red Hat redhatrelease2 key"
                          }
                        ]
                      },
                      {
                        "Operator": "AND",
                        "Criterias": [

                        ],
                        "Criterions": [
                          {
                            "Comment": "skopeo-tests is earlier than 1:0.1.37-6.module+el8.1.0+4876+e678a192"
                          },
                          {
                            "Comment": "skopeo-tests is signed with Red Hat redhatrelease2 key"
                          }
                        ]
                      },
                      {
                        "Operator": "AND",
                        "Criterias": [

                        ],
                        "Criterions": [
                          {
                            "Comment": "slirp4netns is earlier than 0:0.3.0-4.module+el8.1.0+4306+1d917805"
                          },
                          {
                            "Comment": "slirp4netns is signed with Red Hat redhatrelease2 key"
                          }
                        ]
                      },
                      {
                        "Operator": "AND",
                        "Criterias": [

                        ],
                        "Criterions": [
                          {
                            "Comment": "toolbox is earlier than 0:0.0.4-1.module+el8.1.0+4081+b29780af"
                          },
                          {
                            "Comment": "toolbox is signed with Red Hat redhatrelease2 key"
                          }
                        ]
                      }
                    ],
                    "Criterions": [

                    ]
                  }
                ],
                "Criterions": [
                  {
                    "Comment": "Module container-tools:rhel8 is enabled"
                  }
                ]
              }
            ],
            "Criterions": [

            ]
          }
        ],
        "Criterions": [

        ]
      }
    ],
    "Criterions": [
      {
        "Comment": "Oracle Linux 8 is installed"
      }
    ]
  },
  "Severity": "Important",
  "Cves": [
    {
      "Impact": "",
      "Href": "",
      "ID": "CVE-2019-16884"
    },
    {
      "Impact": "",
      "Href": "",
      "ID": "CVE-2019-18466"
    },
    {
      "Impact": "",
      "Href": "",
      "ID": "CVE-2019-9512"
    },
    {
      "Impact": "",
      "Href": "",
      "ID": "CVE-2019-9514"
    }
  ],
  "Issued": {
    "Date": "2019-12-17"
  }
}