{
  "Title": "RHSA-2019:3643: gettext security update (Low)",
  "Description": "The gettext packages provide a documentation for producing multi-lingual messages in programs, set of conventions about how programs should be written, a runtime library, and a directory and file naming organization for the message catalogs.\nSecurity Fix(es):\n* gettext: double free in default_add_message in read-catalog.c (CVE-2018-18751)\nFor more details about the security issue(s), including the impact, a CVSS score, acknowledgments, and other related information, refer to the CVE page(s) listed in the References section.\nAdditional Changes:\nFor detailed information on changes in this release, see the Red Hat Enterprise Linux 8.1 Release Notes linked from the References section.",
  "Platform": [
    "Red Hat Enterprise Linux 8"
  ],
  "References": [
    {
      "Source": "RHSA",
      "URI": "https://access.redhat.com/errata/RHSA-2019:3643",
      "ID": "RHSA-2019:3643"
    },
    {
      "Source": "CVE",
      "URI": "https://access.redhat.com/security/cve/CVE-2018-18751",
      "ID": "CVE-2018-18751"
    }
  ],
  "Criteria": {
    "Operator": "OR",
    "Criterias": [
      {
        "Operator": "AND",
        "Criterias": [
          {
            "Operator": "OR",
            "Criterias": [

            ],
            "Criterions": [
              {
                "Comment": "Oracle Linux 8 is installed"
              },
              {
                "Comment": "Red Hat CoreOS 4 is installed"
              }
            ]
          },
          {
            "Operator": "OR",
            "Criterias": [
              {
                "Operator": "AND",
                "Criterias": [

                ],
                "Criterions": [
                  {
                    "Comment": "gettext is earlier than 0:0.19.8.1-17.el8"
                  },
                  {
                    "Comment": "gettext is signed with Red Hat redhatrelease2 key"
                  }
                ]
              },
              {
                "Operator": "AND",
                "Criterias": [

                ],
                "Criterions": [
                  {
                    "Comment": "gettext-common-devel is earlier than 0:0.19.8.1-17.el8"
                  },
                  {
                    "Comment": "gettext-common-devel is signed with Red Hat redhatrelease2 key"
                  }
                ]
              },
              {
                "Operator": "AND",
                "Criterias": [

                ],
                "Criterions": [
                  {
                    "Comment": "gettext-devel is earlier than 0:0.19.8.1-17.el8"
                  },
                  {
                    "Comment": "gettext-devel is signed with Red Hat redhatrelease2 key"
                  }
                ]
              },
              {
                "Operator": "AND",
                "Criterias": [

                ],
                "Criterions": [
                  {
                    "Comment": "gettext-libs is earlier than 0:0.19.8.1-17.el8"
                  },
                  {
                    "Comment": "gettext-libs is signed with Red Hat redhatrelease2 key"
                  }
                ]
              }
            ],
            "Criterions": [

            ]
          }
        ],
        "Criterions": [

        ]
      }
    ],
    "Criterions": [
      {
        "Comment": "Oracle Linux 8 is installed"
      }
    ]
  },
  "Severity": "Low",
  "Cves": [
    {
      "Impact": "",
      "Href": "",
      "ID": "CVE-2018-18751"
    }
  ],
  "Issued": {
    "Date": "2019-11-05"
  }
}