{
  "Title": "RHSA-2019:1579: libvirt security and bug fix update (Important)",
  "Description": "The libvirt library contains a C API for managing and interacting with the virtualization capabilities of Linux and other operating systems. In addition, libvirt provides tools for remote management of virtualized systems.\nSecurity Fix(es):\n* libvirt: arbitrary file read/exec via virDomainSaveImageGetXMLDesc API (CVE-2019-10161)\n* libvirt: virDomainManagedSaveDefineXML API exposed to readonly clients (CVE-2019-10166)\n* libvirt: arbitrary command execution via virConnectGetDomainCapabilities API (CVE-2019-10167)\n* libvirt: arbitrary command execution via virConnectBaselineHypervisorCPU and virConnectCompareHypervisorCPU APIs (CVE-2019-10168)\nFor more details about the security issue(s), including the impact, a CVSS score, acknowledgments, and other related information, refer to the CVE page(s) listed in the References section.\nBug Fix(es):\n* Live migration fail with unsafe error when GPFS is used as shared filesystem (BZ#1715867)",
  "Platform": [
    "Red Hat Enterprise Linux 7"
  ],
  "References": [
    {
      "Source": "RHSA",
      "URI": "https://access.redhat.com/errata/RHSA-2019:1579",
      "ID": "RHSA-2019:1579"
    },
    {
      "Source": "CVE",
      "URI": "https://access.redhat.com/security/cve/CVE-2019-10161",
      "ID": "CVE-2019-10161"
    },
    {
      "Source": "CVE",
      "URI": "https://access.redhat.com/security/cve/CVE-2019-10166",
      "ID": "CVE-2019-10166"
    },
    {
      "Source": "CVE",
      "URI": "https://access.redhat.com/security/cve/CVE-2019-10167",
      "ID": "CVE-2019-10167"
    },
    {
      "Source": "CVE",
      "URI": "https://access.redhat.com/security/cve/CVE-2019-10168",
      "ID": "CVE-2019-10168"
    }
  ],
  "Criteria": {
    "Operator": "OR",
    "Criterias": [
      {
        "Operator": "AND",
        "Criterias": [
          {
            "Operator": "OR",
            "Criterias": [
              {
                "Operator": "AND",
                "Criterias": [

                ],
                "Criterions": [
                  {
                    "Comment": "libvirt is earlier than 0:4.5.0-10.el7_6.12"
                  },
                  {
                    "Comment": "libvirt is signed with Red Hat redhatrelease2 key"
                  }
                ]
              },
              {
                "Operator": "AND",
                "Criterias": [

                ],
                "Criterions": [
                  {
                    "Comment": "libvirt-admin is earlier than 0:4.5.0-10.el7_6.12"
                  },
                  {
                    "Comment": "libvirt-admin is signed with Red Hat redhatrelease2 key"
                  }
                ]
              },
              {
                "Operator": "AND",
                "Criterias": [

                ],
                "Criterions": [
                  {
                    "Comment": "libvirt-bash-completion is earlier than 0:4.5.0-10.el7_6.12"
                  },
                  {
                    "Comment": "libvirt-bash-completion is signed with Red Hat redhatrelease2 key"
                  }
                ]
              },
              {
                "Operator": "AND",
                "Criterias": [

                ],
                "Criterions": [
                  {
                    "Comment": "libvirt-client is earlier than 0:4.5.0-10.el7_6.12"
                  },
                  {
                    "Comment": "libvirt-client is signed with Red Hat redhatrelease2 key"
                  }
                ]
              },
              {
                "Operator": "AND",
                "Criterias": [

                ],
                "Criterions": [
                  {
                    "Comment": "libvirt-daemon is earlier than 0:4.5.0-10.el7_6.12"
                  },
                  {
                    "Comment": "libvirt-daemon is signed with Red Hat redhatrelease2 key"
                  }
                ]
              },
              {
                "Operator": "AND",
                "Criterias": [

                ],
                "Criterions": [
                  {
                    "Comment": "libvirt-daemon-config-network is earlier than 0:4.5.0-10.el7_6.12"
                  },
                  {
                    "Comment": "libvirt-daemon-config-network is signed with Red Hat redhatrelease2 key"
                  }
                ]
              },
              {
                "Operator": "AND",
                "Criterias": [

                ],
                "Criterions": [
                  {
                    "Comment": "libvirt-daemon-config-nwfilter is earlier than 0:4.5.0-10.el7_6.12"
                  },
                  {
                    "Comment": "libvirt-daemon-config-nwfilter is signed with Red Hat redhatrelease2 key"
                  }
                ]
              },
              {
                "Operator": "AND",
                "Criterias": [

                ],
                "Criterions": [
                  {
                    "Comment": "libvirt-daemon-driver-interface is earlier than 0:4.5.0-10.el7_6.12"
                  },
                  {
                    "Comment": "libvirt-daemon-driver-interface is signed with Red Hat redhatrelease2 key"
                  }
                ]
              },
              {
                "Operator": "AND",
                "Criterias": [

                ],
                "Criterions": [
                  {
                    "Comment": "libvirt-daemon-driver-lxc is earlier than 0:4.5.0-10.el7_6.12"
                  },
                  {
                    "Comment": "libvirt-daemon-driver-lxc is signed with Red Hat redhatrelease2 key"
                  }
                ]
              },
              {
                "Operator": "AND",
                "Criterias": [

                ],
                "Criterions": [
                  {
                    "Comment": "libvirt-daemon-driver-network is earlier than 0:4.5.0-10.el7_6.12"
                  },
                  {
                    "Comment": "libvirt-daemon-driver-network is signed with Red Hat redhatrelease2 key"
                  }
                ]
              },
              {
                "Operator": "AND",
                "Criterias": [

                ],
                "Criterions": [
                  {
                    "Comment": "libvirt-daemon-driver-nodedev is earlier than 0:4.5.0-10.el7_6.12"
                  },
                  {
                    "Comment": "libvirt-daemon-driver-nodedev is signed with Red Hat redhatrelease2 key"
                  }
                ]
              },
              {
                "Operator": "AND",
                "Criterias": [

                ],
                "Criterions": [
                  {
                    "Comment": "libvirt-daemon-driver-nwfilter is earlier than 0:4.5.0-10.el7_6.12"
                  },
                  {
                    "Comment": "libvirt-daemon-driver-nwfilter is signed with Red Hat redhatrelease2 key"
                  }
                ]
              },
              {
                "Operator": "AND",
                "Criterias": [

                ],
                "Criterions": [
                  {
                    "Comment": "libvirt-daemon-driver-qemu is earlier than 0:4.5.0-10.el7_6.12"
                  },
                  {
                    "Comment": "libvirt-daemon-driver-qemu is signed with Red Hat redhatrelease2 key"
                  }
                ]
              },
              {
                "Operator": "AND",
                "Criterias": [

                ],
                "Criterions": [
                  {
                    "Comment": "libvirt-daemon-driver-secret is earlier than 0:4.5.0-10.el7_6.12"
                  },
                  {
                    "Comment": "libvirt-daemon-driver-secret is signed with Red Hat redhatrelease2 key"
                  }
                ]
              },
              {
                "Operator": "AND",
                "Criterias": [

                ],
                "Criterions": [
                  {
                    "Comment": "libvirt-daemon-driver-storage is earlier than 0:4.5.0-10.el7_6.12"
                  },
                  {
                    "Comment": "libvirt-daemon-driver-storage is signed with Red Hat redhatrelease2 key"
                  }
                ]
              },
              {
                "Operator": "AND",
                "Criterias": [

                ],
                "Criterions": [
                  {
                    "Comment": "libvirt-daemon-driver-storage-core is earlier than 0:4.5.0-10.el7_6.12"
                  },
                  {
                    "Comment": "libvirt-daemon-driver-storage-core is signed with Red Hat redhatrelease2 key"
                  }
                ]
              },
              {
                "Operator": "AND",
                "Criterias": [

                ],
                "Criterions": [
                  {
                    "Comment": "libvirt-daemon-driver-storage-disk is earlier than 0:4.5.0-10.el7_6.12"
                  },
                  {
                    "Comment": "libvirt-daemon-driver-storage-disk is signed with Red Hat redhatrelease2 key"
                  }
                ]
              },
              {
                "Operator": "AND",
                "Criterias": [

                ],
                "Criterions": [
                  {
                    "Comment": "libvirt-daemon-driver-storage-gluster is earlier than 0:4.5.0-10.el7_6.12"
                  },
                  {
                    "Comment": "libvirt-daemon-driver-storage-gluster is signed with Red Hat redhatrelease2 key"
                  }
                ]
              },
              {
                "Operator": "AND",
                "Criterias": [

                ],
                "Criterions": [
                  {
                    "Comment": "libvirt-daemon-driver-storage-iscsi is earlier than 0:4.5.0-10.el7_6.12"
                  },
                  {
                    "Comment": "libvirt-daemon-driver-storage-iscsi is signed with Red Hat redhatrelease2 key"
                  }
                ]
              },
              {
                "Operator": "AND",
                "Criterias": [

                ],
                "Criterions": [
                  {
                    "Comment": "libvirt-daemon-driver-storage-logical is earlier than 0:4.5.0-10.el7_6.12"
                  },
                  {
                    "Comment": "libvirt-daemon-driver-storage-logical is signed with Red Hat redhatrelease2 key"
                  }
                ]
              },
              {
                "Operator": "AND",
                "Criterias": [

                ],
                "Criterions": [
                  {
                    "Comment": "libvirt-daemon-driver-storage-mpath is earlier than 0:4.5.0-10.el7_6.12"
                  },
                  {
                    "Comment": "libvirt-daemon-driver-storage-mpath is signed with Red Hat redhatrelease2 key"
                  }
                ]
              },
              {
                "Operator": "AND",
                "Criterias": [

                ],
                "Criterions": [
                  {
                    "Comment": "libvirt-daemon-driver-storage-rbd is earlier than 0:4.5.0-10.el7_6.12"
                  },
                  {
                    "Comment": "libvirt-daemon-driver-storage-rbd is signed with Red Hat redhatrelease2 key"
                  }
                ]
              },
              {
                "Operator": "AND",
                "Criterias": [

                ],
                "Criterions": [
                  {
                    "Comment": "libvirt-daemon-driver-storage-scsi is earlier than 0:4.5.0-10.el7_6.12"
                  },
                  {
                    "Comment": "libvirt-daemon-driver-storage-scsi is signed with Red Hat redhatrelease2 key"
                  }
                ]
              },
              {
                "Operator": "AND",
                "Criterias": [

                ],
                "Criterions": [
                  {
                    "Comment": "libvirt-daemon-kvm is earlier than 0:4.5.0-10.el7_6.12"
                  },
                  {
                    "Comment": "libvirt-daemon-kvm is signed with Red Hat redhatrelease2 key"
                  }
                ]
              },
              {
                "Operator": "AND",
                "Criterias": [

                ],
                "Criterions": [
                  {
                    "Comment": "libvirt-daemon-lxc is earlier than 0:4.5.0-10.el7_6.12"
                  },
                  {
                    "Comment": "libvirt-daemon-lxc is signed with Red Hat redhatrelease2 key"
                  }
                ]
              },
              {
                "Operator": "AND",
                "Criterias": [

                ],
                "Criterions": [
                  {
                    "Comment": "libvirt-devel is earlier than 0:4.5.0-10.el7_6.12"
                  },
                  {
                    "Comment": "libvirt-devel is signed with Red Hat redhatrelease2 key"
                  }
                ]
              },
              {
                "Operator": "AND",
                "Criterias": [

                ],
                "Criterions": [
                  {
                    "Comment": "libvirt-docs is earlier than 0:4.5.0-10.el7_6.12"
                  },
                  {
                    "Comment": "libvirt-docs is signed with Red Hat redhatrelease2 key"
                  }
                ]
              },
              {
                "Operator": "AND",
                "Criterias": [

                ],
                "Criterions": [
                  {
                    "Comment": "libvirt-libs is earlier than 0:4.5.0-10.el7_6.12"
                  },
                  {
                    "Comment": "libvirt-libs is signed with Red Hat redhatrelease2 key"
                  }
                ]
              },
              {
                "Operator": "AND",
                "Criterias": [

                ],
                "Criterions": [
                  {
                    "Comment": "libvirt-lock-sanlock is earlier than 0:4.5.0-10.el7_6.12"
                  },
                  {
                    "Comment": "libvirt-lock-sanlock is signed with Red Hat redhatrelease2 key"
                  }
                ]
              },
              {
                "Operator": "AND",
                "Criterias": [

                ],
                "Criterions": [
                  {
                    "Comment": "libvirt-login-shell is earlier than 0:4.5.0-10.el7_6.12"
                  },
                  {
                    "Comment": "libvirt-login-shell is signed with Red Hat redhatrelease2 key"
                  }
                ]
              },
              {
                "Operator": "AND",
                "Criterias": [

                ],
                "Criterions": [
                  {
                    "Comment": "libvirt-nss is earlier than 0:4.5.0-10.el7_6.12"
                  },
                  {
                    "Comment": "libvirt-nss is signed with Red Hat redhatrelease2 key"
                  }
                ]
              }
            ],
            "Criterions": [

            ]
          }
        ],
        "Criterions": [
          {
            "Comment": "Oracle Linux 7 is installed"
          }
        ]
      }
    ],
    "Criterions": [
      {
        "Comment": "Oracle Linux 7 is installed"
      }
    ]
  },
  "Severity": "Important",
  "Cves": [
    {
      "Impact": "",
      "Href": "",
      "ID": "CVE-2019-10161"
    },
    {
      "Impact": "",
      "Href": "",
      "ID": "CVE-2019-10166"
    },
    {
      "Impact": "",
      "Href": "",
      "ID": "CVE-2019-10167"
    },
    {
      "Impact": "",
      "Href": "",
      "ID": "CVE-2019-10168"
    }
  ],
  "Issued": {
    "Date": "2019-06-20"
  }
}