{
  "Title": "RHSA-2019:2135: qt5 security, bug fix, and enhancement update (Moderate)",
  "Description": "Qt is a software toolkit for developing applications. The qt5-base packages contain base tools for string, xml, and network handling in Qt.\nThe following packages have been upgraded to a later upstream version: qt5-qt3d (5.9.7), qt5-qtbase (5.9.7), qt5-qtcanvas3d (5.9.7), qt5-qtconnectivity (5.9.7), qt5-qtdeclarative (5.9.7), qt5-qtdoc (5.9.7), qt5-qtgraphicaleffects (5.9.7), qt5-qtimageformats (5.9.7), qt5-qtlocation (5.9.7), qt5-qtmultimedia (5.9.7), qt5-qtquickcontrols (5.9.7), qt5-qtquickcontrols2 (5.9.7), qt5-qtscript (5.9.7), qt5-qtsensors (5.9.7), qt5-qtserialbus (5.9.7), qt5-qtserialport (5.9.7), qt5-qtsvg (5.9.7), qt5-qttools (5.9.7), qt5-qttranslations (5.9.7), qt5-qtwayland (5.9.7), qt5-qtwebchannel (5.9.7), qt5-qtwebsockets (5.9.7), qt5-qtx11extras (5.9.7), qt5-qtxmlpatterns (5.9.7). (BZ#1564000, BZ#1564001, BZ#1564002, BZ#1564003, BZ#1564004, BZ#1564006, BZ#1564007, BZ#1564008, BZ#1564009, BZ#1564010, BZ#1564011, BZ#1564012, BZ#1564013, BZ#1564014, BZ#1564015, BZ#1564016, BZ#1564017, BZ#1564018, BZ#1564019, BZ#1564020, BZ#1564021, BZ#1564022, BZ#1564023, BZ#1564024)\nSecurity Fix(es):\n* qt5-qtbase: Double free in QXmlStreamReader (CVE-2018-15518)\n* qt5-qtsvg: Invalid parsing of malformed url reference resulting in a denial of service (CVE-2018-19869)\n* qt5-qtbase: QImage allocation failure in qgifhandler (CVE-2018-19870)\n* qt5-qtimageformats: QTgaFile CPU exhaustion (CVE-2018-19871)\n* qt5-qtbase: QBmpHandler segmentation fault on malformed BMP file (CVE-2018-19873)\nFor more details about the security issue(s), including the impact, a CVSS score, acknowledgments, and other related information, refer to the CVE page(s) listed in the References section.\nAdditional Changes:\nFor detailed information on changes in this release, see the Red Hat Enterprise Linux 7.7 Release Notes linked from the References section.",
  "Platform": [
    "Red Hat Enterprise Linux 7"
  ],
  "References": [
    {
      "Source": "RHSA",
      "URI": "https://access.redhat.com/errata/RHSA-2019:2135",
      "ID": "RHSA-2019:2135"
    },
    {
      "Source": "CVE",
      "URI": "https://access.redhat.com/security/cve/CVE-2018-15518",
      "ID": "CVE-2018-15518"
    },
    {
      "Source": "CVE",
      "URI": "https://access.redhat.com/security/cve/CVE-2018-19869",
      "ID": "CVE-2018-19869"
    },
    {
      "Source": "CVE",
      "URI": "https://access.redhat.com/security/cve/CVE-2018-19870",
      "ID": "CVE-2018-19870"
    },
    {
      "Source": "CVE",
      "URI": "https://access.redhat.com/security/cve/CVE-2018-19871",
      "ID": "CVE-2018-19871"
    },
    {
      "Source": "CVE",
      "URI": "https://access.redhat.com/security/cve/CVE-2018-19873",
      "ID": "CVE-2018-19873"
    }
  ],
  "Criteria": {
    "Operator": "OR",
    "Criterias": [
      {
        "Operator": "AND",
        "Criterias": [
          {
            "Operator": "OR",
            "Criterias": [
              {
                "Operator": "AND",
                "Criterias": [

                ],
                "Criterions": [
                  {
                    "Comment": "qt5-qtwebchannel is earlier than 0:5.9.7-1.el7"
                  },
                  {
                    "Comment": "qt5-qtwebchannel is signed with Red Hat redhatrelease2 key"
                  }
                ]
              },
              {
                "Operator": "AND",
                "Criterias": [

                ],
                "Criterions": [
                  {
                    "Comment": "qt5-qtwebchannel-devel is earlier than 0:5.9.7-1.el7"
                  },
                  {
                    "Comment": "qt5-qtwebchannel-devel is signed with Red Hat redhatrelease2 key"
                  }
                ]
              },
              {
                "Operator": "AND",
                "Criterias": [

                ],
                "Criterions": [
                  {
                    "Comment": "qt5-qtwebchannel-doc is earlier than 0:5.9.7-1.el7"
                  },
                  {
                    "Comment": "qt5-qtwebchannel-doc is signed with Red Hat redhatrelease2 key"
                  }
                ]
              },
              {
                "Operator": "AND",
                "Criterias": [

                ],
                "Criterions": [
                  {
                    "Comment": "qt5-qtwebchannel-examples is earlier than 0:5.9.7-1.el7"
                  },
                  {
                    "Comment": "qt5-qtwebchannel-examples is signed with Red Hat redhatrelease2 key"
                  }
                ]
              },
              {
                "Operator": "AND",
                "Criterias": [

                ],
                "Criterions": [
                  {
                    "Comment": "qt5-qtwebsockets is earlier than 0:5.9.7-1.el7"
                  },
                  {
                    "Comment": "qt5-qtwebsockets is signed with Red Hat redhatrelease2 key"
                  }
                ]
              },
              {
                "Operator": "AND",
                "Criterias": [

                ],
                "Criterions": [
                  {
                    "Comment": "qt5-qtwebsockets-devel is earlier than 0:5.9.7-1.el7"
                  },
                  {
                    "Comment": "qt5-qtwebsockets-devel is signed with Red Hat redhatrelease2 key"
                  }
                ]
              },
              {
                "Operator": "AND",
                "Criterias": [

                ],
                "Criterions": [
                  {
                    "Comment": "qt5-qtwebsockets-doc is earlier than 0:5.9.7-1.el7"
                  },
                  {
                    "Comment": "qt5-qtwebsockets-doc is signed with Red Hat redhatrelease2 key"
                  }
                ]
              },
              {
                "Operator": "AND",
                "Criterias": [

                ],
                "Criterions": [
                  {
                    "Comment": "qt5-qtwebsockets-examples is earlier than 0:5.9.7-1.el7"
                  },
                  {
                    "Comment": "qt5-qtwebsockets-examples is signed with Red Hat redhatrelease2 key"
                  }
                ]
              },
              {
                "Operator": "AND",
                "Criterias": [

                ],
                "Criterions": [
                  {
                    "Comment": "qt5-qtquickcontrols2 is earlier than 0:5.9.7-1.el7"
                  },
                  {
                    "Comment": "qt5-qtquickcontrols2 is signed with Red Hat redhatrelease2 key"
                  }
                ]
              },
              {
                "Operator": "AND",
                "Criterias": [

                ],
                "Criterions": [
                  {
                    "Comment": "qt5-qtquickcontrols2-devel is earlier than 0:5.9.7-1.el7"
                  },
                  {
                    "Comment": "qt5-qtquickcontrols2-devel is signed with Red Hat redhatrelease2 key"
                  }
                ]
              },
              {
                "Operator": "AND",
                "Criterias": [

                ],
                "Criterions": [
                  {
                    "Comment": "qt5-qtquickcontrols2-doc is earlier than 0:5.9.7-1.el7"
                  },
                  {
                    "Comment": "qt5-qtquickcontrols2-doc is signed with Red Hat redhatrelease2 key"
                  }
                ]
              },
              {
                "Operator": "AND",
                "Criterias": [

                ],
                "Criterions": [
                  {
                    "Comment": "qt5-qtquickcontrols2-examples is earlier than 0:5.9.7-1.el7"
                  },
                  {
                    "Comment": "qt5-qtquickcontrols2-examples is signed with Red Hat redhatrelease2 key"
                  }
                ]
              },
              {
                "Operator": "AND",
                "Criterias": [

                ],
                "Criterions": [
                  {
                    "Comment": "qt5-qtserialbus is earlier than 0:5.9.7-1.el7"
                  },
                  {
                    "Comment": "qt5-qtserialbus is signed with Red Hat redhatrelease2 key"
                  }
                ]
              },
              {
                "Operator": "AND",
                "Criterias": [

                ],
                "Criterions": [
                  {
                    "Comment": "qt5-qtserialbus-devel is earlier than 0:5.9.7-1.el7"
                  },
                  {
                    "Comment": "qt5-qtserialbus-devel is signed with Red Hat redhatrelease2 key"
                  }
                ]
              },
              {
                "Operator": "AND",
                "Criterias": [

                ],
                "Criterions": [
                  {
                    "Comment": "qt5-qtserialbus-doc is earlier than 0:5.9.7-1.el7"
                  },
                  {
                    "Comment": "qt5-qtserialbus-doc is signed with Red Hat redhatrelease2 key"
                  }
                ]
              },
              {
                "Operator": "AND",
                "Criterias": [

                ],
                "Criterions": [
                  {
                    "Comment": "qt5-qtserialbus-examples is earlier than 0:5.9.7-1.el7"
                  },
                  {
                    "Comment": "qt5-qtserialbus-examples is signed with Red Hat redhatrelease2 key"
                  }
                ]
              },
              {
                "Operator": "AND",
                "Criterias": [

                ],
                "Criterions": [
                  {
                    "Comment": "qt5-qt3d is earlier than 0:5.9.7-1.el7"
                  },
                  {
                    "Comment": "qt5-qt3d is signed with Red Hat redhatrelease2 key"
                  }
                ]
              },
              {
                "Operator": "AND",
                "Criterias": [

                ],
                "Criterions": [
                  {
                    "Comment": "qt5-qt3d-devel is earlier than 0:5.9.7-1.el7"
                  },
                  {
                    "Comment": "qt5-qt3d-devel is signed with Red Hat redhatrelease2 key"
                  }
                ]
              },
              {
                "Operator": "AND",
                "Criterias": [

                ],
                "Criterions": [
                  {
                    "Comment": "qt5-qt3d-doc is earlier than 0:5.9.7-1.el7"
                  },
                  {
                    "Comment": "qt5-qt3d-doc is signed with Red Hat redhatrelease2 key"
                  }
                ]
              },
              {
                "Operator": "AND",
                "Criterias": [

                ],
                "Criterions": [
                  {
                    "Comment": "qt5-qt3d-examples is earlier than 0:5.9.7-1.el7"
                  },
                  {
                    "Comment": "qt5-qt3d-examples is signed with Red Hat redhatrelease2 key"
                  }
                ]
              },
              {
                "Operator": "AND",
                "Criterias": [

                ],
                "Criterions": [
                  {
                    "Comment": "qt5-qtsvg is earlier than 0:5.9.7-1.el7"
                  },
                  {
                    "Comment": "qt5-qtsvg is signed with Red Hat redhatrelease2 key"
                  }
                ]
              },
              {
                "Operator": "AND",
                "Criterias": [

                ],
                "Criterions": [
                  {
                    "Comment": "qt5-qtsvg-devel is earlier than 0:5.9.7-1.el7"
                  },
                  {
                    "Comment": "qt5-qtsvg-devel is signed with Red Hat redhatrelease2 key"
                  }
                ]
              },
              {
                "Operator": "AND",
                "Criterias": [

                ],
                "Criterions": [
                  {
                    "Comment": "qt5-qtsvg-doc is earlier than 0:5.9.7-1.el7"
                  },
                  {
                    "Comment": "qt5-qtsvg-doc is signed with Red Hat redhatrelease2 key"
                  }
                ]
              },
              {
                "Operator": "AND",
                "Criterias": [

                ],
                "Criterions": [
                  {
                    "Comment": "qt5-qtsvg-examples is earlier than 0:5.9.7-1.el7"
                  },
                  {
                    "Comment": "qt5-qtsvg-examples is signed with Red Hat redhatrelease2 key"
                  }
                ]
              },
              {
                "Operator": "AND",
                "Criterias": [

                ],
                "Criterions": [
                  {
                    "Comment": "qt5-qtsensors is earlier than 0:5.9.7-1.el7"
                  },
                  {
                    "Comment": "qt5-qtsensors is signed with Red Hat redhatrelease2 key"
                  }
                ]
              },
              {
                "Operator": "AND",
                "Criterias": [

                ],
                "Criterions": [
                  {
                    "Comment": "qt5-qtsensors-devel is earlier than 0:5.9.7-1.el7"
                  },
                  {
                    "Comment": "qt5-qtsensors-devel is signed with Red Hat redhatrelease2 key"
                  }
                ]
              },
              {
                "Operator": "AND",
                "Criterias": [

                ],
                "Criterions": [
                  {
                    "Comment": "qt5-qtsensors-doc is earlier than 0:5.9.7-1.el7"
                  },
                  {
                    "Comment": "qt5-qtsensors-doc is signed with Red Hat redhatrelease2 key"
                  }
                ]
              },
              {
                "Operator": "AND",
                "Criterias": [

                ],
                "Criterions": [
                  {
                    "Comment": "qt5-qtsensors-examples is earlier than 0:5.9.7-1.el7"
                  },
                  {
                    "Comment": "qt5-qtsensors-examples is signed with Red Hat redhatrelease2 key"
                  }
                ]
              },
              {
                "Operator": "AND",
                "Criterias": [

                ],
                "Criterions": [
                  {
                    "Comment": "qt5-qtx11extras is earlier than 0:5.9.7-1.el7"
                  },
                  {
                    "Comment": "qt5-qtx11extras is signed with Red Hat redhatrelease2 key"
                  }
                ]
              },
              {
                "Operator": "AND",
                "Criterias": [

                ],
                "Criterions": [
                  {
                    "Comment": "qt5-qtx11extras-devel is earlier than 0:5.9.7-1.el7"
                  },
                  {
                    "Comment": "qt5-qtx11extras-devel is signed with Red Hat redhatrelease2 key"
                  }
                ]
              },
              {
                "Operator": "AND",
                "Criterias": [

                ],
                "Criterions": [
                  {
                    "Comment": "qt5-qtx11extras-doc is earlier than 0:5.9.7-1.el7"
                  },
                  {
                    "Comment": "qt5-qtx11extras-doc is signed with Red Hat redhatrelease2 key"
                  }
                ]
              },
              {
                "Operator": "AND",
                "Criterias": [

                ],
                "Criterions": [
                  {
                    "Comment": "qt5-qtwayland is earlier than 0:5.9.7-1.el7"
                  },
                  {
                    "Comment": "qt5-qtwayland is signed with Red Hat redhatrelease2 key"
                  }
                ]
              },
              {
                "Operator": "AND",
                "Criterias": [

                ],
                "Criterions": [
                  {
                    "Comment": "qt5-qtwayland-devel is earlier than 0:5.9.7-1.el7"
                  },
                  {
                    "Comment": "qt5-qtwayland-devel is signed with Red Hat redhatrelease2 key"
                  }
                ]
              },
              {
                "Operator": "AND",
                "Criterias": [

                ],
                "Criterions": [
                  {
                    "Comment": "qt5-qtwayland-doc is earlier than 0:5.9.7-1.el7"
                  },
                  {
                    "Comment": "qt5-qtwayland-doc is signed with Red Hat redhatrelease2 key"
                  }
                ]
              },
              {
                "Operator": "AND",
                "Criterias": [

                ],
                "Criterions": [
                  {
                    "Comment": "qt5-qtwayland-examples is earlier than 0:5.9.7-1.el7"
                  },
                  {
                    "Comment": "qt5-qtwayland-examples is signed with Red Hat redhatrelease2 key"
                  }
                ]
              },
              {
                "Operator": "AND",
                "Criterias": [

                ],
                "Criterions": [
                  {
                    "Comment": "qt5-qttranslations is earlier than 0:5.9.7-1.el7"
                  },
                  {
                    "Comment": "qt5-qttranslations is signed with Red Hat redhatrelease2 key"
                  }
                ]
              },
              {
                "Operator": "AND",
                "Criterias": [

                ],
                "Criterions": [
                  {
                    "Comment": "qt5-qtserialport is earlier than 0:5.9.7-1.el7"
                  },
                  {
                    "Comment": "qt5-qtserialport is signed with Red Hat redhatrelease2 key"
                  }
                ]
              },
              {
                "Operator": "AND",
                "Criterias": [

                ],
                "Criterions": [
                  {
                    "Comment": "qt5-qtserialport-devel is earlier than 0:5.9.7-1.el7"
                  },
                  {
                    "Comment": "qt5-qtserialport-devel is signed with Red Hat redhatrelease2 key"
                  }
                ]
              },
              {
                "Operator": "AND",
                "Criterias": [

                ],
                "Criterions": [
                  {
                    "Comment": "qt5-qtserialport-doc is earlier than 0:5.9.7-1.el7"
                  },
                  {
                    "Comment": "qt5-qtserialport-doc is signed with Red Hat redhatrelease2 key"
                  }
                ]
              },
              {
                "Operator": "AND",
                "Criterias": [

                ],
                "Criterions": [
                  {
                    "Comment": "qt5-qtserialport-examples is earlier than 0:5.9.7-1.el7"
                  },
                  {
                    "Comment": "qt5-qtserialport-examples is signed with Red Hat redhatrelease2 key"
                  }
                ]
              },
              {
                "Operator": "AND",
                "Criterias": [

                ],
                "Criterions": [
                  {
                    "Comment": "qt5-qtscript is earlier than 0:5.9.7-1.el7"
                  },
                  {
                    "Comment": "qt5-qtscript is signed with Red Hat redhatrelease2 key"
                  }
                ]
              },
              {
                "Operator": "AND",
                "Criterias": [

                ],
                "Criterions": [
                  {
                    "Comment": "qt5-qtscript-devel is earlier than 0:5.9.7-1.el7"
                  },
                  {
                    "Comment": "qt5-qtscript-devel is signed with Red Hat redhatrelease2 key"
                  }
                ]
              },
              {
                "Operator": "AND",
                "Criterias": [

                ],
                "Criterions": [
                  {
                    "Comment": "qt5-qtscript-doc is earlier than 0:5.9.7-1.el7"
                  },
                  {
                    "Comment": "qt5-qtscript-doc is signed with Red Hat redhatrelease2 key"
                  }
                ]
              },
              {
                "Operator": "AND",
                "Criterias": [

                ],
                "Criterions": [
                  {
                    "Comment": "qt5-qtscript-examples is earlier than 0:5.9.7-1.el7"
                  },
                  {
                    "Comment": "qt5-qtscript-examples is signed with Red Hat redhatrelease2 key"
                  }
                ]
              },
              {
                "Operator": "AND",
                "Criterias": [

                ],
                "Criterions": [
                  {
                    "Comment": "qt5-qtquickcontrols is earlier than 0:5.9.7-1.el7"
                  },
                  {
                    "Comment": "qt5-qtquickcontrols is signed with Red Hat redhatrelease2 key"
                  }
                ]
              },
              {
                "Operator": "AND",
                "Criterias": [

                ],
                "Criterions": [
                  {
                    "Comment": "qt5-qtquickcontrols-doc is earlier than 0:5.9.7-1.el7"
                  },
                  {
                    "Comment": "qt5-qtquickcontrols-doc is signed with Red Hat redhatrelease2 key"
                  }
                ]
              },
              {
                "Operator": "AND",
                "Criterias": [

                ],
                "Criterions": [
                  {
                    "Comment": "qt5-qtquickcontrols-examples is earlier than 0:5.9.7-1.el7"
                  },
                  {
                    "Comment": "qt5-qtquickcontrols-examples is signed with Red Hat redhatrelease2 key"
                  }
                ]
              },
              {
                "Operator": "AND",
                "Criterias": [

                ],
                "Criterions": [
                  {
                    "Comment": "qt5-qtmultimedia is earlier than 0:5.9.7-1.el7"
                  },
                  {
                    "Comment": "qt5-qtmultimedia is signed with Red Hat redhatrelease2 key"
                  }
                ]
              },
              {
                "Operator": "AND",
                "Criterias": [

                ],
                "Criterions": [
                  {
                    "Comment": "qt5-qtmultimedia-devel is earlier than 0:5.9.7-1.el7"
                  },
                  {
                    "Comment": "qt5-qtmultimedia-devel is signed with Red Hat redhatrelease2 key"
                  }
                ]
              },
              {
                "Operator": "AND",
                "Criterias": [

                ],
                "Criterions": [
                  {
                    "Comment": "qt5-qtmultimedia-doc is earlier than 0:5.9.7-1.el7"
                  },
                  {
                    "Comment": "qt5-qtmultimedia-doc is signed with Red Hat redhatrelease2 key"
                  }
                ]
              },
              {
                "Operator": "AND",
                "Criterias": [

                ],
                "Criterions": [
                  {
                    "Comment": "qt5-qtmultimedia-examples is earlier than 0:5.9.7-1.el7"
                  },
                  {
                    "Comment": "qt5-qtmultimedia-examples is signed with Red Hat redhatrelease2 key"
                  }
                ]
              },
              {
                "Operator": "AND",
                "Criterias": [

                ],
                "Criterions": [
                  {
                    "Comment": "qt5-qtlocation is earlier than 0:5.9.7-1.el7"
                  },
                  {
                    "Comment": "qt5-qtlocation is signed with Red Hat redhatrelease2 key"
                  }
                ]
              },
              {
                "Operator": "AND",
                "Criterias": [

                ],
                "Criterions": [
                  {
                    "Comment": "qt5-qtlocation-devel is earlier than 0:5.9.7-1.el7"
                  },
                  {
                    "Comment": "qt5-qtlocation-devel is signed with Red Hat redhatrelease2 key"
                  }
                ]
              },
              {
                "Operator": "AND",
                "Criterias": [

                ],
                "Criterions": [
                  {
                    "Comment": "qt5-qtlocation-doc is earlier than 0:5.9.7-1.el7"
                  },
                  {
                    "Comment": "qt5-qtlocation-doc is signed with Red Hat redhatrelease2 key"
                  }
                ]
              },
              {
                "Operator": "AND",
                "Criterias": [

                ],
                "Criterions": [
                  {
                    "Comment": "qt5-qtlocation-examples is earlier than 0:5.9.7-1.el7"
                  },
                  {
                    "Comment": "qt5-qtlocation-examples is signed with Red Hat redhatrelease2 key"
                  }
                ]
              },
              {
                "Operator": "AND",
                "Criterias": [

                ],
                "Criterions": [
                  {
                    "Comment": "qt5-qtgraphicaleffects is earlier than 0:5.9.7-1.el7"
                  },
                  {
                    "Comment": "qt5-qtgraphicaleffects is signed with Red Hat redhatrelease2 key"
                  }
                ]
              },
              {
                "Operator": "AND",
                "Criterias": [

                ],
                "Criterions": [
                  {
                    "Comment": "qt5-qtgraphicaleffects-doc is earlier than 0:5.9.7-1.el7"
                  },
                  {
                    "Comment": "qt5-qtgraphicaleffects-doc is signed with Red Hat redhatrelease2 key"
                  }
                ]
              },
              {
                "Operator": "AND",
                "Criterias": [

                ],
                "Criterions": [
                  {
                    "Comment": "qt5-qtbase is earlier than 0:5.9.7-2.el7"
                  },
                  {
                    "Comment": "qt5-qtbase is signed with Red Hat redhatrelease2 key"
                  }
                ]
              },
              {
                "Operator": "AND",
                "Criterias": [

                ],
                "Criterions": [
                  {
                    "Comment": "qt5-qtbase-common is earlier than 0:5.9.7-2.el7"
                  },
                  {
                    "Comment": "qt5-qtbase-common is signed with Red Hat redhatrelease2 key"
                  }
                ]
              },
              {
                "Operator": "AND",
                "Criterias": [

                ],
                "Criterions": [
                  {
                    "Comment": "qt5-qtbase-devel is earlier than 0:5.9.7-2.el7"
                  },
                  {
                    "Comment": "qt5-qtbase-devel is signed with Red Hat redhatrelease2 key"
                  }
                ]
              },
              {
                "Operator": "AND",
                "Criterias": [

                ],
                "Criterions": [
                  {
                    "Comment": "qt5-qtbase-doc is earlier than 0:5.9.7-2.el7"
                  },
                  {
                    "Comment": "qt5-qtbase-doc is signed with Red Hat redhatrelease2 key"
                  }
                ]
              },
              {
                "Operator": "AND",
                "Criterias": [

                ],
                "Criterions": [
                  {
                    "Comment": "qt5-qtbase-examples is earlier than 0:5.9.7-2.el7"
                  },
                  {
                    "Comment": "qt5-qtbase-examples is signed with Red Hat redhatrelease2 key"
                  }
                ]
              },
              {
                "Operator": "AND",
                "Criterias": [

                ],
                "Criterions": [
                  {
                    "Comment": "qt5-qtbase-gui is earlier than 0:5.9.7-2.el7"
                  },
                  {
                    "Comment": "qt5-qtbase-gui is signed with Red Hat redhatrelease2 key"
                  }
                ]
              },
              {
                "Operator": "AND",
                "Criterias": [

                ],
                "Criterions": [
                  {
                    "Comment": "qt5-qtbase-mysql is earlier than 0:5.9.7-2.el7"
                  },
                  {
                    "Comment": "qt5-qtbase-mysql is signed with Red Hat redhatrelease2 key"
                  }
                ]
              },
              {
                "Operator": "AND",
                "Criterias": [

                ],
                "Criterions": [
                  {
                    "Comment": "qt5-qtbase-odbc is earlier than 0:5.9.7-2.el7"
                  },
                  {
                    "Comment": "qt5-qtbase-odbc is signed with Red Hat redhatrelease2 key"
                  }
                ]
              },
              {
                "Operator": "AND",
                "Criterias": [

                ],
                "Criterions": [
                  {
                    "Comment": "qt5-qtbase-postgresql is earlier than 0:5.9.7-2.el7"
                  },
                  {
                    "Comment": "qt5-qtbase-postgresql is signed with Red Hat redhatrelease2 key"
                  }
                ]
              },
              {
                "Operator": "AND",
                "Criterias": [

                ],
                "Criterions": [
                  {
                    "Comment": "qt5-qtbase-static is earlier than 0:5.9.7-2.el7"
                  },
                  {
                    "Comment": "qt5-qtbase-static is signed with Red Hat redhatrelease2 key"
                  }
                ]
              },
              {
                "Operator": "AND",
                "Criterias": [

                ],
                "Criterions": [
                  {
                    "Comment": "qt5-rpm-macros is earlier than 0:5.9.7-2.el7"
                  },
                  {
                    "Comment": "qt5-rpm-macros is signed with Red Hat redhatrelease2 key"
                  }
                ]
              },
              {
                "Operator": "AND",
                "Criterias": [

                ],
                "Criterions": [
                  {
                    "Comment": "qt5-qtdoc is earlier than 0:5.9.7-1.el7"
                  },
                  {
                    "Comment": "qt5-qtdoc is signed with Red Hat redhatrelease2 key"
                  }
                ]
              },
              {
                "Operator": "AND",
                "Criterias": [

                ],
                "Criterions": [
                  {
                    "Comment": "qt5-qtconnectivity is earlier than 0:5.9.7-1.el7"
                  },
                  {
                    "Comment": "qt5-qtconnectivity is signed with Red Hat redhatrelease2 key"
                  }
                ]
              },
              {
                "Operator": "AND",
                "Criterias": [

                ],
                "Criterions": [
                  {
                    "Comment": "qt5-qtconnectivity-devel is earlier than 0:5.9.7-1.el7"
                  },
                  {
                    "Comment": "qt5-qtconnectivity-devel is signed with Red Hat redhatrelease2 key"
                  }
                ]
              },
              {
                "Operator": "AND",
                "Criterias": [

                ],
                "Criterions": [
                  {
                    "Comment": "qt5-qtconnectivity-doc is earlier than 0:5.9.7-1.el7"
                  },
                  {
                    "Comment": "qt5-qtconnectivity-doc is signed with Red Hat redhatrelease2 key"
                  }
                ]
              },
              {
                "Operator": "AND",
                "Criterias": [

                ],
                "Criterions": [
                  {
                    "Comment": "qt5-qtconnectivity-examples is earlier than 0:5.9.7-1.el7"
                  },
                  {
                    "Comment": "qt5-qtconnectivity-examples is signed with Red Hat redhatrelease2 key"
                  }
                ]
              },
              {
                "Operator": "AND",
                "Criterias": [

                ],
                "Criterions": [
                  {
                    "Comment": "qt5-qtcanvas3d is earlier than 0:5.9.7-1.el7"
                  },
                  {
                    "Comment": "qt5-qtcanvas3d is signed with Red Hat redhatrelease2 key"
                  }
                ]
              },
              {
                "Operator": "AND",
                "Criterias": [

                ],
                "Criterions": [
                  {
                    "Comment": "qt5-qtcanvas3d-doc is earlier than 0:5.9.7-1.el7"
                  },
                  {
                    "Comment": "qt5-qtcanvas3d-doc is signed with Red Hat redhatrelease2 key"
                  }
                ]
              },
              {
                "Operator": "AND",
                "Criterias": [

                ],
                "Criterions": [
                  {
                    "Comment": "qt5-qtcanvas3d-examples is earlier than 0:5.9.7-1.el7"
                  },
                  {
                    "Comment": "qt5-qtcanvas3d-examples is signed with Red Hat redhatrelease2 key"
                  }
                ]
              },
              {
                "Operator": "AND",
                "Criterias": [

                ],
                "Criterions": [
                  {
                    "Comment": "qt5-qtimageformats is earlier than 0:5.9.7-1.el7"
                  },
                  {
                    "Comment": "qt5-qtimageformats is signed with Red Hat redhatrelease2 key"
                  }
                ]
              },
              {
                "Operator": "AND",
                "Criterias": [

                ],
                "Criterions": [
                  {
                    "Comment": "qt5-qtimageformats-doc is earlier than 0:5.9.7-1.el7"
                  },
                  {
                    "Comment": "qt5-qtimageformats-doc is signed with Red Hat redhatrelease2 key"
                  }
                ]
              },
              {
                "Operator": "AND",
                "Criterias": [

                ],
                "Criterions": [
                  {
                    "Comment": "qt5-assistant is earlier than 0:5.9.7-1.el7"
                  },
                  {
                    "Comment": "qt5-assistant is signed with Red Hat redhatrelease2 key"
                  }
                ]
              },
              {
                "Operator": "AND",
                "Criterias": [

                ],
                "Criterions": [
                  {
                    "Comment": "qt5-designer is earlier than 0:5.9.7-1.el7"
                  },
                  {
                    "Comment": "qt5-designer is signed with Red Hat redhatrelease2 key"
                  }
                ]
              },
              {
                "Operator": "AND",
                "Criterias": [

                ],
                "Criterions": [
                  {
                    "Comment": "qt5-doctools is earlier than 0:5.9.7-1.el7"
                  },
                  {
                    "Comment": "qt5-doctools is signed with Red Hat redhatrelease2 key"
                  }
                ]
              },
              {
                "Operator": "AND",
                "Criterias": [

                ],
                "Criterions": [
                  {
                    "Comment": "qt5-linguist is earlier than 0:5.9.7-1.el7"
                  },
                  {
                    "Comment": "qt5-linguist is signed with Red Hat redhatrelease2 key"
                  }
                ]
              },
              {
                "Operator": "AND",
                "Criterias": [

                ],
                "Criterions": [
                  {
                    "Comment": "qt5-qdbusviewer is earlier than 0:5.9.7-1.el7"
                  },
                  {
                    "Comment": "qt5-qdbusviewer is signed with Red Hat redhatrelease2 key"
                  }
                ]
              },
              {
                "Operator": "AND",
                "Criterias": [

                ],
                "Criterions": [
                  {
                    "Comment": "qt5-qttools is earlier than 0:5.9.7-1.el7"
                  },
                  {
                    "Comment": "qt5-qttools is signed with Red Hat redhatrelease2 key"
                  }
                ]
              },
              {
                "Operator": "AND",
                "Criterias": [

                ],
                "Criterions": [
                  {
                    "Comment": "qt5-qttools-common is earlier than 0:5.9.7-1.el7"
                  },
                  {
                    "Comment": "qt5-qttools-common is signed with Red Hat redhatrelease2 key"
                  }
                ]
              },
              {
                "Operator": "AND",
                "Criterias": [

                ],
                "Criterions": [
                  {
                    "Comment": "qt5-qttools-devel is earlier than 0:5.9.7-1.el7"
                  },
                  {
                    "Comment": "qt5-qttools-devel is signed with Red Hat redhatrelease2 key"
                  }
                ]
              },
              {
                "Operator": "AND",
                "Criterias": [

                ],
                "Criterions": [
                  {
                    "Comment": "qt5-qttools-doc is earlier than 0:5.9.7-1.el7"
                  },
                  {
                    "Comment": "qt5-qttools-doc is signed with Red Hat redhatrelease2 key"
                  }
                ]
              },
              {
                "Operator": "AND",
                "Criterias": [

                ],
                "Criterions": [
                  {
                    "Comment": "qt5-qttools-examples is earlier than 0:5.9.7-1.el7"
                  },
                  {
                    "Comment": "qt5-qttools-examples is signed with Red Hat redhatrelease2 key"
                  }
                ]
              },
              {
                "Operator": "AND",
                "Criterias": [

                ],
                "Criterions": [
                  {
                    "Comment": "qt5-qttools-libs-designer is earlier than 0:5.9.7-1.el7"
                  },
                  {
                    "Comment": "qt5-qttools-libs-designer is signed with Red Hat redhatrelease2 key"
                  }
                ]
              },
              {
                "Operator": "AND",
                "Criterias": [

                ],
                "Criterions": [
                  {
                    "Comment": "qt5-qttools-libs-designercomponents is earlier than 0:5.9.7-1.el7"
                  },
                  {
                    "Comment": "qt5-qttools-libs-designercomponents is signed with Red Hat redhatrelease2 key"
                  }
                ]
              },
              {
                "Operator": "AND",
                "Criterias": [

                ],
                "Criterions": [
                  {
                    "Comment": "qt5-qttools-libs-help is earlier than 0:5.9.7-1.el7"
                  },
                  {
                    "Comment": "qt5-qttools-libs-help is signed with Red Hat redhatrelease2 key"
                  }
                ]
              },
              {
                "Operator": "AND",
                "Criterias": [

                ],
                "Criterions": [
                  {
                    "Comment": "qt5-qttools-static is earlier than 0:5.9.7-1.el7"
                  },
                  {
                    "Comment": "qt5-qttools-static is signed with Red Hat redhatrelease2 key"
                  }
                ]
              },
              {
                "Operator": "AND",
                "Criterias": [

                ],
                "Criterions": [
                  {
                    "Comment": "qt5-qtdeclarative is earlier than 0:5.9.7-1.el7"
                  },
                  {
                    "Comment": "qt5-qtdeclarative is signed with Red Hat redhatrelease2 key"
                  }
                ]
              },
              {
                "Operator": "AND",
                "Criterias": [

                ],
                "Criterions": [
                  {
                    "Comment": "qt5-qtdeclarative-devel is earlier than 0:5.9.7-1.el7"
                  },
                  {
                    "Comment": "qt5-qtdeclarative-devel is signed with Red Hat redhatrelease2 key"
                  }
                ]
              },
              {
                "Operator": "AND",
                "Criterias": [

                ],
                "Criterions": [
                  {
                    "Comment": "qt5-qtdeclarative-doc is earlier than 0:5.9.7-1.el7"
                  },
                  {
                    "Comment": "qt5-qtdeclarative-doc is signed with Red Hat redhatrelease2 key"
                  }
                ]
              },
              {
                "Operator": "AND",
                "Criterias": [

                ],
                "Criterions": [
                  {
                    "Comment": "qt5-qtdeclarative-examples is earlier than 0:5.9.7-1.el7"
                  },
                  {
                    "Comment": "qt5-qtdeclarative-examples is signed with Red Hat redhatrelease2 key"
                  }
                ]
              },
              {
                "Operator": "AND",
                "Criterias": [

                ],
                "Criterions": [
                  {
                    "Comment": "qt5-qtdeclarative-static is earlier than 0:5.9.7-1.el7"
                  },
                  {
                    "Comment": "qt5-qtdeclarative-static is signed with Red Hat redhatrelease2 key"
                  }
                ]
              },
              {
                "Operator": "AND",
                "Criterias": [

                ],
                "Criterions": [
                  {
                    "Comment": "qt5-qtxmlpatterns is earlier than 0:5.9.7-1.el7"
                  },
                  {
                    "Comment": "qt5-qtxmlpatterns is signed with Red Hat redhatrelease2 key"
                  }
                ]
              },
              {
                "Operator": "AND",
                "Criterias": [

                ],
                "Criterions": [
                  {
                    "Comment": "qt5-qtxmlpatterns-devel is earlier than 0:5.9.7-1.el7"
                  },
                  {
                    "Comment": "qt5-qtxmlpatterns-devel is signed with Red Hat redhatrelease2 key"
                  }
                ]
              },
              {
                "Operator": "AND",
                "Criterias": [

                ],
                "Criterions": [
                  {
                    "Comment": "qt5-qtxmlpatterns-doc is earlier than 0:5.9.7-1.el7"
                  },
                  {
                    "Comment": "qt5-qtxmlpatterns-doc is signed with Red Hat redhatrelease2 key"
                  }
                ]
              },
              {
                "Operator": "AND",
                "Criterias": [

                ],
                "Criterions": [
                  {
                    "Comment": "qt5-qtxmlpatterns-examples is earlier than 0:5.9.7-1.el7"
                  },
                  {
                    "Comment": "qt5-qtxmlpatterns-examples is signed with Red Hat redhatrelease2 key"
                  }
                ]
              }
            ],
            "Criterions": [

            ]
          }
        ],
        "Criterions": [
          {
            "Comment": "Oracle Linux 7 is installed"
          }
        ]
      }
    ],
    "Criterions": [
      {
        "Comment": "Oracle Linux 7 is installed"
      }
    ]
  },
  "Severity": "Moderate",
  "Cves": [
    {
      "Impact": "",
      "Href": "",
      "ID": "CVE-2018-15518"
    },
    {
      "Impact": "",
      "Href": "",
      "ID": "CVE-2018-19869"
    },
    {
      "Impact": "",
      "Href": "",
      "ID": "CVE-2018-19870"
    },
    {
      "Impact": "",
      "Href": "",
      "ID": "CVE-2018-19871"
    },
    {
      "Impact": "",
      "Href": "",
      "ID": "CVE-2018-19873"
    }
  ],
  "Issued": {
    "Date": "2019-08-06"
  }
}