{
  "Title": "RHSA-2019:2731: .NET Core on Red Hat Enterprise Linux security and bug fix update (Moderate)",
  "Description": "NET Core is a managed-software framework. It implements a subset of the .NET framework APIs and several new APIs, and it includes a CLR implementation.\nNew versions of .NET Core that address security vulnerabilities are now available. The updated versions are .NET Core SDK 2.1.509 and Runtime 2.1.13.\nSecurity Fix(es):\n* dotnet: System.Net.Sockets.dll Socket.ConnectAsync Denial of Service (CVE-2019-1301)\nDefault inclusions for applications built with .NET Core have been updated to reference the newest versions and their security fixes.\nFor more details about the security issue(s), including the impact, a CVSS score, acknowledgments, and other related information, refer to the CVE page(s) listed in the References section.",
  "Platform": [
    "Red Hat Enterprise Linux 8"
  ],
  "References": [
    {
      "Source": "RHSA",
      "URI": "https://access.redhat.com/errata/RHSA-2019:2731",
      "ID": "RHSA-2019:2731"
    },
    {
      "Source": "CVE",
      "URI": "https://access.redhat.com/security/cve/CVE-2019-1301",
      "ID": "CVE-2019-1301"
    }
  ],
  "Criteria": {
    "Operator": "OR",
    "Criterias": [
      {
        "Operator": "AND",
        "Criterias": [
          {
            "Operator": "OR",
            "Criterias": [

            ],
            "Criterions": [
              {
                "Comment": "Oracle Linux 8 is installed"
              },
              {
                "Comment": "Red Hat CoreOS 4 is installed"
              }
            ]
          },
          {
            "Operator": "OR",
            "Criterias": [
              {
                "Operator": "AND",
                "Criterias": [

                ],
                "Criterions": [
                  {
                    "Comment": "dotnet is earlier than 0:2.1.509-1.el8_0"
                  },
                  {
                    "Comment": "dotnet is signed with Red Hat redhatrelease2 key"
                  }
                ]
              },
              {
                "Operator": "AND",
                "Criterias": [

                ],
                "Criterions": [
                  {
                    "Comment": "dotnet-host is earlier than 0:2.1.13-1.el8_0"
                  },
                  {
                    "Comment": "dotnet-host is signed with Red Hat redhatrelease2 key"
                  }
                ]
              },
              {
                "Operator": "AND",
                "Criterias": [

                ],
                "Criterions": [
                  {
                    "Comment": "dotnet-host-fxr-2.1 is earlier than 0:2.1.13-1.el8_0"
                  },
                  {
                    "Comment": "dotnet-host-fxr-2.1 is signed with Red Hat redhatrelease2 key"
                  }
                ]
              },
              {
                "Operator": "AND",
                "Criterias": [

                ],
                "Criterions": [
                  {
                    "Comment": "dotnet-runtime-2.1 is earlier than 0:2.1.13-1.el8_0"
                  },
                  {
                    "Comment": "dotnet-runtime-2.1 is signed with Red Hat redhatrelease2 key"
                  }
                ]
              },
              {
                "Operator": "AND",
                "Criterias": [

                ],
                "Criterions": [
                  {
                    "Comment": "dotnet-sdk-2.1 is earlier than 0:2.1.509-1.el8_0"
                  },
                  {
                    "Comment": "dotnet-sdk-2.1 is signed with Red Hat redhatrelease2 key"
                  }
                ]
              },
              {
                "Operator": "AND",
                "Criterias": [

                ],
                "Criterions": [
                  {
                    "Comment": "dotnet-sdk-2.1.5xx is earlier than 0:2.1.509-1.el8_0"
                  },
                  {
                    "Comment": "dotnet-sdk-2.1.5xx is signed with Red Hat redhatrelease2 key"
                  }
                ]
              }
            ],
            "Criterions": [

            ]
          }
        ],
        "Criterions": [

        ]
      }
    ],
    "Criterions": [
      {
        "Comment": "Oracle Linux 8 is installed"
      }
    ]
  },
  "Severity": "Moderate",
  "Cves": [
    {
      "Impact": "",
      "Href": "",
      "ID": "CVE-2019-1301"
    }
  ],
  "Issued": {
    "Date": "2019-09-12"
  }
}