{
  "Title": "RHSA-2019:3834: kernel security update (Important)",
  "Description": "The kernel packages contain the Linux kernel, the core of any Linux operating system.\nSecurity Fix(es):\n* hw: Machine Check Error on Page Size Change (IFU) (CVE-2018-12207)\n* hw: TSX Transaction Asynchronous Abort (TAA) (CVE-2019-11135)\n* hw: Intel GPU Denial Of Service while accessing MMIO in lower power state (CVE-2019-0154)\nFor more details about the security issue(s), including the impact, a CVSS score, acknowledgments, and other related information, refer to the CVE page(s) listed in the References section.",
  "Platform": [
    "Red Hat Enterprise Linux 7"
  ],
  "References": [
    {
      "Source": "RHSA",
      "URI": "https://access.redhat.com/errata/RHSA-2019:3834",
      "ID": "RHSA-2019:3834"
    },
    {
      "Source": "CVE",
      "URI": "https://access.redhat.com/security/cve/CVE-2018-12207",
      "ID": "CVE-2018-12207"
    },
    {
      "Source": "CVE",
      "URI": "https://access.redhat.com/security/cve/CVE-2019-0154",
      "ID": "CVE-2019-0154"
    },
    {
      "Source": "CVE",
      "URI": "https://access.redhat.com/security/cve/CVE-2019-11135",
      "ID": "CVE-2019-11135"
    }
  ],
  "Criteria": {
    "Operator": "OR",
    "Criterias": [
      {
        "Operator": "AND",
        "Criterias": [
          {
            "Operator": "OR",
            "Criterias": [

            ],
            "Criterions": [
              {
                "Comment": "kernel earlier than 0:3.10.0-1062.4.2.el7 is currently running"
              },
              {
                "Comment": "kernel earlier than 0:3.10.0-1062.4.2.el7 is set to boot up on next boot"
              }
            ]
          },
          {
            "Operator": "OR",
            "Criterias": [
              {
                "Operator": "AND",
                "Criterias": [

                ],
                "Criterions": [
                  {
                    "Comment": "bpftool is earlier than 0:3.10.0-1062.4.2.el7"
                  },
                  {
                    "Comment": "bpftool is signed with Red Hat redhatrelease2 key"
                  }
                ]
              },
              {
                "Operator": "AND",
                "Criterias": [

                ],
                "Criterions": [
                  {
                    "Comment": "kernel is earlier than 0:3.10.0-1062.4.2.el7"
                  },
                  {
                    "Comment": "kernel is signed with Red Hat redhatrelease2 key"
                  }
                ]
              },
              {
                "Operator": "AND",
                "Criterias": [

                ],
                "Criterions": [
                  {
                    "Comment": "kernel-abi-whitelists is earlier than 0:3.10.0-1062.4.2.el7"
                  },
                  {
                    "Comment": "kernel-abi-whitelists is signed with Red Hat redhatrelease2 key"
                  }
                ]
              },
              {
                "Operator": "AND",
                "Criterias": [

                ],
                "Criterions": [
                  {
                    "Comment": "kernel-bootwrapper is earlier than 0:3.10.0-1062.4.2.el7"
                  },
                  {
                    "Comment": "kernel-bootwrapper is signed with Red Hat redhatrelease2 key"
                  }
                ]
              },
              {
                "Operator": "AND",
                "Criterias": [

                ],
                "Criterions": [
                  {
                    "Comment": "kernel-debug is earlier than 0:3.10.0-1062.4.2.el7"
                  },
                  {
                    "Comment": "kernel-debug is signed with Red Hat redhatrelease2 key"
                  }
                ]
              },
              {
                "Operator": "AND",
                "Criterias": [

                ],
                "Criterions": [
                  {
                    "Comment": "kernel-debug-devel is earlier than 0:3.10.0-1062.4.2.el7"
                  },
                  {
                    "Comment": "kernel-debug-devel is signed with Red Hat redhatrelease2 key"
                  }
                ]
              },
              {
                "Operator": "AND",
                "Criterias": [

                ],
                "Criterions": [
                  {
                    "Comment": "kernel-devel is earlier than 0:3.10.0-1062.4.2.el7"
                  },
                  {
                    "Comment": "kernel-devel is signed with Red Hat redhatrelease2 key"
                  }
                ]
              },
              {
                "Operator": "AND",
                "Criterias": [

                ],
                "Criterions": [
                  {
                    "Comment": "kernel-doc is earlier than 0:3.10.0-1062.4.2.el7"
                  },
                  {
                    "Comment": "kernel-doc is signed with Red Hat redhatrelease2 key"
                  }
                ]
              },
              {
                "Operator": "AND",
                "Criterias": [

                ],
                "Criterions": [
                  {
                    "Comment": "kernel-headers is earlier than 0:3.10.0-1062.4.2.el7"
                  },
                  {
                    "Comment": "kernel-headers is signed with Red Hat redhatrelease2 key"
                  }
                ]
              },
              {
                "Operator": "AND",
                "Criterias": [

                ],
                "Criterions": [
                  {
                    "Comment": "kernel-kdump is earlier than 0:3.10.0-1062.4.2.el7"
                  },
                  {
                    "Comment": "kernel-kdump is signed with Red Hat redhatrelease2 key"
                  }
                ]
              },
              {
                "Operator": "AND",
                "Criterias": [

                ],
                "Criterions": [
                  {
                    "Comment": "kernel-kdump-devel is earlier than 0:3.10.0-1062.4.2.el7"
                  },
                  {
                    "Comment": "kernel-kdump-devel is signed with Red Hat redhatrelease2 key"
                  }
                ]
              },
              {
                "Operator": "AND",
                "Criterias": [

                ],
                "Criterions": [
                  {
                    "Comment": "kernel-tools is earlier than 0:3.10.0-1062.4.2.el7"
                  },
                  {
                    "Comment": "kernel-tools is signed with Red Hat redhatrelease2 key"
                  }
                ]
              },
              {
                "Operator": "AND",
                "Criterias": [

                ],
                "Criterions": [
                  {
                    "Comment": "kernel-tools-libs is earlier than 0:3.10.0-1062.4.2.el7"
                  },
                  {
                    "Comment": "kernel-tools-libs is signed with Red Hat redhatrelease2 key"
                  }
                ]
              },
              {
                "Operator": "AND",
                "Criterias": [

                ],
                "Criterions": [
                  {
                    "Comment": "kernel-tools-libs-devel is earlier than 0:3.10.0-1062.4.2.el7"
                  },
                  {
                    "Comment": "kernel-tools-libs-devel is signed with Red Hat redhatrelease2 key"
                  }
                ]
              },
              {
                "Operator": "AND",
                "Criterias": [

                ],
                "Criterions": [
                  {
                    "Comment": "perf is earlier than 0:3.10.0-1062.4.2.el7"
                  },
                  {
                    "Comment": "perf is signed with Red Hat redhatrelease2 key"
                  }
                ]
              },
              {
                "Operator": "AND",
                "Criterias": [

                ],
                "Criterions": [
                  {
                    "Comment": "python-perf is earlier than 0:3.10.0-1062.4.2.el7"
                  },
                  {
                    "Comment": "python-perf is signed with Red Hat redhatrelease2 key"
                  }
                ]
              }
            ],
            "Criterions": [

            ]
          }
        ],
        "Criterions": [
          {
            "Comment": "Oracle Linux 7 is installed"
          }
        ]
      }
    ],
    "Criterions": [
      {
        "Comment": "Oracle Linux 7 is installed"
      }
    ]
  },
  "Severity": "Important",
  "Cves": [
    {
      "Impact": "",
      "Href": "",
      "ID": "CVE-2018-12207"
    },
    {
      "Impact": "",
      "Href": "",
      "ID": "CVE-2019-0154"
    },
    {
      "Impact": "",
      "Href": "",
      "ID": "CVE-2019-11135"
    }
  ],
  "Issued": {
    "Date": "2019-11-12"
  }
}