{
  "Title": "RHSA-2019:0968: edk2 security update (Important)",
  "Description": "EDK (Embedded Development Kit) is a project to enable UEFI support for Virtual Machines. This package contains a sample 64-bit UEFI firmware for QEMU and KVM.\nSecurity Fix(es):\n* edk2: Buffer Overflow in BlockIo service for RAM disk (CVE-2018-12180)\nFor more details about the security issue(s), including the impact, a CVSS score, acknowledgments, and other related information, refer to the CVE page(s) listed in the References section.",
  "Platform": [
    "Red Hat Enterprise Linux 8"
  ],
  "References": [
    {
      "Source": "RHSA",
      "URI": "https://access.redhat.com/errata/RHSA-2019:0968",
      "ID": "RHSA-2019:0968"
    },
    {
      "Source": "CVE",
      "URI": "https://access.redhat.com/security/cve/CVE-2018-12180",
      "ID": "CVE-2018-12180"
    }
  ],
  "Criteria": {
    "Operator": "OR",
    "Criterias": [
      {
        "Operator": "AND",
        "Criterias": [
          {
            "Operator": "OR",
            "Criterias": [

            ],
            "Criterions": [
              {
                "Comment": "Oracle Linux 8 is installed"
              },
              {
                "Comment": "Red Hat CoreOS 4 is installed"
              }
            ]
          },
          {
            "Operator": "OR",
            "Criterias": [
              {
                "Operator": "AND",
                "Criterias": [

                ],
                "Criterions": [
                  {
                    "Comment": "edk2-aarch64 is earlier than 0:20180508gitee3198e672e2-9.el8_0.1"
                  },
                  {
                    "Comment": "edk2-aarch64 is signed with Red Hat redhatrelease2 key"
                  }
                ]
              },
              {
                "Operator": "AND",
                "Criterias": [

                ],
                "Criterions": [
                  {
                    "Comment": "edk2-ovmf is earlier than 0:20180508gitee3198e672e2-9.el8_0.1"
                  },
                  {
                    "Comment": "edk2-ovmf is signed with Red Hat redhatrelease2 key"
                  }
                ]
              }
            ],
            "Criterions": [

            ]
          }
        ],
        "Criterions": [

        ]
      }
    ],
    "Criterions": [
      {
        "Comment": "Oracle Linux 8 is installed"
      }
    ]
  },
  "Severity": "Important",
  "Cves": [
    {
      "Impact": "",
      "Href": "",
      "ID": "CVE-2018-12180"
    }
  ],
  "Issued": {
    "Date": "2019-05-07"
  }
}