{
  "Title": "RHSA-2019:0482: cockpit security update (Moderate)",
  "Description": "Cockpit enables users to administer GNU/Linux servers using a web browser. It offers network configuration, log inspection, diagnostic reports, SELinux troubleshooting, interactive command-line sessions, and more.\nSecurity Fix(es):\n* cockpit: Crash when parsing invalid base64 headers (CVE-2019-3804)\nFor more details about the security issue(s), including the impact, a CVSS score, and other related information, refer to the CVE page(s) listed in the References section.",
  "Platform": [
    "Red Hat Enterprise Linux 7"
  ],
  "References": [
    {
      "Source": "RHSA",
      "URI": "https://access.redhat.com/errata/RHSA-2019:0482",
      "ID": "RHSA-2019:0482"
    },
    {
      "Source": "CVE",
      "URI": "https://access.redhat.com/security/cve/CVE-2019-3804",
      "ID": "CVE-2019-3804"
    }
  ],
  "Criteria": {
    "Operator": "OR",
    "Criterias": [
      {
        "Operator": "AND",
        "Criterias": [
          {
            "Operator": "OR",
            "Criterias": [
              {
                "Operator": "AND",
                "Criterias": [

                ],
                "Criterions": [
                  {
                    "Comment": "cockpit is earlier than 0:173.2-1.el7"
                  },
                  {
                    "Comment": "cockpit is signed with Red Hat redhatrelease2 key"
                  }
                ]
              },
              {
                "Operator": "AND",
                "Criterias": [

                ],
                "Criterions": [
                  {
                    "Comment": "cockpit-bridge is earlier than 0:173.2-1.el7"
                  },
                  {
                    "Comment": "cockpit-bridge is signed with Red Hat redhatrelease2 key"
                  }
                ]
              },
              {
                "Operator": "AND",
                "Criterias": [

                ],
                "Criterions": [
                  {
                    "Comment": "cockpit-doc is earlier than 0:173.2-1.el7"
                  },
                  {
                    "Comment": "cockpit-doc is signed with Red Hat redhatrelease2 key"
                  }
                ]
              },
              {
                "Operator": "AND",
                "Criterias": [

                ],
                "Criterions": [
                  {
                    "Comment": "cockpit-machines-ovirt is earlier than 0:173.2-1.el7"
                  },
                  {
                    "Comment": "cockpit-machines-ovirt is signed with Red Hat redhatrelease2 key"
                  }
                ]
              },
              {
                "Operator": "AND",
                "Criterias": [

                ],
                "Criterions": [
                  {
                    "Comment": "cockpit-system is earlier than 0:173.2-1.el7"
                  },
                  {
                    "Comment": "cockpit-system is signed with Red Hat redhatrelease2 key"
                  }
                ]
              },
              {
                "Operator": "AND",
                "Criterias": [

                ],
                "Criterions": [
                  {
                    "Comment": "cockpit-ws is earlier than 0:173.2-1.el7"
                  },
                  {
                    "Comment": "cockpit-ws is signed with Red Hat redhatrelease2 key"
                  }
                ]
              }
            ],
            "Criterions": [

            ]
          }
        ],
        "Criterions": [
          {
            "Comment": "Oracle Linux 7 is installed"
          }
        ]
      }
    ],
    "Criterions": [
      {
        "Comment": "Oracle Linux 7 is installed"
      }
    ]
  },
  "Severity": "Moderate",
  "Cves": [
    {
      "Impact": "",
      "Href": "",
      "ID": "CVE-2019-3804"
    }
  ],
  "Issued": {
    "Date": "2019-03-13"
  }
}