{
  "Title": "RHSA-2019:2178: udisks2 security, bug fix, and enhancement update (Moderate)",
  "Description": "The Udisks project provides a daemon, tools, and libraries to access and manipulate disks, storage devices, and technologies.\nSecurity Fix(es):\n* udisks: Format string vulnerability in udisks_log in udiskslogging.c (CVE-2018-17336)\nFor more details about the security issue(s), including the impact, a CVSS score, acknowledgments, and other related information, refer to the CVE page(s) listed in the References section.\nAdditional Changes:\nFor detailed information on changes in this release, see the Red Hat Enterprise Linux 7.7 Release Notes linked from the References section.",
  "Platform": [
    "Red Hat Enterprise Linux 7"
  ],
  "References": [
    {
      "Source": "RHSA",
      "URI": "https://access.redhat.com/errata/RHSA-2019:2178",
      "ID": "RHSA-2019:2178"
    },
    {
      "Source": "CVE",
      "URI": "https://access.redhat.com/security/cve/CVE-2018-17336",
      "ID": "CVE-2018-17336"
    }
  ],
  "Criteria": {
    "Operator": "OR",
    "Criterias": [
      {
        "Operator": "AND",
        "Criterias": [
          {
            "Operator": "OR",
            "Criterias": [
              {
                "Operator": "AND",
                "Criterias": [

                ],
                "Criterions": [
                  {
                    "Comment": "libudisks2 is earlier than 0:2.7.3-9.el7"
                  },
                  {
                    "Comment": "libudisks2 is signed with Red Hat redhatrelease2 key"
                  }
                ]
              },
              {
                "Operator": "AND",
                "Criterias": [

                ],
                "Criterions": [
                  {
                    "Comment": "libudisks2-devel is earlier than 0:2.7.3-9.el7"
                  },
                  {
                    "Comment": "libudisks2-devel is signed with Red Hat redhatrelease2 key"
                  }
                ]
              },
              {
                "Operator": "AND",
                "Criterias": [

                ],
                "Criterions": [
                  {
                    "Comment": "udisks2 is earlier than 0:2.7.3-9.el7"
                  },
                  {
                    "Comment": "udisks2 is signed with Red Hat redhatrelease2 key"
                  }
                ]
              },
              {
                "Operator": "AND",
                "Criterias": [

                ],
                "Criterions": [
                  {
                    "Comment": "udisks2-iscsi is earlier than 0:2.7.3-9.el7"
                  },
                  {
                    "Comment": "udisks2-iscsi is signed with Red Hat redhatrelease2 key"
                  }
                ]
              },
              {
                "Operator": "AND",
                "Criterias": [

                ],
                "Criterions": [
                  {
                    "Comment": "udisks2-lsm is earlier than 0:2.7.3-9.el7"
                  },
                  {
                    "Comment": "udisks2-lsm is signed with Red Hat redhatrelease2 key"
                  }
                ]
              },
              {
                "Operator": "AND",
                "Criterias": [

                ],
                "Criterions": [
                  {
                    "Comment": "udisks2-lvm2 is earlier than 0:2.7.3-9.el7"
                  },
                  {
                    "Comment": "udisks2-lvm2 is signed with Red Hat redhatrelease2 key"
                  }
                ]
              }
            ],
            "Criterions": [

            ]
          }
        ],
        "Criterions": [
          {
            "Comment": "Oracle Linux 7 is installed"
          }
        ]
      }
    ],
    "Criterions": [
      {
        "Comment": "Oracle Linux 7 is installed"
      }
    ]
  },
  "Severity": "Moderate",
  "Cves": [
    {
      "Impact": "",
      "Href": "",
      "ID": "CVE-2018-17336"
    }
  ],
  "Issued": {
    "Date": "2019-08-06"
  }
}