{
  "Title": "RHSA-2019:4190: nss, nss-softokn, nss-util security update (Important)",
  "Description": "Network Security Services (NSS) is a set of libraries designed to support the cross-platform development of security-enabled client and server applications.\nThe nss-softokn package provides the Network Security Services Softoken Cryptographic Module.\nThe nss-util packages provide utilities for use with the Network Security Services (NSS) libraries.\nSecurity Fix(es):\n* nss: Out-of-bounds write when passing an output buffer smaller than the block size to NSC_EncryptUpdate (CVE-2019-11745)\n* nss: Empty or malformed p256-ECDH public keys may trigger a segmentation fault (CVE-2019-11729)\nFor more details about the security issue(s), including the impact, a CVSS score, acknowledgments, and other related information, refer to the CVE page(s) listed in the References section.",
  "Platform": [
    "Red Hat Enterprise Linux 7"
  ],
  "References": [
    {
      "Source": "RHSA",
      "URI": "https://access.redhat.com/errata/RHSA-2019:4190",
      "ID": "RHSA-2019:4190"
    },
    {
      "Source": "CVE",
      "URI": "https://access.redhat.com/security/cve/CVE-2019-11729",
      "ID": "CVE-2019-11729"
    },
    {
      "Source": "CVE",
      "URI": "https://access.redhat.com/security/cve/CVE-2019-11745",
      "ID": "CVE-2019-11745"
    }
  ],
  "Criteria": {
    "Operator": "OR",
    "Criterias": [
      {
        "Operator": "AND",
        "Criterias": [
          {
            "Operator": "OR",
            "Criterias": [
              {
                "Operator": "AND",
                "Criterias": [

                ],
                "Criterions": [
                  {
                    "Comment": "nss-softokn is earlier than 0:3.44.0-8.el7_7"
                  },
                  {
                    "Comment": "nss-softokn is signed with Red Hat redhatrelease2 key"
                  }
                ]
              },
              {
                "Operator": "AND",
                "Criterias": [

                ],
                "Criterions": [
                  {
                    "Comment": "nss-softokn-devel is earlier than 0:3.44.0-8.el7_7"
                  },
                  {
                    "Comment": "nss-softokn-devel is signed with Red Hat redhatrelease2 key"
                  }
                ]
              },
              {
                "Operator": "AND",
                "Criterias": [

                ],
                "Criterions": [
                  {
                    "Comment": "nss-softokn-freebl is earlier than 0:3.44.0-8.el7_7"
                  },
                  {
                    "Comment": "nss-softokn-freebl is signed with Red Hat redhatrelease2 key"
                  }
                ]
              },
              {
                "Operator": "AND",
                "Criterias": [

                ],
                "Criterions": [
                  {
                    "Comment": "nss-softokn-freebl-devel is earlier than 0:3.44.0-8.el7_7"
                  },
                  {
                    "Comment": "nss-softokn-freebl-devel is signed with Red Hat redhatrelease2 key"
                  }
                ]
              },
              {
                "Operator": "AND",
                "Criterias": [

                ],
                "Criterions": [
                  {
                    "Comment": "nss-util is earlier than 0:3.44.0-4.el7_7"
                  },
                  {
                    "Comment": "nss-util is signed with Red Hat redhatrelease2 key"
                  }
                ]
              },
              {
                "Operator": "AND",
                "Criterias": [

                ],
                "Criterions": [
                  {
                    "Comment": "nss-util-devel is earlier than 0:3.44.0-4.el7_7"
                  },
                  {
                    "Comment": "nss-util-devel is signed with Red Hat redhatrelease2 key"
                  }
                ]
              },
              {
                "Operator": "AND",
                "Criterias": [

                ],
                "Criterions": [
                  {
                    "Comment": "nss is earlier than 0:3.44.0-7.el7_7"
                  },
                  {
                    "Comment": "nss is signed with Red Hat redhatrelease2 key"
                  }
                ]
              },
              {
                "Operator": "AND",
                "Criterias": [

                ],
                "Criterions": [
                  {
                    "Comment": "nss-devel is earlier than 0:3.44.0-7.el7_7"
                  },
                  {
                    "Comment": "nss-devel is signed with Red Hat redhatrelease2 key"
                  }
                ]
              },
              {
                "Operator": "AND",
                "Criterias": [

                ],
                "Criterions": [
                  {
                    "Comment": "nss-pkcs11-devel is earlier than 0:3.44.0-7.el7_7"
                  },
                  {
                    "Comment": "nss-pkcs11-devel is signed with Red Hat redhatrelease2 key"
                  }
                ]
              },
              {
                "Operator": "AND",
                "Criterias": [

                ],
                "Criterions": [
                  {
                    "Comment": "nss-sysinit is earlier than 0:3.44.0-7.el7_7"
                  },
                  {
                    "Comment": "nss-sysinit is signed with Red Hat redhatrelease2 key"
                  }
                ]
              },
              {
                "Operator": "AND",
                "Criterias": [

                ],
                "Criterions": [
                  {
                    "Comment": "nss-tools is earlier than 0:3.44.0-7.el7_7"
                  },
                  {
                    "Comment": "nss-tools is signed with Red Hat redhatrelease2 key"
                  }
                ]
              }
            ],
            "Criterions": [

            ]
          }
        ],
        "Criterions": [
          {
            "Comment": "Oracle Linux 7 is installed"
          }
        ]
      }
    ],
    "Criterions": [
      {
        "Comment": "Oracle Linux 7 is installed"
      }
    ]
  },
  "Severity": "Important",
  "Cves": [
    {
      "Impact": "",
      "Href": "",
      "ID": "CVE-2019-11729"
    },
    {
      "Impact": "",
      "Href": "",
      "ID": "CVE-2019-11745"
    }
  ],
  "Issued": {
    "Date": "2019-12-10"
  }
}