{
  "Title": "RHSA-2019:0633: ghostscript security and bug fix update (Important)",
  "Description": "The Ghostscript suite contains utilities for rendering PostScript and PDF documents. Ghostscript translates PostScript code to common bitmap formats so that the code can be displayed or printed.\nSecurity Fix(es):\n* ghostscript: superexec operator is available (700585) (CVE-2019-3835)\n* ghostscript: forceput in DefineResource is still accessible (700576) (CVE-2019-3838)\nFor more details about the security issue(s), including the impact, a CVSS score, acknowledgments, and other related information, refer to the CVE page(s) listed in the References section.\nBug Fix(es):\n* ghostscript: Regression: double comment chars '%%' in gs_init.ps leading to missing metadata (BZ#1673915)",
  "Platform": [
    "Red Hat Enterprise Linux 7"
  ],
  "References": [
    {
      "Source": "RHSA",
      "URI": "https://access.redhat.com/errata/RHSA-2019:0633",
      "ID": "RHSA-2019:0633"
    },
    {
      "Source": "CVE",
      "URI": "https://access.redhat.com/security/cve/CVE-2019-3835",
      "ID": "CVE-2019-3835"
    },
    {
      "Source": "CVE",
      "URI": "https://access.redhat.com/security/cve/CVE-2019-3838",
      "ID": "CVE-2019-3838"
    }
  ],
  "Criteria": {
    "Operator": "OR",
    "Criterias": [
      {
        "Operator": "AND",
        "Criterias": [
          {
            "Operator": "OR",
            "Criterias": [
              {
                "Operator": "AND",
                "Criterias": [

                ],
                "Criterions": [
                  {
                    "Comment": "ghostscript is earlier than 0:9.07-31.el7_6.10"
                  },
                  {
                    "Comment": "ghostscript is signed with Red Hat redhatrelease2 key"
                  }
                ]
              },
              {
                "Operator": "AND",
                "Criterias": [

                ],
                "Criterions": [
                  {
                    "Comment": "ghostscript-cups is earlier than 0:9.07-31.el7_6.10"
                  },
                  {
                    "Comment": "ghostscript-cups is signed with Red Hat redhatrelease2 key"
                  }
                ]
              },
              {
                "Operator": "AND",
                "Criterias": [

                ],
                "Criterions": [
                  {
                    "Comment": "ghostscript-devel is earlier than 0:9.07-31.el7_6.10"
                  },
                  {
                    "Comment": "ghostscript-devel is signed with Red Hat redhatrelease2 key"
                  }
                ]
              },
              {
                "Operator": "AND",
                "Criterias": [

                ],
                "Criterions": [
                  {
                    "Comment": "ghostscript-doc is earlier than 0:9.07-31.el7_6.10"
                  },
                  {
                    "Comment": "ghostscript-doc is signed with Red Hat redhatrelease2 key"
                  }
                ]
              },
              {
                "Operator": "AND",
                "Criterias": [

                ],
                "Criterions": [
                  {
                    "Comment": "ghostscript-gtk is earlier than 0:9.07-31.el7_6.10"
                  },
                  {
                    "Comment": "ghostscript-gtk is signed with Red Hat redhatrelease2 key"
                  }
                ]
              }
            ],
            "Criterions": [

            ]
          }
        ],
        "Criterions": [
          {
            "Comment": "Oracle Linux 7 is installed"
          }
        ]
      }
    ],
    "Criterions": [
      {
        "Comment": "Oracle Linux 7 is installed"
      }
    ]
  },
  "Severity": "Important",
  "Cves": [
    {
      "Impact": "",
      "Href": "",
      "ID": "CVE-2019-3835"
    },
    {
      "Impact": "",
      "Href": "",
      "ID": "CVE-2019-3838"
    }
  ],
  "Issued": {
    "Date": "2019-03-21"
  }
}