{
  "Title": "RHSA-2019:0597: cloud-init security update (Moderate)",
  "Description": "The cloud-init packages provide a set of init scripts for cloud instances. Cloud instances need special scripts to run during initialization to retrieve and install SSH keys, and to let the user run various scripts.\nSecurity Fix(es):\n* cloud-init: extra ssh keys added to authorized_keys on the Azure platform (CVE-2019-0816)\nFor more details about the security issue(s), including the impact, a CVSS score, acknowledgments, and other related information, refer to the CVE page(s) listed in the References section.",
  "Platform": [
    "Red Hat Enterprise Linux 7"
  ],
  "References": [
    {
      "Source": "RHSA",
      "URI": "https://access.redhat.com/errata/RHSA-2019:0597",
      "ID": "RHSA-2019:0597"
    },
    {
      "Source": "CVE",
      "URI": "https://access.redhat.com/security/cve/CVE-2019-0816",
      "ID": "CVE-2019-0816"
    }
  ],
  "Criteria": {
    "Operator": "OR",
    "Criterias": [
      {
        "Operator": "AND",
        "Criterias": [

        ],
        "Criterions": [
          {
            "Comment": "Oracle Linux 7 is installed"
          },
          {
            "Comment": "cloud-init is earlier than 0:18.2-1.el7_6.2"
          },
          {
            "Comment": "cloud-init is signed with Red Hat redhatrelease2 key"
          }
        ]
      }
    ],
    "Criterions": [
      {
        "Comment": "Oracle Linux 7 is installed"
      }
    ]
  },
  "Severity": "Moderate",
  "Cves": [
    {
      "Impact": "",
      "Href": "",
      "ID": "CVE-2019-0816"
    }
  ],
  "Issued": {
    "Date": "2019-03-18"
  }
}