{
  "Title": "RHSA-2019:2512: subversion:1.10 security update (Important)",
  "Description": "Subversion (SVN) is a concurrent version control system which enables one or more users to collaborate in developing and maintaining a hierarchy of files and directories while keeping a history of all changes.\nSecurity Fix(es):\n* subversion: NULL pointer dereference in svnserve leading to an unauthenticated remote DoS (CVE-2019-0203)\nFor more details about the security issue(s), including the impact, a CVSS score, acknowledgments, and other related information, refer to the CVE page(s) listed in the References section.",
  "Platform": [
    "Red Hat Enterprise Linux 8"
  ],
  "References": [
    {
      "Source": "RHSA",
      "URI": "https://access.redhat.com/errata/RHSA-2019:2512",
      "ID": "RHSA-2019:2512"
    },
    {
      "Source": "CVE",
      "URI": "https://access.redhat.com/security/cve/CVE-2019-0203",
      "ID": "CVE-2019-0203"
    }
  ],
  "Criteria": {
    "Operator": "OR",
    "Criterias": [
      {
        "Operator": "AND",
        "Criterias": [
          {
            "Operator": "OR",
            "Criterias": [

            ],
            "Criterions": [
              {
                "Comment": "Oracle Linux 8 is installed"
              },
              {
                "Comment": "Red Hat CoreOS 4 is installed"
              }
            ]
          },
          {
            "Operator": "OR",
            "Criterias": [
              {
                "Operator": "AND",
                "Criterias": [
                  {
                    "Operator": "OR",
                    "Criterias": [
                      {
                        "Operator": "AND",
                        "Criterias": [

                        ],
                        "Criterions": [
                          {
                            "Comment": "libserf is earlier than 0:1.3.9-9.module+el8.0.0+3900+919b6753"
                          },
                          {
                            "Comment": "libserf is signed with Red Hat redhatrelease2 key"
                          }
                        ]
                      },
                      {
                        "Operator": "AND",
                        "Criterias": [

                        ],
                        "Criterions": [
                          {
                            "Comment": "mod_dav_svn is earlier than 0:1.10.2-2.module+el8.0.0+3900+919b6753"
                          },
                          {
                            "Comment": "mod_dav_svn is signed with Red Hat redhatrelease2 key"
                          }
                        ]
                      },
                      {
                        "Operator": "AND",
                        "Criterias": [

                        ],
                        "Criterions": [
                          {
                            "Comment": "subversion is earlier than 0:1.10.2-2.module+el8.0.0+3900+919b6753"
                          },
                          {
                            "Comment": "subversion is signed with Red Hat redhatrelease2 key"
                          }
                        ]
                      },
                      {
                        "Operator": "AND",
                        "Criterias": [

                        ],
                        "Criterions": [
                          {
                            "Comment": "subversion-devel is earlier than 0:1.10.2-2.module+el8.0.0+3900+919b6753"
                          },
                          {
                            "Comment": "subversion-devel is signed with Red Hat redhatrelease2 key"
                          }
                        ]
                      },
                      {
                        "Operator": "AND",
                        "Criterias": [

                        ],
                        "Criterions": [
                          {
                            "Comment": "subversion-gnome is earlier than 0:1.10.2-2.module+el8.0.0+3900+919b6753"
                          },
                          {
                            "Comment": "subversion-gnome is signed with Red Hat redhatrelease2 key"
                          }
                        ]
                      },
                      {
                        "Operator": "AND",
                        "Criterias": [

                        ],
                        "Criterions": [
                          {
                            "Comment": "subversion-javahl is earlier than 0:1.10.2-2.module+el8.0.0+3900+919b6753"
                          },
                          {
                            "Comment": "subversion-javahl is signed with Red Hat redhatrelease2 key"
                          }
                        ]
                      },
                      {
                        "Operator": "AND",
                        "Criterias": [

                        ],
                        "Criterions": [
                          {
                            "Comment": "subversion-libs is earlier than 0:1.10.2-2.module+el8.0.0+3900+919b6753"
                          },
                          {
                            "Comment": "subversion-libs is signed with Red Hat redhatrelease2 key"
                          }
                        ]
                      },
                      {
                        "Operator": "AND",
                        "Criterias": [

                        ],
                        "Criterions": [
                          {
                            "Comment": "subversion-perl is earlier than 0:1.10.2-2.module+el8.0.0+3900+919b6753"
                          },
                          {
                            "Comment": "subversion-perl is signed with Red Hat redhatrelease2 key"
                          }
                        ]
                      },
                      {
                        "Operator": "AND",
                        "Criterias": [

                        ],
                        "Criterions": [
                          {
                            "Comment": "subversion-tools is earlier than 0:1.10.2-2.module+el8.0.0+3900+919b6753"
                          },
                          {
                            "Comment": "subversion-tools is signed with Red Hat redhatrelease2 key"
                          }
                        ]
                      },
                      {
                        "Operator": "AND",
                        "Criterias": [

                        ],
                        "Criterions": [
                          {
                            "Comment": "utf8proc is earlier than 0:2.1.1-5.module+el8.0.0+3900+919b6753"
                          },
                          {
                            "Comment": "utf8proc is signed with Red Hat redhatrelease2 key"
                          }
                        ]
                      }
                    ],
                    "Criterions": [

                    ]
                  }
                ],
                "Criterions": [
                  {
                    "Comment": "Module subversion:1.10 is enabled"
                  }
                ]
              }
            ],
            "Criterions": [

            ]
          }
        ],
        "Criterions": [

        ]
      }
    ],
    "Criterions": [
      {
        "Comment": "Oracle Linux 8 is installed"
      }
    ]
  },
  "Severity": "Important",
  "Cves": [
    {
      "Impact": "",
      "Href": "",
      "ID": "CVE-2019-0203"
    }
  ],
  "Issued": {
    "Date": "2019-08-15"
  }
}