{
  "Title": "RHSA-2019:1529: pki-deps:10.6 security update (Important)",
  "Description": "The Public Key Infrastructure (PKI) Deps module contains fundamental packages required as dependencies for the pki-core module by Red Hat Certificate System.\nSecurity Fix(es):\n* tomcat: Due to a mishandling of close in NIO/NIO2 connectors user sessions can get mixed up (CVE-2018-8037)\n* tomcat: Insecure defaults in CORS filter enable 'supportsCredentials' for all origins (CVE-2018-8014)\n* tomcat: Open redirect in default servlet (CVE-2018-11784)\n* tomcat: Host name verification missing in WebSocket client (CVE-2018-8034)\nFor more details about the security issue(s), including the impact, a CVSS score, acknowledgments, and other related information, refer to the CVE page(s) listed in the References section.",
  "Platform": [
    "Red Hat Enterprise Linux 8"
  ],
  "References": [
    {
      "Source": "RHSA",
      "URI": "https://access.redhat.com/errata/RHSA-2019:1529",
      "ID": "RHSA-2019:1529"
    },
    {
      "Source": "CVE",
      "URI": "https://access.redhat.com/security/cve/CVE-2018-11784",
      "ID": "CVE-2018-11784"
    },
    {
      "Source": "CVE",
      "URI": "https://access.redhat.com/security/cve/CVE-2018-8014",
      "ID": "CVE-2018-8014"
    },
    {
      "Source": "CVE",
      "URI": "https://access.redhat.com/security/cve/CVE-2018-8034",
      "ID": "CVE-2018-8034"
    },
    {
      "Source": "CVE",
      "URI": "https://access.redhat.com/security/cve/CVE-2018-8037",
      "ID": "CVE-2018-8037"
    }
  ],
  "Criteria": {
    "Operator": "OR",
    "Criterias": [
      {
        "Operator": "AND",
        "Criterias": [
          {
            "Operator": "OR",
            "Criterias": [

            ],
            "Criterions": [
              {
                "Comment": "Oracle Linux 8 is installed"
              },
              {
                "Comment": "Red Hat CoreOS 4 is installed"
              }
            ]
          },
          {
            "Operator": "OR",
            "Criterias": [
              {
                "Operator": "AND",
                "Criterias": [
                  {
                    "Operator": "OR",
                    "Criterias": [
                      {
                        "Operator": "AND",
                        "Criterias": [

                        ],
                        "Criterions": [
                          {
                            "Comment": "apache-commons-collections is earlier than 0:3.2.2-10.module+el8.0.0+3248+9d514f3b"
                          },
                          {
                            "Comment": "apache-commons-collections is signed with Red Hat redhatrelease2 key"
                          }
                        ]
                      },
                      {
                        "Operator": "AND",
                        "Criterias": [

                        ],
                        "Criterions": [
                          {
                            "Comment": "apache-commons-lang is earlier than 0:2.6-21.module+el8.0.0+3248+9d514f3b"
                          },
                          {
                            "Comment": "apache-commons-lang is signed with Red Hat redhatrelease2 key"
                          }
                        ]
                      },
                      {
                        "Operator": "AND",
                        "Criterias": [

                        ],
                        "Criterions": [
                          {
                            "Comment": "bea-stax-api is earlier than 0:1.2.0-16.module+el8.0.0+3248+9d514f3b"
                          },
                          {
                            "Comment": "bea-stax-api is signed with Red Hat redhatrelease2 key"
                          }
                        ]
                      },
                      {
                        "Operator": "AND",
                        "Criterias": [

                        ],
                        "Criterions": [
                          {
                            "Comment": "glassfish-fastinfoset is earlier than 0:1.2.13-9.module+el8.0.0+3248+9d514f3b"
                          },
                          {
                            "Comment": "glassfish-fastinfoset is signed with Red Hat redhatrelease2 key"
                          }
                        ]
                      },
                      {
                        "Operator": "AND",
                        "Criterias": [

                        ],
                        "Criterions": [
                          {
                            "Comment": "glassfish-jaxb-api is earlier than 0:2.2.12-8.module+el8.0.0+3248+9d514f3b"
                          },
                          {
                            "Comment": "glassfish-jaxb-api is signed with Red Hat redhatrelease2 key"
                          }
                        ]
                      },
                      {
                        "Operator": "AND",
                        "Criterias": [

                        ],
                        "Criterions": [
                          {
                            "Comment": "glassfish-jaxb-core is earlier than 0:2.2.11-11.module+el8.0.0+3248+9d514f3b"
                          },
                          {
                            "Comment": "glassfish-jaxb-core is signed with Red Hat redhatrelease2 key"
                          }
                        ]
                      },
                      {
                        "Operator": "AND",
                        "Criterias": [

                        ],
                        "Criterions": [
                          {
                            "Comment": "glassfish-jaxb-runtime is earlier than 0:2.2.11-11.module+el8.0.0+3248+9d514f3b"
                          },
                          {
                            "Comment": "glassfish-jaxb-runtime is signed with Red Hat redhatrelease2 key"
                          }
                        ]
                      },
                      {
                        "Operator": "AND",
                        "Criterias": [

                        ],
                        "Criterions": [
                          {
                            "Comment": "glassfish-jaxb-txw2 is earlier than 0:2.2.11-11.module+el8.0.0+3248+9d514f3b"
                          },
                          {
                            "Comment": "glassfish-jaxb-txw2 is signed with Red Hat redhatrelease2 key"
                          }
                        ]
                      },
                      {
                        "Operator": "AND",
                        "Criterias": [

                        ],
                        "Criterions": [
                          {
                            "Comment": "jackson-annotations is earlier than 0:2.9.8-1.module+el8.0.0+3248+9d514f3b"
                          },
                          {
                            "Comment": "jackson-annotations is signed with Red Hat redhatrelease2 key"
                          }
                        ]
                      },
                      {
                        "Operator": "AND",
                        "Criterias": [

                        ],
                        "Criterions": [
                          {
                            "Comment": "jackson-core is earlier than 0:2.9.8-1.module+el8.0.0+3248+9d514f3b"
                          },
                          {
                            "Comment": "jackson-core is signed with Red Hat redhatrelease2 key"
                          }
                        ]
                      },
                      {
                        "Operator": "AND",
                        "Criterias": [

                        ],
                        "Criterions": [
                          {
                            "Comment": "jackson-databind is earlier than 0:2.9.8-1.module+el8.0.0+3248+9d514f3b"
                          },
                          {
                            "Comment": "jackson-databind is signed with Red Hat redhatrelease2 key"
                          }
                        ]
                      },
                      {
                        "Operator": "AND",
                        "Criterias": [

                        ],
                        "Criterions": [
                          {
                            "Comment": "jackson-jaxrs-json-provider is earlier than 0:2.9.8-1.module+el8.0.0+3248+9d514f3b"
                          },
                          {
                            "Comment": "jackson-jaxrs-json-provider is signed with Red Hat redhatrelease2 key"
                          }
                        ]
                      },
                      {
                        "Operator": "AND",
                        "Criterias": [

                        ],
                        "Criterions": [
                          {
                            "Comment": "jackson-jaxrs-providers is earlier than 0:2.9.8-1.module+el8.0.0+3248+9d514f3b"
                          },
                          {
                            "Comment": "jackson-jaxrs-providers is signed with Red Hat redhatrelease2 key"
                          }
                        ]
                      },
                      {
                        "Operator": "AND",
                        "Criterias": [

                        ],
                        "Criterions": [
                          {
                            "Comment": "jackson-module-jaxb-annotations is earlier than 0:2.7.6-4.module+el8.0.0+3248+9d514f3b"
                          },
                          {
                            "Comment": "jackson-module-jaxb-annotations is signed with Red Hat redhatrelease2 key"
                          }
                        ]
                      },
                      {
                        "Operator": "AND",
                        "Criterias": [

                        ],
                        "Criterions": [
                          {
                            "Comment": "jakarta-commons-httpclient is earlier than 1:3.1-28.module+el8.0.0+3248+9d514f3b"
                          },
                          {
                            "Comment": "jakarta-commons-httpclient is signed with Red Hat redhatrelease2 key"
                          }
                        ]
                      },
                      {
                        "Operator": "AND",
                        "Criterias": [

                        ],
                        "Criterions": [
                          {
                            "Comment": "javassist is earlier than 0:3.18.1-8.module+el8.0.0+3248+9d514f3b"
                          },
                          {
                            "Comment": "javassist is signed with Red Hat redhatrelease2 key"
                          }
                        ]
                      },
                      {
                        "Operator": "AND",
                        "Criterias": [

                        ],
                        "Criterions": [
                          {
                            "Comment": "javassist-javadoc is earlier than 0:3.18.1-8.module+el8.0.0+3248+9d514f3b"
                          },
                          {
                            "Comment": "javassist-javadoc is signed with Red Hat redhatrelease2 key"
                          }
                        ]
                      },
                      {
                        "Operator": "AND",
                        "Criterias": [

                        ],
                        "Criterions": [
                          {
                            "Comment": "pki-servlet-4.0-api is earlier than 1:9.0.7-14.module+el8.0.0+3248+9d514f3b"
                          },
                          {
                            "Comment": "pki-servlet-4.0-api is signed with Red Hat redhatrelease2 key"
                          }
                        ]
                      },
                      {
                        "Operator": "AND",
                        "Criterias": [

                        ],
                        "Criterions": [
                          {
                            "Comment": "pki-servlet-container is earlier than 1:9.0.7-14.module+el8.0.0+3248+9d514f3b"
                          },
                          {
                            "Comment": "pki-servlet-container is signed with Red Hat redhatrelease2 key"
                          }
                        ]
                      },
                      {
                        "Operator": "AND",
                        "Criterias": [

                        ],
                        "Criterions": [
                          {
                            "Comment": "python-nss-doc is earlier than 0:1.0.1-10.module+el8.0.0+3248+9d514f3b"
                          },
                          {
                            "Comment": "python-nss-doc is signed with Red Hat redhatrelease2 key"
                          }
                        ]
                      },
                      {
                        "Operator": "AND",
                        "Criterias": [

                        ],
                        "Criterions": [
                          {
                            "Comment": "python3-nss is earlier than 0:1.0.1-10.module+el8.0.0+3248+9d514f3b"
                          },
                          {
                            "Comment": "python3-nss is signed with Red Hat redhatrelease2 key"
                          }
                        ]
                      },
                      {
                        "Operator": "AND",
                        "Criterias": [

                        ],
                        "Criterions": [
                          {
                            "Comment": "relaxngDatatype is earlier than 0:2011.1-7.module+el8.0.0+3248+9d514f3b"
                          },
                          {
                            "Comment": "relaxngDatatype is signed with Red Hat redhatrelease2 key"
                          }
                        ]
                      },
                      {
                        "Operator": "AND",
                        "Criterias": [

                        ],
                        "Criterions": [
                          {
                            "Comment": "resteasy is earlier than 0:3.0.26-3.module+el8.0.0+3248+9d514f3b"
                          },
                          {
                            "Comment": "resteasy is signed with Red Hat redhatrelease2 key"
                          }
                        ]
                      },
                      {
                        "Operator": "AND",
                        "Criterias": [

                        ],
                        "Criterions": [
                          {
                            "Comment": "slf4j is earlier than 0:1.7.25-4.module+el8.0.0+3248+9d514f3b"
                          },
                          {
                            "Comment": "slf4j is signed with Red Hat redhatrelease2 key"
                          }
                        ]
                      },
                      {
                        "Operator": "AND",
                        "Criterias": [

                        ],
                        "Criterions": [
                          {
                            "Comment": "slf4j-jdk14 is earlier than 0:1.7.25-4.module+el8.0.0+3248+9d514f3b"
                          },
                          {
                            "Comment": "slf4j-jdk14 is signed with Red Hat redhatrelease2 key"
                          }
                        ]
                      },
                      {
                        "Operator": "AND",
                        "Criterias": [

                        ],
                        "Criterions": [
                          {
                            "Comment": "stax-ex is earlier than 0:1.7.7-8.module+el8.0.0+3248+9d514f3b"
                          },
                          {
                            "Comment": "stax-ex is signed with Red Hat redhatrelease2 key"
                          }
                        ]
                      },
                      {
                        "Operator": "AND",
                        "Criterias": [

                        ],
                        "Criterions": [
                          {
                            "Comment": "velocity is earlier than 0:1.7-24.module+el8.0.0+3248+9d514f3b"
                          },
                          {
                            "Comment": "velocity is signed with Red Hat redhatrelease2 key"
                          }
                        ]
                      },
                      {
                        "Operator": "AND",
                        "Criterias": [

                        ],
                        "Criterions": [
                          {
                            "Comment": "xalan-j2 is earlier than 0:2.7.1-38.module+el8.0.0+3248+9d514f3b"
                          },
                          {
                            "Comment": "xalan-j2 is signed with Red Hat redhatrelease2 key"
                          }
                        ]
                      },
                      {
                        "Operator": "AND",
                        "Criterias": [

                        ],
                        "Criterions": [
                          {
                            "Comment": "xerces-j2 is earlier than 0:2.11.0-34.module+el8.0.0+3248+9d514f3b"
                          },
                          {
                            "Comment": "xerces-j2 is signed with Red Hat redhatrelease2 key"
                          }
                        ]
                      },
                      {
                        "Operator": "AND",
                        "Criterias": [

                        ],
                        "Criterions": [
                          {
                            "Comment": "xml-commons-apis is earlier than 0:1.4.01-25.module+el8.0.0+3248+9d514f3b"
                          },
                          {
                            "Comment": "xml-commons-apis is signed with Red Hat redhatrelease2 key"
                          }
                        ]
                      },
                      {
                        "Operator": "AND",
                        "Criterias": [

                        ],
                        "Criterions": [
                          {
                            "Comment": "xml-commons-resolver is earlier than 0:1.2-26.module+el8.0.0+3248+9d514f3b"
                          },
                          {
                            "Comment": "xml-commons-resolver is signed with Red Hat redhatrelease2 key"
                          }
                        ]
                      },
                      {
                        "Operator": "AND",
                        "Criterias": [

                        ],
                        "Criterions": [
                          {
                            "Comment": "xmlstreambuffer is earlier than 0:1.5.4-8.module+el8.0.0+3248+9d514f3b"
                          },
                          {
                            "Comment": "xmlstreambuffer is signed with Red Hat redhatrelease2 key"
                          }
                        ]
                      },
                      {
                        "Operator": "AND",
                        "Criterias": [

                        ],
                        "Criterions": [
                          {
                            "Comment": "xsom is earlier than 0:0-19.20110809svn.module+el8.0.0+3248+9d514f3b"
                          },
                          {
                            "Comment": "xsom is signed with Red Hat redhatrelease2 key"
                          }
                        ]
                      }
                    ],
                    "Criterions": [

                    ]
                  }
                ],
                "Criterions": [
                  {
                    "Comment": "Module pki-deps:10.6 is enabled"
                  }
                ]
              }
            ],
            "Criterions": [

            ]
          }
        ],
        "Criterions": [

        ]
      }
    ],
    "Criterions": [
      {
        "Comment": "Oracle Linux 8 is installed"
      }
    ]
  },
  "Severity": "Important",
  "Cves": [
    {
      "Impact": "",
      "Href": "",
      "ID": "CVE-2018-11784"
    },
    {
      "Impact": "",
      "Href": "",
      "ID": "CVE-2018-8014"
    },
    {
      "Impact": "",
      "Href": "",
      "ID": "CVE-2018-8034"
    },
    {
      "Impact": "",
      "Href": "",
      "ID": "CVE-2018-8037"
    }
  ],
  "Issued": {
    "Date": "2019-06-18"
  }
}