{
  "Title": "RHSA-2019:1817: java-11-openjdk security update (Moderate)",
  "Description": "The java-11-openjdk packages provide the OpenJDK 11 Java Runtime Environment and the OpenJDK 11 Java Software Development Kit.\nSecurity Fix(es):\n* OpenJDK: Side-channel attack risks in Elliptic Curve (EC) cryptography (Security, 8208698) (CVE-2019-2745)\n* OpenJDK: Insufficient checks of suppressed exceptions in deserialization (Utilities, 8212328) (CVE-2019-2762)\n* OpenJDK: Unbounded memory allocation during deserialization in Collections (Utilities, 8213432) (CVE-2019-2769)\n* OpenJDK: Missing URL format validation (Networking, 8221518) (CVE-2019-2816)\n* OpenJDK: Incorrect handling of certificate status messages during TLS handshake (JSSE, 8222678) (CVE-2019-2821)\n* OpenJDK: Insufficient restriction of privileges in AccessController (Security, 8216381) (CVE-2019-2786)\n* OpenJDK: Non-constant time comparison in ChaCha20Cipher (Security, 8221344) (CVE-2019-2818)\nFor more details about the security issue(s), including the impact, a CVSS score, acknowledgments, and other related information, refer to the CVE page(s) listed in the References section.",
  "Platform": [
    "Red Hat Enterprise Linux 8"
  ],
  "References": [
    {
      "Source": "RHSA",
      "URI": "https://access.redhat.com/errata/RHSA-2019:1817",
      "ID": "RHSA-2019:1817"
    },
    {
      "Source": "CVE",
      "URI": "https://access.redhat.com/security/cve/CVE-2019-2745",
      "ID": "CVE-2019-2745"
    },
    {
      "Source": "CVE",
      "URI": "https://access.redhat.com/security/cve/CVE-2019-2762",
      "ID": "CVE-2019-2762"
    },
    {
      "Source": "CVE",
      "URI": "https://access.redhat.com/security/cve/CVE-2019-2769",
      "ID": "CVE-2019-2769"
    },
    {
      "Source": "CVE",
      "URI": "https://access.redhat.com/security/cve/CVE-2019-2786",
      "ID": "CVE-2019-2786"
    },
    {
      "Source": "CVE",
      "URI": "https://access.redhat.com/security/cve/CVE-2019-2816",
      "ID": "CVE-2019-2816"
    },
    {
      "Source": "CVE",
      "URI": "https://access.redhat.com/security/cve/CVE-2019-2818",
      "ID": "CVE-2019-2818"
    },
    {
      "Source": "CVE",
      "URI": "https://access.redhat.com/security/cve/CVE-2019-2821",
      "ID": "CVE-2019-2821"
    }
  ],
  "Criteria": {
    "Operator": "OR",
    "Criterias": [
      {
        "Operator": "AND",
        "Criterias": [
          {
            "Operator": "OR",
            "Criterias": [

            ],
            "Criterions": [
              {
                "Comment": "Oracle Linux 8 is installed"
              },
              {
                "Comment": "Red Hat CoreOS 4 is installed"
              }
            ]
          },
          {
            "Operator": "OR",
            "Criterias": [
              {
                "Operator": "AND",
                "Criterias": [

                ],
                "Criterions": [
                  {
                    "Comment": "java-11-openjdk is earlier than 1:11.0.4.11-0.el8_0"
                  },
                  {
                    "Comment": "java-11-openjdk is signed with Red Hat redhatrelease2 key"
                  }
                ]
              },
              {
                "Operator": "AND",
                "Criterias": [

                ],
                "Criterions": [
                  {
                    "Comment": "java-11-openjdk-demo is earlier than 1:11.0.4.11-0.el8_0"
                  },
                  {
                    "Comment": "java-11-openjdk-demo is signed with Red Hat redhatrelease2 key"
                  }
                ]
              },
              {
                "Operator": "AND",
                "Criterias": [

                ],
                "Criterions": [
                  {
                    "Comment": "java-11-openjdk-devel is earlier than 1:11.0.4.11-0.el8_0"
                  },
                  {
                    "Comment": "java-11-openjdk-devel is signed with Red Hat redhatrelease2 key"
                  }
                ]
              },
              {
                "Operator": "AND",
                "Criterias": [

                ],
                "Criterions": [
                  {
                    "Comment": "java-11-openjdk-headless is earlier than 1:11.0.4.11-0.el8_0"
                  },
                  {
                    "Comment": "java-11-openjdk-headless is signed with Red Hat redhatrelease2 key"
                  }
                ]
              },
              {
                "Operator": "AND",
                "Criterias": [

                ],
                "Criterions": [
                  {
                    "Comment": "java-11-openjdk-javadoc is earlier than 1:11.0.4.11-0.el8_0"
                  },
                  {
                    "Comment": "java-11-openjdk-javadoc is signed with Red Hat redhatrelease2 key"
                  }
                ]
              },
              {
                "Operator": "AND",
                "Criterias": [

                ],
                "Criterions": [
                  {
                    "Comment": "java-11-openjdk-javadoc-zip is earlier than 1:11.0.4.11-0.el8_0"
                  },
                  {
                    "Comment": "java-11-openjdk-javadoc-zip is signed with Red Hat redhatrelease2 key"
                  }
                ]
              },
              {
                "Operator": "AND",
                "Criterias": [

                ],
                "Criterions": [
                  {
                    "Comment": "java-11-openjdk-jmods is earlier than 1:11.0.4.11-0.el8_0"
                  },
                  {
                    "Comment": "java-11-openjdk-jmods is signed with Red Hat redhatrelease2 key"
                  }
                ]
              },
              {
                "Operator": "AND",
                "Criterias": [

                ],
                "Criterions": [
                  {
                    "Comment": "java-11-openjdk-src is earlier than 1:11.0.4.11-0.el8_0"
                  },
                  {
                    "Comment": "java-11-openjdk-src is signed with Red Hat redhatrelease2 key"
                  }
                ]
              }
            ],
            "Criterions": [

            ]
          }
        ],
        "Criterions": [

        ]
      }
    ],
    "Criterions": [
      {
        "Comment": "Oracle Linux 8 is installed"
      }
    ]
  },
  "Severity": "Moderate",
  "Cves": [
    {
      "Impact": "",
      "Href": "",
      "ID": "CVE-2019-2745"
    },
    {
      "Impact": "",
      "Href": "",
      "ID": "CVE-2019-2762"
    },
    {
      "Impact": "",
      "Href": "",
      "ID": "CVE-2019-2769"
    },
    {
      "Impact": "",
      "Href": "",
      "ID": "CVE-2019-2786"
    },
    {
      "Impact": "",
      "Href": "",
      "ID": "CVE-2019-2816"
    },
    {
      "Impact": "",
      "Href": "",
      "ID": "CVE-2019-2818"
    },
    {
      "Impact": "",
      "Href": "",
      "ID": "CVE-2019-2821"
    }
  ],
  "Issued": {
    "Date": "2019-07-22"
  }
}