{
  "Title": "RHSA-2019:0269: thunderbird security update (Important)",
  "Description": "Mozilla Thunderbird is a standalone mail and newsgroup client.\nThis update upgrades Thunderbird to version 60.5.0.\nSecurity Fix(es):\n* Mozilla: Use-after-free parsing HTML5 stream (CVE-2018-18500)\n* Mozilla: Memory safety bugs fixed in Firefox 65 and Firefox ESR 60.5 (CVE-2018-18501)\n* Mozilla: Privilege escalation through IPC channel messages (CVE-2018-18505)\n* libical: Multiple use-after-free vulnerabilities (CVE-2016-5824)\nFor more details about the security issue(s), including the impact, a CVSS score, and other related information, refer to the CVE page(s) listed in the References section.\nRed Hat would like to thank the Mozilla project for reporting these issues. Upstream acknowledges Yaniv Frank (SophosLabs), Alex Gaynor, Christoph Diehl, Steven Crane, Jason Kratzer, Gary Kwong, Christian Holler, and Jed Davis as the original reporters.",
  "Platform": [
    "Red Hat Enterprise Linux 6"
  ],
  "References": [
    {
      "Source": "RHSA",
      "URI": "https://access.redhat.com/errata/RHSA-2019:0269",
      "ID": "RHSA-2019:0269"
    },
    {
      "Source": "CVE",
      "URI": "https://access.redhat.com/security/cve/CVE-2016-5824",
      "ID": "CVE-2016-5824"
    },
    {
      "Source": "CVE",
      "URI": "https://access.redhat.com/security/cve/CVE-2018-18500",
      "ID": "CVE-2018-18500"
    },
    {
      "Source": "CVE",
      "URI": "https://access.redhat.com/security/cve/CVE-2018-18501",
      "ID": "CVE-2018-18501"
    },
    {
      "Source": "CVE",
      "URI": "https://access.redhat.com/security/cve/CVE-2018-18505",
      "ID": "CVE-2018-18505"
    }
  ],
  "Criteria": {
    "Operator": "OR",
    "Criterias": [
      {
        "Operator": "AND",
        "Criterias": [

        ],
        "Criterions": [
          {
            "Comment": "Oracle Linux 6 is installed"
          },
          {
            "Comment": "thunderbird is earlier than 0:60.5.0-1.el6_10"
          },
          {
            "Comment": "thunderbird is signed with Red Hat redhatrelease2 key"
          }
        ]
      }
    ],
    "Criterions": [
      {
        "Comment": "Oracle Linux 6 is installed"
      }
    ]
  },
  "Severity": "Important",
  "Cves": [
    {
      "Impact": "",
      "Href": "",
      "ID": "CVE-2016-5824"
    },
    {
      "Impact": "",
      "Href": "",
      "ID": "CVE-2018-18500"
    },
    {
      "Impact": "",
      "Href": "",
      "ID": "CVE-2018-18501"
    },
    {
      "Impact": "",
      "Href": "",
      "ID": "CVE-2018-18505"
    }
  ],
  "Issued": {
    "Date": "2019-02-04"
  }
}