{
  "Title": "RHSA-2019:2141: kde-workspace security and bug fix update (Low)",
  "Description": "The K Desktop Environment (KDE) is a graphical desktop environment for the X Window System. The kdelibs packages include core libraries for the K Desktop Environment. \nThe kde-workspace packages consist of components providing the KDE graphical desktop environment.\nSecurity Fix(es):\n* kde-workspace: Missing sanitization of notifications allows to leak client IP address via IMG element (CVE-2018-6790)\nFor more details about the security issue(s), including the impact, a CVSS score, acknowledgments, and other related information, refer to the CVE page(s) listed in the References section.\nAdditional Changes:\nFor detailed information on changes in this release, see the Red Hat Enterprise Linux 7.7 Release Notes linked from the References section.",
  "Platform": [
    "Red Hat Enterprise Linux 7"
  ],
  "References": [
    {
      "Source": "RHSA",
      "URI": "https://access.redhat.com/errata/RHSA-2019:2141",
      "ID": "RHSA-2019:2141"
    },
    {
      "Source": "CVE",
      "URI": "https://access.redhat.com/security/cve/CVE-2018-6790",
      "ID": "CVE-2018-6790"
    }
  ],
  "Criteria": {
    "Operator": "OR",
    "Criterias": [
      {
        "Operator": "AND",
        "Criterias": [
          {
            "Operator": "OR",
            "Criterias": [
              {
                "Operator": "AND",
                "Criterias": [

                ],
                "Criterions": [
                  {
                    "Comment": "kcm_colors is earlier than 0:4.11.19-13.el7"
                  },
                  {
                    "Comment": "kcm_colors is signed with Red Hat redhatrelease2 key"
                  }
                ]
              },
              {
                "Operator": "AND",
                "Criterias": [

                ],
                "Criterions": [
                  {
                    "Comment": "kde-style-oxygen is earlier than 0:4.11.19-13.el7"
                  },
                  {
                    "Comment": "kde-style-oxygen is signed with Red Hat redhatrelease2 key"
                  }
                ]
              },
              {
                "Operator": "AND",
                "Criterias": [

                ],
                "Criterions": [
                  {
                    "Comment": "kde-workspace is earlier than 0:4.11.19-13.el7"
                  },
                  {
                    "Comment": "kde-workspace is signed with Red Hat redhatrelease2 key"
                  }
                ]
              },
              {
                "Operator": "AND",
                "Criterias": [

                ],
                "Criterions": [
                  {
                    "Comment": "kde-workspace-devel is earlier than 0:4.11.19-13.el7"
                  },
                  {
                    "Comment": "kde-workspace-devel is signed with Red Hat redhatrelease2 key"
                  }
                ]
              },
              {
                "Operator": "AND",
                "Criterias": [

                ],
                "Criterions": [
                  {
                    "Comment": "kde-workspace-ksplash-themes is earlier than 0:4.11.19-13.el7"
                  },
                  {
                    "Comment": "kde-workspace-ksplash-themes is signed with Red Hat redhatrelease2 key"
                  }
                ]
              },
              {
                "Operator": "AND",
                "Criterias": [

                ],
                "Criterions": [
                  {
                    "Comment": "kde-workspace-libs is earlier than 0:4.11.19-13.el7"
                  },
                  {
                    "Comment": "kde-workspace-libs is signed with Red Hat redhatrelease2 key"
                  }
                ]
              },
              {
                "Operator": "AND",
                "Criterias": [

                ],
                "Criterions": [
                  {
                    "Comment": "kdeclassic-cursor-theme is earlier than 0:4.11.19-13.el7"
                  },
                  {
                    "Comment": "kdeclassic-cursor-theme is signed with Red Hat redhatrelease2 key"
                  }
                ]
              },
              {
                "Operator": "AND",
                "Criterias": [

                ],
                "Criterions": [
                  {
                    "Comment": "kgreeter-plugins is earlier than 0:4.11.19-13.el7"
                  },
                  {
                    "Comment": "kgreeter-plugins is signed with Red Hat redhatrelease2 key"
                  }
                ]
              },
              {
                "Operator": "AND",
                "Criterias": [

                ],
                "Criterions": [
                  {
                    "Comment": "khotkeys is earlier than 0:4.11.19-13.el7"
                  },
                  {
                    "Comment": "khotkeys is signed with Red Hat redhatrelease2 key"
                  }
                ]
              },
              {
                "Operator": "AND",
                "Criterias": [

                ],
                "Criterions": [
                  {
                    "Comment": "khotkeys-libs is earlier than 0:4.11.19-13.el7"
                  },
                  {
                    "Comment": "khotkeys-libs is signed with Red Hat redhatrelease2 key"
                  }
                ]
              },
              {
                "Operator": "AND",
                "Criterias": [

                ],
                "Criterions": [
                  {
                    "Comment": "kinfocenter is earlier than 0:4.11.19-13.el7"
                  },
                  {
                    "Comment": "kinfocenter is signed with Red Hat redhatrelease2 key"
                  }
                ]
              },
              {
                "Operator": "AND",
                "Criterias": [

                ],
                "Criterions": [
                  {
                    "Comment": "kmenuedit is earlier than 0:4.11.19-13.el7"
                  },
                  {
                    "Comment": "kmenuedit is signed with Red Hat redhatrelease2 key"
                  }
                ]
              },
              {
                "Operator": "AND",
                "Criterias": [

                ],
                "Criterions": [
                  {
                    "Comment": "ksysguard is earlier than 0:4.11.19-13.el7"
                  },
                  {
                    "Comment": "ksysguard is signed with Red Hat redhatrelease2 key"
                  }
                ]
              },
              {
                "Operator": "AND",
                "Criterias": [

                ],
                "Criterions": [
                  {
                    "Comment": "ksysguard-libs is earlier than 0:4.11.19-13.el7"
                  },
                  {
                    "Comment": "ksysguard-libs is signed with Red Hat redhatrelease2 key"
                  }
                ]
              },
              {
                "Operator": "AND",
                "Criterias": [

                ],
                "Criterions": [
                  {
                    "Comment": "ksysguardd is earlier than 0:4.11.19-13.el7"
                  },
                  {
                    "Comment": "ksysguardd is signed with Red Hat redhatrelease2 key"
                  }
                ]
              },
              {
                "Operator": "AND",
                "Criterias": [

                ],
                "Criterions": [
                  {
                    "Comment": "kwin is earlier than 0:4.11.19-13.el7"
                  },
                  {
                    "Comment": "kwin is signed with Red Hat redhatrelease2 key"
                  }
                ]
              },
              {
                "Operator": "AND",
                "Criterias": [

                ],
                "Criterions": [
                  {
                    "Comment": "kwin-gles is earlier than 0:4.11.19-13.el7"
                  },
                  {
                    "Comment": "kwin-gles is signed with Red Hat redhatrelease2 key"
                  }
                ]
              },
              {
                "Operator": "AND",
                "Criterias": [

                ],
                "Criterions": [
                  {
                    "Comment": "kwin-gles-libs is earlier than 0:4.11.19-13.el7"
                  },
                  {
                    "Comment": "kwin-gles-libs is signed with Red Hat redhatrelease2 key"
                  }
                ]
              },
              {
                "Operator": "AND",
                "Criterias": [

                ],
                "Criterions": [
                  {
                    "Comment": "kwin-libs is earlier than 0:4.11.19-13.el7"
                  },
                  {
                    "Comment": "kwin-libs is signed with Red Hat redhatrelease2 key"
                  }
                ]
              },
              {
                "Operator": "AND",
                "Criterias": [

                ],
                "Criterions": [
                  {
                    "Comment": "libkworkspace is earlier than 0:4.11.19-13.el7"
                  },
                  {
                    "Comment": "libkworkspace is signed with Red Hat redhatrelease2 key"
                  }
                ]
              },
              {
                "Operator": "AND",
                "Criterias": [

                ],
                "Criterions": [
                  {
                    "Comment": "oxygen-cursor-themes is earlier than 0:4.11.19-13.el7"
                  },
                  {
                    "Comment": "oxygen-cursor-themes is signed with Red Hat redhatrelease2 key"
                  }
                ]
              },
              {
                "Operator": "AND",
                "Criterias": [

                ],
                "Criterions": [
                  {
                    "Comment": "plasma-scriptengine-python is earlier than 0:4.11.19-13.el7"
                  },
                  {
                    "Comment": "plasma-scriptengine-python is signed with Red Hat redhatrelease2 key"
                  }
                ]
              },
              {
                "Operator": "AND",
                "Criterias": [

                ],
                "Criterions": [
                  {
                    "Comment": "plasma-scriptengine-ruby is earlier than 0:4.11.19-13.el7"
                  },
                  {
                    "Comment": "plasma-scriptengine-ruby is signed with Red Hat redhatrelease2 key"
                  }
                ]
              },
              {
                "Operator": "AND",
                "Criterias": [

                ],
                "Criterions": [
                  {
                    "Comment": "virtuoso-opensource is earlier than 1:6.1.6-7.el7"
                  },
                  {
                    "Comment": "virtuoso-opensource is signed with Red Hat redhatrelease2 key"
                  }
                ]
              },
              {
                "Operator": "AND",
                "Criterias": [

                ],
                "Criterions": [
                  {
                    "Comment": "virtuoso-opensource-utils is earlier than 1:6.1.6-7.el7"
                  },
                  {
                    "Comment": "virtuoso-opensource-utils is signed with Red Hat redhatrelease2 key"
                  }
                ]
              },
              {
                "Operator": "AND",
                "Criterias": [

                ],
                "Criterions": [
                  {
                    "Comment": "kmag is earlier than 0:4.10.5-4.el7"
                  },
                  {
                    "Comment": "kmag is signed with Red Hat redhatrelease2 key"
                  }
                ]
              },
              {
                "Operator": "AND",
                "Criterias": [

                ],
                "Criterions": [
                  {
                    "Comment": "kde-settings is earlier than 0:19-23.9.el7"
                  },
                  {
                    "Comment": "kde-settings is signed with Red Hat redhatrelease2 key"
                  }
                ]
              },
              {
                "Operator": "AND",
                "Criterias": [

                ],
                "Criterions": [
                  {
                    "Comment": "kde-settings-ksplash is earlier than 0:19-23.9.el7"
                  },
                  {
                    "Comment": "kde-settings-ksplash is signed with Red Hat redhatrelease2 key"
                  }
                ]
              },
              {
                "Operator": "AND",
                "Criterias": [

                ],
                "Criterions": [
                  {
                    "Comment": "kde-settings-minimal is earlier than 0:19-23.9.el7"
                  },
                  {
                    "Comment": "kde-settings-minimal is signed with Red Hat redhatrelease2 key"
                  }
                ]
              },
              {
                "Operator": "AND",
                "Criterias": [

                ],
                "Criterions": [
                  {
                    "Comment": "kde-settings-plasma is earlier than 0:19-23.9.el7"
                  },
                  {
                    "Comment": "kde-settings-plasma is signed with Red Hat redhatrelease2 key"
                  }
                ]
              },
              {
                "Operator": "AND",
                "Criterias": [

                ],
                "Criterions": [
                  {
                    "Comment": "kde-settings-pulseaudio is earlier than 0:19-23.9.el7"
                  },
                  {
                    "Comment": "kde-settings-pulseaudio is signed with Red Hat redhatrelease2 key"
                  }
                ]
              },
              {
                "Operator": "AND",
                "Criterias": [

                ],
                "Criterions": [
                  {
                    "Comment": "qt-settings is earlier than 0:19-23.9.el7"
                  },
                  {
                    "Comment": "qt-settings is signed with Red Hat redhatrelease2 key"
                  }
                ]
              },
              {
                "Operator": "AND",
                "Criterias": [

                ],
                "Criterions": [
                  {
                    "Comment": "kdelibs is earlier than 6:4.14.8-10.el7"
                  },
                  {
                    "Comment": "kdelibs is signed with Red Hat redhatrelease2 key"
                  }
                ]
              },
              {
                "Operator": "AND",
                "Criterias": [

                ],
                "Criterions": [
                  {
                    "Comment": "kdelibs-apidocs is earlier than 6:4.14.8-10.el7"
                  },
                  {
                    "Comment": "kdelibs-apidocs is signed with Red Hat redhatrelease2 key"
                  }
                ]
              },
              {
                "Operator": "AND",
                "Criterias": [

                ],
                "Criterions": [
                  {
                    "Comment": "kdelibs-common is earlier than 6:4.14.8-10.el7"
                  },
                  {
                    "Comment": "kdelibs-common is signed with Red Hat redhatrelease2 key"
                  }
                ]
              },
              {
                "Operator": "AND",
                "Criterias": [

                ],
                "Criterions": [
                  {
                    "Comment": "kdelibs-devel is earlier than 6:4.14.8-10.el7"
                  },
                  {
                    "Comment": "kdelibs-devel is signed with Red Hat redhatrelease2 key"
                  }
                ]
              },
              {
                "Operator": "AND",
                "Criterias": [

                ],
                "Criterions": [
                  {
                    "Comment": "kdelibs-ktexteditor is earlier than 6:4.14.8-10.el7"
                  },
                  {
                    "Comment": "kdelibs-ktexteditor is signed with Red Hat redhatrelease2 key"
                  }
                ]
              }
            ],
            "Criterions": [

            ]
          }
        ],
        "Criterions": [
          {
            "Comment": "Oracle Linux 7 is installed"
          }
        ]
      }
    ],
    "Criterions": [
      {
        "Comment": "Oracle Linux 7 is installed"
      }
    ]
  },
  "Severity": "Low",
  "Cves": [
    {
      "Impact": "",
      "Href": "",
      "ID": "CVE-2018-6790"
    }
  ],
  "Issued": {
    "Date": "2019-08-06"
  }
}