{
  "Title": "RHSA-2019:1517: gvfs security update (Moderate)",
  "Description": "GVFS is the GNOME Desktop Virtual File System layer that allows users to easily access local and remote data using File Transfer Protocol (FTP), Secure Shell File Transfer Protocol (SFTP), Web Distributed Authoring and Versioning (WebDAV), Common Internet File System (CIFS), Server Message Block (SMB), and other protocols. GVFS integrates with the GNOME I/O (GIO) abstraction layer.\nSecurity Fix(es):\n* gvfs: Incorrect authorization in admin backend allows privileged users to read and modify arbitrary files without prompting for password (CVE-2019-3827)\nFor more details about the security issue(s), including the impact, a CVSS score, acknowledgments, and other related information, refer to the CVE page(s) listed in the References section.",
  "Platform": [
    "Red Hat Enterprise Linux 8"
  ],
  "References": [
    {
      "Source": "RHSA",
      "URI": "https://access.redhat.com/errata/RHSA-2019:1517",
      "ID": "RHSA-2019:1517"
    },
    {
      "Source": "CVE",
      "URI": "https://access.redhat.com/security/cve/CVE-2019-3827",
      "ID": "CVE-2019-3827"
    }
  ],
  "Criteria": {
    "Operator": "OR",
    "Criterias": [
      {
        "Operator": "AND",
        "Criterias": [
          {
            "Operator": "OR",
            "Criterias": [

            ],
            "Criterions": [
              {
                "Comment": "Oracle Linux 8 is installed"
              },
              {
                "Comment": "Red Hat CoreOS 4 is installed"
              }
            ]
          },
          {
            "Operator": "OR",
            "Criterias": [
              {
                "Operator": "AND",
                "Criterias": [

                ],
                "Criterions": [
                  {
                    "Comment": "gvfs is earlier than 0:1.36.2-2.el8_0.1"
                  },
                  {
                    "Comment": "gvfs is signed with Red Hat redhatrelease2 key"
                  }
                ]
              },
              {
                "Operator": "AND",
                "Criterias": [

                ],
                "Criterions": [
                  {
                    "Comment": "gvfs-afc is earlier than 0:1.36.2-2.el8_0.1"
                  },
                  {
                    "Comment": "gvfs-afc is signed with Red Hat redhatrelease2 key"
                  }
                ]
              },
              {
                "Operator": "AND",
                "Criterias": [

                ],
                "Criterions": [
                  {
                    "Comment": "gvfs-afp is earlier than 0:1.36.2-2.el8_0.1"
                  },
                  {
                    "Comment": "gvfs-afp is signed with Red Hat redhatrelease2 key"
                  }
                ]
              },
              {
                "Operator": "AND",
                "Criterias": [

                ],
                "Criterions": [
                  {
                    "Comment": "gvfs-archive is earlier than 0:1.36.2-2.el8_0.1"
                  },
                  {
                    "Comment": "gvfs-archive is signed with Red Hat redhatrelease2 key"
                  }
                ]
              },
              {
                "Operator": "AND",
                "Criterias": [

                ],
                "Criterions": [
                  {
                    "Comment": "gvfs-client is earlier than 0:1.36.2-2.el8_0.1"
                  },
                  {
                    "Comment": "gvfs-client is signed with Red Hat redhatrelease2 key"
                  }
                ]
              },
              {
                "Operator": "AND",
                "Criterias": [

                ],
                "Criterions": [
                  {
                    "Comment": "gvfs-devel is earlier than 0:1.36.2-2.el8_0.1"
                  },
                  {
                    "Comment": "gvfs-devel is signed with Red Hat redhatrelease2 key"
                  }
                ]
              },
              {
                "Operator": "AND",
                "Criterias": [

                ],
                "Criterions": [
                  {
                    "Comment": "gvfs-fuse is earlier than 0:1.36.2-2.el8_0.1"
                  },
                  {
                    "Comment": "gvfs-fuse is signed with Red Hat redhatrelease2 key"
                  }
                ]
              },
              {
                "Operator": "AND",
                "Criterias": [

                ],
                "Criterions": [
                  {
                    "Comment": "gvfs-goa is earlier than 0:1.36.2-2.el8_0.1"
                  },
                  {
                    "Comment": "gvfs-goa is signed with Red Hat redhatrelease2 key"
                  }
                ]
              },
              {
                "Operator": "AND",
                "Criterias": [

                ],
                "Criterions": [
                  {
                    "Comment": "gvfs-gphoto2 is earlier than 0:1.36.2-2.el8_0.1"
                  },
                  {
                    "Comment": "gvfs-gphoto2 is signed with Red Hat redhatrelease2 key"
                  }
                ]
              },
              {
                "Operator": "AND",
                "Criterias": [

                ],
                "Criterions": [
                  {
                    "Comment": "gvfs-mtp is earlier than 0:1.36.2-2.el8_0.1"
                  },
                  {
                    "Comment": "gvfs-mtp is signed with Red Hat redhatrelease2 key"
                  }
                ]
              },
              {
                "Operator": "AND",
                "Criterias": [

                ],
                "Criterions": [
                  {
                    "Comment": "gvfs-smb is earlier than 0:1.36.2-2.el8_0.1"
                  },
                  {
                    "Comment": "gvfs-smb is signed with Red Hat redhatrelease2 key"
                  }
                ]
              }
            ],
            "Criterions": [

            ]
          }
        ],
        "Criterions": [

        ]
      }
    ],
    "Criterions": [
      {
        "Comment": "Oracle Linux 8 is installed"
      }
    ]
  },
  "Severity": "Moderate",
  "Cves": [
    {
      "Impact": "",
      "Href": "",
      "ID": "CVE-2019-3827"
    }
  ],
  "Issued": {
    "Date": "2019-06-18"
  }
}