{
  "Title": "RHSA-2019:1022: python-jinja2 security update (Important)",
  "Description": "The python-jinja2 package contains Jinja2, a template engine written in pure Python. Jinja2 provides a Django inspired non-XML syntax but supports inline expressions and an optional sandboxed environment. \nSecurity Fix(es):\n* python-jinja2: Sandbox escape due to information disclosure via str.format (CVE-2016-10745)\nFor more details about the security issue(s), including the impact, a CVSS score, acknowledgments, and other related information, refer to the CVE page(s) listed in the References section.",
  "Platform": [
    "Red Hat Enterprise Linux 7"
  ],
  "References": [
    {
      "Source": "RHSA",
      "URI": "https://access.redhat.com/errata/RHSA-2019:1022",
      "ID": "RHSA-2019:1022"
    },
    {
      "Source": "CVE",
      "URI": "https://access.redhat.com/security/cve/CVE-2016-10745",
      "ID": "CVE-2016-10745"
    }
  ],
  "Criteria": {
    "Operator": "OR",
    "Criterias": [
      {
        "Operator": "AND",
        "Criterias": [

        ],
        "Criterions": [
          {
            "Comment": "Oracle Linux 7 is installed"
          },
          {
            "Comment": "python-jinja2 is earlier than 0:2.7.2-3.el7_6"
          },
          {
            "Comment": "python-jinja2 is signed with Red Hat redhatrelease2 key"
          }
        ]
      }
    ],
    "Criterions": [
      {
        "Comment": "Oracle Linux 7 is installed"
      }
    ]
  },
  "Severity": "Important",
  "Cves": [
    {
      "Impact": "",
      "Href": "",
      "ID": "CVE-2016-10745"
    }
  ],
  "Issued": {
    "Date": "2019-05-07"
  }
}