{
  "Title": "RHSA-2019:3520: python3 security and bug fix update (Moderate)",
  "Description": "Python is an interpreted, interactive, object-oriented programming language, which includes modules, classes, exceptions, very high level dynamic data types and dynamic typing. Python supports interfaces to many system calls and libraries, as well as to various windowing systems.\nSecurity Fix(es):\n* python: NULL pointer dereference using a specially crafted X509 certificate (CVE-2019-5010)\n* python: CRLF injection via the query part of the url passed to urlopen() (CVE-2019-9740)\n* python: CRLF injection via the path part of the url passed to urlopen() (CVE-2019-9947)\n* python: Undocumented local_file protocol allows remote attackers to bypass protection mechanisms (CVE-2019-9948)\nFor more details about the security issue(s), including the impact, a CVSS score, acknowledgments, and other related information, refer to the CVE page(s) listed in the References section.\nAdditional Changes:\nFor detailed information on changes in this release, see the Red Hat Enterprise Linux 8.1 Release Notes linked from the References section.",
  "Platform": [
    "Red Hat Enterprise Linux 8"
  ],
  "References": [
    {
      "Source": "RHSA",
      "URI": "https://access.redhat.com/errata/RHSA-2019:3520",
      "ID": "RHSA-2019:3520"
    },
    {
      "Source": "CVE",
      "URI": "https://access.redhat.com/security/cve/CVE-2019-5010",
      "ID": "CVE-2019-5010"
    },
    {
      "Source": "CVE",
      "URI": "https://access.redhat.com/security/cve/CVE-2019-9740",
      "ID": "CVE-2019-9740"
    },
    {
      "Source": "CVE",
      "URI": "https://access.redhat.com/security/cve/CVE-2019-9947",
      "ID": "CVE-2019-9947"
    },
    {
      "Source": "CVE",
      "URI": "https://access.redhat.com/security/cve/CVE-2019-9948",
      "ID": "CVE-2019-9948"
    }
  ],
  "Criteria": {
    "Operator": "OR",
    "Criterias": [
      {
        "Operator": "AND",
        "Criterias": [
          {
            "Operator": "OR",
            "Criterias": [

            ],
            "Criterions": [
              {
                "Comment": "Oracle Linux 8 is installed"
              },
              {
                "Comment": "Red Hat CoreOS 4 is installed"
              }
            ]
          },
          {
            "Operator": "OR",
            "Criterias": [
              {
                "Operator": "AND",
                "Criterias": [

                ],
                "Criterions": [
                  {
                    "Comment": "platform-python is earlier than 0:3.6.8-15.1.el8"
                  },
                  {
                    "Comment": "platform-python is signed with Red Hat redhatrelease2 key"
                  }
                ]
              },
              {
                "Operator": "AND",
                "Criterias": [

                ],
                "Criterions": [
                  {
                    "Comment": "platform-python-debug is earlier than 0:3.6.8-15.1.el8"
                  },
                  {
                    "Comment": "platform-python-debug is signed with Red Hat redhatrelease2 key"
                  }
                ]
              },
              {
                "Operator": "AND",
                "Criterias": [

                ],
                "Criterions": [
                  {
                    "Comment": "platform-python-devel is earlier than 0:3.6.8-15.1.el8"
                  },
                  {
                    "Comment": "platform-python-devel is signed with Red Hat redhatrelease2 key"
                  }
                ]
              },
              {
                "Operator": "AND",
                "Criterias": [

                ],
                "Criterions": [
                  {
                    "Comment": "python3-idle is earlier than 0:3.6.8-15.1.el8"
                  },
                  {
                    "Comment": "python3-idle is signed with Red Hat redhatrelease2 key"
                  }
                ]
              },
              {
                "Operator": "AND",
                "Criterias": [

                ],
                "Criterions": [
                  {
                    "Comment": "python3-libs is earlier than 0:3.6.8-15.1.el8"
                  },
                  {
                    "Comment": "python3-libs is signed with Red Hat redhatrelease2 key"
                  }
                ]
              },
              {
                "Operator": "AND",
                "Criterias": [

                ],
                "Criterions": [
                  {
                    "Comment": "python3-test is earlier than 0:3.6.8-15.1.el8"
                  },
                  {
                    "Comment": "python3-test is signed with Red Hat redhatrelease2 key"
                  }
                ]
              },
              {
                "Operator": "AND",
                "Criterias": [

                ],
                "Criterions": [
                  {
                    "Comment": "python3-tkinter is earlier than 0:3.6.8-15.1.el8"
                  },
                  {
                    "Comment": "python3-tkinter is signed with Red Hat redhatrelease2 key"
                  }
                ]
              }
            ],
            "Criterions": [

            ]
          }
        ],
        "Criterions": [

        ]
      }
    ],
    "Criterions": [
      {
        "Comment": "Oracle Linux 8 is installed"
      }
    ]
  },
  "Severity": "Moderate",
  "Cves": [
    {
      "Impact": "",
      "Href": "",
      "ID": "CVE-2019-5010"
    },
    {
      "Impact": "",
      "Href": "",
      "ID": "CVE-2019-9740"
    },
    {
      "Impact": "",
      "Href": "",
      "ID": "CVE-2019-9947"
    },
    {
      "Impact": "",
      "Href": "",
      "ID": "CVE-2019-9948"
    }
  ],
  "Issued": {
    "Date": "2019-11-05"
  }
}