{
  "Title": "RHSA-2019:2606: kdelibs and kde-settings security and bug fix update (Important)",
  "Description": "The K Desktop Environment (KDE) is a graphical desktop environment for the X Window System. The kdelibs packages include core libraries for the K Desktop Environment. \nSecurity Fix(es):\n* kdelibs: malicious desktop files and configuration files lead to code execution with minimal user interaction (CVE-2019-14744)\nFor more details about the security issue(s), including the impact, a CVSS score, acknowledgments, and other related information, refer to the CVE page(s) listed in the References section.\nBug Fix(es):\n* kde.csh profile file contains bourne-shell code (BZ#1740042)",
  "Platform": [
    "Red Hat Enterprise Linux 7"
  ],
  "References": [
    {
      "Source": "RHSA",
      "URI": "https://access.redhat.com/errata/RHSA-2019:2606",
      "ID": "RHSA-2019:2606"
    },
    {
      "Source": "CVE",
      "URI": "https://access.redhat.com/security/cve/CVE-2019-14744",
      "ID": "CVE-2019-14744"
    }
  ],
  "Criteria": {
    "Operator": "OR",
    "Criterias": [
      {
        "Operator": "AND",
        "Criterias": [
          {
            "Operator": "OR",
            "Criterias": [
              {
                "Operator": "AND",
                "Criterias": [

                ],
                "Criterions": [
                  {
                    "Comment": "kde-settings is earlier than 0:19-23.10.el7_7"
                  },
                  {
                    "Comment": "kde-settings is signed with Red Hat redhatrelease2 key"
                  }
                ]
              },
              {
                "Operator": "AND",
                "Criterias": [

                ],
                "Criterions": [
                  {
                    "Comment": "kde-settings-ksplash is earlier than 0:19-23.10.el7_7"
                  },
                  {
                    "Comment": "kde-settings-ksplash is signed with Red Hat redhatrelease2 key"
                  }
                ]
              },
              {
                "Operator": "AND",
                "Criterias": [

                ],
                "Criterions": [
                  {
                    "Comment": "kde-settings-minimal is earlier than 0:19-23.10.el7_7"
                  },
                  {
                    "Comment": "kde-settings-minimal is signed with Red Hat redhatrelease2 key"
                  }
                ]
              },
              {
                "Operator": "AND",
                "Criterias": [

                ],
                "Criterions": [
                  {
                    "Comment": "kde-settings-plasma is earlier than 0:19-23.10.el7_7"
                  },
                  {
                    "Comment": "kde-settings-plasma is signed with Red Hat redhatrelease2 key"
                  }
                ]
              },
              {
                "Operator": "AND",
                "Criterias": [

                ],
                "Criterions": [
                  {
                    "Comment": "kde-settings-pulseaudio is earlier than 0:19-23.10.el7_7"
                  },
                  {
                    "Comment": "kde-settings-pulseaudio is signed with Red Hat redhatrelease2 key"
                  }
                ]
              },
              {
                "Operator": "AND",
                "Criterias": [

                ],
                "Criterions": [
                  {
                    "Comment": "qt-settings is earlier than 0:19-23.10.el7_7"
                  },
                  {
                    "Comment": "qt-settings is signed with Red Hat redhatrelease2 key"
                  }
                ]
              },
              {
                "Operator": "AND",
                "Criterias": [

                ],
                "Criterions": [
                  {
                    "Comment": "kdelibs is earlier than 6:4.14.8-11.el7_7"
                  },
                  {
                    "Comment": "kdelibs is signed with Red Hat redhatrelease2 key"
                  }
                ]
              },
              {
                "Operator": "AND",
                "Criterias": [

                ],
                "Criterions": [
                  {
                    "Comment": "kdelibs-apidocs is earlier than 6:4.14.8-11.el7_7"
                  },
                  {
                    "Comment": "kdelibs-apidocs is signed with Red Hat redhatrelease2 key"
                  }
                ]
              },
              {
                "Operator": "AND",
                "Criterias": [

                ],
                "Criterions": [
                  {
                    "Comment": "kdelibs-common is earlier than 6:4.14.8-11.el7_7"
                  },
                  {
                    "Comment": "kdelibs-common is signed with Red Hat redhatrelease2 key"
                  }
                ]
              },
              {
                "Operator": "AND",
                "Criterias": [

                ],
                "Criterions": [
                  {
                    "Comment": "kdelibs-devel is earlier than 6:4.14.8-11.el7_7"
                  },
                  {
                    "Comment": "kdelibs-devel is signed with Red Hat redhatrelease2 key"
                  }
                ]
              },
              {
                "Operator": "AND",
                "Criterias": [

                ],
                "Criterions": [
                  {
                    "Comment": "kdelibs-ktexteditor is earlier than 6:4.14.8-11.el7_7"
                  },
                  {
                    "Comment": "kdelibs-ktexteditor is signed with Red Hat redhatrelease2 key"
                  }
                ]
              }
            ],
            "Criterions": [

            ]
          }
        ],
        "Criterions": [
          {
            "Comment": "Oracle Linux 7 is installed"
          }
        ]
      }
    ],
    "Criterions": [
      {
        "Comment": "Oracle Linux 7 is installed"
      }
    ]
  },
  "Severity": "Important",
  "Cves": [
    {
      "Impact": "",
      "Href": "",
      "ID": "CVE-2019-14744"
    }
  ],
  "Issued": {
    "Date": "2019-09-04"
  }
}