{
  "Title": "RHSA-2019:3978: kernel-rt security and bug fix update (Important)",
  "Description": "The kernel-rt packages provide the Real Time Linux Kernel, which enables fine-tuning for systems with extremely high determinism requirements.\nSecurity Fix(es):\n* Kernel: KVM: OOB memory access via mmio ring buffer (CVE-2019-14821)\n* kernel: local attacker can trigger multiple use-after-free conditions results in privilege escalation (CVE-2019-15239)\nFor more details about the security issue(s), including the impact, a CVSS score, acknowledgments, and other related information, refer to the CVE page(s) listed in the References section.\nBug Fix(es):\n* kernel-rt: update to the RHEL7.7.z batch#3 source tree (BZ#1762889)",
  "Platform": [
    "Red Hat Enterprise Linux 7"
  ],
  "References": [
    {
      "Source": "RHSA",
      "URI": "https://access.redhat.com/errata/RHSA-2019:3978",
      "ID": "RHSA-2019:3978"
    },
    {
      "Source": "CVE",
      "URI": "https://access.redhat.com/security/cve/CVE-2019-14821",
      "ID": "CVE-2019-14821"
    },
    {
      "Source": "CVE",
      "URI": "https://access.redhat.com/security/cve/CVE-2019-15239",
      "ID": "CVE-2019-15239"
    }
  ],
  "Criteria": {
    "Operator": "OR",
    "Criterias": [
      {
        "Operator": "AND",
        "Criterias": [
          {
            "Operator": "OR",
            "Criterias": [

            ],
            "Criterions": [
              {
                "Comment": "kernel-rt earlier than 0:3.10.0-1062.7.1.rt56.1030.el7 is currently running"
              },
              {
                "Comment": "kernel-rt earlier than 0:3.10.0-1062.7.1.rt56.1030.el7 is set to boot up on next boot"
              }
            ]
          },
          {
            "Operator": "OR",
            "Criterias": [
              {
                "Operator": "AND",
                "Criterias": [

                ],
                "Criterions": [
                  {
                    "Comment": "kernel-rt is earlier than 0:3.10.0-1062.7.1.rt56.1030.el7"
                  },
                  {
                    "Comment": "kernel-rt is signed with Red Hat redhatrelease2 key"
                  }
                ]
              },
              {
                "Operator": "AND",
                "Criterias": [

                ],
                "Criterions": [
                  {
                    "Comment": "kernel-rt-debug is earlier than 0:3.10.0-1062.7.1.rt56.1030.el7"
                  },
                  {
                    "Comment": "kernel-rt-debug is signed with Red Hat redhatrelease2 key"
                  }
                ]
              },
              {
                "Operator": "AND",
                "Criterias": [

                ],
                "Criterions": [
                  {
                    "Comment": "kernel-rt-debug-devel is earlier than 0:3.10.0-1062.7.1.rt56.1030.el7"
                  },
                  {
                    "Comment": "kernel-rt-debug-devel is signed with Red Hat redhatrelease2 key"
                  }
                ]
              },
              {
                "Operator": "AND",
                "Criterias": [

                ],
                "Criterions": [
                  {
                    "Comment": "kernel-rt-debug-kvm is earlier than 0:3.10.0-1062.7.1.rt56.1030.el7"
                  },
                  {
                    "Comment": "kernel-rt-debug-kvm is signed with Red Hat redhatrelease2 key"
                  }
                ]
              },
              {
                "Operator": "AND",
                "Criterias": [

                ],
                "Criterions": [
                  {
                    "Comment": "kernel-rt-devel is earlier than 0:3.10.0-1062.7.1.rt56.1030.el7"
                  },
                  {
                    "Comment": "kernel-rt-devel is signed with Red Hat redhatrelease2 key"
                  }
                ]
              },
              {
                "Operator": "AND",
                "Criterias": [

                ],
                "Criterions": [
                  {
                    "Comment": "kernel-rt-doc is earlier than 0:3.10.0-1062.7.1.rt56.1030.el7"
                  },
                  {
                    "Comment": "kernel-rt-doc is signed with Red Hat redhatrelease2 key"
                  }
                ]
              },
              {
                "Operator": "AND",
                "Criterias": [

                ],
                "Criterions": [
                  {
                    "Comment": "kernel-rt-kvm is earlier than 0:3.10.0-1062.7.1.rt56.1030.el7"
                  },
                  {
                    "Comment": "kernel-rt-kvm is signed with Red Hat redhatrelease2 key"
                  }
                ]
              },
              {
                "Operator": "AND",
                "Criterias": [

                ],
                "Criterions": [
                  {
                    "Comment": "kernel-rt-trace is earlier than 0:3.10.0-1062.7.1.rt56.1030.el7"
                  },
                  {
                    "Comment": "kernel-rt-trace is signed with Red Hat redhatrelease2 key"
                  }
                ]
              },
              {
                "Operator": "AND",
                "Criterias": [

                ],
                "Criterions": [
                  {
                    "Comment": "kernel-rt-trace-devel is earlier than 0:3.10.0-1062.7.1.rt56.1030.el7"
                  },
                  {
                    "Comment": "kernel-rt-trace-devel is signed with Red Hat redhatrelease2 key"
                  }
                ]
              },
              {
                "Operator": "AND",
                "Criterias": [

                ],
                "Criterions": [
                  {
                    "Comment": "kernel-rt-trace-kvm is earlier than 0:3.10.0-1062.7.1.rt56.1030.el7"
                  },
                  {
                    "Comment": "kernel-rt-trace-kvm is signed with Red Hat redhatrelease2 key"
                  }
                ]
              }
            ],
            "Criterions": [

            ]
          }
        ],
        "Criterions": [
          {
            "Comment": "Oracle Linux 7 is installed"
          }
        ]
      }
    ],
    "Criterions": [
      {
        "Comment": "Oracle Linux 7 is installed"
      }
    ]
  },
  "Severity": "Important",
  "Cves": [
    {
      "Impact": "",
      "Href": "",
      "ID": "CVE-2019-14821"
    },
    {
      "Impact": "",
      "Href": "",
      "ID": "CVE-2019-15239"
    }
  ],
  "Issued": {
    "Date": "2019-11-26"
  }
}