{
  "Title": "RHSA-2019:1839: java-1.7.0-openjdk security update (Moderate)",
  "Description": "The java-1.7.0-openjdk packages provide the OpenJDK 7 Java Runtime Environment and the OpenJDK 7 Java Software Development Kit.\nSecurity Fix(es):\n* OpenJDK: Side-channel attack risks in Elliptic Curve (EC) cryptography (Security, 8208698) (CVE-2019-2745)\n* OpenJDK: Insufficient checks of suppressed exceptions in deserialization (Utilities, 8212328) (CVE-2019-2762)\n* OpenJDK: Unbounded memory allocation during deserialization in Collections (Utilities, 8213432) (CVE-2019-2769)\n* OpenJDK: Missing URL format validation (Networking, 8221518) (CVE-2019-2816)\n* OpenJDK: Missing array bounds check in crypto providers (JCE, 8223511) (CVE-2019-2842)\n* OpenJDK: Insufficient restriction of privileges in AccessController (Security, 8216381) (CVE-2019-2786)\nFor more details about the security issue(s), including the impact, a CVSS score, acknowledgments, and other related information, refer to the CVE page(s) listed in the References section.",
  "Platform": [
    "Red Hat Enterprise Linux 7"
  ],
  "References": [
    {
      "Source": "RHSA",
      "URI": "https://access.redhat.com/errata/RHSA-2019:1839",
      "ID": "RHSA-2019:1839"
    },
    {
      "Source": "CVE",
      "URI": "https://access.redhat.com/security/cve/CVE-2019-2745",
      "ID": "CVE-2019-2745"
    },
    {
      "Source": "CVE",
      "URI": "https://access.redhat.com/security/cve/CVE-2019-2762",
      "ID": "CVE-2019-2762"
    },
    {
      "Source": "CVE",
      "URI": "https://access.redhat.com/security/cve/CVE-2019-2769",
      "ID": "CVE-2019-2769"
    },
    {
      "Source": "CVE",
      "URI": "https://access.redhat.com/security/cve/CVE-2019-2786",
      "ID": "CVE-2019-2786"
    },
    {
      "Source": "CVE",
      "URI": "https://access.redhat.com/security/cve/CVE-2019-2816",
      "ID": "CVE-2019-2816"
    },
    {
      "Source": "CVE",
      "URI": "https://access.redhat.com/security/cve/CVE-2019-2842",
      "ID": "CVE-2019-2842"
    }
  ],
  "Criteria": {
    "Operator": "OR",
    "Criterias": [
      {
        "Operator": "AND",
        "Criterias": [
          {
            "Operator": "OR",
            "Criterias": [
              {
                "Operator": "AND",
                "Criterias": [

                ],
                "Criterions": [
                  {
                    "Comment": "java-1.7.0-openjdk is earlier than 1:1.7.0.231-2.6.19.1.el7_6"
                  },
                  {
                    "Comment": "java-1.7.0-openjdk is signed with Red Hat redhatrelease2 key"
                  }
                ]
              },
              {
                "Operator": "AND",
                "Criterias": [

                ],
                "Criterions": [
                  {
                    "Comment": "java-1.7.0-openjdk-accessibility is earlier than 1:1.7.0.231-2.6.19.1.el7_6"
                  },
                  {
                    "Comment": "java-1.7.0-openjdk-accessibility is signed with Red Hat redhatrelease2 key"
                  }
                ]
              },
              {
                "Operator": "AND",
                "Criterias": [

                ],
                "Criterions": [
                  {
                    "Comment": "java-1.7.0-openjdk-demo is earlier than 1:1.7.0.231-2.6.19.1.el7_6"
                  },
                  {
                    "Comment": "java-1.7.0-openjdk-demo is signed with Red Hat redhatrelease2 key"
                  }
                ]
              },
              {
                "Operator": "AND",
                "Criterias": [

                ],
                "Criterions": [
                  {
                    "Comment": "java-1.7.0-openjdk-devel is earlier than 1:1.7.0.231-2.6.19.1.el7_6"
                  },
                  {
                    "Comment": "java-1.7.0-openjdk-devel is signed with Red Hat redhatrelease2 key"
                  }
                ]
              },
              {
                "Operator": "AND",
                "Criterias": [

                ],
                "Criterions": [
                  {
                    "Comment": "java-1.7.0-openjdk-headless is earlier than 1:1.7.0.231-2.6.19.1.el7_6"
                  },
                  {
                    "Comment": "java-1.7.0-openjdk-headless is signed with Red Hat redhatrelease2 key"
                  }
                ]
              },
              {
                "Operator": "AND",
                "Criterias": [

                ],
                "Criterions": [
                  {
                    "Comment": "java-1.7.0-openjdk-javadoc is earlier than 1:1.7.0.231-2.6.19.1.el7_6"
                  },
                  {
                    "Comment": "java-1.7.0-openjdk-javadoc is signed with Red Hat redhatrelease2 key"
                  }
                ]
              },
              {
                "Operator": "AND",
                "Criterias": [

                ],
                "Criterions": [
                  {
                    "Comment": "java-1.7.0-openjdk-src is earlier than 1:1.7.0.231-2.6.19.1.el7_6"
                  },
                  {
                    "Comment": "java-1.7.0-openjdk-src is signed with Red Hat redhatrelease2 key"
                  }
                ]
              }
            ],
            "Criterions": [

            ]
          }
        ],
        "Criterions": [
          {
            "Comment": "Oracle Linux 7 is installed"
          }
        ]
      }
    ],
    "Criterions": [
      {
        "Comment": "Oracle Linux 7 is installed"
      }
    ]
  },
  "Severity": "Moderate",
  "Cves": [
    {
      "Impact": "",
      "Href": "",
      "ID": "CVE-2019-2745"
    },
    {
      "Impact": "",
      "Href": "",
      "ID": "CVE-2019-2762"
    },
    {
      "Impact": "",
      "Href": "",
      "ID": "CVE-2019-2769"
    },
    {
      "Impact": "",
      "Href": "",
      "ID": "CVE-2019-2786"
    },
    {
      "Impact": "",
      "Href": "",
      "ID": "CVE-2019-2816"
    },
    {
      "Impact": "",
      "Href": "",
      "ID": "CVE-2019-2842"
    }
  ],
  "Issued": {
    "Date": "2019-07-23"
  }
}