{
  "Title": "RHSA-2019:2057: bind security, bug fix, and enhancement update (Moderate)",
  "Description": "The Berkeley Internet Name Domain (BIND) is an implementation of the Domain Name System (DNS) protocols. BIND includes a DNS server (named); a resolver library (routines for applications to use when interfacing with DNS); and tools for verifying that the DNS server is operating correctly.\nThe following packages have been upgraded to a later upstream version: bind (9.11.4). (BZ#1640561)\nSecurity Fix(es):\n* bind: Incorrect documentation of krb5-subdomain and ms-subdomain update policies (CVE-2018-5741)\nFor more details about the security issue(s), including the impact, a CVSS score, acknowledgments, and other related information, refer to the CVE page(s) listed in the References section.\nAdditional Changes:\nFor detailed information on changes in this release, see the Red Hat Enterprise Linux 7.7 Release Notes linked from the References section.",
  "Platform": [
    "Red Hat Enterprise Linux 7"
  ],
  "References": [
    {
      "Source": "RHSA",
      "URI": "https://access.redhat.com/errata/RHSA-2019:2057",
      "ID": "RHSA-2019:2057"
    },
    {
      "Source": "CVE",
      "URI": "https://access.redhat.com/security/cve/CVE-2018-5741",
      "ID": "CVE-2018-5741"
    }
  ],
  "Criteria": {
    "Operator": "OR",
    "Criterias": [
      {
        "Operator": "AND",
        "Criterias": [
          {
            "Operator": "OR",
            "Criterias": [
              {
                "Operator": "AND",
                "Criterias": [

                ],
                "Criterions": [
                  {
                    "Comment": "bind is earlier than 32:9.11.4-9.P2.el7"
                  },
                  {
                    "Comment": "bind is signed with Red Hat redhatrelease2 key"
                  }
                ]
              },
              {
                "Operator": "AND",
                "Criterias": [

                ],
                "Criterions": [
                  {
                    "Comment": "bind-chroot is earlier than 32:9.11.4-9.P2.el7"
                  },
                  {
                    "Comment": "bind-chroot is signed with Red Hat redhatrelease2 key"
                  }
                ]
              },
              {
                "Operator": "AND",
                "Criterias": [

                ],
                "Criterions": [
                  {
                    "Comment": "bind-devel is earlier than 32:9.11.4-9.P2.el7"
                  },
                  {
                    "Comment": "bind-devel is signed with Red Hat redhatrelease2 key"
                  }
                ]
              },
              {
                "Operator": "AND",
                "Criterias": [

                ],
                "Criterions": [
                  {
                    "Comment": "bind-export-devel is earlier than 32:9.11.4-9.P2.el7"
                  },
                  {
                    "Comment": "bind-export-devel is signed with Red Hat redhatrelease2 key"
                  }
                ]
              },
              {
                "Operator": "AND",
                "Criterias": [

                ],
                "Criterions": [
                  {
                    "Comment": "bind-export-libs is earlier than 32:9.11.4-9.P2.el7"
                  },
                  {
                    "Comment": "bind-export-libs is signed with Red Hat redhatrelease2 key"
                  }
                ]
              },
              {
                "Operator": "AND",
                "Criterias": [

                ],
                "Criterions": [
                  {
                    "Comment": "bind-libs is earlier than 32:9.11.4-9.P2.el7"
                  },
                  {
                    "Comment": "bind-libs is signed with Red Hat redhatrelease2 key"
                  }
                ]
              },
              {
                "Operator": "AND",
                "Criterias": [

                ],
                "Criterions": [
                  {
                    "Comment": "bind-libs-lite is earlier than 32:9.11.4-9.P2.el7"
                  },
                  {
                    "Comment": "bind-libs-lite is signed with Red Hat redhatrelease2 key"
                  }
                ]
              },
              {
                "Operator": "AND",
                "Criterias": [

                ],
                "Criterions": [
                  {
                    "Comment": "bind-license is earlier than 32:9.11.4-9.P2.el7"
                  },
                  {
                    "Comment": "bind-license is signed with Red Hat redhatrelease2 key"
                  }
                ]
              },
              {
                "Operator": "AND",
                "Criterias": [

                ],
                "Criterions": [
                  {
                    "Comment": "bind-lite-devel is earlier than 32:9.11.4-9.P2.el7"
                  },
                  {
                    "Comment": "bind-lite-devel is signed with Red Hat redhatrelease2 key"
                  }
                ]
              },
              {
                "Operator": "AND",
                "Criterias": [

                ],
                "Criterions": [
                  {
                    "Comment": "bind-pkcs11 is earlier than 32:9.11.4-9.P2.el7"
                  },
                  {
                    "Comment": "bind-pkcs11 is signed with Red Hat redhatrelease2 key"
                  }
                ]
              },
              {
                "Operator": "AND",
                "Criterias": [

                ],
                "Criterions": [
                  {
                    "Comment": "bind-pkcs11-devel is earlier than 32:9.11.4-9.P2.el7"
                  },
                  {
                    "Comment": "bind-pkcs11-devel is signed with Red Hat redhatrelease2 key"
                  }
                ]
              },
              {
                "Operator": "AND",
                "Criterias": [

                ],
                "Criterions": [
                  {
                    "Comment": "bind-pkcs11-libs is earlier than 32:9.11.4-9.P2.el7"
                  },
                  {
                    "Comment": "bind-pkcs11-libs is signed with Red Hat redhatrelease2 key"
                  }
                ]
              },
              {
                "Operator": "AND",
                "Criterias": [

                ],
                "Criterions": [
                  {
                    "Comment": "bind-pkcs11-utils is earlier than 32:9.11.4-9.P2.el7"
                  },
                  {
                    "Comment": "bind-pkcs11-utils is signed with Red Hat redhatrelease2 key"
                  }
                ]
              },
              {
                "Operator": "AND",
                "Criterias": [

                ],
                "Criterions": [
                  {
                    "Comment": "bind-sdb is earlier than 32:9.11.4-9.P2.el7"
                  },
                  {
                    "Comment": "bind-sdb is signed with Red Hat redhatrelease2 key"
                  }
                ]
              },
              {
                "Operator": "AND",
                "Criterias": [

                ],
                "Criterions": [
                  {
                    "Comment": "bind-sdb-chroot is earlier than 32:9.11.4-9.P2.el7"
                  },
                  {
                    "Comment": "bind-sdb-chroot is signed with Red Hat redhatrelease2 key"
                  }
                ]
              },
              {
                "Operator": "AND",
                "Criterias": [

                ],
                "Criterions": [
                  {
                    "Comment": "bind-utils is earlier than 32:9.11.4-9.P2.el7"
                  },
                  {
                    "Comment": "bind-utils is signed with Red Hat redhatrelease2 key"
                  }
                ]
              }
            ],
            "Criterions": [

            ]
          }
        ],
        "Criterions": [
          {
            "Comment": "Oracle Linux 7 is installed"
          }
        ]
      }
    ],
    "Criterions": [
      {
        "Comment": "Oracle Linux 7 is installed"
      }
    ]
  },
  "Severity": "Moderate",
  "Cves": [
    {
      "Impact": "",
      "Href": "",
      "ID": "CVE-2018-5741"
    }
  ],
  "Issued": {
    "Date": "2019-08-06"
  }
}