{
  "Title": "RHSA-2019:2722: libwmf security update (Low)",
  "Description": "The libwmf packages provide a library for reading and converting Windows Metafile Format (WMF) vector graphics. The library is used by applications such as GIMP and ImageMagick.\nSecurity Fix(es):\n* gd: double free in the gdImage*Ptr in gd_gif_out.c, gd_jpeg.c, and gd_wbmp.c (CVE-2019-6978)\nFor more details about the security issue(s), including the impact, a CVSS score, acknowledgments, and other related information, refer to the CVE page(s) listed in the References section.",
  "Platform": [
    "Red Hat Enterprise Linux 8"
  ],
  "References": [
    {
      "Source": "RHSA",
      "URI": "https://access.redhat.com/errata/RHSA-2019:2722",
      "ID": "RHSA-2019:2722"
    },
    {
      "Source": "CVE",
      "URI": "https://access.redhat.com/security/cve/CVE-2019-6978",
      "ID": "CVE-2019-6978"
    }
  ],
  "Criteria": {
    "Operator": "OR",
    "Criterias": [
      {
        "Operator": "AND",
        "Criterias": [
          {
            "Operator": "OR",
            "Criterias": [

            ],
            "Criterions": [
              {
                "Comment": "Oracle Linux 8 is installed"
              },
              {
                "Comment": "Red Hat CoreOS 4 is installed"
              }
            ]
          },
          {
            "Operator": "OR",
            "Criterias": [
              {
                "Operator": "AND",
                "Criterias": [

                ],
                "Criterions": [
                  {
                    "Comment": "libwmf is earlier than 0:0.2.9-8.el8_0"
                  },
                  {
                    "Comment": "libwmf is signed with Red Hat redhatrelease2 key"
                  }
                ]
              },
              {
                "Operator": "AND",
                "Criterias": [

                ],
                "Criterions": [
                  {
                    "Comment": "libwmf-devel is earlier than 0:0.2.9-8.el8_0"
                  },
                  {
                    "Comment": "libwmf-devel is signed with Red Hat redhatrelease2 key"
                  }
                ]
              },
              {
                "Operator": "AND",
                "Criterias": [

                ],
                "Criterions": [
                  {
                    "Comment": "libwmf-lite is earlier than 0:0.2.9-8.el8_0"
                  },
                  {
                    "Comment": "libwmf-lite is signed with Red Hat redhatrelease2 key"
                  }
                ]
              }
            ],
            "Criterions": [

            ]
          }
        ],
        "Criterions": [

        ]
      }
    ],
    "Criterions": [
      {
        "Comment": "Oracle Linux 8 is installed"
      }
    ]
  },
  "Severity": "Low",
  "Cves": [
    {
      "Impact": "",
      "Href": "",
      "ID": "CVE-2019-6978"
    }
  ],
  "Issued": {
    "Date": "2019-09-12"
  }
}