{
  "Title": "RHBA-2014:1513: virt-who bug fix and enhancement update (Moderate)",
  "Description": "The virt-who package provides an agent that collects information about virtual\nguests present in the system and reports them to the Red Hat Subscription\nManager tool.\nThe virt-who package has been upgraded to upstream version 0.10, which provides\na number of bug fixes and enhancements over the previous version. This update\nincludes support for multiple vCenter servers, fixed querying by cluster in\nlarge ESX environments, corrected communication with Red Hat Satellite server\nwhen ESXi has no host, fixed unregistering from Subscription Asset Manager (SAM)\nserver, fixed bug in Virtual Desktop and Server Management (VDSM) mode, support\nfor encrypted credentials, and fixed error when creating new VMs. (BZ#1002640,\nBZ#994575, BZ#1002447, BZ#1009230, BZ#1011877, BZ#1017056, BZ#1081286,\nBZ#1082416)\nThis update also fixes the following bugs:\n* Previously, the virt-who daemon did not report guest attributes to the server,\nwhich disabled the virt_guest_limit feature. With this update, virt-who has been\nmodified to correctly report guest attributes. As a result, virt_guest_limit is\nnow supported by virt-who. (BZ#1098019)\n* Prior to this update, every call to Libvirtd.listDomains() function from the\n/usr/share/virt-who/virt/libvirtd/libvirtd.py script opened a new connection to\nthe libvirtd daemon but did not close it. Consequently, after several\niterations, virt-who consumed all connections allowed for any client of\nlibvirtd. With this update, Libvirtd.listDomains() has been modified to properly\nclose the livirtd connections, thus fixing this bug. (BZ#1113938)\nUsers of virt-who are advised to upgrade to this updated package, which fixes\nthese bugs and add these enhancements.",
  "Platform": [
    "Red Hat Enterprise Linux 6"
  ],
  "References": [
    {
      "Source": "RHSA",
      "URI": "https://access.redhat.com/errata/RHBA-2014:1513",
      "ID": "RHBA-2014:1513"
    },
    {
      "Source": "CVE",
      "URI": "https://access.redhat.com/security/cve/CVE-2014-0189",
      "ID": "CVE-2014-0189"
    }
  ],
  "Criteria": {
    "Operator": "OR",
    "Criterias": [
      {
        "Operator": "AND",
        "Criterias": [

        ],
        "Criterions": [
          {
            "Comment": "Oracle Linux 6 is installed"
          },
          {
            "Comment": "virt-who is earlier than 0:0.10-8.el6"
          },
          {
            "Comment": "virt-who is signed with Red Hat redhatrelease2 key"
          }
        ]
      }
    ],
    "Criterions": [
      {
        "Comment": "Oracle Linux 6 is installed"
      }
    ]
  },
  "Severity": "Moderate",
  "Cves": [
    {
      "Impact": "",
      "Href": "",
      "ID": "CVE-2014-0189"
    }
  ],
  "Issued": {
    "Date": "2014-10-13"
  }
}