{
  "Title": "RHSA-2014:0127: librsvg2 security update (Moderate)",
  "Description": "The librsvg2 packages provide an SVG (Scalable Vector Graphics) library\nbased on libart.\nAn XML External Entity expansion flaw was found in the way librsvg2\nprocessed SVG files. If a user were to open a malicious SVG file, a remote\nattacker could possibly obtain a copy of the local resources that the user\nhad access to. (CVE-2013-1881)\nAll librsvg2 users are advised to upgrade to these updated packages, which\ncontain a backported patch to correct this issue. All running applications\nthat use librsvg2 must be restarted for this update to take effect.",
  "Platform": [
    "Red Hat Enterprise Linux 6"
  ],
  "References": [
    {
      "Source": "RHSA",
      "URI": "https://access.redhat.com/errata/RHSA-2014:0127",
      "ID": "RHSA-2014:0127"
    },
    {
      "Source": "CVE",
      "URI": "https://access.redhat.com/security/cve/CVE-2013-1881",
      "ID": "CVE-2013-1881"
    }
  ],
  "Criteria": {
    "Operator": "OR",
    "Criterias": [
      {
        "Operator": "AND",
        "Criterias": [
          {
            "Operator": "OR",
            "Criterias": [
              {
                "Operator": "AND",
                "Criterias": [

                ],
                "Criterions": [
                  {
                    "Comment": "librsvg2 is earlier than 0:2.26.0-6.el6_5.3"
                  },
                  {
                    "Comment": "librsvg2 is signed with Red Hat redhatrelease2 key"
                  }
                ]
              },
              {
                "Operator": "AND",
                "Criterias": [

                ],
                "Criterions": [
                  {
                    "Comment": "librsvg2-devel is earlier than 0:2.26.0-6.el6_5.3"
                  },
                  {
                    "Comment": "librsvg2-devel is signed with Red Hat redhatrelease2 key"
                  }
                ]
              }
            ],
            "Criterions": [

            ]
          }
        ],
        "Criterions": [
          {
            "Comment": "Oracle Linux 6 is installed"
          }
        ]
      }
    ],
    "Criterions": [
      {
        "Comment": "Oracle Linux 6 is installed"
      }
    ]
  },
  "Severity": "Moderate",
  "Cves": [
    {
      "Impact": "",
      "Href": "",
      "ID": "CVE-2013-1881"
    }
  ],
  "Issued": {
    "Date": "2014-02-03"
  }
}