{
  "Title": "RHSA-2014:0266: sudo security update (Moderate)",
  "Description": "The sudo (superuser do) utility allows system administrators to give\ncertain users the ability to run commands as root.\nA flaw was found in the way sudo handled its blacklist of environment\nvariables. When the \"env_reset\" option was disabled, a user permitted to\nrun certain commands via sudo could use this flaw to run such a command\nwith one of the blacklisted environment variables set, allowing them to run\nan arbitrary command with the target user's privileges. (CVE-2014-0106)\nNote: This issue does not affect the default configuration of the sudo\npackage as shipped with Red Hat Enterprise Linux 5.\nRed Hat would like to thank Todd C. Miller for reporting this issue.\nUpstream acknowledges Sebastien Macke as the original reporter.\nAll sudo users are advised to upgrade to this updated package, which\ncontains a backported patch to correct this issue.",
  "Platform": [
    "Red Hat Enterprise Linux 5"
  ],
  "References": [
    {
      "Source": "RHSA",
      "URI": "https://access.redhat.com/errata/RHSA-2014:0266",
      "ID": "RHSA-2014:0266"
    },
    {
      "Source": "CVE",
      "URI": "https://access.redhat.com/security/cve/CVE-2014-0106",
      "ID": "CVE-2014-0106"
    }
  ],
  "Criteria": {
    "Operator": "OR",
    "Criterias": [
      {
        "Operator": "AND",
        "Criterias": [

        ],
        "Criterions": [
          {
            "Comment": "Oracle Linux 5 is installed"
          },
          {
            "Comment": "sudo is earlier than 0:1.7.2p1-29.el5_10"
          },
          {
            "Comment": "sudo is signed with Red Hat redhatrelease2 key"
          }
        ]
      }
    ],
    "Criterions": [
      {
        "Comment": "Oracle Linux 5 is installed"
      }
    ]
  },
  "Severity": "Moderate",
  "Cves": [
    {
      "Impact": "",
      "Href": "",
      "ID": "CVE-2014-0106"
    }
  ],
  "Issued": {
    "Date": "2014-03-10"
  }
}