{
  "Title": "RHSA-2014:1075: qemu-kvm security and bug fix update (Moderate)",
  "Description": "KVM (Kernel-based Virtual Machine) is a full virtualization solution for\nLinux on AMD64 and Intel 64 systems. The qemu-kvm package provides the\nuser-space component for running virtual machines using KVM.\nTwo integer overflow flaws were found in the QEMU block driver for QCOW\nversion 1 disk images. A user able to alter the QEMU disk image files\nloaded by a guest could use either of these flaws to corrupt QEMU process\nmemory on the host, which could potentially result in arbitrary code\nexecution on the host with the privileges of the QEMU process.\n(CVE-2014-0222, CVE-2014-0223)\nRed Hat would like to thank NSA for reporting these issues.\nThis update also fixes the following bugs:\n* In certain scenarios, when performing live incremental migration, the\ndisk size could be expanded considerably due to the transfer of unallocated\nsectors past the end of the base image. With this update, the\nbdrv_is_allocated() function has been fixed to no longer return \"True\" for\nunallocated sectors, and the disk size no longer changes after performing\nlive incremental migration. (BZ#1109715)\n* This update enables ioeventfd in virtio-scsi-pci. This allows QEMU to\nprocess I/O requests outside of the vCPU thread, reducing the latency of\nsubmitting requests and improving single task throughput. (BZ#1123271)\n* Prior to this update, vendor-specific SCSI commands issued from a KVM\nguest did not reach the target device due to QEMU considering such commands\nas invalid. This update fixes this bug by properly propagating\nvendor-specific SCSI commands to the target device. (BZ#1125131)\nAll qemu-kvm users are advised to upgrade to these updated packages, which\ncontain backported patches to correct these issues. After installing this\nupdate, shut down all running virtual machines. Once all virtual machines\nhave shut down, start them again for this update to take effect.",
  "Platform": [
    "Red Hat Enterprise Linux 6"
  ],
  "References": [
    {
      "Source": "RHSA",
      "URI": "https://access.redhat.com/errata/RHSA-2014:1075",
      "ID": "RHSA-2014:1075"
    },
    {
      "Source": "CVE",
      "URI": "https://access.redhat.com/security/cve/CVE-2014-0222",
      "ID": "CVE-2014-0222"
    },
    {
      "Source": "CVE",
      "URI": "https://access.redhat.com/security/cve/CVE-2014-0223",
      "ID": "CVE-2014-0223"
    }
  ],
  "Criteria": {
    "Operator": "OR",
    "Criterias": [
      {
        "Operator": "AND",
        "Criterias": [
          {
            "Operator": "OR",
            "Criterias": [
              {
                "Operator": "AND",
                "Criterias": [

                ],
                "Criterions": [
                  {
                    "Comment": "qemu-guest-agent is earlier than 2:0.12.1.2-2.415.el6_5.14"
                  },
                  {
                    "Comment": "qemu-guest-agent is signed with Red Hat redhatrelease2 key"
                  }
                ]
              },
              {
                "Operator": "AND",
                "Criterias": [

                ],
                "Criterions": [
                  {
                    "Comment": "qemu-img is earlier than 2:0.12.1.2-2.415.el6_5.14"
                  },
                  {
                    "Comment": "qemu-img is signed with Red Hat redhatrelease2 key"
                  }
                ]
              },
              {
                "Operator": "AND",
                "Criterias": [

                ],
                "Criterions": [
                  {
                    "Comment": "qemu-kvm is earlier than 2:0.12.1.2-2.415.el6_5.14"
                  },
                  {
                    "Comment": "qemu-kvm is signed with Red Hat redhatrelease2 key"
                  }
                ]
              },
              {
                "Operator": "AND",
                "Criterias": [

                ],
                "Criterions": [
                  {
                    "Comment": "qemu-kvm-tools is earlier than 2:0.12.1.2-2.415.el6_5.14"
                  },
                  {
                    "Comment": "qemu-kvm-tools is signed with Red Hat redhatrelease2 key"
                  }
                ]
              }
            ],
            "Criterions": [

            ]
          }
        ],
        "Criterions": [
          {
            "Comment": "Oracle Linux 6 is installed"
          }
        ]
      }
    ],
    "Criterions": [
      {
        "Comment": "Oracle Linux 6 is installed"
      }
    ]
  },
  "Severity": "Moderate",
  "Cves": [
    {
      "Impact": "",
      "Href": "",
      "ID": "CVE-2014-0222"
    },
    {
      "Impact": "",
      "Href": "",
      "ID": "CVE-2014-0223"
    }
  ],
  "Issued": {
    "Date": "2014-08-19"
  }
}