{
  "Title": "RHSA-2014:1008: samba security and bug fix update (Important)",
  "Description": "Samba is an open-source implementation of the Server Message Block (SMB) or\nCommon Internet File System (CIFS) protocol, which allows PC-compatible\nmachines to share files, printers, and other information.\nA heap-based buffer overflow flaw was found in Samba's NetBIOS message\nblock daemon (nmbd). An attacker on the local network could use this flaw\nto send specially crafted packets that, when processed by nmbd, could\npossibly lead to arbitrary code execution with root privileges.\n(CVE-2014-3560)\nThis update also fixes the following bug:\n* Prior to this update, Samba incorrectly used the O_TRUNC flag when using\nthe open(2) system call to access the contents of a file that was already\nopened by a different process, causing the file's previous contents to be\nremoved. With this update, the O_TRUNC flag is no longer used in the above\nscenario, and file corruption no longer occurs. (BZ#1115490)\nAll Samba users are advised to upgrade to these updated packages, which\ncontain backported patches to correct these issues. After installing this\nupdate, the smb service will be restarted automatically.",
  "Platform": [
    "Red Hat Enterprise Linux 7"
  ],
  "References": [
    {
      "Source": "RHSA",
      "URI": "https://access.redhat.com/errata/RHSA-2014:1008",
      "ID": "RHSA-2014:1008"
    },
    {
      "Source": "CVE",
      "URI": "https://access.redhat.com/security/cve/CVE-2014-3560",
      "ID": "CVE-2014-3560"
    }
  ],
  "Criteria": {
    "Operator": "OR",
    "Criterias": [
      {
        "Operator": "AND",
        "Criterias": [
          {
            "Operator": "OR",
            "Criterias": [
              {
                "Operator": "AND",
                "Criterias": [

                ],
                "Criterions": [
                  {
                    "Comment": "libsmbclient is earlier than 0:4.1.1-37.el7_0"
                  },
                  {
                    "Comment": "libsmbclient is signed with Red Hat redhatrelease2 key"
                  }
                ]
              },
              {
                "Operator": "AND",
                "Criterias": [

                ],
                "Criterions": [
                  {
                    "Comment": "libsmbclient-devel is earlier than 0:4.1.1-37.el7_0"
                  },
                  {
                    "Comment": "libsmbclient-devel is signed with Red Hat redhatrelease2 key"
                  }
                ]
              },
              {
                "Operator": "AND",
                "Criterias": [

                ],
                "Criterions": [
                  {
                    "Comment": "libwbclient is earlier than 0:4.1.1-37.el7_0"
                  },
                  {
                    "Comment": "libwbclient is signed with Red Hat redhatrelease2 key"
                  }
                ]
              },
              {
                "Operator": "AND",
                "Criterias": [

                ],
                "Criterions": [
                  {
                    "Comment": "libwbclient-devel is earlier than 0:4.1.1-37.el7_0"
                  },
                  {
                    "Comment": "libwbclient-devel is signed with Red Hat redhatrelease2 key"
                  }
                ]
              },
              {
                "Operator": "AND",
                "Criterias": [

                ],
                "Criterions": [
                  {
                    "Comment": "samba is earlier than 0:4.1.1-37.el7_0"
                  },
                  {
                    "Comment": "samba is signed with Red Hat redhatrelease2 key"
                  }
                ]
              },
              {
                "Operator": "AND",
                "Criterias": [

                ],
                "Criterions": [
                  {
                    "Comment": "samba-client is earlier than 0:4.1.1-37.el7_0"
                  },
                  {
                    "Comment": "samba-client is signed with Red Hat redhatrelease2 key"
                  }
                ]
              },
              {
                "Operator": "AND",
                "Criterias": [

                ],
                "Criterions": [
                  {
                    "Comment": "samba-common is earlier than 0:4.1.1-37.el7_0"
                  },
                  {
                    "Comment": "samba-common is signed with Red Hat redhatrelease2 key"
                  }
                ]
              },
              {
                "Operator": "AND",
                "Criterias": [

                ],
                "Criterions": [
                  {
                    "Comment": "samba-dc is earlier than 0:4.1.1-37.el7_0"
                  },
                  {
                    "Comment": "samba-dc is signed with Red Hat redhatrelease2 key"
                  }
                ]
              },
              {
                "Operator": "AND",
                "Criterias": [

                ],
                "Criterions": [
                  {
                    "Comment": "samba-dc-libs is earlier than 0:4.1.1-37.el7_0"
                  },
                  {
                    "Comment": "samba-dc-libs is signed with Red Hat redhatrelease2 key"
                  }
                ]
              },
              {
                "Operator": "AND",
                "Criterias": [

                ],
                "Criterions": [
                  {
                    "Comment": "samba-devel is earlier than 0:4.1.1-37.el7_0"
                  },
                  {
                    "Comment": "samba-devel is signed with Red Hat redhatrelease2 key"
                  }
                ]
              },
              {
                "Operator": "AND",
                "Criterias": [

                ],
                "Criterions": [
                  {
                    "Comment": "samba-libs is earlier than 0:4.1.1-37.el7_0"
                  },
                  {
                    "Comment": "samba-libs is signed with Red Hat redhatrelease2 key"
                  }
                ]
              },
              {
                "Operator": "AND",
                "Criterias": [

                ],
                "Criterions": [
                  {
                    "Comment": "samba-pidl is earlier than 0:4.1.1-37.el7_0"
                  },
                  {
                    "Comment": "samba-pidl is signed with Red Hat redhatrelease2 key"
                  }
                ]
              },
              {
                "Operator": "AND",
                "Criterias": [

                ],
                "Criterions": [
                  {
                    "Comment": "samba-python is earlier than 0:4.1.1-37.el7_0"
                  },
                  {
                    "Comment": "samba-python is signed with Red Hat redhatrelease2 key"
                  }
                ]
              },
              {
                "Operator": "AND",
                "Criterias": [

                ],
                "Criterions": [
                  {
                    "Comment": "samba-test is earlier than 0:4.1.1-37.el7_0"
                  },
                  {
                    "Comment": "samba-test is signed with Red Hat redhatrelease2 key"
                  }
                ]
              },
              {
                "Operator": "AND",
                "Criterias": [

                ],
                "Criterions": [
                  {
                    "Comment": "samba-test-devel is earlier than 0:4.1.1-37.el7_0"
                  },
                  {
                    "Comment": "samba-test-devel is signed with Red Hat redhatrelease2 key"
                  }
                ]
              },
              {
                "Operator": "AND",
                "Criterias": [

                ],
                "Criterions": [
                  {
                    "Comment": "samba-vfs-glusterfs is earlier than 0:4.1.1-37.el7_0"
                  },
                  {
                    "Comment": "samba-vfs-glusterfs is signed with Red Hat redhatrelease2 key"
                  }
                ]
              },
              {
                "Operator": "AND",
                "Criterias": [

                ],
                "Criterions": [
                  {
                    "Comment": "samba-winbind is earlier than 0:4.1.1-37.el7_0"
                  },
                  {
                    "Comment": "samba-winbind is signed with Red Hat redhatrelease2 key"
                  }
                ]
              },
              {
                "Operator": "AND",
                "Criterias": [

                ],
                "Criterions": [
                  {
                    "Comment": "samba-winbind-clients is earlier than 0:4.1.1-37.el7_0"
                  },
                  {
                    "Comment": "samba-winbind-clients is signed with Red Hat redhatrelease2 key"
                  }
                ]
              },
              {
                "Operator": "AND",
                "Criterias": [

                ],
                "Criterions": [
                  {
                    "Comment": "samba-winbind-krb5-locator is earlier than 0:4.1.1-37.el7_0"
                  },
                  {
                    "Comment": "samba-winbind-krb5-locator is signed with Red Hat redhatrelease2 key"
                  }
                ]
              },
              {
                "Operator": "AND",
                "Criterias": [

                ],
                "Criterions": [
                  {
                    "Comment": "samba-winbind-modules is earlier than 0:4.1.1-37.el7_0"
                  },
                  {
                    "Comment": "samba-winbind-modules is signed with Red Hat redhatrelease2 key"
                  }
                ]
              }
            ],
            "Criterions": [

            ]
          }
        ],
        "Criterions": [
          {
            "Comment": "Oracle Linux 7 is installed"
          }
        ]
      }
    ],
    "Criterions": [
      {
        "Comment": "Oracle Linux 7 is installed"
      }
    ]
  },
  "Severity": "Important",
  "Cves": [
    {
      "Impact": "",
      "Href": "",
      "ID": "CVE-2014-3560"
    }
  ],
  "Issued": {
    "Date": "2014-08-05"
  }
}