{
  "Title": "RHSA-2014:1658: java-1.6.0-sun security update (Important)",
  "Description": "Oracle Java SE version 6 includes the Oracle Java Runtime Environment and\nthe Oracle Java Software Development Kit.\nThis update fixes several vulnerabilities in the Oracle Java Runtime\nEnvironment and the Oracle Java Software Development Kit. Further\ninformation about these flaws can be found on the Oracle Java SE Critical\nPatch Update Advisory page, listed in the References section.\n(CVE-2014-4288, CVE-2014-6457, CVE-2014-6458, CVE-2014-6492, CVE-2014-6493,\nCVE-2014-6502, CVE-2014-6503, CVE-2014-6504, CVE-2014-6506, CVE-2014-6511,\nCVE-2014-6512, CVE-2014-6515, CVE-2014-6517, CVE-2014-6531, CVE-2014-6532,\nCVE-2014-6558)\nThe CVE-2014-6512 issue was discovered by Florian Weimer of Red Hat\nProduct Security.\nAll users of java-1.6.0-sun are advised to upgrade to these updated\npackages, which provide Oracle Java 6 Update 85 and resolve these issues.\nAll running instances of Oracle Java must be restarted for the update to\ntake effect.",
  "Platform": [
    "Oracle Java for Red Hat Enterprise Linux 5",
    "Oracle Java for Red Hat Enterprise Linux 6",
    "Oracle Java for Red Hat Enterprise Linux 7"
  ],
  "References": [
    {
      "Source": "RHSA",
      "URI": "https://access.redhat.com/errata/RHSA-2014:1658",
      "ID": "RHSA-2014:1658"
    },
    {
      "Source": "CVE",
      "URI": "https://access.redhat.com/security/cve/CVE-2014-4288",
      "ID": "CVE-2014-4288"
    },
    {
      "Source": "CVE",
      "URI": "https://access.redhat.com/security/cve/CVE-2014-6457",
      "ID": "CVE-2014-6457"
    },
    {
      "Source": "CVE",
      "URI": "https://access.redhat.com/security/cve/CVE-2014-6458",
      "ID": "CVE-2014-6458"
    },
    {
      "Source": "CVE",
      "URI": "https://access.redhat.com/security/cve/CVE-2014-6492",
      "ID": "CVE-2014-6492"
    },
    {
      "Source": "CVE",
      "URI": "https://access.redhat.com/security/cve/CVE-2014-6493",
      "ID": "CVE-2014-6493"
    },
    {
      "Source": "CVE",
      "URI": "https://access.redhat.com/security/cve/CVE-2014-6502",
      "ID": "CVE-2014-6502"
    },
    {
      "Source": "CVE",
      "URI": "https://access.redhat.com/security/cve/CVE-2014-6503",
      "ID": "CVE-2014-6503"
    },
    {
      "Source": "CVE",
      "URI": "https://access.redhat.com/security/cve/CVE-2014-6504",
      "ID": "CVE-2014-6504"
    },
    {
      "Source": "CVE",
      "URI": "https://access.redhat.com/security/cve/CVE-2014-6506",
      "ID": "CVE-2014-6506"
    },
    {
      "Source": "CVE",
      "URI": "https://access.redhat.com/security/cve/CVE-2014-6511",
      "ID": "CVE-2014-6511"
    },
    {
      "Source": "CVE",
      "URI": "https://access.redhat.com/security/cve/CVE-2014-6512",
      "ID": "CVE-2014-6512"
    },
    {
      "Source": "CVE",
      "URI": "https://access.redhat.com/security/cve/CVE-2014-6515",
      "ID": "CVE-2014-6515"
    },
    {
      "Source": "CVE",
      "URI": "https://access.redhat.com/security/cve/CVE-2014-6517",
      "ID": "CVE-2014-6517"
    },
    {
      "Source": "CVE",
      "URI": "https://access.redhat.com/security/cve/CVE-2014-6531",
      "ID": "CVE-2014-6531"
    },
    {
      "Source": "CVE",
      "URI": "https://access.redhat.com/security/cve/CVE-2014-6532",
      "ID": "CVE-2014-6532"
    },
    {
      "Source": "CVE",
      "URI": "https://access.redhat.com/security/cve/CVE-2014-6558",
      "ID": "CVE-2014-6558"
    }
  ],
  "Criteria": {
    "Operator": "OR",
    "Criterias": [
      {
        "Operator": "AND",
        "Criterias": [
          {
            "Operator": "OR",
            "Criterias": [
              {
                "Operator": "AND",
                "Criterias": [

                ],
                "Criterions": [
                  {
                    "Comment": "java-1.6.0-sun is earlier than 1:1.6.0.85-1jpp.3.el5_11"
                  },
                  {
                    "Comment": "java-1.6.0-sun is signed with Red Hat redhatrelease key"
                  }
                ]
              },
              {
                "Operator": "AND",
                "Criterias": [

                ],
                "Criterions": [
                  {
                    "Comment": "java-1.6.0-sun-demo is earlier than 1:1.6.0.85-1jpp.3.el5_11"
                  },
                  {
                    "Comment": "java-1.6.0-sun-demo is signed with Red Hat redhatrelease key"
                  }
                ]
              },
              {
                "Operator": "AND",
                "Criterias": [

                ],
                "Criterions": [
                  {
                    "Comment": "java-1.6.0-sun-devel is earlier than 1:1.6.0.85-1jpp.3.el5_11"
                  },
                  {
                    "Comment": "java-1.6.0-sun-devel is signed with Red Hat redhatrelease key"
                  }
                ]
              },
              {
                "Operator": "AND",
                "Criterias": [

                ],
                "Criterions": [
                  {
                    "Comment": "java-1.6.0-sun-jdbc is earlier than 1:1.6.0.85-1jpp.3.el5_11"
                  },
                  {
                    "Comment": "java-1.6.0-sun-jdbc is signed with Red Hat redhatrelease key"
                  }
                ]
              },
              {
                "Operator": "AND",
                "Criterias": [

                ],
                "Criterions": [
                  {
                    "Comment": "java-1.6.0-sun-plugin is earlier than 1:1.6.0.85-1jpp.3.el5_11"
                  },
                  {
                    "Comment": "java-1.6.0-sun-plugin is signed with Red Hat redhatrelease key"
                  }
                ]
              },
              {
                "Operator": "AND",
                "Criterias": [

                ],
                "Criterions": [
                  {
                    "Comment": "java-1.6.0-sun-src is earlier than 1:1.6.0.85-1jpp.3.el5_11"
                  },
                  {
                    "Comment": "java-1.6.0-sun-src is signed with Red Hat redhatrelease key"
                  }
                ]
              }
            ],
            "Criterions": [

            ]
          }
        ],
        "Criterions": [
          {
            "Comment": "Oracle Linux 5 is installed"
          }
        ]
      },
      {
        "Operator": "AND",
        "Criterias": [
          {
            "Operator": "OR",
            "Criterias": [
              {
                "Operator": "AND",
                "Criterias": [

                ],
                "Criterions": [
                  {
                    "Comment": "java-1.6.0-sun is earlier than 1:1.6.0.85-1jpp.2.el7"
                  },
                  {
                    "Comment": "java-1.6.0-sun is signed with Red Hat redhatrelease2 key"
                  }
                ]
              },
              {
                "Operator": "AND",
                "Criterias": [

                ],
                "Criterions": [
                  {
                    "Comment": "java-1.6.0-sun-demo is earlier than 1:1.6.0.85-1jpp.2.el7"
                  },
                  {
                    "Comment": "java-1.6.0-sun-demo is signed with Red Hat redhatrelease2 key"
                  }
                ]
              },
              {
                "Operator": "AND",
                "Criterias": [

                ],
                "Criterions": [
                  {
                    "Comment": "java-1.6.0-sun-devel is earlier than 1:1.6.0.85-1jpp.2.el7"
                  },
                  {
                    "Comment": "java-1.6.0-sun-devel is signed with Red Hat redhatrelease2 key"
                  }
                ]
              },
              {
                "Operator": "AND",
                "Criterias": [

                ],
                "Criterions": [
                  {
                    "Comment": "java-1.6.0-sun-jdbc is earlier than 1:1.6.0.85-1jpp.2.el7"
                  },
                  {
                    "Comment": "java-1.6.0-sun-jdbc is signed with Red Hat redhatrelease2 key"
                  }
                ]
              },
              {
                "Operator": "AND",
                "Criterias": [

                ],
                "Criterions": [
                  {
                    "Comment": "java-1.6.0-sun-plugin is earlier than 1:1.6.0.85-1jpp.2.el7"
                  },
                  {
                    "Comment": "java-1.6.0-sun-plugin is signed with Red Hat redhatrelease2 key"
                  }
                ]
              },
              {
                "Operator": "AND",
                "Criterias": [

                ],
                "Criterions": [
                  {
                    "Comment": "java-1.6.0-sun-src is earlier than 1:1.6.0.85-1jpp.2.el7"
                  },
                  {
                    "Comment": "java-1.6.0-sun-src is signed with Red Hat redhatrelease2 key"
                  }
                ]
              }
            ],
            "Criterions": [

            ]
          }
        ],
        "Criterions": [
          {
            "Comment": "Oracle Linux 7 is installed"
          }
        ]
      },
      {
        "Operator": "AND",
        "Criterias": [
          {
            "Operator": "OR",
            "Criterias": [
              {
                "Operator": "AND",
                "Criterias": [

                ],
                "Criterions": [
                  {
                    "Comment": "java-1.6.0-sun is earlier than 1:1.6.0.85-1jpp.2.el6"
                  },
                  {
                    "Comment": "java-1.6.0-sun is signed with Red Hat redhatrelease2 key"
                  }
                ]
              },
              {
                "Operator": "AND",
                "Criterias": [

                ],
                "Criterions": [
                  {
                    "Comment": "java-1.6.0-sun-demo is earlier than 1:1.6.0.85-1jpp.2.el6"
                  },
                  {
                    "Comment": "java-1.6.0-sun-demo is signed with Red Hat redhatrelease2 key"
                  }
                ]
              },
              {
                "Operator": "AND",
                "Criterias": [

                ],
                "Criterions": [
                  {
                    "Comment": "java-1.6.0-sun-devel is earlier than 1:1.6.0.85-1jpp.2.el6"
                  },
                  {
                    "Comment": "java-1.6.0-sun-devel is signed with Red Hat redhatrelease2 key"
                  }
                ]
              },
              {
                "Operator": "AND",
                "Criterias": [

                ],
                "Criterions": [
                  {
                    "Comment": "java-1.6.0-sun-jdbc is earlier than 1:1.6.0.85-1jpp.2.el6"
                  },
                  {
                    "Comment": "java-1.6.0-sun-jdbc is signed with Red Hat redhatrelease2 key"
                  }
                ]
              },
              {
                "Operator": "AND",
                "Criterias": [

                ],
                "Criterions": [
                  {
                    "Comment": "java-1.6.0-sun-plugin is earlier than 1:1.6.0.85-1jpp.2.el6"
                  },
                  {
                    "Comment": "java-1.6.0-sun-plugin is signed with Red Hat redhatrelease2 key"
                  }
                ]
              },
              {
                "Operator": "AND",
                "Criterias": [

                ],
                "Criterions": [
                  {
                    "Comment": "java-1.6.0-sun-src is earlier than 1:1.6.0.85-1jpp.2.el6"
                  },
                  {
                    "Comment": "java-1.6.0-sun-src is signed with Red Hat redhatrelease2 key"
                  }
                ]
              }
            ],
            "Criterions": [

            ]
          }
        ],
        "Criterions": [
          {
            "Comment": "Oracle Linux 6 is installed"
          }
        ]
      }
    ],
    "Criterions": [
      {
        "Comment": "Oracle Linux 5 is installed"
      }
    ]
  },
  "Severity": "Important",
  "Cves": [
    {
      "Impact": "",
      "Href": "",
      "ID": "CVE-2014-4288"
    },
    {
      "Impact": "",
      "Href": "",
      "ID": "CVE-2014-6457"
    },
    {
      "Impact": "",
      "Href": "",
      "ID": "CVE-2014-6458"
    },
    {
      "Impact": "",
      "Href": "",
      "ID": "CVE-2014-6492"
    },
    {
      "Impact": "",
      "Href": "",
      "ID": "CVE-2014-6493"
    },
    {
      "Impact": "",
      "Href": "",
      "ID": "CVE-2014-6502"
    },
    {
      "Impact": "",
      "Href": "",
      "ID": "CVE-2014-6503"
    },
    {
      "Impact": "",
      "Href": "",
      "ID": "CVE-2014-6504"
    },
    {
      "Impact": "",
      "Href": "",
      "ID": "CVE-2014-6506"
    },
    {
      "Impact": "",
      "Href": "",
      "ID": "CVE-2014-6511"
    },
    {
      "Impact": "",
      "Href": "",
      "ID": "CVE-2014-6512"
    },
    {
      "Impact": "",
      "Href": "",
      "ID": "CVE-2014-6515"
    },
    {
      "Impact": "",
      "Href": "",
      "ID": "CVE-2014-6517"
    },
    {
      "Impact": "",
      "Href": "",
      "ID": "CVE-2014-6531"
    },
    {
      "Impact": "",
      "Href": "",
      "ID": "CVE-2014-6532"
    },
    {
      "Impact": "",
      "Href": "",
      "ID": "CVE-2014-6558"
    }
  ],
  "Issued": {
    "Date": "2014-10-16"
  }
}