{
  "Title": "RHSA-2014:1038: tomcat6 security update (Low)",
  "Description": "Apache Tomcat is a servlet container for the Java Servlet and JavaServer\nPages (JSP) technologies.\nIt was found that several application-provided XML files, such as web.xml,\ncontent.xml, *.tld, *.tagx, and *.jspx, resolved external entities,\npermitting XML External Entity (XXE) attacks. An attacker able to deploy\nmalicious applications to Tomcat could use this flaw to circumvent security\nrestrictions set by the JSM, and gain access to sensitive information on\nthe system. Note that this flaw only affected deployments in which Tomcat\nis running applications from untrusted sources, such as in a shared hosting\nenvironment. (CVE-2013-4590)\nIt was found that, in certain circumstances, it was possible for a\nmalicious web application to replace the XML parsers used by Apache Tomcat\nto process XSLTs for the default servlet, JSP documents, tag library\ndescriptors (TLDs), and tag plug-in configuration files. The injected XML\nparser(s) could then bypass the limits imposed on XML external entities\nand/or gain access to the XML files processed for other web applications\ndeployed on the same Apache Tomcat instance. (CVE-2014-0119)\nAll Tomcat users are advised to upgrade to these updated packages, which\ncontain backported patches to correct these issues. Tomcat must be\nrestarted for this update to take effect.",
  "Platform": [
    "Red Hat Enterprise Linux 6"
  ],
  "References": [
    {
      "Source": "RHSA",
      "URI": "https://access.redhat.com/errata/RHSA-2014:1038",
      "ID": "RHSA-2014:1038"
    },
    {
      "Source": "CVE",
      "URI": "https://access.redhat.com/security/cve/CVE-2013-4590",
      "ID": "CVE-2013-4590"
    },
    {
      "Source": "CVE",
      "URI": "https://access.redhat.com/security/cve/CVE-2014-0119",
      "ID": "CVE-2014-0119"
    }
  ],
  "Criteria": {
    "Operator": "OR",
    "Criterias": [
      {
        "Operator": "AND",
        "Criterias": [
          {
            "Operator": "OR",
            "Criterias": [
              {
                "Operator": "AND",
                "Criterias": [

                ],
                "Criterions": [
                  {
                    "Comment": "tomcat6 is earlier than 0:6.0.24-78.el6_5"
                  },
                  {
                    "Comment": "tomcat6 is signed with Red Hat redhatrelease2 key"
                  }
                ]
              },
              {
                "Operator": "AND",
                "Criterias": [

                ],
                "Criterions": [
                  {
                    "Comment": "tomcat6-admin-webapps is earlier than 0:6.0.24-78.el6_5"
                  },
                  {
                    "Comment": "tomcat6-admin-webapps is signed with Red Hat redhatrelease2 key"
                  }
                ]
              },
              {
                "Operator": "AND",
                "Criterias": [

                ],
                "Criterions": [
                  {
                    "Comment": "tomcat6-docs-webapp is earlier than 0:6.0.24-78.el6_5"
                  },
                  {
                    "Comment": "tomcat6-docs-webapp is signed with Red Hat redhatrelease2 key"
                  }
                ]
              },
              {
                "Operator": "AND",
                "Criterias": [

                ],
                "Criterions": [
                  {
                    "Comment": "tomcat6-el-2.1-api is earlier than 0:6.0.24-78.el6_5"
                  },
                  {
                    "Comment": "tomcat6-el-2.1-api is signed with Red Hat redhatrelease2 key"
                  }
                ]
              },
              {
                "Operator": "AND",
                "Criterias": [

                ],
                "Criterions": [
                  {
                    "Comment": "tomcat6-javadoc is earlier than 0:6.0.24-78.el6_5"
                  },
                  {
                    "Comment": "tomcat6-javadoc is signed with Red Hat redhatrelease2 key"
                  }
                ]
              },
              {
                "Operator": "AND",
                "Criterias": [

                ],
                "Criterions": [
                  {
                    "Comment": "tomcat6-jsp-2.1-api is earlier than 0:6.0.24-78.el6_5"
                  },
                  {
                    "Comment": "tomcat6-jsp-2.1-api is signed with Red Hat redhatrelease2 key"
                  }
                ]
              },
              {
                "Operator": "AND",
                "Criterias": [

                ],
                "Criterions": [
                  {
                    "Comment": "tomcat6-lib is earlier than 0:6.0.24-78.el6_5"
                  },
                  {
                    "Comment": "tomcat6-lib is signed with Red Hat redhatrelease2 key"
                  }
                ]
              },
              {
                "Operator": "AND",
                "Criterias": [

                ],
                "Criterions": [
                  {
                    "Comment": "tomcat6-servlet-2.5-api is earlier than 0:6.0.24-78.el6_5"
                  },
                  {
                    "Comment": "tomcat6-servlet-2.5-api is signed with Red Hat redhatrelease2 key"
                  }
                ]
              },
              {
                "Operator": "AND",
                "Criterias": [

                ],
                "Criterions": [
                  {
                    "Comment": "tomcat6-webapps is earlier than 0:6.0.24-78.el6_5"
                  },
                  {
                    "Comment": "tomcat6-webapps is signed with Red Hat redhatrelease2 key"
                  }
                ]
              }
            ],
            "Criterions": [

            ]
          }
        ],
        "Criterions": [
          {
            "Comment": "Oracle Linux 6 is installed"
          }
        ]
      }
    ],
    "Criterions": [
      {
        "Comment": "Oracle Linux 6 is installed"
      }
    ]
  },
  "Severity": "Low",
  "Cves": [
    {
      "Impact": "",
      "Href": "",
      "ID": "CVE-2013-4590"
    },
    {
      "Impact": "",
      "Href": "",
      "ID": "CVE-2014-0119"
    }
  ],
  "Issued": {
    "Date": "2014-08-11"
  }
}