{
  "Title": "RHSA-2014:0703: json-c security update (Moderate)",
  "Description": "JSON-C implements a reference counting object model that allows you to\neasily construct JSON objects in C, output them as JSON-formatted strings,\nand parse JSON-formatted strings back into the C representation of\nJSON objects.\nMultiple buffer overflow flaws were found in the way the json-c library\nhandled long strings in JSON documents. An attacker able to make an\napplication using json-c parse excessively large JSON input could cause the\napplication to crash. (CVE-2013-6370)\nA denial of service flaw was found in the implementation of hash arrays in\njson-c. An attacker could use this flaw to make an application using json-c\nconsume an excessive amount of CPU time by providing a specially crafted\nJSON document that triggers multiple hash function collisions. To mitigate\nthis issue, json-c now uses a different hash function and randomization to\nreduce the chance of an attacker successfully causing intentional\ncollisions. (CVE-2013-6371)\nThese issues were discovered by Florian Weimer of the Red Hat Product\nSecurity Team.\nAll json-c users are advised to upgrade to these updated packages, which\ncontain backported patches to correct these issues.",
  "Platform": [
    "Red Hat Enterprise Linux 7"
  ],
  "References": [
    {
      "Source": "RHSA",
      "URI": "https://access.redhat.com/errata/RHSA-2014:0703",
      "ID": "RHSA-2014:0703"
    },
    {
      "Source": "CVE",
      "URI": "https://access.redhat.com/security/cve/CVE-2013-6370",
      "ID": "CVE-2013-6370"
    },
    {
      "Source": "CVE",
      "URI": "https://access.redhat.com/security/cve/CVE-2013-6371",
      "ID": "CVE-2013-6371"
    }
  ],
  "Criteria": {
    "Operator": "OR",
    "Criterias": [
      {
        "Operator": "AND",
        "Criterias": [
          {
            "Operator": "OR",
            "Criterias": [
              {
                "Operator": "AND",
                "Criterias": [

                ],
                "Criterions": [
                  {
                    "Comment": "json-c is earlier than 0:0.11-4.el7_0"
                  },
                  {
                    "Comment": "json-c is signed with Red Hat redhatrelease2 key"
                  }
                ]
              },
              {
                "Operator": "AND",
                "Criterias": [

                ],
                "Criterions": [
                  {
                    "Comment": "json-c-devel is earlier than 0:0.11-4.el7_0"
                  },
                  {
                    "Comment": "json-c-devel is signed with Red Hat redhatrelease2 key"
                  }
                ]
              },
              {
                "Operator": "AND",
                "Criterias": [

                ],
                "Criterions": [
                  {
                    "Comment": "json-c-doc is earlier than 0:0.11-4.el7_0"
                  },
                  {
                    "Comment": "json-c-doc is signed with Red Hat redhatrelease2 key"
                  }
                ]
              }
            ],
            "Criterions": [

            ]
          }
        ],
        "Criterions": [
          {
            "Comment": "Oracle Linux 7 is installed"
          }
        ]
      }
    ],
    "Criterions": [
      {
        "Comment": "Oracle Linux 7 is installed"
      }
    ]
  },
  "Severity": "Moderate",
  "Cves": [
    {
      "Impact": "",
      "Href": "",
      "ID": "CVE-2013-6370"
    },
    {
      "Impact": "",
      "Href": "",
      "ID": "CVE-2013-6371"
    }
  ],
  "Issued": {
    "Date": "2014-06-10"
  }
}