{
  "Title": "RHSA-2014:1676: wireshark security update (Moderate)",
  "Description": "Wireshark is a network protocol analyzer. It is used to capture and browse\nthe traffic running on a computer network.\nMultiple flaws were found in Wireshark. If Wireshark read a malformed\npacket off a network or opened a malicious dump file, it could crash or,\npossibly, execute arbitrary code as the user running Wireshark.\n(CVE-2014-6429, CVE-2014-6430, CVE-2014-6431, CVE-2014-6432)\nSeveral denial of service flaws were found in Wireshark. Wireshark could\ncrash or stop responding if it read a malformed packet off a network, or\nopened a malicious dump file. (CVE-2014-6421, CVE-2014-6422, CVE-2014-6423,\nCVE-2014-6424, CVE-2014-6425, CVE-2014-6426, CVE-2014-6427, CVE-2014-6428)\nAll wireshark users are advised to upgrade to these updated packages, which\ncontain backported patches to correct these issues. All running instances\nof Wireshark must be restarted for the update to take effect.",
  "Platform": [
    "Red Hat Enterprise Linux 6",
    "Red Hat Enterprise Linux 7"
  ],
  "References": [
    {
      "Source": "RHSA",
      "URI": "https://access.redhat.com/errata/RHSA-2014:1676",
      "ID": "RHSA-2014:1676"
    },
    {
      "Source": "CVE",
      "URI": "https://access.redhat.com/security/cve/CVE-2014-6421",
      "ID": "CVE-2014-6421"
    },
    {
      "Source": "CVE",
      "URI": "https://access.redhat.com/security/cve/CVE-2014-6422",
      "ID": "CVE-2014-6422"
    },
    {
      "Source": "CVE",
      "URI": "https://access.redhat.com/security/cve/CVE-2014-6423",
      "ID": "CVE-2014-6423"
    },
    {
      "Source": "CVE",
      "URI": "https://access.redhat.com/security/cve/CVE-2014-6424",
      "ID": "CVE-2014-6424"
    },
    {
      "Source": "CVE",
      "URI": "https://access.redhat.com/security/cve/CVE-2014-6425",
      "ID": "CVE-2014-6425"
    },
    {
      "Source": "CVE",
      "URI": "https://access.redhat.com/security/cve/CVE-2014-6426",
      "ID": "CVE-2014-6426"
    },
    {
      "Source": "CVE",
      "URI": "https://access.redhat.com/security/cve/CVE-2014-6427",
      "ID": "CVE-2014-6427"
    },
    {
      "Source": "CVE",
      "URI": "https://access.redhat.com/security/cve/CVE-2014-6428",
      "ID": "CVE-2014-6428"
    },
    {
      "Source": "CVE",
      "URI": "https://access.redhat.com/security/cve/CVE-2014-6429",
      "ID": "CVE-2014-6429"
    },
    {
      "Source": "CVE",
      "URI": "https://access.redhat.com/security/cve/CVE-2014-6430",
      "ID": "CVE-2014-6430"
    },
    {
      "Source": "CVE",
      "URI": "https://access.redhat.com/security/cve/CVE-2014-6431",
      "ID": "CVE-2014-6431"
    },
    {
      "Source": "CVE",
      "URI": "https://access.redhat.com/security/cve/CVE-2014-6432",
      "ID": "CVE-2014-6432"
    }
  ],
  "Criteria": {
    "Operator": "OR",
    "Criterias": [
      {
        "Operator": "AND",
        "Criterias": [
          {
            "Operator": "OR",
            "Criterias": [
              {
                "Operator": "AND",
                "Criterias": [

                ],
                "Criterions": [
                  {
                    "Comment": "wireshark is earlier than 0:1.10.3-12.el7_0"
                  },
                  {
                    "Comment": "wireshark is signed with Red Hat redhatrelease2 key"
                  }
                ]
              },
              {
                "Operator": "AND",
                "Criterias": [

                ],
                "Criterions": [
                  {
                    "Comment": "wireshark-devel is earlier than 0:1.10.3-12.el7_0"
                  },
                  {
                    "Comment": "wireshark-devel is signed with Red Hat redhatrelease2 key"
                  }
                ]
              },
              {
                "Operator": "AND",
                "Criterias": [

                ],
                "Criterions": [
                  {
                    "Comment": "wireshark-gnome is earlier than 0:1.10.3-12.el7_0"
                  },
                  {
                    "Comment": "wireshark-gnome is signed with Red Hat redhatrelease2 key"
                  }
                ]
              }
            ],
            "Criterions": [

            ]
          }
        ],
        "Criterions": [
          {
            "Comment": "Oracle Linux 7 is installed"
          }
        ]
      },
      {
        "Operator": "AND",
        "Criterias": [
          {
            "Operator": "OR",
            "Criterias": [
              {
                "Operator": "AND",
                "Criterias": [

                ],
                "Criterions": [
                  {
                    "Comment": "wireshark is earlier than 0:1.8.10-8.el6_6"
                  },
                  {
                    "Comment": "wireshark is signed with Red Hat redhatrelease2 key"
                  }
                ]
              },
              {
                "Operator": "AND",
                "Criterias": [

                ],
                "Criterions": [
                  {
                    "Comment": "wireshark-devel is earlier than 0:1.8.10-8.el6_6"
                  },
                  {
                    "Comment": "wireshark-devel is signed with Red Hat redhatrelease2 key"
                  }
                ]
              },
              {
                "Operator": "AND",
                "Criterias": [

                ],
                "Criterions": [
                  {
                    "Comment": "wireshark-gnome is earlier than 0:1.8.10-8.el6_6"
                  },
                  {
                    "Comment": "wireshark-gnome is signed with Red Hat redhatrelease2 key"
                  }
                ]
              }
            ],
            "Criterions": [

            ]
          }
        ],
        "Criterions": [
          {
            "Comment": "Oracle Linux 6 is installed"
          }
        ]
      }
    ],
    "Criterions": [
      {
        "Comment": "Oracle Linux 6 is installed"
      }
    ]
  },
  "Severity": "Moderate",
  "Cves": [
    {
      "Impact": "",
      "Href": "",
      "ID": "CVE-2014-6421"
    },
    {
      "Impact": "",
      "Href": "",
      "ID": "CVE-2014-6422"
    },
    {
      "Impact": "",
      "Href": "",
      "ID": "CVE-2014-6423"
    },
    {
      "Impact": "",
      "Href": "",
      "ID": "CVE-2014-6424"
    },
    {
      "Impact": "",
      "Href": "",
      "ID": "CVE-2014-6425"
    },
    {
      "Impact": "",
      "Href": "",
      "ID": "CVE-2014-6426"
    },
    {
      "Impact": "",
      "Href": "",
      "ID": "CVE-2014-6427"
    },
    {
      "Impact": "",
      "Href": "",
      "ID": "CVE-2014-6428"
    },
    {
      "Impact": "",
      "Href": "",
      "ID": "CVE-2014-6429"
    },
    {
      "Impact": "",
      "Href": "",
      "ID": "CVE-2014-6430"
    },
    {
      "Impact": "",
      "Href": "",
      "ID": "CVE-2014-6431"
    },
    {
      "Impact": "",
      "Href": "",
      "ID": "CVE-2014-6432"
    }
  ],
  "Issued": {
    "Date": "2014-10-21"
  }
}