{
  "Title": "RHSA-2014:0747: python-jinja2 security update (Moderate)",
  "Description": "Jinja2 is a template engine written in pure Python. It provides a\nDjango-inspired, non-XML syntax but supports inline expressions and an\noptional sandboxed environment.\nIt was discovered that Jinja2 did not properly handle bytecode cache files\nstored in the system's temporary directory. A local attacker could use this\nflaw to alter the output of an application using Jinja2 and\nFileSystemBytecodeCache, and potentially execute arbitrary code with the\nprivileges of that application. (CVE-2014-1402)\nAll python-jinja2 users are advised to upgrade to these updated packages,\nwhich contain a backported patch to correct this issue. For the update to\ntake effect, all applications using python-jinja2 must be restarted.",
  "Platform": [
    "Red Hat Enterprise Linux 6"
  ],
  "References": [
    {
      "Source": "RHSA",
      "URI": "https://access.redhat.com/errata/RHSA-2014:0747",
      "ID": "RHSA-2014:0747"
    },
    {
      "Source": "CVE",
      "URI": "https://access.redhat.com/security/cve/CVE-2014-1402",
      "ID": "CVE-2014-1402"
    }
  ],
  "Criteria": {
    "Operator": "OR",
    "Criterias": [
      {
        "Operator": "AND",
        "Criterias": [

        ],
        "Criterions": [
          {
            "Comment": "Oracle Linux 6 is installed"
          },
          {
            "Comment": "python-jinja2 is earlier than 0:2.2.1-2.el6_5"
          },
          {
            "Comment": "python-jinja2 is signed with Red Hat redhatrelease2 key"
          }
        ]
      }
    ],
    "Criterions": [
      {
        "Comment": "Oracle Linux 6 is installed"
      }
    ]
  },
  "Severity": "Moderate",
  "Cves": [
    {
      "Impact": "",
      "Href": "",
      "ID": "CVE-2014-1402"
    }
  ],
  "Issued": {
    "Date": "2014-06-11"
  }
}