{
  "Title": "RHSA-2014:1391: glibc security, bug fix, and enhancement update (Moderate)",
  "Description": "The glibc packages provide the standard C libraries (libc), POSIX thread\nlibraries (libpthread), standard math libraries (libm), and the Name\nServer Caching Daemon (nscd) used by multiple programs on the system.\nWithout these libraries, the Linux system cannot function correctly.\nAn out-of-bounds write flaw was found in the way the glibc's readdir_r()\nfunction handled file system entries longer than the NAME_MAX character\nconstant. A remote attacker could provide a specially crafted NTFS or CIFS\nfile system that, when processed by an application using readdir_r(), would\ncause that application to crash or, potentially, allow the attacker to\nexecute arbitrary code with the privileges of the user running the\napplication. (CVE-2013-4237)\nIt was found that getaddrinfo() did not limit the amount of stack memory\nused during name resolution. An attacker able to make an application\nresolve an attacker-controlled hostname or IP address could possibly cause\nthe application to exhaust all stack memory and crash. (CVE-2013-4458)\nThese updated glibc packages also include several bug fixes and two\nenhancements. Space precludes documenting all of these changes in this\nadvisory. Users are directed to the Red Hat Enterprise Linux 6.6 Technical\nNotes, linked to in the References section, for information on the most\nsignificant of these changes.\nAll glibc users are advised to upgrade to these updated packages, which\ncontain backported patches to correct these issues and add these\nenhancements.",
  "Platform": [
    "Red Hat Enterprise Linux 6"
  ],
  "References": [
    {
      "Source": "RHSA",
      "URI": "https://access.redhat.com/errata/RHSA-2014:1391",
      "ID": "RHSA-2014:1391"
    },
    {
      "Source": "CVE",
      "URI": "https://access.redhat.com/security/cve/CVE-2013-4237",
      "ID": "CVE-2013-4237"
    },
    {
      "Source": "CVE",
      "URI": "https://access.redhat.com/security/cve/CVE-2013-4458",
      "ID": "CVE-2013-4458"
    },
    {
      "Source": "CVE",
      "URI": "https://access.redhat.com/security/cve/CVE-2013-7424",
      "ID": "CVE-2013-7424"
    }
  ],
  "Criteria": {
    "Operator": "OR",
    "Criterias": [
      {
        "Operator": "AND",
        "Criterias": [
          {
            "Operator": "OR",
            "Criterias": [
              {
                "Operator": "AND",
                "Criterias": [

                ],
                "Criterions": [
                  {
                    "Comment": "glibc is earlier than 0:2.12-1.149.el6"
                  },
                  {
                    "Comment": "glibc is signed with Red Hat redhatrelease2 key"
                  }
                ]
              },
              {
                "Operator": "AND",
                "Criterias": [

                ],
                "Criterions": [
                  {
                    "Comment": "glibc-common is earlier than 0:2.12-1.149.el6"
                  },
                  {
                    "Comment": "glibc-common is signed with Red Hat redhatrelease2 key"
                  }
                ]
              },
              {
                "Operator": "AND",
                "Criterias": [

                ],
                "Criterions": [
                  {
                    "Comment": "glibc-devel is earlier than 0:2.12-1.149.el6"
                  },
                  {
                    "Comment": "glibc-devel is signed with Red Hat redhatrelease2 key"
                  }
                ]
              },
              {
                "Operator": "AND",
                "Criterias": [

                ],
                "Criterions": [
                  {
                    "Comment": "glibc-headers is earlier than 0:2.12-1.149.el6"
                  },
                  {
                    "Comment": "glibc-headers is signed with Red Hat redhatrelease2 key"
                  }
                ]
              },
              {
                "Operator": "AND",
                "Criterias": [

                ],
                "Criterions": [
                  {
                    "Comment": "glibc-static is earlier than 0:2.12-1.149.el6"
                  },
                  {
                    "Comment": "glibc-static is signed with Red Hat redhatrelease2 key"
                  }
                ]
              },
              {
                "Operator": "AND",
                "Criterias": [

                ],
                "Criterions": [
                  {
                    "Comment": "glibc-utils is earlier than 0:2.12-1.149.el6"
                  },
                  {
                    "Comment": "glibc-utils is signed with Red Hat redhatrelease2 key"
                  }
                ]
              },
              {
                "Operator": "AND",
                "Criterias": [

                ],
                "Criterions": [
                  {
                    "Comment": "nscd is earlier than 0:2.12-1.149.el6"
                  },
                  {
                    "Comment": "nscd is signed with Red Hat redhatrelease2 key"
                  }
                ]
              }
            ],
            "Criterions": [

            ]
          }
        ],
        "Criterions": [
          {
            "Comment": "Oracle Linux 6 is installed"
          }
        ]
      }
    ],
    "Criterions": [
      {
        "Comment": "Oracle Linux 6 is installed"
      }
    ]
  },
  "Severity": "Moderate",
  "Cves": [
    {
      "Impact": "",
      "Href": "",
      "ID": "CVE-2013-4237"
    },
    {
      "Impact": "",
      "Href": "",
      "ID": "CVE-2013-4458"
    },
    {
      "Impact": "",
      "Href": "",
      "ID": "CVE-2013-7424"
    }
  ],
  "Issued": {
    "Date": "2014-10-13"
  }
}