{
  "Title": "RHSA-2014:0137: flash-plugin security update (Critical)",
  "Description": "The flash-plugin package contains a Mozilla Firefox compatible Adobe Flash\nPlayer web browser plug-in.\nThis update fixes one vulnerability in Adobe Flash Player. This\nvulnerability is detailed in the Adobe Security bulletin APSB14-04,\nlisted in the References section. Specially-crafted SWF content could\ncause flash-plugin to crash or, potentially, execute arbitrary code when a\nvictim loads a page containing the malicious SWF content. (CVE-2014-0497)\nAll users of Adobe Flash Player should install this updated package, which\nupgrades Flash Player to version 11.2.202.336.",
  "Platform": [
    "Supplementary for Red Hat Enterprise Linux 6"
  ],
  "References": [
    {
      "Source": "RHSA",
      "URI": "https://rhn.redhat.com/errata/RHSA-2014-0137.html",
      "ID": "RHSA-2014:0137-00"
    },
    {
      "Source": "CVE",
      "URI": "https://www.redhat.com/security/data/cve/CVE-2014-0497.html",
      "ID": "CVE-2014-0497"
    }
  ],
  "Criteria": {
    "Operator": "AND",
    "Criterias": [
      {
        "Operator": "OR",
        "Criterias": [

        ],
        "Criterions": [
          {
            "Comment": "Oracle Linux 6 Client is installed"
          },
          {
            "Comment": "Oracle Linux 6 Server is installed"
          },
          {
            "Comment": "Oracle Linux 6 Workstation is installed"
          },
          {
            "Comment": "Oracle Linux 6 ComputeNode is installed"
          }
        ]
      }
    ],
    "Criterions": [
      {
        "Comment": "flash-plugin is earlier than 0:11.2.202.336-1.el6"
      },
      {
        "Comment": "flash-plugin is signed with Red Hat redhatrelease2 key"
      }
    ]
  },
  "Severity": "Critical",
  "Cves": [
    {
      "Impact": "",
      "Href": "",
      "ID": "CVE-2014-0497"
    }
  ],
  "Issued": {
    "Date": "2014-02-05"
  }
}