{
  "Title": "RHSA-2014:0742: thunderbird security update (Important)",
  "Description": "Mozilla Thunderbird is a standalone mail and newsgroup client.\nSeveral flaws were found in the processing of malformed web content. A web\npage containing malicious content could cause Thunderbird to crash or,\npotentially, execute arbitrary code with the privileges of the user running\nThunderbird. (CVE-2014-1533, CVE-2014-1538, CVE-2014-1541)\nRed Hat would like to thank the Mozilla project for reporting these issues.\nUpstream acknowledges Gary Kwong, Christoph Diehl, Christian Holler, Hannes\nVerschore, Jan de Mooij, Ryan VanderMeulen, Jeff Walden, Kyle Huey,\nAbhishek Arya, and Nils as the original reporters of these issues.\nNote: All of the above issues cannot be exploited by a specially crafted\nHTML mail message as JavaScript is disabled by default for mail messages.\nThey could be exploited another way in Thunderbird, for example, when\nviewing the full remote content of an RSS feed.\nFor technical details regarding these flaws, refer to the Mozilla security\nadvisories for Thunderbird 24.6.0. You can find a link to the Mozilla\nadvisories in the References section of this erratum.\nAll Thunderbird users should upgrade to this updated package, which\ncontains Thunderbird version 24.6.0, which corrects these issues.\nAfter installing the update, Thunderbird must be restarted for the changes\nto take effect.",
  "Platform": [
    "Red Hat Enterprise Linux 5",
    "Red Hat Enterprise Linux 6"
  ],
  "References": [
    {
      "Source": "RHSA",
      "URI": "https://access.redhat.com/errata/RHSA-2014:0742",
      "ID": "RHSA-2014:0742"
    },
    {
      "Source": "CVE",
      "URI": "https://access.redhat.com/security/cve/CVE-2014-1533",
      "ID": "CVE-2014-1533"
    },
    {
      "Source": "CVE",
      "URI": "https://access.redhat.com/security/cve/CVE-2014-1538",
      "ID": "CVE-2014-1538"
    },
    {
      "Source": "CVE",
      "URI": "https://access.redhat.com/security/cve/CVE-2014-1541",
      "ID": "CVE-2014-1541"
    }
  ],
  "Criteria": {
    "Operator": "OR",
    "Criterias": [
      {
        "Operator": "AND",
        "Criterias": [

        ],
        "Criterions": [
          {
            "Comment": "Oracle Linux 5 is installed"
          },
          {
            "Comment": "thunderbird is earlier than 0:24.6.0-1.el5_10"
          },
          {
            "Comment": "thunderbird is signed with Red Hat redhatrelease2 key"
          }
        ]
      },
      {
        "Operator": "AND",
        "Criterias": [

        ],
        "Criterions": [
          {
            "Comment": "Oracle Linux 6 is installed"
          },
          {
            "Comment": "thunderbird is earlier than 0:24.6.0-1.el6_5"
          },
          {
            "Comment": "thunderbird is signed with Red Hat redhatrelease2 key"
          }
        ]
      }
    ],
    "Criterions": [
      {
        "Comment": "Oracle Linux 5 is installed"
      }
    ]
  },
  "Severity": "Important",
  "Cves": [
    {
      "Impact": "",
      "Href": "",
      "ID": "CVE-2014-1533"
    },
    {
      "Impact": "",
      "Href": "",
      "ID": "CVE-2014-1538"
    },
    {
      "Impact": "",
      "Href": "",
      "ID": "CVE-2014-1541"
    }
  ],
  "Issued": {
    "Date": "2014-06-10"
  }
}