{
  "Title": "RHSA-2014:0687: libtasn1 security update (Moderate)",
  "Description": "The libtasn1 library provides Abstract Syntax Notation One (ASN.1) parsing\nand structures management, and Distinguished Encoding Rules (DER) encoding\nand decoding functions.\nIt was discovered that the asn1_get_bit_der() function of the libtasn1\nlibrary incorrectly reported the length of ASN.1-encoded data. Specially\ncrafted ASN.1 input could cause an application using libtasn1 to perform\nan out-of-bounds access operation, causing the application to crash or,\npossibly, execute arbitrary code. (CVE-2014-3468)\nMultiple incorrect buffer boundary check issues were discovered in\nlibtasn1. Specially crafted ASN.1 input could cause an application using\nlibtasn1 to crash. (CVE-2014-3467)\nMultiple NULL pointer dereference flaws were found in libtasn1's\nasn1_read_value() function. Specially crafted ASN.1 input could cause an\napplication using libtasn1 to crash, if the application used the\naforementioned function in a certain way. (CVE-2014-3469)\nRed Hat would like to thank GnuTLS upstream for reporting these issues.\nAll libtasn1 users are advised to upgrade to these updated packages, which\ncorrect these issues. For the update to take effect, all applications\nlinked to the libtasn1 library must be restarted.",
  "Platform": [
    "Red Hat Enterprise Linux 7"
  ],
  "References": [
    {
      "Source": "RHSA",
      "URI": "https://access.redhat.com/errata/RHSA-2014:0687",
      "ID": "RHSA-2014:0687"
    },
    {
      "Source": "CVE",
      "URI": "https://access.redhat.com/security/cve/CVE-2014-3467",
      "ID": "CVE-2014-3467"
    },
    {
      "Source": "CVE",
      "URI": "https://access.redhat.com/security/cve/CVE-2014-3468",
      "ID": "CVE-2014-3468"
    },
    {
      "Source": "CVE",
      "URI": "https://access.redhat.com/security/cve/CVE-2014-3469",
      "ID": "CVE-2014-3469"
    }
  ],
  "Criteria": {
    "Operator": "OR",
    "Criterias": [
      {
        "Operator": "AND",
        "Criterias": [
          {
            "Operator": "OR",
            "Criterias": [
              {
                "Operator": "AND",
                "Criterias": [

                ],
                "Criterions": [
                  {
                    "Comment": "libtasn1 is earlier than 0:3.3-5.el7_0"
                  },
                  {
                    "Comment": "libtasn1 is signed with Red Hat redhatrelease2 key"
                  }
                ]
              },
              {
                "Operator": "AND",
                "Criterias": [

                ],
                "Criterions": [
                  {
                    "Comment": "libtasn1-devel is earlier than 0:3.3-5.el7_0"
                  },
                  {
                    "Comment": "libtasn1-devel is signed with Red Hat redhatrelease2 key"
                  }
                ]
              },
              {
                "Operator": "AND",
                "Criterias": [

                ],
                "Criterions": [
                  {
                    "Comment": "libtasn1-tools is earlier than 0:3.3-5.el7_0"
                  },
                  {
                    "Comment": "libtasn1-tools is signed with Red Hat redhatrelease2 key"
                  }
                ]
              }
            ],
            "Criterions": [

            ]
          }
        ],
        "Criterions": [
          {
            "Comment": "Oracle Linux 7 is installed"
          }
        ]
      }
    ],
    "Criterions": [
      {
        "Comment": "Oracle Linux 7 is installed"
      }
    ]
  },
  "Severity": "Moderate",
  "Cves": [
    {
      "Impact": "",
      "Href": "",
      "ID": "CVE-2014-3467"
    },
    {
      "Impact": "",
      "Href": "",
      "ID": "CVE-2014-3468"
    },
    {
      "Impact": "",
      "Href": "",
      "ID": "CVE-2014-3469"
    }
  ],
  "Issued": {
    "Date": "2014-06-10"
  }
}