{
  "Title": "RHSA-2014:0305: samba security update (Moderate)",
  "Description": "Samba is an open-source implementation of the Server Message Block (SMB) or\nCommon Internet File System (CIFS) protocol, which allows PC-compatible\nmachines to share files, printers, and other information.\nIt was discovered that the Samba Web Administration Tool (SWAT) did not\nprotect against being opened in a web page frame. A remote attacker could\npossibly use this flaw to conduct a clickjacking attack against SWAT users\nor users with an active SWAT session. (CVE-2013-0213)\nA flaw was found in the Cross-Site Request Forgery (CSRF) protection\nmechanism implemented in SWAT. An attacker with the knowledge of a victim's\npassword could use this flaw to bypass CSRF protections and conduct a CSRF\nattack against the victim SWAT user. (CVE-2013-0214)\nAn integer overflow flaw was found in the way Samba handled an Extended\nAttribute (EA) list provided by a client. A malicious client could send a\nspecially crafted EA list that triggered an overflow, causing the server to\nloop and reprocess the list using an excessive amount of memory.\n(CVE-2013-4124)\nNote: This issue did not affect the default configuration of the Samba\nserver.\nRed Hat would like to thank the Samba project for reporting CVE-2013-0213\nand CVE-2013-0214. Upstream acknowledges Jann Horn as the original reporter\nof CVE-2013-0213 and CVE-2013-0214.\nAll users of Samba are advised to upgrade to these updated packages, which\ncontain backported patches to correct these issues. After installing this\nupdate, the smb service will be restarted automatically.",
  "Platform": [
    "Red Hat Enterprise Linux 5"
  ],
  "References": [
    {
      "Source": "RHSA",
      "URI": "https://access.redhat.com/errata/RHSA-2014:0305",
      "ID": "RHSA-2014:0305"
    },
    {
      "Source": "CVE",
      "URI": "https://access.redhat.com/security/cve/CVE-2013-0213",
      "ID": "CVE-2013-0213"
    },
    {
      "Source": "CVE",
      "URI": "https://access.redhat.com/security/cve/CVE-2013-0214",
      "ID": "CVE-2013-0214"
    },
    {
      "Source": "CVE",
      "URI": "https://access.redhat.com/security/cve/CVE-2013-4124",
      "ID": "CVE-2013-4124"
    }
  ],
  "Criteria": {
    "Operator": "OR",
    "Criterias": [
      {
        "Operator": "AND",
        "Criterias": [
          {
            "Operator": "OR",
            "Criterias": [
              {
                "Operator": "AND",
                "Criterias": [

                ],
                "Criterions": [
                  {
                    "Comment": "libsmbclient is earlier than 0:3.0.33-3.40.el5_10"
                  },
                  {
                    "Comment": "libsmbclient is signed with Red Hat redhatrelease2 key"
                  }
                ]
              },
              {
                "Operator": "AND",
                "Criterias": [

                ],
                "Criterions": [
                  {
                    "Comment": "libsmbclient-devel is earlier than 0:3.0.33-3.40.el5_10"
                  },
                  {
                    "Comment": "libsmbclient-devel is signed with Red Hat redhatrelease2 key"
                  }
                ]
              },
              {
                "Operator": "AND",
                "Criterias": [

                ],
                "Criterions": [
                  {
                    "Comment": "samba is earlier than 0:3.0.33-3.40.el5_10"
                  },
                  {
                    "Comment": "samba is signed with Red Hat redhatrelease2 key"
                  }
                ]
              },
              {
                "Operator": "AND",
                "Criterias": [

                ],
                "Criterions": [
                  {
                    "Comment": "samba-client is earlier than 0:3.0.33-3.40.el5_10"
                  },
                  {
                    "Comment": "samba-client is signed with Red Hat redhatrelease2 key"
                  }
                ]
              },
              {
                "Operator": "AND",
                "Criterias": [

                ],
                "Criterions": [
                  {
                    "Comment": "samba-common is earlier than 0:3.0.33-3.40.el5_10"
                  },
                  {
                    "Comment": "samba-common is signed with Red Hat redhatrelease2 key"
                  }
                ]
              },
              {
                "Operator": "AND",
                "Criterias": [

                ],
                "Criterions": [
                  {
                    "Comment": "samba-swat is earlier than 0:3.0.33-3.40.el5_10"
                  },
                  {
                    "Comment": "samba-swat is signed with Red Hat redhatrelease2 key"
                  }
                ]
              }
            ],
            "Criterions": [

            ]
          }
        ],
        "Criterions": [
          {
            "Comment": "Oracle Linux 5 is installed"
          }
        ]
      }
    ],
    "Criterions": [
      {
        "Comment": "Oracle Linux 5 is installed"
      }
    ]
  },
  "Severity": "Moderate",
  "Cves": [
    {
      "Impact": "",
      "Href": "",
      "ID": "CVE-2013-0213"
    },
    {
      "Impact": "",
      "Href": "",
      "ID": "CVE-2013-0214"
    },
    {
      "Impact": "",
      "Href": "",
      "ID": "CVE-2013-4124"
    }
  ],
  "Issued": {
    "Date": "2014-03-17"
  }
}