{
  "Title": "RHSA-2014:0133: thunderbird security update (Important)",
  "Description": "Mozilla Thunderbird is a standalone mail and newsgroup client.\nSeveral flaws were found in the processing of malformed content.\nMalicious content could cause Thunderbird to crash or, potentially, execute\narbitrary code with the privileges of the user running Thunderbird.\n(CVE-2014-1477, CVE-2014-1482, CVE-2014-1486)\nA flaw was found in the way Thunderbird handled error messages related to\nweb workers. An attacker could use this flaw to bypass the same-origin\npolicy, which could lead to cross-site scripting (XSS) attacks, or could\npotentially be used to gather authentication tokens and other data from\nthird-party websites. (CVE-2014-1487)\nA flaw was found in the implementation of System Only Wrappers (SOW).\nAn attacker could use this flaw to crash Thunderbird. When combined with\nother vulnerabilities, this flaw could have additional security\nimplications. (CVE-2014-1479)\nIt was found that the Thunderbird JavaScript engine incorrectly handled\nwindow objects. A remote attacker could use this flaw to bypass certain\nsecurity checks and possibly execute arbitrary code. (CVE-2014-1481)\nRed Hat would like to thank the Mozilla project for reporting these issues.\nUpstream acknowledges Christian Holler, Terrence Cole, Jesse Ruderman, Gary\nKwong, Eric Rescorla, Jonathan Kew, Dan Gohman, Ryan VanderMeulen, Sotaro\nIkeda, Cody Crews, Fredrik \"Flonka\" Lönnqvist, Arthur Gerkis, Masato\nKinugawa, and Boris Zbarsky as the original reporters of these issues.\nNote: All of the above issues cannot be exploited by a specially crafted\nHTML mail message as JavaScript is disabled by default for mail messages.\nThey could be exploited another way in Thunderbird, for example, when\nviewing the full remote content of an RSS feed.\nFor technical details regarding these flaws, refer to the Mozilla security\nadvisories for Thunderbird 24.3.0. You can find a link to the Mozilla\nadvisories in the References section of this erratum.\nAll Thunderbird users should upgrade to this updated package, which\ncontains Thunderbird version 24.3.0, which corrects these issues.\nAfter installing the update, Thunderbird must be restarted for the changes\nto take effect.",
  "Platform": [
    "Red Hat Enterprise Linux 5",
    "Red Hat Enterprise Linux 6"
  ],
  "References": [
    {
      "Source": "RHSA",
      "URI": "https://access.redhat.com/errata/RHSA-2014:0133",
      "ID": "RHSA-2014:0133"
    },
    {
      "Source": "CVE",
      "URI": "https://access.redhat.com/security/cve/CVE-2014-1477",
      "ID": "CVE-2014-1477"
    },
    {
      "Source": "CVE",
      "URI": "https://access.redhat.com/security/cve/CVE-2014-1479",
      "ID": "CVE-2014-1479"
    },
    {
      "Source": "CVE",
      "URI": "https://access.redhat.com/security/cve/CVE-2014-1481",
      "ID": "CVE-2014-1481"
    },
    {
      "Source": "CVE",
      "URI": "https://access.redhat.com/security/cve/CVE-2014-1482",
      "ID": "CVE-2014-1482"
    },
    {
      "Source": "CVE",
      "URI": "https://access.redhat.com/security/cve/CVE-2014-1486",
      "ID": "CVE-2014-1486"
    },
    {
      "Source": "CVE",
      "URI": "https://access.redhat.com/security/cve/CVE-2014-1487",
      "ID": "CVE-2014-1487"
    }
  ],
  "Criteria": {
    "Operator": "OR",
    "Criterias": [
      {
        "Operator": "AND",
        "Criterias": [

        ],
        "Criterions": [
          {
            "Comment": "Oracle Linux 5 is installed"
          },
          {
            "Comment": "thunderbird is earlier than 0:24.3.0-2.el5_10"
          },
          {
            "Comment": "thunderbird is signed with Red Hat redhatrelease2 key"
          }
        ]
      },
      {
        "Operator": "AND",
        "Criterias": [

        ],
        "Criterions": [
          {
            "Comment": "Oracle Linux 6 is installed"
          },
          {
            "Comment": "thunderbird is earlier than 0:24.3.0-2.el6_5"
          },
          {
            "Comment": "thunderbird is signed with Red Hat redhatrelease2 key"
          }
        ]
      }
    ],
    "Criterions": [
      {
        "Comment": "Oracle Linux 5 is installed"
      }
    ]
  },
  "Severity": "Important",
  "Cves": [
    {
      "Impact": "",
      "Href": "",
      "ID": "CVE-2014-1477"
    },
    {
      "Impact": "",
      "Href": "",
      "ID": "CVE-2014-1479"
    },
    {
      "Impact": "",
      "Href": "",
      "ID": "CVE-2014-1481"
    },
    {
      "Impact": "",
      "Href": "",
      "ID": "CVE-2014-1482"
    },
    {
      "Impact": "",
      "Href": "",
      "ID": "CVE-2014-1486"
    },
    {
      "Impact": "",
      "Href": "",
      "ID": "CVE-2014-1487"
    }
  ],
  "Issued": {
    "Date": "2014-02-04"
  }
}