{
  "Title": "RHSA-2014:1894: chromium-browser security update (Important)",
  "Description": "Chromium is an open-source web browser, powered by WebKit (Blink).\nSeveral flaws were found in the processing of malformed web content. A web\npage containing malicious content could cause Chromium to crash or,\npotentially, execute arbitrary code with the privileges of the user running\nChromium. (CVE-2014-7904, CVE-2014-7906, CVE-2014-7907, CVE-2014-7910, \nCVE-2014-7908, CVE-2014-7909)\nA flaw was found in the way Chromium parsed certain URL values. A malicious\nattacker could use this flaw to perform phishing attacks. (CVE-2014-7899)\nAll Chromium users should upgrade to these updated packages, which contain\nChromium version 39.0.2171.65, which corrects these issues. After\ninstalling the update, Chromium must be restarted for the changes to take\neffect.",
  "Platform": [
    "Supplementary for Red Hat Enterprise Linux 6"
  ],
  "References": [
    {
      "Source": "RHSA",
      "URI": "https://rhn.redhat.com/errata/RHSA-2014-1894.html",
      "ID": "RHSA-2014:1894-00"
    },
    {
      "Source": "CVE",
      "URI": "https://access.redhat.com/security/cve/CVE-2014-7899",
      "ID": "CVE-2014-7899"
    },
    {
      "Source": "CVE",
      "URI": "https://access.redhat.com/security/cve/CVE-2014-7904",
      "ID": "CVE-2014-7904"
    },
    {
      "Source": "CVE",
      "URI": "https://access.redhat.com/security/cve/CVE-2014-7906",
      "ID": "CVE-2014-7906"
    },
    {
      "Source": "CVE",
      "URI": "https://access.redhat.com/security/cve/CVE-2014-7907",
      "ID": "CVE-2014-7907"
    },
    {
      "Source": "CVE",
      "URI": "https://access.redhat.com/security/cve/CVE-2014-7908",
      "ID": "CVE-2014-7908"
    },
    {
      "Source": "CVE",
      "URI": "https://access.redhat.com/security/cve/CVE-2014-7909",
      "ID": "CVE-2014-7909"
    },
    {
      "Source": "CVE",
      "URI": "https://access.redhat.com/security/cve/CVE-2014-7910",
      "ID": "CVE-2014-7910"
    }
  ],
  "Criteria": {
    "Operator": "AND",
    "Criterias": [
      {
        "Operator": "OR",
        "Criterias": [

        ],
        "Criterions": [
          {
            "Comment": "Oracle Linux 6 Client is installed"
          },
          {
            "Comment": "Oracle Linux 6 Server is installed"
          },
          {
            "Comment": "Oracle Linux 6 Workstation is installed"
          },
          {
            "Comment": "Oracle Linux 6 ComputeNode is installed"
          }
        ]
      }
    ],
    "Criterions": [
      {
        "Comment": "chromium-browser is earlier than 0:39.0.2171.65-2.el6_6"
      },
      {
        "Comment": "chromium-browser is signed with Red Hat redhatrelease2 key"
      }
    ]
  },
  "Severity": "Important",
  "Cves": [
    {
      "Impact": "",
      "Href": "",
      "ID": "CVE-2014-7899"
    },
    {
      "Impact": "",
      "Href": "",
      "ID": "CVE-2014-7904"
    },
    {
      "Impact": "",
      "Href": "",
      "ID": "CVE-2014-7906"
    },
    {
      "Impact": "",
      "Href": "",
      "ID": "CVE-2014-7907"
    },
    {
      "Impact": "",
      "Href": "",
      "ID": "CVE-2014-7908"
    },
    {
      "Impact": "",
      "Href": "",
      "ID": "CVE-2014-7909"
    },
    {
      "Impact": "",
      "Href": "",
      "ID": "CVE-2014-7910"
    }
  ],
  "Issued": {
    "Date": "2014-11-24"
  }
}