{
  "Title": "RHSA-2014:1292: haproxy security update (Moderate)",
  "Description": "HAProxy provides high availability, load balancing, and proxying for TCP\nand HTTP-based applications.\nA buffer overflow flaw was discovered in the way HAProxy handled, under\nvery specific conditions, data uploaded from a client. A remote attacker\ncould possibly use this flaw to crash HAProxy. (CVE-2014-6269)\nAll haproxy users are advised to upgrade to this updated package, which\ncontains a backported patch to correct this issue.",
  "Platform": [
    "Red Hat Enterprise Linux 7"
  ],
  "References": [
    {
      "Source": "RHSA",
      "URI": "https://access.redhat.com/errata/RHSA-2014:1292",
      "ID": "RHSA-2014:1292"
    },
    {
      "Source": "CVE",
      "URI": "https://access.redhat.com/security/cve/CVE-2014-6269",
      "ID": "CVE-2014-6269"
    }
  ],
  "Criteria": {
    "Operator": "OR",
    "Criterias": [
      {
        "Operator": "AND",
        "Criterias": [

        ],
        "Criterions": [
          {
            "Comment": "Oracle Linux 7 is installed"
          },
          {
            "Comment": "haproxy is earlier than 0:1.5.2-3.el7_0"
          },
          {
            "Comment": "haproxy is signed with Red Hat redhatrelease2 key"
          }
        ]
      }
    ],
    "Criterions": [
      {
        "Comment": "Oracle Linux 7 is installed"
      }
    ]
  },
  "Severity": "Moderate",
  "Cves": [
    {
      "Impact": "",
      "Href": "",
      "ID": "CVE-2014-6269"
    }
  ],
  "Issued": {
    "Date": "2014-09-24"
  }
}