{
  "Title": "RHSA-2014:0597: squid security update (Moderate)",
  "Description": "Squid is a high-performance proxy caching server for web clients,\nsupporting FTP, Gopher, and HTTP data objects.\nA denial of service flaw was found in the way Squid processed certain HTTPS\nrequests when the SSL Bump feature was enabled. A remote attacker could\nsend specially crafted requests that could cause Squid to crash.\n(CVE-2014-0128)\nRed Hat would like to thank the Squid project for reporting this issue.\nUpstream acknowledges Mathias Fischer and Fabian Hugelshofer from Open\nSystems AG as the original reporters.\nAll squid users are advised to upgrade to these updated packages, which\ncontain a backported patch to correct this issue. After installing this\nupdate, the squid service will be restarted automatically.",
  "Platform": [
    "Red Hat Enterprise Linux 6"
  ],
  "References": [
    {
      "Source": "RHSA",
      "URI": "https://access.redhat.com/errata/RHSA-2014:0597",
      "ID": "RHSA-2014:0597"
    },
    {
      "Source": "CVE",
      "URI": "https://access.redhat.com/security/cve/CVE-2014-0128",
      "ID": "CVE-2014-0128"
    }
  ],
  "Criteria": {
    "Operator": "OR",
    "Criterias": [
      {
        "Operator": "AND",
        "Criterias": [

        ],
        "Criterions": [
          {
            "Comment": "Oracle Linux 6 is installed"
          },
          {
            "Comment": "squid is earlier than 7:3.1.10-20.el6_5.3"
          },
          {
            "Comment": "squid is signed with Red Hat redhatrelease2 key"
          }
        ]
      }
    ],
    "Criterions": [
      {
        "Comment": "Oracle Linux 6 is installed"
      }
    ]
  },
  "Severity": "Moderate",
  "Cves": [
    {
      "Impact": "",
      "Href": "",
      "ID": "CVE-2014-0128"
    }
  ],
  "Issued": {
    "Date": "2014-06-03"
  }
}