{
  "Title": "RHSA-2014:1004: yum-updatesd security update (Important)",
  "Description": "The yum-updatesd package provides a daemon which checks for available\nupdates and can notify you when they are available via email, syslog,\nor dbus.\nIt was discovered that yum-updatesd did not properly perform RPM package\nsignature checks. When yum-updatesd was configured to automatically install\nupdates, a remote attacker could use this flaw to install a malicious\nupdate on the target system using an unsigned RPM or an RPM signed with an\nuntrusted key. (CVE-2014-0022)\nAll yum-updatesd users are advised to upgrade to this updated package,\nwhich contains a backported patch to correct this issue. After installing\nthis update, the yum-updatesd service will be restarted automatically.",
  "Platform": [
    "Red Hat Enterprise Linux 5"
  ],
  "References": [
    {
      "Source": "RHSA",
      "URI": "https://access.redhat.com/errata/RHSA-2014:1004",
      "ID": "RHSA-2014:1004"
    },
    {
      "Source": "CVE",
      "URI": "https://access.redhat.com/security/cve/CVE-2014-0022",
      "ID": "CVE-2014-0022"
    }
  ],
  "Criteria": {
    "Operator": "OR",
    "Criterias": [
      {
        "Operator": "AND",
        "Criterias": [

        ],
        "Criterions": [
          {
            "Comment": "Oracle Linux 5 is installed"
          },
          {
            "Comment": "yum-updatesd is earlier than 1:0.9-6.el5_10"
          },
          {
            "Comment": "yum-updatesd is signed with Red Hat redhatrelease2 key"
          }
        ]
      }
    ],
    "Criterions": [
      {
        "Comment": "Oracle Linux 5 is installed"
      }
    ]
  },
  "Severity": "Important",
  "Cves": [
    {
      "Impact": "",
      "Href": "",
      "ID": "CVE-2014-0022"
    }
  ],
  "Issued": {
    "Date": "2014-08-05"
  }
}