{
  "Title": "RHSA-2014:0475: kernel security and bug fix update (Important)",
  "Description": "The kernel packages contain the Linux kernel, the core of any Linux\noperating system.\n* A flaw was found in the way the Linux kernel's netfilter connection\ntracking implementation for Datagram Congestion Control Protocol (DCCP)\npackets used the skb_header_pointer() function. A remote attacker could use\nthis flaw to send a specially crafted DCCP packet to crash the system or,\npotentially, escalate their privileges on the system. (CVE-2014-2523,\nImportant)\n* A flaw was found in the way the Linux kernel's Adaptec RAID controller\n(aacraid) checked permissions of compat IOCTLs. A local attacker could use\nthis flaw to bypass intended security restrictions. (CVE-2013-6383,\nModerate)\n* A flaw was found in the way the handle_rx() function handled large\nnetwork packets when mergeable buffers were disabled. A privileged guest\nuser could use this flaw to crash the host or corrupt QEMU process memory\non the host, which could potentially result in arbitrary code execution on\nthe host with the privileges of the QEMU process. (CVE-2014-0077, Moderate)\nThe CVE-2014-0077 issue was discovered by Michael S. Tsirkin of Red Hat.\nThis update also fixes several bugs. Documentation for these changes will\nbe available shortly from the Technical Notes document linked to in the\nReferences section.\nAll kernel users are advised to upgrade to these updated packages, which\ncontain backported patches to correct these issues. The system must be\nrebooted for this update to take effect.",
  "Platform": [
    "Red Hat Enterprise Linux 6"
  ],
  "References": [
    {
      "Source": "RHSA",
      "URI": "https://access.redhat.com/errata/RHSA-2014:0475",
      "ID": "RHSA-2014:0475"
    },
    {
      "Source": "CVE",
      "URI": "https://access.redhat.com/security/cve/CVE-2013-6383",
      "ID": "CVE-2013-6383"
    },
    {
      "Source": "CVE",
      "URI": "https://access.redhat.com/security/cve/CVE-2014-0077",
      "ID": "CVE-2014-0077"
    },
    {
      "Source": "CVE",
      "URI": "https://access.redhat.com/security/cve/CVE-2014-2523",
      "ID": "CVE-2014-2523"
    }
  ],
  "Criteria": {
    "Operator": "OR",
    "Criterias": [
      {
        "Operator": "AND",
        "Criterias": [
          {
            "Operator": "OR",
            "Criterias": [

            ],
            "Criterions": [
              {
                "Comment": "kernel earlier than 0:2.6.32-431.17.1.el6 is currently running"
              },
              {
                "Comment": "kernel earlier than 0:2.6.32-431.17.1.el6 is set to boot up on next boot"
              }
            ]
          },
          {
            "Operator": "OR",
            "Criterias": [
              {
                "Operator": "AND",
                "Criterias": [

                ],
                "Criterions": [
                  {
                    "Comment": "kernel is earlier than 0:2.6.32-431.17.1.el6"
                  },
                  {
                    "Comment": "kernel is signed with Red Hat redhatrelease2 key"
                  }
                ]
              },
              {
                "Operator": "AND",
                "Criterias": [

                ],
                "Criterions": [
                  {
                    "Comment": "kernel-abi-whitelists is earlier than 0:2.6.32-431.17.1.el6"
                  },
                  {
                    "Comment": "kernel-abi-whitelists is signed with Red Hat redhatrelease2 key"
                  }
                ]
              },
              {
                "Operator": "AND",
                "Criterias": [

                ],
                "Criterions": [
                  {
                    "Comment": "kernel-bootwrapper is earlier than 0:2.6.32-431.17.1.el6"
                  },
                  {
                    "Comment": "kernel-bootwrapper is signed with Red Hat redhatrelease2 key"
                  }
                ]
              },
              {
                "Operator": "AND",
                "Criterias": [

                ],
                "Criterions": [
                  {
                    "Comment": "kernel-debug is earlier than 0:2.6.32-431.17.1.el6"
                  },
                  {
                    "Comment": "kernel-debug is signed with Red Hat redhatrelease2 key"
                  }
                ]
              },
              {
                "Operator": "AND",
                "Criterias": [

                ],
                "Criterions": [
                  {
                    "Comment": "kernel-debug-devel is earlier than 0:2.6.32-431.17.1.el6"
                  },
                  {
                    "Comment": "kernel-debug-devel is signed with Red Hat redhatrelease2 key"
                  }
                ]
              },
              {
                "Operator": "AND",
                "Criterias": [

                ],
                "Criterions": [
                  {
                    "Comment": "kernel-devel is earlier than 0:2.6.32-431.17.1.el6"
                  },
                  {
                    "Comment": "kernel-devel is signed with Red Hat redhatrelease2 key"
                  }
                ]
              },
              {
                "Operator": "AND",
                "Criterias": [

                ],
                "Criterions": [
                  {
                    "Comment": "kernel-doc is earlier than 0:2.6.32-431.17.1.el6"
                  },
                  {
                    "Comment": "kernel-doc is signed with Red Hat redhatrelease2 key"
                  }
                ]
              },
              {
                "Operator": "AND",
                "Criterias": [

                ],
                "Criterions": [
                  {
                    "Comment": "kernel-firmware is earlier than 0:2.6.32-431.17.1.el6"
                  },
                  {
                    "Comment": "kernel-firmware is signed with Red Hat redhatrelease2 key"
                  }
                ]
              },
              {
                "Operator": "AND",
                "Criterias": [

                ],
                "Criterions": [
                  {
                    "Comment": "kernel-headers is earlier than 0:2.6.32-431.17.1.el6"
                  },
                  {
                    "Comment": "kernel-headers is signed with Red Hat redhatrelease2 key"
                  }
                ]
              },
              {
                "Operator": "AND",
                "Criterias": [

                ],
                "Criterions": [
                  {
                    "Comment": "kernel-kdump is earlier than 0:2.6.32-431.17.1.el6"
                  },
                  {
                    "Comment": "kernel-kdump is signed with Red Hat redhatrelease2 key"
                  }
                ]
              },
              {
                "Operator": "AND",
                "Criterias": [

                ],
                "Criterions": [
                  {
                    "Comment": "kernel-kdump-devel is earlier than 0:2.6.32-431.17.1.el6"
                  },
                  {
                    "Comment": "kernel-kdump-devel is signed with Red Hat redhatrelease2 key"
                  }
                ]
              },
              {
                "Operator": "AND",
                "Criterias": [

                ],
                "Criterions": [
                  {
                    "Comment": "perf is earlier than 0:2.6.32-431.17.1.el6"
                  },
                  {
                    "Comment": "perf is signed with Red Hat redhatrelease2 key"
                  }
                ]
              },
              {
                "Operator": "AND",
                "Criterias": [

                ],
                "Criterions": [
                  {
                    "Comment": "python-perf is earlier than 0:2.6.32-431.17.1.el6"
                  },
                  {
                    "Comment": "python-perf is signed with Red Hat redhatrelease2 key"
                  }
                ]
              }
            ],
            "Criterions": [

            ]
          }
        ],
        "Criterions": [
          {
            "Comment": "Oracle Linux 6 is installed"
          }
        ]
      }
    ],
    "Criterions": [
      {
        "Comment": "Oracle Linux 6 is installed"
      }
    ]
  },
  "Severity": "Important",
  "Cves": [
    {
      "Impact": "",
      "Href": "",
      "ID": "CVE-2013-6383"
    },
    {
      "Impact": "",
      "Href": "",
      "ID": "CVE-2014-0077"
    },
    {
      "Impact": "",
      "Href": "",
      "ID": "CVE-2014-2523"
    }
  ],
  "Issued": {
    "Date": "2014-05-07"
  }
}