{
  "Title": "RHSA-2014:1976: rpm security update (Important)",
  "Description": "The RPM Package Manager (RPM) is a powerful command line driven package\nmanagement system capable of installing, uninstalling, verifying, querying,\nand updating software packages. Each software package consists of an\narchive of files along with information about the package such as its\nversion, description, and other information.\nIt was found that RPM wrote file contents to the target installation\ndirectory under a temporary name, and verified its cryptographic signature\nonly after the temporary file has been written completely. Under certain\nconditions, the system interprets the unverified temporary file contents\nand extracts commands from it. This could allow an attacker to modify\nsigned RPM files in such a way that they would execute code chosen by the\nattacker during package installation. (CVE-2013-6435)\nIt was found that RPM could encounter an integer overflow, leading to a\nstack-based buffer overflow, while parsing a crafted CPIO header in the\npayload section of an RPM file. This could allow an attacker to modify\nsigned RPM files in such a way that they would execute code chosen by the\nattacker during package installation. (CVE-2014-8118)\nThese issues were discovered by Florian Weimer of Red Hat Product Security.\nAll rpm users are advised to upgrade to these updated packages, which\ncontain backported patches to correct these issues. All running\napplications linked against the RPM library must be restarted for this\nupdate to take effect.",
  "Platform": [
    "Red Hat Enterprise Linux 7"
  ],
  "References": [
    {
      "Source": "RHSA",
      "URI": "https://access.redhat.com/errata/RHSA-2014:1976",
      "ID": "RHSA-2014:1976"
    },
    {
      "Source": "CVE",
      "URI": "https://access.redhat.com/security/cve/CVE-2013-6435",
      "ID": "CVE-2013-6435"
    },
    {
      "Source": "CVE",
      "URI": "https://access.redhat.com/security/cve/CVE-2014-8118",
      "ID": "CVE-2014-8118"
    }
  ],
  "Criteria": {
    "Operator": "OR",
    "Criterias": [
      {
        "Operator": "AND",
        "Criterias": [
          {
            "Operator": "OR",
            "Criterias": [
              {
                "Operator": "AND",
                "Criterias": [

                ],
                "Criterions": [
                  {
                    "Comment": "rpm is earlier than 0:4.11.1-18.el7_0"
                  },
                  {
                    "Comment": "rpm is signed with Red Hat redhatrelease2 key"
                  }
                ]
              },
              {
                "Operator": "AND",
                "Criterias": [

                ],
                "Criterions": [
                  {
                    "Comment": "rpm-apidocs is earlier than 0:4.11.1-18.el7_0"
                  },
                  {
                    "Comment": "rpm-apidocs is signed with Red Hat redhatrelease2 key"
                  }
                ]
              },
              {
                "Operator": "AND",
                "Criterias": [

                ],
                "Criterions": [
                  {
                    "Comment": "rpm-build is earlier than 0:4.11.1-18.el7_0"
                  },
                  {
                    "Comment": "rpm-build is signed with Red Hat redhatrelease2 key"
                  }
                ]
              },
              {
                "Operator": "AND",
                "Criterias": [

                ],
                "Criterions": [
                  {
                    "Comment": "rpm-build-libs is earlier than 0:4.11.1-18.el7_0"
                  },
                  {
                    "Comment": "rpm-build-libs is signed with Red Hat redhatrelease2 key"
                  }
                ]
              },
              {
                "Operator": "AND",
                "Criterias": [

                ],
                "Criterions": [
                  {
                    "Comment": "rpm-cron is earlier than 0:4.11.1-18.el7_0"
                  },
                  {
                    "Comment": "rpm-cron is signed with Red Hat redhatrelease2 key"
                  }
                ]
              },
              {
                "Operator": "AND",
                "Criterias": [

                ],
                "Criterions": [
                  {
                    "Comment": "rpm-devel is earlier than 0:4.11.1-18.el7_0"
                  },
                  {
                    "Comment": "rpm-devel is signed with Red Hat redhatrelease2 key"
                  }
                ]
              },
              {
                "Operator": "AND",
                "Criterias": [

                ],
                "Criterions": [
                  {
                    "Comment": "rpm-libs is earlier than 0:4.11.1-18.el7_0"
                  },
                  {
                    "Comment": "rpm-libs is signed with Red Hat redhatrelease2 key"
                  }
                ]
              },
              {
                "Operator": "AND",
                "Criterias": [

                ],
                "Criterions": [
                  {
                    "Comment": "rpm-python is earlier than 0:4.11.1-18.el7_0"
                  },
                  {
                    "Comment": "rpm-python is signed with Red Hat redhatrelease2 key"
                  }
                ]
              },
              {
                "Operator": "AND",
                "Criterias": [

                ],
                "Criterions": [
                  {
                    "Comment": "rpm-sign is earlier than 0:4.11.1-18.el7_0"
                  },
                  {
                    "Comment": "rpm-sign is signed with Red Hat redhatrelease2 key"
                  }
                ]
              }
            ],
            "Criterions": [

            ]
          }
        ],
        "Criterions": [
          {
            "Comment": "Oracle Linux 7 is installed"
          }
        ]
      }
    ],
    "Criterions": [
      {
        "Comment": "Oracle Linux 7 is installed"
      }
    ]
  },
  "Severity": "Important",
  "Cves": [
    {
      "Impact": "",
      "Href": "",
      "ID": "CVE-2013-6435"
    },
    {
      "Impact": "",
      "Href": "",
      "ID": "CVE-2014-8118"
    }
  ],
  "Issued": {
    "Date": "2014-12-09"
  }
}