{
  "Title": "RHSA-2014:2021: jasper security update (Important)",
  "Description": "JasPer is an implementation of Part 1 of the JPEG 2000 image compression\nstandard.\nMultiple off-by-one flaws, leading to heap-based buffer overflows, were\nfound in the way JasPer decoded JPEG 2000 image files. A specially crafted\nfile could cause an application using JasPer to crash or, possibly, execute\narbitrary code. (CVE-2014-9029)\nA heap-based buffer overflow flaw was found in the way JasPer decoded JPEG\n2000 image files. A specially crafted file could cause an application using\nJasPer to crash or, possibly, execute arbitrary code. (CVE-2014-8138)\nA double free flaw was found in the way JasPer parsed ICC color profiles in\nJPEG 2000 image files. A specially crafted file could cause an application\nusing JasPer to crash or, possibly, execute arbitrary code. (CVE-2014-8137)\nRed Hat would like to thank oCERT for reporting these issues. oCERT\nacknowledges Jose Duart of the Google Security Team as the original\nreporter.\nAll JasPer users are advised to upgrade to these updated packages, which\ncontain backported patches to correct these issues. All applications using\nthe JasPer libraries must be restarted for the update to take effect.",
  "Platform": [
    "Red Hat Enterprise Linux 6",
    "Red Hat Enterprise Linux 7"
  ],
  "References": [
    {
      "Source": "RHSA",
      "URI": "https://access.redhat.com/errata/RHSA-2014:2021",
      "ID": "RHSA-2014:2021"
    },
    {
      "Source": "CVE",
      "URI": "https://access.redhat.com/security/cve/CVE-2014-8137",
      "ID": "CVE-2014-8137"
    },
    {
      "Source": "CVE",
      "URI": "https://access.redhat.com/security/cve/CVE-2014-8138",
      "ID": "CVE-2014-8138"
    },
    {
      "Source": "CVE",
      "URI": "https://access.redhat.com/security/cve/CVE-2014-9029",
      "ID": "CVE-2014-9029"
    }
  ],
  "Criteria": {
    "Operator": "OR",
    "Criterias": [
      {
        "Operator": "AND",
        "Criterias": [
          {
            "Operator": "OR",
            "Criterias": [
              {
                "Operator": "AND",
                "Criterias": [

                ],
                "Criterions": [
                  {
                    "Comment": "jasper is earlier than 0:1.900.1-26.el7_0.2"
                  },
                  {
                    "Comment": "jasper is signed with Red Hat redhatrelease2 key"
                  }
                ]
              },
              {
                "Operator": "AND",
                "Criterias": [

                ],
                "Criterions": [
                  {
                    "Comment": "jasper-devel is earlier than 0:1.900.1-26.el7_0.2"
                  },
                  {
                    "Comment": "jasper-devel is signed with Red Hat redhatrelease2 key"
                  }
                ]
              },
              {
                "Operator": "AND",
                "Criterias": [

                ],
                "Criterions": [
                  {
                    "Comment": "jasper-libs is earlier than 0:1.900.1-26.el7_0.2"
                  },
                  {
                    "Comment": "jasper-libs is signed with Red Hat redhatrelease2 key"
                  }
                ]
              },
              {
                "Operator": "AND",
                "Criterias": [

                ],
                "Criterions": [
                  {
                    "Comment": "jasper-utils is earlier than 0:1.900.1-26.el7_0.2"
                  },
                  {
                    "Comment": "jasper-utils is signed with Red Hat redhatrelease2 key"
                  }
                ]
              }
            ],
            "Criterions": [

            ]
          }
        ],
        "Criterions": [
          {
            "Comment": "Oracle Linux 7 is installed"
          }
        ]
      },
      {
        "Operator": "AND",
        "Criterias": [
          {
            "Operator": "OR",
            "Criterias": [
              {
                "Operator": "AND",
                "Criterias": [

                ],
                "Criterions": [
                  {
                    "Comment": "jasper is earlier than 0:1.900.1-16.el6_6.2"
                  },
                  {
                    "Comment": "jasper is signed with Red Hat redhatrelease2 key"
                  }
                ]
              },
              {
                "Operator": "AND",
                "Criterias": [

                ],
                "Criterions": [
                  {
                    "Comment": "jasper-devel is earlier than 0:1.900.1-16.el6_6.2"
                  },
                  {
                    "Comment": "jasper-devel is signed with Red Hat redhatrelease2 key"
                  }
                ]
              },
              {
                "Operator": "AND",
                "Criterias": [

                ],
                "Criterions": [
                  {
                    "Comment": "jasper-libs is earlier than 0:1.900.1-16.el6_6.2"
                  },
                  {
                    "Comment": "jasper-libs is signed with Red Hat redhatrelease2 key"
                  }
                ]
              },
              {
                "Operator": "AND",
                "Criterias": [

                ],
                "Criterions": [
                  {
                    "Comment": "jasper-utils is earlier than 0:1.900.1-16.el6_6.2"
                  },
                  {
                    "Comment": "jasper-utils is signed with Red Hat redhatrelease2 key"
                  }
                ]
              }
            ],
            "Criterions": [

            ]
          }
        ],
        "Criterions": [
          {
            "Comment": "Oracle Linux 6 is installed"
          }
        ]
      }
    ],
    "Criterions": [
      {
        "Comment": "Oracle Linux 6 is installed"
      }
    ]
  },
  "Severity": "Important",
  "Cves": [
    {
      "Impact": "",
      "Href": "",
      "ID": "CVE-2014-8137"
    },
    {
      "Impact": "",
      "Href": "",
      "ID": "CVE-2014-8138"
    },
    {
      "Impact": "",
      "Href": "",
      "ID": "CVE-2014-9029"
    }
  ],
  "Issued": {
    "Date": "2014-12-18"
  }
}