{
  "Title": "RHSA-2014:0626: openssl097a and openssl098e security update (Important)",
  "Description": "OpenSSL is a toolkit that implements the Secure Sockets Layer (SSL v2/v3)\nand Transport Layer Security (TLS v1) protocols, as well as a\nfull-strength, general purpose cryptography library.\nIt was found that OpenSSL clients and servers could be forced, via a\nspecially crafted handshake packet, to use weak keying material for\ncommunication. A man-in-the-middle attacker could use this flaw to decrypt\nand modify traffic between a client and a server. (CVE-2014-0224)\nNote: In order to exploit this flaw, both the server and the client must be\nusing a vulnerable version of OpenSSL; the server must be using OpenSSL\nversion 1.0.1 and above, and the client must be using any version of\nOpenSSL. For more information about this flaw, refer to:\nhttps://access.redhat.com/site/articles/904433\nRed Hat would like to thank the OpenSSL project for reporting this issue.\nUpstream acknowledges KIKUCHI Masashi of Lepidum as the original reporter\nof this issue.\nAll OpenSSL users are advised to upgrade to these updated packages, which\ncontain a backported patch to correct this issue. For the update to take\neffect, all services linked to the OpenSSL library (such as httpd and other\nSSL-enabled services) must be restarted or the system rebooted.",
  "Platform": [
    "Red Hat Enterprise Linux 5",
    "Red Hat Enterprise Linux 6"
  ],
  "References": [
    {
      "Source": "RHSA",
      "URI": "https://access.redhat.com/errata/RHSA-2014:0626",
      "ID": "RHSA-2014:0626"
    },
    {
      "Source": "CVE",
      "URI": "https://access.redhat.com/security/cve/CVE-2014-0224",
      "ID": "CVE-2014-0224"
    }
  ],
  "Criteria": {
    "Operator": "OR",
    "Criterias": [
      {
        "Operator": "AND",
        "Criterias": [

        ],
        "Criterions": [
          {
            "Comment": "Oracle Linux 5 is installed"
          },
          {
            "Comment": "openssl097a is earlier than 0:0.9.7a-12.el5_10.1"
          },
          {
            "Comment": "openssl097a is signed with Red Hat redhatrelease2 key"
          }
        ]
      },
      {
        "Operator": "AND",
        "Criterias": [

        ],
        "Criterions": [
          {
            "Comment": "Oracle Linux 6 is installed"
          },
          {
            "Comment": "openssl098e is earlier than 0:0.9.8e-18.el6_5.2"
          },
          {
            "Comment": "openssl098e is signed with Red Hat redhatrelease2 key"
          }
        ]
      }
    ],
    "Criterions": [
      {
        "Comment": "Oracle Linux 5 is installed"
      }
    ]
  },
  "Severity": "Important",
  "Cves": [
    {
      "Impact": "",
      "Href": "",
      "ID": "CVE-2014-0224"
    }
  ],
  "Issued": {
    "Date": "2014-06-05"
  }
}