{
  "Title": "RHSA-2014:0380: flash-plugin security update (Critical)",
  "Description": "The flash-plugin package contains a Mozilla Firefox compatible Adobe Flash\nPlayer web browser plug-in.\nThis update fixes multiple vulnerabilities in Adobe Flash Player. These\nvulnerabilities are detailed in the Adobe Security Bulletin APSB14-09,\nlisted in the References section.\nTwo flaws were found in the way flash-plugin displayed certain SWF content.\nAn attacker could use these flaws to create a specially crafted SWF file\nthat would cause flash-plugin to crash or, potentially, execute arbitrary\ncode when the victim loaded a page containing the malicious SWF content.\n(CVE-2014-0506, CVE-2014-0507)\nA flaw in flash-plugin could allow an attacker to obtain sensitive\ninformation if a victim were tricked into visiting a specially crafted web\npage. (CVE-2014-0508)\nA flaw in flash-plugin could allow an attacker to conduct cross-site\nscripting (XSS) attacks if a victim were tricked into visiting a specially\ncrafted web page. (CVE-2014-0509)\nAll users of Adobe Flash Player should install this updated package, which\nupgrades Flash Player to version 11.2.202.350.",
  "Platform": [
    "Supplementary for Red Hat Enterprise Linux 6"
  ],
  "References": [
    {
      "Source": "RHSA",
      "URI": "https://rhn.redhat.com/errata/RHSA-2014-0380.html",
      "ID": "RHSA-2014:0380-00"
    },
    {
      "Source": "CVE",
      "URI": "https://www.redhat.com/security/data/cve/CVE-2014-0506.html",
      "ID": "CVE-2014-0506"
    },
    {
      "Source": "CVE",
      "URI": "https://www.redhat.com/security/data/cve/CVE-2014-0507.html",
      "ID": "CVE-2014-0507"
    },
    {
      "Source": "CVE",
      "URI": "https://www.redhat.com/security/data/cve/CVE-2014-0508.html",
      "ID": "CVE-2014-0508"
    },
    {
      "Source": "CVE",
      "URI": "https://www.redhat.com/security/data/cve/CVE-2014-0509.html",
      "ID": "CVE-2014-0509"
    }
  ],
  "Criteria": {
    "Operator": "AND",
    "Criterias": [
      {
        "Operator": "OR",
        "Criterias": [

        ],
        "Criterions": [
          {
            "Comment": "Oracle Linux 6 Client is installed"
          },
          {
            "Comment": "Oracle Linux 6 Server is installed"
          },
          {
            "Comment": "Oracle Linux 6 Workstation is installed"
          },
          {
            "Comment": "Oracle Linux 6 ComputeNode is installed"
          }
        ]
      }
    ],
    "Criterions": [
      {
        "Comment": "flash-plugin is earlier than 0:11.2.202.350-1.el6"
      },
      {
        "Comment": "flash-plugin is signed with Red Hat redhatrelease2 key"
      }
    ]
  },
  "Severity": "Critical",
  "Cves": [
    {
      "Impact": "",
      "Href": "",
      "ID": "CVE-2014-0506"
    },
    {
      "Impact": "",
      "Href": "",
      "ID": "CVE-2014-0507"
    },
    {
      "Impact": "",
      "Href": "",
      "ID": "CVE-2014-0508"
    },
    {
      "Impact": "",
      "Href": "",
      "ID": "CVE-2014-0509"
    }
  ],
  "Issued": {
    "Date": "2014-04-09"
  }
}