{
  "Title": "RHSA-2014:1390: luci security, bug fix, and enhancement update (Moderate)",
  "Description": "Luci is a web-based high availability administration application.\nIt was discovered that luci used eval() on inputs containing strings from\nthe cluster configuration file when generating its web pages. An attacker\nwith privileges to create or edit the cluster configuration could use this\nflaw to execute arbitrary code as the luci user on a host running luci.\n(CVE-2014-3593)\nThis issue was discovered by Jan Pokorný of Red Hat.\nThese updated luci packages also include several bug fixes and multiple\nenhancements. Space precludes documenting all of these changes in this\nadvisory. Users are directed to the Red Hat Enterprise Linux 6.6 Technical\nNotes, linked to in the References section, for information on the most\nsignificant of these changes.\nAll luci users are advised to upgrade to these updated packages, which\ncontain backported patches to correct these issues and add these\nenhancements.",
  "Platform": [
    "Red Hat Enterprise Linux 6"
  ],
  "References": [
    {
      "Source": "RHSA",
      "URI": "https://access.redhat.com/errata/RHSA-2014:1390",
      "ID": "RHSA-2014:1390"
    },
    {
      "Source": "CVE",
      "URI": "https://access.redhat.com/security/cve/CVE-2014-3593",
      "ID": "CVE-2014-3593"
    }
  ],
  "Criteria": {
    "Operator": "OR",
    "Criterias": [
      {
        "Operator": "AND",
        "Criterias": [

        ],
        "Criterions": [
          {
            "Comment": "Oracle Linux 6 is installed"
          },
          {
            "Comment": "luci is earlier than 0:0.26.0-63.el6"
          },
          {
            "Comment": "luci is signed with Red Hat redhatrelease2 key"
          }
        ]
      }
    ],
    "Criterions": [
      {
        "Comment": "Oracle Linux 6 is installed"
      }
    ]
  },
  "Severity": "Moderate",
  "Cves": [
    {
      "Impact": "",
      "Href": "",
      "ID": "CVE-2014-3593"
    }
  ],
  "Issued": {
    "Date": "2014-10-14"
  }
}