{
  "Title": "RHSA-2014:1173: flash-plugin security update (Critical)",
  "Description": "The flash-plugin package contains a Mozilla Firefox compatible Adobe Flash\nPlayer web browser plug-in.\nThis update fixes multiple vulnerabilities in Adobe Flash Player. These\nvulnerabilities are detailed in the Adobe Security Bulletin APSB14-21,\nlisted in the References section.\nMultiple flaws were found in the way flash-plugin displayed certain SWF\ncontent. An attacker could use these flaws to create a specially crafted\nSWF file that would cause flash-plugin to crash or, potentially, execute\narbitrary code when the victim loaded a page containing the malicious SWF\ncontent. (CVE-2014-0547, CVE-2014-0549, CVE-2014-0550, CVE-2014-0551,\nCVE-2014-0552, CVE-2014-0553, CVE-2014-0554, CVE-2014-0555, CVE-2014-0556,\nCVE-2014-0557, CVE-2014-0559)\nA flaw in flash-plugin could allow an attacker to bypass the same-origin\npolicy. (CVE-2014-0548)\nAll users of Adobe Flash Player should install this updated package, which\nupgrades Flash Player to version 11.2.202.406.",
  "Platform": [
    "Supplementary for Red Hat Enterprise Linux 5",
    "Supplementary for Red Hat Enterprise Linux 6"
  ],
  "References": [
    {
      "Source": "RHSA",
      "URI": "https://rhn.redhat.com/errata/RHSA-2014-1173.html",
      "ID": "RHSA-2014:1173-00"
    },
    {
      "Source": "CVE",
      "URI": "https://www.redhat.com/security/data/cve/CVE-2014-0547.html",
      "ID": "CVE-2014-0547"
    },
    {
      "Source": "CVE",
      "URI": "https://www.redhat.com/security/data/cve/CVE-2014-0548.html",
      "ID": "CVE-2014-0548"
    },
    {
      "Source": "CVE",
      "URI": "https://www.redhat.com/security/data/cve/CVE-2014-0549.html",
      "ID": "CVE-2014-0549"
    },
    {
      "Source": "CVE",
      "URI": "https://www.redhat.com/security/data/cve/CVE-2014-0550.html",
      "ID": "CVE-2014-0550"
    },
    {
      "Source": "CVE",
      "URI": "https://www.redhat.com/security/data/cve/CVE-2014-0551.html",
      "ID": "CVE-2014-0551"
    },
    {
      "Source": "CVE",
      "URI": "https://www.redhat.com/security/data/cve/CVE-2014-0552.html",
      "ID": "CVE-2014-0552"
    },
    {
      "Source": "CVE",
      "URI": "https://www.redhat.com/security/data/cve/CVE-2014-0553.html",
      "ID": "CVE-2014-0553"
    },
    {
      "Source": "CVE",
      "URI": "https://www.redhat.com/security/data/cve/CVE-2014-0554.html",
      "ID": "CVE-2014-0554"
    },
    {
      "Source": "CVE",
      "URI": "https://www.redhat.com/security/data/cve/CVE-2014-0555.html",
      "ID": "CVE-2014-0555"
    },
    {
      "Source": "CVE",
      "URI": "https://www.redhat.com/security/data/cve/CVE-2014-0556.html",
      "ID": "CVE-2014-0556"
    },
    {
      "Source": "CVE",
      "URI": "https://www.redhat.com/security/data/cve/CVE-2014-0557.html",
      "ID": "CVE-2014-0557"
    },
    {
      "Source": "CVE",
      "URI": "https://www.redhat.com/security/data/cve/CVE-2014-0559.html",
      "ID": "CVE-2014-0559"
    }
  ],
  "Criteria": {
    "Operator": "OR",
    "Criterias": [
      {
        "Operator": "AND",
        "Criterias": [

        ],
        "Criterions": [
          {
            "Comment": "Oracle Linux 5 is installed"
          },
          {
            "Comment": "flash-plugin is earlier than 0:11.2.202.406-1.el5"
          },
          {
            "Comment": "flash-plugin is signed with Red Hat redhatrelease key"
          }
        ]
      },
      {
        "Operator": "AND",
        "Criterias": [
          {
            "Operator": "OR",
            "Criterias": [

            ],
            "Criterions": [
              {
                "Comment": "Oracle Linux 6 Client is installed"
              },
              {
                "Comment": "Oracle Linux 6 Server is installed"
              },
              {
                "Comment": "Oracle Linux 6 Workstation is installed"
              },
              {
                "Comment": "Oracle Linux 6 ComputeNode is installed"
              }
            ]
          }
        ],
        "Criterions": [
          {
            "Comment": "flash-plugin is earlier than 0:11.2.202.406-1.el6"
          },
          {
            "Comment": "flash-plugin is signed with Red Hat redhatrelease2 key"
          }
        ]
      }
    ],
    "Criterions": [

    ]
  },
  "Severity": "Critical",
  "Cves": [
    {
      "Impact": "",
      "Href": "",
      "ID": "CVE-2014-0547"
    },
    {
      "Impact": "",
      "Href": "",
      "ID": "CVE-2014-0548"
    },
    {
      "Impact": "",
      "Href": "",
      "ID": "CVE-2014-0549"
    },
    {
      "Impact": "",
      "Href": "",
      "ID": "CVE-2014-0550"
    },
    {
      "Impact": "",
      "Href": "",
      "ID": "CVE-2014-0551"
    },
    {
      "Impact": "",
      "Href": "",
      "ID": "CVE-2014-0552"
    },
    {
      "Impact": "",
      "Href": "",
      "ID": "CVE-2014-0553"
    },
    {
      "Impact": "",
      "Href": "",
      "ID": "CVE-2014-0554"
    },
    {
      "Impact": "",
      "Href": "",
      "ID": "CVE-2014-0555"
    },
    {
      "Impact": "",
      "Href": "",
      "ID": "CVE-2014-0556"
    },
    {
      "Impact": "",
      "Href": "",
      "ID": "CVE-2014-0557"
    },
    {
      "Impact": "",
      "Href": "",
      "ID": "CVE-2014-0559"
    }
  ],
  "Issued": {
    "Date": "2014-09-10"
  }
}