{
  "Title": "RHSA-2014:0788: mod_wsgi security update (Important)",
  "Description": "The mod_wsgi adapter is an Apache module that provides a WSGI-compliant\ninterface for hosting Python-based web applications within Apache.\nIt was found that mod_wsgi did not properly drop privileges if the call to\nsetuid() failed. If mod_wsgi was set up to allow unprivileged users to run\nWSGI applications, a local user able to run a WSGI application could\npossibly use this flaw to escalate their privileges on the system.\n(CVE-2014-0240)\nNote: mod_wsgi is not intended to provide privilege separation for WSGI\napplications. Systems relying on mod_wsgi to limit or sandbox the\nprivileges of mod_wsgi applications should migrate to a different solution\nwith proper privilege separation.\nIt was discovered that mod_wsgi could leak memory of a hosted web\napplication via the \"Content-Type\" header. A remote attacker could possibly\nuse this flaw to disclose limited portions of the web application's memory.\n(CVE-2014-0242)\nRed Hat would like to thank Graham Dumpleton for reporting these issues.\nUpstream acknowledges Róbert Kisteleki as the original reporter of\nCVE-2014-0240, and Buck Golemon as the original reporter of CVE-2014-0242.\nAll mod_wsgi users are advised to upgrade to this updated package, which\ncontains backported patches to correct these issues.",
  "Platform": [
    "Red Hat Enterprise Linux 6"
  ],
  "References": [
    {
      "Source": "RHSA",
      "URI": "https://access.redhat.com/errata/RHSA-2014:0788",
      "ID": "RHSA-2014:0788"
    },
    {
      "Source": "CVE",
      "URI": "https://access.redhat.com/security/cve/CVE-2014-0240",
      "ID": "CVE-2014-0240"
    },
    {
      "Source": "CVE",
      "URI": "https://access.redhat.com/security/cve/CVE-2014-0242",
      "ID": "CVE-2014-0242"
    }
  ],
  "Criteria": {
    "Operator": "OR",
    "Criterias": [
      {
        "Operator": "AND",
        "Criterias": [

        ],
        "Criterions": [
          {
            "Comment": "Oracle Linux 6 is installed"
          },
          {
            "Comment": "mod_wsgi is earlier than 0:3.2-6.el6_5"
          },
          {
            "Comment": "mod_wsgi is signed with Red Hat redhatrelease2 key"
          }
        ]
      }
    ],
    "Criterions": [
      {
        "Comment": "Oracle Linux 6 is installed"
      }
    ]
  },
  "Severity": "Important",
  "Cves": [
    {
      "Impact": "",
      "Href": "",
      "ID": "CVE-2014-0240"
    },
    {
      "Impact": "",
      "Href": "",
      "ID": "CVE-2014-0242"
    }
  ],
  "Issued": {
    "Date": "2014-06-25"
  }
}