{
  "Title": "RHSA-2014:1011: resteasy-base security update (Moderate)",
  "Description": "RESTEasy contains a JBoss project that provides frameworks to help build\nRESTful Web Services and RESTful Java applications. It is a fully certified\nand portable implementation of the JAX-RS specification.\nIt was found that the fix for CVE-2012-0818 was incomplete: external\nparameter entities were not disabled when the\nresteasy.document.expand.entity.references parameter was set to false.\nA remote attacker able to send XML requests to a RESTEasy endpoint could\nuse this flaw to read files accessible to the user running the application\nserver, and potentially perform other more advanced XXE attacks.\n(CVE-2014-3490)\nThis issue was discovered by David Jorm of Red Hat Product Security.\nAll resteasy-base users are advised to upgrade to these updated packages,\nwhich contain a backported patch to correct this issue.",
  "Platform": [
    "Red Hat Enterprise Linux 7"
  ],
  "References": [
    {
      "Source": "RHSA",
      "URI": "https://access.redhat.com/errata/RHSA-2014:1011",
      "ID": "RHSA-2014:1011"
    },
    {
      "Source": "CVE",
      "URI": "https://access.redhat.com/security/cve/CVE-2014-3490",
      "ID": "CVE-2014-3490"
    }
  ],
  "Criteria": {
    "Operator": "OR",
    "Criterias": [
      {
        "Operator": "AND",
        "Criterias": [
          {
            "Operator": "OR",
            "Criterias": [
              {
                "Operator": "AND",
                "Criterias": [

                ],
                "Criterions": [
                  {
                    "Comment": "resteasy-base is earlier than 0:2.3.5-3.el7_0"
                  },
                  {
                    "Comment": "resteasy-base is signed with Red Hat redhatrelease2 key"
                  }
                ]
              },
              {
                "Operator": "AND",
                "Criterias": [

                ],
                "Criterions": [
                  {
                    "Comment": "resteasy-base-atom-provider is earlier than 0:2.3.5-3.el7_0"
                  },
                  {
                    "Comment": "resteasy-base-atom-provider is signed with Red Hat redhatrelease2 key"
                  }
                ]
              },
              {
                "Operator": "AND",
                "Criterias": [

                ],
                "Criterions": [
                  {
                    "Comment": "resteasy-base-jackson-provider is earlier than 0:2.3.5-3.el7_0"
                  },
                  {
                    "Comment": "resteasy-base-jackson-provider is signed with Red Hat redhatrelease2 key"
                  }
                ]
              },
              {
                "Operator": "AND",
                "Criterias": [

                ],
                "Criterions": [
                  {
                    "Comment": "resteasy-base-javadoc is earlier than 0:2.3.5-3.el7_0"
                  },
                  {
                    "Comment": "resteasy-base-javadoc is signed with Red Hat redhatrelease2 key"
                  }
                ]
              },
              {
                "Operator": "AND",
                "Criterias": [

                ],
                "Criterions": [
                  {
                    "Comment": "resteasy-base-jaxb-provider is earlier than 0:2.3.5-3.el7_0"
                  },
                  {
                    "Comment": "resteasy-base-jaxb-provider is signed with Red Hat redhatrelease2 key"
                  }
                ]
              },
              {
                "Operator": "AND",
                "Criterias": [

                ],
                "Criterions": [
                  {
                    "Comment": "resteasy-base-jaxrs is earlier than 0:2.3.5-3.el7_0"
                  },
                  {
                    "Comment": "resteasy-base-jaxrs is signed with Red Hat redhatrelease2 key"
                  }
                ]
              },
              {
                "Operator": "AND",
                "Criterias": [

                ],
                "Criterions": [
                  {
                    "Comment": "resteasy-base-jaxrs-all is earlier than 0:2.3.5-3.el7_0"
                  },
                  {
                    "Comment": "resteasy-base-jaxrs-all is signed with Red Hat redhatrelease2 key"
                  }
                ]
              },
              {
                "Operator": "AND",
                "Criterias": [

                ],
                "Criterions": [
                  {
                    "Comment": "resteasy-base-jaxrs-api is earlier than 0:2.3.5-3.el7_0"
                  },
                  {
                    "Comment": "resteasy-base-jaxrs-api is signed with Red Hat redhatrelease2 key"
                  }
                ]
              },
              {
                "Operator": "AND",
                "Criterias": [

                ],
                "Criterions": [
                  {
                    "Comment": "resteasy-base-jettison-provider is earlier than 0:2.3.5-3.el7_0"
                  },
                  {
                    "Comment": "resteasy-base-jettison-provider is signed with Red Hat redhatrelease2 key"
                  }
                ]
              },
              {
                "Operator": "AND",
                "Criterias": [

                ],
                "Criterions": [
                  {
                    "Comment": "resteasy-base-providers-pom is earlier than 0:2.3.5-3.el7_0"
                  },
                  {
                    "Comment": "resteasy-base-providers-pom is signed with Red Hat redhatrelease2 key"
                  }
                ]
              },
              {
                "Operator": "AND",
                "Criterias": [

                ],
                "Criterions": [
                  {
                    "Comment": "resteasy-base-tjws is earlier than 0:2.3.5-3.el7_0"
                  },
                  {
                    "Comment": "resteasy-base-tjws is signed with Red Hat redhatrelease2 key"
                  }
                ]
              }
            ],
            "Criterions": [

            ]
          }
        ],
        "Criterions": [
          {
            "Comment": "Oracle Linux 7 is installed"
          }
        ]
      }
    ],
    "Criterions": [
      {
        "Comment": "Oracle Linux 7 is installed"
      }
    ]
  },
  "Severity": "Moderate",
  "Cves": [
    {
      "Impact": "",
      "Href": "",
      "ID": "CVE-2014-3490"
    }
  ],
  "Issued": {
    "Date": "2014-08-06"
  }
}