{
  "Title": "RHSA-2014:0126: openldap security and bug fix update (Moderate)",
  "Description": "OpenLDAP is an open source suite of Lightweight Directory Access Protocol\n(LDAP) applications and development tools. LDAP is a set of protocols used\nto access and maintain distributed directory information services over an\nIP network. The openldap package contains configuration files, libraries,\nand documentation for OpenLDAP.\nA denial of service flaw was found in the way the OpenLDAP server daemon\n(slapd) performed reference counting when using the rwm (rewrite/remap)\noverlay. A remote attacker able to query the OpenLDAP server could use this\nflaw to crash the server by immediately unbinding from the server after\nsending a search request. (CVE-2013-4449)\nRed Hat would like to thank Michael Vishchers from Seven Principles AG for\nreporting this issue.\nThis update also fixes the following bug:\n* Previously, OpenLDAP did not properly handle a number of simultaneous\nupdates. As a consequence, sending a number of parallel update requests to\nthe server could cause a deadlock. With this update, a superfluous locking\nmechanism causing the deadlock has been removed, thus fixing the bug.\n(BZ#1056124)\nAll openldap users are advised to upgrade to these updated packages, which\ncontain backported patches to correct these issues.",
  "Platform": [
    "Red Hat Enterprise Linux 6"
  ],
  "References": [
    {
      "Source": "RHSA",
      "URI": "https://access.redhat.com/errata/RHSA-2014:0126",
      "ID": "RHSA-2014:0126"
    },
    {
      "Source": "CVE",
      "URI": "https://access.redhat.com/security/cve/CVE-2013-4449",
      "ID": "CVE-2013-4449"
    }
  ],
  "Criteria": {
    "Operator": "OR",
    "Criterias": [
      {
        "Operator": "AND",
        "Criterias": [
          {
            "Operator": "OR",
            "Criterias": [
              {
                "Operator": "AND",
                "Criterias": [

                ],
                "Criterions": [
                  {
                    "Comment": "openldap is earlier than 0:2.4.23-34.el6_5.1"
                  },
                  {
                    "Comment": "openldap is signed with Red Hat redhatrelease2 key"
                  }
                ]
              },
              {
                "Operator": "AND",
                "Criterias": [

                ],
                "Criterions": [
                  {
                    "Comment": "openldap-clients is earlier than 0:2.4.23-34.el6_5.1"
                  },
                  {
                    "Comment": "openldap-clients is signed with Red Hat redhatrelease2 key"
                  }
                ]
              },
              {
                "Operator": "AND",
                "Criterias": [

                ],
                "Criterions": [
                  {
                    "Comment": "openldap-devel is earlier than 0:2.4.23-34.el6_5.1"
                  },
                  {
                    "Comment": "openldap-devel is signed with Red Hat redhatrelease2 key"
                  }
                ]
              },
              {
                "Operator": "AND",
                "Criterias": [

                ],
                "Criterions": [
                  {
                    "Comment": "openldap-servers is earlier than 0:2.4.23-34.el6_5.1"
                  },
                  {
                    "Comment": "openldap-servers is signed with Red Hat redhatrelease2 key"
                  }
                ]
              },
              {
                "Operator": "AND",
                "Criterias": [

                ],
                "Criterions": [
                  {
                    "Comment": "openldap-servers-sql is earlier than 0:2.4.23-34.el6_5.1"
                  },
                  {
                    "Comment": "openldap-servers-sql is signed with Red Hat redhatrelease2 key"
                  }
                ]
              }
            ],
            "Criterions": [

            ]
          }
        ],
        "Criterions": [
          {
            "Comment": "Oracle Linux 6 is installed"
          }
        ]
      }
    ],
    "Criterions": [
      {
        "Comment": "Oracle Linux 6 is installed"
      }
    ]
  },
  "Severity": "Moderate",
  "Cves": [
    {
      "Impact": "",
      "Href": "",
      "ID": "CVE-2013-4449"
    }
  ],
  "Issued": {
    "Date": "2014-02-03"
  }
}