{
  "Title": "RHSA-2014:1034: tomcat security update (Low)",
  "Description": "Apache Tomcat is a servlet container for the Java Servlet and JavaServer\nPages (JSP) technologies.\nIt was found that, in certain circumstances, it was possible for a\nmalicious web application to replace the XML parsers used by Apache Tomcat\nto process XSLTs for the default servlet, JSP documents, tag library\ndescriptors (TLDs), and tag plug-in configuration files. The injected XML\nparser(s) could then bypass the limits imposed on XML external entities\nand/or gain access to the XML files processed for other web applications\ndeployed on the same Apache Tomcat instance. (CVE-2014-0119)\nAll Tomcat users are advised to upgrade to these updated packages, which\ncontain a backported patch to correct this issue. Tomcat must be restarted\nfor this update to take effect.",
  "Platform": [
    "Red Hat Enterprise Linux 7"
  ],
  "References": [
    {
      "Source": "RHSA",
      "URI": "https://access.redhat.com/errata/RHSA-2014:1034",
      "ID": "RHSA-2014:1034"
    },
    {
      "Source": "CVE",
      "URI": "https://access.redhat.com/security/cve/CVE-2014-0119",
      "ID": "CVE-2014-0119"
    }
  ],
  "Criteria": {
    "Operator": "OR",
    "Criterias": [
      {
        "Operator": "AND",
        "Criterias": [
          {
            "Operator": "OR",
            "Criterias": [
              {
                "Operator": "AND",
                "Criterias": [

                ],
                "Criterions": [
                  {
                    "Comment": "tomcat is earlier than 0:7.0.42-8.el7_0"
                  },
                  {
                    "Comment": "tomcat is signed with Red Hat redhatrelease2 key"
                  }
                ]
              },
              {
                "Operator": "AND",
                "Criterias": [

                ],
                "Criterions": [
                  {
                    "Comment": "tomcat-admin-webapps is earlier than 0:7.0.42-8.el7_0"
                  },
                  {
                    "Comment": "tomcat-admin-webapps is signed with Red Hat redhatrelease2 key"
                  }
                ]
              },
              {
                "Operator": "AND",
                "Criterias": [

                ],
                "Criterions": [
                  {
                    "Comment": "tomcat-docs-webapp is earlier than 0:7.0.42-8.el7_0"
                  },
                  {
                    "Comment": "tomcat-docs-webapp is signed with Red Hat redhatrelease2 key"
                  }
                ]
              },
              {
                "Operator": "AND",
                "Criterias": [

                ],
                "Criterions": [
                  {
                    "Comment": "tomcat-el-2.2-api is earlier than 0:7.0.42-8.el7_0"
                  },
                  {
                    "Comment": "tomcat-el-2.2-api is signed with Red Hat redhatrelease2 key"
                  }
                ]
              },
              {
                "Operator": "AND",
                "Criterias": [

                ],
                "Criterions": [
                  {
                    "Comment": "tomcat-javadoc is earlier than 0:7.0.42-8.el7_0"
                  },
                  {
                    "Comment": "tomcat-javadoc is signed with Red Hat redhatrelease2 key"
                  }
                ]
              },
              {
                "Operator": "AND",
                "Criterias": [

                ],
                "Criterions": [
                  {
                    "Comment": "tomcat-jsp-2.2-api is earlier than 0:7.0.42-8.el7_0"
                  },
                  {
                    "Comment": "tomcat-jsp-2.2-api is signed with Red Hat redhatrelease2 key"
                  }
                ]
              },
              {
                "Operator": "AND",
                "Criterias": [

                ],
                "Criterions": [
                  {
                    "Comment": "tomcat-jsvc is earlier than 0:7.0.42-8.el7_0"
                  },
                  {
                    "Comment": "tomcat-jsvc is signed with Red Hat redhatrelease2 key"
                  }
                ]
              },
              {
                "Operator": "AND",
                "Criterias": [

                ],
                "Criterions": [
                  {
                    "Comment": "tomcat-lib is earlier than 0:7.0.42-8.el7_0"
                  },
                  {
                    "Comment": "tomcat-lib is signed with Red Hat redhatrelease2 key"
                  }
                ]
              },
              {
                "Operator": "AND",
                "Criterias": [

                ],
                "Criterions": [
                  {
                    "Comment": "tomcat-servlet-3.0-api is earlier than 0:7.0.42-8.el7_0"
                  },
                  {
                    "Comment": "tomcat-servlet-3.0-api is signed with Red Hat redhatrelease2 key"
                  }
                ]
              },
              {
                "Operator": "AND",
                "Criterias": [

                ],
                "Criterions": [
                  {
                    "Comment": "tomcat-webapps is earlier than 0:7.0.42-8.el7_0"
                  },
                  {
                    "Comment": "tomcat-webapps is signed with Red Hat redhatrelease2 key"
                  }
                ]
              }
            ],
            "Criterions": [

            ]
          }
        ],
        "Criterions": [
          {
            "Comment": "Oracle Linux 7 is installed"
          }
        ]
      }
    ],
    "Criterions": [
      {
        "Comment": "Oracle Linux 7 is installed"
      }
    ]
  },
  "Severity": "Low",
  "Cves": [
    {
      "Impact": "",
      "Href": "",
      "ID": "CVE-2014-0119"
    }
  ],
  "Issued": {
    "Date": "2014-08-07"
  }
}