{
  "Title": "RHSA-2014:0413: java-1.7.0-oracle security update (Critical)",
  "Description": "Oracle Java SE version 7 includes the Oracle Java Runtime Environment and\nthe Oracle Java Software Development Kit.\nThis update fixes several vulnerabilities in the Oracle Java Runtime\nEnvironment and the Oracle Java Software Development Kit. Further\ninformation about these flaws can be found on the Oracle Java SE Critical\nPatch Update Advisory page, listed in the References section.\n(CVE-2013-6629, CVE-2013-6954, CVE-2014-0429, CVE-2014-0432, CVE-2014-0446,\nCVE-2014-0448, CVE-2014-0449, CVE-2014-0451, CVE-2014-0452, CVE-2014-0453,\nCVE-2014-0454, CVE-2014-0455, CVE-2014-0456, CVE-2014-0457, CVE-2014-0458,\nCVE-2014-0459, CVE-2014-0460, CVE-2014-0461, CVE-2014-1876, CVE-2014-2397,\nCVE-2014-2398, CVE-2014-2401, CVE-2014-2402, CVE-2014-2403, CVE-2014-2409,\nCVE-2014-2412, CVE-2014-2413, CVE-2014-2414, CVE-2014-2420, CVE-2014-2421,\nCVE-2014-2422, CVE-2014-2423, CVE-2014-2427, CVE-2014-2428)\nAll users of java-1.7.0-oracle are advised to upgrade to these updated\npackages, which provide Oracle Java 7 Update 55 and resolve these issues.\nAll running instances of Oracle Java must be restarted for the update to\ntake effect.",
  "Platform": [
    "Oracle Java for Red Hat Enterprise Linux 5",
    "Oracle Java for Red Hat Enterprise Linux 6"
  ],
  "References": [
    {
      "Source": "RHSA",
      "URI": "https://access.redhat.com/errata/RHSA-2014:0413",
      "ID": "RHSA-2014:0413"
    },
    {
      "Source": "CVE",
      "URI": "https://access.redhat.com/security/cve/CVE-2013-6629",
      "ID": "CVE-2013-6629"
    },
    {
      "Source": "CVE",
      "URI": "https://access.redhat.com/security/cve/CVE-2013-6954",
      "ID": "CVE-2013-6954"
    },
    {
      "Source": "CVE",
      "URI": "https://access.redhat.com/security/cve/CVE-2014-0429",
      "ID": "CVE-2014-0429"
    },
    {
      "Source": "CVE",
      "URI": "https://access.redhat.com/security/cve/CVE-2014-0432",
      "ID": "CVE-2014-0432"
    },
    {
      "Source": "CVE",
      "URI": "https://access.redhat.com/security/cve/CVE-2014-0446",
      "ID": "CVE-2014-0446"
    },
    {
      "Source": "CVE",
      "URI": "https://access.redhat.com/security/cve/CVE-2014-0448",
      "ID": "CVE-2014-0448"
    },
    {
      "Source": "CVE",
      "URI": "https://access.redhat.com/security/cve/CVE-2014-0449",
      "ID": "CVE-2014-0449"
    },
    {
      "Source": "CVE",
      "URI": "https://access.redhat.com/security/cve/CVE-2014-0451",
      "ID": "CVE-2014-0451"
    },
    {
      "Source": "CVE",
      "URI": "https://access.redhat.com/security/cve/CVE-2014-0452",
      "ID": "CVE-2014-0452"
    },
    {
      "Source": "CVE",
      "URI": "https://access.redhat.com/security/cve/CVE-2014-0453",
      "ID": "CVE-2014-0453"
    },
    {
      "Source": "CVE",
      "URI": "https://access.redhat.com/security/cve/CVE-2014-0454",
      "ID": "CVE-2014-0454"
    },
    {
      "Source": "CVE",
      "URI": "https://access.redhat.com/security/cve/CVE-2014-0455",
      "ID": "CVE-2014-0455"
    },
    {
      "Source": "CVE",
      "URI": "https://access.redhat.com/security/cve/CVE-2014-0456",
      "ID": "CVE-2014-0456"
    },
    {
      "Source": "CVE",
      "URI": "https://access.redhat.com/security/cve/CVE-2014-0457",
      "ID": "CVE-2014-0457"
    },
    {
      "Source": "CVE",
      "URI": "https://access.redhat.com/security/cve/CVE-2014-0458",
      "ID": "CVE-2014-0458"
    },
    {
      "Source": "CVE",
      "URI": "https://access.redhat.com/security/cve/CVE-2014-0459",
      "ID": "CVE-2014-0459"
    },
    {
      "Source": "CVE",
      "URI": "https://access.redhat.com/security/cve/CVE-2014-0460",
      "ID": "CVE-2014-0460"
    },
    {
      "Source": "CVE",
      "URI": "https://access.redhat.com/security/cve/CVE-2014-0461",
      "ID": "CVE-2014-0461"
    },
    {
      "Source": "CVE",
      "URI": "https://access.redhat.com/security/cve/CVE-2014-1876",
      "ID": "CVE-2014-1876"
    },
    {
      "Source": "CVE",
      "URI": "https://access.redhat.com/security/cve/CVE-2014-2397",
      "ID": "CVE-2014-2397"
    },
    {
      "Source": "CVE",
      "URI": "https://access.redhat.com/security/cve/CVE-2014-2398",
      "ID": "CVE-2014-2398"
    },
    {
      "Source": "CVE",
      "URI": "https://access.redhat.com/security/cve/CVE-2014-2401",
      "ID": "CVE-2014-2401"
    },
    {
      "Source": "CVE",
      "URI": "https://access.redhat.com/security/cve/CVE-2014-2402",
      "ID": "CVE-2014-2402"
    },
    {
      "Source": "CVE",
      "URI": "https://access.redhat.com/security/cve/CVE-2014-2403",
      "ID": "CVE-2014-2403"
    },
    {
      "Source": "CVE",
      "URI": "https://access.redhat.com/security/cve/CVE-2014-2409",
      "ID": "CVE-2014-2409"
    },
    {
      "Source": "CVE",
      "URI": "https://access.redhat.com/security/cve/CVE-2014-2412",
      "ID": "CVE-2014-2412"
    },
    {
      "Source": "CVE",
      "URI": "https://access.redhat.com/security/cve/CVE-2014-2413",
      "ID": "CVE-2014-2413"
    },
    {
      "Source": "CVE",
      "URI": "https://access.redhat.com/security/cve/CVE-2014-2414",
      "ID": "CVE-2014-2414"
    },
    {
      "Source": "CVE",
      "URI": "https://access.redhat.com/security/cve/CVE-2014-2420",
      "ID": "CVE-2014-2420"
    },
    {
      "Source": "CVE",
      "URI": "https://access.redhat.com/security/cve/CVE-2014-2421",
      "ID": "CVE-2014-2421"
    },
    {
      "Source": "CVE",
      "URI": "https://access.redhat.com/security/cve/CVE-2014-2422",
      "ID": "CVE-2014-2422"
    },
    {
      "Source": "CVE",
      "URI": "https://access.redhat.com/security/cve/CVE-2014-2423",
      "ID": "CVE-2014-2423"
    },
    {
      "Source": "CVE",
      "URI": "https://access.redhat.com/security/cve/CVE-2014-2427",
      "ID": "CVE-2014-2427"
    },
    {
      "Source": "CVE",
      "URI": "https://access.redhat.com/security/cve/CVE-2014-2428",
      "ID": "CVE-2014-2428"
    }
  ],
  "Criteria": {
    "Operator": "OR",
    "Criterias": [
      {
        "Operator": "AND",
        "Criterias": [
          {
            "Operator": "OR",
            "Criterias": [
              {
                "Operator": "AND",
                "Criterias": [

                ],
                "Criterions": [
                  {
                    "Comment": "java-1.7.0-oracle is earlier than 1:1.7.0.55-1jpp.2.el5_10"
                  },
                  {
                    "Comment": "java-1.7.0-oracle is signed with Red Hat redhatrelease key"
                  }
                ]
              },
              {
                "Operator": "AND",
                "Criterias": [

                ],
                "Criterions": [
                  {
                    "Comment": "java-1.7.0-oracle-devel is earlier than 1:1.7.0.55-1jpp.2.el5_10"
                  },
                  {
                    "Comment": "java-1.7.0-oracle-devel is signed with Red Hat redhatrelease key"
                  }
                ]
              },
              {
                "Operator": "AND",
                "Criterias": [

                ],
                "Criterions": [
                  {
                    "Comment": "java-1.7.0-oracle-javafx is earlier than 1:1.7.0.55-1jpp.2.el5_10"
                  },
                  {
                    "Comment": "java-1.7.0-oracle-javafx is signed with Red Hat redhatrelease key"
                  }
                ]
              },
              {
                "Operator": "AND",
                "Criterias": [

                ],
                "Criterions": [
                  {
                    "Comment": "java-1.7.0-oracle-jdbc is earlier than 1:1.7.0.55-1jpp.2.el5_10"
                  },
                  {
                    "Comment": "java-1.7.0-oracle-jdbc is signed with Red Hat redhatrelease key"
                  }
                ]
              },
              {
                "Operator": "AND",
                "Criterias": [

                ],
                "Criterions": [
                  {
                    "Comment": "java-1.7.0-oracle-plugin is earlier than 1:1.7.0.55-1jpp.2.el5_10"
                  },
                  {
                    "Comment": "java-1.7.0-oracle-plugin is signed with Red Hat redhatrelease key"
                  }
                ]
              },
              {
                "Operator": "AND",
                "Criterias": [

                ],
                "Criterions": [
                  {
                    "Comment": "java-1.7.0-oracle-src is earlier than 1:1.7.0.55-1jpp.2.el5_10"
                  },
                  {
                    "Comment": "java-1.7.0-oracle-src is signed with Red Hat redhatrelease key"
                  }
                ]
              }
            ],
            "Criterions": [

            ]
          }
        ],
        "Criterions": [
          {
            "Comment": "Oracle Linux 5 is installed"
          }
        ]
      },
      {
        "Operator": "AND",
        "Criterias": [
          {
            "Operator": "OR",
            "Criterias": [
              {
                "Operator": "AND",
                "Criterias": [

                ],
                "Criterions": [
                  {
                    "Comment": "java-1.7.0-oracle is earlier than 1:1.7.0.55-1jpp.1.el6_5"
                  },
                  {
                    "Comment": "java-1.7.0-oracle is signed with Red Hat redhatrelease2 key"
                  }
                ]
              },
              {
                "Operator": "AND",
                "Criterias": [

                ],
                "Criterions": [
                  {
                    "Comment": "java-1.7.0-oracle-devel is earlier than 1:1.7.0.55-1jpp.1.el6_5"
                  },
                  {
                    "Comment": "java-1.7.0-oracle-devel is signed with Red Hat redhatrelease2 key"
                  }
                ]
              },
              {
                "Operator": "AND",
                "Criterias": [

                ],
                "Criterions": [
                  {
                    "Comment": "java-1.7.0-oracle-javafx is earlier than 1:1.7.0.55-1jpp.1.el6_5"
                  },
                  {
                    "Comment": "java-1.7.0-oracle-javafx is signed with Red Hat redhatrelease2 key"
                  }
                ]
              },
              {
                "Operator": "AND",
                "Criterias": [

                ],
                "Criterions": [
                  {
                    "Comment": "java-1.7.0-oracle-jdbc is earlier than 1:1.7.0.55-1jpp.1.el6_5"
                  },
                  {
                    "Comment": "java-1.7.0-oracle-jdbc is signed with Red Hat redhatrelease2 key"
                  }
                ]
              },
              {
                "Operator": "AND",
                "Criterias": [

                ],
                "Criterions": [
                  {
                    "Comment": "java-1.7.0-oracle-plugin is earlier than 1:1.7.0.55-1jpp.1.el6_5"
                  },
                  {
                    "Comment": "java-1.7.0-oracle-plugin is signed with Red Hat redhatrelease2 key"
                  }
                ]
              },
              {
                "Operator": "AND",
                "Criterias": [

                ],
                "Criterions": [
                  {
                    "Comment": "java-1.7.0-oracle-src is earlier than 1:1.7.0.55-1jpp.1.el6_5"
                  },
                  {
                    "Comment": "java-1.7.0-oracle-src is signed with Red Hat redhatrelease2 key"
                  }
                ]
              }
            ],
            "Criterions": [

            ]
          }
        ],
        "Criterions": [
          {
            "Comment": "Oracle Linux 6 is installed"
          }
        ]
      }
    ],
    "Criterions": [
      {
        "Comment": "Oracle Linux 5 is installed"
      }
    ]
  },
  "Severity": "Critical",
  "Cves": [
    {
      "Impact": "",
      "Href": "",
      "ID": "CVE-2013-6629"
    },
    {
      "Impact": "",
      "Href": "",
      "ID": "CVE-2013-6954"
    },
    {
      "Impact": "",
      "Href": "",
      "ID": "CVE-2014-0429"
    },
    {
      "Impact": "",
      "Href": "",
      "ID": "CVE-2014-0432"
    },
    {
      "Impact": "",
      "Href": "",
      "ID": "CVE-2014-0446"
    },
    {
      "Impact": "",
      "Href": "",
      "ID": "CVE-2014-0448"
    },
    {
      "Impact": "",
      "Href": "",
      "ID": "CVE-2014-0449"
    },
    {
      "Impact": "",
      "Href": "",
      "ID": "CVE-2014-0451"
    },
    {
      "Impact": "",
      "Href": "",
      "ID": "CVE-2014-0452"
    },
    {
      "Impact": "",
      "Href": "",
      "ID": "CVE-2014-0453"
    },
    {
      "Impact": "",
      "Href": "",
      "ID": "CVE-2014-0454"
    },
    {
      "Impact": "",
      "Href": "",
      "ID": "CVE-2014-0455"
    },
    {
      "Impact": "",
      "Href": "",
      "ID": "CVE-2014-0456"
    },
    {
      "Impact": "",
      "Href": "",
      "ID": "CVE-2014-0457"
    },
    {
      "Impact": "",
      "Href": "",
      "ID": "CVE-2014-0458"
    },
    {
      "Impact": "",
      "Href": "",
      "ID": "CVE-2014-0459"
    },
    {
      "Impact": "",
      "Href": "",
      "ID": "CVE-2014-0460"
    },
    {
      "Impact": "",
      "Href": "",
      "ID": "CVE-2014-0461"
    },
    {
      "Impact": "",
      "Href": "",
      "ID": "CVE-2014-1876"
    },
    {
      "Impact": "",
      "Href": "",
      "ID": "CVE-2014-2397"
    },
    {
      "Impact": "",
      "Href": "",
      "ID": "CVE-2014-2398"
    },
    {
      "Impact": "",
      "Href": "",
      "ID": "CVE-2014-2401"
    },
    {
      "Impact": "",
      "Href": "",
      "ID": "CVE-2014-2402"
    },
    {
      "Impact": "",
      "Href": "",
      "ID": "CVE-2014-2403"
    },
    {
      "Impact": "",
      "Href": "",
      "ID": "CVE-2014-2409"
    },
    {
      "Impact": "",
      "Href": "",
      "ID": "CVE-2014-2412"
    },
    {
      "Impact": "",
      "Href": "",
      "ID": "CVE-2014-2413"
    },
    {
      "Impact": "",
      "Href": "",
      "ID": "CVE-2014-2414"
    },
    {
      "Impact": "",
      "Href": "",
      "ID": "CVE-2014-2420"
    },
    {
      "Impact": "",
      "Href": "",
      "ID": "CVE-2014-2421"
    },
    {
      "Impact": "",
      "Href": "",
      "ID": "CVE-2014-2422"
    },
    {
      "Impact": "",
      "Href": "",
      "ID": "CVE-2014-2423"
    },
    {
      "Impact": "",
      "Href": "",
      "ID": "CVE-2014-2427"
    },
    {
      "Impact": "",
      "Href": "",
      "ID": "CVE-2014-2428"
    }
  ],
  "Issued": {
    "Date": "2014-04-17"
  }
}