{
  "Title": "RHSA-2014:0509: java-1.5.0-ibm security update (Important)",
  "Description": "IBM J2SE version 5.0 includes the IBM Java Runtime Environment and the IBM\nJava Software Development Kit.\nThis update fixes several vulnerabilities in the IBM Java Runtime\nEnvironment and the IBM Java Software Development Kit. Detailed\nvulnerability descriptions are linked from the IBM Security alerts\npage, listed in the References section. (CVE-2014-0457, CVE-2014-2421,\nCVE-2014-0429, CVE-2014-0446, CVE-2014-0451, CVE-2014-2427, CVE-2014-2412,\nCVE-2014-0460, CVE-2013-6629, CVE-2014-2401, CVE-2014-0453, CVE-2014-2398,\nCVE-2014-1876)\nAll users of java-1.5.0-ibm are advised to upgrade to these updated\npackages, containing the IBM J2SE 5.0 SR16-FP6 release. All running\ninstances of IBM Java must be restarted for this update to take effect.",
  "Platform": [
    "Supplementary for Red Hat Enterprise Linux 5",
    "Supplementary for Red Hat Enterprise Linux 6"
  ],
  "References": [
    {
      "Source": "RHSA",
      "URI": "https://rhn.redhat.com/errata/RHSA-2014-0509.html",
      "ID": "RHSA-2014:0509-01"
    },
    {
      "Source": "CVE",
      "URI": "https://access.redhat.com/security/cve/CVE-2013-6629",
      "ID": "CVE-2013-6629"
    },
    {
      "Source": "CVE",
      "URI": "https://access.redhat.com/security/cve/CVE-2014-0429",
      "ID": "CVE-2014-0429"
    },
    {
      "Source": "CVE",
      "URI": "https://access.redhat.com/security/cve/CVE-2014-0446",
      "ID": "CVE-2014-0446"
    },
    {
      "Source": "CVE",
      "URI": "https://access.redhat.com/security/cve/CVE-2014-0451",
      "ID": "CVE-2014-0451"
    },
    {
      "Source": "CVE",
      "URI": "https://access.redhat.com/security/cve/CVE-2014-0453",
      "ID": "CVE-2014-0453"
    },
    {
      "Source": "CVE",
      "URI": "https://access.redhat.com/security/cve/CVE-2014-0457",
      "ID": "CVE-2014-0457"
    },
    {
      "Source": "CVE",
      "URI": "https://access.redhat.com/security/cve/CVE-2014-0460",
      "ID": "CVE-2014-0460"
    },
    {
      "Source": "CVE",
      "URI": "https://access.redhat.com/security/cve/CVE-2014-0878",
      "ID": "CVE-2014-0878"
    },
    {
      "Source": "CVE",
      "URI": "https://access.redhat.com/security/cve/CVE-2014-1876",
      "ID": "CVE-2014-1876"
    },
    {
      "Source": "CVE",
      "URI": "https://access.redhat.com/security/cve/CVE-2014-2398",
      "ID": "CVE-2014-2398"
    },
    {
      "Source": "CVE",
      "URI": "https://access.redhat.com/security/cve/CVE-2014-2401",
      "ID": "CVE-2014-2401"
    },
    {
      "Source": "CVE",
      "URI": "https://access.redhat.com/security/cve/CVE-2014-2412",
      "ID": "CVE-2014-2412"
    },
    {
      "Source": "CVE",
      "URI": "https://access.redhat.com/security/cve/CVE-2014-2421",
      "ID": "CVE-2014-2421"
    },
    {
      "Source": "CVE",
      "URI": "https://access.redhat.com/security/cve/CVE-2014-2427",
      "ID": "CVE-2014-2427"
    }
  ],
  "Criteria": {
    "Operator": "OR",
    "Criterias": [
      {
        "Operator": "AND",
        "Criterias": [
          {
            "Operator": "OR",
            "Criterias": [
              {
                "Operator": "AND",
                "Criterias": [

                ],
                "Criterions": [
                  {
                    "Comment": "java-1.5.0-ibm is earlier than 1:1.5.0.16.6-1jpp.1.el5_10"
                  },
                  {
                    "Comment": "java-1.5.0-ibm is signed with Red Hat redhatrelease key"
                  }
                ]
              },
              {
                "Operator": "AND",
                "Criterias": [

                ],
                "Criterions": [
                  {
                    "Comment": "java-1.5.0-ibm-accessibility is earlier than 1:1.5.0.16.6-1jpp.1.el5_10"
                  },
                  {
                    "Comment": "java-1.5.0-ibm-accessibility is signed with Red Hat redhatrelease key"
                  }
                ]
              },
              {
                "Operator": "AND",
                "Criterias": [

                ],
                "Criterions": [
                  {
                    "Comment": "java-1.5.0-ibm-demo is earlier than 1:1.5.0.16.6-1jpp.1.el5_10"
                  },
                  {
                    "Comment": "java-1.5.0-ibm-demo is signed with Red Hat redhatrelease key"
                  }
                ]
              },
              {
                "Operator": "AND",
                "Criterias": [

                ],
                "Criterions": [
                  {
                    "Comment": "java-1.5.0-ibm-devel is earlier than 1:1.5.0.16.6-1jpp.1.el5_10"
                  },
                  {
                    "Comment": "java-1.5.0-ibm-devel is signed with Red Hat redhatrelease key"
                  }
                ]
              },
              {
                "Operator": "AND",
                "Criterias": [

                ],
                "Criterions": [
                  {
                    "Comment": "java-1.5.0-ibm-javacomm is earlier than 1:1.5.0.16.6-1jpp.1.el5_10"
                  },
                  {
                    "Comment": "java-1.5.0-ibm-javacomm is signed with Red Hat redhatrelease key"
                  }
                ]
              },
              {
                "Operator": "AND",
                "Criterias": [

                ],
                "Criterions": [
                  {
                    "Comment": "java-1.5.0-ibm-jdbc is earlier than 1:1.5.0.16.6-1jpp.1.el5_10"
                  },
                  {
                    "Comment": "java-1.5.0-ibm-jdbc is signed with Red Hat redhatrelease key"
                  }
                ]
              },
              {
                "Operator": "AND",
                "Criterias": [

                ],
                "Criterions": [
                  {
                    "Comment": "java-1.5.0-ibm-plugin is earlier than 1:1.5.0.16.6-1jpp.1.el5_10"
                  },
                  {
                    "Comment": "java-1.5.0-ibm-plugin is signed with Red Hat redhatrelease key"
                  }
                ]
              },
              {
                "Operator": "AND",
                "Criterias": [

                ],
                "Criterions": [
                  {
                    "Comment": "java-1.5.0-ibm-src is earlier than 1:1.5.0.16.6-1jpp.1.el5_10"
                  },
                  {
                    "Comment": "java-1.5.0-ibm-src is signed with Red Hat redhatrelease key"
                  }
                ]
              }
            ],
            "Criterions": [

            ]
          }
        ],
        "Criterions": [
          {
            "Comment": "Oracle Linux 5 is installed"
          }
        ]
      },
      {
        "Operator": "AND",
        "Criterias": [
          {
            "Operator": "OR",
            "Criterias": [

            ],
            "Criterions": [
              {
                "Comment": "Oracle Linux 6 Client is installed"
              },
              {
                "Comment": "Oracle Linux 6 Server is installed"
              },
              {
                "Comment": "Oracle Linux 6 Workstation is installed"
              },
              {
                "Comment": "Oracle Linux 6 ComputeNode is installed"
              }
            ]
          },
          {
            "Operator": "OR",
            "Criterias": [
              {
                "Operator": "AND",
                "Criterias": [

                ],
                "Criterions": [
                  {
                    "Comment": "java-1.5.0-ibm is earlier than 1:1.5.0.16.6-1jpp.1.el6_5"
                  },
                  {
                    "Comment": "java-1.5.0-ibm is signed with Red Hat redhatrelease2 key"
                  }
                ]
              },
              {
                "Operator": "AND",
                "Criterias": [

                ],
                "Criterions": [
                  {
                    "Comment": "java-1.5.0-ibm-demo is earlier than 1:1.5.0.16.6-1jpp.1.el6_5"
                  },
                  {
                    "Comment": "java-1.5.0-ibm-demo is signed with Red Hat redhatrelease2 key"
                  }
                ]
              },
              {
                "Operator": "AND",
                "Criterias": [

                ],
                "Criterions": [
                  {
                    "Comment": "java-1.5.0-ibm-devel is earlier than 1:1.5.0.16.6-1jpp.1.el6_5"
                  },
                  {
                    "Comment": "java-1.5.0-ibm-devel is signed with Red Hat redhatrelease2 key"
                  }
                ]
              },
              {
                "Operator": "AND",
                "Criterias": [

                ],
                "Criterions": [
                  {
                    "Comment": "java-1.5.0-ibm-javacomm is earlier than 1:1.5.0.16.6-1jpp.1.el6_5"
                  },
                  {
                    "Comment": "java-1.5.0-ibm-javacomm is signed with Red Hat redhatrelease2 key"
                  }
                ]
              },
              {
                "Operator": "AND",
                "Criterias": [

                ],
                "Criterions": [
                  {
                    "Comment": "java-1.5.0-ibm-jdbc is earlier than 1:1.5.0.16.6-1jpp.1.el6_5"
                  },
                  {
                    "Comment": "java-1.5.0-ibm-jdbc is signed with Red Hat redhatrelease2 key"
                  }
                ]
              },
              {
                "Operator": "AND",
                "Criterias": [

                ],
                "Criterions": [
                  {
                    "Comment": "java-1.5.0-ibm-plugin is earlier than 1:1.5.0.16.6-1jpp.1.el6_5"
                  },
                  {
                    "Comment": "java-1.5.0-ibm-plugin is signed with Red Hat redhatrelease2 key"
                  }
                ]
              },
              {
                "Operator": "AND",
                "Criterias": [

                ],
                "Criterions": [
                  {
                    "Comment": "java-1.5.0-ibm-src is earlier than 1:1.5.0.16.6-1jpp.1.el6_5"
                  },
                  {
                    "Comment": "java-1.5.0-ibm-src is signed with Red Hat redhatrelease2 key"
                  }
                ]
              }
            ],
            "Criterions": [

            ]
          }
        ],
        "Criterions": [

        ]
      }
    ],
    "Criterions": [

    ]
  },
  "Severity": "Important",
  "Cves": [
    {
      "Impact": "",
      "Href": "",
      "ID": "CVE-2013-6629"
    },
    {
      "Impact": "",
      "Href": "",
      "ID": "CVE-2014-0429"
    },
    {
      "Impact": "",
      "Href": "",
      "ID": "CVE-2014-0446"
    },
    {
      "Impact": "",
      "Href": "",
      "ID": "CVE-2014-0451"
    },
    {
      "Impact": "",
      "Href": "",
      "ID": "CVE-2014-0453"
    },
    {
      "Impact": "",
      "Href": "",
      "ID": "CVE-2014-0457"
    },
    {
      "Impact": "",
      "Href": "",
      "ID": "CVE-2014-0460"
    },
    {
      "Impact": "",
      "Href": "",
      "ID": "CVE-2014-0878"
    },
    {
      "Impact": "",
      "Href": "",
      "ID": "CVE-2014-1876"
    },
    {
      "Impact": "",
      "Href": "",
      "ID": "CVE-2014-2398"
    },
    {
      "Impact": "",
      "Href": "",
      "ID": "CVE-2014-2401"
    },
    {
      "Impact": "",
      "Href": "",
      "ID": "CVE-2014-2412"
    },
    {
      "Impact": "",
      "Href": "",
      "ID": "CVE-2014-2421"
    },
    {
      "Impact": "",
      "Href": "",
      "ID": "CVE-2014-2427"
    }
  ],
  "Issued": {
    "Date": "2014-05-15"
  }
}