{
  "Title": "RHSA-2014:0293: udisks security update (Important)",
  "Description": "The udisks package provides a daemon, a D-Bus API, and command line\nutilities for managing disks and storage devices.\nA stack-based buffer overflow flaw was found in the way udisks handled\nfiles with long path names. A malicious, local user could use this flaw to\ncreate a specially crafted directory structure that, when processed by the\nudisks daemon, could lead to arbitrary code execution with the privileges\nof the udisks daemon (root). (CVE-2014-0004)\nThis issue was discovered by Florian Weimer of the Red Hat Product\nSecurity Team.\nAll udisks users are advised to upgrade to these updated packages, which\ncontain a backported patch to correct this issue.",
  "Platform": [
    "Red Hat Enterprise Linux 6"
  ],
  "References": [
    {
      "Source": "RHSA",
      "URI": "https://access.redhat.com/errata/RHSA-2014:0293",
      "ID": "RHSA-2014:0293"
    },
    {
      "Source": "CVE",
      "URI": "https://access.redhat.com/security/cve/CVE-2014-0004",
      "ID": "CVE-2014-0004"
    }
  ],
  "Criteria": {
    "Operator": "OR",
    "Criterias": [
      {
        "Operator": "AND",
        "Criterias": [
          {
            "Operator": "OR",
            "Criterias": [
              {
                "Operator": "AND",
                "Criterias": [

                ],
                "Criterions": [
                  {
                    "Comment": "udisks is earlier than 0:1.0.1-7.el6_5"
                  },
                  {
                    "Comment": "udisks is signed with Red Hat redhatrelease2 key"
                  }
                ]
              },
              {
                "Operator": "AND",
                "Criterias": [

                ],
                "Criterions": [
                  {
                    "Comment": "udisks-devel is earlier than 0:1.0.1-7.el6_5"
                  },
                  {
                    "Comment": "udisks-devel is signed with Red Hat redhatrelease2 key"
                  }
                ]
              },
              {
                "Operator": "AND",
                "Criterias": [

                ],
                "Criterions": [
                  {
                    "Comment": "udisks-devel-docs is earlier than 0:1.0.1-7.el6_5"
                  },
                  {
                    "Comment": "udisks-devel-docs is signed with Red Hat redhatrelease2 key"
                  }
                ]
              }
            ],
            "Criterions": [

            ]
          }
        ],
        "Criterions": [
          {
            "Comment": "Oracle Linux 6 is installed"
          }
        ]
      }
    ],
    "Criterions": [
      {
        "Comment": "Oracle Linux 6 is installed"
      }
    ]
  },
  "Severity": "Important",
  "Cves": [
    {
      "Impact": "",
      "Href": "",
      "ID": "CVE-2014-0004"
    }
  ],
  "Issued": {
    "Date": "2014-03-13"
  }
}