{
  "Title": "RHSA-2014:0866: samba and samba3x security update (Moderate)",
  "Description": "Samba is an open-source implementation of the Server Message Block (SMB) or\nCommon Internet File System (CIFS) protocol, which allows PC-compatible\nmachines to share files, printers, and other information.\nA denial of service flaw was found in the way the sys_recvfile() function\nof nmbd, the NetBIOS message block daemon, processed non-blocking sockets.\nAn attacker could send a specially crafted packet that, when processed,\nwould cause nmbd to enter an infinite loop and consume an excessive amount\nof CPU time. (CVE-2014-0244)\nIt was discovered that smbd, the Samba file server daemon, did not properly\nhandle certain files that were stored on the disk and used a valid Unicode\ncharacter in the file name. An attacker able to send an authenticated\nnon-Unicode request that attempted to read such a file could cause smbd to\ncrash. (CVE-2014-3493)\nRed Hat would like to thank Daniel Berteaud of FIREWALL-SERVICES SARL for\nreporting CVE-2014-0244, and the Samba project for reporting CVE-2014-3493.\nThe Samba project acknowledges Simon Arlott as the original reporter of\nCVE-2014-3493.\nAll Samba users are advised to upgrade to these updated packages, which\ncontain backported patches to correct these issues. After installing this\nupdate, the smb service will be restarted automatically.",
  "Platform": [
    "Red Hat Enterprise Linux 5",
    "Red Hat Enterprise Linux 6"
  ],
  "References": [
    {
      "Source": "RHSA",
      "URI": "https://access.redhat.com/errata/RHSA-2014:0866",
      "ID": "RHSA-2014:0866"
    },
    {
      "Source": "CVE",
      "URI": "https://access.redhat.com/security/cve/CVE-2014-0244",
      "ID": "CVE-2014-0244"
    },
    {
      "Source": "CVE",
      "URI": "https://access.redhat.com/security/cve/CVE-2014-3493",
      "ID": "CVE-2014-3493"
    }
  ],
  "Criteria": {
    "Operator": "OR",
    "Criterias": [
      {
        "Operator": "AND",
        "Criterias": [
          {
            "Operator": "OR",
            "Criterias": [
              {
                "Operator": "AND",
                "Criterias": [

                ],
                "Criterions": [
                  {
                    "Comment": "samba3x is earlier than 0:3.6.6-0.140.el5_10"
                  },
                  {
                    "Comment": "samba3x is signed with Red Hat redhatrelease2 key"
                  }
                ]
              },
              {
                "Operator": "AND",
                "Criterias": [

                ],
                "Criterions": [
                  {
                    "Comment": "samba3x-client is earlier than 0:3.6.6-0.140.el5_10"
                  },
                  {
                    "Comment": "samba3x-client is signed with Red Hat redhatrelease2 key"
                  }
                ]
              },
              {
                "Operator": "AND",
                "Criterias": [

                ],
                "Criterions": [
                  {
                    "Comment": "samba3x-common is earlier than 0:3.6.6-0.140.el5_10"
                  },
                  {
                    "Comment": "samba3x-common is signed with Red Hat redhatrelease2 key"
                  }
                ]
              },
              {
                "Operator": "AND",
                "Criterias": [

                ],
                "Criterions": [
                  {
                    "Comment": "samba3x-doc is earlier than 0:3.6.6-0.140.el5_10"
                  },
                  {
                    "Comment": "samba3x-doc is signed with Red Hat redhatrelease2 key"
                  }
                ]
              },
              {
                "Operator": "AND",
                "Criterias": [

                ],
                "Criterions": [
                  {
                    "Comment": "samba3x-domainjoin-gui is earlier than 0:3.6.6-0.140.el5_10"
                  },
                  {
                    "Comment": "samba3x-domainjoin-gui is signed with Red Hat redhatrelease2 key"
                  }
                ]
              },
              {
                "Operator": "AND",
                "Criterias": [

                ],
                "Criterions": [
                  {
                    "Comment": "samba3x-swat is earlier than 0:3.6.6-0.140.el5_10"
                  },
                  {
                    "Comment": "samba3x-swat is signed with Red Hat redhatrelease2 key"
                  }
                ]
              },
              {
                "Operator": "AND",
                "Criterias": [

                ],
                "Criterions": [
                  {
                    "Comment": "samba3x-winbind is earlier than 0:3.6.6-0.140.el5_10"
                  },
                  {
                    "Comment": "samba3x-winbind is signed with Red Hat redhatrelease2 key"
                  }
                ]
              },
              {
                "Operator": "AND",
                "Criterias": [

                ],
                "Criterions": [
                  {
                    "Comment": "samba3x-winbind-devel is earlier than 0:3.6.6-0.140.el5_10"
                  },
                  {
                    "Comment": "samba3x-winbind-devel is signed with Red Hat redhatrelease2 key"
                  }
                ]
              }
            ],
            "Criterions": [

            ]
          }
        ],
        "Criterions": [
          {
            "Comment": "Oracle Linux 5 is installed"
          }
        ]
      },
      {
        "Operator": "AND",
        "Criterias": [
          {
            "Operator": "OR",
            "Criterias": [
              {
                "Operator": "AND",
                "Criterias": [

                ],
                "Criterions": [
                  {
                    "Comment": "libsmbclient is earlier than 0:3.6.9-169.el6_5"
                  },
                  {
                    "Comment": "libsmbclient is signed with Red Hat redhatrelease2 key"
                  }
                ]
              },
              {
                "Operator": "AND",
                "Criterias": [

                ],
                "Criterions": [
                  {
                    "Comment": "libsmbclient-devel is earlier than 0:3.6.9-169.el6_5"
                  },
                  {
                    "Comment": "libsmbclient-devel is signed with Red Hat redhatrelease2 key"
                  }
                ]
              },
              {
                "Operator": "AND",
                "Criterias": [

                ],
                "Criterions": [
                  {
                    "Comment": "samba is earlier than 0:3.6.9-169.el6_5"
                  },
                  {
                    "Comment": "samba is signed with Red Hat redhatrelease2 key"
                  }
                ]
              },
              {
                "Operator": "AND",
                "Criterias": [

                ],
                "Criterions": [
                  {
                    "Comment": "samba-client is earlier than 0:3.6.9-169.el6_5"
                  },
                  {
                    "Comment": "samba-client is signed with Red Hat redhatrelease2 key"
                  }
                ]
              },
              {
                "Operator": "AND",
                "Criterias": [

                ],
                "Criterions": [
                  {
                    "Comment": "samba-common is earlier than 0:3.6.9-169.el6_5"
                  },
                  {
                    "Comment": "samba-common is signed with Red Hat redhatrelease2 key"
                  }
                ]
              },
              {
                "Operator": "AND",
                "Criterias": [

                ],
                "Criterions": [
                  {
                    "Comment": "samba-doc is earlier than 0:3.6.9-169.el6_5"
                  },
                  {
                    "Comment": "samba-doc is signed with Red Hat redhatrelease2 key"
                  }
                ]
              },
              {
                "Operator": "AND",
                "Criterias": [

                ],
                "Criterions": [
                  {
                    "Comment": "samba-domainjoin-gui is earlier than 0:3.6.9-169.el6_5"
                  },
                  {
                    "Comment": "samba-domainjoin-gui is signed with Red Hat redhatrelease2 key"
                  }
                ]
              },
              {
                "Operator": "AND",
                "Criterias": [

                ],
                "Criterions": [
                  {
                    "Comment": "samba-swat is earlier than 0:3.6.9-169.el6_5"
                  },
                  {
                    "Comment": "samba-swat is signed with Red Hat redhatrelease2 key"
                  }
                ]
              },
              {
                "Operator": "AND",
                "Criterias": [

                ],
                "Criterions": [
                  {
                    "Comment": "samba-winbind is earlier than 0:3.6.9-169.el6_5"
                  },
                  {
                    "Comment": "samba-winbind is signed with Red Hat redhatrelease2 key"
                  }
                ]
              },
              {
                "Operator": "AND",
                "Criterias": [

                ],
                "Criterions": [
                  {
                    "Comment": "samba-winbind-clients is earlier than 0:3.6.9-169.el6_5"
                  },
                  {
                    "Comment": "samba-winbind-clients is signed with Red Hat redhatrelease2 key"
                  }
                ]
              },
              {
                "Operator": "AND",
                "Criterias": [

                ],
                "Criterions": [
                  {
                    "Comment": "samba-winbind-devel is earlier than 0:3.6.9-169.el6_5"
                  },
                  {
                    "Comment": "samba-winbind-devel is signed with Red Hat redhatrelease2 key"
                  }
                ]
              },
              {
                "Operator": "AND",
                "Criterias": [

                ],
                "Criterions": [
                  {
                    "Comment": "samba-winbind-krb5-locator is earlier than 0:3.6.9-169.el6_5"
                  },
                  {
                    "Comment": "samba-winbind-krb5-locator is signed with Red Hat redhatrelease2 key"
                  }
                ]
              }
            ],
            "Criterions": [

            ]
          }
        ],
        "Criterions": [
          {
            "Comment": "Oracle Linux 6 is installed"
          }
        ]
      }
    ],
    "Criterions": [
      {
        "Comment": "Oracle Linux 5 is installed"
      }
    ]
  },
  "Severity": "Moderate",
  "Cves": [
    {
      "Impact": "",
      "Href": "",
      "ID": "CVE-2014-0244"
    },
    {
      "Impact": "",
      "Href": "",
      "ID": "CVE-2014-3493"
    }
  ],
  "Issued": {
    "Date": "2014-07-09"
  }
}