{
  "Title": "RHSA-2014:1397: rsyslog security update (Important)",
  "Description": "The rsyslog packages provide an enhanced, multi-threaded syslog daemon\nthat supports writing to relational databases, syslog/TCP, RFC 3195,\npermitted sender lists, filtering on any message part, and fine grained\noutput format control.\nA flaw was found in the way rsyslog handled invalid log message priority\nvalues. In certain configurations, a local attacker, or a remote attacker\nable to connect to the rsyslog port, could use this flaw to crash the\nrsyslog daemon or, potentially, execute arbitrary code as the user running\nthe rsyslog daemon. (CVE-2014-3634)\nRed Hat would like to thank Rainer Gerhards of rsyslog upstream for\nreporting this issue.\nAll rsyslog users are advised to upgrade to these updated packages, which\ncontain a backported patch to correct this issue. After installing the\nupdate, the rsyslog service will be restarted automatically.",
  "Platform": [
    "Red Hat Enterprise Linux 7"
  ],
  "References": [
    {
      "Source": "RHSA",
      "URI": "https://access.redhat.com/errata/RHSA-2014:1397",
      "ID": "RHSA-2014:1397"
    },
    {
      "Source": "CVE",
      "URI": "https://access.redhat.com/security/cve/CVE-2014-3634",
      "ID": "CVE-2014-3634"
    }
  ],
  "Criteria": {
    "Operator": "OR",
    "Criterias": [
      {
        "Operator": "AND",
        "Criterias": [
          {
            "Operator": "OR",
            "Criterias": [
              {
                "Operator": "AND",
                "Criterias": [

                ],
                "Criterions": [
                  {
                    "Comment": "rsyslog is earlier than 0:7.4.7-7.el7_0"
                  },
                  {
                    "Comment": "rsyslog is signed with Red Hat redhatrelease2 key"
                  }
                ]
              },
              {
                "Operator": "AND",
                "Criterias": [

                ],
                "Criterions": [
                  {
                    "Comment": "rsyslog-crypto is earlier than 0:7.4.7-7.el7_0"
                  },
                  {
                    "Comment": "rsyslog-crypto is signed with Red Hat redhatrelease2 key"
                  }
                ]
              },
              {
                "Operator": "AND",
                "Criterias": [

                ],
                "Criterions": [
                  {
                    "Comment": "rsyslog-doc is earlier than 0:7.4.7-7.el7_0"
                  },
                  {
                    "Comment": "rsyslog-doc is signed with Red Hat redhatrelease2 key"
                  }
                ]
              },
              {
                "Operator": "AND",
                "Criterias": [

                ],
                "Criterions": [
                  {
                    "Comment": "rsyslog-elasticsearch is earlier than 0:7.4.7-7.el7_0"
                  },
                  {
                    "Comment": "rsyslog-elasticsearch is signed with Red Hat redhatrelease2 key"
                  }
                ]
              },
              {
                "Operator": "AND",
                "Criterias": [

                ],
                "Criterions": [
                  {
                    "Comment": "rsyslog-gnutls is earlier than 0:7.4.7-7.el7_0"
                  },
                  {
                    "Comment": "rsyslog-gnutls is signed with Red Hat redhatrelease2 key"
                  }
                ]
              },
              {
                "Operator": "AND",
                "Criterias": [

                ],
                "Criterions": [
                  {
                    "Comment": "rsyslog-gssapi is earlier than 0:7.4.7-7.el7_0"
                  },
                  {
                    "Comment": "rsyslog-gssapi is signed with Red Hat redhatrelease2 key"
                  }
                ]
              },
              {
                "Operator": "AND",
                "Criterias": [

                ],
                "Criterions": [
                  {
                    "Comment": "rsyslog-libdbi is earlier than 0:7.4.7-7.el7_0"
                  },
                  {
                    "Comment": "rsyslog-libdbi is signed with Red Hat redhatrelease2 key"
                  }
                ]
              },
              {
                "Operator": "AND",
                "Criterias": [

                ],
                "Criterions": [
                  {
                    "Comment": "rsyslog-mmaudit is earlier than 0:7.4.7-7.el7_0"
                  },
                  {
                    "Comment": "rsyslog-mmaudit is signed with Red Hat redhatrelease2 key"
                  }
                ]
              },
              {
                "Operator": "AND",
                "Criterias": [

                ],
                "Criterions": [
                  {
                    "Comment": "rsyslog-mmjsonparse is earlier than 0:7.4.7-7.el7_0"
                  },
                  {
                    "Comment": "rsyslog-mmjsonparse is signed with Red Hat redhatrelease2 key"
                  }
                ]
              },
              {
                "Operator": "AND",
                "Criterias": [

                ],
                "Criterions": [
                  {
                    "Comment": "rsyslog-mmnormalize is earlier than 0:7.4.7-7.el7_0"
                  },
                  {
                    "Comment": "rsyslog-mmnormalize is signed with Red Hat redhatrelease2 key"
                  }
                ]
              },
              {
                "Operator": "AND",
                "Criterias": [

                ],
                "Criterions": [
                  {
                    "Comment": "rsyslog-mmsnmptrapd is earlier than 0:7.4.7-7.el7_0"
                  },
                  {
                    "Comment": "rsyslog-mmsnmptrapd is signed with Red Hat redhatrelease2 key"
                  }
                ]
              },
              {
                "Operator": "AND",
                "Criterias": [

                ],
                "Criterions": [
                  {
                    "Comment": "rsyslog-mysql is earlier than 0:7.4.7-7.el7_0"
                  },
                  {
                    "Comment": "rsyslog-mysql is signed with Red Hat redhatrelease2 key"
                  }
                ]
              },
              {
                "Operator": "AND",
                "Criterias": [

                ],
                "Criterions": [
                  {
                    "Comment": "rsyslog-pgsql is earlier than 0:7.4.7-7.el7_0"
                  },
                  {
                    "Comment": "rsyslog-pgsql is signed with Red Hat redhatrelease2 key"
                  }
                ]
              },
              {
                "Operator": "AND",
                "Criterias": [

                ],
                "Criterions": [
                  {
                    "Comment": "rsyslog-relp is earlier than 0:7.4.7-7.el7_0"
                  },
                  {
                    "Comment": "rsyslog-relp is signed with Red Hat redhatrelease2 key"
                  }
                ]
              },
              {
                "Operator": "AND",
                "Criterias": [

                ],
                "Criterions": [
                  {
                    "Comment": "rsyslog-snmp is earlier than 0:7.4.7-7.el7_0"
                  },
                  {
                    "Comment": "rsyslog-snmp is signed with Red Hat redhatrelease2 key"
                  }
                ]
              },
              {
                "Operator": "AND",
                "Criterias": [

                ],
                "Criterions": [
                  {
                    "Comment": "rsyslog-udpspoof is earlier than 0:7.4.7-7.el7_0"
                  },
                  {
                    "Comment": "rsyslog-udpspoof is signed with Red Hat redhatrelease2 key"
                  }
                ]
              }
            ],
            "Criterions": [

            ]
          }
        ],
        "Criterions": [
          {
            "Comment": "Oracle Linux 7 is installed"
          }
        ]
      }
    ],
    "Criterions": [
      {
        "Comment": "Oracle Linux 7 is installed"
      }
    ]
  },
  "Severity": "Important",
  "Cves": [
    {
      "Impact": "",
      "Href": "",
      "ID": "CVE-2014-3634"
    }
  ],
  "Issued": {
    "Date": "2014-10-13"
  }
}