{
  "Title": "RHSA-2014:1066: libvirt bug fix update (Low)",
  "Description": "The libvirt library is a C API for managing and interacting with the\nvirtualization capabilities of Linux and other operating systems. In addition,\nlibvirt provides tools for remote management of virtualized systems. \nThis update fixes the following bugs:\n* Previously, the libvirt API did not properly cancel the migration of QEMU\ndomains if it detected an error, which caused QEMU to pause guest CPUs. With\nthis update, if libvirt detects an error during a migration process, it informs\nQEMU to cancel the ongoing migration. Now, after a failed migration, libvirt\nresumes a domain, which then remains running, and QEMU no longer pauses guest\nCPUs. (BZ#1100642)\n* Prior to this update, the libvirt API canceled migration when it could not\naccess a QEMU monitor for more that 30 seconds to get migration status.\nConsequently, when the libvirt user queried some data from QEMU during an\nongoing migration, the query timed out and libvirt canceled the migration. As a\nworkaround, ignore the time-out error and try querying again as libvirt checks\nfor migration status every 50ms. As a result, migration in a Red Hat Enterprise\nVirtualization environment is no longer canceled when QEMU is slow to respond.\n(BZ#1100671)\n* Previously, a host device located on a PCI bus with a domain other than \"0\"\ncould not be assigned to a virtual guest using PCI passthrough. This bug has\nbeen fixed, and QEMU is now able to assign non-0 domains in the PCI address. As\na result, host devices located on a PCI bus with a non-0 domain can now be\nassigned to a guest as intended. (BZ#1100737)\nUsers of libvirt are advised to upgrade to these updated packages, which fix\nthese bugs. After installing the updated packages, libvirtd will be restarted\nautomatically.",
  "Platform": [
    "Red Hat Enterprise Linux 6"
  ],
  "References": [
    {
      "Source": "RHSA",
      "URI": "https://rhn.redhat.com/errata/RHSA-2014-1066.html",
      "ID": "RHSA-2014:1066-00"
    }
  ],
  "Criteria": {
    "Operator": "AND",
    "Criterias": [
      {
        "Operator": "OR",
        "Criterias": [

        ],
        "Criterions": [
          {
            "Comment": "Oracle Linux 6 Client is installed"
          },
          {
            "Comment": "Oracle Linux 6 Server is installed"
          },
          {
            "Comment": "Oracle Linux 6 Workstation is installed"
          },
          {
            "Comment": "Oracle Linux 6 ComputeNode is installed"
          }
        ]
      },
      {
        "Operator": "OR",
        "Criterias": [
          {
            "Operator": "AND",
            "Criterias": [

            ],
            "Criterions": [
              {
                "Comment": "libvirt is earlier than 0:0.10.2-29.el6_5.11"
              },
              {
                "Comment": "libvirt is signed with Red Hat redhatrelease2 key"
              }
            ]
          },
          {
            "Operator": "AND",
            "Criterias": [

            ],
            "Criterions": [
              {
                "Comment": "libvirt-client is earlier than 0:0.10.2-29.el6_5.11"
              },
              {
                "Comment": "libvirt-client is signed with Red Hat redhatrelease2 key"
              }
            ]
          },
          {
            "Operator": "AND",
            "Criterias": [

            ],
            "Criterions": [
              {
                "Comment": "libvirt-devel is earlier than 0:0.10.2-29.el6_5.11"
              },
              {
                "Comment": "libvirt-devel is signed with Red Hat redhatrelease2 key"
              }
            ]
          },
          {
            "Operator": "AND",
            "Criterias": [

            ],
            "Criterions": [
              {
                "Comment": "libvirt-lock-sanlock is earlier than 0:0.10.2-29.el6_5.11"
              },
              {
                "Comment": "libvirt-lock-sanlock is signed with Red Hat redhatrelease2 key"
              }
            ]
          },
          {
            "Operator": "AND",
            "Criterias": [

            ],
            "Criterions": [
              {
                "Comment": "libvirt-python is earlier than 0:0.10.2-29.el6_5.11"
              },
              {
                "Comment": "libvirt-python is signed with Red Hat redhatrelease2 key"
              }
            ]
          }
        ],
        "Criterions": [

        ]
      }
    ],
    "Criterions": [

    ]
  },
  "Severity": "Low",
  "Cves": [

  ],
  "Issued": {
    "Date": "2014-09-26"
  }
}