{
  "Title": "RHSA-2014:0175: piranha security and bug fix update (Important)",
  "Description": "Piranha provides high-availability and load-balancing services for Red Hat\nEnterprise Linux. The piranha packages contain various tools to administer\nand configure the Linux Virtual Server (LVS), as well as the heartbeat and\nfailover components. LVS is a dynamically-adjusted kernel routing mechanism\nthat provides load balancing, primarily for Web and FTP servers.\nIt was discovered that the Piranha Configuration Tool did not properly\nrestrict access to its web pages. A remote attacker able to connect to the\nPiranha Configuration Tool web server port could use this flaw to read or\nmodify the LVS configuration without providing valid administrative\ncredentials. (CVE-2013-6492)\nThis update also fixes the following bug:\n* When the lvsd service attempted to start, the sem_timedwait() function\nreceived the interrupted function call (EINTR) error and exited, causing\nthe lvsd service to fail to start. With this update, EINTR errors are\ncorrectly ignored during the start-up of the lvsd service. (BZ#1055709)\nAll piranha users are advised to upgrade to this updated package, which\ncontains backported patches to correct these issues.",
  "Platform": [
    "Red Hat Enterprise Linux 6"
  ],
  "References": [
    {
      "Source": "RHSA",
      "URI": "https://access.redhat.com/errata/RHSA-2014:0175",
      "ID": "RHSA-2014:0175"
    },
    {
      "Source": "CVE",
      "URI": "https://access.redhat.com/security/cve/CVE-2013-6492",
      "ID": "CVE-2013-6492"
    }
  ],
  "Criteria": {
    "Operator": "OR",
    "Criterias": [
      {
        "Operator": "AND",
        "Criterias": [

        ],
        "Criterions": [
          {
            "Comment": "Oracle Linux 6 is installed"
          },
          {
            "Comment": "piranha is earlier than 0:0.8.6-4.el6_5.2"
          },
          {
            "Comment": "piranha is signed with Red Hat redhatrelease2 key"
          }
        ]
      }
    ],
    "Criterions": [
      {
        "Comment": "Oracle Linux 6 is installed"
      }
    ]
  },
  "Severity": "Important",
  "Cves": [
    {
      "Impact": "",
      "Href": "",
      "ID": "CVE-2013-6492"
    }
  ],
  "Issued": {
    "Date": "2014-02-13"
  }
}