{
  "Title": "RHSA-2014:1669: qemu-kvm security and bug fix update (Low)",
  "Description": "KVM (Kernel-based Virtual Machine) is a full virtualization solution for\nLinux on AMD64 and Intel 64 systems. The qemu-kvm package provides the\nuser-space component for running virtual machines using KVM.\nAn information leak flaw was found in the way QEMU's VGA emulator accessed\nframe buffer memory for high resolution displays. A privileged guest user\ncould use this flaw to leak memory contents of the host to the guest by\nsetting the display to use a high resolution in the guest. (CVE-2014-3615)\nThis issue was discovered by Laszlo Ersek of Red Hat.\nThis update also fixes the following bug:\n* This update fixes a regression in the scsi_block_new_request() function,\nwhich caused all read requests to through SG_IO if the host cache was not\nused. (BZ#1141189)\nAll qemu-kvm users are advised to upgrade to these updated packages, which\ncontain backported patches to correct these issues. After installing this\nupdate, shut down all running virtual machines. Once all virtual machines\nhave shut down, start them again for this update to take effect.",
  "Platform": [
    "Red Hat Enterprise Linux 7"
  ],
  "References": [
    {
      "Source": "RHSA",
      "URI": "https://access.redhat.com/errata/RHSA-2014:1669",
      "ID": "RHSA-2014:1669"
    },
    {
      "Source": "CVE",
      "URI": "https://access.redhat.com/security/cve/CVE-2014-3615",
      "ID": "CVE-2014-3615"
    }
  ],
  "Criteria": {
    "Operator": "OR",
    "Criterias": [
      {
        "Operator": "AND",
        "Criterias": [
          {
            "Operator": "OR",
            "Criterias": [
              {
                "Operator": "AND",
                "Criterias": [

                ],
                "Criterions": [
                  {
                    "Comment": "libcacard is earlier than 10:1.5.3-60.el7_0.10"
                  },
                  {
                    "Comment": "libcacard is signed with Red Hat redhatrelease2 key"
                  }
                ]
              },
              {
                "Operator": "AND",
                "Criterias": [

                ],
                "Criterions": [
                  {
                    "Comment": "libcacard-devel is earlier than 10:1.5.3-60.el7_0.10"
                  },
                  {
                    "Comment": "libcacard-devel is signed with Red Hat redhatrelease2 key"
                  }
                ]
              },
              {
                "Operator": "AND",
                "Criterias": [

                ],
                "Criterions": [
                  {
                    "Comment": "libcacard-tools is earlier than 10:1.5.3-60.el7_0.10"
                  },
                  {
                    "Comment": "libcacard-tools is signed with Red Hat redhatrelease2 key"
                  }
                ]
              },
              {
                "Operator": "AND",
                "Criterias": [

                ],
                "Criterions": [
                  {
                    "Comment": "qemu-guest-agent is earlier than 10:1.5.3-60.el7_0.10"
                  },
                  {
                    "Comment": "qemu-guest-agent is signed with Red Hat redhatrelease2 key"
                  }
                ]
              },
              {
                "Operator": "AND",
                "Criterias": [

                ],
                "Criterions": [
                  {
                    "Comment": "qemu-img is earlier than 10:1.5.3-60.el7_0.10"
                  },
                  {
                    "Comment": "qemu-img is signed with Red Hat redhatrelease2 key"
                  }
                ]
              },
              {
                "Operator": "AND",
                "Criterias": [

                ],
                "Criterions": [
                  {
                    "Comment": "qemu-kvm is earlier than 10:1.5.3-60.el7_0.10"
                  },
                  {
                    "Comment": "qemu-kvm is signed with Red Hat redhatrelease2 key"
                  }
                ]
              },
              {
                "Operator": "AND",
                "Criterias": [

                ],
                "Criterions": [
                  {
                    "Comment": "qemu-kvm-common is earlier than 10:1.5.3-60.el7_0.10"
                  },
                  {
                    "Comment": "qemu-kvm-common is signed with Red Hat redhatrelease2 key"
                  }
                ]
              },
              {
                "Operator": "AND",
                "Criterias": [

                ],
                "Criterions": [
                  {
                    "Comment": "qemu-kvm-tools is earlier than 10:1.5.3-60.el7_0.10"
                  },
                  {
                    "Comment": "qemu-kvm-tools is signed with Red Hat redhatrelease2 key"
                  }
                ]
              }
            ],
            "Criterions": [

            ]
          }
        ],
        "Criterions": [
          {
            "Comment": "Oracle Linux 7 is installed"
          }
        ]
      }
    ],
    "Criterions": [
      {
        "Comment": "Oracle Linux 7 is installed"
      }
    ]
  },
  "Severity": "Low",
  "Cves": [
    {
      "Impact": "",
      "Href": "",
      "ID": "CVE-2014-3615"
    }
  ],
  "Issued": {
    "Date": "2014-10-20"
  }
}