{
  "Title": "RHSA-2014:1306: bash security update (Important)",
  "Description": "The GNU Bourne Again shell (Bash) is a shell and command language\ninterpreter compatible with the Bourne shell (sh). Bash is the default\nshell for Red Hat Enterprise Linux.\nIt was found that the fix for CVE-2014-6271 was incomplete, and Bash still\nallowed certain characters to be injected into other environments via\nspecially crafted environment variables. An attacker could potentially use\nthis flaw to override or bypass environment restrictions to execute shell\ncommands. Certain services and applications allow remote unauthenticated\nattackers to provide environment variables, allowing them to exploit this\nissue. (CVE-2014-7169)\nApplications which directly create bash functions as environment variables\nneed to be made aware of changes to the way names are handled by this\nupdate. Note that certain services, screen sessions, and tmux sessions may\nneed to be restarted, and affected interactive users may need to re-login.\nInstalling these updated packages without restarting services will address\nthe vulnerability, but functionality may be impacted until affected\nservices are restarted. For more information see the Knowledgebase article\nat https://access.redhat.com/articles/1200223\nNote: Docker users are advised to use \"yum update\" within their containers,\nand to commit the resulting changes.\nFor additional information on CVE-2014-6271 and CVE-2014-7169, refer to the\naforementioned Knowledgebase article.\nAll bash users are advised to upgrade to these updated packages, which\ncontain a backported patch to correct this issue.",
  "Platform": [
    "Red Hat Enterprise Linux 5",
    "Red Hat Enterprise Linux 6",
    "Red Hat Enterprise Linux 7"
  ],
  "References": [
    {
      "Source": "RHSA",
      "URI": "https://access.redhat.com/errata/RHSA-2014:1306",
      "ID": "RHSA-2014:1306"
    },
    {
      "Source": "CVE",
      "URI": "https://access.redhat.com/security/cve/CVE-2014-7169",
      "ID": "CVE-2014-7169"
    },
    {
      "Source": "CVE",
      "URI": "https://access.redhat.com/security/cve/CVE-2014-7186",
      "ID": "CVE-2014-7186"
    },
    {
      "Source": "CVE",
      "URI": "https://access.redhat.com/security/cve/CVE-2014-7187",
      "ID": "CVE-2014-7187"
    }
  ],
  "Criteria": {
    "Operator": "OR",
    "Criterias": [
      {
        "Operator": "AND",
        "Criterias": [
          {
            "Operator": "OR",
            "Criterias": [
              {
                "Operator": "AND",
                "Criterias": [

                ],
                "Criterions": [
                  {
                    "Comment": "bash is earlier than 0:4.1.2-15.el6_5.2"
                  },
                  {
                    "Comment": "bash is signed with Red Hat redhatrelease2 key"
                  }
                ]
              },
              {
                "Operator": "AND",
                "Criterias": [

                ],
                "Criterions": [
                  {
                    "Comment": "bash-doc is earlier than 0:4.1.2-15.el6_5.2"
                  },
                  {
                    "Comment": "bash-doc is signed with Red Hat redhatrelease2 key"
                  }
                ]
              }
            ],
            "Criterions": [

            ]
          }
        ],
        "Criterions": [
          {
            "Comment": "Oracle Linux 6 is installed"
          }
        ]
      },
      {
        "Operator": "AND",
        "Criterias": [

        ],
        "Criterions": [
          {
            "Comment": "Oracle Linux 5 is installed"
          },
          {
            "Comment": "bash is earlier than 0:3.2-33.el5_11.4"
          },
          {
            "Comment": "bash is signed with Red Hat redhatrelease2 key"
          }
        ]
      },
      {
        "Operator": "AND",
        "Criterias": [
          {
            "Operator": "OR",
            "Criterias": [
              {
                "Operator": "AND",
                "Criterias": [

                ],
                "Criterions": [
                  {
                    "Comment": "bash is earlier than 0:4.2.45-5.el7_0.4"
                  },
                  {
                    "Comment": "bash is signed with Red Hat redhatrelease2 key"
                  }
                ]
              },
              {
                "Operator": "AND",
                "Criterias": [

                ],
                "Criterions": [
                  {
                    "Comment": "bash-doc is earlier than 0:4.2.45-5.el7_0.4"
                  },
                  {
                    "Comment": "bash-doc is signed with Red Hat redhatrelease2 key"
                  }
                ]
              }
            ],
            "Criterions": [

            ]
          }
        ],
        "Criterions": [
          {
            "Comment": "Oracle Linux 7 is installed"
          }
        ]
      }
    ],
    "Criterions": [
      {
        "Comment": "Oracle Linux 5 is installed"
      }
    ]
  },
  "Severity": "Important",
  "Cves": [
    {
      "Impact": "",
      "Href": "",
      "ID": "CVE-2014-7169"
    },
    {
      "Impact": "",
      "Href": "",
      "ID": "CVE-2014-7186"
    },
    {
      "Impact": "",
      "Href": "",
      "ID": "CVE-2014-7187"
    }
  ],
  "Issued": {
    "Date": "2014-09-26"
  }
}