{
  "Title": "RHSA-2014:0684: gnutls security update (Important)",
  "Description": "The GnuTLS library provides support for cryptographic algorithms and for\nprotocols such as Transport Layer Security (TLS).\nA flaw was found in the way GnuTLS parsed session IDs from ServerHello\nmessages of the TLS/SSL handshake. A malicious server could use this flaw\nto send an excessively long session ID value, which would trigger a buffer\noverflow in a connecting TLS/SSL client application using GnuTLS, causing\nthe client application to crash or, possibly, execute arbitrary code.\n(CVE-2014-3466)\nA NULL pointer dereference flaw was found in the way GnuTLS parsed X.509\ncertificates. A specially crafted certificate could cause a server or\nclient application using GnuTLS to crash. (CVE-2014-3465)\nRed Hat would like to thank GnuTLS upstream for reporting these issues.\nUpstream acknowledges Joonas Kuorilehto of Codenomicon as the original\nreporter of CVE-2014-3466.\nUsers of GnuTLS are advised to upgrade to these updated packages, which\ncorrect these issues. For the update to take effect, all applications\nlinked to the GnuTLS library must be restarted.",
  "Platform": [
    "Red Hat Enterprise Linux 7"
  ],
  "References": [
    {
      "Source": "RHSA",
      "URI": "https://access.redhat.com/errata/RHSA-2014:0684",
      "ID": "RHSA-2014:0684"
    },
    {
      "Source": "CVE",
      "URI": "https://access.redhat.com/security/cve/CVE-2014-3465",
      "ID": "CVE-2014-3465"
    },
    {
      "Source": "CVE",
      "URI": "https://access.redhat.com/security/cve/CVE-2014-3466",
      "ID": "CVE-2014-3466"
    }
  ],
  "Criteria": {
    "Operator": "OR",
    "Criterias": [
      {
        "Operator": "AND",
        "Criterias": [
          {
            "Operator": "OR",
            "Criterias": [
              {
                "Operator": "AND",
                "Criterias": [

                ],
                "Criterions": [
                  {
                    "Comment": "gnutls is earlier than 0:3.1.18-9.el7_0"
                  },
                  {
                    "Comment": "gnutls is signed with Red Hat redhatrelease2 key"
                  }
                ]
              },
              {
                "Operator": "AND",
                "Criterias": [

                ],
                "Criterions": [
                  {
                    "Comment": "gnutls-c++ is earlier than 0:3.1.18-9.el7_0"
                  },
                  {
                    "Comment": "gnutls-c++ is signed with Red Hat redhatrelease2 key"
                  }
                ]
              },
              {
                "Operator": "AND",
                "Criterias": [

                ],
                "Criterions": [
                  {
                    "Comment": "gnutls-dane is earlier than 0:3.1.18-9.el7_0"
                  },
                  {
                    "Comment": "gnutls-dane is signed with Red Hat redhatrelease2 key"
                  }
                ]
              },
              {
                "Operator": "AND",
                "Criterias": [

                ],
                "Criterions": [
                  {
                    "Comment": "gnutls-devel is earlier than 0:3.1.18-9.el7_0"
                  },
                  {
                    "Comment": "gnutls-devel is signed with Red Hat redhatrelease2 key"
                  }
                ]
              },
              {
                "Operator": "AND",
                "Criterias": [

                ],
                "Criterions": [
                  {
                    "Comment": "gnutls-utils is earlier than 0:3.1.18-9.el7_0"
                  },
                  {
                    "Comment": "gnutls-utils is signed with Red Hat redhatrelease2 key"
                  }
                ]
              }
            ],
            "Criterions": [

            ]
          }
        ],
        "Criterions": [
          {
            "Comment": "Oracle Linux 7 is installed"
          }
        ]
      }
    ],
    "Criterions": [
      {
        "Comment": "Oracle Linux 7 is installed"
      }
    ]
  },
  "Severity": "Important",
  "Cves": [
    {
      "Impact": "",
      "Href": "",
      "ID": "CVE-2014-3465"
    },
    {
      "Impact": "",
      "Href": "",
      "ID": "CVE-2014-3466"
    }
  ],
  "Issued": {
    "Date": "2014-06-10"
  }
}