{
  "Title": "RHSA-2020:2336: freerdp security update (Important)",
  "Description": "FreeRDP is a free implementation of the Remote Desktop Protocol (RDP), released under the Apache license. The xfreerdp client can connect to RDP servers such as Microsoft Windows machines, xrdp, and VirtualBox.\nSecurity Fix(es):\n* freerdp: Out-of-bounds write in planar.c (CVE-2020-11521)\n* freerdp: Integer overflow in region.c (CVE-2020-11523)\n* freerdp: Out-of-bounds write in interleaved.c (CVE-2020-11524)\nFor more details about the security issue(s), including the impact, a CVSS score, acknowledgments, and other related information, refer to the CVE page(s) listed in the References section.",
  "Platform": [
    "Red Hat Enterprise Linux 8"
  ],
  "References": [
    {
      "Source": "RHSA",
      "URI": "https://access.redhat.com/errata/RHSA-2020:2336",
      "ID": "RHSA-2020:2336"
    },
    {
      "Source": "CVE",
      "URI": "https://access.redhat.com/security/cve/CVE-2020-11521",
      "ID": "CVE-2020-11521"
    },
    {
      "Source": "CVE",
      "URI": "https://access.redhat.com/security/cve/CVE-2020-11523",
      "ID": "CVE-2020-11523"
    },
    {
      "Source": "CVE",
      "URI": "https://access.redhat.com/security/cve/CVE-2020-11524",
      "ID": "CVE-2020-11524"
    }
  ],
  "Criteria": {
    "Operator": "OR",
    "Criterias": [
      {
        "Operator": "AND",
        "Criterias": [
          {
            "Operator": "OR",
            "Criterias": [

            ],
            "Criterions": [
              {
                "Comment": "Oracle Linux 8 is installed"
              },
              {
                "Comment": "Red Hat CoreOS 4 is installed"
              }
            ]
          },
          {
            "Operator": "OR",
            "Criterias": [
              {
                "Operator": "AND",
                "Criterias": [

                ],
                "Criterions": [
                  {
                    "Comment": "freerdp is earlier than 2:2.0.0-46.rc4.el8_2.1"
                  },
                  {
                    "Comment": "freerdp is signed with Red Hat redhatrelease2 key"
                  }
                ]
              },
              {
                "Operator": "AND",
                "Criterias": [

                ],
                "Criterions": [
                  {
                    "Comment": "freerdp-devel is earlier than 2:2.0.0-46.rc4.el8_2.1"
                  },
                  {
                    "Comment": "freerdp-devel is signed with Red Hat redhatrelease2 key"
                  }
                ]
              },
              {
                "Operator": "AND",
                "Criterias": [

                ],
                "Criterions": [
                  {
                    "Comment": "freerdp-libs is earlier than 2:2.0.0-46.rc4.el8_2.1"
                  },
                  {
                    "Comment": "freerdp-libs is signed with Red Hat redhatrelease2 key"
                  }
                ]
              },
              {
                "Operator": "AND",
                "Criterias": [

                ],
                "Criterions": [
                  {
                    "Comment": "libwinpr is earlier than 2:2.0.0-46.rc4.el8_2.1"
                  },
                  {
                    "Comment": "libwinpr is signed with Red Hat redhatrelease2 key"
                  }
                ]
              },
              {
                "Operator": "AND",
                "Criterias": [

                ],
                "Criterions": [
                  {
                    "Comment": "libwinpr-devel is earlier than 2:2.0.0-46.rc4.el8_2.1"
                  },
                  {
                    "Comment": "libwinpr-devel is signed with Red Hat redhatrelease2 key"
                  }
                ]
              }
            ],
            "Criterions": [

            ]
          }
        ],
        "Criterions": [

        ]
      }
    ],
    "Criterions": [
      {
        "Comment": "Oracle Linux 8 is installed"
      }
    ]
  },
  "Severity": "Important",
  "Cves": [
    {
      "Impact": "",
      "Href": "",
      "ID": "CVE-2020-11521"
    },
    {
      "Impact": "",
      "Href": "",
      "ID": "CVE-2020-11523"
    },
    {
      "Impact": "",
      "Href": "",
      "ID": "CVE-2020-11524"
    }
  ],
  "Issued": {
    "Date": "2020-05-28"
  }
}