{
  "Title": "RHSA-2020:5479: linux-firmware security and enhancement update (Important)",
  "Description": "The linux-firmware packages contain all of the firmware files that are required by various devices to operate.\nSecurity Fix(es):\n* hardware: buffer overflow in bluetooth firmware (CVE-2020-12321)\nFor more details about the security issue(s), including the impact, a CVSS score, acknowledgments, and other related information, refer to the CVE page(s) listed in the References section.\nEnhancement(s):\n* [Intel 8.3 FEAT] ice: Update to the Default OS DDP Package for ice driver (BZ#1896597)\n* [Intel 8.3 FEAT] ice: Pull Comms Market Segment Package into RHEL 8.3 (BZ#1896598)",
  "Platform": [
    "Red Hat Enterprise Linux 8"
  ],
  "References": [
    {
      "Source": "RHSA",
      "URI": "https://access.redhat.com/errata/RHSA-2020:5479",
      "ID": "RHSA-2020:5479"
    },
    {
      "Source": "CVE",
      "URI": "https://access.redhat.com/security/cve/CVE-2020-12321",
      "ID": "CVE-2020-12321"
    }
  ],
  "Criteria": {
    "Operator": "OR",
    "Criterias": [
      {
        "Operator": "AND",
        "Criterias": [
          {
            "Operator": "OR",
            "Criterias": [

            ],
            "Criterions": [
              {
                "Comment": "Oracle Linux 8 is installed"
              },
              {
                "Comment": "Red Hat CoreOS 4 is installed"
              }
            ]
          },
          {
            "Operator": "OR",
            "Criterias": [
              {
                "Operator": "AND",
                "Criterias": [

                ],
                "Criterions": [
                  {
                    "Comment": "iwl100-firmware is earlier than 0:39.31.5.1-101.el8_3.1"
                  },
                  {
                    "Comment": "iwl100-firmware is signed with Red Hat redhatrelease2 key"
                  }
                ]
              },
              {
                "Operator": "AND",
                "Criterias": [

                ],
                "Criterions": [
                  {
                    "Comment": "iwl1000-firmware is earlier than 1:39.31.5.1-101.el8_3.1"
                  },
                  {
                    "Comment": "iwl1000-firmware is signed with Red Hat redhatrelease2 key"
                  }
                ]
              },
              {
                "Operator": "AND",
                "Criterias": [

                ],
                "Criterions": [
                  {
                    "Comment": "iwl105-firmware is earlier than 0:18.168.6.1-101.el8_3.1"
                  },
                  {
                    "Comment": "iwl105-firmware is signed with Red Hat redhatrelease2 key"
                  }
                ]
              },
              {
                "Operator": "AND",
                "Criterias": [

                ],
                "Criterions": [
                  {
                    "Comment": "iwl135-firmware is earlier than 0:18.168.6.1-101.el8_3.1"
                  },
                  {
                    "Comment": "iwl135-firmware is signed with Red Hat redhatrelease2 key"
                  }
                ]
              },
              {
                "Operator": "AND",
                "Criterias": [

                ],
                "Criterions": [
                  {
                    "Comment": "iwl2000-firmware is earlier than 0:18.168.6.1-101.el8_3.1"
                  },
                  {
                    "Comment": "iwl2000-firmware is signed with Red Hat redhatrelease2 key"
                  }
                ]
              },
              {
                "Operator": "AND",
                "Criterias": [

                ],
                "Criterions": [
                  {
                    "Comment": "iwl2030-firmware is earlier than 0:18.168.6.1-101.el8_3.1"
                  },
                  {
                    "Comment": "iwl2030-firmware is signed with Red Hat redhatrelease2 key"
                  }
                ]
              },
              {
                "Operator": "AND",
                "Criterias": [

                ],
                "Criterions": [
                  {
                    "Comment": "iwl3160-firmware is earlier than 1:25.30.13.0-101.el8_3.1"
                  },
                  {
                    "Comment": "iwl3160-firmware is signed with Red Hat redhatrelease2 key"
                  }
                ]
              },
              {
                "Operator": "AND",
                "Criterias": [

                ],
                "Criterions": [
                  {
                    "Comment": "iwl3945-firmware is earlier than 0:15.32.2.9-101.el8_3.1"
                  },
                  {
                    "Comment": "iwl3945-firmware is signed with Red Hat redhatrelease2 key"
                  }
                ]
              },
              {
                "Operator": "AND",
                "Criterias": [

                ],
                "Criterions": [
                  {
                    "Comment": "iwl4965-firmware is earlier than 0:228.61.2.24-101.el8_3.1"
                  },
                  {
                    "Comment": "iwl4965-firmware is signed with Red Hat redhatrelease2 key"
                  }
                ]
              },
              {
                "Operator": "AND",
                "Criterias": [

                ],
                "Criterions": [
                  {
                    "Comment": "iwl5000-firmware is earlier than 0:8.83.5.1_1-101.el8_3.1"
                  },
                  {
                    "Comment": "iwl5000-firmware is signed with Red Hat redhatrelease2 key"
                  }
                ]
              },
              {
                "Operator": "AND",
                "Criterias": [

                ],
                "Criterions": [
                  {
                    "Comment": "iwl5150-firmware is earlier than 0:8.24.2.2-101.el8_3.1"
                  },
                  {
                    "Comment": "iwl5150-firmware is signed with Red Hat redhatrelease2 key"
                  }
                ]
              },
              {
                "Operator": "AND",
                "Criterias": [

                ],
                "Criterions": [
                  {
                    "Comment": "iwl6000-firmware is earlier than 0:9.221.4.1-101.el8_3.1"
                  },
                  {
                    "Comment": "iwl6000-firmware is signed with Red Hat redhatrelease2 key"
                  }
                ]
              },
              {
                "Operator": "AND",
                "Criterias": [

                ],
                "Criterions": [
                  {
                    "Comment": "iwl6000g2a-firmware is earlier than 0:18.168.6.1-101.el8_3.1"
                  },
                  {
                    "Comment": "iwl6000g2a-firmware is signed with Red Hat redhatrelease2 key"
                  }
                ]
              },
              {
                "Operator": "AND",
                "Criterias": [

                ],
                "Criterions": [
                  {
                    "Comment": "iwl6000g2b-firmware is earlier than 0:18.168.6.1-101.el8_3.1"
                  },
                  {
                    "Comment": "iwl6000g2b-firmware is signed with Red Hat redhatrelease2 key"
                  }
                ]
              },
              {
                "Operator": "AND",
                "Criterias": [

                ],
                "Criterions": [
                  {
                    "Comment": "iwl6050-firmware is earlier than 0:41.28.5.1-101.el8_3.1"
                  },
                  {
                    "Comment": "iwl6050-firmware is signed with Red Hat redhatrelease2 key"
                  }
                ]
              },
              {
                "Operator": "AND",
                "Criterias": [

                ],
                "Criterions": [
                  {
                    "Comment": "iwl7260-firmware is earlier than 1:25.30.13.0-101.el8_3.1"
                  },
                  {
                    "Comment": "iwl7260-firmware is signed with Red Hat redhatrelease2 key"
                  }
                ]
              },
              {
                "Operator": "AND",
                "Criterias": [

                ],
                "Criterions": [
                  {
                    "Comment": "libertas-sd8686-firmware is earlier than 0:20200619-101.git3890db36.el8_3"
                  },
                  {
                    "Comment": "libertas-sd8686-firmware is signed with Red Hat redhatrelease2 key"
                  }
                ]
              },
              {
                "Operator": "AND",
                "Criterias": [

                ],
                "Criterions": [
                  {
                    "Comment": "libertas-sd8787-firmware is earlier than 0:20200619-101.git3890db36.el8_3"
                  },
                  {
                    "Comment": "libertas-sd8787-firmware is signed with Red Hat redhatrelease2 key"
                  }
                ]
              },
              {
                "Operator": "AND",
                "Criterias": [

                ],
                "Criterions": [
                  {
                    "Comment": "libertas-usb8388-firmware is earlier than 2:20200619-101.git3890db36.el8_3"
                  },
                  {
                    "Comment": "libertas-usb8388-firmware is signed with Red Hat redhatrelease2 key"
                  }
                ]
              },
              {
                "Operator": "AND",
                "Criterias": [

                ],
                "Criterions": [
                  {
                    "Comment": "libertas-usb8388-olpc-firmware is earlier than 0:20200619-101.git3890db36.el8_3"
                  },
                  {
                    "Comment": "libertas-usb8388-olpc-firmware is signed with Red Hat redhatrelease2 key"
                  }
                ]
              },
              {
                "Operator": "AND",
                "Criterias": [

                ],
                "Criterions": [
                  {
                    "Comment": "linux-firmware is earlier than 0:20200619-101.git3890db36.el8_3"
                  },
                  {
                    "Comment": "linux-firmware is signed with Red Hat redhatrelease2 key"
                  }
                ]
              }
            ],
            "Criterions": [

            ]
          }
        ],
        "Criterions": [

        ]
      }
    ],
    "Criterions": [
      {
        "Comment": "Oracle Linux 8 is installed"
      }
    ]
  },
  "Severity": "Important",
  "Cves": [
    {
      "Impact": "",
      "Href": "",
      "ID": "CVE-2020-12321"
    }
  ],
  "Issued": {
    "Date": "2020-12-15"
  }
}