{
  "Title": "RHSA-2020:2954: .NET Core 3.1 security and bugfix update (Critical)",
  "Description": ".NET Core is a managed-software framework. It implements a subset of the .NET framework APIs and several new APIs, and it includes a CLR implementation.\nNew versions of .NET Core that address a security vulnerability are now available. The updated versions are .NET Core SDK 3.1.106 and .NET Core Runtime 3.1.6.\n* .NET Core: XML source markup processing remote code execution (CVE-2020-1147)\nDefault inclusions for applications built with .NET Core have been updated to reference the newest versions and their security fixes.\nFor more details about the security issue(s), including the impact, a CVSS score, acknowledgments, and other related information, refer to the CVE page(s) listed in the References section.",
  "Platform": [
    "Red Hat Enterprise Linux 8"
  ],
  "References": [
    {
      "Source": "RHSA",
      "URI": "https://access.redhat.com/errata/RHSA-2020:2954",
      "ID": "RHSA-2020:2954"
    },
    {
      "Source": "CVE",
      "URI": "https://access.redhat.com/security/cve/CVE-2020-1147",
      "ID": "CVE-2020-1147"
    }
  ],
  "Criteria": {
    "Operator": "OR",
    "Criterias": [
      {
        "Operator": "AND",
        "Criterias": [
          {
            "Operator": "OR",
            "Criterias": [

            ],
            "Criterions": [
              {
                "Comment": "Oracle Linux 8 is installed"
              },
              {
                "Comment": "Red Hat CoreOS 4 is installed"
              }
            ]
          },
          {
            "Operator": "OR",
            "Criterias": [
              {
                "Operator": "AND",
                "Criterias": [

                ],
                "Criterions": [
                  {
                    "Comment": "aspnetcore-runtime-3.1 is earlier than 0:3.1.6-1.el8_2"
                  },
                  {
                    "Comment": "aspnetcore-runtime-3.1 is signed with Red Hat redhatrelease2 key"
                  }
                ]
              },
              {
                "Operator": "AND",
                "Criterias": [

                ],
                "Criterions": [
                  {
                    "Comment": "aspnetcore-targeting-pack-3.1 is earlier than 0:3.1.6-1.el8_2"
                  },
                  {
                    "Comment": "aspnetcore-targeting-pack-3.1 is signed with Red Hat redhatrelease2 key"
                  }
                ]
              },
              {
                "Operator": "AND",
                "Criterias": [

                ],
                "Criterions": [
                  {
                    "Comment": "dotnet is earlier than 0:3.1.106-1.el8_2"
                  },
                  {
                    "Comment": "dotnet is signed with Red Hat redhatrelease2 key"
                  }
                ]
              },
              {
                "Operator": "AND",
                "Criterias": [

                ],
                "Criterions": [
                  {
                    "Comment": "dotnet-apphost-pack-3.1 is earlier than 0:3.1.6-1.el8_2"
                  },
                  {
                    "Comment": "dotnet-apphost-pack-3.1 is signed with Red Hat redhatrelease2 key"
                  }
                ]
              },
              {
                "Operator": "AND",
                "Criterias": [

                ],
                "Criterions": [
                  {
                    "Comment": "dotnet-host is earlier than 0:3.1.6-1.el8_2"
                  },
                  {
                    "Comment": "dotnet-host is signed with Red Hat redhatrelease2 key"
                  }
                ]
              },
              {
                "Operator": "AND",
                "Criterias": [

                ],
                "Criterions": [
                  {
                    "Comment": "dotnet-hostfxr-3.1 is earlier than 0:3.1.6-1.el8_2"
                  },
                  {
                    "Comment": "dotnet-hostfxr-3.1 is signed with Red Hat redhatrelease2 key"
                  }
                ]
              },
              {
                "Operator": "AND",
                "Criterias": [

                ],
                "Criterions": [
                  {
                    "Comment": "dotnet-runtime-3.1 is earlier than 0:3.1.6-1.el8_2"
                  },
                  {
                    "Comment": "dotnet-runtime-3.1 is signed with Red Hat redhatrelease2 key"
                  }
                ]
              },
              {
                "Operator": "AND",
                "Criterias": [

                ],
                "Criterions": [
                  {
                    "Comment": "dotnet-sdk-3.1 is earlier than 0:3.1.106-1.el8_2"
                  },
                  {
                    "Comment": "dotnet-sdk-3.1 is signed with Red Hat redhatrelease2 key"
                  }
                ]
              },
              {
                "Operator": "AND",
                "Criterias": [

                ],
                "Criterions": [
                  {
                    "Comment": "dotnet-targeting-pack-3.1 is earlier than 0:3.1.6-1.el8_2"
                  },
                  {
                    "Comment": "dotnet-targeting-pack-3.1 is signed with Red Hat redhatrelease2 key"
                  }
                ]
              },
              {
                "Operator": "AND",
                "Criterias": [

                ],
                "Criterions": [
                  {
                    "Comment": "dotnet-templates-3.1 is earlier than 0:3.1.106-1.el8_2"
                  },
                  {
                    "Comment": "dotnet-templates-3.1 is signed with Red Hat redhatrelease2 key"
                  }
                ]
              },
              {
                "Operator": "AND",
                "Criterias": [

                ],
                "Criterions": [
                  {
                    "Comment": "netstandard-targeting-pack-2.1 is earlier than 0:3.1.106-1.el8_2"
                  },
                  {
                    "Comment": "netstandard-targeting-pack-2.1 is signed with Red Hat redhatrelease2 key"
                  }
                ]
              }
            ],
            "Criterions": [

            ]
          }
        ],
        "Criterions": [

        ]
      }
    ],
    "Criterions": [
      {
        "Comment": "Oracle Linux 8 is installed"
      }
    ]
  },
  "Severity": "Critical",
  "Cves": [
    {
      "Impact": "",
      "Href": "",
      "ID": "CVE-2020-1147"
    }
  ],
  "Issued": {
    "Date": "2020-07-15"
  }
}