{
  "Title": "RHSA-2020:4806: dpdk security, bug fix, and enhancement update (Important)",
  "Description": "The dpdk packages provide the Data Plane Development Kit, which is a set of libraries and drivers for fast packet processing in the user space.\nThe following packages have been upgraded to a later upstream version: dpdk (19.11.3). (BZ#1824905)\nSecurity Fix(es):\n* dpdk: librte_vhost Malicious guest could cause segfault by sending invalid Virtio descriptor (CVE-2020-10725)\n* dpdk: librte_vhost Integer overflow in vhost_user_set_log_base() (CVE-2020-10722)\n* dpdk: librte_vhost Integer truncation in vhost_user_check_and_alloc_queue_pair() (CVE-2020-10723)\n* dpdk: librte_vhost VHOST_USER_GET_INFLIGHT_FD message flooding to result in a DoS (CVE-2020-10726)\nFor more details about the security issue(s), including the impact, a CVSS score, acknowledgments, and other related information, refer to the CVE page(s) listed in the References section.\nAdditional Changes:\nFor detailed information on changes in this release, see the Red Hat Enterprise Linux 8.3 Release Notes linked from the References section.",
  "Platform": [
    "Red Hat Enterprise Linux 8"
  ],
  "References": [
    {
      "Source": "RHSA",
      "URI": "https://access.redhat.com/errata/RHSA-2020:4806",
      "ID": "RHSA-2020:4806"
    },
    {
      "Source": "CVE",
      "URI": "https://access.redhat.com/security/cve/CVE-2020-10722",
      "ID": "CVE-2020-10722"
    },
    {
      "Source": "CVE",
      "URI": "https://access.redhat.com/security/cve/CVE-2020-10723",
      "ID": "CVE-2020-10723"
    },
    {
      "Source": "CVE",
      "URI": "https://access.redhat.com/security/cve/CVE-2020-10725",
      "ID": "CVE-2020-10725"
    },
    {
      "Source": "CVE",
      "URI": "https://access.redhat.com/security/cve/CVE-2020-10726",
      "ID": "CVE-2020-10726"
    }
  ],
  "Criteria": {
    "Operator": "OR",
    "Criterias": [
      {
        "Operator": "AND",
        "Criterias": [
          {
            "Operator": "OR",
            "Criterias": [

            ],
            "Criterions": [
              {
                "Comment": "Oracle Linux 8 is installed"
              },
              {
                "Comment": "Red Hat CoreOS 4 is installed"
              }
            ]
          },
          {
            "Operator": "OR",
            "Criterias": [
              {
                "Operator": "AND",
                "Criterias": [

                ],
                "Criterions": [
                  {
                    "Comment": "dpdk is earlier than 0:19.11.3-1.el8"
                  },
                  {
                    "Comment": "dpdk is signed with Red Hat redhatrelease2 key"
                  }
                ]
              },
              {
                "Operator": "AND",
                "Criterias": [

                ],
                "Criterions": [
                  {
                    "Comment": "dpdk-devel is earlier than 0:19.11.3-1.el8"
                  },
                  {
                    "Comment": "dpdk-devel is signed with Red Hat redhatrelease2 key"
                  }
                ]
              },
              {
                "Operator": "AND",
                "Criterias": [

                ],
                "Criterions": [
                  {
                    "Comment": "dpdk-doc is earlier than 0:19.11.3-1.el8"
                  },
                  {
                    "Comment": "dpdk-doc is signed with Red Hat redhatrelease2 key"
                  }
                ]
              },
              {
                "Operator": "AND",
                "Criterias": [

                ],
                "Criterions": [
                  {
                    "Comment": "dpdk-tools is earlier than 0:19.11.3-1.el8"
                  },
                  {
                    "Comment": "dpdk-tools is signed with Red Hat redhatrelease2 key"
                  }
                ]
              }
            ],
            "Criterions": [

            ]
          }
        ],
        "Criterions": [

        ]
      }
    ],
    "Criterions": [
      {
        "Comment": "Oracle Linux 8 is installed"
      }
    ]
  },
  "Severity": "Important",
  "Cves": [
    {
      "Impact": "",
      "Href": "",
      "ID": "CVE-2020-10722"
    },
    {
      "Impact": "",
      "Href": "",
      "ID": "CVE-2020-10723"
    },
    {
      "Impact": "",
      "Href": "",
      "ID": "CVE-2020-10725"
    },
    {
      "Impact": "",
      "Href": "",
      "ID": "CVE-2020-10726"
    }
  ],
  "Issued": {
    "Date": "2020-11-04"
  }
}