{
  "Title": "RHSA-2020:4508: libsolv security, bug fix, and enhancement update (Moderate)",
  "Description": "The libsolv packages provide a library for resolving package dependencies using a satisfiability algorithm.\nThe following packages have been upgraded to a later upstream version: libsolv (0.7.11). (BZ#1809106)\nSecurity Fix(es):\n* libsolv: out-of-bounds read in repodata_schema2id in repodata.c (CVE-2019-20387)\nFor more details about the security issue(s), including the impact, a CVSS score, acknowledgments, and other related information, refer to the CVE page(s) listed in the References section.\nAdditional Changes:\nFor detailed information on changes in this release, see the Red Hat Enterprise Linux 8.3 Release Notes linked from the References section.",
  "Platform": [
    "Red Hat Enterprise Linux 8"
  ],
  "References": [
    {
      "Source": "RHSA",
      "URI": "https://access.redhat.com/errata/RHSA-2020:4508",
      "ID": "RHSA-2020:4508"
    },
    {
      "Source": "CVE",
      "URI": "https://access.redhat.com/security/cve/CVE-2019-20387",
      "ID": "CVE-2019-20387"
    }
  ],
  "Criteria": {
    "Operator": "OR",
    "Criterias": [
      {
        "Operator": "AND",
        "Criterias": [
          {
            "Operator": "OR",
            "Criterias": [

            ],
            "Criterions": [
              {
                "Comment": "Oracle Linux 8 is installed"
              },
              {
                "Comment": "Red Hat CoreOS 4 is installed"
              }
            ]
          },
          {
            "Operator": "OR",
            "Criterias": [
              {
                "Operator": "AND",
                "Criterias": [

                ],
                "Criterions": [
                  {
                    "Comment": "libsolv is earlier than 0:0.7.11-1.el8"
                  },
                  {
                    "Comment": "libsolv is signed with Red Hat redhatrelease2 key"
                  }
                ]
              },
              {
                "Operator": "AND",
                "Criterias": [

                ],
                "Criterions": [
                  {
                    "Comment": "python3-solv is earlier than 0:0.7.11-1.el8"
                  },
                  {
                    "Comment": "python3-solv is signed with Red Hat redhatrelease2 key"
                  }
                ]
              }
            ],
            "Criterions": [

            ]
          }
        ],
        "Criterions": [

        ]
      }
    ],
    "Criterions": [
      {
        "Comment": "Oracle Linux 8 is installed"
      }
    ]
  },
  "Severity": "Moderate",
  "Cves": [
    {
      "Impact": "",
      "Href": "",
      "ID": "CVE-2019-20387"
    }
  ],
  "Issued": {
    "Date": "2020-11-04"
  }
}