{
  "Title": "RHSA-2020:1022: file security update (Low)",
  "Description": "The file command is used to identify a particular file according to the type of data the file contains. It can identify many different file types, including Executable and Linkable Format (ELF) binary files, system libraries, RPM packages, and different graphics formats.\nSecurity Fix(es):\n* file: out-of-bounds read via a crafted ELF file (CVE-2018-10360)\nFor more details about the security issue(s), including the impact, a CVSS score, acknowledgments, and other related information, refer to the CVE page(s) listed in the References section.\nAdditional Changes:\nFor detailed information on changes in this release, see the Red Hat Enterprise Linux 7.8 Release Notes linked from the References section.",
  "Platform": [
    "Red Hat Enterprise Linux 7"
  ],
  "References": [
    {
      "Source": "RHSA",
      "URI": "https://access.redhat.com/errata/RHSA-2020:1022",
      "ID": "RHSA-2020:1022"
    },
    {
      "Source": "CVE",
      "URI": "https://access.redhat.com/security/cve/CVE-2018-10360",
      "ID": "CVE-2018-10360"
    }
  ],
  "Criteria": {
    "Operator": "OR",
    "Criterias": [
      {
        "Operator": "AND",
        "Criterias": [
          {
            "Operator": "OR",
            "Criterias": [
              {
                "Operator": "AND",
                "Criterias": [

                ],
                "Criterions": [
                  {
                    "Comment": "file is earlier than 0:5.11-36.el7"
                  },
                  {
                    "Comment": "file is signed with Red Hat redhatrelease2 key"
                  }
                ]
              },
              {
                "Operator": "AND",
                "Criterias": [

                ],
                "Criterions": [
                  {
                    "Comment": "file-devel is earlier than 0:5.11-36.el7"
                  },
                  {
                    "Comment": "file-devel is signed with Red Hat redhatrelease2 key"
                  }
                ]
              },
              {
                "Operator": "AND",
                "Criterias": [

                ],
                "Criterions": [
                  {
                    "Comment": "file-libs is earlier than 0:5.11-36.el7"
                  },
                  {
                    "Comment": "file-libs is signed with Red Hat redhatrelease2 key"
                  }
                ]
              },
              {
                "Operator": "AND",
                "Criterias": [

                ],
                "Criterions": [
                  {
                    "Comment": "file-static is earlier than 0:5.11-36.el7"
                  },
                  {
                    "Comment": "file-static is signed with Red Hat redhatrelease2 key"
                  }
                ]
              },
              {
                "Operator": "AND",
                "Criterias": [

                ],
                "Criterions": [
                  {
                    "Comment": "python-magic is earlier than 0:5.11-36.el7"
                  },
                  {
                    "Comment": "python-magic is signed with Red Hat redhatrelease2 key"
                  }
                ]
              }
            ],
            "Criterions": [

            ]
          }
        ],
        "Criterions": [
          {
            "Comment": "Oracle Linux 7 is installed"
          }
        ]
      }
    ],
    "Criterions": [
      {
        "Comment": "Oracle Linux 7 is installed"
      }
    ]
  },
  "Severity": "Low",
  "Cves": [
    {
      "Impact": "",
      "Href": "",
      "ID": "CVE-2018-10360"
    }
  ],
  "Issued": {
    "Date": "2020-03-31"
  }
}