{
  "Title": "RHSA-2020:5562: firefox security update (Important)",
  "Description": "Mozilla Firefox is an open-source web browser, designed for standards compliance, performance, and portability.\nThis update upgrades Firefox to version 78.6.0 ESR.\nSecurity Fix(es):\n* chromium-browser: Uninitialized Use in V8 (CVE-2020-16042)\n* Mozilla: Heap buffer overflow in WebGL (CVE-2020-26971)\n* Mozilla: CSS Sanitizer performed incorrect sanitization (CVE-2020-26973)\n* Mozilla: Incorrect cast of StyleGenericFlexBasis resulted in a heap use-after-free (CVE-2020-26974)\n* Mozilla: Memory safety bugs fixed in Firefox 84 and Firefox ESR 78.6 (CVE-2020-35113)\n* Mozilla: Internal network hosts could have been probed by a malicious webpage (CVE-2020-26978)\n* Mozilla: The proxy.onRequest API did not catch view-source URLs (CVE-2020-35111)\nFor more details about the security issue(s), including the impact, a CVSS score, acknowledgments, and other related information, refer to the CVE page(s) listed in the References section.",
  "Platform": [
    "Red Hat Enterprise Linux 8"
  ],
  "References": [
    {
      "Source": "RHSA",
      "URI": "https://access.redhat.com/errata/RHSA-2020:5562",
      "ID": "RHSA-2020:5562"
    },
    {
      "Source": "CVE",
      "URI": "https://access.redhat.com/security/cve/CVE-2020-16042",
      "ID": "CVE-2020-16042"
    },
    {
      "Source": "CVE",
      "URI": "https://access.redhat.com/security/cve/CVE-2020-26971",
      "ID": "CVE-2020-26971"
    },
    {
      "Source": "CVE",
      "URI": "https://access.redhat.com/security/cve/CVE-2020-26973",
      "ID": "CVE-2020-26973"
    },
    {
      "Source": "CVE",
      "URI": "https://access.redhat.com/security/cve/CVE-2020-26974",
      "ID": "CVE-2020-26974"
    },
    {
      "Source": "CVE",
      "URI": "https://access.redhat.com/security/cve/CVE-2020-26978",
      "ID": "CVE-2020-26978"
    },
    {
      "Source": "CVE",
      "URI": "https://access.redhat.com/security/cve/CVE-2020-35111",
      "ID": "CVE-2020-35111"
    },
    {
      "Source": "CVE",
      "URI": "https://access.redhat.com/security/cve/CVE-2020-35113",
      "ID": "CVE-2020-35113"
    }
  ],
  "Criteria": {
    "Operator": "OR",
    "Criterias": [
      {
        "Operator": "AND",
        "Criterias": [
          {
            "Operator": "OR",
            "Criterias": [

            ],
            "Criterions": [
              {
                "Comment": "Oracle Linux 8 is installed"
              },
              {
                "Comment": "Red Hat CoreOS 4 is installed"
              }
            ]
          }
        ],
        "Criterions": [
          {
            "Comment": "firefox is earlier than 0:78.6.0-1.el8_3"
          },
          {
            "Comment": "firefox is signed with Red Hat redhatrelease2 key"
          }
        ]
      }
    ],
    "Criterions": [
      {
        "Comment": "Oracle Linux 8 is installed"
      }
    ]
  },
  "Severity": "Important",
  "Cves": [
    {
      "Impact": "",
      "Href": "",
      "ID": "CVE-2020-16042"
    },
    {
      "Impact": "",
      "Href": "",
      "ID": "CVE-2020-26971"
    },
    {
      "Impact": "",
      "Href": "",
      "ID": "CVE-2020-26973"
    },
    {
      "Impact": "",
      "Href": "",
      "ID": "CVE-2020-26974"
    },
    {
      "Impact": "",
      "Href": "",
      "ID": "CVE-2020-26978"
    },
    {
      "Impact": "",
      "Href": "",
      "ID": "CVE-2020-35111"
    },
    {
      "Impact": "",
      "Href": "",
      "ID": "CVE-2020-35113"
    }
  ],
  "Issued": {
    "Date": "2020-12-16"
  }
}