{
  "Title": "RHSA-2020:4676: virt:rhel and virt-devel:rhel security, bug fix, and enhancement update (Moderate)",
  "Description": "Kernel-based Virtual Machine (KVM) offers a full virtualization solution for Linux on numerous hardware platforms. The virt:rhel module contains packages which provide user-space components used to run virtual machines using KVM. The packages also provide APIs for managing and interacting with the virtualized systems.\nThe following packages have been upgraded to a later upstream version: hivex (1.3.18), libguestfs (1.40.2), libguestfs-winsupport (8.2), libvirt (6.0.0), libvirt-dbus (1.3.0), libvirt-python (6.0.0), nbdkit (1.16.2), perl-Sys-Virt (6.0.0), qemu-kvm (4.2.0), seabios (1.13.0), SLOF (20191022). (BZ#1810193, BZ#1844296)\nSecurity Fix(es):\n* libvirt: leak of /dev/mapper/control into QEMU guests (CVE-2020-14339)\n* QEMU: Slirp: use-after-free during packet reassembly (CVE-2019-15890)\n* libvirt: Potential DoS by holding a monitor job while querying QEMU guest-agent (CVE-2019-20485)\n* QEMU: slirp: use-after-free in ip_reass() function in ip_input.c (CVE-2020-1983)\n* libvirt: Potential denial of service via active pool without target path (CVE-2020-10703)\n* libvirt: leak of sensitive cookie information via dumpxml (CVE-2020-14301)\nFor more details about the security issue(s), including the impact, a CVSS score, acknowledgments, and other related information, refer to the CVE page(s) listed in the References section.\nAdditional Changes:\nFor detailed information on changes in this release, see the Red Hat Enterprise Linux 8.3 Release Notes linked from the References section.",
  "Platform": [
    "Red Hat Enterprise Linux 8"
  ],
  "References": [
    {
      "Source": "RHSA",
      "URI": "https://access.redhat.com/errata/RHSA-2020:4676",
      "ID": "RHSA-2020:4676"
    },
    {
      "Source": "CVE",
      "URI": "https://access.redhat.com/security/cve/CVE-2019-15890",
      "ID": "CVE-2019-15890"
    },
    {
      "Source": "CVE",
      "URI": "https://access.redhat.com/security/cve/CVE-2019-20485",
      "ID": "CVE-2019-20485"
    },
    {
      "Source": "CVE",
      "URI": "https://access.redhat.com/security/cve/CVE-2020-10703",
      "ID": "CVE-2020-10703"
    },
    {
      "Source": "CVE",
      "URI": "https://access.redhat.com/security/cve/CVE-2020-14301",
      "ID": "CVE-2020-14301"
    },
    {
      "Source": "CVE",
      "URI": "https://access.redhat.com/security/cve/CVE-2020-14339",
      "ID": "CVE-2020-14339"
    },
    {
      "Source": "CVE",
      "URI": "https://access.redhat.com/security/cve/CVE-2020-1983",
      "ID": "CVE-2020-1983"
    }
  ],
  "Criteria": {
    "Operator": "OR",
    "Criterias": [
      {
        "Operator": "AND",
        "Criterias": [
          {
            "Operator": "OR",
            "Criterias": [

            ],
            "Criterions": [
              {
                "Comment": "Oracle Linux 8 is installed"
              },
              {
                "Comment": "Red Hat CoreOS 4 is installed"
              }
            ]
          },
          {
            "Operator": "OR",
            "Criterias": [
              {
                "Operator": "AND",
                "Criterias": [
                  {
                    "Operator": "OR",
                    "Criterias": [
                      {
                        "Operator": "AND",
                        "Criterias": [

                        ],
                        "Criterions": [
                          {
                            "Comment": "SLOF is earlier than 0:20191022-3.git899d9883.module+el8.3.0+6423+e4cb6418"
                          },
                          {
                            "Comment": "SLOF is signed with Red Hat redhatrelease2 key"
                          }
                        ]
                      },
                      {
                        "Operator": "AND",
                        "Criterias": [

                        ],
                        "Criterions": [
                          {
                            "Comment": "hivex is earlier than 0:1.3.18-20.module+el8.3.0+6423+e4cb6418"
                          },
                          {
                            "Comment": "hivex is signed with Red Hat redhatrelease2 key"
                          }
                        ]
                      },
                      {
                        "Operator": "AND",
                        "Criterias": [

                        ],
                        "Criterions": [
                          {
                            "Comment": "hivex-devel is earlier than 0:1.3.18-20.module+el8.3.0+6423+e4cb6418"
                          },
                          {
                            "Comment": "hivex-devel is signed with Red Hat redhatrelease2 key"
                          }
                        ]
                      },
                      {
                        "Operator": "AND",
                        "Criterias": [

                        ],
                        "Criterions": [
                          {
                            "Comment": "libguestfs is earlier than 1:1.40.2-25.module+el8.3.0+7421+642fe24f"
                          },
                          {
                            "Comment": "libguestfs is signed with Red Hat redhatrelease2 key"
                          }
                        ]
                      },
                      {
                        "Operator": "AND",
                        "Criterias": [

                        ],
                        "Criterions": [
                          {
                            "Comment": "libguestfs-bash-completion is earlier than 1:1.40.2-25.module+el8.3.0+7421+642fe24f"
                          },
                          {
                            "Comment": "libguestfs-bash-completion is signed with Red Hat redhatrelease2 key"
                          }
                        ]
                      },
                      {
                        "Operator": "AND",
                        "Criterias": [

                        ],
                        "Criterions": [
                          {
                            "Comment": "libguestfs-benchmarking is earlier than 1:1.40.2-25.module+el8.3.0+7421+642fe24f"
                          },
                          {
                            "Comment": "libguestfs-benchmarking is signed with Red Hat redhatrelease2 key"
                          }
                        ]
                      },
                      {
                        "Operator": "AND",
                        "Criterias": [

                        ],
                        "Criterions": [
                          {
                            "Comment": "libguestfs-devel is earlier than 1:1.40.2-25.module+el8.3.0+7421+642fe24f"
                          },
                          {
                            "Comment": "libguestfs-devel is signed with Red Hat redhatrelease2 key"
                          }
                        ]
                      },
                      {
                        "Operator": "AND",
                        "Criterias": [

                        ],
                        "Criterions": [
                          {
                            "Comment": "libguestfs-gfs2 is earlier than 1:1.40.2-25.module+el8.3.0+7421+642fe24f"
                          },
                          {
                            "Comment": "libguestfs-gfs2 is signed with Red Hat redhatrelease2 key"
                          }
                        ]
                      },
                      {
                        "Operator": "AND",
                        "Criterias": [

                        ],
                        "Criterions": [
                          {
                            "Comment": "libguestfs-gobject is earlier than 1:1.40.2-25.module+el8.3.0+7421+642fe24f"
                          },
                          {
                            "Comment": "libguestfs-gobject is signed with Red Hat redhatrelease2 key"
                          }
                        ]
                      },
                      {
                        "Operator": "AND",
                        "Criterias": [

                        ],
                        "Criterions": [
                          {
                            "Comment": "libguestfs-gobject-devel is earlier than 1:1.40.2-25.module+el8.3.0+7421+642fe24f"
                          },
                          {
                            "Comment": "libguestfs-gobject-devel is signed with Red Hat redhatrelease2 key"
                          }
                        ]
                      },
                      {
                        "Operator": "AND",
                        "Criterias": [

                        ],
                        "Criterions": [
                          {
                            "Comment": "libguestfs-inspect-icons is earlier than 1:1.40.2-25.module+el8.3.0+7421+642fe24f"
                          },
                          {
                            "Comment": "libguestfs-inspect-icons is signed with Red Hat redhatrelease2 key"
                          }
                        ]
                      },
                      {
                        "Operator": "AND",
                        "Criterias": [

                        ],
                        "Criterions": [
                          {
                            "Comment": "libguestfs-java is earlier than 1:1.40.2-25.module+el8.3.0+7421+642fe24f"
                          },
                          {
                            "Comment": "libguestfs-java is signed with Red Hat redhatrelease2 key"
                          }
                        ]
                      },
                      {
                        "Operator": "AND",
                        "Criterias": [

                        ],
                        "Criterions": [
                          {
                            "Comment": "libguestfs-java-devel is earlier than 1:1.40.2-25.module+el8.3.0+7421+642fe24f"
                          },
                          {
                            "Comment": "libguestfs-java-devel is signed with Red Hat redhatrelease2 key"
                          }
                        ]
                      },
                      {
                        "Operator": "AND",
                        "Criterias": [

                        ],
                        "Criterions": [
                          {
                            "Comment": "libguestfs-javadoc is earlier than 1:1.40.2-25.module+el8.3.0+7421+642fe24f"
                          },
                          {
                            "Comment": "libguestfs-javadoc is signed with Red Hat redhatrelease2 key"
                          }
                        ]
                      },
                      {
                        "Operator": "AND",
                        "Criterias": [

                        ],
                        "Criterions": [
                          {
                            "Comment": "libguestfs-man-pages-ja is earlier than 1:1.40.2-25.module+el8.3.0+7421+642fe24f"
                          },
                          {
                            "Comment": "libguestfs-man-pages-ja is signed with Red Hat redhatrelease2 key"
                          }
                        ]
                      },
                      {
                        "Operator": "AND",
                        "Criterias": [

                        ],
                        "Criterions": [
                          {
                            "Comment": "libguestfs-man-pages-uk is earlier than 1:1.40.2-25.module+el8.3.0+7421+642fe24f"
                          },
                          {
                            "Comment": "libguestfs-man-pages-uk is signed with Red Hat redhatrelease2 key"
                          }
                        ]
                      },
                      {
                        "Operator": "AND",
                        "Criterias": [

                        ],
                        "Criterions": [
                          {
                            "Comment": "libguestfs-rescue is earlier than 1:1.40.2-25.module+el8.3.0+7421+642fe24f"
                          },
                          {
                            "Comment": "libguestfs-rescue is signed with Red Hat redhatrelease2 key"
                          }
                        ]
                      },
                      {
                        "Operator": "AND",
                        "Criterias": [

                        ],
                        "Criterions": [
                          {
                            "Comment": "libguestfs-rsync is earlier than 1:1.40.2-25.module+el8.3.0+7421+642fe24f"
                          },
                          {
                            "Comment": "libguestfs-rsync is signed with Red Hat redhatrelease2 key"
                          }
                        ]
                      },
                      {
                        "Operator": "AND",
                        "Criterias": [

                        ],
                        "Criterions": [
                          {
                            "Comment": "libguestfs-tools is earlier than 1:1.40.2-25.module+el8.3.0+7421+642fe24f"
                          },
                          {
                            "Comment": "libguestfs-tools is signed with Red Hat redhatrelease2 key"
                          }
                        ]
                      },
                      {
                        "Operator": "AND",
                        "Criterias": [

                        ],
                        "Criterions": [
                          {
                            "Comment": "libguestfs-tools-c is earlier than 1:1.40.2-25.module+el8.3.0+7421+642fe24f"
                          },
                          {
                            "Comment": "libguestfs-tools-c is signed with Red Hat redhatrelease2 key"
                          }
                        ]
                      },
                      {
                        "Operator": "AND",
                        "Criterias": [

                        ],
                        "Criterions": [
                          {
                            "Comment": "libguestfs-winsupport is earlier than 0:8.2-1.module+el8.3.0+6423+e4cb6418"
                          },
                          {
                            "Comment": "libguestfs-winsupport is signed with Red Hat redhatrelease2 key"
                          }
                        ]
                      },
                      {
                        "Operator": "AND",
                        "Criterias": [

                        ],
                        "Criterions": [
                          {
                            "Comment": "libguestfs-xfs is earlier than 1:1.40.2-25.module+el8.3.0+7421+642fe24f"
                          },
                          {
                            "Comment": "libguestfs-xfs is signed with Red Hat redhatrelease2 key"
                          }
                        ]
                      },
                      {
                        "Operator": "AND",
                        "Criterias": [

                        ],
                        "Criterions": [
                          {
                            "Comment": "libiscsi is earlier than 0:1.18.0-8.module+el8.1.0+4066+0f1aadab"
                          },
                          {
                            "Comment": "libiscsi is signed with Red Hat redhatrelease2 key"
                          }
                        ]
                      },
                      {
                        "Operator": "AND",
                        "Criterias": [

                        ],
                        "Criterions": [
                          {
                            "Comment": "libiscsi-devel is earlier than 0:1.18.0-8.module+el8.1.0+4066+0f1aadab"
                          },
                          {
                            "Comment": "libiscsi-devel is signed with Red Hat redhatrelease2 key"
                          }
                        ]
                      },
                      {
                        "Operator": "AND",
                        "Criterias": [

                        ],
                        "Criterions": [
                          {
                            "Comment": "libiscsi-utils is earlier than 0:1.18.0-8.module+el8.1.0+4066+0f1aadab"
                          },
                          {
                            "Comment": "libiscsi-utils is signed with Red Hat redhatrelease2 key"
                          }
                        ]
                      },
                      {
                        "Operator": "AND",
                        "Criterias": [

                        ],
                        "Criterions": [
                          {
                            "Comment": "libnbd is earlier than 0:1.2.2-1.module+el8.3.0+7353+9de0a3cc"
                          },
                          {
                            "Comment": "libnbd is signed with Red Hat redhatrelease2 key"
                          }
                        ]
                      },
                      {
                        "Operator": "AND",
                        "Criterias": [

                        ],
                        "Criterions": [
                          {
                            "Comment": "libnbd-devel is earlier than 0:1.2.2-1.module+el8.3.0+7353+9de0a3cc"
                          },
                          {
                            "Comment": "libnbd-devel is signed with Red Hat redhatrelease2 key"
                          }
                        ]
                      },
                      {
                        "Operator": "AND",
                        "Criterias": [

                        ],
                        "Criterions": [
                          {
                            "Comment": "libvirt is earlier than 0:6.0.0-28.module+el8.3.0+7827+5e65edd7"
                          },
                          {
                            "Comment": "libvirt is signed with Red Hat redhatrelease2 key"
                          }
                        ]
                      },
                      {
                        "Operator": "AND",
                        "Criterias": [

                        ],
                        "Criterions": [
                          {
                            "Comment": "libvirt-admin is earlier than 0:6.0.0-28.module+el8.3.0+7827+5e65edd7"
                          },
                          {
                            "Comment": "libvirt-admin is signed with Red Hat redhatrelease2 key"
                          }
                        ]
                      },
                      {
                        "Operator": "AND",
                        "Criterias": [

                        ],
                        "Criterions": [
                          {
                            "Comment": "libvirt-bash-completion is earlier than 0:6.0.0-28.module+el8.3.0+7827+5e65edd7"
                          },
                          {
                            "Comment": "libvirt-bash-completion is signed with Red Hat redhatrelease2 key"
                          }
                        ]
                      },
                      {
                        "Operator": "AND",
                        "Criterias": [

                        ],
                        "Criterions": [
                          {
                            "Comment": "libvirt-client is earlier than 0:6.0.0-28.module+el8.3.0+7827+5e65edd7"
                          },
                          {
                            "Comment": "libvirt-client is signed with Red Hat redhatrelease2 key"
                          }
                        ]
                      },
                      {
                        "Operator": "AND",
                        "Criterias": [

                        ],
                        "Criterions": [
                          {
                            "Comment": "libvirt-daemon is earlier than 0:6.0.0-28.module+el8.3.0+7827+5e65edd7"
                          },
                          {
                            "Comment": "libvirt-daemon is signed with Red Hat redhatrelease2 key"
                          }
                        ]
                      },
                      {
                        "Operator": "AND",
                        "Criterias": [

                        ],
                        "Criterions": [
                          {
                            "Comment": "libvirt-daemon-config-network is earlier than 0:6.0.0-28.module+el8.3.0+7827+5e65edd7"
                          },
                          {
                            "Comment": "libvirt-daemon-config-network is signed with Red Hat redhatrelease2 key"
                          }
                        ]
                      },
                      {
                        "Operator": "AND",
                        "Criterias": [

                        ],
                        "Criterions": [
                          {
                            "Comment": "libvirt-daemon-config-nwfilter is earlier than 0:6.0.0-28.module+el8.3.0+7827+5e65edd7"
                          },
                          {
                            "Comment": "libvirt-daemon-config-nwfilter is signed with Red Hat redhatrelease2 key"
                          }
                        ]
                      },
                      {
                        "Operator": "AND",
                        "Criterias": [

                        ],
                        "Criterions": [
                          {
                            "Comment": "libvirt-daemon-driver-interface is earlier than 0:6.0.0-28.module+el8.3.0+7827+5e65edd7"
                          },
                          {
                            "Comment": "libvirt-daemon-driver-interface is signed with Red Hat redhatrelease2 key"
                          }
                        ]
                      },
                      {
                        "Operator": "AND",
                        "Criterias": [

                        ],
                        "Criterions": [
                          {
                            "Comment": "libvirt-daemon-driver-network is earlier than 0:6.0.0-28.module+el8.3.0+7827+5e65edd7"
                          },
                          {
                            "Comment": "libvirt-daemon-driver-network is signed with Red Hat redhatrelease2 key"
                          }
                        ]
                      },
                      {
                        "Operator": "AND",
                        "Criterias": [

                        ],
                        "Criterions": [
                          {
                            "Comment": "libvirt-daemon-driver-nodedev is earlier than 0:6.0.0-28.module+el8.3.0+7827+5e65edd7"
                          },
                          {
                            "Comment": "libvirt-daemon-driver-nodedev is signed with Red Hat redhatrelease2 key"
                          }
                        ]
                      },
                      {
                        "Operator": "AND",
                        "Criterias": [

                        ],
                        "Criterions": [
                          {
                            "Comment": "libvirt-daemon-driver-nwfilter is earlier than 0:6.0.0-28.module+el8.3.0+7827+5e65edd7"
                          },
                          {
                            "Comment": "libvirt-daemon-driver-nwfilter is signed with Red Hat redhatrelease2 key"
                          }
                        ]
                      },
                      {
                        "Operator": "AND",
                        "Criterias": [

                        ],
                        "Criterions": [
                          {
                            "Comment": "libvirt-daemon-driver-qemu is earlier than 0:6.0.0-28.module+el8.3.0+7827+5e65edd7"
                          },
                          {
                            "Comment": "libvirt-daemon-driver-qemu is signed with Red Hat redhatrelease2 key"
                          }
                        ]
                      },
                      {
                        "Operator": "AND",
                        "Criterias": [

                        ],
                        "Criterions": [
                          {
                            "Comment": "libvirt-daemon-driver-secret is earlier than 0:6.0.0-28.module+el8.3.0+7827+5e65edd7"
                          },
                          {
                            "Comment": "libvirt-daemon-driver-secret is signed with Red Hat redhatrelease2 key"
                          }
                        ]
                      },
                      {
                        "Operator": "AND",
                        "Criterias": [

                        ],
                        "Criterions": [
                          {
                            "Comment": "libvirt-daemon-driver-storage is earlier than 0:6.0.0-28.module+el8.3.0+7827+5e65edd7"
                          },
                          {
                            "Comment": "libvirt-daemon-driver-storage is signed with Red Hat redhatrelease2 key"
                          }
                        ]
                      },
                      {
                        "Operator": "AND",
                        "Criterias": [

                        ],
                        "Criterions": [
                          {
                            "Comment": "libvirt-daemon-driver-storage-core is earlier than 0:6.0.0-28.module+el8.3.0+7827+5e65edd7"
                          },
                          {
                            "Comment": "libvirt-daemon-driver-storage-core is signed with Red Hat redhatrelease2 key"
                          }
                        ]
                      },
                      {
                        "Operator": "AND",
                        "Criterias": [

                        ],
                        "Criterions": [
                          {
                            "Comment": "libvirt-daemon-driver-storage-disk is earlier than 0:6.0.0-28.module+el8.3.0+7827+5e65edd7"
                          },
                          {
                            "Comment": "libvirt-daemon-driver-storage-disk is signed with Red Hat redhatrelease2 key"
                          }
                        ]
                      },
                      {
                        "Operator": "AND",
                        "Criterias": [

                        ],
                        "Criterions": [
                          {
                            "Comment": "libvirt-daemon-driver-storage-gluster is earlier than 0:6.0.0-28.module+el8.3.0+7827+5e65edd7"
                          },
                          {
                            "Comment": "libvirt-daemon-driver-storage-gluster is signed with Red Hat redhatrelease2 key"
                          }
                        ]
                      },
                      {
                        "Operator": "AND",
                        "Criterias": [

                        ],
                        "Criterions": [
                          {
                            "Comment": "libvirt-daemon-driver-storage-iscsi is earlier than 0:6.0.0-28.module+el8.3.0+7827+5e65edd7"
                          },
                          {
                            "Comment": "libvirt-daemon-driver-storage-iscsi is signed with Red Hat redhatrelease2 key"
                          }
                        ]
                      },
                      {
                        "Operator": "AND",
                        "Criterias": [

                        ],
                        "Criterions": [
                          {
                            "Comment": "libvirt-daemon-driver-storage-iscsi-direct is earlier than 0:6.0.0-28.module+el8.3.0+7827+5e65edd7"
                          },
                          {
                            "Comment": "libvirt-daemon-driver-storage-iscsi-direct is signed with Red Hat redhatrelease2 key"
                          }
                        ]
                      },
                      {
                        "Operator": "AND",
                        "Criterias": [

                        ],
                        "Criterions": [
                          {
                            "Comment": "libvirt-daemon-driver-storage-logical is earlier than 0:6.0.0-28.module+el8.3.0+7827+5e65edd7"
                          },
                          {
                            "Comment": "libvirt-daemon-driver-storage-logical is signed with Red Hat redhatrelease2 key"
                          }
                        ]
                      },
                      {
                        "Operator": "AND",
                        "Criterias": [

                        ],
                        "Criterions": [
                          {
                            "Comment": "libvirt-daemon-driver-storage-mpath is earlier than 0:6.0.0-28.module+el8.3.0+7827+5e65edd7"
                          },
                          {
                            "Comment": "libvirt-daemon-driver-storage-mpath is signed with Red Hat redhatrelease2 key"
                          }
                        ]
                      },
                      {
                        "Operator": "AND",
                        "Criterias": [

                        ],
                        "Criterions": [
                          {
                            "Comment": "libvirt-daemon-driver-storage-rbd is earlier than 0:6.0.0-28.module+el8.3.0+7827+5e65edd7"
                          },
                          {
                            "Comment": "libvirt-daemon-driver-storage-rbd is signed with Red Hat redhatrelease2 key"
                          }
                        ]
                      },
                      {
                        "Operator": "AND",
                        "Criterias": [

                        ],
                        "Criterions": [
                          {
                            "Comment": "libvirt-daemon-driver-storage-scsi is earlier than 0:6.0.0-28.module+el8.3.0+7827+5e65edd7"
                          },
                          {
                            "Comment": "libvirt-daemon-driver-storage-scsi is signed with Red Hat redhatrelease2 key"
                          }
                        ]
                      },
                      {
                        "Operator": "AND",
                        "Criterias": [

                        ],
                        "Criterions": [
                          {
                            "Comment": "libvirt-daemon-kvm is earlier than 0:6.0.0-28.module+el8.3.0+7827+5e65edd7"
                          },
                          {
                            "Comment": "libvirt-daemon-kvm is signed with Red Hat redhatrelease2 key"
                          }
                        ]
                      },
                      {
                        "Operator": "AND",
                        "Criterias": [

                        ],
                        "Criterions": [
                          {
                            "Comment": "libvirt-dbus is earlier than 0:1.3.0-2.module+el8.3.0+6423+e4cb6418"
                          },
                          {
                            "Comment": "libvirt-dbus is signed with Red Hat redhatrelease2 key"
                          }
                        ]
                      },
                      {
                        "Operator": "AND",
                        "Criterias": [

                        ],
                        "Criterions": [
                          {
                            "Comment": "libvirt-devel is earlier than 0:6.0.0-28.module+el8.3.0+7827+5e65edd7"
                          },
                          {
                            "Comment": "libvirt-devel is signed with Red Hat redhatrelease2 key"
                          }
                        ]
                      },
                      {
                        "Operator": "AND",
                        "Criterias": [

                        ],
                        "Criterions": [
                          {
                            "Comment": "libvirt-docs is earlier than 0:6.0.0-28.module+el8.3.0+7827+5e65edd7"
                          },
                          {
                            "Comment": "libvirt-docs is signed with Red Hat redhatrelease2 key"
                          }
                        ]
                      },
                      {
                        "Operator": "AND",
                        "Criterias": [

                        ],
                        "Criterions": [
                          {
                            "Comment": "libvirt-libs is earlier than 0:6.0.0-28.module+el8.3.0+7827+5e65edd7"
                          },
                          {
                            "Comment": "libvirt-libs is signed with Red Hat redhatrelease2 key"
                          }
                        ]
                      },
                      {
                        "Operator": "AND",
                        "Criterias": [

                        ],
                        "Criterions": [
                          {
                            "Comment": "libvirt-lock-sanlock is earlier than 0:6.0.0-28.module+el8.3.0+7827+5e65edd7"
                          },
                          {
                            "Comment": "libvirt-lock-sanlock is signed with Red Hat redhatrelease2 key"
                          }
                        ]
                      },
                      {
                        "Operator": "AND",
                        "Criterias": [

                        ],
                        "Criterions": [
                          {
                            "Comment": "libvirt-nss is earlier than 0:6.0.0-28.module+el8.3.0+7827+5e65edd7"
                          },
                          {
                            "Comment": "libvirt-nss is signed with Red Hat redhatrelease2 key"
                          }
                        ]
                      },
                      {
                        "Operator": "AND",
                        "Criterias": [

                        ],
                        "Criterions": [
                          {
                            "Comment": "lua-guestfs is earlier than 1:1.40.2-25.module+el8.3.0+7421+642fe24f"
                          },
                          {
                            "Comment": "lua-guestfs is signed with Red Hat redhatrelease2 key"
                          }
                        ]
                      },
                      {
                        "Operator": "AND",
                        "Criterias": [

                        ],
                        "Criterions": [
                          {
                            "Comment": "nbdfuse is earlier than 0:1.2.2-1.module+el8.3.0+7353+9de0a3cc"
                          },
                          {
                            "Comment": "nbdfuse is signed with Red Hat redhatrelease2 key"
                          }
                        ]
                      },
                      {
                        "Operator": "AND",
                        "Criterias": [

                        ],
                        "Criterions": [
                          {
                            "Comment": "nbdkit is earlier than 0:1.16.2-4.module+el8.3.0+6922+fd575af8"
                          },
                          {
                            "Comment": "nbdkit is signed with Red Hat redhatrelease2 key"
                          }
                        ]
                      },
                      {
                        "Operator": "AND",
                        "Criterias": [

                        ],
                        "Criterions": [
                          {
                            "Comment": "nbdkit-bash-completion is earlier than 0:1.16.2-4.module+el8.3.0+6922+fd575af8"
                          },
                          {
                            "Comment": "nbdkit-bash-completion is signed with Red Hat redhatrelease2 key"
                          }
                        ]
                      },
                      {
                        "Operator": "AND",
                        "Criterias": [

                        ],
                        "Criterions": [
                          {
                            "Comment": "nbdkit-basic-filters is earlier than 0:1.16.2-4.module+el8.3.0+6922+fd575af8"
                          },
                          {
                            "Comment": "nbdkit-basic-filters is signed with Red Hat redhatrelease2 key"
                          }
                        ]
                      },
                      {
                        "Operator": "AND",
                        "Criterias": [

                        ],
                        "Criterions": [
                          {
                            "Comment": "nbdkit-basic-plugins is earlier than 0:1.16.2-4.module+el8.3.0+6922+fd575af8"
                          },
                          {
                            "Comment": "nbdkit-basic-plugins is signed with Red Hat redhatrelease2 key"
                          }
                        ]
                      },
                      {
                        "Operator": "AND",
                        "Criterias": [

                        ],
                        "Criterions": [
                          {
                            "Comment": "nbdkit-curl-plugin is earlier than 0:1.16.2-4.module+el8.3.0+6922+fd575af8"
                          },
                          {
                            "Comment": "nbdkit-curl-plugin is signed with Red Hat redhatrelease2 key"
                          }
                        ]
                      },
                      {
                        "Operator": "AND",
                        "Criterias": [

                        ],
                        "Criterions": [
                          {
                            "Comment": "nbdkit-devel is earlier than 0:1.16.2-4.module+el8.3.0+6922+fd575af8"
                          },
                          {
                            "Comment": "nbdkit-devel is signed with Red Hat redhatrelease2 key"
                          }
                        ]
                      },
                      {
                        "Operator": "AND",
                        "Criterias": [

                        ],
                        "Criterions": [
                          {
                            "Comment": "nbdkit-example-plugins is earlier than 0:1.16.2-4.module+el8.3.0+6922+fd575af8"
                          },
                          {
                            "Comment": "nbdkit-example-plugins is signed with Red Hat redhatrelease2 key"
                          }
                        ]
                      },
                      {
                        "Operator": "AND",
                        "Criterias": [

                        ],
                        "Criterions": [
                          {
                            "Comment": "nbdkit-gzip-plugin is earlier than 0:1.16.2-4.module+el8.3.0+6922+fd575af8"
                          },
                          {
                            "Comment": "nbdkit-gzip-plugin is signed with Red Hat redhatrelease2 key"
                          }
                        ]
                      },
                      {
                        "Operator": "AND",
                        "Criterias": [

                        ],
                        "Criterions": [
                          {
                            "Comment": "nbdkit-linuxdisk-plugin is earlier than 0:1.16.2-4.module+el8.3.0+6922+fd575af8"
                          },
                          {
                            "Comment": "nbdkit-linuxdisk-plugin is signed with Red Hat redhatrelease2 key"
                          }
                        ]
                      },
                      {
                        "Operator": "AND",
                        "Criterias": [

                        ],
                        "Criterions": [
                          {
                            "Comment": "nbdkit-python-plugin is earlier than 0:1.16.2-4.module+el8.3.0+6922+fd575af8"
                          },
                          {
                            "Comment": "nbdkit-python-plugin is signed with Red Hat redhatrelease2 key"
                          }
                        ]
                      },
                      {
                        "Operator": "AND",
                        "Criterias": [

                        ],
                        "Criterions": [
                          {
                            "Comment": "nbdkit-server is earlier than 0:1.16.2-4.module+el8.3.0+6922+fd575af8"
                          },
                          {
                            "Comment": "nbdkit-server is signed with Red Hat redhatrelease2 key"
                          }
                        ]
                      },
                      {
                        "Operator": "AND",
                        "Criterias": [

                        ],
                        "Criterions": [
                          {
                            "Comment": "nbdkit-ssh-plugin is earlier than 0:1.16.2-4.module+el8.3.0+6922+fd575af8"
                          },
                          {
                            "Comment": "nbdkit-ssh-plugin is signed with Red Hat redhatrelease2 key"
                          }
                        ]
                      },
                      {
                        "Operator": "AND",
                        "Criterias": [

                        ],
                        "Criterions": [
                          {
                            "Comment": "nbdkit-vddk-plugin is earlier than 0:1.16.2-4.module+el8.3.0+6922+fd575af8"
                          },
                          {
                            "Comment": "nbdkit-vddk-plugin is signed with Red Hat redhatrelease2 key"
                          }
                        ]
                      },
                      {
                        "Operator": "AND",
                        "Criterias": [

                        ],
                        "Criterions": [
                          {
                            "Comment": "nbdkit-xz-filter is earlier than 0:1.16.2-4.module+el8.3.0+6922+fd575af8"
                          },
                          {
                            "Comment": "nbdkit-xz-filter is signed with Red Hat redhatrelease2 key"
                          }
                        ]
                      },
                      {
                        "Operator": "AND",
                        "Criterias": [

                        ],
                        "Criterions": [
                          {
                            "Comment": "netcf is earlier than 0:0.2.8-12.module+el8.1.0+4066+0f1aadab"
                          },
                          {
                            "Comment": "netcf is signed with Red Hat redhatrelease2 key"
                          }
                        ]
                      },
                      {
                        "Operator": "AND",
                        "Criterias": [

                        ],
                        "Criterions": [
                          {
                            "Comment": "netcf-devel is earlier than 0:0.2.8-12.module+el8.1.0+4066+0f1aadab"
                          },
                          {
                            "Comment": "netcf-devel is signed with Red Hat redhatrelease2 key"
                          }
                        ]
                      },
                      {
                        "Operator": "AND",
                        "Criterias": [

                        ],
                        "Criterions": [
                          {
                            "Comment": "netcf-libs is earlier than 0:0.2.8-12.module+el8.1.0+4066+0f1aadab"
                          },
                          {
                            "Comment": "netcf-libs is signed with Red Hat redhatrelease2 key"
                          }
                        ]
                      },
                      {
                        "Operator": "AND",
                        "Criterias": [

                        ],
                        "Criterions": [
                          {
                            "Comment": "perl-Sys-Guestfs is earlier than 1:1.40.2-25.module+el8.3.0+7421+642fe24f"
                          },
                          {
                            "Comment": "perl-Sys-Guestfs is signed with Red Hat redhatrelease2 key"
                          }
                        ]
                      },
                      {
                        "Operator": "AND",
                        "Criterias": [

                        ],
                        "Criterions": [
                          {
                            "Comment": "perl-Sys-Virt is earlier than 0:6.0.0-1.module+el8.3.0+6423+e4cb6418"
                          },
                          {
                            "Comment": "perl-Sys-Virt is signed with Red Hat redhatrelease2 key"
                          }
                        ]
                      },
                      {
                        "Operator": "AND",
                        "Criterias": [

                        ],
                        "Criterions": [
                          {
                            "Comment": "perl-hivex is earlier than 0:1.3.18-20.module+el8.3.0+6423+e4cb6418"
                          },
                          {
                            "Comment": "perl-hivex is signed with Red Hat redhatrelease2 key"
                          }
                        ]
                      },
                      {
                        "Operator": "AND",
                        "Criterias": [

                        ],
                        "Criterions": [
                          {
                            "Comment": "python3-hivex is earlier than 0:1.3.18-20.module+el8.3.0+6423+e4cb6418"
                          },
                          {
                            "Comment": "python3-hivex is signed with Red Hat redhatrelease2 key"
                          }
                        ]
                      },
                      {
                        "Operator": "AND",
                        "Criterias": [

                        ],
                        "Criterions": [
                          {
                            "Comment": "python3-libguestfs is earlier than 1:1.40.2-25.module+el8.3.0+7421+642fe24f"
                          },
                          {
                            "Comment": "python3-libguestfs is signed with Red Hat redhatrelease2 key"
                          }
                        ]
                      },
                      {
                        "Operator": "AND",
                        "Criterias": [

                        ],
                        "Criterions": [
                          {
                            "Comment": "python3-libnbd is earlier than 0:1.2.2-1.module+el8.3.0+7353+9de0a3cc"
                          },
                          {
                            "Comment": "python3-libnbd is signed with Red Hat redhatrelease2 key"
                          }
                        ]
                      },
                      {
                        "Operator": "AND",
                        "Criterias": [

                        ],
                        "Criterions": [
                          {
                            "Comment": "python3-libvirt is earlier than 0:6.0.0-1.module+el8.3.0+6423+e4cb6418"
                          },
                          {
                            "Comment": "python3-libvirt is signed with Red Hat redhatrelease2 key"
                          }
                        ]
                      },
                      {
                        "Operator": "AND",
                        "Criterias": [

                        ],
                        "Criterions": [
                          {
                            "Comment": "qemu-guest-agent is earlier than 15:4.2.0-34.module+el8.3.0+7976+077be4ec"
                          },
                          {
                            "Comment": "qemu-guest-agent is signed with Red Hat redhatrelease2 key"
                          }
                        ]
                      },
                      {
                        "Operator": "AND",
                        "Criterias": [

                        ],
                        "Criterions": [
                          {
                            "Comment": "qemu-img is earlier than 15:4.2.0-34.module+el8.3.0+7976+077be4ec"
                          },
                          {
                            "Comment": "qemu-img is signed with Red Hat redhatrelease2 key"
                          }
                        ]
                      },
                      {
                        "Operator": "AND",
                        "Criterias": [

                        ],
                        "Criterions": [
                          {
                            "Comment": "qemu-kvm is earlier than 15:4.2.0-34.module+el8.3.0+7976+077be4ec"
                          },
                          {
                            "Comment": "qemu-kvm is signed with Red Hat redhatrelease2 key"
                          }
                        ]
                      },
                      {
                        "Operator": "AND",
                        "Criterias": [

                        ],
                        "Criterions": [
                          {
                            "Comment": "qemu-kvm-block-curl is earlier than 15:4.2.0-34.module+el8.3.0+7976+077be4ec"
                          },
                          {
                            "Comment": "qemu-kvm-block-curl is signed with Red Hat redhatrelease2 key"
                          }
                        ]
                      },
                      {
                        "Operator": "AND",
                        "Criterias": [

                        ],
                        "Criterions": [
                          {
                            "Comment": "qemu-kvm-block-gluster is earlier than 15:4.2.0-34.module+el8.3.0+7976+077be4ec"
                          },
                          {
                            "Comment": "qemu-kvm-block-gluster is signed with Red Hat redhatrelease2 key"
                          }
                        ]
                      },
                      {
                        "Operator": "AND",
                        "Criterias": [

                        ],
                        "Criterions": [
                          {
                            "Comment": "qemu-kvm-block-iscsi is earlier than 15:4.2.0-34.module+el8.3.0+7976+077be4ec"
                          },
                          {
                            "Comment": "qemu-kvm-block-iscsi is signed with Red Hat redhatrelease2 key"
                          }
                        ]
                      },
                      {
                        "Operator": "AND",
                        "Criterias": [

                        ],
                        "Criterions": [
                          {
                            "Comment": "qemu-kvm-block-rbd is earlier than 15:4.2.0-34.module+el8.3.0+7976+077be4ec"
                          },
                          {
                            "Comment": "qemu-kvm-block-rbd is signed with Red Hat redhatrelease2 key"
                          }
                        ]
                      },
                      {
                        "Operator": "AND",
                        "Criterias": [

                        ],
                        "Criterions": [
                          {
                            "Comment": "qemu-kvm-block-ssh is earlier than 15:4.2.0-34.module+el8.3.0+7976+077be4ec"
                          },
                          {
                            "Comment": "qemu-kvm-block-ssh is signed with Red Hat redhatrelease2 key"
                          }
                        ]
                      },
                      {
                        "Operator": "AND",
                        "Criterias": [

                        ],
                        "Criterions": [
                          {
                            "Comment": "qemu-kvm-common is earlier than 15:4.2.0-34.module+el8.3.0+7976+077be4ec"
                          },
                          {
                            "Comment": "qemu-kvm-common is signed with Red Hat redhatrelease2 key"
                          }
                        ]
                      },
                      {
                        "Operator": "AND",
                        "Criterias": [

                        ],
                        "Criterions": [
                          {
                            "Comment": "qemu-kvm-core is earlier than 15:4.2.0-34.module+el8.3.0+7976+077be4ec"
                          },
                          {
                            "Comment": "qemu-kvm-core is signed with Red Hat redhatrelease2 key"
                          }
                        ]
                      },
                      {
                        "Operator": "AND",
                        "Criterias": [

                        ],
                        "Criterions": [
                          {
                            "Comment": "ruby-hivex is earlier than 0:1.3.18-20.module+el8.3.0+6423+e4cb6418"
                          },
                          {
                            "Comment": "ruby-hivex is signed with Red Hat redhatrelease2 key"
                          }
                        ]
                      },
                      {
                        "Operator": "AND",
                        "Criterias": [

                        ],
                        "Criterions": [
                          {
                            "Comment": "ruby-libguestfs is earlier than 1:1.40.2-25.module+el8.3.0+7421+642fe24f"
                          },
                          {
                            "Comment": "ruby-libguestfs is signed with Red Hat redhatrelease2 key"
                          }
                        ]
                      },
                      {
                        "Operator": "AND",
                        "Criterias": [

                        ],
                        "Criterions": [
                          {
                            "Comment": "seabios is earlier than 0:1.13.0-2.module+el8.3.0+7353+9de0a3cc"
                          },
                          {
                            "Comment": "seabios is signed with Red Hat redhatrelease2 key"
                          }
                        ]
                      },
                      {
                        "Operator": "AND",
                        "Criterias": [

                        ],
                        "Criterions": [
                          {
                            "Comment": "seabios-bin is earlier than 0:1.13.0-2.module+el8.3.0+7353+9de0a3cc"
                          },
                          {
                            "Comment": "seabios-bin is signed with Red Hat redhatrelease2 key"
                          }
                        ]
                      },
                      {
                        "Operator": "AND",
                        "Criterias": [

                        ],
                        "Criterions": [
                          {
                            "Comment": "seavgabios-bin is earlier than 0:1.13.0-2.module+el8.3.0+7353+9de0a3cc"
                          },
                          {
                            "Comment": "seavgabios-bin is signed with Red Hat redhatrelease2 key"
                          }
                        ]
                      },
                      {
                        "Operator": "AND",
                        "Criterias": [

                        ],
                        "Criterions": [
                          {
                            "Comment": "sgabios is earlier than 1:0.20170427git-3.module+el8.1.0+4066+0f1aadab"
                          },
                          {
                            "Comment": "sgabios is signed with Red Hat redhatrelease2 key"
                          }
                        ]
                      },
                      {
                        "Operator": "AND",
                        "Criterias": [

                        ],
                        "Criterions": [
                          {
                            "Comment": "sgabios-bin is earlier than 1:0.20170427git-3.module+el8.1.0+4066+0f1aadab"
                          },
                          {
                            "Comment": "sgabios-bin is signed with Red Hat redhatrelease2 key"
                          }
                        ]
                      },
                      {
                        "Operator": "AND",
                        "Criterias": [

                        ],
                        "Criterions": [
                          {
                            "Comment": "supermin is earlier than 0:5.1.19-10.module+el8.3.0+6423+e4cb6418"
                          },
                          {
                            "Comment": "supermin is signed with Red Hat redhatrelease2 key"
                          }
                        ]
                      },
                      {
                        "Operator": "AND",
                        "Criterias": [

                        ],
                        "Criterions": [
                          {
                            "Comment": "supermin-devel is earlier than 0:5.1.19-10.module+el8.3.0+6423+e4cb6418"
                          },
                          {
                            "Comment": "supermin-devel is signed with Red Hat redhatrelease2 key"
                          }
                        ]
                      },
                      {
                        "Operator": "AND",
                        "Criterias": [

                        ],
                        "Criterions": [
                          {
                            "Comment": "virt-dib is earlier than 1:1.40.2-25.module+el8.3.0+7421+642fe24f"
                          },
                          {
                            "Comment": "virt-dib is signed with Red Hat redhatrelease2 key"
                          }
                        ]
                      },
                      {
                        "Operator": "AND",
                        "Criterias": [

                        ],
                        "Criterions": [
                          {
                            "Comment": "virt-v2v is earlier than 1:1.40.2-25.module+el8.3.0+7421+642fe24f"
                          },
                          {
                            "Comment": "virt-v2v is signed with Red Hat redhatrelease2 key"
                          }
                        ]
                      }
                    ],
                    "Criterions": [

                    ]
                  }
                ],
                "Criterions": [
                  {
                    "Comment": "Module virt:rhel is enabled"
                  }
                ]
              },
              {
                "Operator": "AND",
                "Criterias": [
                  {
                    "Operator": "OR",
                    "Criterias": [
                      {
                        "Operator": "AND",
                        "Criterias": [

                        ],
                        "Criterions": [
                          {
                            "Comment": "hivex is earlier than 0:1.3.18-20.module+el8.3.0+6423+e4cb6418"
                          },
                          {
                            "Comment": "hivex is signed with Red Hat redhatrelease2 key"
                          }
                        ]
                      },
                      {
                        "Operator": "AND",
                        "Criterias": [

                        ],
                        "Criterions": [
                          {
                            "Comment": "hivex-devel is earlier than 0:1.3.18-20.module+el8.3.0+6423+e4cb6418"
                          },
                          {
                            "Comment": "hivex-devel is signed with Red Hat redhatrelease2 key"
                          }
                        ]
                      },
                      {
                        "Operator": "AND",
                        "Criterias": [

                        ],
                        "Criterions": [
                          {
                            "Comment": "libguestfs-winsupport is earlier than 0:8.2-1.module+el8.3.0+6423+e4cb6418"
                          },
                          {
                            "Comment": "libguestfs-winsupport is signed with Red Hat redhatrelease2 key"
                          }
                        ]
                      },
                      {
                        "Operator": "AND",
                        "Criterias": [

                        ],
                        "Criterions": [
                          {
                            "Comment": "libiscsi is earlier than 0:1.18.0-8.module+el8.1.0+4066+0f1aadab"
                          },
                          {
                            "Comment": "libiscsi is signed with Red Hat redhatrelease2 key"
                          }
                        ]
                      },
                      {
                        "Operator": "AND",
                        "Criterias": [

                        ],
                        "Criterions": [
                          {
                            "Comment": "libiscsi-devel is earlier than 0:1.18.0-8.module+el8.1.0+4066+0f1aadab"
                          },
                          {
                            "Comment": "libiscsi-devel is signed with Red Hat redhatrelease2 key"
                          }
                        ]
                      },
                      {
                        "Operator": "AND",
                        "Criterias": [

                        ],
                        "Criterions": [
                          {
                            "Comment": "libiscsi-utils is earlier than 0:1.18.0-8.module+el8.1.0+4066+0f1aadab"
                          },
                          {
                            "Comment": "libiscsi-utils is signed with Red Hat redhatrelease2 key"
                          }
                        ]
                      },
                      {
                        "Operator": "AND",
                        "Criterias": [

                        ],
                        "Criterions": [
                          {
                            "Comment": "libnbd is earlier than 0:1.2.2-1.module+el8.3.0+7353+9de0a3cc"
                          },
                          {
                            "Comment": "libnbd is signed with Red Hat redhatrelease2 key"
                          }
                        ]
                      },
                      {
                        "Operator": "AND",
                        "Criterias": [

                        ],
                        "Criterions": [
                          {
                            "Comment": "libnbd-devel is earlier than 0:1.2.2-1.module+el8.3.0+7353+9de0a3cc"
                          },
                          {
                            "Comment": "libnbd-devel is signed with Red Hat redhatrelease2 key"
                          }
                        ]
                      },
                      {
                        "Operator": "AND",
                        "Criterias": [

                        ],
                        "Criterions": [
                          {
                            "Comment": "libvirt is earlier than 0:6.0.0-28.module+el8.3.0+7827+5e65edd7"
                          },
                          {
                            "Comment": "libvirt is signed with Red Hat redhatrelease2 key"
                          }
                        ]
                      },
                      {
                        "Operator": "AND",
                        "Criterias": [

                        ],
                        "Criterions": [
                          {
                            "Comment": "libvirt-admin is earlier than 0:6.0.0-28.module+el8.3.0+7827+5e65edd7"
                          },
                          {
                            "Comment": "libvirt-admin is signed with Red Hat redhatrelease2 key"
                          }
                        ]
                      },
                      {
                        "Operator": "AND",
                        "Criterias": [

                        ],
                        "Criterions": [
                          {
                            "Comment": "libvirt-bash-completion is earlier than 0:6.0.0-28.module+el8.3.0+7827+5e65edd7"
                          },
                          {
                            "Comment": "libvirt-bash-completion is signed with Red Hat redhatrelease2 key"
                          }
                        ]
                      },
                      {
                        "Operator": "AND",
                        "Criterias": [

                        ],
                        "Criterions": [
                          {
                            "Comment": "libvirt-client is earlier than 0:6.0.0-28.module+el8.3.0+7827+5e65edd7"
                          },
                          {
                            "Comment": "libvirt-client is signed with Red Hat redhatrelease2 key"
                          }
                        ]
                      },
                      {
                        "Operator": "AND",
                        "Criterias": [

                        ],
                        "Criterions": [
                          {
                            "Comment": "libvirt-daemon is earlier than 0:6.0.0-28.module+el8.3.0+7827+5e65edd7"
                          },
                          {
                            "Comment": "libvirt-daemon is signed with Red Hat redhatrelease2 key"
                          }
                        ]
                      },
                      {
                        "Operator": "AND",
                        "Criterias": [

                        ],
                        "Criterions": [
                          {
                            "Comment": "libvirt-daemon-config-network is earlier than 0:6.0.0-28.module+el8.3.0+7827+5e65edd7"
                          },
                          {
                            "Comment": "libvirt-daemon-config-network is signed with Red Hat redhatrelease2 key"
                          }
                        ]
                      },
                      {
                        "Operator": "AND",
                        "Criterias": [

                        ],
                        "Criterions": [
                          {
                            "Comment": "libvirt-daemon-config-nwfilter is earlier than 0:6.0.0-28.module+el8.3.0+7827+5e65edd7"
                          },
                          {
                            "Comment": "libvirt-daemon-config-nwfilter is signed with Red Hat redhatrelease2 key"
                          }
                        ]
                      },
                      {
                        "Operator": "AND",
                        "Criterias": [

                        ],
                        "Criterions": [
                          {
                            "Comment": "libvirt-daemon-driver-interface is earlier than 0:6.0.0-28.module+el8.3.0+7827+5e65edd7"
                          },
                          {
                            "Comment": "libvirt-daemon-driver-interface is signed with Red Hat redhatrelease2 key"
                          }
                        ]
                      },
                      {
                        "Operator": "AND",
                        "Criterias": [

                        ],
                        "Criterions": [
                          {
                            "Comment": "libvirt-daemon-driver-network is earlier than 0:6.0.0-28.module+el8.3.0+7827+5e65edd7"
                          },
                          {
                            "Comment": "libvirt-daemon-driver-network is signed with Red Hat redhatrelease2 key"
                          }
                        ]
                      },
                      {
                        "Operator": "AND",
                        "Criterias": [

                        ],
                        "Criterions": [
                          {
                            "Comment": "libvirt-daemon-driver-nodedev is earlier than 0:6.0.0-28.module+el8.3.0+7827+5e65edd7"
                          },
                          {
                            "Comment": "libvirt-daemon-driver-nodedev is signed with Red Hat redhatrelease2 key"
                          }
                        ]
                      },
                      {
                        "Operator": "AND",
                        "Criterias": [

                        ],
                        "Criterions": [
                          {
                            "Comment": "libvirt-daemon-driver-nwfilter is earlier than 0:6.0.0-28.module+el8.3.0+7827+5e65edd7"
                          },
                          {
                            "Comment": "libvirt-daemon-driver-nwfilter is signed with Red Hat redhatrelease2 key"
                          }
                        ]
                      },
                      {
                        "Operator": "AND",
                        "Criterias": [

                        ],
                        "Criterions": [
                          {
                            "Comment": "libvirt-daemon-driver-secret is earlier than 0:6.0.0-28.module+el8.3.0+7827+5e65edd7"
                          },
                          {
                            "Comment": "libvirt-daemon-driver-secret is signed with Red Hat redhatrelease2 key"
                          }
                        ]
                      },
                      {
                        "Operator": "AND",
                        "Criterias": [

                        ],
                        "Criterions": [
                          {
                            "Comment": "libvirt-daemon-driver-storage is earlier than 0:6.0.0-28.module+el8.3.0+7827+5e65edd7"
                          },
                          {
                            "Comment": "libvirt-daemon-driver-storage is signed with Red Hat redhatrelease2 key"
                          }
                        ]
                      },
                      {
                        "Operator": "AND",
                        "Criterias": [

                        ],
                        "Criterions": [
                          {
                            "Comment": "libvirt-daemon-driver-storage-core is earlier than 0:6.0.0-28.module+el8.3.0+7827+5e65edd7"
                          },
                          {
                            "Comment": "libvirt-daemon-driver-storage-core is signed with Red Hat redhatrelease2 key"
                          }
                        ]
                      },
                      {
                        "Operator": "AND",
                        "Criterias": [

                        ],
                        "Criterions": [
                          {
                            "Comment": "libvirt-daemon-driver-storage-disk is earlier than 0:6.0.0-28.module+el8.3.0+7827+5e65edd7"
                          },
                          {
                            "Comment": "libvirt-daemon-driver-storage-disk is signed with Red Hat redhatrelease2 key"
                          }
                        ]
                      },
                      {
                        "Operator": "AND",
                        "Criterias": [

                        ],
                        "Criterions": [
                          {
                            "Comment": "libvirt-daemon-driver-storage-iscsi is earlier than 0:6.0.0-28.module+el8.3.0+7827+5e65edd7"
                          },
                          {
                            "Comment": "libvirt-daemon-driver-storage-iscsi is signed with Red Hat redhatrelease2 key"
                          }
                        ]
                      },
                      {
                        "Operator": "AND",
                        "Criterias": [

                        ],
                        "Criterions": [
                          {
                            "Comment": "libvirt-daemon-driver-storage-iscsi-direct is earlier than 0:6.0.0-28.module+el8.3.0+7827+5e65edd7"
                          },
                          {
                            "Comment": "libvirt-daemon-driver-storage-iscsi-direct is signed with Red Hat redhatrelease2 key"
                          }
                        ]
                      },
                      {
                        "Operator": "AND",
                        "Criterias": [

                        ],
                        "Criterions": [
                          {
                            "Comment": "libvirt-daemon-driver-storage-logical is earlier than 0:6.0.0-28.module+el8.3.0+7827+5e65edd7"
                          },
                          {
                            "Comment": "libvirt-daemon-driver-storage-logical is signed with Red Hat redhatrelease2 key"
                          }
                        ]
                      },
                      {
                        "Operator": "AND",
                        "Criterias": [

                        ],
                        "Criterions": [
                          {
                            "Comment": "libvirt-daemon-driver-storage-mpath is earlier than 0:6.0.0-28.module+el8.3.0+7827+5e65edd7"
                          },
                          {
                            "Comment": "libvirt-daemon-driver-storage-mpath is signed with Red Hat redhatrelease2 key"
                          }
                        ]
                      },
                      {
                        "Operator": "AND",
                        "Criterias": [

                        ],
                        "Criterions": [
                          {
                            "Comment": "libvirt-daemon-driver-storage-rbd is earlier than 0:6.0.0-28.module+el8.3.0+7827+5e65edd7"
                          },
                          {
                            "Comment": "libvirt-daemon-driver-storage-rbd is signed with Red Hat redhatrelease2 key"
                          }
                        ]
                      },
                      {
                        "Operator": "AND",
                        "Criterias": [

                        ],
                        "Criterions": [
                          {
                            "Comment": "libvirt-daemon-driver-storage-scsi is earlier than 0:6.0.0-28.module+el8.3.0+7827+5e65edd7"
                          },
                          {
                            "Comment": "libvirt-daemon-driver-storage-scsi is signed with Red Hat redhatrelease2 key"
                          }
                        ]
                      },
                      {
                        "Operator": "AND",
                        "Criterias": [

                        ],
                        "Criterions": [
                          {
                            "Comment": "libvirt-dbus is earlier than 0:1.3.0-2.module+el8.3.0+6423+e4cb6418"
                          },
                          {
                            "Comment": "libvirt-dbus is signed with Red Hat redhatrelease2 key"
                          }
                        ]
                      },
                      {
                        "Operator": "AND",
                        "Criterias": [

                        ],
                        "Criterions": [
                          {
                            "Comment": "libvirt-devel is earlier than 0:6.0.0-28.module+el8.3.0+7827+5e65edd7"
                          },
                          {
                            "Comment": "libvirt-devel is signed with Red Hat redhatrelease2 key"
                          }
                        ]
                      },
                      {
                        "Operator": "AND",
                        "Criterias": [

                        ],
                        "Criterions": [
                          {
                            "Comment": "libvirt-docs is earlier than 0:6.0.0-28.module+el8.3.0+7827+5e65edd7"
                          },
                          {
                            "Comment": "libvirt-docs is signed with Red Hat redhatrelease2 key"
                          }
                        ]
                      },
                      {
                        "Operator": "AND",
                        "Criterias": [

                        ],
                        "Criterions": [
                          {
                            "Comment": "libvirt-libs is earlier than 0:6.0.0-28.module+el8.3.0+7827+5e65edd7"
                          },
                          {
                            "Comment": "libvirt-libs is signed with Red Hat redhatrelease2 key"
                          }
                        ]
                      },
                      {
                        "Operator": "AND",
                        "Criterias": [

                        ],
                        "Criterions": [
                          {
                            "Comment": "libvirt-nss is earlier than 0:6.0.0-28.module+el8.3.0+7827+5e65edd7"
                          },
                          {
                            "Comment": "libvirt-nss is signed with Red Hat redhatrelease2 key"
                          }
                        ]
                      },
                      {
                        "Operator": "AND",
                        "Criterias": [

                        ],
                        "Criterions": [
                          {
                            "Comment": "nbdfuse is earlier than 0:1.2.2-1.module+el8.3.0+7353+9de0a3cc"
                          },
                          {
                            "Comment": "nbdfuse is signed with Red Hat redhatrelease2 key"
                          }
                        ]
                      },
                      {
                        "Operator": "AND",
                        "Criterias": [

                        ],
                        "Criterions": [
                          {
                            "Comment": "netcf is earlier than 0:0.2.8-12.module+el8.1.0+4066+0f1aadab"
                          },
                          {
                            "Comment": "netcf is signed with Red Hat redhatrelease2 key"
                          }
                        ]
                      },
                      {
                        "Operator": "AND",
                        "Criterias": [

                        ],
                        "Criterions": [
                          {
                            "Comment": "netcf-devel is earlier than 0:0.2.8-12.module+el8.1.0+4066+0f1aadab"
                          },
                          {
                            "Comment": "netcf-devel is signed with Red Hat redhatrelease2 key"
                          }
                        ]
                      },
                      {
                        "Operator": "AND",
                        "Criterias": [

                        ],
                        "Criterions": [
                          {
                            "Comment": "netcf-libs is earlier than 0:0.2.8-12.module+el8.1.0+4066+0f1aadab"
                          },
                          {
                            "Comment": "netcf-libs is signed with Red Hat redhatrelease2 key"
                          }
                        ]
                      },
                      {
                        "Operator": "AND",
                        "Criterias": [

                        ],
                        "Criterions": [
                          {
                            "Comment": "ocaml-hivex is earlier than 0:1.3.18-20.module+el8.3.0+6423+e4cb6418"
                          },
                          {
                            "Comment": "ocaml-hivex is signed with Red Hat redhatrelease2 key"
                          }
                        ]
                      },
                      {
                        "Operator": "AND",
                        "Criterias": [

                        ],
                        "Criterions": [
                          {
                            "Comment": "ocaml-hivex-devel is earlier than 0:1.3.18-20.module+el8.3.0+6423+e4cb6418"
                          },
                          {
                            "Comment": "ocaml-hivex-devel is signed with Red Hat redhatrelease2 key"
                          }
                        ]
                      },
                      {
                        "Operator": "AND",
                        "Criterias": [

                        ],
                        "Criterions": [
                          {
                            "Comment": "ocaml-libguestfs is earlier than 1:1.40.2-25.module+el8.3.0+7421+642fe24f"
                          },
                          {
                            "Comment": "ocaml-libguestfs is signed with Red Hat redhatrelease2 key"
                          }
                        ]
                      },
                      {
                        "Operator": "AND",
                        "Criterias": [

                        ],
                        "Criterions": [
                          {
                            "Comment": "ocaml-libguestfs-devel is earlier than 1:1.40.2-25.module+el8.3.0+7421+642fe24f"
                          },
                          {
                            "Comment": "ocaml-libguestfs-devel is signed with Red Hat redhatrelease2 key"
                          }
                        ]
                      },
                      {
                        "Operator": "AND",
                        "Criterias": [

                        ],
                        "Criterions": [
                          {
                            "Comment": "ocaml-libnbd is earlier than 0:1.2.2-1.module+el8.3.0+7353+9de0a3cc"
                          },
                          {
                            "Comment": "ocaml-libnbd is signed with Red Hat redhatrelease2 key"
                          }
                        ]
                      },
                      {
                        "Operator": "AND",
                        "Criterias": [

                        ],
                        "Criterions": [
                          {
                            "Comment": "ocaml-libnbd-devel is earlier than 0:1.2.2-1.module+el8.3.0+7353+9de0a3cc"
                          },
                          {
                            "Comment": "ocaml-libnbd-devel is signed with Red Hat redhatrelease2 key"
                          }
                        ]
                      },
                      {
                        "Operator": "AND",
                        "Criterias": [

                        ],
                        "Criterions": [
                          {
                            "Comment": "perl-Sys-Virt is earlier than 0:6.0.0-1.module+el8.3.0+6423+e4cb6418"
                          },
                          {
                            "Comment": "perl-Sys-Virt is signed with Red Hat redhatrelease2 key"
                          }
                        ]
                      },
                      {
                        "Operator": "AND",
                        "Criterias": [

                        ],
                        "Criterions": [
                          {
                            "Comment": "perl-hivex is earlier than 0:1.3.18-20.module+el8.3.0+6423+e4cb6418"
                          },
                          {
                            "Comment": "perl-hivex is signed with Red Hat redhatrelease2 key"
                          }
                        ]
                      },
                      {
                        "Operator": "AND",
                        "Criterias": [

                        ],
                        "Criterions": [
                          {
                            "Comment": "python3-hivex is earlier than 0:1.3.18-20.module+el8.3.0+6423+e4cb6418"
                          },
                          {
                            "Comment": "python3-hivex is signed with Red Hat redhatrelease2 key"
                          }
                        ]
                      },
                      {
                        "Operator": "AND",
                        "Criterias": [

                        ],
                        "Criterions": [
                          {
                            "Comment": "python3-libnbd is earlier than 0:1.2.2-1.module+el8.3.0+7353+9de0a3cc"
                          },
                          {
                            "Comment": "python3-libnbd is signed with Red Hat redhatrelease2 key"
                          }
                        ]
                      },
                      {
                        "Operator": "AND",
                        "Criterias": [

                        ],
                        "Criterions": [
                          {
                            "Comment": "python3-libvirt is earlier than 0:6.0.0-1.module+el8.3.0+6423+e4cb6418"
                          },
                          {
                            "Comment": "python3-libvirt is signed with Red Hat redhatrelease2 key"
                          }
                        ]
                      },
                      {
                        "Operator": "AND",
                        "Criterias": [

                        ],
                        "Criterions": [
                          {
                            "Comment": "qemu-kvm-tests is earlier than 15:4.2.0-34.module+el8.3.0+7976+077be4ec"
                          },
                          {
                            "Comment": "qemu-kvm-tests is signed with Red Hat redhatrelease2 key"
                          }
                        ]
                      },
                      {
                        "Operator": "AND",
                        "Criterias": [

                        ],
                        "Criterions": [
                          {
                            "Comment": "ruby-hivex is earlier than 0:1.3.18-20.module+el8.3.0+6423+e4cb6418"
                          },
                          {
                            "Comment": "ruby-hivex is signed with Red Hat redhatrelease2 key"
                          }
                        ]
                      },
                      {
                        "Operator": "AND",
                        "Criterias": [

                        ],
                        "Criterions": [
                          {
                            "Comment": "sgabios is earlier than 1:0.20170427git-3.module+el8.1.0+4066+0f1aadab"
                          },
                          {
                            "Comment": "sgabios is signed with Red Hat redhatrelease2 key"
                          }
                        ]
                      }
                    ],
                    "Criterions": [

                    ]
                  }
                ],
                "Criterions": [
                  {
                    "Comment": "Module virt-devel:rhel is enabled"
                  }
                ]
              }
            ],
            "Criterions": [

            ]
          }
        ],
        "Criterions": [

        ]
      }
    ],
    "Criterions": [
      {
        "Comment": "Oracle Linux 8 is installed"
      }
    ]
  },
  "Severity": "Moderate",
  "Cves": [
    {
      "Impact": "",
      "Href": "",
      "ID": "CVE-2019-15890"
    },
    {
      "Impact": "",
      "Href": "",
      "ID": "CVE-2019-20485"
    },
    {
      "Impact": "",
      "Href": "",
      "ID": "CVE-2020-10703"
    },
    {
      "Impact": "",
      "Href": "",
      "ID": "CVE-2020-14301"
    },
    {
      "Impact": "",
      "Href": "",
      "ID": "CVE-2020-14339"
    },
    {
      "Impact": "",
      "Href": "",
      "ID": "CVE-2020-1983"
    }
  ],
  "Issued": {
    "Date": "2020-11-04"
  }
}