{
  "Title": "RHSA-2020:1429: firefox security update (Important)",
  "Description": "Mozilla Firefox is an open-source web browser, designed for standards compliance, performance, and portability.\nThis update upgrades Firefox to version 68.7.0 ESR.\nSecurity Fix(es):\n* Mozilla: Uninitialized memory could be read when using the WebGL copyTexSubImage method (CVE-2020-6821)\n* Mozilla: Memory safety bugs fixed in Firefox 75 and Firefox ESR 68.7 (CVE-2020-6825)\n* Mozilla: Out of bounds write in GMPDecodeData when processing large images (CVE-2020-6822)\nFor more details about the security issue(s), including the impact, a CVSS score, acknowledgments, and other related information, refer to the CVE page(s) listed in the References section.",
  "Platform": [
    "Red Hat Enterprise Linux 6"
  ],
  "References": [
    {
      "Source": "RHSA",
      "URI": "https://access.redhat.com/errata/RHSA-2020:1429",
      "ID": "RHSA-2020:1429"
    },
    {
      "Source": "CVE",
      "URI": "https://access.redhat.com/security/cve/CVE-2020-6821",
      "ID": "CVE-2020-6821"
    },
    {
      "Source": "CVE",
      "URI": "https://access.redhat.com/security/cve/CVE-2020-6822",
      "ID": "CVE-2020-6822"
    },
    {
      "Source": "CVE",
      "URI": "https://access.redhat.com/security/cve/CVE-2020-6825",
      "ID": "CVE-2020-6825"
    }
  ],
  "Criteria": {
    "Operator": "OR",
    "Criterias": [
      {
        "Operator": "AND",
        "Criterias": [

        ],
        "Criterions": [
          {
            "Comment": "Oracle Linux 6 is installed"
          },
          {
            "Comment": "firefox is earlier than 0:68.7.0-2.el6_10"
          },
          {
            "Comment": "firefox is signed with Red Hat redhatrelease2 key"
          }
        ]
      }
    ],
    "Criterions": [
      {
        "Comment": "Oracle Linux 6 is installed"
      }
    ]
  },
  "Severity": "Important",
  "Cves": [
    {
      "Impact": "",
      "Href": "",
      "ID": "CVE-2020-6821"
    },
    {
      "Impact": "",
      "Href": "",
      "ID": "CVE-2020-6822"
    },
    {
      "Impact": "",
      "Href": "",
      "ID": "CVE-2020-6825"
    }
  ],
  "Issued": {
    "Date": "2020-04-14"
  }
}