{
  "Title": "RHSA-2020:4483: opensc security, bug fix, and enhancement update (Moderate)",
  "Description": "The OpenSC set of libraries and utilities provides support for working with smart cards. OpenSC focuses on cards that support cryptographic operations and enables their use for authentication, mail encryption, or digital signatures.\nThe following packages have been upgraded to a later upstream version: opensc (0.20.0). (BZ#1810660)\nSecurity Fix(es):\n* opensc: Out-of-bounds access of an ASN.1 Bitstring in decode_bit_string in libopensc/asn1.c (CVE-2019-15945)\n* opensc: Out-of-bounds access of an ASN.1 Octet string in asn1_decode_entry in libopensc/asn1.c (CVE-2019-15946)\n* opensc: Improper handling of buffer limits for CAC certificates (CVE-2019-19481)\n* opensc: Double free in coolkey_free_private_data in libopensc/card-coolkey.c (CVE-2019-20792)\n* opensc: Incorrect read operation during parsing of a SETCOS file attribute (CVE-2019-19479)\nFor more details about the security issue(s), including the impact, a CVSS score, acknowledgments, and other related information, refer to the CVE page(s) listed in the References section.\nAdditional Changes:\nFor detailed information on changes in this release, see the Red Hat Enterprise Linux 8.3 Release Notes linked from the References section.",
  "Platform": [
    "Red Hat Enterprise Linux 8"
  ],
  "References": [
    {
      "Source": "RHSA",
      "URI": "https://access.redhat.com/errata/RHSA-2020:4483",
      "ID": "RHSA-2020:4483"
    },
    {
      "Source": "CVE",
      "URI": "https://access.redhat.com/security/cve/CVE-2019-15945",
      "ID": "CVE-2019-15945"
    },
    {
      "Source": "CVE",
      "URI": "https://access.redhat.com/security/cve/CVE-2019-15946",
      "ID": "CVE-2019-15946"
    },
    {
      "Source": "CVE",
      "URI": "https://access.redhat.com/security/cve/CVE-2019-19479",
      "ID": "CVE-2019-19479"
    },
    {
      "Source": "CVE",
      "URI": "https://access.redhat.com/security/cve/CVE-2019-19481",
      "ID": "CVE-2019-19481"
    },
    {
      "Source": "CVE",
      "URI": "https://access.redhat.com/security/cve/CVE-2019-20792",
      "ID": "CVE-2019-20792"
    }
  ],
  "Criteria": {
    "Operator": "OR",
    "Criterias": [
      {
        "Operator": "AND",
        "Criterias": [
          {
            "Operator": "OR",
            "Criterias": [

            ],
            "Criterions": [
              {
                "Comment": "Oracle Linux 8 is installed"
              },
              {
                "Comment": "Red Hat CoreOS 4 is installed"
              }
            ]
          }
        ],
        "Criterions": [
          {
            "Comment": "opensc is earlier than 0:0.20.0-2.el8"
          },
          {
            "Comment": "opensc is signed with Red Hat redhatrelease2 key"
          }
        ]
      }
    ],
    "Criterions": [
      {
        "Comment": "Oracle Linux 8 is installed"
      }
    ]
  },
  "Severity": "Moderate",
  "Cves": [
    {
      "Impact": "",
      "Href": "",
      "ID": "CVE-2019-15945"
    },
    {
      "Impact": "",
      "Href": "",
      "ID": "CVE-2019-15946"
    },
    {
      "Impact": "",
      "Href": "",
      "ID": "CVE-2019-19479"
    },
    {
      "Impact": "",
      "Href": "",
      "ID": "CVE-2019-19481"
    },
    {
      "Impact": "",
      "Href": "",
      "ID": "CVE-2019-20792"
    }
  ],
  "Issued": {
    "Date": "2020-11-04"
  }
}