{
  "Title": "RHSA-2020:3878: dnsmasq security and bug fix update (Low)",
  "Description": "The dnsmasq packages contain Dnsmasq, a lightweight DNS (Domain Name Server) forwarder and DHCP (Dynamic Host Configuration Protocol) server.\nSecurity Fix(es):\n* dnsmasq: memory leak in the create_helper() function in /src/helper.c (CVE-2019-14834)\nFor more details about the security issue(s), including the impact, a CVSS score, acknowledgments, and other related information, refer to the CVE page(s) listed in the References section.\nAdditional Changes:\nFor detailed information on changes in this release, see the Red Hat Enterprise Linux 7.9 Release Notes linked from the References section.",
  "Platform": [
    "Red Hat Enterprise Linux 7"
  ],
  "References": [
    {
      "Source": "RHSA",
      "URI": "https://access.redhat.com/errata/RHSA-2020:3878",
      "ID": "RHSA-2020:3878"
    },
    {
      "Source": "CVE",
      "URI": "https://access.redhat.com/security/cve/CVE-2019-14834",
      "ID": "CVE-2019-14834"
    }
  ],
  "Criteria": {
    "Operator": "OR",
    "Criterias": [
      {
        "Operator": "AND",
        "Criterias": [
          {
            "Operator": "OR",
            "Criterias": [
              {
                "Operator": "AND",
                "Criterias": [

                ],
                "Criterions": [
                  {
                    "Comment": "dnsmasq is earlier than 0:2.76-16.el7"
                  },
                  {
                    "Comment": "dnsmasq is signed with Red Hat redhatrelease2 key"
                  }
                ]
              },
              {
                "Operator": "AND",
                "Criterias": [

                ],
                "Criterions": [
                  {
                    "Comment": "dnsmasq-utils is earlier than 0:2.76-16.el7"
                  },
                  {
                    "Comment": "dnsmasq-utils is signed with Red Hat redhatrelease2 key"
                  }
                ]
              }
            ],
            "Criterions": [

            ]
          }
        ],
        "Criterions": [
          {
            "Comment": "Oracle Linux 7 is installed"
          }
        ]
      }
    ],
    "Criterions": [
      {
        "Comment": "Oracle Linux 7 is installed"
      }
    ]
  },
  "Severity": "Low",
  "Cves": [
    {
      "Impact": "",
      "Href": "",
      "ID": "CVE-2019-14834"
    }
  ],
  "Issued": {
    "Date": "2020-09-29"
  }
}