{
  "Title": "RHSA-2020:5495: nginx:1.16 security update (Moderate)",
  "Description": "nginx is a web and proxy server supporting HTTP and other protocols, with a focus on high concurrency, performance, and low memory usage. \nSecurity Fix(es):\n* nginx: HTTP request smuggling in configurations with URL redirect used as error_page (CVE-2019-20372)\nFor more details about the security issue(s), including the impact, a CVSS score, acknowledgments, and other related information, refer to the CVE page(s) listed in the References section.",
  "Platform": [
    "Red Hat Enterprise Linux 8"
  ],
  "References": [
    {
      "Source": "RHSA",
      "URI": "https://access.redhat.com/errata/RHSA-2020:5495",
      "ID": "RHSA-2020:5495"
    },
    {
      "Source": "CVE",
      "URI": "https://access.redhat.com/security/cve/CVE-2019-20372",
      "ID": "CVE-2019-20372"
    }
  ],
  "Criteria": {
    "Operator": "OR",
    "Criterias": [
      {
        "Operator": "AND",
        "Criterias": [
          {
            "Operator": "OR",
            "Criterias": [

            ],
            "Criterions": [
              {
                "Comment": "Oracle Linux 8 is installed"
              },
              {
                "Comment": "Red Hat CoreOS 4 is installed"
              }
            ]
          },
          {
            "Operator": "OR",
            "Criterias": [
              {
                "Operator": "AND",
                "Criterias": [
                  {
                    "Operator": "OR",
                    "Criterias": [
                      {
                        "Operator": "AND",
                        "Criterias": [

                        ],
                        "Criterions": [
                          {
                            "Comment": "nginx is earlier than 1:1.16.1-1.module+el8.3.0+8844+e5e7039f.1"
                          },
                          {
                            "Comment": "nginx is signed with Red Hat redhatrelease2 key"
                          }
                        ]
                      },
                      {
                        "Operator": "AND",
                        "Criterias": [

                        ],
                        "Criterions": [
                          {
                            "Comment": "nginx-all-modules is earlier than 1:1.16.1-1.module+el8.3.0+8844+e5e7039f.1"
                          },
                          {
                            "Comment": "nginx-all-modules is signed with Red Hat redhatrelease2 key"
                          }
                        ]
                      },
                      {
                        "Operator": "AND",
                        "Criterias": [

                        ],
                        "Criterions": [
                          {
                            "Comment": "nginx-filesystem is earlier than 1:1.16.1-1.module+el8.3.0+8844+e5e7039f.1"
                          },
                          {
                            "Comment": "nginx-filesystem is signed with Red Hat redhatrelease2 key"
                          }
                        ]
                      },
                      {
                        "Operator": "AND",
                        "Criterias": [

                        ],
                        "Criterions": [
                          {
                            "Comment": "nginx-mod-http-image-filter is earlier than 1:1.16.1-1.module+el8.3.0+8844+e5e7039f.1"
                          },
                          {
                            "Comment": "nginx-mod-http-image-filter is signed with Red Hat redhatrelease2 key"
                          }
                        ]
                      },
                      {
                        "Operator": "AND",
                        "Criterias": [

                        ],
                        "Criterions": [
                          {
                            "Comment": "nginx-mod-http-perl is earlier than 1:1.16.1-1.module+el8.3.0+8844+e5e7039f.1"
                          },
                          {
                            "Comment": "nginx-mod-http-perl is signed with Red Hat redhatrelease2 key"
                          }
                        ]
                      },
                      {
                        "Operator": "AND",
                        "Criterias": [

                        ],
                        "Criterions": [
                          {
                            "Comment": "nginx-mod-http-xslt-filter is earlier than 1:1.16.1-1.module+el8.3.0+8844+e5e7039f.1"
                          },
                          {
                            "Comment": "nginx-mod-http-xslt-filter is signed with Red Hat redhatrelease2 key"
                          }
                        ]
                      },
                      {
                        "Operator": "AND",
                        "Criterias": [

                        ],
                        "Criterions": [
                          {
                            "Comment": "nginx-mod-mail is earlier than 1:1.16.1-1.module+el8.3.0+8844+e5e7039f.1"
                          },
                          {
                            "Comment": "nginx-mod-mail is signed with Red Hat redhatrelease2 key"
                          }
                        ]
                      },
                      {
                        "Operator": "AND",
                        "Criterias": [

                        ],
                        "Criterions": [
                          {
                            "Comment": "nginx-mod-stream is earlier than 1:1.16.1-1.module+el8.3.0+8844+e5e7039f.1"
                          },
                          {
                            "Comment": "nginx-mod-stream is signed with Red Hat redhatrelease2 key"
                          }
                        ]
                      }
                    ],
                    "Criterions": [

                    ]
                  }
                ],
                "Criterions": [
                  {
                    "Comment": "Module nginx:1.16 is enabled"
                  }
                ]
              }
            ],
            "Criterions": [

            ]
          }
        ],
        "Criterions": [

        ]
      }
    ],
    "Criterions": [
      {
        "Comment": "Oracle Linux 8 is installed"
      }
    ]
  },
  "Severity": "Moderate",
  "Cves": [
    {
      "Impact": "",
      "Href": "",
      "ID": "CVE-2019-20372"
    }
  ],
  "Issued": {
    "Date": "2020-12-15"
  }
}