{
  "Title": "RHSA-2020:3888: python3 security update (Moderate)",
  "Description": "Python is an interpreted, interactive, object-oriented programming language, which includes modules, classes, exceptions, very high level dynamic data types and dynamic typing. Python supports interfaces to many system calls and libraries, as well as to various windowing systems. \nSecurity Fix(es):\n* python: XSS vulnerability in the documentation XML-RPC server in server_title field (CVE-2019-16935)\n* python: wrong backtracking in urllib.request.AbstractBasicAuthHandler allows for a ReDoS (CVE-2020-8492)\nFor more details about the security issue(s), including the impact, a CVSS score, acknowledgments, and other related information, refer to the CVE page(s) listed in the References section.\nAdditional Changes:\nFor detailed information on changes in this release, see the Red Hat Enterprise Linux 7.9 Release Notes linked from the References section.",
  "Platform": [
    "Red Hat Enterprise Linux 7"
  ],
  "References": [
    {
      "Source": "RHSA",
      "URI": "https://access.redhat.com/errata/RHSA-2020:3888",
      "ID": "RHSA-2020:3888"
    },
    {
      "Source": "CVE",
      "URI": "https://access.redhat.com/security/cve/CVE-2019-16935",
      "ID": "CVE-2019-16935"
    },
    {
      "Source": "CVE",
      "URI": "https://access.redhat.com/security/cve/CVE-2020-8492",
      "ID": "CVE-2020-8492"
    }
  ],
  "Criteria": {
    "Operator": "OR",
    "Criterias": [
      {
        "Operator": "AND",
        "Criterias": [
          {
            "Operator": "OR",
            "Criterias": [
              {
                "Operator": "AND",
                "Criterias": [

                ],
                "Criterions": [
                  {
                    "Comment": "python3 is earlier than 0:3.6.8-17.el7"
                  },
                  {
                    "Comment": "python3 is signed with Red Hat redhatrelease2 key"
                  }
                ]
              },
              {
                "Operator": "AND",
                "Criterias": [

                ],
                "Criterions": [
                  {
                    "Comment": "python3-debug is earlier than 0:3.6.8-17.el7"
                  },
                  {
                    "Comment": "python3-debug is signed with Red Hat redhatrelease2 key"
                  }
                ]
              },
              {
                "Operator": "AND",
                "Criterias": [

                ],
                "Criterions": [
                  {
                    "Comment": "python3-devel is earlier than 0:3.6.8-17.el7"
                  },
                  {
                    "Comment": "python3-devel is signed with Red Hat redhatrelease2 key"
                  }
                ]
              },
              {
                "Operator": "AND",
                "Criterias": [

                ],
                "Criterions": [
                  {
                    "Comment": "python3-idle is earlier than 0:3.6.8-17.el7"
                  },
                  {
                    "Comment": "python3-idle is signed with Red Hat redhatrelease2 key"
                  }
                ]
              },
              {
                "Operator": "AND",
                "Criterias": [

                ],
                "Criterions": [
                  {
                    "Comment": "python3-libs is earlier than 0:3.6.8-17.el7"
                  },
                  {
                    "Comment": "python3-libs is signed with Red Hat redhatrelease2 key"
                  }
                ]
              },
              {
                "Operator": "AND",
                "Criterias": [

                ],
                "Criterions": [
                  {
                    "Comment": "python3-test is earlier than 0:3.6.8-17.el7"
                  },
                  {
                    "Comment": "python3-test is signed with Red Hat redhatrelease2 key"
                  }
                ]
              },
              {
                "Operator": "AND",
                "Criterias": [

                ],
                "Criterions": [
                  {
                    "Comment": "python3-tkinter is earlier than 0:3.6.8-17.el7"
                  },
                  {
                    "Comment": "python3-tkinter is signed with Red Hat redhatrelease2 key"
                  }
                ]
              }
            ],
            "Criterions": [

            ]
          }
        ],
        "Criterions": [
          {
            "Comment": "Oracle Linux 7 is installed"
          }
        ]
      }
    ],
    "Criterions": [
      {
        "Comment": "Oracle Linux 7 is installed"
      }
    ]
  },
  "Severity": "Moderate",
  "Cves": [
    {
      "Impact": "",
      "Href": "",
      "ID": "CVE-2019-16935"
    },
    {
      "Impact": "",
      "Href": "",
      "ID": "CVE-2020-8492"
    }
  ],
  "Issued": {
    "Date": "2020-09-29"
  }
}