{
  "Title": "RHSA-2020:0329: go-toolset:rhel8 security update (Moderate)",
  "Description": "Go Toolset provides the Go programming language tools and libraries. Go is alternatively known as golang.\nSecurity Fix(es):\n* golang: HTTP/1.1 headers with a space before the colon leads to filter bypass or request smuggling (CVE-2019-16276)\n* golang: invalid public key causes panic in dsa.Verify (CVE-2019-17596)\nFor more details about the security issue(s), including the impact, a CVSS score, acknowledgments, and other related information, refer to the CVE page(s) listed in the References section.",
  "Platform": [
    "Red Hat Enterprise Linux 8"
  ],
  "References": [
    {
      "Source": "RHSA",
      "URI": "https://access.redhat.com/errata/RHSA-2020:0329",
      "ID": "RHSA-2020:0329"
    },
    {
      "Source": "CVE",
      "URI": "https://access.redhat.com/security/cve/CVE-2019-16276",
      "ID": "CVE-2019-16276"
    },
    {
      "Source": "CVE",
      "URI": "https://access.redhat.com/security/cve/CVE-2019-17596",
      "ID": "CVE-2019-17596"
    }
  ],
  "Criteria": {
    "Operator": "OR",
    "Criterias": [
      {
        "Operator": "AND",
        "Criterias": [
          {
            "Operator": "OR",
            "Criterias": [

            ],
            "Criterions": [
              {
                "Comment": "Oracle Linux 8 is installed"
              },
              {
                "Comment": "Red Hat CoreOS 4 is installed"
              }
            ]
          },
          {
            "Operator": "OR",
            "Criterias": [
              {
                "Operator": "AND",
                "Criterias": [
                  {
                    "Operator": "OR",
                    "Criterias": [
                      {
                        "Operator": "AND",
                        "Criterias": [

                        ],
                        "Criterions": [
                          {
                            "Comment": "go-toolset is earlier than 0:1.12.12-2.module+el8.1.0+5317+8a49ffbb"
                          },
                          {
                            "Comment": "go-toolset is signed with Red Hat redhatrelease2 key"
                          }
                        ]
                      },
                      {
                        "Operator": "AND",
                        "Criterias": [

                        ],
                        "Criterions": [
                          {
                            "Comment": "golang is earlier than 0:1.12.12-4.module+el8.1.0+5317+8a49ffbb"
                          },
                          {
                            "Comment": "golang is signed with Red Hat redhatrelease2 key"
                          }
                        ]
                      },
                      {
                        "Operator": "AND",
                        "Criterias": [

                        ],
                        "Criterions": [
                          {
                            "Comment": "golang-bin is earlier than 0:1.12.12-4.module+el8.1.0+5317+8a49ffbb"
                          },
                          {
                            "Comment": "golang-bin is signed with Red Hat redhatrelease2 key"
                          }
                        ]
                      },
                      {
                        "Operator": "AND",
                        "Criterias": [

                        ],
                        "Criterions": [
                          {
                            "Comment": "golang-docs is earlier than 0:1.12.12-4.module+el8.1.0+5317+8a49ffbb"
                          },
                          {
                            "Comment": "golang-docs is signed with Red Hat redhatrelease2 key"
                          }
                        ]
                      },
                      {
                        "Operator": "AND",
                        "Criterias": [

                        ],
                        "Criterions": [
                          {
                            "Comment": "golang-misc is earlier than 0:1.12.12-4.module+el8.1.0+5317+8a49ffbb"
                          },
                          {
                            "Comment": "golang-misc is signed with Red Hat redhatrelease2 key"
                          }
                        ]
                      },
                      {
                        "Operator": "AND",
                        "Criterias": [

                        ],
                        "Criterions": [
                          {
                            "Comment": "golang-race is earlier than 0:1.12.12-4.module+el8.1.0+5317+8a49ffbb"
                          },
                          {
                            "Comment": "golang-race is signed with Red Hat redhatrelease2 key"
                          }
                        ]
                      },
                      {
                        "Operator": "AND",
                        "Criterias": [

                        ],
                        "Criterions": [
                          {
                            "Comment": "golang-src is earlier than 0:1.12.12-4.module+el8.1.0+5317+8a49ffbb"
                          },
                          {
                            "Comment": "golang-src is signed with Red Hat redhatrelease2 key"
                          }
                        ]
                      },
                      {
                        "Operator": "AND",
                        "Criterias": [

                        ],
                        "Criterions": [
                          {
                            "Comment": "golang-tests is earlier than 0:1.12.12-4.module+el8.1.0+5317+8a49ffbb"
                          },
                          {
                            "Comment": "golang-tests is signed with Red Hat redhatrelease2 key"
                          }
                        ]
                      }
                    ],
                    "Criterions": [

                    ]
                  }
                ],
                "Criterions": [
                  {
                    "Comment": "Module go-toolset:rhel8 is enabled"
                  }
                ]
              }
            ],
            "Criterions": [

            ]
          }
        ],
        "Criterions": [

        ]
      }
    ],
    "Criterions": [
      {
        "Comment": "Oracle Linux 8 is installed"
      }
    ]
  },
  "Severity": "Moderate",
  "Cves": [
    {
      "Impact": "",
      "Href": "",
      "ID": "CVE-2019-16276"
    },
    {
      "Impact": "",
      "Href": "",
      "ID": "CVE-2019-17596"
    }
  ],
  "Issued": {
    "Date": "2020-02-04"
  }
}