{
  "Title": "RHSA-2020:4799: freeradius:3.0 security and bug fix update (Moderate)",
  "Description": "FreeRADIUS is a high-performance and highly configurable free Remote Authentication Dial In User Service (RADIUS) server, designed to allow centralized authentication and authorization for a network.\nSecurity Fix(es):\n* freeradius: eap-pwd: DoS issues due to multithreaded BN_CTX access (CVE-2019-17185)\nFor more details about the security issue(s), including the impact, a CVSS score, acknowledgments, and other related information, refer to the CVE page(s) listed in the References section.\nAdditional Changes:\nFor detailed information on changes in this release, see the Red Hat Enterprise Linux 8.3 Release Notes linked from the References section.",
  "Platform": [
    "Red Hat Enterprise Linux 8"
  ],
  "References": [
    {
      "Source": "RHSA",
      "URI": "https://access.redhat.com/errata/RHSA-2020:4799",
      "ID": "RHSA-2020:4799"
    },
    {
      "Source": "CVE",
      "URI": "https://access.redhat.com/security/cve/CVE-2019-17185",
      "ID": "CVE-2019-17185"
    }
  ],
  "Criteria": {
    "Operator": "OR",
    "Criterias": [
      {
        "Operator": "AND",
        "Criterias": [
          {
            "Operator": "OR",
            "Criterias": [

            ],
            "Criterions": [
              {
                "Comment": "Oracle Linux 8 is installed"
              },
              {
                "Comment": "Red Hat CoreOS 4 is installed"
              }
            ]
          },
          {
            "Operator": "OR",
            "Criterias": [
              {
                "Operator": "AND",
                "Criterias": [
                  {
                    "Operator": "OR",
                    "Criterias": [
                      {
                        "Operator": "AND",
                        "Criterias": [

                        ],
                        "Criterions": [
                          {
                            "Comment": "freeradius is earlier than 0:3.0.20-3.module+el8.3.0+7597+67902674"
                          },
                          {
                            "Comment": "freeradius is signed with Red Hat redhatrelease2 key"
                          }
                        ]
                      },
                      {
                        "Operator": "AND",
                        "Criterias": [

                        ],
                        "Criterions": [
                          {
                            "Comment": "freeradius-devel is earlier than 0:3.0.20-3.module+el8.3.0+7597+67902674"
                          },
                          {
                            "Comment": "freeradius-devel is signed with Red Hat redhatrelease2 key"
                          }
                        ]
                      },
                      {
                        "Operator": "AND",
                        "Criterias": [

                        ],
                        "Criterions": [
                          {
                            "Comment": "freeradius-doc is earlier than 0:3.0.20-3.module+el8.3.0+7597+67902674"
                          },
                          {
                            "Comment": "freeradius-doc is signed with Red Hat redhatrelease2 key"
                          }
                        ]
                      },
                      {
                        "Operator": "AND",
                        "Criterias": [

                        ],
                        "Criterions": [
                          {
                            "Comment": "freeradius-krb5 is earlier than 0:3.0.20-3.module+el8.3.0+7597+67902674"
                          },
                          {
                            "Comment": "freeradius-krb5 is signed with Red Hat redhatrelease2 key"
                          }
                        ]
                      },
                      {
                        "Operator": "AND",
                        "Criterias": [

                        ],
                        "Criterions": [
                          {
                            "Comment": "freeradius-ldap is earlier than 0:3.0.20-3.module+el8.3.0+7597+67902674"
                          },
                          {
                            "Comment": "freeradius-ldap is signed with Red Hat redhatrelease2 key"
                          }
                        ]
                      },
                      {
                        "Operator": "AND",
                        "Criterias": [

                        ],
                        "Criterions": [
                          {
                            "Comment": "freeradius-mysql is earlier than 0:3.0.20-3.module+el8.3.0+7597+67902674"
                          },
                          {
                            "Comment": "freeradius-mysql is signed with Red Hat redhatrelease2 key"
                          }
                        ]
                      },
                      {
                        "Operator": "AND",
                        "Criterias": [

                        ],
                        "Criterions": [
                          {
                            "Comment": "freeradius-perl is earlier than 0:3.0.20-3.module+el8.3.0+7597+67902674"
                          },
                          {
                            "Comment": "freeradius-perl is signed with Red Hat redhatrelease2 key"
                          }
                        ]
                      },
                      {
                        "Operator": "AND",
                        "Criterias": [

                        ],
                        "Criterions": [
                          {
                            "Comment": "freeradius-postgresql is earlier than 0:3.0.20-3.module+el8.3.0+7597+67902674"
                          },
                          {
                            "Comment": "freeradius-postgresql is signed with Red Hat redhatrelease2 key"
                          }
                        ]
                      },
                      {
                        "Operator": "AND",
                        "Criterias": [

                        ],
                        "Criterions": [
                          {
                            "Comment": "freeradius-rest is earlier than 0:3.0.20-3.module+el8.3.0+7597+67902674"
                          },
                          {
                            "Comment": "freeradius-rest is signed with Red Hat redhatrelease2 key"
                          }
                        ]
                      },
                      {
                        "Operator": "AND",
                        "Criterias": [

                        ],
                        "Criterions": [
                          {
                            "Comment": "freeradius-sqlite is earlier than 0:3.0.20-3.module+el8.3.0+7597+67902674"
                          },
                          {
                            "Comment": "freeradius-sqlite is signed with Red Hat redhatrelease2 key"
                          }
                        ]
                      },
                      {
                        "Operator": "AND",
                        "Criterias": [

                        ],
                        "Criterions": [
                          {
                            "Comment": "freeradius-unixODBC is earlier than 0:3.0.20-3.module+el8.3.0+7597+67902674"
                          },
                          {
                            "Comment": "freeradius-unixODBC is signed with Red Hat redhatrelease2 key"
                          }
                        ]
                      },
                      {
                        "Operator": "AND",
                        "Criterias": [

                        ],
                        "Criterions": [
                          {
                            "Comment": "freeradius-utils is earlier than 0:3.0.20-3.module+el8.3.0+7597+67902674"
                          },
                          {
                            "Comment": "freeradius-utils is signed with Red Hat redhatrelease2 key"
                          }
                        ]
                      },
                      {
                        "Operator": "AND",
                        "Criterias": [

                        ],
                        "Criterions": [
                          {
                            "Comment": "python3-freeradius is earlier than 0:3.0.20-3.module+el8.3.0+7597+67902674"
                          },
                          {
                            "Comment": "python3-freeradius is signed with Red Hat redhatrelease2 key"
                          }
                        ]
                      }
                    ],
                    "Criterions": [

                    ]
                  }
                ],
                "Criterions": [
                  {
                    "Comment": "Module freeradius:3.0 is enabled"
                  }
                ]
              }
            ],
            "Criterions": [

            ]
          }
        ],
        "Criterions": [

        ]
      }
    ],
    "Criterions": [
      {
        "Comment": "Oracle Linux 8 is installed"
      }
    ]
  },
  "Severity": "Moderate",
  "Cves": [
    {
      "Impact": "",
      "Href": "",
      "ID": "CVE-2019-17185"
    }
  ],
  "Issued": {
    "Date": "2020-11-04"
  }
}