{
  "Title": "RHSA-2020:1176: avahi security update (Low)",
  "Description": "Avahi is an implementation of the DNS Service Discovery and Multicast DNS specifications for Zero Configuration Networking. It facilitates service discovery on a local network. Avahi and Avahi-aware applications allow you to plug your computer into a network and, with no configuration, view other people to chat with, view printers to print with, and find shared files on other computers.\nSecurity Fix(es):\n* avahi: Multicast DNS responds to unicast queries outside of local network (CVE-2017-6519)\nFor more details about the security issue(s), including the impact, a CVSS score, acknowledgments, and other related information, refer to the CVE page(s) listed in the References section.\nAdditional Changes:\nFor detailed information on changes in this release, see the Red Hat Enterprise Linux 7.8 Release Notes linked from the References section.",
  "Platform": [
    "Red Hat Enterprise Linux 7"
  ],
  "References": [
    {
      "Source": "RHSA",
      "URI": "https://access.redhat.com/errata/RHSA-2020:1176",
      "ID": "RHSA-2020:1176"
    },
    {
      "Source": "CVE",
      "URI": "https://access.redhat.com/security/cve/CVE-2017-6519",
      "ID": "CVE-2017-6519"
    }
  ],
  "Criteria": {
    "Operator": "OR",
    "Criterias": [
      {
        "Operator": "AND",
        "Criterias": [
          {
            "Operator": "OR",
            "Criterias": [
              {
                "Operator": "AND",
                "Criterias": [

                ],
                "Criterions": [
                  {
                    "Comment": "avahi is earlier than 0:0.6.31-20.el7"
                  },
                  {
                    "Comment": "avahi is signed with Red Hat redhatrelease2 key"
                  }
                ]
              },
              {
                "Operator": "AND",
                "Criterias": [

                ],
                "Criterions": [
                  {
                    "Comment": "avahi-autoipd is earlier than 0:0.6.31-20.el7"
                  },
                  {
                    "Comment": "avahi-autoipd is signed with Red Hat redhatrelease2 key"
                  }
                ]
              },
              {
                "Operator": "AND",
                "Criterias": [

                ],
                "Criterions": [
                  {
                    "Comment": "avahi-compat-howl is earlier than 0:0.6.31-20.el7"
                  },
                  {
                    "Comment": "avahi-compat-howl is signed with Red Hat redhatrelease2 key"
                  }
                ]
              },
              {
                "Operator": "AND",
                "Criterias": [

                ],
                "Criterions": [
                  {
                    "Comment": "avahi-compat-howl-devel is earlier than 0:0.6.31-20.el7"
                  },
                  {
                    "Comment": "avahi-compat-howl-devel is signed with Red Hat redhatrelease2 key"
                  }
                ]
              },
              {
                "Operator": "AND",
                "Criterias": [

                ],
                "Criterions": [
                  {
                    "Comment": "avahi-compat-libdns_sd is earlier than 0:0.6.31-20.el7"
                  },
                  {
                    "Comment": "avahi-compat-libdns_sd is signed with Red Hat redhatrelease2 key"
                  }
                ]
              },
              {
                "Operator": "AND",
                "Criterias": [

                ],
                "Criterions": [
                  {
                    "Comment": "avahi-compat-libdns_sd-devel is earlier than 0:0.6.31-20.el7"
                  },
                  {
                    "Comment": "avahi-compat-libdns_sd-devel is signed with Red Hat redhatrelease2 key"
                  }
                ]
              },
              {
                "Operator": "AND",
                "Criterias": [

                ],
                "Criterions": [
                  {
                    "Comment": "avahi-devel is earlier than 0:0.6.31-20.el7"
                  },
                  {
                    "Comment": "avahi-devel is signed with Red Hat redhatrelease2 key"
                  }
                ]
              },
              {
                "Operator": "AND",
                "Criterias": [

                ],
                "Criterions": [
                  {
                    "Comment": "avahi-dnsconfd is earlier than 0:0.6.31-20.el7"
                  },
                  {
                    "Comment": "avahi-dnsconfd is signed with Red Hat redhatrelease2 key"
                  }
                ]
              },
              {
                "Operator": "AND",
                "Criterias": [

                ],
                "Criterions": [
                  {
                    "Comment": "avahi-glib is earlier than 0:0.6.31-20.el7"
                  },
                  {
                    "Comment": "avahi-glib is signed with Red Hat redhatrelease2 key"
                  }
                ]
              },
              {
                "Operator": "AND",
                "Criterias": [

                ],
                "Criterions": [
                  {
                    "Comment": "avahi-glib-devel is earlier than 0:0.6.31-20.el7"
                  },
                  {
                    "Comment": "avahi-glib-devel is signed with Red Hat redhatrelease2 key"
                  }
                ]
              },
              {
                "Operator": "AND",
                "Criterias": [

                ],
                "Criterions": [
                  {
                    "Comment": "avahi-gobject is earlier than 0:0.6.31-20.el7"
                  },
                  {
                    "Comment": "avahi-gobject is signed with Red Hat redhatrelease2 key"
                  }
                ]
              },
              {
                "Operator": "AND",
                "Criterias": [

                ],
                "Criterions": [
                  {
                    "Comment": "avahi-gobject-devel is earlier than 0:0.6.31-20.el7"
                  },
                  {
                    "Comment": "avahi-gobject-devel is signed with Red Hat redhatrelease2 key"
                  }
                ]
              },
              {
                "Operator": "AND",
                "Criterias": [

                ],
                "Criterions": [
                  {
                    "Comment": "avahi-libs is earlier than 0:0.6.31-20.el7"
                  },
                  {
                    "Comment": "avahi-libs is signed with Red Hat redhatrelease2 key"
                  }
                ]
              },
              {
                "Operator": "AND",
                "Criterias": [

                ],
                "Criterions": [
                  {
                    "Comment": "avahi-qt3 is earlier than 0:0.6.31-20.el7"
                  },
                  {
                    "Comment": "avahi-qt3 is signed with Red Hat redhatrelease2 key"
                  }
                ]
              },
              {
                "Operator": "AND",
                "Criterias": [

                ],
                "Criterions": [
                  {
                    "Comment": "avahi-qt3-devel is earlier than 0:0.6.31-20.el7"
                  },
                  {
                    "Comment": "avahi-qt3-devel is signed with Red Hat redhatrelease2 key"
                  }
                ]
              },
              {
                "Operator": "AND",
                "Criterias": [

                ],
                "Criterions": [
                  {
                    "Comment": "avahi-qt4 is earlier than 0:0.6.31-20.el7"
                  },
                  {
                    "Comment": "avahi-qt4 is signed with Red Hat redhatrelease2 key"
                  }
                ]
              },
              {
                "Operator": "AND",
                "Criterias": [

                ],
                "Criterions": [
                  {
                    "Comment": "avahi-qt4-devel is earlier than 0:0.6.31-20.el7"
                  },
                  {
                    "Comment": "avahi-qt4-devel is signed with Red Hat redhatrelease2 key"
                  }
                ]
              },
              {
                "Operator": "AND",
                "Criterias": [

                ],
                "Criterions": [
                  {
                    "Comment": "avahi-tools is earlier than 0:0.6.31-20.el7"
                  },
                  {
                    "Comment": "avahi-tools is signed with Red Hat redhatrelease2 key"
                  }
                ]
              },
              {
                "Operator": "AND",
                "Criterias": [

                ],
                "Criterions": [
                  {
                    "Comment": "avahi-ui is earlier than 0:0.6.31-20.el7"
                  },
                  {
                    "Comment": "avahi-ui is signed with Red Hat redhatrelease2 key"
                  }
                ]
              },
              {
                "Operator": "AND",
                "Criterias": [

                ],
                "Criterions": [
                  {
                    "Comment": "avahi-ui-devel is earlier than 0:0.6.31-20.el7"
                  },
                  {
                    "Comment": "avahi-ui-devel is signed with Red Hat redhatrelease2 key"
                  }
                ]
              },
              {
                "Operator": "AND",
                "Criterias": [

                ],
                "Criterions": [
                  {
                    "Comment": "avahi-ui-gtk3 is earlier than 0:0.6.31-20.el7"
                  },
                  {
                    "Comment": "avahi-ui-gtk3 is signed with Red Hat redhatrelease2 key"
                  }
                ]
              },
              {
                "Operator": "AND",
                "Criterias": [

                ],
                "Criterions": [
                  {
                    "Comment": "avahi-ui-tools is earlier than 0:0.6.31-20.el7"
                  },
                  {
                    "Comment": "avahi-ui-tools is signed with Red Hat redhatrelease2 key"
                  }
                ]
              }
            ],
            "Criterions": [

            ]
          }
        ],
        "Criterions": [
          {
            "Comment": "Oracle Linux 7 is installed"
          }
        ]
      }
    ],
    "Criterions": [
      {
        "Comment": "Oracle Linux 7 is installed"
      }
    ]
  },
  "Severity": "Low",
  "Cves": [
    {
      "Impact": "",
      "Href": "",
      "ID": "CVE-2017-6519"
    }
  ],
  "Issued": {
    "Date": "2020-03-31"
  }
}