{
  "Title": "RHSA-2020:2081: python-virtualenv security update (Moderate)",
  "Description": "The virtualenv tool creates isolated Python environments. The virtualenv tool is a successor to workingenv, and an extension of virtual-python.\nSecurity Fix(es):\n* python-urllib3: Cross-host redirect does not remove Authorization header allow for credential exposure (CVE-2018-20060)\n* python-urllib3: CRLF injection due to not encoding the '\\r\\n' sequence leading to possible attack on internal service (CVE-2019-11236)\n* python-requests: Redirect from HTTPS to HTTP does not remove Authorization header (CVE-2018-18074)\nFor more details about the security issue(s), including the impact, a CVSS score, acknowledgments, and other related information, refer to the CVE page(s) listed in the References section.",
  "Platform": [
    "Red Hat Enterprise Linux 7"
  ],
  "References": [
    {
      "Source": "RHSA",
      "URI": "https://access.redhat.com/errata/RHSA-2020:2081",
      "ID": "RHSA-2020:2081"
    },
    {
      "Source": "CVE",
      "URI": "https://access.redhat.com/security/cve/CVE-2018-18074",
      "ID": "CVE-2018-18074"
    },
    {
      "Source": "CVE",
      "URI": "https://access.redhat.com/security/cve/CVE-2018-20060",
      "ID": "CVE-2018-20060"
    },
    {
      "Source": "CVE",
      "URI": "https://access.redhat.com/security/cve/CVE-2019-11236",
      "ID": "CVE-2019-11236"
    }
  ],
  "Criteria": {
    "Operator": "OR",
    "Criterias": [
      {
        "Operator": "AND",
        "Criterias": [

        ],
        "Criterions": [
          {
            "Comment": "Oracle Linux 7 is installed"
          },
          {
            "Comment": "python-virtualenv is earlier than 0:15.1.0-4.el7_8"
          },
          {
            "Comment": "python-virtualenv is signed with Red Hat redhatrelease2 key"
          }
        ]
      }
    ],
    "Criterions": [
      {
        "Comment": "Oracle Linux 7 is installed"
      }
    ]
  },
  "Severity": "Moderate",
  "Cves": [
    {
      "Impact": "",
      "Href": "",
      "ID": "CVE-2018-18074"
    },
    {
      "Impact": "",
      "Href": "",
      "ID": "CVE-2018-20060"
    },
    {
      "Impact": "",
      "Href": "",
      "ID": "CVE-2019-11236"
    }
  ],
  "Issued": {
    "Date": "2020-05-12"
  }
}