{
  "Title": "RHSA-2020:2663: ntp security update (Moderate)",
  "Description": "The Network Time Protocol (NTP) is used to synchronize a computer's time with another referenced time source. These packages include the ntpd service which continuously adjusts system time and utilities used to query and configure the ntpd service.\nSecurity Fix(es):\n* ntp: ntpd using highly predictable transmit timestamps could result in time change or DoS (CVE-2020-13817)\n* ntp: DoS on client ntpd using server mode packet (CVE-2020-11868)\nFor more details about the security issue(s), including the impact, a CVSS score, acknowledgments, and other related information, refer to the CVE page(s) listed in the References section.",
  "Platform": [
    "Red Hat Enterprise Linux 7"
  ],
  "References": [
    {
      "Source": "RHSA",
      "URI": "https://access.redhat.com/errata/RHSA-2020:2663",
      "ID": "RHSA-2020:2663"
    },
    {
      "Source": "CVE",
      "URI": "https://access.redhat.com/security/cve/CVE-2020-11868",
      "ID": "CVE-2020-11868"
    },
    {
      "Source": "CVE",
      "URI": "https://access.redhat.com/security/cve/CVE-2020-13817",
      "ID": "CVE-2020-13817"
    }
  ],
  "Criteria": {
    "Operator": "OR",
    "Criterias": [
      {
        "Operator": "AND",
        "Criterias": [
          {
            "Operator": "OR",
            "Criterias": [
              {
                "Operator": "AND",
                "Criterias": [

                ],
                "Criterions": [
                  {
                    "Comment": "ntp is earlier than 0:4.2.6p5-29.el7_8.2"
                  },
                  {
                    "Comment": "ntp is signed with Red Hat redhatrelease2 key"
                  }
                ]
              },
              {
                "Operator": "AND",
                "Criterias": [

                ],
                "Criterions": [
                  {
                    "Comment": "ntp-doc is earlier than 0:4.2.6p5-29.el7_8.2"
                  },
                  {
                    "Comment": "ntp-doc is signed with Red Hat redhatrelease2 key"
                  }
                ]
              },
              {
                "Operator": "AND",
                "Criterias": [

                ],
                "Criterions": [
                  {
                    "Comment": "ntp-perl is earlier than 0:4.2.6p5-29.el7_8.2"
                  },
                  {
                    "Comment": "ntp-perl is signed with Red Hat redhatrelease2 key"
                  }
                ]
              },
              {
                "Operator": "AND",
                "Criterias": [

                ],
                "Criterions": [
                  {
                    "Comment": "ntpdate is earlier than 0:4.2.6p5-29.el7_8.2"
                  },
                  {
                    "Comment": "ntpdate is signed with Red Hat redhatrelease2 key"
                  }
                ]
              },
              {
                "Operator": "AND",
                "Criterias": [

                ],
                "Criterions": [
                  {
                    "Comment": "sntp is earlier than 0:4.2.6p5-29.el7_8.2"
                  },
                  {
                    "Comment": "sntp is signed with Red Hat redhatrelease2 key"
                  }
                ]
              }
            ],
            "Criterions": [

            ]
          }
        ],
        "Criterions": [
          {
            "Comment": "Oracle Linux 7 is installed"
          }
        ]
      }
    ],
    "Criterions": [
      {
        "Comment": "Oracle Linux 7 is installed"
      }
    ]
  },
  "Severity": "Moderate",
  "Cves": [
    {
      "Impact": "",
      "Href": "",
      "ID": "CVE-2020-11868"
    },
    {
      "Impact": "",
      "Href": "",
      "ID": "CVE-2020-13817"
    }
  ],
  "Issued": {
    "Date": "2020-06-23"
  }
}