{
  "Title": "RHSA-2020:0702: xerces-c security update (Important)",
  "Description": "Xerces-C is a validating XML parser written in a portable subset of C++. Xerces-C makes it easy to give your application the ability to read and write XML data. A shared library is provided for parsing, generating, manipulating, and validating XML documents.\nSecurity Fix(es):\n* xerces-c: XML parser contains a use-after-free error triggered during the scanning of external DTDs (CVE-2018-1311)\nFor more details about the security issue(s), including the impact, a CVSS score, acknowledgments, and other related information, refer to the CVE page(s) listed in the References section.",
  "Platform": [
    "Red Hat Enterprise Linux 6"
  ],
  "References": [
    {
      "Source": "RHSA",
      "URI": "https://access.redhat.com/errata/RHSA-2020:0702",
      "ID": "RHSA-2020:0702"
    },
    {
      "Source": "CVE",
      "URI": "https://access.redhat.com/security/cve/CVE-2018-1311",
      "ID": "CVE-2018-1311"
    }
  ],
  "Criteria": {
    "Operator": "OR",
    "Criterias": [
      {
        "Operator": "AND",
        "Criterias": [
          {
            "Operator": "OR",
            "Criterias": [
              {
                "Operator": "AND",
                "Criterias": [

                ],
                "Criterions": [
                  {
                    "Comment": "xerces-c is earlier than 0:3.0.1-21.el6_10"
                  },
                  {
                    "Comment": "xerces-c is signed with Red Hat redhatrelease2 key"
                  }
                ]
              },
              {
                "Operator": "AND",
                "Criterias": [

                ],
                "Criterions": [
                  {
                    "Comment": "xerces-c-devel is earlier than 0:3.0.1-21.el6_10"
                  },
                  {
                    "Comment": "xerces-c-devel is signed with Red Hat redhatrelease2 key"
                  }
                ]
              },
              {
                "Operator": "AND",
                "Criterias": [

                ],
                "Criterions": [
                  {
                    "Comment": "xerces-c-doc is earlier than 0:3.0.1-21.el6_10"
                  },
                  {
                    "Comment": "xerces-c-doc is signed with Red Hat redhatrelease2 key"
                  }
                ]
              }
            ],
            "Criterions": [

            ]
          }
        ],
        "Criterions": [
          {
            "Comment": "Oracle Linux 6 is installed"
          }
        ]
      }
    ],
    "Criterions": [
      {
        "Comment": "Oracle Linux 6 is installed"
      }
    ]
  },
  "Severity": "Important",
  "Cves": [
    {
      "Impact": "",
      "Href": "",
      "ID": "CVE-2018-1311"
    }
  ],
  "Issued": {
    "Date": "2020-03-04"
  }
}