{
  "Title": "RHSA-2020:4024: okular security update (Moderate)",
  "Description": "Okular is a universal document viewer developed by KDE supporting different kinds of documents, like PDF, Postscript, DjVu, CHM, XPS, ePub and others.\nSecurity Fix(es):\n* okular: local binary execution via specially crafted PDF files (CVE-2020-9359)\nFor more details about the security issue(s), including the impact, a CVSS score, acknowledgments, and other related information, refer to the CVE page(s) listed in the References section.\nAdditional Changes:\nFor detailed information on changes in this release, see the Red Hat Enterprise Linux 7.9 Release Notes linked from the References section.",
  "Platform": [
    "Red Hat Enterprise Linux 7"
  ],
  "References": [
    {
      "Source": "RHSA",
      "URI": "https://access.redhat.com/errata/RHSA-2020:4024",
      "ID": "RHSA-2020:4024"
    },
    {
      "Source": "CVE",
      "URI": "https://access.redhat.com/security/cve/CVE-2020-9359",
      "ID": "CVE-2020-9359"
    }
  ],
  "Criteria": {
    "Operator": "OR",
    "Criterias": [
      {
        "Operator": "AND",
        "Criterias": [
          {
            "Operator": "OR",
            "Criterias": [
              {
                "Operator": "AND",
                "Criterias": [

                ],
                "Criterions": [
                  {
                    "Comment": "okular is earlier than 0:4.10.5-9.el7"
                  },
                  {
                    "Comment": "okular is signed with Red Hat redhatrelease2 key"
                  }
                ]
              },
              {
                "Operator": "AND",
                "Criterias": [

                ],
                "Criterions": [
                  {
                    "Comment": "okular-devel is earlier than 0:4.10.5-9.el7"
                  },
                  {
                    "Comment": "okular-devel is signed with Red Hat redhatrelease2 key"
                  }
                ]
              },
              {
                "Operator": "AND",
                "Criterias": [

                ],
                "Criterions": [
                  {
                    "Comment": "okular-libs is earlier than 0:4.10.5-9.el7"
                  },
                  {
                    "Comment": "okular-libs is signed with Red Hat redhatrelease2 key"
                  }
                ]
              },
              {
                "Operator": "AND",
                "Criterias": [

                ],
                "Criterions": [
                  {
                    "Comment": "okular-part is earlier than 0:4.10.5-9.el7"
                  },
                  {
                    "Comment": "okular-part is signed with Red Hat redhatrelease2 key"
                  }
                ]
              }
            ],
            "Criterions": [

            ]
          }
        ],
        "Criterions": [
          {
            "Comment": "Oracle Linux 7 is installed"
          }
        ]
      }
    ],
    "Criterions": [
      {
        "Comment": "Oracle Linux 7 is installed"
      }
    ]
  },
  "Severity": "Moderate",
  "Cves": [
    {
      "Impact": "",
      "Href": "",
      "ID": "CVE-2020-9359"
    }
  ],
  "Issued": {
    "Date": "2020-09-29"
  }
}