{
  "Title": "RHSA-2020:4011: e2fsprogs security and bug fix update (Moderate)",
  "Description": "The e2fsprogs packages provide a number of utilities for creating, checking, modifying, and correcting the ext2, ext3, and ext4 file systems.\nSecurity Fix(es):\n* e2fsprogs: Crafted ext4 partition leads to out-of-bounds write (CVE-2019-5094)\n* e2fsprogs: Out-of-bounds write in e2fsck/rehash.c (CVE-2019-5188)\nFor more details about the security issue(s), including the impact, a CVSS score, acknowledgments, and other related information, refer to the CVE page(s) listed in the References section.\nAdditional Changes:\nFor detailed information on changes in this release, see the Red Hat Enterprise Linux 7.9 Release Notes linked from the References section.",
  "Platform": [
    "Red Hat Enterprise Linux 7"
  ],
  "References": [
    {
      "Source": "RHSA",
      "URI": "https://access.redhat.com/errata/RHSA-2020:4011",
      "ID": "RHSA-2020:4011"
    },
    {
      "Source": "CVE",
      "URI": "https://access.redhat.com/security/cve/CVE-2019-5094",
      "ID": "CVE-2019-5094"
    },
    {
      "Source": "CVE",
      "URI": "https://access.redhat.com/security/cve/CVE-2019-5188",
      "ID": "CVE-2019-5188"
    }
  ],
  "Criteria": {
    "Operator": "OR",
    "Criterias": [
      {
        "Operator": "AND",
        "Criterias": [
          {
            "Operator": "OR",
            "Criterias": [
              {
                "Operator": "AND",
                "Criterias": [

                ],
                "Criterions": [
                  {
                    "Comment": "e2fsprogs is earlier than 0:1.42.9-19.el7"
                  },
                  {
                    "Comment": "e2fsprogs is signed with Red Hat redhatrelease2 key"
                  }
                ]
              },
              {
                "Operator": "AND",
                "Criterias": [

                ],
                "Criterions": [
                  {
                    "Comment": "e2fsprogs-devel is earlier than 0:1.42.9-19.el7"
                  },
                  {
                    "Comment": "e2fsprogs-devel is signed with Red Hat redhatrelease2 key"
                  }
                ]
              },
              {
                "Operator": "AND",
                "Criterias": [

                ],
                "Criterions": [
                  {
                    "Comment": "e2fsprogs-libs is earlier than 0:1.42.9-19.el7"
                  },
                  {
                    "Comment": "e2fsprogs-libs is signed with Red Hat redhatrelease2 key"
                  }
                ]
              },
              {
                "Operator": "AND",
                "Criterias": [

                ],
                "Criterions": [
                  {
                    "Comment": "e2fsprogs-static is earlier than 0:1.42.9-19.el7"
                  },
                  {
                    "Comment": "e2fsprogs-static is signed with Red Hat redhatrelease2 key"
                  }
                ]
              },
              {
                "Operator": "AND",
                "Criterias": [

                ],
                "Criterions": [
                  {
                    "Comment": "libcom_err is earlier than 0:1.42.9-19.el7"
                  },
                  {
                    "Comment": "libcom_err is signed with Red Hat redhatrelease2 key"
                  }
                ]
              },
              {
                "Operator": "AND",
                "Criterias": [

                ],
                "Criterions": [
                  {
                    "Comment": "libcom_err-devel is earlier than 0:1.42.9-19.el7"
                  },
                  {
                    "Comment": "libcom_err-devel is signed with Red Hat redhatrelease2 key"
                  }
                ]
              },
              {
                "Operator": "AND",
                "Criterias": [

                ],
                "Criterions": [
                  {
                    "Comment": "libss is earlier than 0:1.42.9-19.el7"
                  },
                  {
                    "Comment": "libss is signed with Red Hat redhatrelease2 key"
                  }
                ]
              },
              {
                "Operator": "AND",
                "Criterias": [

                ],
                "Criterions": [
                  {
                    "Comment": "libss-devel is earlier than 0:1.42.9-19.el7"
                  },
                  {
                    "Comment": "libss-devel is signed with Red Hat redhatrelease2 key"
                  }
                ]
              }
            ],
            "Criterions": [

            ]
          }
        ],
        "Criterions": [
          {
            "Comment": "Oracle Linux 7 is installed"
          }
        ]
      }
    ],
    "Criterions": [
      {
        "Comment": "Oracle Linux 7 is installed"
      }
    ]
  },
  "Severity": "Moderate",
  "Cves": [
    {
      "Impact": "",
      "Href": "",
      "ID": "CVE-2019-5094"
    },
    {
      "Impact": "",
      "Href": "",
      "ID": "CVE-2019-5188"
    }
  ],
  "Issued": {
    "Date": "2020-09-29"
  }
}