{
  "Title": "RHSA-2020:4654: python27:2.7 security update (Moderate)",
  "Description": "Python is an interpreted, interactive, object-oriented programming language that supports modules, classes, exceptions, high-level dynamic data types, and dynamic typing. The python27 packages provide a stable release of Python 2.7 with a number of additional utilities and database connectors for MySQL and PostgreSQL.\nSecurity Fix(es):\n* python: infinite loop in the tarfile module via crafted TAR archive (CVE-2019-20907)\n* python-pip: directory traversal in _download_http_url() function in src/pip/_internal/download.py (CVE-2019-20916)\nFor more details about the security issue(s), including the impact, a CVSS score, acknowledgments, and other related information, refer to the CVE page(s) listed in the References section.\nAdditional Changes:\nFor detailed information on changes in this release, see the Red Hat Enterprise Linux 8.3 Release Notes linked from the References section.",
  "Platform": [
    "Red Hat Enterprise Linux 8"
  ],
  "References": [
    {
      "Source": "RHSA",
      "URI": "https://access.redhat.com/errata/RHSA-2020:4654",
      "ID": "RHSA-2020:4654"
    },
    {
      "Source": "CVE",
      "URI": "https://access.redhat.com/security/cve/CVE-2019-20907",
      "ID": "CVE-2019-20907"
    },
    {
      "Source": "CVE",
      "URI": "https://access.redhat.com/security/cve/CVE-2019-20916",
      "ID": "CVE-2019-20916"
    }
  ],
  "Criteria": {
    "Operator": "OR",
    "Criterias": [
      {
        "Operator": "AND",
        "Criterias": [
          {
            "Operator": "OR",
            "Criterias": [

            ],
            "Criterions": [
              {
                "Comment": "Oracle Linux 8 is installed"
              },
              {
                "Comment": "Red Hat CoreOS 4 is installed"
              }
            ]
          },
          {
            "Operator": "OR",
            "Criterias": [
              {
                "Operator": "AND",
                "Criterias": [
                  {
                    "Operator": "OR",
                    "Criterias": [
                      {
                        "Operator": "AND",
                        "Criterias": [

                        ],
                        "Criterions": [
                          {
                            "Comment": "babel is earlier than 0:2.5.1-9.module+el8.1.0+3111+de3f2d8e"
                          },
                          {
                            "Comment": "babel is signed with Red Hat redhatrelease2 key"
                          }
                        ]
                      },
                      {
                        "Operator": "AND",
                        "Criterias": [

                        ],
                        "Criterions": [
                          {
                            "Comment": "python-nose-docs is earlier than 0:1.3.7-30.module+el8.1.0+3111+de3f2d8e"
                          },
                          {
                            "Comment": "python-nose-docs is signed with Red Hat redhatrelease2 key"
                          }
                        ]
                      },
                      {
                        "Operator": "AND",
                        "Criterias": [

                        ],
                        "Criterions": [
                          {
                            "Comment": "python-psycopg2-doc is earlier than 0:2.7.5-7.module+el8.1.0+3111+de3f2d8e"
                          },
                          {
                            "Comment": "python-psycopg2-doc is signed with Red Hat redhatrelease2 key"
                          }
                        ]
                      },
                      {
                        "Operator": "AND",
                        "Criterias": [

                        ],
                        "Criterions": [
                          {
                            "Comment": "python-sqlalchemy-doc is earlier than 0:1.3.2-2.module+el8.3.0+6647+8d010749"
                          },
                          {
                            "Comment": "python-sqlalchemy-doc is signed with Red Hat redhatrelease2 key"
                          }
                        ]
                      },
                      {
                        "Operator": "AND",
                        "Criterias": [

                        ],
                        "Criterions": [
                          {
                            "Comment": "python2 is earlier than 0:2.7.17-2.module+el8.3.0+7681+f1f02ded"
                          },
                          {
                            "Comment": "python2 is signed with Red Hat redhatrelease2 key"
                          }
                        ]
                      },
                      {
                        "Operator": "AND",
                        "Criterias": [

                        ],
                        "Criterions": [
                          {
                            "Comment": "python2-Cython is earlier than 0:0.28.1-7.module+el8.1.0+3111+de3f2d8e"
                          },
                          {
                            "Comment": "python2-Cython is signed with Red Hat redhatrelease2 key"
                          }
                        ]
                      },
                      {
                        "Operator": "AND",
                        "Criterias": [

                        ],
                        "Criterions": [
                          {
                            "Comment": "python2-PyMySQL is earlier than 0:0.8.0-10.module+el8.1.0+3111+de3f2d8e"
                          },
                          {
                            "Comment": "python2-PyMySQL is signed with Red Hat redhatrelease2 key"
                          }
                        ]
                      },
                      {
                        "Operator": "AND",
                        "Criterias": [

                        ],
                        "Criterions": [
                          {
                            "Comment": "python2-attrs is earlier than 0:17.4.0-10.module+el8.1.0+3111+de3f2d8e"
                          },
                          {
                            "Comment": "python2-attrs is signed with Red Hat redhatrelease2 key"
                          }
                        ]
                      },
                      {
                        "Operator": "AND",
                        "Criterias": [

                        ],
                        "Criterions": [
                          {
                            "Comment": "python2-babel is earlier than 0:2.5.1-9.module+el8.1.0+3111+de3f2d8e"
                          },
                          {
                            "Comment": "python2-babel is signed with Red Hat redhatrelease2 key"
                          }
                        ]
                      },
                      {
                        "Operator": "AND",
                        "Criterias": [

                        ],
                        "Criterions": [
                          {
                            "Comment": "python2-backports is earlier than 0:1.0-15.module+el8.1.0+3111+de3f2d8e"
                          },
                          {
                            "Comment": "python2-backports is signed with Red Hat redhatrelease2 key"
                          }
                        ]
                      },
                      {
                        "Operator": "AND",
                        "Criterias": [

                        ],
                        "Criterions": [
                          {
                            "Comment": "python2-backports-ssl_match_hostname is earlier than 0:3.5.0.1-11.module+el8.1.0+3111+de3f2d8e"
                          },
                          {
                            "Comment": "python2-backports-ssl_match_hostname is signed with Red Hat redhatrelease2 key"
                          }
                        ]
                      },
                      {
                        "Operator": "AND",
                        "Criterias": [

                        ],
                        "Criterions": [
                          {
                            "Comment": "python2-bson is earlier than 0:3.6.1-11.module+el8.1.0+3446+c3d52da3"
                          },
                          {
                            "Comment": "python2-bson is signed with Red Hat redhatrelease2 key"
                          }
                        ]
                      },
                      {
                        "Operator": "AND",
                        "Criterias": [

                        ],
                        "Criterions": [
                          {
                            "Comment": "python2-chardet is earlier than 0:3.0.4-10.module+el8.1.0+3111+de3f2d8e"
                          },
                          {
                            "Comment": "python2-chardet is signed with Red Hat redhatrelease2 key"
                          }
                        ]
                      },
                      {
                        "Operator": "AND",
                        "Criterias": [

                        ],
                        "Criterions": [
                          {
                            "Comment": "python2-coverage is earlier than 0:4.5.1-4.module+el8.1.0+3111+de3f2d8e"
                          },
                          {
                            "Comment": "python2-coverage is signed with Red Hat redhatrelease2 key"
                          }
                        ]
                      },
                      {
                        "Operator": "AND",
                        "Criterias": [

                        ],
                        "Criterions": [
                          {
                            "Comment": "python2-debug is earlier than 0:2.7.17-2.module+el8.3.0+7681+f1f02ded"
                          },
                          {
                            "Comment": "python2-debug is signed with Red Hat redhatrelease2 key"
                          }
                        ]
                      },
                      {
                        "Operator": "AND",
                        "Criterias": [

                        ],
                        "Criterions": [
                          {
                            "Comment": "python2-devel is earlier than 0:2.7.17-2.module+el8.3.0+7681+f1f02ded"
                          },
                          {
                            "Comment": "python2-devel is signed with Red Hat redhatrelease2 key"
                          }
                        ]
                      },
                      {
                        "Operator": "AND",
                        "Criterias": [

                        ],
                        "Criterions": [
                          {
                            "Comment": "python2-dns is earlier than 0:1.15.0-10.module+el8.1.0+3111+de3f2d8e"
                          },
                          {
                            "Comment": "python2-dns is signed with Red Hat redhatrelease2 key"
                          }
                        ]
                      },
                      {
                        "Operator": "AND",
                        "Criterias": [

                        ],
                        "Criterions": [
                          {
                            "Comment": "python2-docs is earlier than 0:2.7.16-2.module+el8.1.0+3111+de3f2d8e"
                          },
                          {
                            "Comment": "python2-docs is signed with Red Hat redhatrelease2 key"
                          }
                        ]
                      },
                      {
                        "Operator": "AND",
                        "Criterias": [

                        ],
                        "Criterions": [
                          {
                            "Comment": "python2-docs-info is earlier than 0:2.7.16-2.module+el8.1.0+3111+de3f2d8e"
                          },
                          {
                            "Comment": "python2-docs-info is signed with Red Hat redhatrelease2 key"
                          }
                        ]
                      },
                      {
                        "Operator": "AND",
                        "Criterias": [

                        ],
                        "Criterions": [
                          {
                            "Comment": "python2-docutils is earlier than 0:0.14-12.module+el8.1.0+3111+de3f2d8e"
                          },
                          {
                            "Comment": "python2-docutils is signed with Red Hat redhatrelease2 key"
                          }
                        ]
                      },
                      {
                        "Operator": "AND",
                        "Criterias": [

                        ],
                        "Criterions": [
                          {
                            "Comment": "python2-funcsigs is earlier than 0:1.0.2-13.module+el8.1.0+3111+de3f2d8e"
                          },
                          {
                            "Comment": "python2-funcsigs is signed with Red Hat redhatrelease2 key"
                          }
                        ]
                      },
                      {
                        "Operator": "AND",
                        "Criterias": [

                        ],
                        "Criterions": [
                          {
                            "Comment": "python2-idna is earlier than 0:2.5-7.module+el8.1.0+3111+de3f2d8e"
                          },
                          {
                            "Comment": "python2-idna is signed with Red Hat redhatrelease2 key"
                          }
                        ]
                      },
                      {
                        "Operator": "AND",
                        "Criterias": [

                        ],
                        "Criterions": [
                          {
                            "Comment": "python2-ipaddress is earlier than 0:1.0.18-6.module+el8.1.0+3111+de3f2d8e"
                          },
                          {
                            "Comment": "python2-ipaddress is signed with Red Hat redhatrelease2 key"
                          }
                        ]
                      },
                      {
                        "Operator": "AND",
                        "Criterias": [

                        ],
                        "Criterions": [
                          {
                            "Comment": "python2-jinja2 is earlier than 0:2.10-8.module+el8.1.0+3111+de3f2d8e"
                          },
                          {
                            "Comment": "python2-jinja2 is signed with Red Hat redhatrelease2 key"
                          }
                        ]
                      },
                      {
                        "Operator": "AND",
                        "Criterias": [

                        ],
                        "Criterions": [
                          {
                            "Comment": "python2-libs is earlier than 0:2.7.17-2.module+el8.3.0+7681+f1f02ded"
                          },
                          {
                            "Comment": "python2-libs is signed with Red Hat redhatrelease2 key"
                          }
                        ]
                      },
                      {
                        "Operator": "AND",
                        "Criterias": [

                        ],
                        "Criterions": [
                          {
                            "Comment": "python2-lxml is earlier than 0:4.2.3-3.module+el8.1.0+3111+de3f2d8e"
                          },
                          {
                            "Comment": "python2-lxml is signed with Red Hat redhatrelease2 key"
                          }
                        ]
                      },
                      {
                        "Operator": "AND",
                        "Criterias": [

                        ],
                        "Criterions": [
                          {
                            "Comment": "python2-markupsafe is earlier than 0:0.23-19.module+el8.1.0+3111+de3f2d8e"
                          },
                          {
                            "Comment": "python2-markupsafe is signed with Red Hat redhatrelease2 key"
                          }
                        ]
                      },
                      {
                        "Operator": "AND",
                        "Criterias": [

                        ],
                        "Criterions": [
                          {
                            "Comment": "python2-mock is earlier than 0:2.0.0-13.module+el8.1.0+3111+de3f2d8e"
                          },
                          {
                            "Comment": "python2-mock is signed with Red Hat redhatrelease2 key"
                          }
                        ]
                      },
                      {
                        "Operator": "AND",
                        "Criterias": [

                        ],
                        "Criterions": [
                          {
                            "Comment": "python2-nose is earlier than 0:1.3.7-30.module+el8.1.0+3111+de3f2d8e"
                          },
                          {
                            "Comment": "python2-nose is signed with Red Hat redhatrelease2 key"
                          }
                        ]
                      },
                      {
                        "Operator": "AND",
                        "Criterias": [

                        ],
                        "Criterions": [
                          {
                            "Comment": "python2-numpy is earlier than 1:1.14.2-13.module+el8.1.0+3323+7ac3e00f"
                          },
                          {
                            "Comment": "python2-numpy is signed with Red Hat redhatrelease2 key"
                          }
                        ]
                      },
                      {
                        "Operator": "AND",
                        "Criterias": [

                        ],
                        "Criterions": [
                          {
                            "Comment": "python2-numpy-doc is earlier than 1:1.14.2-13.module+el8.1.0+3323+7ac3e00f"
                          },
                          {
                            "Comment": "python2-numpy-doc is signed with Red Hat redhatrelease2 key"
                          }
                        ]
                      },
                      {
                        "Operator": "AND",
                        "Criterias": [

                        ],
                        "Criterions": [
                          {
                            "Comment": "python2-numpy-f2py is earlier than 1:1.14.2-13.module+el8.1.0+3323+7ac3e00f"
                          },
                          {
                            "Comment": "python2-numpy-f2py is signed with Red Hat redhatrelease2 key"
                          }
                        ]
                      },
                      {
                        "Operator": "AND",
                        "Criterias": [

                        ],
                        "Criterions": [
                          {
                            "Comment": "python2-pip is earlier than 0:9.0.3-18.module+el8.3.0+7707+eb4bba01"
                          },
                          {
                            "Comment": "python2-pip is signed with Red Hat redhatrelease2 key"
                          }
                        ]
                      },
                      {
                        "Operator": "AND",
                        "Criterias": [

                        ],
                        "Criterions": [
                          {
                            "Comment": "python2-pip-wheel is earlier than 0:9.0.3-18.module+el8.3.0+7707+eb4bba01"
                          },
                          {
                            "Comment": "python2-pip-wheel is signed with Red Hat redhatrelease2 key"
                          }
                        ]
                      },
                      {
                        "Operator": "AND",
                        "Criterias": [

                        ],
                        "Criterions": [
                          {
                            "Comment": "python2-pluggy is earlier than 0:0.6.0-8.module+el8.1.0+3111+de3f2d8e"
                          },
                          {
                            "Comment": "python2-pluggy is signed with Red Hat redhatrelease2 key"
                          }
                        ]
                      },
                      {
                        "Operator": "AND",
                        "Criterias": [

                        ],
                        "Criterions": [
                          {
                            "Comment": "python2-psycopg2 is earlier than 0:2.7.5-7.module+el8.1.0+3111+de3f2d8e"
                          },
                          {
                            "Comment": "python2-psycopg2 is signed with Red Hat redhatrelease2 key"
                          }
                        ]
                      },
                      {
                        "Operator": "AND",
                        "Criterias": [

                        ],
                        "Criterions": [
                          {
                            "Comment": "python2-psycopg2-debug is earlier than 0:2.7.5-7.module+el8.1.0+3111+de3f2d8e"
                          },
                          {
                            "Comment": "python2-psycopg2-debug is signed with Red Hat redhatrelease2 key"
                          }
                        ]
                      },
                      {
                        "Operator": "AND",
                        "Criterias": [

                        ],
                        "Criterions": [
                          {
                            "Comment": "python2-psycopg2-tests is earlier than 0:2.7.5-7.module+el8.1.0+3111+de3f2d8e"
                          },
                          {
                            "Comment": "python2-psycopg2-tests is signed with Red Hat redhatrelease2 key"
                          }
                        ]
                      },
                      {
                        "Operator": "AND",
                        "Criterias": [

                        ],
                        "Criterions": [
                          {
                            "Comment": "python2-py is earlier than 0:1.5.3-6.module+el8.1.0+3111+de3f2d8e"
                          },
                          {
                            "Comment": "python2-py is signed with Red Hat redhatrelease2 key"
                          }
                        ]
                      },
                      {
                        "Operator": "AND",
                        "Criterias": [

                        ],
                        "Criterions": [
                          {
                            "Comment": "python2-pygments is earlier than 0:2.2.0-20.module+el8.1.0+3111+de3f2d8e"
                          },
                          {
                            "Comment": "python2-pygments is signed with Red Hat redhatrelease2 key"
                          }
                        ]
                      },
                      {
                        "Operator": "AND",
                        "Criterias": [

                        ],
                        "Criterions": [
                          {
                            "Comment": "python2-pymongo is earlier than 0:3.6.1-11.module+el8.1.0+3446+c3d52da3"
                          },
                          {
                            "Comment": "python2-pymongo is signed with Red Hat redhatrelease2 key"
                          }
                        ]
                      },
                      {
                        "Operator": "AND",
                        "Criterias": [

                        ],
                        "Criterions": [
                          {
                            "Comment": "python2-pymongo-gridfs is earlier than 0:3.6.1-11.module+el8.1.0+3446+c3d52da3"
                          },
                          {
                            "Comment": "python2-pymongo-gridfs is signed with Red Hat redhatrelease2 key"
                          }
                        ]
                      },
                      {
                        "Operator": "AND",
                        "Criterias": [

                        ],
                        "Criterions": [
                          {
                            "Comment": "python2-pysocks is earlier than 0:1.6.8-6.module+el8.1.0+3111+de3f2d8e"
                          },
                          {
                            "Comment": "python2-pysocks is signed with Red Hat redhatrelease2 key"
                          }
                        ]
                      },
                      {
                        "Operator": "AND",
                        "Criterias": [

                        ],
                        "Criterions": [
                          {
                            "Comment": "python2-pytest is earlier than 0:3.4.2-13.module+el8.1.0+3111+de3f2d8e"
                          },
                          {
                            "Comment": "python2-pytest is signed with Red Hat redhatrelease2 key"
                          }
                        ]
                      },
                      {
                        "Operator": "AND",
                        "Criterias": [

                        ],
                        "Criterions": [
                          {
                            "Comment": "python2-pytest-mock is earlier than 0:1.9.0-4.module+el8.1.0+3111+de3f2d8e"
                          },
                          {
                            "Comment": "python2-pytest-mock is signed with Red Hat redhatrelease2 key"
                          }
                        ]
                      },
                      {
                        "Operator": "AND",
                        "Criterias": [

                        ],
                        "Criterions": [
                          {
                            "Comment": "python2-pytz is earlier than 0:2017.2-12.module+el8.1.0+3111+de3f2d8e"
                          },
                          {
                            "Comment": "python2-pytz is signed with Red Hat redhatrelease2 key"
                          }
                        ]
                      },
                      {
                        "Operator": "AND",
                        "Criterias": [

                        ],
                        "Criterions": [
                          {
                            "Comment": "python2-pyyaml is earlier than 0:3.12-16.module+el8.1.0+3111+de3f2d8e"
                          },
                          {
                            "Comment": "python2-pyyaml is signed with Red Hat redhatrelease2 key"
                          }
                        ]
                      },
                      {
                        "Operator": "AND",
                        "Criterias": [

                        ],
                        "Criterions": [
                          {
                            "Comment": "python2-requests is earlier than 0:2.20.0-3.module+el8.2.0+4577+feefd9b8"
                          },
                          {
                            "Comment": "python2-requests is signed with Red Hat redhatrelease2 key"
                          }
                        ]
                      },
                      {
                        "Operator": "AND",
                        "Criterias": [

                        ],
                        "Criterions": [
                          {
                            "Comment": "python2-rpm-macros is earlier than 0:3-38.module+el8.1.0+3111+de3f2d8e"
                          },
                          {
                            "Comment": "python2-rpm-macros is signed with Red Hat redhatrelease2 key"
                          }
                        ]
                      },
                      {
                        "Operator": "AND",
                        "Criterias": [

                        ],
                        "Criterions": [
                          {
                            "Comment": "python2-scipy is earlier than 0:1.0.0-20.module+el8.1.0+3323+7ac3e00f"
                          },
                          {
                            "Comment": "python2-scipy is signed with Red Hat redhatrelease2 key"
                          }
                        ]
                      },
                      {
                        "Operator": "AND",
                        "Criterias": [

                        ],
                        "Criterions": [
                          {
                            "Comment": "python2-setuptools is earlier than 0:39.0.1-12.module+el8.3.0+7075+8484f0d0"
                          },
                          {
                            "Comment": "python2-setuptools is signed with Red Hat redhatrelease2 key"
                          }
                        ]
                      },
                      {
                        "Operator": "AND",
                        "Criterias": [

                        ],
                        "Criterions": [
                          {
                            "Comment": "python2-setuptools-wheel is earlier than 0:39.0.1-12.module+el8.3.0+7075+8484f0d0"
                          },
                          {
                            "Comment": "python2-setuptools-wheel is signed with Red Hat redhatrelease2 key"
                          }
                        ]
                      },
                      {
                        "Operator": "AND",
                        "Criterias": [

                        ],
                        "Criterions": [
                          {
                            "Comment": "python2-setuptools_scm is earlier than 0:1.15.7-6.module+el8.1.0+3111+de3f2d8e"
                          },
                          {
                            "Comment": "python2-setuptools_scm is signed with Red Hat redhatrelease2 key"
                          }
                        ]
                      },
                      {
                        "Operator": "AND",
                        "Criterias": [

                        ],
                        "Criterions": [
                          {
                            "Comment": "python2-six is earlier than 0:1.11.0-5.module+el8.1.0+3111+de3f2d8e"
                          },
                          {
                            "Comment": "python2-six is signed with Red Hat redhatrelease2 key"
                          }
                        ]
                      },
                      {
                        "Operator": "AND",
                        "Criterias": [

                        ],
                        "Criterions": [
                          {
                            "Comment": "python2-sqlalchemy is earlier than 0:1.3.2-2.module+el8.3.0+6647+8d010749"
                          },
                          {
                            "Comment": "python2-sqlalchemy is signed with Red Hat redhatrelease2 key"
                          }
                        ]
                      },
                      {
                        "Operator": "AND",
                        "Criterias": [

                        ],
                        "Criterions": [
                          {
                            "Comment": "python2-test is earlier than 0:2.7.17-2.module+el8.3.0+7681+f1f02ded"
                          },
                          {
                            "Comment": "python2-test is signed with Red Hat redhatrelease2 key"
                          }
                        ]
                      },
                      {
                        "Operator": "AND",
                        "Criterias": [

                        ],
                        "Criterions": [
                          {
                            "Comment": "python2-tkinter is earlier than 0:2.7.17-2.module+el8.3.0+7681+f1f02ded"
                          },
                          {
                            "Comment": "python2-tkinter is signed with Red Hat redhatrelease2 key"
                          }
                        ]
                      },
                      {
                        "Operator": "AND",
                        "Criterias": [

                        ],
                        "Criterions": [
                          {
                            "Comment": "python2-tools is earlier than 0:2.7.17-2.module+el8.3.0+7681+f1f02ded"
                          },
                          {
                            "Comment": "python2-tools is signed with Red Hat redhatrelease2 key"
                          }
                        ]
                      },
                      {
                        "Operator": "AND",
                        "Criterias": [

                        ],
                        "Criterions": [
                          {
                            "Comment": "python2-urllib3 is earlier than 0:1.24.2-1.module+el8.1.0+3280+19512f10"
                          },
                          {
                            "Comment": "python2-urllib3 is signed with Red Hat redhatrelease2 key"
                          }
                        ]
                      },
                      {
                        "Operator": "AND",
                        "Criterias": [

                        ],
                        "Criterions": [
                          {
                            "Comment": "python2-virtualenv is earlier than 0:15.1.0-19.module+el8.1.0+3507+d69c168d"
                          },
                          {
                            "Comment": "python2-virtualenv is signed with Red Hat redhatrelease2 key"
                          }
                        ]
                      },
                      {
                        "Operator": "AND",
                        "Criterias": [

                        ],
                        "Criterions": [
                          {
                            "Comment": "python2-wheel is earlier than 1:0.31.1-2.module+el8.1.0+3725+aac5cd17"
                          },
                          {
                            "Comment": "python2-wheel is signed with Red Hat redhatrelease2 key"
                          }
                        ]
                      },
                      {
                        "Operator": "AND",
                        "Criterias": [

                        ],
                        "Criterions": [
                          {
                            "Comment": "python2-wheel-wheel is earlier than 1:0.31.1-2.module+el8.1.0+3725+aac5cd17"
                          },
                          {
                            "Comment": "python2-wheel-wheel is signed with Red Hat redhatrelease2 key"
                          }
                        ]
                      }
                    ],
                    "Criterions": [

                    ]
                  }
                ],
                "Criterions": [
                  {
                    "Comment": "Module python27:2.7 is enabled"
                  }
                ]
              }
            ],
            "Criterions": [

            ]
          }
        ],
        "Criterions": [

        ]
      }
    ],
    "Criterions": [
      {
        "Comment": "Oracle Linux 8 is installed"
      }
    ]
  },
  "Severity": "Moderate",
  "Cves": [
    {
      "Impact": "",
      "Href": "",
      "ID": "CVE-2019-20907"
    },
    {
      "Impact": "",
      "Href": "",
      "ID": "CVE-2019-20916"
    }
  ],
  "Issued": {
    "Date": "2020-11-04"
  }
}