{
  "Title": "RHSA-2020:1016: kernel security, bug fix, and enhancement update (Moderate)",
  "Description": "The kernel packages contain the Linux kernel, the core of any Linux operating system.\nSecurity Fix(es):\n* kernel: out of bound read in DVB connexant driver. (CVE-2015-9289)\n* kernel: Missing permissions check for request_key() destination allows local attackers to add keys to keyring without Write permission (CVE-2017-17807)\n* kernel: denial of service via ioctl call in network tun handling (CVE-2018-7191)\n* kernel: usb: missing size check in the __usb_get_extra_descriptor() leading to DoS (CVE-2018-20169)\n* kernel: perf_event_open() and execve() race in setuid programs allows a data leak (CVE-2019-3901)\n* kernel: brcmfmac frame validation bypass (CVE-2019-9503)\n* kernel: null-pointer dereference in hci_uart_set_flow_control (CVE-2019-10207)\n* kernel: sensitive information disclosure from kernel stack memory via HIDPCONNADD command (CVE-2019-11884)\n* kernel: unchecked kstrdup of fwstr in drm_load_edid_firmware leads to denial of service (CVE-2019-12382)\n* kernel: use-after-free in arch/x86/lib/insn-eval.c (CVE-2019-13233)\n* kernel: denial of service in arch/powerpc/kernel/signal_32.c and arch/powerpc/kernel/signal_64.c via sigreturn() system call (CVE-2019-13648)\n* kernel: integer overflow and OOB read in drivers/block/floppy.c (CVE-2019-14283)\n* kernel: memory leak in register_queue_kobjects() in net/core/net-sysfs.c leads to denial of service (CVE-2019-15916)\n* kernel: buffer-overflow hardening in WiFi beacon validation code. (CVE-2019-16746)\n* kernel: (powerpc) incomplete Spectre-RSB mitigation leads to information exposure (CVE-2019-18660)\n* kernel: oob memory read in hso_probe in drivers/net/usb/hso.c (CVE-2018-19985)\n* Kernel: net: weak IP ID generation leads to remote device tracking (CVE-2019-10638)\n* Kernel: net: using kernel space address bits to derive IP ID may potentially break KASLR (CVE-2019-10639)\n* kernel: ASLR bypass for setuid binaries due to late install_exec_creds() (CVE-2019-11190)\nFor more details about the security issue(s), including the impact, a CVSS score, acknowledgments, and other related information, refer to the CVE page(s) listed in the References section.\nAdditional Changes:\nFor detailed information on changes in this release, see the Red Hat Enterprise Linux 7.8 Release Notes linked from the References section.",
  "Platform": [
    "Red Hat Enterprise Linux 7"
  ],
  "References": [
    {
      "Source": "RHSA",
      "URI": "https://access.redhat.com/errata/RHSA-2020:1016",
      "ID": "RHSA-2020:1016"
    },
    {
      "Source": "CVE",
      "URI": "https://access.redhat.com/security/cve/CVE-2015-9289",
      "ID": "CVE-2015-9289"
    },
    {
      "Source": "CVE",
      "URI": "https://access.redhat.com/security/cve/CVE-2017-17807",
      "ID": "CVE-2017-17807"
    },
    {
      "Source": "CVE",
      "URI": "https://access.redhat.com/security/cve/CVE-2018-19985",
      "ID": "CVE-2018-19985"
    },
    {
      "Source": "CVE",
      "URI": "https://access.redhat.com/security/cve/CVE-2018-20169",
      "ID": "CVE-2018-20169"
    },
    {
      "Source": "CVE",
      "URI": "https://access.redhat.com/security/cve/CVE-2018-7191",
      "ID": "CVE-2018-7191"
    },
    {
      "Source": "CVE",
      "URI": "https://access.redhat.com/security/cve/CVE-2019-10207",
      "ID": "CVE-2019-10207"
    },
    {
      "Source": "CVE",
      "URI": "https://access.redhat.com/security/cve/CVE-2019-10638",
      "ID": "CVE-2019-10638"
    },
    {
      "Source": "CVE",
      "URI": "https://access.redhat.com/security/cve/CVE-2019-10639",
      "ID": "CVE-2019-10639"
    },
    {
      "Source": "CVE",
      "URI": "https://access.redhat.com/security/cve/CVE-2019-11190",
      "ID": "CVE-2019-11190"
    },
    {
      "Source": "CVE",
      "URI": "https://access.redhat.com/security/cve/CVE-2019-11884",
      "ID": "CVE-2019-11884"
    },
    {
      "Source": "CVE",
      "URI": "https://access.redhat.com/security/cve/CVE-2019-12382",
      "ID": "CVE-2019-12382"
    },
    {
      "Source": "CVE",
      "URI": "https://access.redhat.com/security/cve/CVE-2019-13233",
      "ID": "CVE-2019-13233"
    },
    {
      "Source": "CVE",
      "URI": "https://access.redhat.com/security/cve/CVE-2019-13648",
      "ID": "CVE-2019-13648"
    },
    {
      "Source": "CVE",
      "URI": "https://access.redhat.com/security/cve/CVE-2019-14283",
      "ID": "CVE-2019-14283"
    },
    {
      "Source": "CVE",
      "URI": "https://access.redhat.com/security/cve/CVE-2019-14814",
      "ID": "CVE-2019-14814"
    },
    {
      "Source": "CVE",
      "URI": "https://access.redhat.com/security/cve/CVE-2019-14815",
      "ID": "CVE-2019-14815"
    },
    {
      "Source": "CVE",
      "URI": "https://access.redhat.com/security/cve/CVE-2019-15090",
      "ID": "CVE-2019-15090"
    },
    {
      "Source": "CVE",
      "URI": "https://access.redhat.com/security/cve/CVE-2019-15214",
      "ID": "CVE-2019-15214"
    },
    {
      "Source": "CVE",
      "URI": "https://access.redhat.com/security/cve/CVE-2019-15221",
      "ID": "CVE-2019-15221"
    },
    {
      "Source": "CVE",
      "URI": "https://access.redhat.com/security/cve/CVE-2019-15916",
      "ID": "CVE-2019-15916"
    },
    {
      "Source": "CVE",
      "URI": "https://access.redhat.com/security/cve/CVE-2019-16746",
      "ID": "CVE-2019-16746"
    },
    {
      "Source": "CVE",
      "URI": "https://access.redhat.com/security/cve/CVE-2019-18660",
      "ID": "CVE-2019-18660"
    },
    {
      "Source": "CVE",
      "URI": "https://access.redhat.com/security/cve/CVE-2019-3901",
      "ID": "CVE-2019-3901"
    },
    {
      "Source": "CVE",
      "URI": "https://access.redhat.com/security/cve/CVE-2019-5108",
      "ID": "CVE-2019-5108"
    },
    {
      "Source": "CVE",
      "URI": "https://access.redhat.com/security/cve/CVE-2019-9503",
      "ID": "CVE-2019-9503"
    }
  ],
  "Criteria": {
    "Operator": "OR",
    "Criterias": [
      {
        "Operator": "AND",
        "Criterias": [
          {
            "Operator": "OR",
            "Criterias": [

            ],
            "Criterions": [
              {
                "Comment": "kernel earlier than 0:3.10.0-1127.el7 is currently running"
              },
              {
                "Comment": "kernel earlier than 0:3.10.0-1127.el7 is set to boot up on next boot"
              }
            ]
          },
          {
            "Operator": "OR",
            "Criterias": [
              {
                "Operator": "AND",
                "Criterias": [

                ],
                "Criterions": [
                  {
                    "Comment": "bpftool is earlier than 0:3.10.0-1127.el7"
                  },
                  {
                    "Comment": "bpftool is signed with Red Hat redhatrelease2 key"
                  }
                ]
              },
              {
                "Operator": "AND",
                "Criterias": [

                ],
                "Criterions": [
                  {
                    "Comment": "kernel is earlier than 0:3.10.0-1127.el7"
                  },
                  {
                    "Comment": "kernel is signed with Red Hat redhatrelease2 key"
                  }
                ]
              },
              {
                "Operator": "AND",
                "Criterias": [

                ],
                "Criterions": [
                  {
                    "Comment": "kernel-abi-whitelists is earlier than 0:3.10.0-1127.el7"
                  },
                  {
                    "Comment": "kernel-abi-whitelists is signed with Red Hat redhatrelease2 key"
                  }
                ]
              },
              {
                "Operator": "AND",
                "Criterias": [

                ],
                "Criterions": [
                  {
                    "Comment": "kernel-bootwrapper is earlier than 0:3.10.0-1127.el7"
                  },
                  {
                    "Comment": "kernel-bootwrapper is signed with Red Hat redhatrelease2 key"
                  }
                ]
              },
              {
                "Operator": "AND",
                "Criterias": [

                ],
                "Criterions": [
                  {
                    "Comment": "kernel-debug is earlier than 0:3.10.0-1127.el7"
                  },
                  {
                    "Comment": "kernel-debug is signed with Red Hat redhatrelease2 key"
                  }
                ]
              },
              {
                "Operator": "AND",
                "Criterias": [

                ],
                "Criterions": [
                  {
                    "Comment": "kernel-debug-devel is earlier than 0:3.10.0-1127.el7"
                  },
                  {
                    "Comment": "kernel-debug-devel is signed with Red Hat redhatrelease2 key"
                  }
                ]
              },
              {
                "Operator": "AND",
                "Criterias": [

                ],
                "Criterions": [
                  {
                    "Comment": "kernel-devel is earlier than 0:3.10.0-1127.el7"
                  },
                  {
                    "Comment": "kernel-devel is signed with Red Hat redhatrelease2 key"
                  }
                ]
              },
              {
                "Operator": "AND",
                "Criterias": [

                ],
                "Criterions": [
                  {
                    "Comment": "kernel-doc is earlier than 0:3.10.0-1127.el7"
                  },
                  {
                    "Comment": "kernel-doc is signed with Red Hat redhatrelease2 key"
                  }
                ]
              },
              {
                "Operator": "AND",
                "Criterias": [

                ],
                "Criterions": [
                  {
                    "Comment": "kernel-headers is earlier than 0:3.10.0-1127.el7"
                  },
                  {
                    "Comment": "kernel-headers is signed with Red Hat redhatrelease2 key"
                  }
                ]
              },
              {
                "Operator": "AND",
                "Criterias": [

                ],
                "Criterions": [
                  {
                    "Comment": "kernel-kdump is earlier than 0:3.10.0-1127.el7"
                  },
                  {
                    "Comment": "kernel-kdump is signed with Red Hat redhatrelease2 key"
                  }
                ]
              },
              {
                "Operator": "AND",
                "Criterias": [

                ],
                "Criterions": [
                  {
                    "Comment": "kernel-kdump-devel is earlier than 0:3.10.0-1127.el7"
                  },
                  {
                    "Comment": "kernel-kdump-devel is signed with Red Hat redhatrelease2 key"
                  }
                ]
              },
              {
                "Operator": "AND",
                "Criterias": [

                ],
                "Criterions": [
                  {
                    "Comment": "kernel-tools is earlier than 0:3.10.0-1127.el7"
                  },
                  {
                    "Comment": "kernel-tools is signed with Red Hat redhatrelease2 key"
                  }
                ]
              },
              {
                "Operator": "AND",
                "Criterias": [

                ],
                "Criterions": [
                  {
                    "Comment": "kernel-tools-libs is earlier than 0:3.10.0-1127.el7"
                  },
                  {
                    "Comment": "kernel-tools-libs is signed with Red Hat redhatrelease2 key"
                  }
                ]
              },
              {
                "Operator": "AND",
                "Criterias": [

                ],
                "Criterions": [
                  {
                    "Comment": "kernel-tools-libs-devel is earlier than 0:3.10.0-1127.el7"
                  },
                  {
                    "Comment": "kernel-tools-libs-devel is signed with Red Hat redhatrelease2 key"
                  }
                ]
              },
              {
                "Operator": "AND",
                "Criterias": [

                ],
                "Criterions": [
                  {
                    "Comment": "perf is earlier than 0:3.10.0-1127.el7"
                  },
                  {
                    "Comment": "perf is signed with Red Hat redhatrelease2 key"
                  }
                ]
              },
              {
                "Operator": "AND",
                "Criterias": [

                ],
                "Criterions": [
                  {
                    "Comment": "python-perf is earlier than 0:3.10.0-1127.el7"
                  },
                  {
                    "Comment": "python-perf is signed with Red Hat redhatrelease2 key"
                  }
                ]
              }
            ],
            "Criterions": [

            ]
          }
        ],
        "Criterions": [
          {
            "Comment": "Oracle Linux 7 is installed"
          }
        ]
      }
    ],
    "Criterions": [
      {
        "Comment": "Oracle Linux 7 is installed"
      }
    ]
  },
  "Severity": "Moderate",
  "Cves": [
    {
      "Impact": "",
      "Href": "",
      "ID": "CVE-2015-9289"
    },
    {
      "Impact": "",
      "Href": "",
      "ID": "CVE-2017-17807"
    },
    {
      "Impact": "",
      "Href": "",
      "ID": "CVE-2018-19985"
    },
    {
      "Impact": "",
      "Href": "",
      "ID": "CVE-2018-20169"
    },
    {
      "Impact": "",
      "Href": "",
      "ID": "CVE-2018-7191"
    },
    {
      "Impact": "",
      "Href": "",
      "ID": "CVE-2019-10207"
    },
    {
      "Impact": "",
      "Href": "",
      "ID": "CVE-2019-10638"
    },
    {
      "Impact": "",
      "Href": "",
      "ID": "CVE-2019-10639"
    },
    {
      "Impact": "",
      "Href": "",
      "ID": "CVE-2019-11190"
    },
    {
      "Impact": "",
      "Href": "",
      "ID": "CVE-2019-11884"
    },
    {
      "Impact": "",
      "Href": "",
      "ID": "CVE-2019-12382"
    },
    {
      "Impact": "",
      "Href": "",
      "ID": "CVE-2019-13233"
    },
    {
      "Impact": "",
      "Href": "",
      "ID": "CVE-2019-13648"
    },
    {
      "Impact": "",
      "Href": "",
      "ID": "CVE-2019-14283"
    },
    {
      "Impact": "",
      "Href": "",
      "ID": "CVE-2019-14814"
    },
    {
      "Impact": "",
      "Href": "",
      "ID": "CVE-2019-14815"
    },
    {
      "Impact": "",
      "Href": "",
      "ID": "CVE-2019-15090"
    },
    {
      "Impact": "",
      "Href": "",
      "ID": "CVE-2019-15214"
    },
    {
      "Impact": "",
      "Href": "",
      "ID": "CVE-2019-15221"
    },
    {
      "Impact": "",
      "Href": "",
      "ID": "CVE-2019-15916"
    },
    {
      "Impact": "",
      "Href": "",
      "ID": "CVE-2019-16746"
    },
    {
      "Impact": "",
      "Href": "",
      "ID": "CVE-2019-18660"
    },
    {
      "Impact": "",
      "Href": "",
      "ID": "CVE-2019-3901"
    },
    {
      "Impact": "",
      "Href": "",
      "ID": "CVE-2019-5108"
    },
    {
      "Impact": "",
      "Href": "",
      "ID": "CVE-2019-9503"
    }
  ],
  "Issued": {
    "Date": "2020-03-31"
  }
}