{
  "Title": "RHSA-2020:0897: icu security update (Important)",
  "Description": "The International Components for Unicode (ICU) library provides robust and full-featured Unicode services.\nSecurity Fix(es):\n* ICU: Integer overflow in UnicodeString::doAppend() (CVE-2020-10531)\nFor more details about the security issue(s), including the impact, a CVSS score, acknowledgments, and other related information, refer to the CVE page(s) listed in the References section.",
  "Platform": [
    "Red Hat Enterprise Linux 7"
  ],
  "References": [
    {
      "Source": "RHSA",
      "URI": "https://access.redhat.com/errata/RHSA-2020:0897",
      "ID": "RHSA-2020:0897"
    },
    {
      "Source": "CVE",
      "URI": "https://access.redhat.com/security/cve/CVE-2020-10531",
      "ID": "CVE-2020-10531"
    }
  ],
  "Criteria": {
    "Operator": "OR",
    "Criterias": [
      {
        "Operator": "AND",
        "Criterias": [
          {
            "Operator": "OR",
            "Criterias": [
              {
                "Operator": "AND",
                "Criterias": [

                ],
                "Criterions": [
                  {
                    "Comment": "icu is earlier than 0:50.2-4.el7_7"
                  },
                  {
                    "Comment": "icu is signed with Red Hat redhatrelease2 key"
                  }
                ]
              },
              {
                "Operator": "AND",
                "Criterias": [

                ],
                "Criterions": [
                  {
                    "Comment": "libicu is earlier than 0:50.2-4.el7_7"
                  },
                  {
                    "Comment": "libicu is signed with Red Hat redhatrelease2 key"
                  }
                ]
              },
              {
                "Operator": "AND",
                "Criterias": [

                ],
                "Criterions": [
                  {
                    "Comment": "libicu-devel is earlier than 0:50.2-4.el7_7"
                  },
                  {
                    "Comment": "libicu-devel is signed with Red Hat redhatrelease2 key"
                  }
                ]
              },
              {
                "Operator": "AND",
                "Criterias": [

                ],
                "Criterions": [
                  {
                    "Comment": "libicu-doc is earlier than 0:50.2-4.el7_7"
                  },
                  {
                    "Comment": "libicu-doc is signed with Red Hat redhatrelease2 key"
                  }
                ]
              }
            ],
            "Criterions": [

            ]
          }
        ],
        "Criterions": [
          {
            "Comment": "Oracle Linux 7 is installed"
          }
        ]
      }
    ],
    "Criterions": [
      {
        "Comment": "Oracle Linux 7 is installed"
      }
    ]
  },
  "Severity": "Important",
  "Cves": [
    {
      "Impact": "",
      "Href": "",
      "ID": "CVE-2020-10531"
    }
  ],
  "Issued": {
    "Date": "2020-03-18"
  }
}