{
  "Title": "RHSA-2020:1288: haproxy security update (Critical)",
  "Description": "The haproxy packages provide a reliable, high-performance network load balancer for TCP and HTTP-based applications.\nSecurity Fix(es):\n* haproxy: malformed HTTP/2 requests can lead to out-of-bounds writes (CVE-2020-11100)\nFor more details about the security issue(s), including the impact, a CVSS score, acknowledgments, and other related information, refer to the CVE page(s) listed in the References section.",
  "Platform": [
    "Red Hat Enterprise Linux 8"
  ],
  "References": [
    {
      "Source": "RHSA",
      "URI": "https://access.redhat.com/errata/RHSA-2020:1288",
      "ID": "RHSA-2020:1288"
    },
    {
      "Source": "CVE",
      "URI": "https://access.redhat.com/security/cve/CVE-2020-11100",
      "ID": "CVE-2020-11100"
    }
  ],
  "Criteria": {
    "Operator": "OR",
    "Criterias": [
      {
        "Operator": "AND",
        "Criterias": [
          {
            "Operator": "OR",
            "Criterias": [

            ],
            "Criterions": [
              {
                "Comment": "Oracle Linux 8 is installed"
              },
              {
                "Comment": "Red Hat CoreOS 4 is installed"
              }
            ]
          }
        ],
        "Criterions": [
          {
            "Comment": "haproxy is earlier than 0:1.8.15-6.el8_1.1"
          },
          {
            "Comment": "haproxy is signed with Red Hat redhatrelease2 key"
          }
        ]
      }
    ],
    "Criterions": [
      {
        "Comment": "Oracle Linux 8 is installed"
      }
    ]
  },
  "Severity": "Critical",
  "Cves": [
    {
      "Impact": "",
      "Href": "",
      "ID": "CVE-2020-11100"
    }
  ],
  "Issued": {
    "Date": "2020-04-02"
  }
}