{
  "Title": "RHSA-2020:0520: firefox security update (Important)",
  "Description": "Mozilla Firefox is an open-source web browser, designed for standards compliance, performance, and portability.\nThis update upgrades Firefox to version 68.5.0 ESR.\nSecurity Fix(es):\n* Mozilla: Missing bounds check on shared memory read in the parent process (CVE-2020-6796)\n* Mozilla: Memory safety bugs fixed in Firefox 73 and Firefox ESR 68.5 (CVE-2020-6800)\n* Mozilla: Incorrect parsing of template tag could result in JavaScript injection (CVE-2020-6798)\nFor more details about the security issue(s), including the impact, a CVSS score, acknowledgments, and other related information, refer to the CVE page(s) listed in the References section.",
  "Platform": [
    "Red Hat Enterprise Linux 7"
  ],
  "References": [
    {
      "Source": "RHSA",
      "URI": "https://access.redhat.com/errata/RHSA-2020:0520",
      "ID": "RHSA-2020:0520"
    },
    {
      "Source": "CVE",
      "URI": "https://access.redhat.com/security/cve/CVE-2020-6796",
      "ID": "CVE-2020-6796"
    },
    {
      "Source": "CVE",
      "URI": "https://access.redhat.com/security/cve/CVE-2020-6798",
      "ID": "CVE-2020-6798"
    },
    {
      "Source": "CVE",
      "URI": "https://access.redhat.com/security/cve/CVE-2020-6800",
      "ID": "CVE-2020-6800"
    }
  ],
  "Criteria": {
    "Operator": "OR",
    "Criterias": [
      {
        "Operator": "AND",
        "Criterias": [

        ],
        "Criterions": [
          {
            "Comment": "Oracle Linux 7 is installed"
          },
          {
            "Comment": "firefox is earlier than 0:68.5.0-2.el7_7"
          },
          {
            "Comment": "firefox is signed with Red Hat redhatrelease2 key"
          }
        ]
      }
    ],
    "Criterions": [
      {
        "Comment": "Oracle Linux 7 is installed"
      }
    ]
  },
  "Severity": "Important",
  "Cves": [
    {
      "Impact": "",
      "Href": "",
      "ID": "CVE-2020-6796"
    },
    {
      "Impact": "",
      "Href": "",
      "ID": "CVE-2020-6798"
    },
    {
      "Impact": "",
      "Href": "",
      "ID": "CVE-2020-6800"
    }
  ],
  "Issued": {
    "Date": "2020-02-18"
  }
}