{
  "Title": "RHSA-2020:1068: squid security and bug fix update (Moderate)",
  "Description": "Squid is a high-performance proxy caching server for web clients, supporting FTP, Gopher, and HTTP data objects.\nSecurity Fix(es):\n* squid: Incorrect pointer handling when processing ESI Responses can lead to denial of service (CVE-2018-1000024)\n* squid: Incorrect pointer handling in HTTP processing and certificate download can lead to denial of service (CVE-2018-1000027)\n* squid: XSS via user_name or auth parameter in cachemgr.cgi (CVE-2019-13345)\nFor more details about the security issue(s), including the impact, a CVSS score, acknowledgments, and other related information, refer to the CVE page(s) listed in the References section.\nAdditional Changes:\nFor detailed information on changes in this release, see the Red Hat Enterprise Linux 7.8 Release Notes linked from the References section.",
  "Platform": [
    "Red Hat Enterprise Linux 7"
  ],
  "References": [
    {
      "Source": "RHSA",
      "URI": "https://access.redhat.com/errata/RHSA-2020:1068",
      "ID": "RHSA-2020:1068"
    },
    {
      "Source": "CVE",
      "URI": "https://access.redhat.com/security/cve/CVE-2018-1000024",
      "ID": "CVE-2018-1000024"
    },
    {
      "Source": "CVE",
      "URI": "https://access.redhat.com/security/cve/CVE-2018-1000027",
      "ID": "CVE-2018-1000027"
    },
    {
      "Source": "CVE",
      "URI": "https://access.redhat.com/security/cve/CVE-2019-13345",
      "ID": "CVE-2019-13345"
    }
  ],
  "Criteria": {
    "Operator": "OR",
    "Criterias": [
      {
        "Operator": "AND",
        "Criterias": [
          {
            "Operator": "OR",
            "Criterias": [
              {
                "Operator": "AND",
                "Criterias": [

                ],
                "Criterions": [
                  {
                    "Comment": "squid is earlier than 7:3.5.20-15.el7"
                  },
                  {
                    "Comment": "squid is signed with Red Hat redhatrelease2 key"
                  }
                ]
              },
              {
                "Operator": "AND",
                "Criterias": [

                ],
                "Criterions": [
                  {
                    "Comment": "squid-migration-script is earlier than 7:3.5.20-15.el7"
                  },
                  {
                    "Comment": "squid-migration-script is signed with Red Hat redhatrelease2 key"
                  }
                ]
              },
              {
                "Operator": "AND",
                "Criterias": [

                ],
                "Criterions": [
                  {
                    "Comment": "squid-sysvinit is earlier than 7:3.5.20-15.el7"
                  },
                  {
                    "Comment": "squid-sysvinit is signed with Red Hat redhatrelease2 key"
                  }
                ]
              }
            ],
            "Criterions": [

            ]
          }
        ],
        "Criterions": [
          {
            "Comment": "Oracle Linux 7 is installed"
          }
        ]
      }
    ],
    "Criterions": [
      {
        "Comment": "Oracle Linux 7 is installed"
      }
    ]
  },
  "Severity": "Moderate",
  "Cves": [
    {
      "Impact": "",
      "Href": "",
      "ID": "CVE-2018-1000024"
    },
    {
      "Impact": "",
      "Href": "",
      "ID": "CVE-2018-1000027"
    },
    {
      "Impact": "",
      "Href": "",
      "ID": "CVE-2019-13345"
    }
  ],
  "Issued": {
    "Date": "2020-03-31"
  }
}