{
  "Title": "RHSA-2020:0631: ppp security update (Important)",
  "Description": "The ppp packages contain the Point-to-Point Protocol (PPP) daemon and documentation for PPP support. The PPP protocol provides a method for transmitting datagrams over serial point-to-point links. PPP is usually used to dial in to an Internet Service Provider (ISP) or other organization over a modem and phone line.\nSecurity Fix(es):\n* ppp: Buffer overflow in the eap_request and eap_response functions in eap.c (CVE-2020-8597)\nFor more details about the security issue(s), including the impact, a CVSS score, acknowledgments, and other related information, refer to the CVE page(s) listed in the References section.",
  "Platform": [
    "Red Hat Enterprise Linux 6"
  ],
  "References": [
    {
      "Source": "RHSA",
      "URI": "https://access.redhat.com/errata/RHSA-2020:0631",
      "ID": "RHSA-2020:0631"
    },
    {
      "Source": "CVE",
      "URI": "https://access.redhat.com/security/cve/CVE-2020-8597",
      "ID": "CVE-2020-8597"
    }
  ],
  "Criteria": {
    "Operator": "OR",
    "Criterias": [
      {
        "Operator": "AND",
        "Criterias": [
          {
            "Operator": "OR",
            "Criterias": [
              {
                "Operator": "AND",
                "Criterias": [

                ],
                "Criterions": [
                  {
                    "Comment": "ppp is earlier than 0:2.4.5-11.el6_10"
                  },
                  {
                    "Comment": "ppp is signed with Red Hat redhatrelease2 key"
                  }
                ]
              },
              {
                "Operator": "AND",
                "Criterias": [

                ],
                "Criterions": [
                  {
                    "Comment": "ppp-devel is earlier than 0:2.4.5-11.el6_10"
                  },
                  {
                    "Comment": "ppp-devel is signed with Red Hat redhatrelease2 key"
                  }
                ]
              }
            ],
            "Criterions": [

            ]
          }
        ],
        "Criterions": [
          {
            "Comment": "Oracle Linux 6 is installed"
          }
        ]
      }
    ],
    "Criterions": [
      {
        "Comment": "Oracle Linux 6 is installed"
      }
    ]
  },
  "Severity": "Important",
  "Cves": [
    {
      "Impact": "",
      "Href": "",
      "ID": "CVE-2020-8597"
    }
  ],
  "Issued": {
    "Date": "2020-02-27"
  }
}