{
  "Title": "RHSA-2020:2824: firefox security update (Important)",
  "Description": "Mozilla Firefox is an open-source web browser, designed for standards compliance, performance, and portability.\nThis update upgrades Firefox to version 68.10.0 ESR.\nSecurity Fix(es):\n* Mozilla: Information disclosure due to manipulated URL object (CVE-2020-12418)\n* Mozilla: Use-after-free in nsGlobalWindowInner (CVE-2020-12419)\n* Mozilla: Use-After-Free when trying to connect to a STUN server (CVE-2020-12420)\n* Mozilla: Add-On updates did not respect the same certificate trust rules as software updates (CVE-2020-12421)\nFor more details about the security issue(s), including the impact, a CVSS score, acknowledgments, and other related information, refer to the CVE page(s) listed in the References section.",
  "Platform": [
    "Red Hat Enterprise Linux 6"
  ],
  "References": [
    {
      "Source": "RHSA",
      "URI": "https://access.redhat.com/errata/RHSA-2020:2824",
      "ID": "RHSA-2020:2824"
    },
    {
      "Source": "CVE",
      "URI": "https://access.redhat.com/security/cve/CVE-2020-12418",
      "ID": "CVE-2020-12418"
    },
    {
      "Source": "CVE",
      "URI": "https://access.redhat.com/security/cve/CVE-2020-12419",
      "ID": "CVE-2020-12419"
    },
    {
      "Source": "CVE",
      "URI": "https://access.redhat.com/security/cve/CVE-2020-12420",
      "ID": "CVE-2020-12420"
    },
    {
      "Source": "CVE",
      "URI": "https://access.redhat.com/security/cve/CVE-2020-12421",
      "ID": "CVE-2020-12421"
    }
  ],
  "Criteria": {
    "Operator": "OR",
    "Criterias": [
      {
        "Operator": "AND",
        "Criterias": [

        ],
        "Criterions": [
          {
            "Comment": "Oracle Linux 6 is installed"
          },
          {
            "Comment": "firefox is earlier than 0:68.10.0-1.el6_10"
          },
          {
            "Comment": "firefox is signed with Red Hat redhatrelease2 key"
          }
        ]
      }
    ],
    "Criterions": [
      {
        "Comment": "Oracle Linux 6 is installed"
      }
    ]
  },
  "Severity": "Important",
  "Cves": [
    {
      "Impact": "",
      "Href": "",
      "ID": "CVE-2020-12418"
    },
    {
      "Impact": "",
      "Href": "",
      "ID": "CVE-2020-12419"
    },
    {
      "Impact": "",
      "Href": "",
      "ID": "CVE-2020-12420"
    },
    {
      "Impact": "",
      "Href": "",
      "ID": "CVE-2020-12421"
    }
  ],
  "Issued": {
    "Date": "2020-07-06"
  }
}