{
  "Title": "RHSA-2020:5400: thunderbird security update (Important)",
  "Description": "Mozilla Thunderbird is a standalone mail and newsgroup client.\nThis update upgrades Thunderbird to version 78.5.1.\nSecurity Fix(es):\n* Mozilla: Stack overflow due to incorrect parsing of SMTP server response codes (CVE-2020-26970)\nFor more details about the security issue(s), including the impact, a CVSS score, acknowledgments, and other related information, refer to the CVE page(s) listed in the References section.",
  "Platform": [
    "Red Hat Enterprise Linux 7"
  ],
  "References": [
    {
      "Source": "RHSA",
      "URI": "https://access.redhat.com/errata/RHSA-2020:5400",
      "ID": "RHSA-2020:5400"
    },
    {
      "Source": "CVE",
      "URI": "https://access.redhat.com/security/cve/CVE-2020-26970",
      "ID": "CVE-2020-26970"
    }
  ],
  "Criteria": {
    "Operator": "OR",
    "Criterias": [
      {
        "Operator": "AND",
        "Criterias": [

        ],
        "Criterions": [
          {
            "Comment": "Oracle Linux 7 is installed"
          },
          {
            "Comment": "thunderbird is earlier than 0:78.5.1-1.el7_9"
          },
          {
            "Comment": "thunderbird is signed with Red Hat redhatrelease2 key"
          }
        ]
      }
    ],
    "Criterions": [
      {
        "Comment": "Oracle Linux 7 is installed"
      }
    ]
  },
  "Severity": "Important",
  "Cves": [
    {
      "Impact": "",
      "Href": "",
      "ID": "CVE-2020-26970"
    }
  ],
  "Issued": {
    "Date": "2020-12-14"
  }
}