{
  "Title": "RHSA-2020:4709: librsvg2 security update (Moderate)",
  "Description": "The librsvg2 packages provide a Scalable Vector Graphics (SVG) library based on the libart library.\nSecurity Fix(es):\n* librsvg: Resource exhaustion via crafted SVG file with nested patterns (CVE-2019-20446)\nFor more details about the security issue(s), including the impact, a CVSS score, acknowledgments, and other related information, refer to the CVE page(s) listed in the References section.\nAdditional Changes:\nFor detailed information on changes in this release, see the Red Hat Enterprise Linux 8.3 Release Notes linked from the References section.",
  "Platform": [
    "Red Hat Enterprise Linux 8"
  ],
  "References": [
    {
      "Source": "RHSA",
      "URI": "https://access.redhat.com/errata/RHSA-2020:4709",
      "ID": "RHSA-2020:4709"
    },
    {
      "Source": "CVE",
      "URI": "https://access.redhat.com/security/cve/CVE-2019-20446",
      "ID": "CVE-2019-20446"
    }
  ],
  "Criteria": {
    "Operator": "OR",
    "Criterias": [
      {
        "Operator": "AND",
        "Criterias": [
          {
            "Operator": "OR",
            "Criterias": [

            ],
            "Criterions": [
              {
                "Comment": "Oracle Linux 8 is installed"
              },
              {
                "Comment": "Red Hat CoreOS 4 is installed"
              }
            ]
          },
          {
            "Operator": "OR",
            "Criterias": [
              {
                "Operator": "AND",
                "Criterias": [

                ],
                "Criterions": [
                  {
                    "Comment": "librsvg2 is earlier than 0:2.42.7-4.el8"
                  },
                  {
                    "Comment": "librsvg2 is signed with Red Hat redhatrelease2 key"
                  }
                ]
              },
              {
                "Operator": "AND",
                "Criterias": [

                ],
                "Criterions": [
                  {
                    "Comment": "librsvg2-devel is earlier than 0:2.42.7-4.el8"
                  },
                  {
                    "Comment": "librsvg2-devel is signed with Red Hat redhatrelease2 key"
                  }
                ]
              },
              {
                "Operator": "AND",
                "Criterias": [

                ],
                "Criterions": [
                  {
                    "Comment": "librsvg2-tools is earlier than 0:2.42.7-4.el8"
                  },
                  {
                    "Comment": "librsvg2-tools is signed with Red Hat redhatrelease2 key"
                  }
                ]
              }
            ],
            "Criterions": [

            ]
          }
        ],
        "Criterions": [

        ]
      }
    ],
    "Criterions": [
      {
        "Comment": "Oracle Linux 8 is installed"
      }
    ]
  },
  "Severity": "Moderate",
  "Cves": [
    {
      "Impact": "",
      "Href": "",
      "ID": "CVE-2019-20446"
    }
  ],
  "Issued": {
    "Date": "2020-11-04"
  }
}