{
  "Title": "RHSA-2020:3869: pcp security, bug fix, and enhancement update (Low)",
  "Description": "Performance Co-Pilot (PCP) is a suite of tools, services, and libraries for acquisition, archiving, and analysis of system-level performance measurements. Its light-weight distributed architecture makes it particularly well-suited to centralized analysis of complex systems.\nSecurity Fix(es):\n* pcp: Local privilege escalation in pcp spec file %post section (CVE-2019-3695)\n* pcp: Local privilege escalation in pcp spec file through migrate_tempdirs (CVE-2019-3696)\nFor more details about the security issue(s), including the impact, a CVSS score, acknowledgments, and other related information, refer to the CVE page(s) listed in the References section.\nAdditional Changes:\nFor detailed information on changes in this release, see the Red Hat Enterprise Linux 7.9 Release Notes linked from the References section.",
  "Platform": [
    "Red Hat Enterprise Linux 7"
  ],
  "References": [
    {
      "Source": "RHSA",
      "URI": "https://access.redhat.com/errata/RHSA-2020:3869",
      "ID": "RHSA-2020:3869"
    },
    {
      "Source": "CVE",
      "URI": "https://access.redhat.com/security/cve/CVE-2019-3695",
      "ID": "CVE-2019-3695"
    },
    {
      "Source": "CVE",
      "URI": "https://access.redhat.com/security/cve/CVE-2019-3696",
      "ID": "CVE-2019-3696"
    }
  ],
  "Criteria": {
    "Operator": "OR",
    "Criterias": [
      {
        "Operator": "AND",
        "Criterias": [
          {
            "Operator": "OR",
            "Criterias": [
              {
                "Operator": "AND",
                "Criterias": [

                ],
                "Criterions": [
                  {
                    "Comment": "pcp is earlier than 0:4.3.2-12.el7"
                  },
                  {
                    "Comment": "pcp is signed with Red Hat redhatrelease2 key"
                  }
                ]
              },
              {
                "Operator": "AND",
                "Criterias": [

                ],
                "Criterions": [
                  {
                    "Comment": "pcp-conf is earlier than 0:4.3.2-12.el7"
                  },
                  {
                    "Comment": "pcp-conf is signed with Red Hat redhatrelease2 key"
                  }
                ]
              },
              {
                "Operator": "AND",
                "Criterias": [

                ],
                "Criterions": [
                  {
                    "Comment": "pcp-devel is earlier than 0:4.3.2-12.el7"
                  },
                  {
                    "Comment": "pcp-devel is signed with Red Hat redhatrelease2 key"
                  }
                ]
              },
              {
                "Operator": "AND",
                "Criterias": [

                ],
                "Criterions": [
                  {
                    "Comment": "pcp-doc is earlier than 0:4.3.2-12.el7"
                  },
                  {
                    "Comment": "pcp-doc is signed with Red Hat redhatrelease2 key"
                  }
                ]
              },
              {
                "Operator": "AND",
                "Criterias": [

                ],
                "Criterions": [
                  {
                    "Comment": "pcp-export-pcp2elasticsearch is earlier than 0:4.3.2-12.el7"
                  },
                  {
                    "Comment": "pcp-export-pcp2elasticsearch is signed with Red Hat redhatrelease2 key"
                  }
                ]
              },
              {
                "Operator": "AND",
                "Criterias": [

                ],
                "Criterions": [
                  {
                    "Comment": "pcp-export-pcp2graphite is earlier than 0:4.3.2-12.el7"
                  },
                  {
                    "Comment": "pcp-export-pcp2graphite is signed with Red Hat redhatrelease2 key"
                  }
                ]
              },
              {
                "Operator": "AND",
                "Criterias": [

                ],
                "Criterions": [
                  {
                    "Comment": "pcp-export-pcp2influxdb is earlier than 0:4.3.2-12.el7"
                  },
                  {
                    "Comment": "pcp-export-pcp2influxdb is signed with Red Hat redhatrelease2 key"
                  }
                ]
              },
              {
                "Operator": "AND",
                "Criterias": [

                ],
                "Criterions": [
                  {
                    "Comment": "pcp-export-pcp2json is earlier than 0:4.3.2-12.el7"
                  },
                  {
                    "Comment": "pcp-export-pcp2json is signed with Red Hat redhatrelease2 key"
                  }
                ]
              },
              {
                "Operator": "AND",
                "Criterias": [

                ],
                "Criterions": [
                  {
                    "Comment": "pcp-export-pcp2spark is earlier than 0:4.3.2-12.el7"
                  },
                  {
                    "Comment": "pcp-export-pcp2spark is signed with Red Hat redhatrelease2 key"
                  }
                ]
              },
              {
                "Operator": "AND",
                "Criterias": [

                ],
                "Criterions": [
                  {
                    "Comment": "pcp-export-pcp2xml is earlier than 0:4.3.2-12.el7"
                  },
                  {
                    "Comment": "pcp-export-pcp2xml is signed with Red Hat redhatrelease2 key"
                  }
                ]
              },
              {
                "Operator": "AND",
                "Criterias": [

                ],
                "Criterions": [
                  {
                    "Comment": "pcp-export-pcp2zabbix is earlier than 0:4.3.2-12.el7"
                  },
                  {
                    "Comment": "pcp-export-pcp2zabbix is signed with Red Hat redhatrelease2 key"
                  }
                ]
              },
              {
                "Operator": "AND",
                "Criterias": [

                ],
                "Criterions": [
                  {
                    "Comment": "pcp-export-zabbix-agent is earlier than 0:4.3.2-12.el7"
                  },
                  {
                    "Comment": "pcp-export-zabbix-agent is signed with Red Hat redhatrelease2 key"
                  }
                ]
              },
              {
                "Operator": "AND",
                "Criterias": [

                ],
                "Criterions": [
                  {
                    "Comment": "pcp-gui is earlier than 0:4.3.2-12.el7"
                  },
                  {
                    "Comment": "pcp-gui is signed with Red Hat redhatrelease2 key"
                  }
                ]
              },
              {
                "Operator": "AND",
                "Criterias": [

                ],
                "Criterions": [
                  {
                    "Comment": "pcp-import-collectl2pcp is earlier than 0:4.3.2-12.el7"
                  },
                  {
                    "Comment": "pcp-import-collectl2pcp is signed with Red Hat redhatrelease2 key"
                  }
                ]
              },
              {
                "Operator": "AND",
                "Criterias": [

                ],
                "Criterions": [
                  {
                    "Comment": "pcp-import-ganglia2pcp is earlier than 0:4.3.2-12.el7"
                  },
                  {
                    "Comment": "pcp-import-ganglia2pcp is signed with Red Hat redhatrelease2 key"
                  }
                ]
              },
              {
                "Operator": "AND",
                "Criterias": [

                ],
                "Criterions": [
                  {
                    "Comment": "pcp-import-iostat2pcp is earlier than 0:4.3.2-12.el7"
                  },
                  {
                    "Comment": "pcp-import-iostat2pcp is signed with Red Hat redhatrelease2 key"
                  }
                ]
              },
              {
                "Operator": "AND",
                "Criterias": [

                ],
                "Criterions": [
                  {
                    "Comment": "pcp-import-mrtg2pcp is earlier than 0:4.3.2-12.el7"
                  },
                  {
                    "Comment": "pcp-import-mrtg2pcp is signed with Red Hat redhatrelease2 key"
                  }
                ]
              },
              {
                "Operator": "AND",
                "Criterias": [

                ],
                "Criterions": [
                  {
                    "Comment": "pcp-import-sar2pcp is earlier than 0:4.3.2-12.el7"
                  },
                  {
                    "Comment": "pcp-import-sar2pcp is signed with Red Hat redhatrelease2 key"
                  }
                ]
              },
              {
                "Operator": "AND",
                "Criterias": [

                ],
                "Criterions": [
                  {
                    "Comment": "pcp-libs is earlier than 0:4.3.2-12.el7"
                  },
                  {
                    "Comment": "pcp-libs is signed with Red Hat redhatrelease2 key"
                  }
                ]
              },
              {
                "Operator": "AND",
                "Criterias": [

                ],
                "Criterions": [
                  {
                    "Comment": "pcp-libs-devel is earlier than 0:4.3.2-12.el7"
                  },
                  {
                    "Comment": "pcp-libs-devel is signed with Red Hat redhatrelease2 key"
                  }
                ]
              },
              {
                "Operator": "AND",
                "Criterias": [

                ],
                "Criterions": [
                  {
                    "Comment": "pcp-manager is earlier than 0:4.3.2-12.el7"
                  },
                  {
                    "Comment": "pcp-manager is signed with Red Hat redhatrelease2 key"
                  }
                ]
              },
              {
                "Operator": "AND",
                "Criterias": [

                ],
                "Criterions": [
                  {
                    "Comment": "pcp-pmda-activemq is earlier than 0:4.3.2-12.el7"
                  },
                  {
                    "Comment": "pcp-pmda-activemq is signed with Red Hat redhatrelease2 key"
                  }
                ]
              },
              {
                "Operator": "AND",
                "Criterias": [

                ],
                "Criterions": [
                  {
                    "Comment": "pcp-pmda-apache is earlier than 0:4.3.2-12.el7"
                  },
                  {
                    "Comment": "pcp-pmda-apache is signed with Red Hat redhatrelease2 key"
                  }
                ]
              },
              {
                "Operator": "AND",
                "Criterias": [

                ],
                "Criterions": [
                  {
                    "Comment": "pcp-pmda-bash is earlier than 0:4.3.2-12.el7"
                  },
                  {
                    "Comment": "pcp-pmda-bash is signed with Red Hat redhatrelease2 key"
                  }
                ]
              },
              {
                "Operator": "AND",
                "Criterias": [

                ],
                "Criterions": [
                  {
                    "Comment": "pcp-pmda-bcc is earlier than 0:4.3.2-12.el7"
                  },
                  {
                    "Comment": "pcp-pmda-bcc is signed with Red Hat redhatrelease2 key"
                  }
                ]
              },
              {
                "Operator": "AND",
                "Criterias": [

                ],
                "Criterions": [
                  {
                    "Comment": "pcp-pmda-bind2 is earlier than 0:4.3.2-12.el7"
                  },
                  {
                    "Comment": "pcp-pmda-bind2 is signed with Red Hat redhatrelease2 key"
                  }
                ]
              },
              {
                "Operator": "AND",
                "Criterias": [

                ],
                "Criterions": [
                  {
                    "Comment": "pcp-pmda-bonding is earlier than 0:4.3.2-12.el7"
                  },
                  {
                    "Comment": "pcp-pmda-bonding is signed with Red Hat redhatrelease2 key"
                  }
                ]
              },
              {
                "Operator": "AND",
                "Criterias": [

                ],
                "Criterions": [
                  {
                    "Comment": "pcp-pmda-cifs is earlier than 0:4.3.2-12.el7"
                  },
                  {
                    "Comment": "pcp-pmda-cifs is signed with Red Hat redhatrelease2 key"
                  }
                ]
              },
              {
                "Operator": "AND",
                "Criterias": [

                ],
                "Criterions": [
                  {
                    "Comment": "pcp-pmda-cisco is earlier than 0:4.3.2-12.el7"
                  },
                  {
                    "Comment": "pcp-pmda-cisco is signed with Red Hat redhatrelease2 key"
                  }
                ]
              },
              {
                "Operator": "AND",
                "Criterias": [

                ],
                "Criterions": [
                  {
                    "Comment": "pcp-pmda-dbping is earlier than 0:4.3.2-12.el7"
                  },
                  {
                    "Comment": "pcp-pmda-dbping is signed with Red Hat redhatrelease2 key"
                  }
                ]
              },
              {
                "Operator": "AND",
                "Criterias": [

                ],
                "Criterions": [
                  {
                    "Comment": "pcp-pmda-dm is earlier than 0:4.3.2-12.el7"
                  },
                  {
                    "Comment": "pcp-pmda-dm is signed with Red Hat redhatrelease2 key"
                  }
                ]
              },
              {
                "Operator": "AND",
                "Criterias": [

                ],
                "Criterions": [
                  {
                    "Comment": "pcp-pmda-docker is earlier than 0:4.3.2-12.el7"
                  },
                  {
                    "Comment": "pcp-pmda-docker is signed with Red Hat redhatrelease2 key"
                  }
                ]
              },
              {
                "Operator": "AND",
                "Criterias": [

                ],
                "Criterions": [
                  {
                    "Comment": "pcp-pmda-ds389 is earlier than 0:4.3.2-12.el7"
                  },
                  {
                    "Comment": "pcp-pmda-ds389 is signed with Red Hat redhatrelease2 key"
                  }
                ]
              },
              {
                "Operator": "AND",
                "Criterias": [

                ],
                "Criterions": [
                  {
                    "Comment": "pcp-pmda-ds389log is earlier than 0:4.3.2-12.el7"
                  },
                  {
                    "Comment": "pcp-pmda-ds389log is signed with Red Hat redhatrelease2 key"
                  }
                ]
              },
              {
                "Operator": "AND",
                "Criterias": [

                ],
                "Criterions": [
                  {
                    "Comment": "pcp-pmda-elasticsearch is earlier than 0:4.3.2-12.el7"
                  },
                  {
                    "Comment": "pcp-pmda-elasticsearch is signed with Red Hat redhatrelease2 key"
                  }
                ]
              },
              {
                "Operator": "AND",
                "Criterias": [

                ],
                "Criterions": [
                  {
                    "Comment": "pcp-pmda-gfs2 is earlier than 0:4.3.2-12.el7"
                  },
                  {
                    "Comment": "pcp-pmda-gfs2 is signed with Red Hat redhatrelease2 key"
                  }
                ]
              },
              {
                "Operator": "AND",
                "Criterias": [

                ],
                "Criterions": [
                  {
                    "Comment": "pcp-pmda-gluster is earlier than 0:4.3.2-12.el7"
                  },
                  {
                    "Comment": "pcp-pmda-gluster is signed with Red Hat redhatrelease2 key"
                  }
                ]
              },
              {
                "Operator": "AND",
                "Criterias": [

                ],
                "Criterions": [
                  {
                    "Comment": "pcp-pmda-gpfs is earlier than 0:4.3.2-12.el7"
                  },
                  {
                    "Comment": "pcp-pmda-gpfs is signed with Red Hat redhatrelease2 key"
                  }
                ]
              },
              {
                "Operator": "AND",
                "Criterias": [

                ],
                "Criterions": [
                  {
                    "Comment": "pcp-pmda-gpsd is earlier than 0:4.3.2-12.el7"
                  },
                  {
                    "Comment": "pcp-pmda-gpsd is signed with Red Hat redhatrelease2 key"
                  }
                ]
              },
              {
                "Operator": "AND",
                "Criterias": [

                ],
                "Criterions": [
                  {
                    "Comment": "pcp-pmda-haproxy is earlier than 0:4.3.2-12.el7"
                  },
                  {
                    "Comment": "pcp-pmda-haproxy is signed with Red Hat redhatrelease2 key"
                  }
                ]
              },
              {
                "Operator": "AND",
                "Criterias": [

                ],
                "Criterions": [
                  {
                    "Comment": "pcp-pmda-infiniband is earlier than 0:4.3.2-12.el7"
                  },
                  {
                    "Comment": "pcp-pmda-infiniband is signed with Red Hat redhatrelease2 key"
                  }
                ]
              },
              {
                "Operator": "AND",
                "Criterias": [

                ],
                "Criterions": [
                  {
                    "Comment": "pcp-pmda-json is earlier than 0:4.3.2-12.el7"
                  },
                  {
                    "Comment": "pcp-pmda-json is signed with Red Hat redhatrelease2 key"
                  }
                ]
              },
              {
                "Operator": "AND",
                "Criterias": [

                ],
                "Criterions": [
                  {
                    "Comment": "pcp-pmda-libvirt is earlier than 0:4.3.2-12.el7"
                  },
                  {
                    "Comment": "pcp-pmda-libvirt is signed with Red Hat redhatrelease2 key"
                  }
                ]
              },
              {
                "Operator": "AND",
                "Criterias": [

                ],
                "Criterions": [
                  {
                    "Comment": "pcp-pmda-lio is earlier than 0:4.3.2-12.el7"
                  },
                  {
                    "Comment": "pcp-pmda-lio is signed with Red Hat redhatrelease2 key"
                  }
                ]
              },
              {
                "Operator": "AND",
                "Criterias": [

                ],
                "Criterions": [
                  {
                    "Comment": "pcp-pmda-lmsensors is earlier than 0:4.3.2-12.el7"
                  },
                  {
                    "Comment": "pcp-pmda-lmsensors is signed with Red Hat redhatrelease2 key"
                  }
                ]
              },
              {
                "Operator": "AND",
                "Criterias": [

                ],
                "Criterions": [
                  {
                    "Comment": "pcp-pmda-logger is earlier than 0:4.3.2-12.el7"
                  },
                  {
                    "Comment": "pcp-pmda-logger is signed with Red Hat redhatrelease2 key"
                  }
                ]
              },
              {
                "Operator": "AND",
                "Criterias": [

                ],
                "Criterions": [
                  {
                    "Comment": "pcp-pmda-lustre is earlier than 0:4.3.2-12.el7"
                  },
                  {
                    "Comment": "pcp-pmda-lustre is signed with Red Hat redhatrelease2 key"
                  }
                ]
              },
              {
                "Operator": "AND",
                "Criterias": [

                ],
                "Criterions": [
                  {
                    "Comment": "pcp-pmda-lustrecomm is earlier than 0:4.3.2-12.el7"
                  },
                  {
                    "Comment": "pcp-pmda-lustrecomm is signed with Red Hat redhatrelease2 key"
                  }
                ]
              },
              {
                "Operator": "AND",
                "Criterias": [

                ],
                "Criterions": [
                  {
                    "Comment": "pcp-pmda-mailq is earlier than 0:4.3.2-12.el7"
                  },
                  {
                    "Comment": "pcp-pmda-mailq is signed with Red Hat redhatrelease2 key"
                  }
                ]
              },
              {
                "Operator": "AND",
                "Criterias": [

                ],
                "Criterions": [
                  {
                    "Comment": "pcp-pmda-memcache is earlier than 0:4.3.2-12.el7"
                  },
                  {
                    "Comment": "pcp-pmda-memcache is signed with Red Hat redhatrelease2 key"
                  }
                ]
              },
              {
                "Operator": "AND",
                "Criterias": [

                ],
                "Criterions": [
                  {
                    "Comment": "pcp-pmda-mic is earlier than 0:4.3.2-12.el7"
                  },
                  {
                    "Comment": "pcp-pmda-mic is signed with Red Hat redhatrelease2 key"
                  }
                ]
              },
              {
                "Operator": "AND",
                "Criterias": [

                ],
                "Criterions": [
                  {
                    "Comment": "pcp-pmda-mounts is earlier than 0:4.3.2-12.el7"
                  },
                  {
                    "Comment": "pcp-pmda-mounts is signed with Red Hat redhatrelease2 key"
                  }
                ]
              },
              {
                "Operator": "AND",
                "Criterias": [

                ],
                "Criterions": [
                  {
                    "Comment": "pcp-pmda-mysql is earlier than 0:4.3.2-12.el7"
                  },
                  {
                    "Comment": "pcp-pmda-mysql is signed with Red Hat redhatrelease2 key"
                  }
                ]
              },
              {
                "Operator": "AND",
                "Criterias": [

                ],
                "Criterions": [
                  {
                    "Comment": "pcp-pmda-named is earlier than 0:4.3.2-12.el7"
                  },
                  {
                    "Comment": "pcp-pmda-named is signed with Red Hat redhatrelease2 key"
                  }
                ]
              },
              {
                "Operator": "AND",
                "Criterias": [

                ],
                "Criterions": [
                  {
                    "Comment": "pcp-pmda-netfilter is earlier than 0:4.3.2-12.el7"
                  },
                  {
                    "Comment": "pcp-pmda-netfilter is signed with Red Hat redhatrelease2 key"
                  }
                ]
              },
              {
                "Operator": "AND",
                "Criterias": [

                ],
                "Criterions": [
                  {
                    "Comment": "pcp-pmda-news is earlier than 0:4.3.2-12.el7"
                  },
                  {
                    "Comment": "pcp-pmda-news is signed with Red Hat redhatrelease2 key"
                  }
                ]
              },
              {
                "Operator": "AND",
                "Criterias": [

                ],
                "Criterions": [
                  {
                    "Comment": "pcp-pmda-nfsclient is earlier than 0:4.3.2-12.el7"
                  },
                  {
                    "Comment": "pcp-pmda-nfsclient is signed with Red Hat redhatrelease2 key"
                  }
                ]
              },
              {
                "Operator": "AND",
                "Criterias": [

                ],
                "Criterions": [
                  {
                    "Comment": "pcp-pmda-nginx is earlier than 0:4.3.2-12.el7"
                  },
                  {
                    "Comment": "pcp-pmda-nginx is signed with Red Hat redhatrelease2 key"
                  }
                ]
              },
              {
                "Operator": "AND",
                "Criterias": [

                ],
                "Criterions": [
                  {
                    "Comment": "pcp-pmda-nvidia-gpu is earlier than 0:4.3.2-12.el7"
                  },
                  {
                    "Comment": "pcp-pmda-nvidia-gpu is signed with Red Hat redhatrelease2 key"
                  }
                ]
              },
              {
                "Operator": "AND",
                "Criterias": [

                ],
                "Criterions": [
                  {
                    "Comment": "pcp-pmda-oracle is earlier than 0:4.3.2-12.el7"
                  },
                  {
                    "Comment": "pcp-pmda-oracle is signed with Red Hat redhatrelease2 key"
                  }
                ]
              },
              {
                "Operator": "AND",
                "Criterias": [

                ],
                "Criterions": [
                  {
                    "Comment": "pcp-pmda-pdns is earlier than 0:4.3.2-12.el7"
                  },
                  {
                    "Comment": "pcp-pmda-pdns is signed with Red Hat redhatrelease2 key"
                  }
                ]
              },
              {
                "Operator": "AND",
                "Criterias": [

                ],
                "Criterions": [
                  {
                    "Comment": "pcp-pmda-perfevent is earlier than 0:4.3.2-12.el7"
                  },
                  {
                    "Comment": "pcp-pmda-perfevent is signed with Red Hat redhatrelease2 key"
                  }
                ]
              },
              {
                "Operator": "AND",
                "Criterias": [

                ],
                "Criterions": [
                  {
                    "Comment": "pcp-pmda-postfix is earlier than 0:4.3.2-12.el7"
                  },
                  {
                    "Comment": "pcp-pmda-postfix is signed with Red Hat redhatrelease2 key"
                  }
                ]
              },
              {
                "Operator": "AND",
                "Criterias": [

                ],
                "Criterions": [
                  {
                    "Comment": "pcp-pmda-postgresql is earlier than 0:4.3.2-12.el7"
                  },
                  {
                    "Comment": "pcp-pmda-postgresql is signed with Red Hat redhatrelease2 key"
                  }
                ]
              },
              {
                "Operator": "AND",
                "Criterias": [

                ],
                "Criterions": [
                  {
                    "Comment": "pcp-pmda-prometheus is earlier than 0:4.3.2-12.el7"
                  },
                  {
                    "Comment": "pcp-pmda-prometheus is signed with Red Hat redhatrelease2 key"
                  }
                ]
              },
              {
                "Operator": "AND",
                "Criterias": [

                ],
                "Criterions": [
                  {
                    "Comment": "pcp-pmda-redis is earlier than 0:4.3.2-12.el7"
                  },
                  {
                    "Comment": "pcp-pmda-redis is signed with Red Hat redhatrelease2 key"
                  }
                ]
              },
              {
                "Operator": "AND",
                "Criterias": [

                ],
                "Criterions": [
                  {
                    "Comment": "pcp-pmda-roomtemp is earlier than 0:4.3.2-12.el7"
                  },
                  {
                    "Comment": "pcp-pmda-roomtemp is signed with Red Hat redhatrelease2 key"
                  }
                ]
              },
              {
                "Operator": "AND",
                "Criterias": [

                ],
                "Criterions": [
                  {
                    "Comment": "pcp-pmda-rpm is earlier than 0:4.3.2-12.el7"
                  },
                  {
                    "Comment": "pcp-pmda-rpm is signed with Red Hat redhatrelease2 key"
                  }
                ]
              },
              {
                "Operator": "AND",
                "Criterias": [

                ],
                "Criterions": [
                  {
                    "Comment": "pcp-pmda-rsyslog is earlier than 0:4.3.2-12.el7"
                  },
                  {
                    "Comment": "pcp-pmda-rsyslog is signed with Red Hat redhatrelease2 key"
                  }
                ]
              },
              {
                "Operator": "AND",
                "Criterias": [

                ],
                "Criterions": [
                  {
                    "Comment": "pcp-pmda-samba is earlier than 0:4.3.2-12.el7"
                  },
                  {
                    "Comment": "pcp-pmda-samba is signed with Red Hat redhatrelease2 key"
                  }
                ]
              },
              {
                "Operator": "AND",
                "Criterias": [

                ],
                "Criterions": [
                  {
                    "Comment": "pcp-pmda-sendmail is earlier than 0:4.3.2-12.el7"
                  },
                  {
                    "Comment": "pcp-pmda-sendmail is signed with Red Hat redhatrelease2 key"
                  }
                ]
              },
              {
                "Operator": "AND",
                "Criterias": [

                ],
                "Criterions": [
                  {
                    "Comment": "pcp-pmda-shping is earlier than 0:4.3.2-12.el7"
                  },
                  {
                    "Comment": "pcp-pmda-shping is signed with Red Hat redhatrelease2 key"
                  }
                ]
              },
              {
                "Operator": "AND",
                "Criterias": [

                ],
                "Criterions": [
                  {
                    "Comment": "pcp-pmda-slurm is earlier than 0:4.3.2-12.el7"
                  },
                  {
                    "Comment": "pcp-pmda-slurm is signed with Red Hat redhatrelease2 key"
                  }
                ]
              },
              {
                "Operator": "AND",
                "Criterias": [

                ],
                "Criterions": [
                  {
                    "Comment": "pcp-pmda-smart is earlier than 0:4.3.2-12.el7"
                  },
                  {
                    "Comment": "pcp-pmda-smart is signed with Red Hat redhatrelease2 key"
                  }
                ]
              },
              {
                "Operator": "AND",
                "Criterias": [

                ],
                "Criterions": [
                  {
                    "Comment": "pcp-pmda-snmp is earlier than 0:4.3.2-12.el7"
                  },
                  {
                    "Comment": "pcp-pmda-snmp is signed with Red Hat redhatrelease2 key"
                  }
                ]
              },
              {
                "Operator": "AND",
                "Criterias": [

                ],
                "Criterions": [
                  {
                    "Comment": "pcp-pmda-summary is earlier than 0:4.3.2-12.el7"
                  },
                  {
                    "Comment": "pcp-pmda-summary is signed with Red Hat redhatrelease2 key"
                  }
                ]
              },
              {
                "Operator": "AND",
                "Criterias": [

                ],
                "Criterions": [
                  {
                    "Comment": "pcp-pmda-systemd is earlier than 0:4.3.2-12.el7"
                  },
                  {
                    "Comment": "pcp-pmda-systemd is signed with Red Hat redhatrelease2 key"
                  }
                ]
              },
              {
                "Operator": "AND",
                "Criterias": [

                ],
                "Criterions": [
                  {
                    "Comment": "pcp-pmda-trace is earlier than 0:4.3.2-12.el7"
                  },
                  {
                    "Comment": "pcp-pmda-trace is signed with Red Hat redhatrelease2 key"
                  }
                ]
              },
              {
                "Operator": "AND",
                "Criterias": [

                ],
                "Criterions": [
                  {
                    "Comment": "pcp-pmda-unbound is earlier than 0:4.3.2-12.el7"
                  },
                  {
                    "Comment": "pcp-pmda-unbound is signed with Red Hat redhatrelease2 key"
                  }
                ]
              },
              {
                "Operator": "AND",
                "Criterias": [

                ],
                "Criterions": [
                  {
                    "Comment": "pcp-pmda-vmware is earlier than 0:4.3.2-12.el7"
                  },
                  {
                    "Comment": "pcp-pmda-vmware is signed with Red Hat redhatrelease2 key"
                  }
                ]
              },
              {
                "Operator": "AND",
                "Criterias": [

                ],
                "Criterions": [
                  {
                    "Comment": "pcp-pmda-weblog is earlier than 0:4.3.2-12.el7"
                  },
                  {
                    "Comment": "pcp-pmda-weblog is signed with Red Hat redhatrelease2 key"
                  }
                ]
              },
              {
                "Operator": "AND",
                "Criterias": [

                ],
                "Criterions": [
                  {
                    "Comment": "pcp-pmda-zimbra is earlier than 0:4.3.2-12.el7"
                  },
                  {
                    "Comment": "pcp-pmda-zimbra is signed with Red Hat redhatrelease2 key"
                  }
                ]
              },
              {
                "Operator": "AND",
                "Criterias": [

                ],
                "Criterions": [
                  {
                    "Comment": "pcp-pmda-zswap is earlier than 0:4.3.2-12.el7"
                  },
                  {
                    "Comment": "pcp-pmda-zswap is signed with Red Hat redhatrelease2 key"
                  }
                ]
              },
              {
                "Operator": "AND",
                "Criterias": [

                ],
                "Criterions": [
                  {
                    "Comment": "pcp-selinux is earlier than 0:4.3.2-12.el7"
                  },
                  {
                    "Comment": "pcp-selinux is signed with Red Hat redhatrelease2 key"
                  }
                ]
              },
              {
                "Operator": "AND",
                "Criterias": [

                ],
                "Criterions": [
                  {
                    "Comment": "pcp-system-tools is earlier than 0:4.3.2-12.el7"
                  },
                  {
                    "Comment": "pcp-system-tools is signed with Red Hat redhatrelease2 key"
                  }
                ]
              },
              {
                "Operator": "AND",
                "Criterias": [

                ],
                "Criterions": [
                  {
                    "Comment": "pcp-testsuite is earlier than 0:4.3.2-12.el7"
                  },
                  {
                    "Comment": "pcp-testsuite is signed with Red Hat redhatrelease2 key"
                  }
                ]
              },
              {
                "Operator": "AND",
                "Criterias": [

                ],
                "Criterions": [
                  {
                    "Comment": "pcp-webapi is earlier than 0:4.3.2-12.el7"
                  },
                  {
                    "Comment": "pcp-webapi is signed with Red Hat redhatrelease2 key"
                  }
                ]
              },
              {
                "Operator": "AND",
                "Criterias": [

                ],
                "Criterions": [
                  {
                    "Comment": "pcp-webapp-blinkenlights is earlier than 0:4.3.2-12.el7"
                  },
                  {
                    "Comment": "pcp-webapp-blinkenlights is signed with Red Hat redhatrelease2 key"
                  }
                ]
              },
              {
                "Operator": "AND",
                "Criterias": [

                ],
                "Criterions": [
                  {
                    "Comment": "pcp-webapp-grafana is earlier than 0:4.3.2-12.el7"
                  },
                  {
                    "Comment": "pcp-webapp-grafana is signed with Red Hat redhatrelease2 key"
                  }
                ]
              },
              {
                "Operator": "AND",
                "Criterias": [

                ],
                "Criterions": [
                  {
                    "Comment": "pcp-webapp-graphite is earlier than 0:4.3.2-12.el7"
                  },
                  {
                    "Comment": "pcp-webapp-graphite is signed with Red Hat redhatrelease2 key"
                  }
                ]
              },
              {
                "Operator": "AND",
                "Criterias": [

                ],
                "Criterions": [
                  {
                    "Comment": "pcp-webapp-vector is earlier than 0:4.3.2-12.el7"
                  },
                  {
                    "Comment": "pcp-webapp-vector is signed with Red Hat redhatrelease2 key"
                  }
                ]
              },
              {
                "Operator": "AND",
                "Criterias": [

                ],
                "Criterions": [
                  {
                    "Comment": "pcp-webjs is earlier than 0:4.3.2-12.el7"
                  },
                  {
                    "Comment": "pcp-webjs is signed with Red Hat redhatrelease2 key"
                  }
                ]
              },
              {
                "Operator": "AND",
                "Criterias": [

                ],
                "Criterions": [
                  {
                    "Comment": "pcp-zeroconf is earlier than 0:4.3.2-12.el7"
                  },
                  {
                    "Comment": "pcp-zeroconf is signed with Red Hat redhatrelease2 key"
                  }
                ]
              },
              {
                "Operator": "AND",
                "Criterias": [

                ],
                "Criterions": [
                  {
                    "Comment": "perl-PCP-LogImport is earlier than 0:4.3.2-12.el7"
                  },
                  {
                    "Comment": "perl-PCP-LogImport is signed with Red Hat redhatrelease2 key"
                  }
                ]
              },
              {
                "Operator": "AND",
                "Criterias": [

                ],
                "Criterions": [
                  {
                    "Comment": "perl-PCP-LogSummary is earlier than 0:4.3.2-12.el7"
                  },
                  {
                    "Comment": "perl-PCP-LogSummary is signed with Red Hat redhatrelease2 key"
                  }
                ]
              },
              {
                "Operator": "AND",
                "Criterias": [

                ],
                "Criterions": [
                  {
                    "Comment": "perl-PCP-MMV is earlier than 0:4.3.2-12.el7"
                  },
                  {
                    "Comment": "perl-PCP-MMV is signed with Red Hat redhatrelease2 key"
                  }
                ]
              },
              {
                "Operator": "AND",
                "Criterias": [

                ],
                "Criterions": [
                  {
                    "Comment": "perl-PCP-PMDA is earlier than 0:4.3.2-12.el7"
                  },
                  {
                    "Comment": "perl-PCP-PMDA is signed with Red Hat redhatrelease2 key"
                  }
                ]
              },
              {
                "Operator": "AND",
                "Criterias": [

                ],
                "Criterions": [
                  {
                    "Comment": "python-pcp is earlier than 0:4.3.2-12.el7"
                  },
                  {
                    "Comment": "python-pcp is signed with Red Hat redhatrelease2 key"
                  }
                ]
              }
            ],
            "Criterions": [

            ]
          }
        ],
        "Criterions": [
          {
            "Comment": "Oracle Linux 7 is installed"
          }
        ]
      }
    ],
    "Criterions": [
      {
        "Comment": "Oracle Linux 7 is installed"
      }
    ]
  },
  "Severity": "Low",
  "Cves": [
    {
      "Impact": "",
      "Href": "",
      "ID": "CVE-2019-3695"
    },
    {
      "Impact": "",
      "Href": "",
      "ID": "CVE-2019-3696"
    }
  ],
  "Issued": {
    "Date": "2020-09-29"
  }
}