{
  "Title": "RHSA-2020:4910: xorg-x11-server security update (Important)",
  "Description": "X.Org is an open-source implementation of the X Window System. It provides the basic low-level functionality that full-fledged graphical user interfaces are designed upon.\nSecurity Fix(es):\n* xorg-x11-server: Out-of-bounds access in XkbSetNames function (CVE-2020-14345)\n* xorg-x11-server: Integer underflow in the X input extension protocol (CVE-2020-14346)\n* xorg-x11-server: XkbSelectEvents integer underflow privilege escalation vulnerability (CVE-2020-14361)\n* xorg-x11-server: XRecordRegisterClients integer underflow privilege escalation vulnerability (CVE-2020-14362)\nFor more details about the security issue(s), including the impact, a CVSS score, acknowledgments, and other related information, refer to the CVE page(s) listed in the References section.",
  "Platform": [
    "Red Hat Enterprise Linux 7"
  ],
  "References": [
    {
      "Source": "RHSA",
      "URI": "https://access.redhat.com/errata/RHSA-2020:4910",
      "ID": "RHSA-2020:4910"
    },
    {
      "Source": "CVE",
      "URI": "https://access.redhat.com/security/cve/CVE-2020-14345",
      "ID": "CVE-2020-14345"
    },
    {
      "Source": "CVE",
      "URI": "https://access.redhat.com/security/cve/CVE-2020-14346",
      "ID": "CVE-2020-14346"
    },
    {
      "Source": "CVE",
      "URI": "https://access.redhat.com/security/cve/CVE-2020-14361",
      "ID": "CVE-2020-14361"
    },
    {
      "Source": "CVE",
      "URI": "https://access.redhat.com/security/cve/CVE-2020-14362",
      "ID": "CVE-2020-14362"
    }
  ],
  "Criteria": {
    "Operator": "OR",
    "Criterias": [
      {
        "Operator": "AND",
        "Criterias": [
          {
            "Operator": "OR",
            "Criterias": [
              {
                "Operator": "AND",
                "Criterias": [

                ],
                "Criterions": [
                  {
                    "Comment": "xorg-x11-server-Xdmx is earlier than 0:1.20.4-12.el7_9"
                  },
                  {
                    "Comment": "xorg-x11-server-Xdmx is signed with Red Hat redhatrelease2 key"
                  }
                ]
              },
              {
                "Operator": "AND",
                "Criterias": [

                ],
                "Criterions": [
                  {
                    "Comment": "xorg-x11-server-Xephyr is earlier than 0:1.20.4-12.el7_9"
                  },
                  {
                    "Comment": "xorg-x11-server-Xephyr is signed with Red Hat redhatrelease2 key"
                  }
                ]
              },
              {
                "Operator": "AND",
                "Criterias": [

                ],
                "Criterions": [
                  {
                    "Comment": "xorg-x11-server-Xnest is earlier than 0:1.20.4-12.el7_9"
                  },
                  {
                    "Comment": "xorg-x11-server-Xnest is signed with Red Hat redhatrelease2 key"
                  }
                ]
              },
              {
                "Operator": "AND",
                "Criterias": [

                ],
                "Criterions": [
                  {
                    "Comment": "xorg-x11-server-Xorg is earlier than 0:1.20.4-12.el7_9"
                  },
                  {
                    "Comment": "xorg-x11-server-Xorg is signed with Red Hat redhatrelease2 key"
                  }
                ]
              },
              {
                "Operator": "AND",
                "Criterias": [

                ],
                "Criterions": [
                  {
                    "Comment": "xorg-x11-server-Xvfb is earlier than 0:1.20.4-12.el7_9"
                  },
                  {
                    "Comment": "xorg-x11-server-Xvfb is signed with Red Hat redhatrelease2 key"
                  }
                ]
              },
              {
                "Operator": "AND",
                "Criterias": [

                ],
                "Criterions": [
                  {
                    "Comment": "xorg-x11-server-Xwayland is earlier than 0:1.20.4-12.el7_9"
                  },
                  {
                    "Comment": "xorg-x11-server-Xwayland is signed with Red Hat redhatrelease2 key"
                  }
                ]
              },
              {
                "Operator": "AND",
                "Criterias": [

                ],
                "Criterions": [
                  {
                    "Comment": "xorg-x11-server-common is earlier than 0:1.20.4-12.el7_9"
                  },
                  {
                    "Comment": "xorg-x11-server-common is signed with Red Hat redhatrelease2 key"
                  }
                ]
              },
              {
                "Operator": "AND",
                "Criterias": [

                ],
                "Criterions": [
                  {
                    "Comment": "xorg-x11-server-devel is earlier than 0:1.20.4-12.el7_9"
                  },
                  {
                    "Comment": "xorg-x11-server-devel is signed with Red Hat redhatrelease2 key"
                  }
                ]
              },
              {
                "Operator": "AND",
                "Criterias": [

                ],
                "Criterions": [
                  {
                    "Comment": "xorg-x11-server-source is earlier than 0:1.20.4-12.el7_9"
                  },
                  {
                    "Comment": "xorg-x11-server-source is signed with Red Hat redhatrelease2 key"
                  }
                ]
              }
            ],
            "Criterions": [

            ]
          }
        ],
        "Criterions": [
          {
            "Comment": "Oracle Linux 7 is installed"
          }
        ]
      }
    ],
    "Criterions": [
      {
        "Comment": "Oracle Linux 7 is installed"
      }
    ]
  },
  "Severity": "Important",
  "Cves": [
    {
      "Impact": "",
      "Href": "",
      "ID": "CVE-2020-14345"
    },
    {
      "Impact": "",
      "Href": "",
      "ID": "CVE-2020-14346"
    },
    {
      "Impact": "",
      "Href": "",
      "ID": "CVE-2020-14361"
    },
    {
      "Impact": "",
      "Href": "",
      "ID": "CVE-2020-14362"
    }
  ],
  "Issued": {
    "Date": "2020-11-04"
  }
}