{
  "Title": "RHSA-2020:4001: bluez security update (Moderate)",
  "Description": "The bluez packages contain the following utilities for use in Bluetooth applications: hcitool, hciattach, hciconfig, bluetoothd, l2ping, start scripts (Red Hat), and pcmcia configuration files. \nSecurity Fix(es):\n* bluez: Improper access control in subsystem could result in privilege escalation and DoS (CVE-2020-0556)\nFor more details about the security issue(s), including the impact, a CVSS score, acknowledgments, and other related information, refer to the CVE page(s) listed in the References section.\nAdditional Changes:\nFor detailed information on changes in this release, see the Red Hat Enterprise Linux 7.9 Release Notes linked from the References section.",
  "Platform": [
    "Red Hat Enterprise Linux 7"
  ],
  "References": [
    {
      "Source": "RHSA",
      "URI": "https://access.redhat.com/errata/RHSA-2020:4001",
      "ID": "RHSA-2020:4001"
    },
    {
      "Source": "CVE",
      "URI": "https://access.redhat.com/security/cve/CVE-2020-0556",
      "ID": "CVE-2020-0556"
    }
  ],
  "Criteria": {
    "Operator": "OR",
    "Criterias": [
      {
        "Operator": "AND",
        "Criterias": [
          {
            "Operator": "OR",
            "Criterias": [
              {
                "Operator": "AND",
                "Criterias": [

                ],
                "Criterions": [
                  {
                    "Comment": "bluez is earlier than 0:5.44-7.el7"
                  },
                  {
                    "Comment": "bluez is signed with Red Hat redhatrelease2 key"
                  }
                ]
              },
              {
                "Operator": "AND",
                "Criterias": [

                ],
                "Criterions": [
                  {
                    "Comment": "bluez-cups is earlier than 0:5.44-7.el7"
                  },
                  {
                    "Comment": "bluez-cups is signed with Red Hat redhatrelease2 key"
                  }
                ]
              },
              {
                "Operator": "AND",
                "Criterias": [

                ],
                "Criterions": [
                  {
                    "Comment": "bluez-hid2hci is earlier than 0:5.44-7.el7"
                  },
                  {
                    "Comment": "bluez-hid2hci is signed with Red Hat redhatrelease2 key"
                  }
                ]
              },
              {
                "Operator": "AND",
                "Criterias": [

                ],
                "Criterions": [
                  {
                    "Comment": "bluez-libs is earlier than 0:5.44-7.el7"
                  },
                  {
                    "Comment": "bluez-libs is signed with Red Hat redhatrelease2 key"
                  }
                ]
              },
              {
                "Operator": "AND",
                "Criterias": [

                ],
                "Criterions": [
                  {
                    "Comment": "bluez-libs-devel is earlier than 0:5.44-7.el7"
                  },
                  {
                    "Comment": "bluez-libs-devel is signed with Red Hat redhatrelease2 key"
                  }
                ]
              }
            ],
            "Criterions": [

            ]
          }
        ],
        "Criterions": [
          {
            "Comment": "Oracle Linux 7 is installed"
          }
        ]
      }
    ],
    "Criterions": [
      {
        "Comment": "Oracle Linux 7 is installed"
      }
    ]
  },
  "Severity": "Moderate",
  "Cves": [
    {
      "Impact": "",
      "Href": "",
      "ID": "CVE-2020-0556"
    }
  ],
  "Issued": {
    "Date": "2020-09-29"
  }
}