{
  "Title": "RHSA-2020:1561: python-twisted-web security update (Important)",
  "Description": "Twisted is an event-based framework for internet applications. Twisted Web is a complete web server, aimed at hosting web applications using Twisted and Python, but fully able to serve static pages too.\nSecurity Fix(es):\n* python-twisted: HTTP request smuggling when presented with two Content-Length headers (CVE-2020-10108)\n* python-twisted: HTTP request smuggling when presented with a Content-Length and a chunked Transfer-Encoding header (CVE-2020-10109)\nFor more details about the security issue(s), including the impact, a CVSS score, acknowledgments, and other related information, refer to the CVE page(s) listed in the References section.",
  "Platform": [
    "Red Hat Enterprise Linux 7"
  ],
  "References": [
    {
      "Source": "RHSA",
      "URI": "https://access.redhat.com/errata/RHSA-2020:1561",
      "ID": "RHSA-2020:1561"
    },
    {
      "Source": "CVE",
      "URI": "https://access.redhat.com/security/cve/CVE-2020-10108",
      "ID": "CVE-2020-10108"
    },
    {
      "Source": "CVE",
      "URI": "https://access.redhat.com/security/cve/CVE-2020-10109",
      "ID": "CVE-2020-10109"
    }
  ],
  "Criteria": {
    "Operator": "OR",
    "Criterias": [
      {
        "Operator": "AND",
        "Criterias": [

        ],
        "Criterions": [
          {
            "Comment": "Oracle Linux 7 is installed"
          },
          {
            "Comment": "python-twisted-web is earlier than 0:12.1.0-7.el7_8"
          },
          {
            "Comment": "python-twisted-web is signed with Red Hat redhatrelease2 key"
          }
        ]
      }
    ],
    "Criterions": [
      {
        "Comment": "Oracle Linux 7 is installed"
      }
    ]
  },
  "Severity": "Important",
  "Cves": [
    {
      "Impact": "",
      "Href": "",
      "ID": "CVE-2020-10108"
    },
    {
      "Impact": "",
      "Href": "",
      "ID": "CVE-2020-10109"
    }
  ],
  "Issued": {
    "Date": "2020-04-23"
  }
}