{
  "Title": "RHSA-2020:1379: container-tools:rhel8 security and bug fix update (Important)",
  "Description": "The container-tools module contains tools for working with containers, notably podman, buildah, skopeo, and runc.\nSecurity Fix(es):\n* QEMU: Slirp: potential OOB access due to unsafe snprintf() usages (CVE-2020-8608)\nFor more details about the security issue(s), including the impact, a CVSS score, acknowledgments, and other related information, refer to the CVE page(s) listed in the References section.\nBug Fix(es):\n* useradd and groupadd fail under rootless Buildah and podman [stream-container-tools-rhel8-rhel-8.1.1] (BZ#1803495)\n* Podman support for FIPS Mode requires a bind mount inside the container [stream-container-tools-rhel8-rhel-8.1.1/buildah] (BZ#1804188)\n* Podman support for FIPS Mode requires a bind mount inside the container [stream-container-tools-rhel8-rhel-8.1.1/podman] (BZ#1804194)\n* fuse-overlayfs segfault [stream-container-tools-rhel8-rhel-8.1.1/fuse-overlayfs] (BZ#1805016)\n* buildah COPY command is slow when .dockerignore file is not present [stream-container-tools-rhel8-rhel-8.1.1/buildah] (BZ#1806119)",
  "Platform": [
    "Red Hat Enterprise Linux 8"
  ],
  "References": [
    {
      "Source": "RHSA",
      "URI": "https://access.redhat.com/errata/RHSA-2020:1379",
      "ID": "RHSA-2020:1379"
    },
    {
      "Source": "CVE",
      "URI": "https://access.redhat.com/security/cve/CVE-2020-8608",
      "ID": "CVE-2020-8608"
    }
  ],
  "Criteria": {
    "Operator": "OR",
    "Criterias": [
      {
        "Operator": "AND",
        "Criterias": [
          {
            "Operator": "OR",
            "Criterias": [

            ],
            "Criterions": [
              {
                "Comment": "Oracle Linux 8 is installed"
              },
              {
                "Comment": "Red Hat CoreOS 4 is installed"
              }
            ]
          },
          {
            "Operator": "OR",
            "Criterias": [
              {
                "Operator": "AND",
                "Criterias": [
                  {
                    "Operator": "OR",
                    "Criterias": [
                      {
                        "Operator": "AND",
                        "Criterias": [

                        ],
                        "Criterions": [
                          {
                            "Comment": "buildah is earlier than 0:1.11.6-6.module+el8.1.1+5865+cc793d95"
                          },
                          {
                            "Comment": "buildah is signed with Red Hat redhatrelease2 key"
                          }
                        ]
                      },
                      {
                        "Operator": "AND",
                        "Criterias": [

                        ],
                        "Criterions": [
                          {
                            "Comment": "buildah-tests is earlier than 0:1.11.6-6.module+el8.1.1+5865+cc793d95"
                          },
                          {
                            "Comment": "buildah-tests is signed with Red Hat redhatrelease2 key"
                          }
                        ]
                      },
                      {
                        "Operator": "AND",
                        "Criterias": [

                        ],
                        "Criterions": [
                          {
                            "Comment": "cockpit-podman is earlier than 0:11-1.module+el8.1.1+5259+bcdd613a"
                          },
                          {
                            "Comment": "cockpit-podman is signed with Red Hat redhatrelease2 key"
                          }
                        ]
                      },
                      {
                        "Operator": "AND",
                        "Criterias": [

                        ],
                        "Criterions": [
                          {
                            "Comment": "conmon is earlier than 2:2.0.6-1.module+el8.1.1+5259+bcdd613a"
                          },
                          {
                            "Comment": "conmon is signed with Red Hat redhatrelease2 key"
                          }
                        ]
                      },
                      {
                        "Operator": "AND",
                        "Criterias": [

                        ],
                        "Criterions": [
                          {
                            "Comment": "container-selinux is earlier than 2:2.124.0-1.module+el8.1.1+5259+bcdd613a"
                          },
                          {
                            "Comment": "container-selinux is signed with Red Hat redhatrelease2 key"
                          }
                        ]
                      },
                      {
                        "Operator": "AND",
                        "Criterias": [

                        ],
                        "Criterions": [
                          {
                            "Comment": "containernetworking-plugins is earlier than 0:0.8.3-4.module+el8.1.1+5259+bcdd613a"
                          },
                          {
                            "Comment": "containernetworking-plugins is signed with Red Hat redhatrelease2 key"
                          }
                        ]
                      },
                      {
                        "Operator": "AND",
                        "Criterias": [

                        ],
                        "Criterions": [
                          {
                            "Comment": "containers-common is earlier than 1:0.1.40-8.module+el8.1.1+5351+506397b0"
                          },
                          {
                            "Comment": "containers-common is signed with Red Hat redhatrelease2 key"
                          }
                        ]
                      },
                      {
                        "Operator": "AND",
                        "Criterias": [

                        ],
                        "Criterions": [
                          {
                            "Comment": "fuse-overlayfs is earlier than 0:0.7.2-5.module+el8.1.1+6114+953c5a57"
                          },
                          {
                            "Comment": "fuse-overlayfs is signed with Red Hat redhatrelease2 key"
                          }
                        ]
                      },
                      {
                        "Operator": "AND",
                        "Criterias": [

                        ],
                        "Criterions": [
                          {
                            "Comment": "podman is earlier than 0:1.6.4-4.module+el8.1.1+5885+44006e55"
                          },
                          {
                            "Comment": "podman is signed with Red Hat redhatrelease2 key"
                          }
                        ]
                      },
                      {
                        "Operator": "AND",
                        "Criterias": [

                        ],
                        "Criterions": [
                          {
                            "Comment": "podman-docker is earlier than 0:1.6.4-4.module+el8.1.1+5885+44006e55"
                          },
                          {
                            "Comment": "podman-docker is signed with Red Hat redhatrelease2 key"
                          }
                        ]
                      },
                      {
                        "Operator": "AND",
                        "Criterias": [

                        ],
                        "Criterions": [
                          {
                            "Comment": "podman-manpages is earlier than 0:1.6.4-4.module+el8.1.1+5885+44006e55"
                          },
                          {
                            "Comment": "podman-manpages is signed with Red Hat redhatrelease2 key"
                          }
                        ]
                      },
                      {
                        "Operator": "AND",
                        "Criterias": [

                        ],
                        "Criterions": [
                          {
                            "Comment": "podman-remote is earlier than 0:1.6.4-4.module+el8.1.1+5885+44006e55"
                          },
                          {
                            "Comment": "podman-remote is signed with Red Hat redhatrelease2 key"
                          }
                        ]
                      },
                      {
                        "Operator": "AND",
                        "Criterias": [

                        ],
                        "Criterions": [
                          {
                            "Comment": "podman-tests is earlier than 0:1.6.4-4.module+el8.1.1+5885+44006e55"
                          },
                          {
                            "Comment": "podman-tests is signed with Red Hat redhatrelease2 key"
                          }
                        ]
                      },
                      {
                        "Operator": "AND",
                        "Criterias": [

                        ],
                        "Criterions": [
                          {
                            "Comment": "python-podman-api is earlier than 0:1.2.0-0.2.gitd0a45fe.module+el8.1.1+5259+bcdd613a"
                          },
                          {
                            "Comment": "python-podman-api is signed with Red Hat redhatrelease2 key"
                          }
                        ]
                      },
                      {
                        "Operator": "AND",
                        "Criterias": [

                        ],
                        "Criterions": [
                          {
                            "Comment": "runc is earlier than 0:1.0.0-64.rc9.module+el8.1.1+5259+bcdd613a"
                          },
                          {
                            "Comment": "runc is signed with Red Hat redhatrelease2 key"
                          }
                        ]
                      },
                      {
                        "Operator": "AND",
                        "Criterias": [

                        ],
                        "Criterions": [
                          {
                            "Comment": "skopeo is earlier than 1:0.1.40-8.module+el8.1.1+5351+506397b0"
                          },
                          {
                            "Comment": "skopeo is signed with Red Hat redhatrelease2 key"
                          }
                        ]
                      },
                      {
                        "Operator": "AND",
                        "Criterias": [

                        ],
                        "Criterions": [
                          {
                            "Comment": "skopeo-tests is earlier than 1:0.1.40-8.module+el8.1.1+5351+506397b0"
                          },
                          {
                            "Comment": "skopeo-tests is signed with Red Hat redhatrelease2 key"
                          }
                        ]
                      },
                      {
                        "Operator": "AND",
                        "Criterias": [

                        ],
                        "Criterions": [
                          {
                            "Comment": "slirp4netns is earlier than 0:0.4.2-3.git21fdece.module+el8.1.1+5657+524a77d7"
                          },
                          {
                            "Comment": "slirp4netns is signed with Red Hat redhatrelease2 key"
                          }
                        ]
                      },
                      {
                        "Operator": "AND",
                        "Criterias": [

                        ],
                        "Criterions": [
                          {
                            "Comment": "toolbox is earlier than 0:0.0.4-1.module+el8.1.1+4407+ac444e5d"
                          },
                          {
                            "Comment": "toolbox is signed with Red Hat redhatrelease2 key"
                          }
                        ]
                      },
                      {
                        "Operator": "AND",
                        "Criterias": [

                        ],
                        "Criterions": [
                          {
                            "Comment": "udica is earlier than 0:0.2.1-2.module+el8.1.1+4975+482d6f5d"
                          },
                          {
                            "Comment": "udica is signed with Red Hat redhatrelease2 key"
                          }
                        ]
                      }
                    ],
                    "Criterions": [

                    ]
                  }
                ],
                "Criterions": [
                  {
                    "Comment": "Module container-tools:rhel8 is enabled"
                  }
                ]
              }
            ],
            "Criterions": [

            ]
          }
        ],
        "Criterions": [

        ]
      }
    ],
    "Criterions": [
      {
        "Comment": "Oracle Linux 8 is installed"
      }
    ]
  },
  "Severity": "Important",
  "Cves": [
    {
      "Impact": "",
      "Href": "",
      "ID": "CVE-2020-8608"
    }
  ],
  "Issued": {
    "Date": "2020-04-07"
  }
}