{
  "Title": "RHSA-2020:3958: httpd security, bug fix, and enhancement update (Moderate)",
  "Description": "The httpd packages provide the Apache HTTP Server, a powerful, efficient, and extensible web server.\nSecurity Fix(es):\n* httpd: Improper handling of headers in mod_session can allow a remote user to modify session data for CGI applications (CVE-2018-1283)\n* httpd: Out of bounds read in mod_cache_socache can allow a remote attacker to cause DoS (CVE-2018-1303)\n* httpd: mod_rewrite configurations vulnerable to open redirect (CVE-2020-1927)\n* httpd: <FilesMatch> bypass with a trailing newline in the file name (CVE-2017-15715)\n* httpd: mod_rewrite potential open redirect (CVE-2019-10098)\n* httpd: mod_proxy_ftp use of uninitialized value (CVE-2020-1934)\nFor more details about the security issue(s), including the impact, a CVSS score, acknowledgments, and other related information, refer to the CVE page(s) listed in the References section.\nAdditional Changes:\nFor detailed information on changes in this release, see the Red Hat Enterprise Linux 7.9 Release Notes linked from the References section.",
  "Platform": [
    "Red Hat Enterprise Linux 7"
  ],
  "References": [
    {
      "Source": "RHSA",
      "URI": "https://access.redhat.com/errata/RHSA-2020:3958",
      "ID": "RHSA-2020:3958"
    },
    {
      "Source": "CVE",
      "URI": "https://access.redhat.com/security/cve/CVE-2017-15715",
      "ID": "CVE-2017-15715"
    },
    {
      "Source": "CVE",
      "URI": "https://access.redhat.com/security/cve/CVE-2018-1283",
      "ID": "CVE-2018-1283"
    },
    {
      "Source": "CVE",
      "URI": "https://access.redhat.com/security/cve/CVE-2018-1303",
      "ID": "CVE-2018-1303"
    },
    {
      "Source": "CVE",
      "URI": "https://access.redhat.com/security/cve/CVE-2019-10098",
      "ID": "CVE-2019-10098"
    },
    {
      "Source": "CVE",
      "URI": "https://access.redhat.com/security/cve/CVE-2020-1927",
      "ID": "CVE-2020-1927"
    },
    {
      "Source": "CVE",
      "URI": "https://access.redhat.com/security/cve/CVE-2020-1934",
      "ID": "CVE-2020-1934"
    }
  ],
  "Criteria": {
    "Operator": "OR",
    "Criterias": [
      {
        "Operator": "AND",
        "Criterias": [
          {
            "Operator": "OR",
            "Criterias": [
              {
                "Operator": "AND",
                "Criterias": [

                ],
                "Criterions": [
                  {
                    "Comment": "httpd is earlier than 0:2.4.6-95.el7"
                  },
                  {
                    "Comment": "httpd is signed with Red Hat redhatrelease2 key"
                  }
                ]
              },
              {
                "Operator": "AND",
                "Criterias": [

                ],
                "Criterions": [
                  {
                    "Comment": "httpd-devel is earlier than 0:2.4.6-95.el7"
                  },
                  {
                    "Comment": "httpd-devel is signed with Red Hat redhatrelease2 key"
                  }
                ]
              },
              {
                "Operator": "AND",
                "Criterias": [

                ],
                "Criterions": [
                  {
                    "Comment": "httpd-manual is earlier than 0:2.4.6-95.el7"
                  },
                  {
                    "Comment": "httpd-manual is signed with Red Hat redhatrelease2 key"
                  }
                ]
              },
              {
                "Operator": "AND",
                "Criterias": [

                ],
                "Criterions": [
                  {
                    "Comment": "httpd-tools is earlier than 0:2.4.6-95.el7"
                  },
                  {
                    "Comment": "httpd-tools is signed with Red Hat redhatrelease2 key"
                  }
                ]
              },
              {
                "Operator": "AND",
                "Criterias": [

                ],
                "Criterions": [
                  {
                    "Comment": "mod_ldap is earlier than 0:2.4.6-95.el7"
                  },
                  {
                    "Comment": "mod_ldap is signed with Red Hat redhatrelease2 key"
                  }
                ]
              },
              {
                "Operator": "AND",
                "Criterias": [

                ],
                "Criterions": [
                  {
                    "Comment": "mod_proxy_html is earlier than 1:2.4.6-95.el7"
                  },
                  {
                    "Comment": "mod_proxy_html is signed with Red Hat redhatrelease2 key"
                  }
                ]
              },
              {
                "Operator": "AND",
                "Criterias": [

                ],
                "Criterions": [
                  {
                    "Comment": "mod_session is earlier than 0:2.4.6-95.el7"
                  },
                  {
                    "Comment": "mod_session is signed with Red Hat redhatrelease2 key"
                  }
                ]
              },
              {
                "Operator": "AND",
                "Criterias": [

                ],
                "Criterions": [
                  {
                    "Comment": "mod_ssl is earlier than 1:2.4.6-95.el7"
                  },
                  {
                    "Comment": "mod_ssl is signed with Red Hat redhatrelease2 key"
                  }
                ]
              }
            ],
            "Criterions": [

            ]
          }
        ],
        "Criterions": [
          {
            "Comment": "Oracle Linux 7 is installed"
          }
        ]
      }
    ],
    "Criterions": [
      {
        "Comment": "Oracle Linux 7 is installed"
      }
    ]
  },
  "Severity": "Moderate",
  "Cves": [
    {
      "Impact": "",
      "Href": "",
      "ID": "CVE-2017-15715"
    },
    {
      "Impact": "",
      "Href": "",
      "ID": "CVE-2018-1283"
    },
    {
      "Impact": "",
      "Href": "",
      "ID": "CVE-2018-1303"
    },
    {
      "Impact": "",
      "Href": "",
      "ID": "CVE-2019-10098"
    },
    {
      "Impact": "",
      "Href": "",
      "ID": "CVE-2020-1927"
    },
    {
      "Impact": "",
      "Href": "",
      "ID": "CVE-2020-1934"
    }
  ],
  "Issued": {
    "Date": "2020-09-29"
  }
}