{
  "Title": "RHSA-2020:2102: kernel security and bug fix update (Important)",
  "Description": "The kernel packages contain the Linux kernel, the core of any Linux operating system.\nSecurity Fix(es):\n* Kernel: NetLabel: null pointer dereference while receiving CIPSO packet with null category may cause kernel panic (CVE-2020-10711)\n* Kernel: s390: page table upgrade in secondary address mode may lead to privilege escalation (CVE-2020-11884)\n* Kernel: kvm: nVMX: L2 guest may trick the L0 hypervisor to access sensitive L1 resources (CVE-2020-2732)\nFor more details about the security issue(s), including the impact, a CVSS score, acknowledgments, and other related information, refer to the CVE page(s) listed in the References section.\nBug Fix(es):\n* [RHEL8.2][Azure]Commits to resolve high network latency (BZ#1817945)\n* cpu.share scheduling performance issue (BZ#1819909)\n* [DELL 8.2 BUG] [WD 19 SC/DC/TBT] ALSA:  Microphone can't record via front port after suspend (BZ#1821376)",
  "Platform": [
    "Red Hat Enterprise Linux 8"
  ],
  "References": [
    {
      "Source": "RHSA",
      "URI": "https://access.redhat.com/errata/RHSA-2020:2102",
      "ID": "RHSA-2020:2102"
    },
    {
      "Source": "CVE",
      "URI": "https://access.redhat.com/security/cve/CVE-2020-10711",
      "ID": "CVE-2020-10711"
    },
    {
      "Source": "CVE",
      "URI": "https://access.redhat.com/security/cve/CVE-2020-11884",
      "ID": "CVE-2020-11884"
    },
    {
      "Source": "CVE",
      "URI": "https://access.redhat.com/security/cve/CVE-2020-2732",
      "ID": "CVE-2020-2732"
    }
  ],
  "Criteria": {
    "Operator": "OR",
    "Criterias": [
      {
        "Operator": "AND",
        "Criterias": [
          {
            "Operator": "OR",
            "Criterias": [

            ],
            "Criterions": [
              {
                "Comment": "Oracle Linux 8 is installed"
              },
              {
                "Comment": "Red Hat CoreOS 4 is installed"
              }
            ]
          },
          {
            "Operator": "OR",
            "Criterias": [

            ],
            "Criterions": [
              {
                "Comment": "kernel earlier than 0:4.18.0-193.1.2.el8_2 is currently running"
              },
              {
                "Comment": "kernel earlier than 0:4.18.0-193.1.2.el8_2 is set to boot up on next boot"
              }
            ]
          },
          {
            "Operator": "OR",
            "Criterias": [
              {
                "Operator": "AND",
                "Criterias": [

                ],
                "Criterions": [
                  {
                    "Comment": "bpftool is earlier than 0:4.18.0-193.1.2.el8_2"
                  },
                  {
                    "Comment": "bpftool is signed with Red Hat redhatrelease2 key"
                  }
                ]
              },
              {
                "Operator": "AND",
                "Criterias": [

                ],
                "Criterions": [
                  {
                    "Comment": "kernel is earlier than 0:4.18.0-193.1.2.el8_2"
                  },
                  {
                    "Comment": "kernel is signed with Red Hat redhatrelease2 key"
                  }
                ]
              },
              {
                "Operator": "AND",
                "Criterias": [

                ],
                "Criterions": [
                  {
                    "Comment": "kernel-abi-whitelists is earlier than 0:4.18.0-193.1.2.el8_2"
                  },
                  {
                    "Comment": "kernel-abi-whitelists is signed with Red Hat redhatrelease2 key"
                  }
                ]
              },
              {
                "Operator": "AND",
                "Criterias": [

                ],
                "Criterions": [
                  {
                    "Comment": "kernel-core is earlier than 0:4.18.0-193.1.2.el8_2"
                  },
                  {
                    "Comment": "kernel-core is signed with Red Hat redhatrelease2 key"
                  }
                ]
              },
              {
                "Operator": "AND",
                "Criterias": [

                ],
                "Criterions": [
                  {
                    "Comment": "kernel-cross-headers is earlier than 0:4.18.0-193.1.2.el8_2"
                  },
                  {
                    "Comment": "kernel-cross-headers is signed with Red Hat redhatrelease2 key"
                  }
                ]
              },
              {
                "Operator": "AND",
                "Criterias": [

                ],
                "Criterions": [
                  {
                    "Comment": "kernel-debug is earlier than 0:4.18.0-193.1.2.el8_2"
                  },
                  {
                    "Comment": "kernel-debug is signed with Red Hat redhatrelease2 key"
                  }
                ]
              },
              {
                "Operator": "AND",
                "Criterias": [

                ],
                "Criterions": [
                  {
                    "Comment": "kernel-debug-core is earlier than 0:4.18.0-193.1.2.el8_2"
                  },
                  {
                    "Comment": "kernel-debug-core is signed with Red Hat redhatrelease2 key"
                  }
                ]
              },
              {
                "Operator": "AND",
                "Criterias": [

                ],
                "Criterions": [
                  {
                    "Comment": "kernel-debug-devel is earlier than 0:4.18.0-193.1.2.el8_2"
                  },
                  {
                    "Comment": "kernel-debug-devel is signed with Red Hat redhatrelease2 key"
                  }
                ]
              },
              {
                "Operator": "AND",
                "Criterias": [

                ],
                "Criterions": [
                  {
                    "Comment": "kernel-debug-modules is earlier than 0:4.18.0-193.1.2.el8_2"
                  },
                  {
                    "Comment": "kernel-debug-modules is signed with Red Hat redhatrelease2 key"
                  }
                ]
              },
              {
                "Operator": "AND",
                "Criterias": [

                ],
                "Criterions": [
                  {
                    "Comment": "kernel-debug-modules-extra is earlier than 0:4.18.0-193.1.2.el8_2"
                  },
                  {
                    "Comment": "kernel-debug-modules-extra is signed with Red Hat redhatrelease2 key"
                  }
                ]
              },
              {
                "Operator": "AND",
                "Criterias": [

                ],
                "Criterions": [
                  {
                    "Comment": "kernel-devel is earlier than 0:4.18.0-193.1.2.el8_2"
                  },
                  {
                    "Comment": "kernel-devel is signed with Red Hat redhatrelease2 key"
                  }
                ]
              },
              {
                "Operator": "AND",
                "Criterias": [

                ],
                "Criterions": [
                  {
                    "Comment": "kernel-doc is earlier than 0:4.18.0-193.1.2.el8_2"
                  },
                  {
                    "Comment": "kernel-doc is signed with Red Hat redhatrelease2 key"
                  }
                ]
              },
              {
                "Operator": "AND",
                "Criterias": [

                ],
                "Criterions": [
                  {
                    "Comment": "kernel-headers is earlier than 0:4.18.0-193.1.2.el8_2"
                  },
                  {
                    "Comment": "kernel-headers is signed with Red Hat redhatrelease2 key"
                  }
                ]
              },
              {
                "Operator": "AND",
                "Criterias": [

                ],
                "Criterions": [
                  {
                    "Comment": "kernel-modules is earlier than 0:4.18.0-193.1.2.el8_2"
                  },
                  {
                    "Comment": "kernel-modules is signed with Red Hat redhatrelease2 key"
                  }
                ]
              },
              {
                "Operator": "AND",
                "Criterias": [

                ],
                "Criterions": [
                  {
                    "Comment": "kernel-modules-extra is earlier than 0:4.18.0-193.1.2.el8_2"
                  },
                  {
                    "Comment": "kernel-modules-extra is signed with Red Hat redhatrelease2 key"
                  }
                ]
              },
              {
                "Operator": "AND",
                "Criterias": [

                ],
                "Criterions": [
                  {
                    "Comment": "kernel-tools is earlier than 0:4.18.0-193.1.2.el8_2"
                  },
                  {
                    "Comment": "kernel-tools is signed with Red Hat redhatrelease2 key"
                  }
                ]
              },
              {
                "Operator": "AND",
                "Criterias": [

                ],
                "Criterions": [
                  {
                    "Comment": "kernel-tools-libs is earlier than 0:4.18.0-193.1.2.el8_2"
                  },
                  {
                    "Comment": "kernel-tools-libs is signed with Red Hat redhatrelease2 key"
                  }
                ]
              },
              {
                "Operator": "AND",
                "Criterias": [

                ],
                "Criterions": [
                  {
                    "Comment": "kernel-tools-libs-devel is earlier than 0:4.18.0-193.1.2.el8_2"
                  },
                  {
                    "Comment": "kernel-tools-libs-devel is signed with Red Hat redhatrelease2 key"
                  }
                ]
              },
              {
                "Operator": "AND",
                "Criterias": [

                ],
                "Criterions": [
                  {
                    "Comment": "kernel-zfcpdump is earlier than 0:4.18.0-193.1.2.el8_2"
                  },
                  {
                    "Comment": "kernel-zfcpdump is signed with Red Hat redhatrelease2 key"
                  }
                ]
              },
              {
                "Operator": "AND",
                "Criterias": [

                ],
                "Criterions": [
                  {
                    "Comment": "kernel-zfcpdump-core is earlier than 0:4.18.0-193.1.2.el8_2"
                  },
                  {
                    "Comment": "kernel-zfcpdump-core is signed with Red Hat redhatrelease2 key"
                  }
                ]
              },
              {
                "Operator": "AND",
                "Criterias": [

                ],
                "Criterions": [
                  {
                    "Comment": "kernel-zfcpdump-devel is earlier than 0:4.18.0-193.1.2.el8_2"
                  },
                  {
                    "Comment": "kernel-zfcpdump-devel is signed with Red Hat redhatrelease2 key"
                  }
                ]
              },
              {
                "Operator": "AND",
                "Criterias": [

                ],
                "Criterions": [
                  {
                    "Comment": "kernel-zfcpdump-modules is earlier than 0:4.18.0-193.1.2.el8_2"
                  },
                  {
                    "Comment": "kernel-zfcpdump-modules is signed with Red Hat redhatrelease2 key"
                  }
                ]
              },
              {
                "Operator": "AND",
                "Criterias": [

                ],
                "Criterions": [
                  {
                    "Comment": "kernel-zfcpdump-modules-extra is earlier than 0:4.18.0-193.1.2.el8_2"
                  },
                  {
                    "Comment": "kernel-zfcpdump-modules-extra is signed with Red Hat redhatrelease2 key"
                  }
                ]
              },
              {
                "Operator": "AND",
                "Criterias": [

                ],
                "Criterions": [
                  {
                    "Comment": "perf is earlier than 0:4.18.0-193.1.2.el8_2"
                  },
                  {
                    "Comment": "perf is signed with Red Hat redhatrelease2 key"
                  }
                ]
              },
              {
                "Operator": "AND",
                "Criterias": [

                ],
                "Criterions": [
                  {
                    "Comment": "python3-perf is earlier than 0:4.18.0-193.1.2.el8_2"
                  },
                  {
                    "Comment": "python3-perf is signed with Red Hat redhatrelease2 key"
                  }
                ]
              }
            ],
            "Criterions": [

            ]
          }
        ],
        "Criterions": [

        ]
      }
    ],
    "Criterions": [
      {
        "Comment": "Oracle Linux 8 is installed"
      }
    ]
  },
  "Severity": "Important",
  "Cves": [
    {
      "Impact": "",
      "Href": "",
      "ID": "CVE-2020-10711"
    },
    {
      "Impact": "",
      "Href": "",
      "ID": "CVE-2020-11884"
    },
    {
      "Impact": "",
      "Href": "",
      "ID": "CVE-2020-2732"
    }
  ],
  "Issued": {
    "Date": "2020-05-12"
  }
}