{
  "Title": "RHSA-2020:3050: cloud-init security, bug fix, and enhancement update (Low)",
  "Description": "The cloud-init packages provide a set of init scripts for cloud instances. Cloud instances need special scripts to run during initialization to retrieve and install SSH keys, and to let the user run various scripts.\nThe following packages have been upgraded to a later upstream version: cloud-init (19.4). (BZ#1811912)\nSecurity Fix(es):\n* cloud-init: default configuration disabled deletion of SSH host keys (CVE-2018-10896)\nFor more details about the security issue(s), including the impact, a CVSS score, acknowledgments, and other related information, refer to the CVE page(s) listed in the References section.\nAdditional Changes:\nFor detailed information on changes in this release, see the Red Hat Enterprise Linux 8.2 Release Notes linked from the References section.",
  "Platform": [
    "Red Hat Enterprise Linux 8"
  ],
  "References": [
    {
      "Source": "RHSA",
      "URI": "https://access.redhat.com/errata/RHSA-2020:3050",
      "ID": "RHSA-2020:3050"
    },
    {
      "Source": "CVE",
      "URI": "https://access.redhat.com/security/cve/CVE-2018-10896",
      "ID": "CVE-2018-10896"
    }
  ],
  "Criteria": {
    "Operator": "OR",
    "Criterias": [
      {
        "Operator": "AND",
        "Criterias": [
          {
            "Operator": "OR",
            "Criterias": [

            ],
            "Criterions": [
              {
                "Comment": "Oracle Linux 8 is installed"
              },
              {
                "Comment": "Red Hat CoreOS 4 is installed"
              }
            ]
          }
        ],
        "Criterions": [
          {
            "Comment": "cloud-init is earlier than 0:19.4-1.el8.7"
          },
          {
            "Comment": "cloud-init is signed with Red Hat redhatrelease2 key"
          }
        ]
      }
    ],
    "Criterions": [
      {
        "Comment": "Oracle Linux 8 is installed"
      }
    ]
  },
  "Severity": "Low",
  "Cves": [
    {
      "Impact": "",
      "Href": "",
      "ID": "CVE-2018-10896"
    }
  ],
  "Issued": {
    "Date": "2020-07-21"
  }
}