{
  "Title": "RHSA-2020:0919: thunderbird security update (Important)",
  "Description": "Mozilla Thunderbird is a standalone mail and newsgroup client.\nThis update upgrades Thunderbird to version 68.6.0.\nSecurity Fix(es):\n* Mozilla: Use-after-free when removing data about origins (CVE-2020-6805)\n* Mozilla: BodyStream::OnInputStreamReady was missing protections against state confusion (CVE-2020-6806)\n* Mozilla: Use-after-free in cubeb during stream destruction (CVE-2020-6807)\n* Mozilla: Memory safety bugs fixed in Firefox 74 and Firefox ESR 68.6 (CVE-2020-6814)\n* Mozilla: Out of bounds reads in sctp_load_addresses_from_init (CVE-2019-20503)\n* Mozilla: Devtools' 'Copy as cURL' feature did not fully escape website-controlled data, potentially leading to command injection (CVE-2020-6811)\n* Mozilla: The names of AirPods with personally identifiable information were exposed to websites with camera or microphone permission (CVE-2020-6812)\nFor more details about the security issue(s), including the impact, a CVSS score, acknowledgments, and other related information, refer to the CVE page(s) listed in the References section.",
  "Platform": [
    "Red Hat Enterprise Linux 8"
  ],
  "References": [
    {
      "Source": "RHSA",
      "URI": "https://access.redhat.com/errata/RHSA-2020:0919",
      "ID": "RHSA-2020:0919"
    },
    {
      "Source": "CVE",
      "URI": "https://access.redhat.com/security/cve/CVE-2019-20503",
      "ID": "CVE-2019-20503"
    },
    {
      "Source": "CVE",
      "URI": "https://access.redhat.com/security/cve/CVE-2020-6805",
      "ID": "CVE-2020-6805"
    },
    {
      "Source": "CVE",
      "URI": "https://access.redhat.com/security/cve/CVE-2020-6806",
      "ID": "CVE-2020-6806"
    },
    {
      "Source": "CVE",
      "URI": "https://access.redhat.com/security/cve/CVE-2020-6807",
      "ID": "CVE-2020-6807"
    },
    {
      "Source": "CVE",
      "URI": "https://access.redhat.com/security/cve/CVE-2020-6811",
      "ID": "CVE-2020-6811"
    },
    {
      "Source": "CVE",
      "URI": "https://access.redhat.com/security/cve/CVE-2020-6812",
      "ID": "CVE-2020-6812"
    },
    {
      "Source": "CVE",
      "URI": "https://access.redhat.com/security/cve/CVE-2020-6814",
      "ID": "CVE-2020-6814"
    }
  ],
  "Criteria": {
    "Operator": "OR",
    "Criterias": [
      {
        "Operator": "AND",
        "Criterias": [
          {
            "Operator": "OR",
            "Criterias": [

            ],
            "Criterions": [
              {
                "Comment": "Oracle Linux 8 is installed"
              },
              {
                "Comment": "Red Hat CoreOS 4 is installed"
              }
            ]
          }
        ],
        "Criterions": [
          {
            "Comment": "thunderbird is earlier than 0:68.6.0-1.el8_1"
          },
          {
            "Comment": "thunderbird is signed with Red Hat redhatrelease2 key"
          }
        ]
      }
    ],
    "Criterions": [
      {
        "Comment": "Oracle Linux 8 is installed"
      }
    ]
  },
  "Severity": "Important",
  "Cves": [
    {
      "Impact": "",
      "Href": "",
      "ID": "CVE-2019-20503"
    },
    {
      "Impact": "",
      "Href": "",
      "ID": "CVE-2020-6805"
    },
    {
      "Impact": "",
      "Href": "",
      "ID": "CVE-2020-6806"
    },
    {
      "Impact": "",
      "Href": "",
      "ID": "CVE-2020-6807"
    },
    {
      "Impact": "",
      "Href": "",
      "ID": "CVE-2020-6811"
    },
    {
      "Impact": "",
      "Href": "",
      "ID": "CVE-2020-6812"
    },
    {
      "Impact": "",
      "Href": "",
      "ID": "CVE-2020-6814"
    }
  ],
  "Issued": {
    "Date": "2020-03-23"
  }
}