{
  "Title": "RHSA-2020:1716: unbound security update (Moderate)",
  "Description": "The unbound packages provide a validating, recursive, and caching DNS or DNSSEC resolver. \nSecurity Fix(es):\n* unbound: command injection with data coming from a specially crafted IPSECKEY answer (CVE-2019-18934)\nFor more details about the security issue(s), including the impact, a CVSS score, acknowledgments, and other related information, refer to the CVE page(s) listed in the References section.\nAdditional Changes:\nFor detailed information on changes in this release, see the Red Hat Enterprise Linux 8.2 Release Notes linked from the References section.",
  "Platform": [
    "Red Hat Enterprise Linux 8"
  ],
  "References": [
    {
      "Source": "RHSA",
      "URI": "https://access.redhat.com/errata/RHSA-2020:1716",
      "ID": "RHSA-2020:1716"
    },
    {
      "Source": "CVE",
      "URI": "https://access.redhat.com/security/cve/CVE-2019-18934",
      "ID": "CVE-2019-18934"
    }
  ],
  "Criteria": {
    "Operator": "OR",
    "Criterias": [
      {
        "Operator": "AND",
        "Criterias": [
          {
            "Operator": "OR",
            "Criterias": [

            ],
            "Criterions": [
              {
                "Comment": "Oracle Linux 8 is installed"
              },
              {
                "Comment": "Red Hat CoreOS 4 is installed"
              }
            ]
          },
          {
            "Operator": "OR",
            "Criterias": [
              {
                "Operator": "AND",
                "Criterias": [

                ],
                "Criterions": [
                  {
                    "Comment": "python3-unbound is earlier than 0:1.7.3-10.el8"
                  },
                  {
                    "Comment": "python3-unbound is signed with Red Hat redhatrelease2 key"
                  }
                ]
              },
              {
                "Operator": "AND",
                "Criterias": [

                ],
                "Criterions": [
                  {
                    "Comment": "unbound is earlier than 0:1.7.3-10.el8"
                  },
                  {
                    "Comment": "unbound is signed with Red Hat redhatrelease2 key"
                  }
                ]
              },
              {
                "Operator": "AND",
                "Criterias": [

                ],
                "Criterions": [
                  {
                    "Comment": "unbound-devel is earlier than 0:1.7.3-10.el8"
                  },
                  {
                    "Comment": "unbound-devel is signed with Red Hat redhatrelease2 key"
                  }
                ]
              },
              {
                "Operator": "AND",
                "Criterias": [

                ],
                "Criterions": [
                  {
                    "Comment": "unbound-libs is earlier than 0:1.7.3-10.el8"
                  },
                  {
                    "Comment": "unbound-libs is signed with Red Hat redhatrelease2 key"
                  }
                ]
              }
            ],
            "Criterions": [

            ]
          }
        ],
        "Criterions": [

        ]
      }
    ],
    "Criterions": [
      {
        "Comment": "Oracle Linux 8 is installed"
      }
    ]
  },
  "Severity": "Moderate",
  "Cves": [
    {
      "Impact": "",
      "Href": "",
      "ID": "CVE-2019-18934"
    }
  ],
  "Issued": {
    "Date": "2020-04-28"
  }
}