{
  "Title": "RHSA-2020:3902: libtiff security update (Moderate)",
  "Description": "The libtiff packages contain a library of functions for manipulating Tagged Image File Format (TIFF) files.\nSecurity Fix(es):\n* libtiff: integer overflow in _TIFFCheckMalloc and _TIFFCheckRealloc in tif_aux.c (CVE-2019-14973)\n* libtiff: integer overflow leading to heap-based buffer overflow in tif_getimage.c (CVE-2019-17546)\nFor more details about the security issue(s), including the impact, a CVSS score, acknowledgments, and other related information, refer to the CVE page(s) listed in the References section.\nAdditional Changes:\nFor detailed information on changes in this release, see the Red Hat Enterprise Linux 7.9 Release Notes linked from the References section.",
  "Platform": [
    "Red Hat Enterprise Linux 7"
  ],
  "References": [
    {
      "Source": "RHSA",
      "URI": "https://access.redhat.com/errata/RHSA-2020:3902",
      "ID": "RHSA-2020:3902"
    },
    {
      "Source": "CVE",
      "URI": "https://access.redhat.com/security/cve/CVE-2019-14973",
      "ID": "CVE-2019-14973"
    },
    {
      "Source": "CVE",
      "URI": "https://access.redhat.com/security/cve/CVE-2019-17546",
      "ID": "CVE-2019-17546"
    }
  ],
  "Criteria": {
    "Operator": "OR",
    "Criterias": [
      {
        "Operator": "AND",
        "Criterias": [
          {
            "Operator": "OR",
            "Criterias": [
              {
                "Operator": "AND",
                "Criterias": [

                ],
                "Criterions": [
                  {
                    "Comment": "libtiff is earlier than 0:4.0.3-35.el7"
                  },
                  {
                    "Comment": "libtiff is signed with Red Hat redhatrelease2 key"
                  }
                ]
              },
              {
                "Operator": "AND",
                "Criterias": [

                ],
                "Criterions": [
                  {
                    "Comment": "libtiff-devel is earlier than 0:4.0.3-35.el7"
                  },
                  {
                    "Comment": "libtiff-devel is signed with Red Hat redhatrelease2 key"
                  }
                ]
              },
              {
                "Operator": "AND",
                "Criterias": [

                ],
                "Criterions": [
                  {
                    "Comment": "libtiff-static is earlier than 0:4.0.3-35.el7"
                  },
                  {
                    "Comment": "libtiff-static is signed with Red Hat redhatrelease2 key"
                  }
                ]
              },
              {
                "Operator": "AND",
                "Criterias": [

                ],
                "Criterions": [
                  {
                    "Comment": "libtiff-tools is earlier than 0:4.0.3-35.el7"
                  },
                  {
                    "Comment": "libtiff-tools is signed with Red Hat redhatrelease2 key"
                  }
                ]
              }
            ],
            "Criterions": [

            ]
          }
        ],
        "Criterions": [
          {
            "Comment": "Oracle Linux 7 is installed"
          }
        ]
      }
    ],
    "Criterions": [
      {
        "Comment": "Oracle Linux 7 is installed"
      }
    ]
  },
  "Severity": "Moderate",
  "Cves": [
    {
      "Impact": "",
      "Href": "",
      "ID": "CVE-2019-14973"
    },
    {
      "Impact": "",
      "Href": "",
      "ID": "CVE-2019-17546"
    }
  ],
  "Issued": {
    "Date": "2020-09-29"
  }
}