{
  "Title": "RHSA-2020:1021: GNOME security, bug fix, and enhancement update (Moderate)",
  "Description": "GNOME is the default desktop environment of Red Hat Enterprise Linux.\nSecurity Fix(es):\n* gnome-shell: partial lock screen bypass (CVE-2019-3820)\nFor more details about the security issue(s), including the impact, a CVSS score, acknowledgments, and other related information, refer to the CVE page(s) listed in the References section.\nAdditional Changes:\nFor detailed information on changes in this release, see the Red Hat Enterprise Linux 7.8 Release Notes linked from the References section.",
  "Platform": [
    "Red Hat Enterprise Linux 7"
  ],
  "References": [
    {
      "Source": "RHSA",
      "URI": "https://access.redhat.com/errata/RHSA-2020:1021",
      "ID": "RHSA-2020:1021"
    },
    {
      "Source": "CVE",
      "URI": "https://access.redhat.com/security/cve/CVE-2019-3820",
      "ID": "CVE-2019-3820"
    }
  ],
  "Criteria": {
    "Operator": "OR",
    "Criterias": [
      {
        "Operator": "AND",
        "Criterias": [
          {
            "Operator": "OR",
            "Criterias": [
              {
                "Operator": "AND",
                "Criterias": [

                ],
                "Criterions": [
                  {
                    "Comment": "gtk-update-icon-cache is earlier than 0:3.22.30-5.el7"
                  },
                  {
                    "Comment": "gtk-update-icon-cache is signed with Red Hat redhatrelease2 key"
                  }
                ]
              },
              {
                "Operator": "AND",
                "Criterias": [

                ],
                "Criterions": [
                  {
                    "Comment": "gtk3 is earlier than 0:3.22.30-5.el7"
                  },
                  {
                    "Comment": "gtk3 is signed with Red Hat redhatrelease2 key"
                  }
                ]
              },
              {
                "Operator": "AND",
                "Criterias": [

                ],
                "Criterions": [
                  {
                    "Comment": "gtk3-devel is earlier than 0:3.22.30-5.el7"
                  },
                  {
                    "Comment": "gtk3-devel is signed with Red Hat redhatrelease2 key"
                  }
                ]
              },
              {
                "Operator": "AND",
                "Criterias": [

                ],
                "Criterions": [
                  {
                    "Comment": "gtk3-devel-docs is earlier than 0:3.22.30-5.el7"
                  },
                  {
                    "Comment": "gtk3-devel-docs is signed with Red Hat redhatrelease2 key"
                  }
                ]
              },
              {
                "Operator": "AND",
                "Criterias": [

                ],
                "Criterions": [
                  {
                    "Comment": "gtk3-immodule-xim is earlier than 0:3.22.30-5.el7"
                  },
                  {
                    "Comment": "gtk3-immodule-xim is signed with Red Hat redhatrelease2 key"
                  }
                ]
              },
              {
                "Operator": "AND",
                "Criterias": [

                ],
                "Criterions": [
                  {
                    "Comment": "gtk3-immodules is earlier than 0:3.22.30-5.el7"
                  },
                  {
                    "Comment": "gtk3-immodules is signed with Red Hat redhatrelease2 key"
                  }
                ]
              },
              {
                "Operator": "AND",
                "Criterias": [

                ],
                "Criterions": [
                  {
                    "Comment": "gtk3-tests is earlier than 0:3.22.30-5.el7"
                  },
                  {
                    "Comment": "gtk3-tests is signed with Red Hat redhatrelease2 key"
                  }
                ]
              },
              {
                "Operator": "AND",
                "Criterias": [

                ],
                "Criterions": [
                  {
                    "Comment": "tracker is earlier than 0:1.10.5-8.el7"
                  },
                  {
                    "Comment": "tracker is signed with Red Hat redhatrelease2 key"
                  }
                ]
              },
              {
                "Operator": "AND",
                "Criterias": [

                ],
                "Criterions": [
                  {
                    "Comment": "tracker-devel is earlier than 0:1.10.5-8.el7"
                  },
                  {
                    "Comment": "tracker-devel is signed with Red Hat redhatrelease2 key"
                  }
                ]
              },
              {
                "Operator": "AND",
                "Criterias": [

                ],
                "Criterions": [
                  {
                    "Comment": "tracker-docs is earlier than 0:1.10.5-8.el7"
                  },
                  {
                    "Comment": "tracker-docs is signed with Red Hat redhatrelease2 key"
                  }
                ]
              },
              {
                "Operator": "AND",
                "Criterias": [

                ],
                "Criterions": [
                  {
                    "Comment": "tracker-needle is earlier than 0:1.10.5-8.el7"
                  },
                  {
                    "Comment": "tracker-needle is signed with Red Hat redhatrelease2 key"
                  }
                ]
              },
              {
                "Operator": "AND",
                "Criterias": [

                ],
                "Criterions": [
                  {
                    "Comment": "tracker-preferences is earlier than 0:1.10.5-8.el7"
                  },
                  {
                    "Comment": "tracker-preferences is signed with Red Hat redhatrelease2 key"
                  }
                ]
              },
              {
                "Operator": "AND",
                "Criterias": [

                ],
                "Criterions": [
                  {
                    "Comment": "control-center is earlier than 1:3.28.1-6.el7"
                  },
                  {
                    "Comment": "control-center is signed with Red Hat redhatrelease2 key"
                  }
                ]
              },
              {
                "Operator": "AND",
                "Criterias": [

                ],
                "Criterions": [
                  {
                    "Comment": "control-center-filesystem is earlier than 1:3.28.1-6.el7"
                  },
                  {
                    "Comment": "control-center-filesystem is signed with Red Hat redhatrelease2 key"
                  }
                ]
              },
              {
                "Operator": "AND",
                "Criterias": [

                ],
                "Criterions": [
                  {
                    "Comment": "gnome-online-accounts is earlier than 0:3.28.2-1.el7"
                  },
                  {
                    "Comment": "gnome-online-accounts is signed with Red Hat redhatrelease2 key"
                  }
                ]
              },
              {
                "Operator": "AND",
                "Criterias": [

                ],
                "Criterions": [
                  {
                    "Comment": "gnome-online-accounts-devel is earlier than 0:3.28.2-1.el7"
                  },
                  {
                    "Comment": "gnome-online-accounts-devel is signed with Red Hat redhatrelease2 key"
                  }
                ]
              },
              {
                "Operator": "AND",
                "Criterias": [

                ],
                "Criterions": [
                  {
                    "Comment": "LibRaw is earlier than 0:0.19.4-1.el7"
                  },
                  {
                    "Comment": "LibRaw is signed with Red Hat redhatrelease2 key"
                  }
                ]
              },
              {
                "Operator": "AND",
                "Criterias": [

                ],
                "Criterions": [
                  {
                    "Comment": "LibRaw-devel is earlier than 0:0.19.4-1.el7"
                  },
                  {
                    "Comment": "LibRaw-devel is signed with Red Hat redhatrelease2 key"
                  }
                ]
              },
              {
                "Operator": "AND",
                "Criterias": [

                ],
                "Criterions": [
                  {
                    "Comment": "LibRaw-static is earlier than 0:0.19.4-1.el7"
                  },
                  {
                    "Comment": "LibRaw-static is signed with Red Hat redhatrelease2 key"
                  }
                ]
              },
              {
                "Operator": "AND",
                "Criterias": [

                ],
                "Criterions": [
                  {
                    "Comment": "xchat is earlier than 1:2.8.8-25.el7"
                  },
                  {
                    "Comment": "xchat is signed with Red Hat redhatrelease2 key"
                  }
                ]
              },
              {
                "Operator": "AND",
                "Criterias": [

                ],
                "Criterions": [
                  {
                    "Comment": "xchat-tcl is earlier than 1:2.8.8-25.el7"
                  },
                  {
                    "Comment": "xchat-tcl is signed with Red Hat redhatrelease2 key"
                  }
                ]
              },
              {
                "Operator": "AND",
                "Criterias": [

                ],
                "Criterions": [
                  {
                    "Comment": "nautilus is earlier than 0:3.26.3.1-7.el7"
                  },
                  {
                    "Comment": "nautilus is signed with Red Hat redhatrelease2 key"
                  }
                ]
              },
              {
                "Operator": "AND",
                "Criterias": [

                ],
                "Criterions": [
                  {
                    "Comment": "nautilus-devel is earlier than 0:3.26.3.1-7.el7"
                  },
                  {
                    "Comment": "nautilus-devel is signed with Red Hat redhatrelease2 key"
                  }
                ]
              },
              {
                "Operator": "AND",
                "Criterias": [

                ],
                "Criterions": [
                  {
                    "Comment": "nautilus-extensions is earlier than 0:3.26.3.1-7.el7"
                  },
                  {
                    "Comment": "nautilus-extensions is signed with Red Hat redhatrelease2 key"
                  }
                ]
              },
              {
                "Operator": "AND",
                "Criterias": [

                ],
                "Criterions": [
                  {
                    "Comment": "gsettings-desktop-schemas is earlier than 0:3.28.0-3.el7"
                  },
                  {
                    "Comment": "gsettings-desktop-schemas is signed with Red Hat redhatrelease2 key"
                  }
                ]
              },
              {
                "Operator": "AND",
                "Criterias": [

                ],
                "Criterions": [
                  {
                    "Comment": "gsettings-desktop-schemas-devel is earlier than 0:3.28.0-3.el7"
                  },
                  {
                    "Comment": "gsettings-desktop-schemas-devel is signed with Red Hat redhatrelease2 key"
                  }
                ]
              },
              {
                "Operator": "AND",
                "Criterias": [

                ],
                "Criterions": [
                  {
                    "Comment": "shared-mime-info is earlier than 0:1.8-5.el7"
                  },
                  {
                    "Comment": "shared-mime-info is signed with Red Hat redhatrelease2 key"
                  }
                ]
              },
              {
                "Operator": "AND",
                "Criterias": [

                ],
                "Criterions": [
                  {
                    "Comment": "colord is earlier than 0:1.3.4-2.el7"
                  },
                  {
                    "Comment": "colord is signed with Red Hat redhatrelease2 key"
                  }
                ]
              },
              {
                "Operator": "AND",
                "Criterias": [

                ],
                "Criterions": [
                  {
                    "Comment": "colord-devel is earlier than 0:1.3.4-2.el7"
                  },
                  {
                    "Comment": "colord-devel is signed with Red Hat redhatrelease2 key"
                  }
                ]
              },
              {
                "Operator": "AND",
                "Criterias": [

                ],
                "Criterions": [
                  {
                    "Comment": "colord-devel-docs is earlier than 0:1.3.4-2.el7"
                  },
                  {
                    "Comment": "colord-devel-docs is signed with Red Hat redhatrelease2 key"
                  }
                ]
              },
              {
                "Operator": "AND",
                "Criterias": [

                ],
                "Criterions": [
                  {
                    "Comment": "colord-extra-profiles is earlier than 0:1.3.4-2.el7"
                  },
                  {
                    "Comment": "colord-extra-profiles is signed with Red Hat redhatrelease2 key"
                  }
                ]
              },
              {
                "Operator": "AND",
                "Criterias": [

                ],
                "Criterions": [
                  {
                    "Comment": "colord-libs is earlier than 0:1.3.4-2.el7"
                  },
                  {
                    "Comment": "colord-libs is signed with Red Hat redhatrelease2 key"
                  }
                ]
              },
              {
                "Operator": "AND",
                "Criterias": [

                ],
                "Criterions": [
                  {
                    "Comment": "libgweather is earlier than 0:3.28.2-3.el7"
                  },
                  {
                    "Comment": "libgweather is signed with Red Hat redhatrelease2 key"
                  }
                ]
              },
              {
                "Operator": "AND",
                "Criterias": [

                ],
                "Criterions": [
                  {
                    "Comment": "libgweather-devel is earlier than 0:3.28.2-3.el7"
                  },
                  {
                    "Comment": "libgweather-devel is signed with Red Hat redhatrelease2 key"
                  }
                ]
              },
              {
                "Operator": "AND",
                "Criterias": [

                ],
                "Criterions": [
                  {
                    "Comment": "gnome-settings-daemon is earlier than 0:3.28.1-8.el7"
                  },
                  {
                    "Comment": "gnome-settings-daemon is signed with Red Hat redhatrelease2 key"
                  }
                ]
              },
              {
                "Operator": "AND",
                "Criterias": [

                ],
                "Criterions": [
                  {
                    "Comment": "gnome-settings-daemon-devel is earlier than 0:3.28.1-8.el7"
                  },
                  {
                    "Comment": "gnome-settings-daemon-devel is signed with Red Hat redhatrelease2 key"
                  }
                ]
              },
              {
                "Operator": "AND",
                "Criterias": [

                ],
                "Criterions": [
                  {
                    "Comment": "osinfo-db is earlier than 0:20190805-2.el7"
                  },
                  {
                    "Comment": "osinfo-db is signed with Red Hat redhatrelease2 key"
                  }
                ]
              },
              {
                "Operator": "AND",
                "Criterias": [

                ],
                "Criterions": [
                  {
                    "Comment": "libcanberra is earlier than 0:0.30-9.el7"
                  },
                  {
                    "Comment": "libcanberra is signed with Red Hat redhatrelease2 key"
                  }
                ]
              },
              {
                "Operator": "AND",
                "Criterias": [

                ],
                "Criterions": [
                  {
                    "Comment": "libcanberra-devel is earlier than 0:0.30-9.el7"
                  },
                  {
                    "Comment": "libcanberra-devel is signed with Red Hat redhatrelease2 key"
                  }
                ]
              },
              {
                "Operator": "AND",
                "Criterias": [

                ],
                "Criterions": [
                  {
                    "Comment": "libcanberra-gtk2 is earlier than 0:0.30-9.el7"
                  },
                  {
                    "Comment": "libcanberra-gtk2 is signed with Red Hat redhatrelease2 key"
                  }
                ]
              },
              {
                "Operator": "AND",
                "Criterias": [

                ],
                "Criterions": [
                  {
                    "Comment": "libcanberra-gtk3 is earlier than 0:0.30-9.el7"
                  },
                  {
                    "Comment": "libcanberra-gtk3 is signed with Red Hat redhatrelease2 key"
                  }
                ]
              },
              {
                "Operator": "AND",
                "Criterias": [

                ],
                "Criterions": [
                  {
                    "Comment": "accountsservice is earlier than 0:0.6.50-7.el7"
                  },
                  {
                    "Comment": "accountsservice is signed with Red Hat redhatrelease2 key"
                  }
                ]
              },
              {
                "Operator": "AND",
                "Criterias": [

                ],
                "Criterions": [
                  {
                    "Comment": "accountsservice-devel is earlier than 0:0.6.50-7.el7"
                  },
                  {
                    "Comment": "accountsservice-devel is signed with Red Hat redhatrelease2 key"
                  }
                ]
              },
              {
                "Operator": "AND",
                "Criterias": [

                ],
                "Criterions": [
                  {
                    "Comment": "accountsservice-libs is earlier than 0:0.6.50-7.el7"
                  },
                  {
                    "Comment": "accountsservice-libs is signed with Red Hat redhatrelease2 key"
                  }
                ]
              },
              {
                "Operator": "AND",
                "Criterias": [

                ],
                "Criterions": [
                  {
                    "Comment": "gdm is earlier than 1:3.28.2-22.el7"
                  },
                  {
                    "Comment": "gdm is signed with Red Hat redhatrelease2 key"
                  }
                ]
              },
              {
                "Operator": "AND",
                "Criterias": [

                ],
                "Criterions": [
                  {
                    "Comment": "gdm-devel is earlier than 1:3.28.2-22.el7"
                  },
                  {
                    "Comment": "gdm-devel is signed with Red Hat redhatrelease2 key"
                  }
                ]
              },
              {
                "Operator": "AND",
                "Criterias": [

                ],
                "Criterions": [
                  {
                    "Comment": "gdm-pam-extensions-devel is earlier than 1:3.28.2-22.el7"
                  },
                  {
                    "Comment": "gdm-pam-extensions-devel is signed with Red Hat redhatrelease2 key"
                  }
                ]
              },
              {
                "Operator": "AND",
                "Criterias": [

                ],
                "Criterions": [
                  {
                    "Comment": "mutter is earlier than 0:3.28.3-20.el7"
                  },
                  {
                    "Comment": "mutter is signed with Red Hat redhatrelease2 key"
                  }
                ]
              },
              {
                "Operator": "AND",
                "Criterias": [

                ],
                "Criterions": [
                  {
                    "Comment": "mutter-devel is earlier than 0:3.28.3-20.el7"
                  },
                  {
                    "Comment": "mutter-devel is signed with Red Hat redhatrelease2 key"
                  }
                ]
              },
              {
                "Operator": "AND",
                "Criterias": [

                ],
                "Criterions": [
                  {
                    "Comment": "gnome-shell is earlier than 0:3.28.3-24.el7"
                  },
                  {
                    "Comment": "gnome-shell is signed with Red Hat redhatrelease2 key"
                  }
                ]
              },
              {
                "Operator": "AND",
                "Criterias": [

                ],
                "Criterions": [
                  {
                    "Comment": "gnome-classic-session is earlier than 0:3.28.1-11.el7"
                  },
                  {
                    "Comment": "gnome-classic-session is signed with Red Hat redhatrelease2 key"
                  }
                ]
              },
              {
                "Operator": "AND",
                "Criterias": [

                ],
                "Criterions": [
                  {
                    "Comment": "gnome-shell-extension-alternate-tab is earlier than 0:3.28.1-11.el7"
                  },
                  {
                    "Comment": "gnome-shell-extension-alternate-tab is signed with Red Hat redhatrelease2 key"
                  }
                ]
              },
              {
                "Operator": "AND",
                "Criterias": [

                ],
                "Criterions": [
                  {
                    "Comment": "gnome-shell-extension-apps-menu is earlier than 0:3.28.1-11.el7"
                  },
                  {
                    "Comment": "gnome-shell-extension-apps-menu is signed with Red Hat redhatrelease2 key"
                  }
                ]
              },
              {
                "Operator": "AND",
                "Criterias": [

                ],
                "Criterions": [
                  {
                    "Comment": "gnome-shell-extension-auto-move-windows is earlier than 0:3.28.1-11.el7"
                  },
                  {
                    "Comment": "gnome-shell-extension-auto-move-windows is signed with Red Hat redhatrelease2 key"
                  }
                ]
              },
              {
                "Operator": "AND",
                "Criterias": [

                ],
                "Criterions": [
                  {
                    "Comment": "gnome-shell-extension-common is earlier than 0:3.28.1-11.el7"
                  },
                  {
                    "Comment": "gnome-shell-extension-common is signed with Red Hat redhatrelease2 key"
                  }
                ]
              },
              {
                "Operator": "AND",
                "Criterias": [

                ],
                "Criterions": [
                  {
                    "Comment": "gnome-shell-extension-dash-to-dock is earlier than 0:3.28.1-11.el7"
                  },
                  {
                    "Comment": "gnome-shell-extension-dash-to-dock is signed with Red Hat redhatrelease2 key"
                  }
                ]
              },
              {
                "Operator": "AND",
                "Criterias": [

                ],
                "Criterions": [
                  {
                    "Comment": "gnome-shell-extension-disable-screenshield is earlier than 0:3.28.1-11.el7"
                  },
                  {
                    "Comment": "gnome-shell-extension-disable-screenshield is signed with Red Hat redhatrelease2 key"
                  }
                ]
              },
              {
                "Operator": "AND",
                "Criterias": [

                ],
                "Criterions": [
                  {
                    "Comment": "gnome-shell-extension-drive-menu is earlier than 0:3.28.1-11.el7"
                  },
                  {
                    "Comment": "gnome-shell-extension-drive-menu is signed with Red Hat redhatrelease2 key"
                  }
                ]
              },
              {
                "Operator": "AND",
                "Criterias": [

                ],
                "Criterions": [
                  {
                    "Comment": "gnome-shell-extension-extra-osk-keys is earlier than 0:3.28.1-11.el7"
                  },
                  {
                    "Comment": "gnome-shell-extension-extra-osk-keys is signed with Red Hat redhatrelease2 key"
                  }
                ]
              },
              {
                "Operator": "AND",
                "Criterias": [

                ],
                "Criterions": [
                  {
                    "Comment": "gnome-shell-extension-horizontal-workspaces is earlier than 0:3.28.1-11.el7"
                  },
                  {
                    "Comment": "gnome-shell-extension-horizontal-workspaces is signed with Red Hat redhatrelease2 key"
                  }
                ]
              },
              {
                "Operator": "AND",
                "Criterias": [

                ],
                "Criterions": [
                  {
                    "Comment": "gnome-shell-extension-launch-new-instance is earlier than 0:3.28.1-11.el7"
                  },
                  {
                    "Comment": "gnome-shell-extension-launch-new-instance is signed with Red Hat redhatrelease2 key"
                  }
                ]
              },
              {
                "Operator": "AND",
                "Criterias": [

                ],
                "Criterions": [
                  {
                    "Comment": "gnome-shell-extension-native-window-placement is earlier than 0:3.28.1-11.el7"
                  },
                  {
                    "Comment": "gnome-shell-extension-native-window-placement is signed with Red Hat redhatrelease2 key"
                  }
                ]
              },
              {
                "Operator": "AND",
                "Criterias": [

                ],
                "Criterions": [
                  {
                    "Comment": "gnome-shell-extension-no-hot-corner is earlier than 0:3.28.1-11.el7"
                  },
                  {
                    "Comment": "gnome-shell-extension-no-hot-corner is signed with Red Hat redhatrelease2 key"
                  }
                ]
              },
              {
                "Operator": "AND",
                "Criterias": [

                ],
                "Criterions": [
                  {
                    "Comment": "gnome-shell-extension-panel-favorites is earlier than 0:3.28.1-11.el7"
                  },
                  {
                    "Comment": "gnome-shell-extension-panel-favorites is signed with Red Hat redhatrelease2 key"
                  }
                ]
              },
              {
                "Operator": "AND",
                "Criterias": [

                ],
                "Criterions": [
                  {
                    "Comment": "gnome-shell-extension-places-menu is earlier than 0:3.28.1-11.el7"
                  },
                  {
                    "Comment": "gnome-shell-extension-places-menu is signed with Red Hat redhatrelease2 key"
                  }
                ]
              },
              {
                "Operator": "AND",
                "Criterias": [

                ],
                "Criterions": [
                  {
                    "Comment": "gnome-shell-extension-screenshot-window-sizer is earlier than 0:3.28.1-11.el7"
                  },
                  {
                    "Comment": "gnome-shell-extension-screenshot-window-sizer is signed with Red Hat redhatrelease2 key"
                  }
                ]
              },
              {
                "Operator": "AND",
                "Criterias": [

                ],
                "Criterions": [
                  {
                    "Comment": "gnome-shell-extension-systemMonitor is earlier than 0:3.28.1-11.el7"
                  },
                  {
                    "Comment": "gnome-shell-extension-systemMonitor is signed with Red Hat redhatrelease2 key"
                  }
                ]
              },
              {
                "Operator": "AND",
                "Criterias": [

                ],
                "Criterions": [
                  {
                    "Comment": "gnome-shell-extension-top-icons is earlier than 0:3.28.1-11.el7"
                  },
                  {
                    "Comment": "gnome-shell-extension-top-icons is signed with Red Hat redhatrelease2 key"
                  }
                ]
              },
              {
                "Operator": "AND",
                "Criterias": [

                ],
                "Criterions": [
                  {
                    "Comment": "gnome-shell-extension-updates-dialog is earlier than 0:3.28.1-11.el7"
                  },
                  {
                    "Comment": "gnome-shell-extension-updates-dialog is signed with Red Hat redhatrelease2 key"
                  }
                ]
              },
              {
                "Operator": "AND",
                "Criterias": [

                ],
                "Criterions": [
                  {
                    "Comment": "gnome-shell-extension-user-theme is earlier than 0:3.28.1-11.el7"
                  },
                  {
                    "Comment": "gnome-shell-extension-user-theme is signed with Red Hat redhatrelease2 key"
                  }
                ]
              },
              {
                "Operator": "AND",
                "Criterias": [

                ],
                "Criterions": [
                  {
                    "Comment": "gnome-shell-extension-window-grouper is earlier than 0:3.28.1-11.el7"
                  },
                  {
                    "Comment": "gnome-shell-extension-window-grouper is signed with Red Hat redhatrelease2 key"
                  }
                ]
              },
              {
                "Operator": "AND",
                "Criterias": [

                ],
                "Criterions": [
                  {
                    "Comment": "gnome-shell-extension-window-list is earlier than 0:3.28.1-11.el7"
                  },
                  {
                    "Comment": "gnome-shell-extension-window-list is signed with Red Hat redhatrelease2 key"
                  }
                ]
              },
              {
                "Operator": "AND",
                "Criterias": [

                ],
                "Criterions": [
                  {
                    "Comment": "gnome-shell-extension-windowsNavigator is earlier than 0:3.28.1-11.el7"
                  },
                  {
                    "Comment": "gnome-shell-extension-windowsNavigator is signed with Red Hat redhatrelease2 key"
                  }
                ]
              },
              {
                "Operator": "AND",
                "Criterias": [

                ],
                "Criterions": [
                  {
                    "Comment": "gnome-shell-extension-workspace-indicator is earlier than 0:3.28.1-11.el7"
                  },
                  {
                    "Comment": "gnome-shell-extension-workspace-indicator is signed with Red Hat redhatrelease2 key"
                  }
                ]
              },
              {
                "Operator": "AND",
                "Criterias": [

                ],
                "Criterions": [
                  {
                    "Comment": "gnome-tweak-tool is earlier than 0:3.28.1-7.el7"
                  },
                  {
                    "Comment": "gnome-tweak-tool is signed with Red Hat redhatrelease2 key"
                  }
                ]
              }
            ],
            "Criterions": [

            ]
          }
        ],
        "Criterions": [
          {
            "Comment": "Oracle Linux 7 is installed"
          }
        ]
      }
    ],
    "Criterions": [
      {
        "Comment": "Oracle Linux 7 is installed"
      }
    ]
  },
  "Severity": "Moderate",
  "Cves": [
    {
      "Impact": "",
      "Href": "",
      "ID": "CVE-2019-3820"
    }
  ],
  "Issued": {
    "Date": "2020-03-31"
  }
}