{
  "Title": "RHSA-2020:5503: mariadb-connector-c security, bug fix, and enhancement update (Moderate)",
  "Description": "The MariaDB Native Client library (C driver) is used to connect applications developed in C/C++ to MariaDB and MySQL databases. \nThe following packages have been upgraded to a later upstream version: mariadb-connector-c (3.1.11). (BZ#1898993)\nSecurity Fix(es):\n* mysql: C API unspecified vulnerability (CPU Apr 2020) (CVE-2020-2752)\n* mysql: C API unspecified vulnerability (CPU Apr 2020) (CVE-2020-2922)\n* mariadb-connector-c: Improper validation of content in a OK packet received from server (CVE-2020-13249)\n* mysql: C API unspecified vulnerability (CPU Jan 2020) (CVE-2020-2574)\nFor more details about the security issue(s), including the impact, a CVSS score, acknowledgments, and other related information, refer to the CVE page(s) listed in the References section.\nBug Fix(es):\n* Code utilizing plugins can't be compiled properly (BZ#1899001)\n* Add \"zlib-devel\" requirement in \"-devel\" subpackage (BZ#1899005)\n* Replace hard-coded /usr with %{_prefix} (BZ#1899099)",
  "Platform": [
    "Red Hat Enterprise Linux 8"
  ],
  "References": [
    {
      "Source": "RHSA",
      "URI": "https://access.redhat.com/errata/RHSA-2020:5503",
      "ID": "RHSA-2020:5503"
    },
    {
      "Source": "CVE",
      "URI": "https://access.redhat.com/security/cve/CVE-2020-13249",
      "ID": "CVE-2020-13249"
    },
    {
      "Source": "CVE",
      "URI": "https://access.redhat.com/security/cve/CVE-2020-2574",
      "ID": "CVE-2020-2574"
    },
    {
      "Source": "CVE",
      "URI": "https://access.redhat.com/security/cve/CVE-2020-2752",
      "ID": "CVE-2020-2752"
    },
    {
      "Source": "CVE",
      "URI": "https://access.redhat.com/security/cve/CVE-2020-2922",
      "ID": "CVE-2020-2922"
    },
    {
      "Source": "CVE",
      "URI": "https://access.redhat.com/security/cve/CVE-2021-2007",
      "ID": "CVE-2021-2007"
    }
  ],
  "Criteria": {
    "Operator": "OR",
    "Criterias": [
      {
        "Operator": "AND",
        "Criterias": [
          {
            "Operator": "OR",
            "Criterias": [

            ],
            "Criterions": [
              {
                "Comment": "Oracle Linux 8 is installed"
              },
              {
                "Comment": "Red Hat CoreOS 4 is installed"
              }
            ]
          },
          {
            "Operator": "OR",
            "Criterias": [
              {
                "Operator": "AND",
                "Criterias": [

                ],
                "Criterions": [
                  {
                    "Comment": "mariadb-connector-c is earlier than 0:3.1.11-2.el8_3"
                  },
                  {
                    "Comment": "mariadb-connector-c is signed with Red Hat redhatrelease2 key"
                  }
                ]
              },
              {
                "Operator": "AND",
                "Criterias": [

                ],
                "Criterions": [
                  {
                    "Comment": "mariadb-connector-c-config is earlier than 0:3.1.11-2.el8_3"
                  },
                  {
                    "Comment": "mariadb-connector-c-config is signed with Red Hat redhatrelease2 key"
                  }
                ]
              },
              {
                "Operator": "AND",
                "Criterias": [

                ],
                "Criterions": [
                  {
                    "Comment": "mariadb-connector-c-devel is earlier than 0:3.1.11-2.el8_3"
                  },
                  {
                    "Comment": "mariadb-connector-c-devel is signed with Red Hat redhatrelease2 key"
                  }
                ]
              }
            ],
            "Criterions": [

            ]
          }
        ],
        "Criterions": [

        ]
      }
    ],
    "Criterions": [
      {
        "Comment": "Oracle Linux 8 is installed"
      }
    ]
  },
  "Severity": "Moderate",
  "Cves": [
    {
      "Impact": "",
      "Href": "",
      "ID": "CVE-2020-13249"
    },
    {
      "Impact": "",
      "Href": "",
      "ID": "CVE-2020-2574"
    },
    {
      "Impact": "",
      "Href": "",
      "ID": "CVE-2020-2752"
    },
    {
      "Impact": "",
      "Href": "",
      "ID": "CVE-2020-2922"
    },
    {
      "Impact": "",
      "Href": "",
      "ID": "CVE-2021-2007"
    }
  ],
  "Issued": {
    "Date": "2020-12-15"
  }
}