{
  "Title": "RHSA-2020:5257: firefox security update (Important)",
  "Description": "Mozilla Firefox is an open-source web browser, designed for standards compliance, performance, and portability.\nThis update upgrades Firefox to version 78.5.0 ESR.\nSecurity Fix(es):\n* Mozilla: Parsing mismatches could confuse and bypass security sanitizer for chrome privileged code (CVE-2020-26951)\n* Mozilla: Memory safety bugs fixed in Firefox 83 and Firefox ESR 78.5 (CVE-2020-26968)\n* Mozilla: Variable time processing of cross-origin images during drawImage calls (CVE-2020-16012)\n* Mozilla: Fullscreen could be enabled without displaying the security UI (CVE-2020-26953)\n* Mozilla: XSS through paste (manual and clipboard API) (CVE-2020-26956)\n* Mozilla: Requests intercepted through ServiceWorkers lacked MIME type restrictions (CVE-2020-26958)\n* Mozilla: Use-after-free in WebRequestService (CVE-2020-26959)\n* Mozilla: Potential use-after-free in uses of nsTArray (CVE-2020-26960)\n* Mozilla: DoH did not filter IPv4 mapped IP Addresses (CVE-2020-26961)\n* Mozilla: Software keyboards may have remembered typed passwords (CVE-2020-26965)\nFor more details about the security issue(s), including the impact, a CVSS score, acknowledgments, and other related information, refer to the CVE page(s) listed in the References section.",
  "Platform": [
    "Red Hat Enterprise Linux 6"
  ],
  "References": [
    {
      "Source": "RHSA",
      "URI": "https://access.redhat.com/errata/RHSA-2020:5257",
      "ID": "RHSA-2020:5257"
    },
    {
      "Source": "CVE",
      "URI": "https://access.redhat.com/security/cve/CVE-2020-16012",
      "ID": "CVE-2020-16012"
    },
    {
      "Source": "CVE",
      "URI": "https://access.redhat.com/security/cve/CVE-2020-26951",
      "ID": "CVE-2020-26951"
    },
    {
      "Source": "CVE",
      "URI": "https://access.redhat.com/security/cve/CVE-2020-26953",
      "ID": "CVE-2020-26953"
    },
    {
      "Source": "CVE",
      "URI": "https://access.redhat.com/security/cve/CVE-2020-26956",
      "ID": "CVE-2020-26956"
    },
    {
      "Source": "CVE",
      "URI": "https://access.redhat.com/security/cve/CVE-2020-26958",
      "ID": "CVE-2020-26958"
    },
    {
      "Source": "CVE",
      "URI": "https://access.redhat.com/security/cve/CVE-2020-26959",
      "ID": "CVE-2020-26959"
    },
    {
      "Source": "CVE",
      "URI": "https://access.redhat.com/security/cve/CVE-2020-26960",
      "ID": "CVE-2020-26960"
    },
    {
      "Source": "CVE",
      "URI": "https://access.redhat.com/security/cve/CVE-2020-26961",
      "ID": "CVE-2020-26961"
    },
    {
      "Source": "CVE",
      "URI": "https://access.redhat.com/security/cve/CVE-2020-26965",
      "ID": "CVE-2020-26965"
    },
    {
      "Source": "CVE",
      "URI": "https://access.redhat.com/security/cve/CVE-2020-26968",
      "ID": "CVE-2020-26968"
    }
  ],
  "Criteria": {
    "Operator": "OR",
    "Criterias": [
      {
        "Operator": "AND",
        "Criterias": [

        ],
        "Criterions": [
          {
            "Comment": "Oracle Linux 6 is installed"
          },
          {
            "Comment": "firefox is earlier than 0:78.5.0-1.el6_10"
          },
          {
            "Comment": "firefox is signed with Red Hat redhatrelease2 key"
          }
        ]
      }
    ],
    "Criterions": [
      {
        "Comment": "Oracle Linux 6 is installed"
      }
    ]
  },
  "Severity": "Important",
  "Cves": [
    {
      "Impact": "",
      "Href": "",
      "ID": "CVE-2020-16012"
    },
    {
      "Impact": "",
      "Href": "",
      "ID": "CVE-2020-26951"
    },
    {
      "Impact": "",
      "Href": "",
      "ID": "CVE-2020-26953"
    },
    {
      "Impact": "",
      "Href": "",
      "ID": "CVE-2020-26956"
    },
    {
      "Impact": "",
      "Href": "",
      "ID": "CVE-2020-26958"
    },
    {
      "Impact": "",
      "Href": "",
      "ID": "CVE-2020-26959"
    },
    {
      "Impact": "",
      "Href": "",
      "ID": "CVE-2020-26960"
    },
    {
      "Impact": "",
      "Href": "",
      "ID": "CVE-2020-26961"
    },
    {
      "Impact": "",
      "Href": "",
      "ID": "CVE-2020-26965"
    },
    {
      "Impact": "",
      "Href": "",
      "ID": "CVE-2020-26968"
    }
  ],
  "Issued": {
    "Date": "2020-11-30"
  }
}