{
  "Title": "RHSA-2020:1880: ibus and glib2 security and bug fix update (Moderate)",
  "Description": "GLib provides the core application building blocks for libraries and applications written in C. It provides the core object system used in GNOME, the main loop implementation, and a large set of utility functions for strings and common data structures.\nThe Intelligent Input Bus (IBus) is an input method framework for multilingual input in Unix-like operating systems.\nSecurity Fix(es):\n* ibus: missing authorization allows local attacker to access the input bus of another user (CVE-2019-14822)\nFor more details about the security issue(s), including the impact, a CVSS score, acknowledgments, and other related information, refer to the CVE page(s) listed in the References section.\nAdditional Changes:\nFor detailed information on changes in this release, see the Red Hat Enterprise Linux 8.2 Release Notes linked from the References section.",
  "Platform": [
    "Red Hat Enterprise Linux 8"
  ],
  "References": [
    {
      "Source": "RHSA",
      "URI": "https://access.redhat.com/errata/RHSA-2020:1880",
      "ID": "RHSA-2020:1880"
    },
    {
      "Source": "CVE",
      "URI": "https://access.redhat.com/security/cve/CVE-2019-14822",
      "ID": "CVE-2019-14822"
    }
  ],
  "Criteria": {
    "Operator": "OR",
    "Criterias": [
      {
        "Operator": "AND",
        "Criterias": [
          {
            "Operator": "OR",
            "Criterias": [

            ],
            "Criterions": [
              {
                "Comment": "Oracle Linux 8 is installed"
              },
              {
                "Comment": "Red Hat CoreOS 4 is installed"
              }
            ]
          },
          {
            "Operator": "OR",
            "Criterias": [
              {
                "Operator": "AND",
                "Criterias": [

                ],
                "Criterions": [
                  {
                    "Comment": "ibus is earlier than 0:1.5.19-11.el8"
                  },
                  {
                    "Comment": "ibus is signed with Red Hat redhatrelease2 key"
                  }
                ]
              },
              {
                "Operator": "AND",
                "Criterias": [

                ],
                "Criterions": [
                  {
                    "Comment": "ibus-devel is earlier than 0:1.5.19-11.el8"
                  },
                  {
                    "Comment": "ibus-devel is signed with Red Hat redhatrelease2 key"
                  }
                ]
              },
              {
                "Operator": "AND",
                "Criterias": [

                ],
                "Criterions": [
                  {
                    "Comment": "ibus-devel-docs is earlier than 0:1.5.19-11.el8"
                  },
                  {
                    "Comment": "ibus-devel-docs is signed with Red Hat redhatrelease2 key"
                  }
                ]
              },
              {
                "Operator": "AND",
                "Criterias": [

                ],
                "Criterions": [
                  {
                    "Comment": "ibus-gtk2 is earlier than 0:1.5.19-11.el8"
                  },
                  {
                    "Comment": "ibus-gtk2 is signed with Red Hat redhatrelease2 key"
                  }
                ]
              },
              {
                "Operator": "AND",
                "Criterias": [

                ],
                "Criterions": [
                  {
                    "Comment": "ibus-gtk3 is earlier than 0:1.5.19-11.el8"
                  },
                  {
                    "Comment": "ibus-gtk3 is signed with Red Hat redhatrelease2 key"
                  }
                ]
              },
              {
                "Operator": "AND",
                "Criterias": [

                ],
                "Criterions": [
                  {
                    "Comment": "ibus-libs is earlier than 0:1.5.19-11.el8"
                  },
                  {
                    "Comment": "ibus-libs is signed with Red Hat redhatrelease2 key"
                  }
                ]
              },
              {
                "Operator": "AND",
                "Criterias": [

                ],
                "Criterions": [
                  {
                    "Comment": "ibus-setup is earlier than 0:1.5.19-11.el8"
                  },
                  {
                    "Comment": "ibus-setup is signed with Red Hat redhatrelease2 key"
                  }
                ]
              },
              {
                "Operator": "AND",
                "Criterias": [

                ],
                "Criterions": [
                  {
                    "Comment": "ibus-wayland is earlier than 0:1.5.19-11.el8"
                  },
                  {
                    "Comment": "ibus-wayland is signed with Red Hat redhatrelease2 key"
                  }
                ]
              },
              {
                "Operator": "AND",
                "Criterias": [

                ],
                "Criterions": [
                  {
                    "Comment": "glib2 is earlier than 0:2.56.4-8.el8"
                  },
                  {
                    "Comment": "glib2 is signed with Red Hat redhatrelease2 key"
                  }
                ]
              },
              {
                "Operator": "AND",
                "Criterias": [

                ],
                "Criterions": [
                  {
                    "Comment": "glib2-devel is earlier than 0:2.56.4-8.el8"
                  },
                  {
                    "Comment": "glib2-devel is signed with Red Hat redhatrelease2 key"
                  }
                ]
              },
              {
                "Operator": "AND",
                "Criterias": [

                ],
                "Criterions": [
                  {
                    "Comment": "glib2-doc is earlier than 0:2.56.4-8.el8"
                  },
                  {
                    "Comment": "glib2-doc is signed with Red Hat redhatrelease2 key"
                  }
                ]
              },
              {
                "Operator": "AND",
                "Criterias": [

                ],
                "Criterions": [
                  {
                    "Comment": "glib2-fam is earlier than 0:2.56.4-8.el8"
                  },
                  {
                    "Comment": "glib2-fam is signed with Red Hat redhatrelease2 key"
                  }
                ]
              },
              {
                "Operator": "AND",
                "Criterias": [

                ],
                "Criterions": [
                  {
                    "Comment": "glib2-static is earlier than 0:2.56.4-8.el8"
                  },
                  {
                    "Comment": "glib2-static is signed with Red Hat redhatrelease2 key"
                  }
                ]
              },
              {
                "Operator": "AND",
                "Criterias": [

                ],
                "Criterions": [
                  {
                    "Comment": "glib2-tests is earlier than 0:2.56.4-8.el8"
                  },
                  {
                    "Comment": "glib2-tests is signed with Red Hat redhatrelease2 key"
                  }
                ]
              }
            ],
            "Criterions": [

            ]
          }
        ],
        "Criterions": [

        ]
      }
    ],
    "Criterions": [
      {
        "Comment": "Oracle Linux 8 is installed"
      }
    ]
  },
  "Severity": "Moderate",
  "Cves": [
    {
      "Impact": "",
      "Href": "",
      "ID": "CVE-2019-14822"
    }
  ],
  "Issued": {
    "Date": "2020-04-28"
  }
}