{
  "Title": "RHSA-2020:3662: php:7.3 security, bug fix, and enhancement update (Moderate)",
  "Description": "PHP is an HTML-embedded scripting language commonly used with the Apache HTTP Server.\nThe following packages have been upgraded to a later upstream version: php (7.3.20). (BZ#1856655)\nSecurity Fix(es):\n* php: Out-of-bounds read due to integer overflow in iconv_mime_decode_headers() (CVE-2019-11039)\n* php: Buffer over-read in exif_read_data() (CVE-2019-11040)\n* php: DirectoryIterator class accepts filenames with embedded \\0 byte and treats them as terminating at that byte (CVE-2019-11045)\n* php: Information disclosure in exif_read_data() (CVE-2019-11047)\n* php: Integer wraparounds when receiving multipart forms (CVE-2019-11048)\n* oniguruma: Use-after-free in onig_new_deluxe() in regext.c (CVE-2019-13224)\n* oniguruma: NULL pointer dereference in match_at() in regexec.c (CVE-2019-13225)\n* oniguruma: Stack exhaustion in regcomp.c because of recursion in regparse.c (CVE-2019-16163)\n* oniguruma: Heap-based buffer over-read in function gb18030_mbc_enc_len in file gb18030.c (CVE-2019-19203)\n* oniguruma: Heap-based buffer over-read in function fetch_interval_quantifier in regparse.c (CVE-2019-19204)\n* pcre: Out of bounds read in JIT mode when \\X is used in non-UTF mode (CVE-2019-20454)\n* php: Out of bounds read in php_strip_tags_ex (CVE-2020-7059)\n* php: Global buffer-overflow in mbfl_filt_conv_big5_wchar function (CVE-2020-7060)\n* php: NULL pointer dereference in PHP session upload progress (CVE-2020-7062)\n* php: Files added to tar with Phar::buildFromIterator have all-access permissions (CVE-2020-7063)\n* php: Information disclosure in exif_read_data() function (CVE-2020-7064)\n* php: Using mb_strtolower() function with UTF-32LE encoding leads to potential code execution (CVE-2020-7065)\n* php: Heap buffer over-read in exif_scan_thumbnail() (CVE-2019-11041)\n* php: Heap buffer over-read in exif_process_user_comment() (CVE-2019-11042)\n* php: Out of bounds read when parsing EXIF information (CVE-2019-11050)\n* oniguruma: Heap-based buffer overflow in str_lower_case_match in regexec.c (CVE-2019-19246)\n* php: Information disclosure in function get_headers (CVE-2020-7066)\nFor more details about the security issue(s), including the impact, a CVSS score, acknowledgments, and other related information, refer to the CVE page(s) listed in the References section.",
  "Platform": [
    "Red Hat Enterprise Linux 8"
  ],
  "References": [
    {
      "Source": "RHSA",
      "URI": "https://access.redhat.com/errata/RHSA-2020:3662",
      "ID": "RHSA-2020:3662"
    },
    {
      "Source": "CVE",
      "URI": "https://access.redhat.com/security/cve/CVE-2019-11039",
      "ID": "CVE-2019-11039"
    },
    {
      "Source": "CVE",
      "URI": "https://access.redhat.com/security/cve/CVE-2019-11040",
      "ID": "CVE-2019-11040"
    },
    {
      "Source": "CVE",
      "URI": "https://access.redhat.com/security/cve/CVE-2019-11041",
      "ID": "CVE-2019-11041"
    },
    {
      "Source": "CVE",
      "URI": "https://access.redhat.com/security/cve/CVE-2019-11042",
      "ID": "CVE-2019-11042"
    },
    {
      "Source": "CVE",
      "URI": "https://access.redhat.com/security/cve/CVE-2019-11045",
      "ID": "CVE-2019-11045"
    },
    {
      "Source": "CVE",
      "URI": "https://access.redhat.com/security/cve/CVE-2019-11047",
      "ID": "CVE-2019-11047"
    },
    {
      "Source": "CVE",
      "URI": "https://access.redhat.com/security/cve/CVE-2019-11048",
      "ID": "CVE-2019-11048"
    },
    {
      "Source": "CVE",
      "URI": "https://access.redhat.com/security/cve/CVE-2019-11050",
      "ID": "CVE-2019-11050"
    },
    {
      "Source": "CVE",
      "URI": "https://access.redhat.com/security/cve/CVE-2019-13224",
      "ID": "CVE-2019-13224"
    },
    {
      "Source": "CVE",
      "URI": "https://access.redhat.com/security/cve/CVE-2019-13225",
      "ID": "CVE-2019-13225"
    },
    {
      "Source": "CVE",
      "URI": "https://access.redhat.com/security/cve/CVE-2019-16163",
      "ID": "CVE-2019-16163"
    },
    {
      "Source": "CVE",
      "URI": "https://access.redhat.com/security/cve/CVE-2019-19203",
      "ID": "CVE-2019-19203"
    },
    {
      "Source": "CVE",
      "URI": "https://access.redhat.com/security/cve/CVE-2019-19204",
      "ID": "CVE-2019-19204"
    },
    {
      "Source": "CVE",
      "URI": "https://access.redhat.com/security/cve/CVE-2019-19246",
      "ID": "CVE-2019-19246"
    },
    {
      "Source": "CVE",
      "URI": "https://access.redhat.com/security/cve/CVE-2019-20454",
      "ID": "CVE-2019-20454"
    },
    {
      "Source": "CVE",
      "URI": "https://access.redhat.com/security/cve/CVE-2020-7059",
      "ID": "CVE-2020-7059"
    },
    {
      "Source": "CVE",
      "URI": "https://access.redhat.com/security/cve/CVE-2020-7060",
      "ID": "CVE-2020-7060"
    },
    {
      "Source": "CVE",
      "URI": "https://access.redhat.com/security/cve/CVE-2020-7062",
      "ID": "CVE-2020-7062"
    },
    {
      "Source": "CVE",
      "URI": "https://access.redhat.com/security/cve/CVE-2020-7063",
      "ID": "CVE-2020-7063"
    },
    {
      "Source": "CVE",
      "URI": "https://access.redhat.com/security/cve/CVE-2020-7064",
      "ID": "CVE-2020-7064"
    },
    {
      "Source": "CVE",
      "URI": "https://access.redhat.com/security/cve/CVE-2020-7065",
      "ID": "CVE-2020-7065"
    },
    {
      "Source": "CVE",
      "URI": "https://access.redhat.com/security/cve/CVE-2020-7066",
      "ID": "CVE-2020-7066"
    }
  ],
  "Criteria": {
    "Operator": "OR",
    "Criterias": [
      {
        "Operator": "AND",
        "Criterias": [
          {
            "Operator": "OR",
            "Criterias": [

            ],
            "Criterions": [
              {
                "Comment": "Oracle Linux 8 is installed"
              },
              {
                "Comment": "Red Hat CoreOS 4 is installed"
              }
            ]
          },
          {
            "Operator": "OR",
            "Criterias": [
              {
                "Operator": "AND",
                "Criterias": [
                  {
                    "Operator": "OR",
                    "Criterias": [
                      {
                        "Operator": "AND",
                        "Criterias": [

                        ],
                        "Criterions": [
                          {
                            "Comment": "apcu-panel is earlier than 0:5.1.17-1.module+el8.1.0+3189+a1bff096"
                          },
                          {
                            "Comment": "apcu-panel is signed with Red Hat redhatrelease2 key"
                          }
                        ]
                      },
                      {
                        "Operator": "AND",
                        "Criterias": [

                        ],
                        "Criterions": [
                          {
                            "Comment": "libzip is earlier than 0:1.5.2-1.module+el8.1.0+3189+a1bff096"
                          },
                          {
                            "Comment": "libzip is signed with Red Hat redhatrelease2 key"
                          }
                        ]
                      },
                      {
                        "Operator": "AND",
                        "Criterias": [

                        ],
                        "Criterions": [
                          {
                            "Comment": "libzip-devel is earlier than 0:1.5.2-1.module+el8.1.0+3189+a1bff096"
                          },
                          {
                            "Comment": "libzip-devel is signed with Red Hat redhatrelease2 key"
                          }
                        ]
                      },
                      {
                        "Operator": "AND",
                        "Criterias": [

                        ],
                        "Criterions": [
                          {
                            "Comment": "libzip-tools is earlier than 0:1.5.2-1.module+el8.1.0+3189+a1bff096"
                          },
                          {
                            "Comment": "libzip-tools is signed with Red Hat redhatrelease2 key"
                          }
                        ]
                      },
                      {
                        "Operator": "AND",
                        "Criterias": [

                        ],
                        "Criterions": [
                          {
                            "Comment": "php is earlier than 0:7.3.20-1.module+el8.2.0+7373+b272fdef"
                          },
                          {
                            "Comment": "php is signed with Red Hat redhatrelease2 key"
                          }
                        ]
                      },
                      {
                        "Operator": "AND",
                        "Criterias": [

                        ],
                        "Criterions": [
                          {
                            "Comment": "php-bcmath is earlier than 0:7.3.20-1.module+el8.2.0+7373+b272fdef"
                          },
                          {
                            "Comment": "php-bcmath is signed with Red Hat redhatrelease2 key"
                          }
                        ]
                      },
                      {
                        "Operator": "AND",
                        "Criterias": [

                        ],
                        "Criterions": [
                          {
                            "Comment": "php-cli is earlier than 0:7.3.20-1.module+el8.2.0+7373+b272fdef"
                          },
                          {
                            "Comment": "php-cli is signed with Red Hat redhatrelease2 key"
                          }
                        ]
                      },
                      {
                        "Operator": "AND",
                        "Criterias": [

                        ],
                        "Criterions": [
                          {
                            "Comment": "php-common is earlier than 0:7.3.20-1.module+el8.2.0+7373+b272fdef"
                          },
                          {
                            "Comment": "php-common is signed with Red Hat redhatrelease2 key"
                          }
                        ]
                      },
                      {
                        "Operator": "AND",
                        "Criterias": [

                        ],
                        "Criterions": [
                          {
                            "Comment": "php-dba is earlier than 0:7.3.20-1.module+el8.2.0+7373+b272fdef"
                          },
                          {
                            "Comment": "php-dba is signed with Red Hat redhatrelease2 key"
                          }
                        ]
                      },
                      {
                        "Operator": "AND",
                        "Criterias": [

                        ],
                        "Criterions": [
                          {
                            "Comment": "php-dbg is earlier than 0:7.3.20-1.module+el8.2.0+7373+b272fdef"
                          },
                          {
                            "Comment": "php-dbg is signed with Red Hat redhatrelease2 key"
                          }
                        ]
                      },
                      {
                        "Operator": "AND",
                        "Criterias": [

                        ],
                        "Criterions": [
                          {
                            "Comment": "php-devel is earlier than 0:7.3.20-1.module+el8.2.0+7373+b272fdef"
                          },
                          {
                            "Comment": "php-devel is signed with Red Hat redhatrelease2 key"
                          }
                        ]
                      },
                      {
                        "Operator": "AND",
                        "Criterias": [

                        ],
                        "Criterions": [
                          {
                            "Comment": "php-embedded is earlier than 0:7.3.20-1.module+el8.2.0+7373+b272fdef"
                          },
                          {
                            "Comment": "php-embedded is signed with Red Hat redhatrelease2 key"
                          }
                        ]
                      },
                      {
                        "Operator": "AND",
                        "Criterias": [

                        ],
                        "Criterions": [
                          {
                            "Comment": "php-enchant is earlier than 0:7.3.20-1.module+el8.2.0+7373+b272fdef"
                          },
                          {
                            "Comment": "php-enchant is signed with Red Hat redhatrelease2 key"
                          }
                        ]
                      },
                      {
                        "Operator": "AND",
                        "Criterias": [

                        ],
                        "Criterions": [
                          {
                            "Comment": "php-fpm is earlier than 0:7.3.20-1.module+el8.2.0+7373+b272fdef"
                          },
                          {
                            "Comment": "php-fpm is signed with Red Hat redhatrelease2 key"
                          }
                        ]
                      },
                      {
                        "Operator": "AND",
                        "Criterias": [

                        ],
                        "Criterions": [
                          {
                            "Comment": "php-gd is earlier than 0:7.3.20-1.module+el8.2.0+7373+b272fdef"
                          },
                          {
                            "Comment": "php-gd is signed with Red Hat redhatrelease2 key"
                          }
                        ]
                      },
                      {
                        "Operator": "AND",
                        "Criterias": [

                        ],
                        "Criterions": [
                          {
                            "Comment": "php-gmp is earlier than 0:7.3.20-1.module+el8.2.0+7373+b272fdef"
                          },
                          {
                            "Comment": "php-gmp is signed with Red Hat redhatrelease2 key"
                          }
                        ]
                      },
                      {
                        "Operator": "AND",
                        "Criterias": [

                        ],
                        "Criterions": [
                          {
                            "Comment": "php-intl is earlier than 0:7.3.20-1.module+el8.2.0+7373+b272fdef"
                          },
                          {
                            "Comment": "php-intl is signed with Red Hat redhatrelease2 key"
                          }
                        ]
                      },
                      {
                        "Operator": "AND",
                        "Criterias": [

                        ],
                        "Criterions": [
                          {
                            "Comment": "php-json is earlier than 0:7.3.20-1.module+el8.2.0+7373+b272fdef"
                          },
                          {
                            "Comment": "php-json is signed with Red Hat redhatrelease2 key"
                          }
                        ]
                      },
                      {
                        "Operator": "AND",
                        "Criterias": [

                        ],
                        "Criterions": [
                          {
                            "Comment": "php-ldap is earlier than 0:7.3.20-1.module+el8.2.0+7373+b272fdef"
                          },
                          {
                            "Comment": "php-ldap is signed with Red Hat redhatrelease2 key"
                          }
                        ]
                      },
                      {
                        "Operator": "AND",
                        "Criterias": [

                        ],
                        "Criterions": [
                          {
                            "Comment": "php-mbstring is earlier than 0:7.3.20-1.module+el8.2.0+7373+b272fdef"
                          },
                          {
                            "Comment": "php-mbstring is signed with Red Hat redhatrelease2 key"
                          }
                        ]
                      },
                      {
                        "Operator": "AND",
                        "Criterias": [

                        ],
                        "Criterions": [
                          {
                            "Comment": "php-mysqlnd is earlier than 0:7.3.20-1.module+el8.2.0+7373+b272fdef"
                          },
                          {
                            "Comment": "php-mysqlnd is signed with Red Hat redhatrelease2 key"
                          }
                        ]
                      },
                      {
                        "Operator": "AND",
                        "Criterias": [

                        ],
                        "Criterions": [
                          {
                            "Comment": "php-odbc is earlier than 0:7.3.20-1.module+el8.2.0+7373+b272fdef"
                          },
                          {
                            "Comment": "php-odbc is signed with Red Hat redhatrelease2 key"
                          }
                        ]
                      },
                      {
                        "Operator": "AND",
                        "Criterias": [

                        ],
                        "Criterions": [
                          {
                            "Comment": "php-opcache is earlier than 0:7.3.20-1.module+el8.2.0+7373+b272fdef"
                          },
                          {
                            "Comment": "php-opcache is signed with Red Hat redhatrelease2 key"
                          }
                        ]
                      },
                      {
                        "Operator": "AND",
                        "Criterias": [

                        ],
                        "Criterions": [
                          {
                            "Comment": "php-pdo is earlier than 0:7.3.20-1.module+el8.2.0+7373+b272fdef"
                          },
                          {
                            "Comment": "php-pdo is signed with Red Hat redhatrelease2 key"
                          }
                        ]
                      },
                      {
                        "Operator": "AND",
                        "Criterias": [

                        ],
                        "Criterions": [
                          {
                            "Comment": "php-pear is earlier than 1:1.10.9-1.module+el8.1.0+3189+a1bff096"
                          },
                          {
                            "Comment": "php-pear is signed with Red Hat redhatrelease2 key"
                          }
                        ]
                      },
                      {
                        "Operator": "AND",
                        "Criterias": [

                        ],
                        "Criterions": [
                          {
                            "Comment": "php-pecl-apcu is earlier than 0:5.1.17-1.module+el8.1.0+3189+a1bff096"
                          },
                          {
                            "Comment": "php-pecl-apcu is signed with Red Hat redhatrelease2 key"
                          }
                        ]
                      },
                      {
                        "Operator": "AND",
                        "Criterias": [

                        ],
                        "Criterions": [
                          {
                            "Comment": "php-pecl-apcu-devel is earlier than 0:5.1.17-1.module+el8.1.0+3189+a1bff096"
                          },
                          {
                            "Comment": "php-pecl-apcu-devel is signed with Red Hat redhatrelease2 key"
                          }
                        ]
                      },
                      {
                        "Operator": "AND",
                        "Criterias": [

                        ],
                        "Criterions": [
                          {
                            "Comment": "php-pecl-rrd is earlier than 0:2.0.1-1.module+el8.2.0+4968+1d5097db"
                          },
                          {
                            "Comment": "php-pecl-rrd is signed with Red Hat redhatrelease2 key"
                          }
                        ]
                      },
                      {
                        "Operator": "AND",
                        "Criterias": [

                        ],
                        "Criterions": [
                          {
                            "Comment": "php-pecl-xdebug is earlier than 0:2.8.0-1.module+el8.2.0+4968+1d5097db"
                          },
                          {
                            "Comment": "php-pecl-xdebug is signed with Red Hat redhatrelease2 key"
                          }
                        ]
                      },
                      {
                        "Operator": "AND",
                        "Criterias": [

                        ],
                        "Criterions": [
                          {
                            "Comment": "php-pecl-zip is earlier than 0:1.15.4-1.module+el8.1.0+3189+a1bff096"
                          },
                          {
                            "Comment": "php-pecl-zip is signed with Red Hat redhatrelease2 key"
                          }
                        ]
                      },
                      {
                        "Operator": "AND",
                        "Criterias": [

                        ],
                        "Criterions": [
                          {
                            "Comment": "php-pgsql is earlier than 0:7.3.20-1.module+el8.2.0+7373+b272fdef"
                          },
                          {
                            "Comment": "php-pgsql is signed with Red Hat redhatrelease2 key"
                          }
                        ]
                      },
                      {
                        "Operator": "AND",
                        "Criterias": [

                        ],
                        "Criterions": [
                          {
                            "Comment": "php-process is earlier than 0:7.3.20-1.module+el8.2.0+7373+b272fdef"
                          },
                          {
                            "Comment": "php-process is signed with Red Hat redhatrelease2 key"
                          }
                        ]
                      },
                      {
                        "Operator": "AND",
                        "Criterias": [

                        ],
                        "Criterions": [
                          {
                            "Comment": "php-recode is earlier than 0:7.3.20-1.module+el8.2.0+7373+b272fdef"
                          },
                          {
                            "Comment": "php-recode is signed with Red Hat redhatrelease2 key"
                          }
                        ]
                      },
                      {
                        "Operator": "AND",
                        "Criterias": [

                        ],
                        "Criterions": [
                          {
                            "Comment": "php-snmp is earlier than 0:7.3.20-1.module+el8.2.0+7373+b272fdef"
                          },
                          {
                            "Comment": "php-snmp is signed with Red Hat redhatrelease2 key"
                          }
                        ]
                      },
                      {
                        "Operator": "AND",
                        "Criterias": [

                        ],
                        "Criterions": [
                          {
                            "Comment": "php-soap is earlier than 0:7.3.20-1.module+el8.2.0+7373+b272fdef"
                          },
                          {
                            "Comment": "php-soap is signed with Red Hat redhatrelease2 key"
                          }
                        ]
                      },
                      {
                        "Operator": "AND",
                        "Criterias": [

                        ],
                        "Criterions": [
                          {
                            "Comment": "php-xml is earlier than 0:7.3.20-1.module+el8.2.0+7373+b272fdef"
                          },
                          {
                            "Comment": "php-xml is signed with Red Hat redhatrelease2 key"
                          }
                        ]
                      },
                      {
                        "Operator": "AND",
                        "Criterias": [

                        ],
                        "Criterions": [
                          {
                            "Comment": "php-xmlrpc is earlier than 0:7.3.20-1.module+el8.2.0+7373+b272fdef"
                          },
                          {
                            "Comment": "php-xmlrpc is signed with Red Hat redhatrelease2 key"
                          }
                        ]
                      }
                    ],
                    "Criterions": [

                    ]
                  }
                ],
                "Criterions": [
                  {
                    "Comment": "Module php:7.3 is enabled"
                  }
                ]
              }
            ],
            "Criterions": [

            ]
          }
        ],
        "Criterions": [

        ]
      }
    ],
    "Criterions": [
      {
        "Comment": "Oracle Linux 8 is installed"
      }
    ]
  },
  "Severity": "Moderate",
  "Cves": [
    {
      "Impact": "",
      "Href": "",
      "ID": "CVE-2019-11039"
    },
    {
      "Impact": "",
      "Href": "",
      "ID": "CVE-2019-11040"
    },
    {
      "Impact": "",
      "Href": "",
      "ID": "CVE-2019-11041"
    },
    {
      "Impact": "",
      "Href": "",
      "ID": "CVE-2019-11042"
    },
    {
      "Impact": "",
      "Href": "",
      "ID": "CVE-2019-11045"
    },
    {
      "Impact": "",
      "Href": "",
      "ID": "CVE-2019-11047"
    },
    {
      "Impact": "",
      "Href": "",
      "ID": "CVE-2019-11048"
    },
    {
      "Impact": "",
      "Href": "",
      "ID": "CVE-2019-11050"
    },
    {
      "Impact": "",
      "Href": "",
      "ID": "CVE-2019-13224"
    },
    {
      "Impact": "",
      "Href": "",
      "ID": "CVE-2019-13225"
    },
    {
      "Impact": "",
      "Href": "",
      "ID": "CVE-2019-16163"
    },
    {
      "Impact": "",
      "Href": "",
      "ID": "CVE-2019-19203"
    },
    {
      "Impact": "",
      "Href": "",
      "ID": "CVE-2019-19204"
    },
    {
      "Impact": "",
      "Href": "",
      "ID": "CVE-2019-19246"
    },
    {
      "Impact": "",
      "Href": "",
      "ID": "CVE-2019-20454"
    },
    {
      "Impact": "",
      "Href": "",
      "ID": "CVE-2020-7059"
    },
    {
      "Impact": "",
      "Href": "",
      "ID": "CVE-2020-7060"
    },
    {
      "Impact": "",
      "Href": "",
      "ID": "CVE-2020-7062"
    },
    {
      "Impact": "",
      "Href": "",
      "ID": "CVE-2020-7063"
    },
    {
      "Impact": "",
      "Href": "",
      "ID": "CVE-2020-7064"
    },
    {
      "Impact": "",
      "Href": "",
      "ID": "CVE-2020-7065"
    },
    {
      "Impact": "",
      "Href": "",
      "ID": "CVE-2020-7066"
    }
  ],
  "Issued": {
    "Date": "2020-09-08"
  }
}