{
  "Title": "RHSA-2020:4062: kernel-rt security and bug fix update (Important)",
  "Description": "The kernel-rt packages provide the Real Time Linux Kernel, which enables fine-tuning for systems with extremely high determinism requirements.\nSecurity Fix(es):\n* kernel: use-after-free in sound/core/timer.c (CVE-2019-19807)\n* kernel: out of bounds write in function i2c_smbus_xfer_emulated in drivers/i2c/i2c-core-smbus.c (CVE-2017-18551)\n* kernel: race condition in smp_task_timedout() and smp_task_done() in drivers/scsi/libsas/sas_expander.c leads to use-after-free (CVE-2018-20836)\n* kernel: out of bounds write in i2c driver leads to local escalation of privilege (CVE-2019-9454)\n* kernel: use after free due to race condition in the video driver leads to local privilege escalation (CVE-2019-9458)\nSpace precludes documenting all of the security fixes in this advisory. See the descriptions of the remaining security fixes in the related Knowledge Article:\nhttps://access.redhat.com/articles/5442481\nFor more details about the security issue(s), including the impact, a CVSS score, acknowledgments, and other related information, refer to the CVE page(s) listed in the References section.\nAdditional Changes:\nFor detailed information on changes in this release, see the Red Hat Enterprise Linux 7.9 Release Notes linked from the References section.",
  "Platform": [
    "Red Hat Enterprise Linux 7"
  ],
  "References": [
    {
      "Source": "RHSA",
      "URI": "https://access.redhat.com/errata/RHSA-2020:4062",
      "ID": "RHSA-2020:4062"
    },
    {
      "Source": "CVE",
      "URI": "https://access.redhat.com/security/cve/CVE-2017-18551",
      "ID": "CVE-2017-18551"
    },
    {
      "Source": "CVE",
      "URI": "https://access.redhat.com/security/cve/CVE-2018-20836",
      "ID": "CVE-2018-20836"
    },
    {
      "Source": "CVE",
      "URI": "https://access.redhat.com/security/cve/CVE-2019-15217",
      "ID": "CVE-2019-15217"
    },
    {
      "Source": "CVE",
      "URI": "https://access.redhat.com/security/cve/CVE-2019-15807",
      "ID": "CVE-2019-15807"
    },
    {
      "Source": "CVE",
      "URI": "https://access.redhat.com/security/cve/CVE-2019-15917",
      "ID": "CVE-2019-15917"
    },
    {
      "Source": "CVE",
      "URI": "https://access.redhat.com/security/cve/CVE-2019-16231",
      "ID": "CVE-2019-16231"
    },
    {
      "Source": "CVE",
      "URI": "https://access.redhat.com/security/cve/CVE-2019-16233",
      "ID": "CVE-2019-16233"
    },
    {
      "Source": "CVE",
      "URI": "https://access.redhat.com/security/cve/CVE-2019-16994",
      "ID": "CVE-2019-16994"
    },
    {
      "Source": "CVE",
      "URI": "https://access.redhat.com/security/cve/CVE-2019-17053",
      "ID": "CVE-2019-17053"
    },
    {
      "Source": "CVE",
      "URI": "https://access.redhat.com/security/cve/CVE-2019-17055",
      "ID": "CVE-2019-17055"
    },
    {
      "Source": "CVE",
      "URI": "https://access.redhat.com/security/cve/CVE-2019-18808",
      "ID": "CVE-2019-18808"
    },
    {
      "Source": "CVE",
      "URI": "https://access.redhat.com/security/cve/CVE-2019-19046",
      "ID": "CVE-2019-19046"
    },
    {
      "Source": "CVE",
      "URI": "https://access.redhat.com/security/cve/CVE-2019-19055",
      "ID": "CVE-2019-19055"
    },
    {
      "Source": "CVE",
      "URI": "https://access.redhat.com/security/cve/CVE-2019-19058",
      "ID": "CVE-2019-19058"
    },
    {
      "Source": "CVE",
      "URI": "https://access.redhat.com/security/cve/CVE-2019-19059",
      "ID": "CVE-2019-19059"
    },
    {
      "Source": "CVE",
      "URI": "https://access.redhat.com/security/cve/CVE-2019-19062",
      "ID": "CVE-2019-19062"
    },
    {
      "Source": "CVE",
      "URI": "https://access.redhat.com/security/cve/CVE-2019-19063",
      "ID": "CVE-2019-19063"
    },
    {
      "Source": "CVE",
      "URI": "https://access.redhat.com/security/cve/CVE-2019-19332",
      "ID": "CVE-2019-19332"
    },
    {
      "Source": "CVE",
      "URI": "https://access.redhat.com/security/cve/CVE-2019-19447",
      "ID": "CVE-2019-19447"
    },
    {
      "Source": "CVE",
      "URI": "https://access.redhat.com/security/cve/CVE-2019-19523",
      "ID": "CVE-2019-19523"
    },
    {
      "Source": "CVE",
      "URI": "https://access.redhat.com/security/cve/CVE-2019-19524",
      "ID": "CVE-2019-19524"
    },
    {
      "Source": "CVE",
      "URI": "https://access.redhat.com/security/cve/CVE-2019-19530",
      "ID": "CVE-2019-19530"
    },
    {
      "Source": "CVE",
      "URI": "https://access.redhat.com/security/cve/CVE-2019-19534",
      "ID": "CVE-2019-19534"
    },
    {
      "Source": "CVE",
      "URI": "https://access.redhat.com/security/cve/CVE-2019-19537",
      "ID": "CVE-2019-19537"
    },
    {
      "Source": "CVE",
      "URI": "https://access.redhat.com/security/cve/CVE-2019-19767",
      "ID": "CVE-2019-19767"
    },
    {
      "Source": "CVE",
      "URI": "https://access.redhat.com/security/cve/CVE-2019-19807",
      "ID": "CVE-2019-19807"
    },
    {
      "Source": "CVE",
      "URI": "https://access.redhat.com/security/cve/CVE-2019-20054",
      "ID": "CVE-2019-20054"
    },
    {
      "Source": "CVE",
      "URI": "https://access.redhat.com/security/cve/CVE-2019-20095",
      "ID": "CVE-2019-20095"
    },
    {
      "Source": "CVE",
      "URI": "https://access.redhat.com/security/cve/CVE-2019-20636",
      "ID": "CVE-2019-20636"
    },
    {
      "Source": "CVE",
      "URI": "https://access.redhat.com/security/cve/CVE-2019-9454",
      "ID": "CVE-2019-9454"
    },
    {
      "Source": "CVE",
      "URI": "https://access.redhat.com/security/cve/CVE-2019-9458",
      "ID": "CVE-2019-9458"
    },
    {
      "Source": "CVE",
      "URI": "https://access.redhat.com/security/cve/CVE-2020-10690",
      "ID": "CVE-2020-10690"
    },
    {
      "Source": "CVE",
      "URI": "https://access.redhat.com/security/cve/CVE-2020-10732",
      "ID": "CVE-2020-10732"
    },
    {
      "Source": "CVE",
      "URI": "https://access.redhat.com/security/cve/CVE-2020-10742",
      "ID": "CVE-2020-10742"
    },
    {
      "Source": "CVE",
      "URI": "https://access.redhat.com/security/cve/CVE-2020-10751",
      "ID": "CVE-2020-10751"
    },
    {
      "Source": "CVE",
      "URI": "https://access.redhat.com/security/cve/CVE-2020-10942",
      "ID": "CVE-2020-10942"
    },
    {
      "Source": "CVE",
      "URI": "https://access.redhat.com/security/cve/CVE-2020-11565",
      "ID": "CVE-2020-11565"
    },
    {
      "Source": "CVE",
      "URI": "https://access.redhat.com/security/cve/CVE-2020-12770",
      "ID": "CVE-2020-12770"
    },
    {
      "Source": "CVE",
      "URI": "https://access.redhat.com/security/cve/CVE-2020-12826",
      "ID": "CVE-2020-12826"
    },
    {
      "Source": "CVE",
      "URI": "https://access.redhat.com/security/cve/CVE-2020-14305",
      "ID": "CVE-2020-14305"
    },
    {
      "Source": "CVE",
      "URI": "https://access.redhat.com/security/cve/CVE-2020-1749",
      "ID": "CVE-2020-1749"
    },
    {
      "Source": "CVE",
      "URI": "https://access.redhat.com/security/cve/CVE-2020-2732",
      "ID": "CVE-2020-2732"
    },
    {
      "Source": "CVE",
      "URI": "https://access.redhat.com/security/cve/CVE-2020-8647",
      "ID": "CVE-2020-8647"
    },
    {
      "Source": "CVE",
      "URI": "https://access.redhat.com/security/cve/CVE-2020-8649",
      "ID": "CVE-2020-8649"
    },
    {
      "Source": "CVE",
      "URI": "https://access.redhat.com/security/cve/CVE-2020-9383",
      "ID": "CVE-2020-9383"
    }
  ],
  "Criteria": {
    "Operator": "OR",
    "Criterias": [
      {
        "Operator": "AND",
        "Criterias": [
          {
            "Operator": "OR",
            "Criterias": [

            ],
            "Criterions": [
              {
                "Comment": "kernel-rt earlier than 0:3.10.0-1160.rt56.1131.el7 is currently running"
              },
              {
                "Comment": "kernel-rt earlier than 0:3.10.0-1160.rt56.1131.el7 is set to boot up on next boot"
              }
            ]
          },
          {
            "Operator": "OR",
            "Criterias": [
              {
                "Operator": "AND",
                "Criterias": [

                ],
                "Criterions": [
                  {
                    "Comment": "kernel-rt is earlier than 0:3.10.0-1160.rt56.1131.el7"
                  },
                  {
                    "Comment": "kernel-rt is signed with Red Hat redhatrelease2 key"
                  }
                ]
              },
              {
                "Operator": "AND",
                "Criterias": [

                ],
                "Criterions": [
                  {
                    "Comment": "kernel-rt-debug is earlier than 0:3.10.0-1160.rt56.1131.el7"
                  },
                  {
                    "Comment": "kernel-rt-debug is signed with Red Hat redhatrelease2 key"
                  }
                ]
              },
              {
                "Operator": "AND",
                "Criterias": [

                ],
                "Criterions": [
                  {
                    "Comment": "kernel-rt-debug-devel is earlier than 0:3.10.0-1160.rt56.1131.el7"
                  },
                  {
                    "Comment": "kernel-rt-debug-devel is signed with Red Hat redhatrelease2 key"
                  }
                ]
              },
              {
                "Operator": "AND",
                "Criterias": [

                ],
                "Criterions": [
                  {
                    "Comment": "kernel-rt-debug-kvm is earlier than 0:3.10.0-1160.rt56.1131.el7"
                  },
                  {
                    "Comment": "kernel-rt-debug-kvm is signed with Red Hat redhatrelease2 key"
                  }
                ]
              },
              {
                "Operator": "AND",
                "Criterias": [

                ],
                "Criterions": [
                  {
                    "Comment": "kernel-rt-devel is earlier than 0:3.10.0-1160.rt56.1131.el7"
                  },
                  {
                    "Comment": "kernel-rt-devel is signed with Red Hat redhatrelease2 key"
                  }
                ]
              },
              {
                "Operator": "AND",
                "Criterias": [

                ],
                "Criterions": [
                  {
                    "Comment": "kernel-rt-doc is earlier than 0:3.10.0-1160.rt56.1131.el7"
                  },
                  {
                    "Comment": "kernel-rt-doc is signed with Red Hat redhatrelease2 key"
                  }
                ]
              },
              {
                "Operator": "AND",
                "Criterias": [

                ],
                "Criterions": [
                  {
                    "Comment": "kernel-rt-kvm is earlier than 0:3.10.0-1160.rt56.1131.el7"
                  },
                  {
                    "Comment": "kernel-rt-kvm is signed with Red Hat redhatrelease2 key"
                  }
                ]
              },
              {
                "Operator": "AND",
                "Criterias": [

                ],
                "Criterions": [
                  {
                    "Comment": "kernel-rt-trace is earlier than 0:3.10.0-1160.rt56.1131.el7"
                  },
                  {
                    "Comment": "kernel-rt-trace is signed with Red Hat redhatrelease2 key"
                  }
                ]
              },
              {
                "Operator": "AND",
                "Criterias": [

                ],
                "Criterions": [
                  {
                    "Comment": "kernel-rt-trace-devel is earlier than 0:3.10.0-1160.rt56.1131.el7"
                  },
                  {
                    "Comment": "kernel-rt-trace-devel is signed with Red Hat redhatrelease2 key"
                  }
                ]
              },
              {
                "Operator": "AND",
                "Criterias": [

                ],
                "Criterions": [
                  {
                    "Comment": "kernel-rt-trace-kvm is earlier than 0:3.10.0-1160.rt56.1131.el7"
                  },
                  {
                    "Comment": "kernel-rt-trace-kvm is signed with Red Hat redhatrelease2 key"
                  }
                ]
              }
            ],
            "Criterions": [

            ]
          }
        ],
        "Criterions": [
          {
            "Comment": "Oracle Linux 7 is installed"
          }
        ]
      }
    ],
    "Criterions": [
      {
        "Comment": "Oracle Linux 7 is installed"
      }
    ]
  },
  "Severity": "Important",
  "Cves": [
    {
      "Impact": "",
      "Href": "",
      "ID": "CVE-2017-18551"
    },
    {
      "Impact": "",
      "Href": "",
      "ID": "CVE-2018-20836"
    },
    {
      "Impact": "",
      "Href": "",
      "ID": "CVE-2019-15217"
    },
    {
      "Impact": "",
      "Href": "",
      "ID": "CVE-2019-15807"
    },
    {
      "Impact": "",
      "Href": "",
      "ID": "CVE-2019-15917"
    },
    {
      "Impact": "",
      "Href": "",
      "ID": "CVE-2019-16231"
    },
    {
      "Impact": "",
      "Href": "",
      "ID": "CVE-2019-16233"
    },
    {
      "Impact": "",
      "Href": "",
      "ID": "CVE-2019-16994"
    },
    {
      "Impact": "",
      "Href": "",
      "ID": "CVE-2019-17053"
    },
    {
      "Impact": "",
      "Href": "",
      "ID": "CVE-2019-17055"
    },
    {
      "Impact": "",
      "Href": "",
      "ID": "CVE-2019-18808"
    },
    {
      "Impact": "",
      "Href": "",
      "ID": "CVE-2019-19046"
    },
    {
      "Impact": "",
      "Href": "",
      "ID": "CVE-2019-19055"
    },
    {
      "Impact": "",
      "Href": "",
      "ID": "CVE-2019-19058"
    },
    {
      "Impact": "",
      "Href": "",
      "ID": "CVE-2019-19059"
    },
    {
      "Impact": "",
      "Href": "",
      "ID": "CVE-2019-19062"
    },
    {
      "Impact": "",
      "Href": "",
      "ID": "CVE-2019-19063"
    },
    {
      "Impact": "",
      "Href": "",
      "ID": "CVE-2019-19332"
    },
    {
      "Impact": "",
      "Href": "",
      "ID": "CVE-2019-19447"
    },
    {
      "Impact": "",
      "Href": "",
      "ID": "CVE-2019-19523"
    },
    {
      "Impact": "",
      "Href": "",
      "ID": "CVE-2019-19524"
    },
    {
      "Impact": "",
      "Href": "",
      "ID": "CVE-2019-19530"
    },
    {
      "Impact": "",
      "Href": "",
      "ID": "CVE-2019-19534"
    },
    {
      "Impact": "",
      "Href": "",
      "ID": "CVE-2019-19537"
    },
    {
      "Impact": "",
      "Href": "",
      "ID": "CVE-2019-19767"
    },
    {
      "Impact": "",
      "Href": "",
      "ID": "CVE-2019-19807"
    },
    {
      "Impact": "",
      "Href": "",
      "ID": "CVE-2019-20054"
    },
    {
      "Impact": "",
      "Href": "",
      "ID": "CVE-2019-20095"
    },
    {
      "Impact": "",
      "Href": "",
      "ID": "CVE-2019-20636"
    },
    {
      "Impact": "",
      "Href": "",
      "ID": "CVE-2019-9454"
    },
    {
      "Impact": "",
      "Href": "",
      "ID": "CVE-2019-9458"
    },
    {
      "Impact": "",
      "Href": "",
      "ID": "CVE-2020-10690"
    },
    {
      "Impact": "",
      "Href": "",
      "ID": "CVE-2020-10732"
    },
    {
      "Impact": "",
      "Href": "",
      "ID": "CVE-2020-10742"
    },
    {
      "Impact": "",
      "Href": "",
      "ID": "CVE-2020-10751"
    },
    {
      "Impact": "",
      "Href": "",
      "ID": "CVE-2020-10942"
    },
    {
      "Impact": "",
      "Href": "",
      "ID": "CVE-2020-11565"
    },
    {
      "Impact": "",
      "Href": "",
      "ID": "CVE-2020-12770"
    },
    {
      "Impact": "",
      "Href": "",
      "ID": "CVE-2020-12826"
    },
    {
      "Impact": "",
      "Href": "",
      "ID": "CVE-2020-14305"
    },
    {
      "Impact": "",
      "Href": "",
      "ID": "CVE-2020-1749"
    },
    {
      "Impact": "",
      "Href": "",
      "ID": "CVE-2020-2732"
    },
    {
      "Impact": "",
      "Href": "",
      "ID": "CVE-2020-8647"
    },
    {
      "Impact": "",
      "Href": "",
      "ID": "CVE-2020-8649"
    },
    {
      "Impact": "",
      "Href": "",
      "ID": "CVE-2020-9383"
    }
  ],
  "Issued": {
    "Date": "2020-09-29"
  }
}