{
  "Title": "RHSA-2020:1636: libsndfile security update (Moderate)",
  "Description": "libsndfile is a C library for reading and writing files containing sampled sound, such as AIFF, AU, or WAV. \nSecurity Fix(es):\n* libsndfile: stack-based buffer overflow in sndfile-deinterleave utility (CVE-2018-13139)\n* libsndfile: buffer over-read in the function i2alaw_array in alaw.c (CVE-2018-19662)\nFor more details about the security issue(s), including the impact, a CVSS score, acknowledgments, and other related information, refer to the CVE page(s) listed in the References section.\nAdditional Changes:\nFor detailed information on changes in this release, see the Red Hat Enterprise Linux 8.2 Release Notes linked from the References section.",
  "Platform": [
    "Red Hat Enterprise Linux 8"
  ],
  "References": [
    {
      "Source": "RHSA",
      "URI": "https://access.redhat.com/errata/RHSA-2020:1636",
      "ID": "RHSA-2020:1636"
    },
    {
      "Source": "CVE",
      "URI": "https://access.redhat.com/security/cve/CVE-2018-13139",
      "ID": "CVE-2018-13139"
    },
    {
      "Source": "CVE",
      "URI": "https://access.redhat.com/security/cve/CVE-2018-19662",
      "ID": "CVE-2018-19662"
    }
  ],
  "Criteria": {
    "Operator": "OR",
    "Criterias": [
      {
        "Operator": "AND",
        "Criterias": [
          {
            "Operator": "OR",
            "Criterias": [

            ],
            "Criterions": [
              {
                "Comment": "Oracle Linux 8 is installed"
              },
              {
                "Comment": "Red Hat CoreOS 4 is installed"
              }
            ]
          },
          {
            "Operator": "OR",
            "Criterias": [
              {
                "Operator": "AND",
                "Criterias": [

                ],
                "Criterions": [
                  {
                    "Comment": "libsndfile is earlier than 0:1.0.28-10.el8"
                  },
                  {
                    "Comment": "libsndfile is signed with Red Hat redhatrelease2 key"
                  }
                ]
              },
              {
                "Operator": "AND",
                "Criterias": [

                ],
                "Criterions": [
                  {
                    "Comment": "libsndfile-devel is earlier than 0:1.0.28-10.el8"
                  },
                  {
                    "Comment": "libsndfile-devel is signed with Red Hat redhatrelease2 key"
                  }
                ]
              }
            ],
            "Criterions": [

            ]
          }
        ],
        "Criterions": [

        ]
      }
    ],
    "Criterions": [
      {
        "Comment": "Oracle Linux 8 is installed"
      }
    ]
  },
  "Severity": "Moderate",
  "Cves": [
    {
      "Impact": "",
      "Href": "",
      "ID": "CVE-2018-13139"
    },
    {
      "Impact": "",
      "Href": "",
      "ID": "CVE-2018-19662"
    }
  ],
  "Issued": {
    "Date": "2020-04-28"
  }
}