{
  "Title": "RHSA-2020:4451: GNOME security, bug fix, and enhancement update (Moderate)",
  "Description": "GNOME is the default desktop environment of Red Hat Enterprise Linux.\nThe following packages have been upgraded to a later upstream version: gnome-remote-desktop (0.1.8), pipewire (0.3.6), vte291 (0.52.4), webkit2gtk3 (2.28.4), xdg-desktop-portal (1.6.0), xdg-desktop-portal-gtk (1.6.0). (BZ#1775345, BZ#1779691, BZ#1817143, BZ#1832347, BZ#1837406)\nSecurity Fix(es):\n* webkitgtk: Multiple security issues (CVE-2019-8625, CVE-2019-8710, CVE-2019-8720, CVE-2019-8743, CVE-2019-8764, CVE-2019-8766, CVE-2019-8769, CVE-2019-8771, CVE-2019-8782, CVE-2019-8783, CVE-2019-8808, CVE-2019-8811, CVE-2019-8812, CVE-2019-8813, CVE-2019-8814, CVE-2019-8815, CVE-2019-8816, CVE-2019-8819, CVE-2019-8820, CVE-2019-8823, CVE-2019-8835, CVE-2019-8844, CVE-2019-8846, CVE-2020-3862, CVE-2020-3864, CVE-2020-3865, CVE-2020-3867, CVE-2020-3868, CVE-2020-3885, CVE-2020-3894, CVE-2020-3895, CVE-2020-3897, CVE-2020-3899, CVE-2020-3900, CVE-2020-3901, CVE-2020-3902, CVE-2020-9802, CVE-2020-9803, CVE-2020-9805, CVE-2020-9806, CVE-2020-9807, CVE-2020-9843, CVE-2020-9850, CVE-2020-9862, CVE-2020-9893, CVE-2020-9894, CVE-2020-9895, CVE-2020-9915, CVE-2020-9925, CVE-2020-10018, CVE-2020-11793)\n* gnome-settings-daemon: Red Hat Customer Portal password logged and passed as command line argument when user registers through GNOME control center (CVE-2020-14391)\n* LibRaw: lack of thumbnail size range check can lead to buffer overflow (CVE-2020-15503)\nFor more details about the security issue(s), including the impact, a CVSS score, acknowledgments, and other related information, refer to the CVE page(s) listed in the References section.\nAdditional Changes:\nFor detailed information on changes in this release, see the Red Hat Enterprise Linux 8.3 Release Notes linked from the References section.",
  "Platform": [
    "Red Hat Enterprise Linux 8"
  ],
  "References": [
    {
      "Source": "RHSA",
      "URI": "https://access.redhat.com/errata/RHSA-2020:4451",
      "ID": "RHSA-2020:4451"
    },
    {
      "Source": "CVE",
      "URI": "https://access.redhat.com/security/cve/CVE-2019-8625",
      "ID": "CVE-2019-8625"
    },
    {
      "Source": "CVE",
      "URI": "https://access.redhat.com/security/cve/CVE-2019-8710",
      "ID": "CVE-2019-8710"
    },
    {
      "Source": "CVE",
      "URI": "https://access.redhat.com/security/cve/CVE-2019-8720",
      "ID": "CVE-2019-8720"
    },
    {
      "Source": "CVE",
      "URI": "https://access.redhat.com/security/cve/CVE-2019-8743",
      "ID": "CVE-2019-8743"
    },
    {
      "Source": "CVE",
      "URI": "https://access.redhat.com/security/cve/CVE-2019-8764",
      "ID": "CVE-2019-8764"
    },
    {
      "Source": "CVE",
      "URI": "https://access.redhat.com/security/cve/CVE-2019-8766",
      "ID": "CVE-2019-8766"
    },
    {
      "Source": "CVE",
      "URI": "https://access.redhat.com/security/cve/CVE-2019-8769",
      "ID": "CVE-2019-8769"
    },
    {
      "Source": "CVE",
      "URI": "https://access.redhat.com/security/cve/CVE-2019-8771",
      "ID": "CVE-2019-8771"
    },
    {
      "Source": "CVE",
      "URI": "https://access.redhat.com/security/cve/CVE-2019-8782",
      "ID": "CVE-2019-8782"
    },
    {
      "Source": "CVE",
      "URI": "https://access.redhat.com/security/cve/CVE-2019-8783",
      "ID": "CVE-2019-8783"
    },
    {
      "Source": "CVE",
      "URI": "https://access.redhat.com/security/cve/CVE-2019-8808",
      "ID": "CVE-2019-8808"
    },
    {
      "Source": "CVE",
      "URI": "https://access.redhat.com/security/cve/CVE-2019-8811",
      "ID": "CVE-2019-8811"
    },
    {
      "Source": "CVE",
      "URI": "https://access.redhat.com/security/cve/CVE-2019-8812",
      "ID": "CVE-2019-8812"
    },
    {
      "Source": "CVE",
      "URI": "https://access.redhat.com/security/cve/CVE-2019-8813",
      "ID": "CVE-2019-8813"
    },
    {
      "Source": "CVE",
      "URI": "https://access.redhat.com/security/cve/CVE-2019-8814",
      "ID": "CVE-2019-8814"
    },
    {
      "Source": "CVE",
      "URI": "https://access.redhat.com/security/cve/CVE-2019-8815",
      "ID": "CVE-2019-8815"
    },
    {
      "Source": "CVE",
      "URI": "https://access.redhat.com/security/cve/CVE-2019-8816",
      "ID": "CVE-2019-8816"
    },
    {
      "Source": "CVE",
      "URI": "https://access.redhat.com/security/cve/CVE-2019-8819",
      "ID": "CVE-2019-8819"
    },
    {
      "Source": "CVE",
      "URI": "https://access.redhat.com/security/cve/CVE-2019-8820",
      "ID": "CVE-2019-8820"
    },
    {
      "Source": "CVE",
      "URI": "https://access.redhat.com/security/cve/CVE-2019-8823",
      "ID": "CVE-2019-8823"
    },
    {
      "Source": "CVE",
      "URI": "https://access.redhat.com/security/cve/CVE-2019-8835",
      "ID": "CVE-2019-8835"
    },
    {
      "Source": "CVE",
      "URI": "https://access.redhat.com/security/cve/CVE-2019-8844",
      "ID": "CVE-2019-8844"
    },
    {
      "Source": "CVE",
      "URI": "https://access.redhat.com/security/cve/CVE-2019-8846",
      "ID": "CVE-2019-8846"
    },
    {
      "Source": "CVE",
      "URI": "https://access.redhat.com/security/cve/CVE-2020-10018",
      "ID": "CVE-2020-10018"
    },
    {
      "Source": "CVE",
      "URI": "https://access.redhat.com/security/cve/CVE-2020-11793",
      "ID": "CVE-2020-11793"
    },
    {
      "Source": "CVE",
      "URI": "https://access.redhat.com/security/cve/CVE-2020-14391",
      "ID": "CVE-2020-14391"
    },
    {
      "Source": "CVE",
      "URI": "https://access.redhat.com/security/cve/CVE-2020-15503",
      "ID": "CVE-2020-15503"
    },
    {
      "Source": "CVE",
      "URI": "https://access.redhat.com/security/cve/CVE-2020-3862",
      "ID": "CVE-2020-3862"
    },
    {
      "Source": "CVE",
      "URI": "https://access.redhat.com/security/cve/CVE-2020-3864",
      "ID": "CVE-2020-3864"
    },
    {
      "Source": "CVE",
      "URI": "https://access.redhat.com/security/cve/CVE-2020-3865",
      "ID": "CVE-2020-3865"
    },
    {
      "Source": "CVE",
      "URI": "https://access.redhat.com/security/cve/CVE-2020-3867",
      "ID": "CVE-2020-3867"
    },
    {
      "Source": "CVE",
      "URI": "https://access.redhat.com/security/cve/CVE-2020-3868",
      "ID": "CVE-2020-3868"
    },
    {
      "Source": "CVE",
      "URI": "https://access.redhat.com/security/cve/CVE-2020-3885",
      "ID": "CVE-2020-3885"
    },
    {
      "Source": "CVE",
      "URI": "https://access.redhat.com/security/cve/CVE-2020-3894",
      "ID": "CVE-2020-3894"
    },
    {
      "Source": "CVE",
      "URI": "https://access.redhat.com/security/cve/CVE-2020-3895",
      "ID": "CVE-2020-3895"
    },
    {
      "Source": "CVE",
      "URI": "https://access.redhat.com/security/cve/CVE-2020-3897",
      "ID": "CVE-2020-3897"
    },
    {
      "Source": "CVE",
      "URI": "https://access.redhat.com/security/cve/CVE-2020-3899",
      "ID": "CVE-2020-3899"
    },
    {
      "Source": "CVE",
      "URI": "https://access.redhat.com/security/cve/CVE-2020-3900",
      "ID": "CVE-2020-3900"
    },
    {
      "Source": "CVE",
      "URI": "https://access.redhat.com/security/cve/CVE-2020-3901",
      "ID": "CVE-2020-3901"
    },
    {
      "Source": "CVE",
      "URI": "https://access.redhat.com/security/cve/CVE-2020-3902",
      "ID": "CVE-2020-3902"
    },
    {
      "Source": "CVE",
      "URI": "https://access.redhat.com/security/cve/CVE-2020-9802",
      "ID": "CVE-2020-9802"
    },
    {
      "Source": "CVE",
      "URI": "https://access.redhat.com/security/cve/CVE-2020-9803",
      "ID": "CVE-2020-9803"
    },
    {
      "Source": "CVE",
      "URI": "https://access.redhat.com/security/cve/CVE-2020-9805",
      "ID": "CVE-2020-9805"
    },
    {
      "Source": "CVE",
      "URI": "https://access.redhat.com/security/cve/CVE-2020-9806",
      "ID": "CVE-2020-9806"
    },
    {
      "Source": "CVE",
      "URI": "https://access.redhat.com/security/cve/CVE-2020-9807",
      "ID": "CVE-2020-9807"
    },
    {
      "Source": "CVE",
      "URI": "https://access.redhat.com/security/cve/CVE-2020-9843",
      "ID": "CVE-2020-9843"
    },
    {
      "Source": "CVE",
      "URI": "https://access.redhat.com/security/cve/CVE-2020-9850",
      "ID": "CVE-2020-9850"
    },
    {
      "Source": "CVE",
      "URI": "https://access.redhat.com/security/cve/CVE-2020-9862",
      "ID": "CVE-2020-9862"
    },
    {
      "Source": "CVE",
      "URI": "https://access.redhat.com/security/cve/CVE-2020-9893",
      "ID": "CVE-2020-9893"
    },
    {
      "Source": "CVE",
      "URI": "https://access.redhat.com/security/cve/CVE-2020-9894",
      "ID": "CVE-2020-9894"
    },
    {
      "Source": "CVE",
      "URI": "https://access.redhat.com/security/cve/CVE-2020-9895",
      "ID": "CVE-2020-9895"
    },
    {
      "Source": "CVE",
      "URI": "https://access.redhat.com/security/cve/CVE-2020-9915",
      "ID": "CVE-2020-9915"
    },
    {
      "Source": "CVE",
      "URI": "https://access.redhat.com/security/cve/CVE-2020-9925",
      "ID": "CVE-2020-9925"
    },
    {
      "Source": "CVE",
      "URI": "https://access.redhat.com/security/cve/CVE-2020-9952",
      "ID": "CVE-2020-9952"
    },
    {
      "Source": "CVE",
      "URI": "https://access.redhat.com/security/cve/CVE-2021-30666",
      "ID": "CVE-2021-30666"
    },
    {
      "Source": "CVE",
      "URI": "https://access.redhat.com/security/cve/CVE-2021-30761",
      "ID": "CVE-2021-30761"
    },
    {
      "Source": "CVE",
      "URI": "https://access.redhat.com/security/cve/CVE-2021-30762",
      "ID": "CVE-2021-30762"
    }
  ],
  "Criteria": {
    "Operator": "OR",
    "Criterias": [
      {
        "Operator": "AND",
        "Criterias": [
          {
            "Operator": "OR",
            "Criterias": [

            ],
            "Criterions": [
              {
                "Comment": "Oracle Linux 8 is installed"
              },
              {
                "Comment": "Red Hat CoreOS 4 is installed"
              }
            ]
          },
          {
            "Operator": "OR",
            "Criterias": [
              {
                "Operator": "AND",
                "Criterias": [

                ],
                "Criterions": [
                  {
                    "Comment": "webkit2gtk3 is earlier than 0:2.28.4-1.el8"
                  },
                  {
                    "Comment": "webkit2gtk3 is signed with Red Hat redhatrelease2 key"
                  }
                ]
              },
              {
                "Operator": "AND",
                "Criterias": [

                ],
                "Criterions": [
                  {
                    "Comment": "webkit2gtk3-devel is earlier than 0:2.28.4-1.el8"
                  },
                  {
                    "Comment": "webkit2gtk3-devel is signed with Red Hat redhatrelease2 key"
                  }
                ]
              },
              {
                "Operator": "AND",
                "Criterias": [

                ],
                "Criterions": [
                  {
                    "Comment": "webkit2gtk3-jsc is earlier than 0:2.28.4-1.el8"
                  },
                  {
                    "Comment": "webkit2gtk3-jsc is signed with Red Hat redhatrelease2 key"
                  }
                ]
              },
              {
                "Operator": "AND",
                "Criterias": [

                ],
                "Criterions": [
                  {
                    "Comment": "webkit2gtk3-jsc-devel is earlier than 0:2.28.4-1.el8"
                  },
                  {
                    "Comment": "webkit2gtk3-jsc-devel is signed with Red Hat redhatrelease2 key"
                  }
                ]
              },
              {
                "Operator": "AND",
                "Criterias": [

                ],
                "Criterions": [
                  {
                    "Comment": "LibRaw is earlier than 0:0.19.5-2.el8"
                  },
                  {
                    "Comment": "LibRaw is signed with Red Hat redhatrelease2 key"
                  }
                ]
              },
              {
                "Operator": "AND",
                "Criterias": [

                ],
                "Criterions": [
                  {
                    "Comment": "LibRaw-devel is earlier than 0:0.19.5-2.el8"
                  },
                  {
                    "Comment": "LibRaw-devel is signed with Red Hat redhatrelease2 key"
                  }
                ]
              },
              {
                "Operator": "AND",
                "Criterias": [

                ],
                "Criterions": [
                  {
                    "Comment": "gnome-settings-daemon is earlier than 0:3.32.0-11.el8"
                  },
                  {
                    "Comment": "gnome-settings-daemon is signed with Red Hat redhatrelease2 key"
                  }
                ]
              }
            ],
            "Criterions": [

            ]
          }
        ],
        "Criterions": [

        ]
      }
    ],
    "Criterions": [
      {
        "Comment": "Oracle Linux 8 is installed"
      }
    ]
  },
  "Severity": "Moderate",
  "Cves": [
    {
      "Impact": "",
      "Href": "",
      "ID": "CVE-2019-8625"
    },
    {
      "Impact": "",
      "Href": "",
      "ID": "CVE-2019-8710"
    },
    {
      "Impact": "",
      "Href": "",
      "ID": "CVE-2019-8720"
    },
    {
      "Impact": "",
      "Href": "",
      "ID": "CVE-2019-8743"
    },
    {
      "Impact": "",
      "Href": "",
      "ID": "CVE-2019-8764"
    },
    {
      "Impact": "",
      "Href": "",
      "ID": "CVE-2019-8766"
    },
    {
      "Impact": "",
      "Href": "",
      "ID": "CVE-2019-8769"
    },
    {
      "Impact": "",
      "Href": "",
      "ID": "CVE-2019-8771"
    },
    {
      "Impact": "",
      "Href": "",
      "ID": "CVE-2019-8782"
    },
    {
      "Impact": "",
      "Href": "",
      "ID": "CVE-2019-8783"
    },
    {
      "Impact": "",
      "Href": "",
      "ID": "CVE-2019-8808"
    },
    {
      "Impact": "",
      "Href": "",
      "ID": "CVE-2019-8811"
    },
    {
      "Impact": "",
      "Href": "",
      "ID": "CVE-2019-8812"
    },
    {
      "Impact": "",
      "Href": "",
      "ID": "CVE-2019-8813"
    },
    {
      "Impact": "",
      "Href": "",
      "ID": "CVE-2019-8814"
    },
    {
      "Impact": "",
      "Href": "",
      "ID": "CVE-2019-8815"
    },
    {
      "Impact": "",
      "Href": "",
      "ID": "CVE-2019-8816"
    },
    {
      "Impact": "",
      "Href": "",
      "ID": "CVE-2019-8819"
    },
    {
      "Impact": "",
      "Href": "",
      "ID": "CVE-2019-8820"
    },
    {
      "Impact": "",
      "Href": "",
      "ID": "CVE-2019-8823"
    },
    {
      "Impact": "",
      "Href": "",
      "ID": "CVE-2019-8835"
    },
    {
      "Impact": "",
      "Href": "",
      "ID": "CVE-2019-8844"
    },
    {
      "Impact": "",
      "Href": "",
      "ID": "CVE-2019-8846"
    },
    {
      "Impact": "",
      "Href": "",
      "ID": "CVE-2020-10018"
    },
    {
      "Impact": "",
      "Href": "",
      "ID": "CVE-2020-11793"
    },
    {
      "Impact": "",
      "Href": "",
      "ID": "CVE-2020-14391"
    },
    {
      "Impact": "",
      "Href": "",
      "ID": "CVE-2020-15503"
    },
    {
      "Impact": "",
      "Href": "",
      "ID": "CVE-2020-3862"
    },
    {
      "Impact": "",
      "Href": "",
      "ID": "CVE-2020-3864"
    },
    {
      "Impact": "",
      "Href": "",
      "ID": "CVE-2020-3865"
    },
    {
      "Impact": "",
      "Href": "",
      "ID": "CVE-2020-3867"
    },
    {
      "Impact": "",
      "Href": "",
      "ID": "CVE-2020-3868"
    },
    {
      "Impact": "",
      "Href": "",
      "ID": "CVE-2020-3885"
    },
    {
      "Impact": "",
      "Href": "",
      "ID": "CVE-2020-3894"
    },
    {
      "Impact": "",
      "Href": "",
      "ID": "CVE-2020-3895"
    },
    {
      "Impact": "",
      "Href": "",
      "ID": "CVE-2020-3897"
    },
    {
      "Impact": "",
      "Href": "",
      "ID": "CVE-2020-3899"
    },
    {
      "Impact": "",
      "Href": "",
      "ID": "CVE-2020-3900"
    },
    {
      "Impact": "",
      "Href": "",
      "ID": "CVE-2020-3901"
    },
    {
      "Impact": "",
      "Href": "",
      "ID": "CVE-2020-3902"
    },
    {
      "Impact": "",
      "Href": "",
      "ID": "CVE-2020-9802"
    },
    {
      "Impact": "",
      "Href": "",
      "ID": "CVE-2020-9803"
    },
    {
      "Impact": "",
      "Href": "",
      "ID": "CVE-2020-9805"
    },
    {
      "Impact": "",
      "Href": "",
      "ID": "CVE-2020-9806"
    },
    {
      "Impact": "",
      "Href": "",
      "ID": "CVE-2020-9807"
    },
    {
      "Impact": "",
      "Href": "",
      "ID": "CVE-2020-9843"
    },
    {
      "Impact": "",
      "Href": "",
      "ID": "CVE-2020-9850"
    },
    {
      "Impact": "",
      "Href": "",
      "ID": "CVE-2020-9862"
    },
    {
      "Impact": "",
      "Href": "",
      "ID": "CVE-2020-9893"
    },
    {
      "Impact": "",
      "Href": "",
      "ID": "CVE-2020-9894"
    },
    {
      "Impact": "",
      "Href": "",
      "ID": "CVE-2020-9895"
    },
    {
      "Impact": "",
      "Href": "",
      "ID": "CVE-2020-9915"
    },
    {
      "Impact": "",
      "Href": "",
      "ID": "CVE-2020-9925"
    },
    {
      "Impact": "",
      "Href": "",
      "ID": "CVE-2020-9952"
    },
    {
      "Impact": "",
      "Href": "",
      "ID": "CVE-2021-30666"
    },
    {
      "Impact": "",
      "Href": "",
      "ID": "CVE-2021-30761"
    },
    {
      "Impact": "",
      "Href": "",
      "ID": "CVE-2021-30762"
    }
  ],
  "Issued": {
    "Date": "2020-11-04"
  }
}