{
  "Title": "RHSA-2020:4807: prometheus-jmx-exporter security update (Moderate)",
  "Description": "Prometheus JMX Exporter is a JMX to Prometheus exporter: a collector that can be configured to scrape and expose MBeans of a JMX target.\nSecurity Fix(es):\n* snakeyaml: Billion laughs attack via alias feature (CVE-2017-18640)\nFor more details about the security issue(s), including the impact, a CVSS score, acknowledgments, and other related information, refer to the CVE page(s) listed in the References section.\nAdditional Changes:\nFor detailed information on changes in this release, see the Red Hat Enterprise Linux 8.3 Release Notes linked from the References section.",
  "Platform": [
    "Red Hat Enterprise Linux 8"
  ],
  "References": [
    {
      "Source": "RHSA",
      "URI": "https://access.redhat.com/errata/RHSA-2020:4807",
      "ID": "RHSA-2020:4807"
    },
    {
      "Source": "CVE",
      "URI": "https://access.redhat.com/security/cve/CVE-2017-18640",
      "ID": "CVE-2017-18640"
    }
  ],
  "Criteria": {
    "Operator": "OR",
    "Criterias": [
      {
        "Operator": "AND",
        "Criterias": [
          {
            "Operator": "OR",
            "Criterias": [

            ],
            "Criterions": [
              {
                "Comment": "Oracle Linux 8 is installed"
              },
              {
                "Comment": "Red Hat CoreOS 4 is installed"
              }
            ]
          }
        ],
        "Criterions": [
          {
            "Comment": "prometheus-jmx-exporter is earlier than 0:0.12.0-6.el8"
          },
          {
            "Comment": "prometheus-jmx-exporter is signed with Red Hat redhatrelease2 key"
          }
        ]
      }
    ],
    "Criterions": [
      {
        "Comment": "Oracle Linux 8 is installed"
      }
    ]
  },
  "Severity": "Moderate",
  "Cves": [
    {
      "Impact": "",
      "Href": "",
      "ID": "CVE-2017-18640"
    }
  ],
  "Issued": {
    "Date": "2020-11-04"
  }
}