{
  "Title": "RHSA-2020:1358: virt:rhel security and bug fix update (Important)",
  "Description": "Kernel-based Virtual Machine (KVM) offers a full virtualization solution for Linux on numerous hardware platforms. The virt:rhel module contains packages which provide user-space components used to run virtual machines using KVM. The packages also provide APIs for managing and interacting with the virtualized systems.\nSecurity Fix(es):\n* QEMU: block: iscsi: OOB heap access via an unexpected response of iSCSI Server (CVE-2020-1711)\n* QEMU: slirp: OOB buffer access while emulating tcp protocols in tcp_emu() (CVE-2020-7039)\nFor more details about the security issue(s), including the impact, a CVSS score, acknowledgments, and other related information, refer to the CVE page(s) listed in the References section.\nBug Fix(es):\n* libvirtd: error : virCPUx86UpdateLive:3110 : operation failed: guest CPU doesn't match specification: missing features: fxsr_opt (BZ#1809510)",
  "Platform": [
    "Red Hat Enterprise Linux 8"
  ],
  "References": [
    {
      "Source": "RHSA",
      "URI": "https://access.redhat.com/errata/RHSA-2020:1358",
      "ID": "RHSA-2020:1358"
    },
    {
      "Source": "CVE",
      "URI": "https://access.redhat.com/security/cve/CVE-2020-1711",
      "ID": "CVE-2020-1711"
    },
    {
      "Source": "CVE",
      "URI": "https://access.redhat.com/security/cve/CVE-2020-7039",
      "ID": "CVE-2020-7039"
    }
  ],
  "Criteria": {
    "Operator": "OR",
    "Criterias": [
      {
        "Operator": "AND",
        "Criterias": [
          {
            "Operator": "OR",
            "Criterias": [

            ],
            "Criterions": [
              {
                "Comment": "Oracle Linux 8 is installed"
              },
              {
                "Comment": "Red Hat CoreOS 4 is installed"
              }
            ]
          },
          {
            "Operator": "OR",
            "Criterias": [
              {
                "Operator": "AND",
                "Criterias": [
                  {
                    "Operator": "OR",
                    "Criterias": [
                      {
                        "Operator": "AND",
                        "Criterias": [

                        ],
                        "Criterions": [
                          {
                            "Comment": "SLOF is earlier than 0:20171214-6.gitfa98132.module+el8.1.0+4066+0f1aadab"
                          },
                          {
                            "Comment": "SLOF is signed with Red Hat redhatrelease2 key"
                          }
                        ]
                      },
                      {
                        "Operator": "AND",
                        "Criterias": [

                        ],
                        "Criterions": [
                          {
                            "Comment": "hivex is earlier than 0:1.3.15-7.module+el8.1.0+4066+0f1aadab"
                          },
                          {
                            "Comment": "hivex is signed with Red Hat redhatrelease2 key"
                          }
                        ]
                      },
                      {
                        "Operator": "AND",
                        "Criterias": [

                        ],
                        "Criterions": [
                          {
                            "Comment": "hivex-devel is earlier than 0:1.3.15-7.module+el8.1.0+4066+0f1aadab"
                          },
                          {
                            "Comment": "hivex-devel is signed with Red Hat redhatrelease2 key"
                          }
                        ]
                      },
                      {
                        "Operator": "AND",
                        "Criterias": [

                        ],
                        "Criterions": [
                          {
                            "Comment": "libguestfs is earlier than 1:1.38.4-14.module+el8.1.0+4066+0f1aadab"
                          },
                          {
                            "Comment": "libguestfs is signed with Red Hat redhatrelease2 key"
                          }
                        ]
                      },
                      {
                        "Operator": "AND",
                        "Criterias": [

                        ],
                        "Criterions": [
                          {
                            "Comment": "libguestfs-bash-completion is earlier than 1:1.38.4-14.module+el8.1.0+4066+0f1aadab"
                          },
                          {
                            "Comment": "libguestfs-bash-completion is signed with Red Hat redhatrelease2 key"
                          }
                        ]
                      },
                      {
                        "Operator": "AND",
                        "Criterias": [

                        ],
                        "Criterions": [
                          {
                            "Comment": "libguestfs-benchmarking is earlier than 1:1.38.4-14.module+el8.1.0+4066+0f1aadab"
                          },
                          {
                            "Comment": "libguestfs-benchmarking is signed with Red Hat redhatrelease2 key"
                          }
                        ]
                      },
                      {
                        "Operator": "AND",
                        "Criterias": [

                        ],
                        "Criterions": [
                          {
                            "Comment": "libguestfs-devel is earlier than 1:1.38.4-14.module+el8.1.0+4066+0f1aadab"
                          },
                          {
                            "Comment": "libguestfs-devel is signed with Red Hat redhatrelease2 key"
                          }
                        ]
                      },
                      {
                        "Operator": "AND",
                        "Criterias": [

                        ],
                        "Criterions": [
                          {
                            "Comment": "libguestfs-gfs2 is earlier than 1:1.38.4-14.module+el8.1.0+4066+0f1aadab"
                          },
                          {
                            "Comment": "libguestfs-gfs2 is signed with Red Hat redhatrelease2 key"
                          }
                        ]
                      },
                      {
                        "Operator": "AND",
                        "Criterias": [

                        ],
                        "Criterions": [
                          {
                            "Comment": "libguestfs-gobject is earlier than 1:1.38.4-14.module+el8.1.0+4066+0f1aadab"
                          },
                          {
                            "Comment": "libguestfs-gobject is signed with Red Hat redhatrelease2 key"
                          }
                        ]
                      },
                      {
                        "Operator": "AND",
                        "Criterias": [

                        ],
                        "Criterions": [
                          {
                            "Comment": "libguestfs-gobject-devel is earlier than 1:1.38.4-14.module+el8.1.0+4066+0f1aadab"
                          },
                          {
                            "Comment": "libguestfs-gobject-devel is signed with Red Hat redhatrelease2 key"
                          }
                        ]
                      },
                      {
                        "Operator": "AND",
                        "Criterias": [

                        ],
                        "Criterions": [
                          {
                            "Comment": "libguestfs-inspect-icons is earlier than 1:1.38.4-14.module+el8.1.0+4066+0f1aadab"
                          },
                          {
                            "Comment": "libguestfs-inspect-icons is signed with Red Hat redhatrelease2 key"
                          }
                        ]
                      },
                      {
                        "Operator": "AND",
                        "Criterias": [

                        ],
                        "Criterions": [
                          {
                            "Comment": "libguestfs-java is earlier than 1:1.38.4-14.module+el8.1.0+4066+0f1aadab"
                          },
                          {
                            "Comment": "libguestfs-java is signed with Red Hat redhatrelease2 key"
                          }
                        ]
                      },
                      {
                        "Operator": "AND",
                        "Criterias": [

                        ],
                        "Criterions": [
                          {
                            "Comment": "libguestfs-java-devel is earlier than 1:1.38.4-14.module+el8.1.0+4066+0f1aadab"
                          },
                          {
                            "Comment": "libguestfs-java-devel is signed with Red Hat redhatrelease2 key"
                          }
                        ]
                      },
                      {
                        "Operator": "AND",
                        "Criterias": [

                        ],
                        "Criterions": [
                          {
                            "Comment": "libguestfs-javadoc is earlier than 1:1.38.4-14.module+el8.1.0+4066+0f1aadab"
                          },
                          {
                            "Comment": "libguestfs-javadoc is signed with Red Hat redhatrelease2 key"
                          }
                        ]
                      },
                      {
                        "Operator": "AND",
                        "Criterias": [

                        ],
                        "Criterions": [
                          {
                            "Comment": "libguestfs-man-pages-ja is earlier than 1:1.38.4-14.module+el8.1.0+4066+0f1aadab"
                          },
                          {
                            "Comment": "libguestfs-man-pages-ja is signed with Red Hat redhatrelease2 key"
                          }
                        ]
                      },
                      {
                        "Operator": "AND",
                        "Criterias": [

                        ],
                        "Criterions": [
                          {
                            "Comment": "libguestfs-man-pages-uk is earlier than 1:1.38.4-14.module+el8.1.0+4066+0f1aadab"
                          },
                          {
                            "Comment": "libguestfs-man-pages-uk is signed with Red Hat redhatrelease2 key"
                          }
                        ]
                      },
                      {
                        "Operator": "AND",
                        "Criterias": [

                        ],
                        "Criterions": [
                          {
                            "Comment": "libguestfs-rescue is earlier than 1:1.38.4-14.module+el8.1.0+4066+0f1aadab"
                          },
                          {
                            "Comment": "libguestfs-rescue is signed with Red Hat redhatrelease2 key"
                          }
                        ]
                      },
                      {
                        "Operator": "AND",
                        "Criterias": [

                        ],
                        "Criterions": [
                          {
                            "Comment": "libguestfs-rsync is earlier than 1:1.38.4-14.module+el8.1.0+4066+0f1aadab"
                          },
                          {
                            "Comment": "libguestfs-rsync is signed with Red Hat redhatrelease2 key"
                          }
                        ]
                      },
                      {
                        "Operator": "AND",
                        "Criterias": [

                        ],
                        "Criterions": [
                          {
                            "Comment": "libguestfs-tools is earlier than 1:1.38.4-14.module+el8.1.0+4066+0f1aadab"
                          },
                          {
                            "Comment": "libguestfs-tools is signed with Red Hat redhatrelease2 key"
                          }
                        ]
                      },
                      {
                        "Operator": "AND",
                        "Criterias": [

                        ],
                        "Criterions": [
                          {
                            "Comment": "libguestfs-tools-c is earlier than 1:1.38.4-14.module+el8.1.0+4066+0f1aadab"
                          },
                          {
                            "Comment": "libguestfs-tools-c is signed with Red Hat redhatrelease2 key"
                          }
                        ]
                      },
                      {
                        "Operator": "AND",
                        "Criterias": [

                        ],
                        "Criterions": [
                          {
                            "Comment": "libguestfs-winsupport is earlier than 0:8.0-4.module+el8.1.0+4066+0f1aadab"
                          },
                          {
                            "Comment": "libguestfs-winsupport is signed with Red Hat redhatrelease2 key"
                          }
                        ]
                      },
                      {
                        "Operator": "AND",
                        "Criterias": [

                        ],
                        "Criterions": [
                          {
                            "Comment": "libguestfs-xfs is earlier than 1:1.38.4-14.module+el8.1.0+4066+0f1aadab"
                          },
                          {
                            "Comment": "libguestfs-xfs is signed with Red Hat redhatrelease2 key"
                          }
                        ]
                      },
                      {
                        "Operator": "AND",
                        "Criterias": [

                        ],
                        "Criterions": [
                          {
                            "Comment": "libiscsi is earlier than 0:1.18.0-8.module+el8.1.0+4066+0f1aadab"
                          },
                          {
                            "Comment": "libiscsi is signed with Red Hat redhatrelease2 key"
                          }
                        ]
                      },
                      {
                        "Operator": "AND",
                        "Criterias": [

                        ],
                        "Criterions": [
                          {
                            "Comment": "libiscsi-devel is earlier than 0:1.18.0-8.module+el8.1.0+4066+0f1aadab"
                          },
                          {
                            "Comment": "libiscsi-devel is signed with Red Hat redhatrelease2 key"
                          }
                        ]
                      },
                      {
                        "Operator": "AND",
                        "Criterias": [

                        ],
                        "Criterions": [
                          {
                            "Comment": "libiscsi-utils is earlier than 0:1.18.0-8.module+el8.1.0+4066+0f1aadab"
                          },
                          {
                            "Comment": "libiscsi-utils is signed with Red Hat redhatrelease2 key"
                          }
                        ]
                      },
                      {
                        "Operator": "AND",
                        "Criterias": [

                        ],
                        "Criterions": [
                          {
                            "Comment": "libvirt is earlier than 0:4.5.0-35.3.module+el8.1.0+5931+8897e7e1"
                          },
                          {
                            "Comment": "libvirt is signed with Red Hat redhatrelease2 key"
                          }
                        ]
                      },
                      {
                        "Operator": "AND",
                        "Criterias": [

                        ],
                        "Criterions": [
                          {
                            "Comment": "libvirt-admin is earlier than 0:4.5.0-35.3.module+el8.1.0+5931+8897e7e1"
                          },
                          {
                            "Comment": "libvirt-admin is signed with Red Hat redhatrelease2 key"
                          }
                        ]
                      },
                      {
                        "Operator": "AND",
                        "Criterias": [

                        ],
                        "Criterions": [
                          {
                            "Comment": "libvirt-bash-completion is earlier than 0:4.5.0-35.3.module+el8.1.0+5931+8897e7e1"
                          },
                          {
                            "Comment": "libvirt-bash-completion is signed with Red Hat redhatrelease2 key"
                          }
                        ]
                      },
                      {
                        "Operator": "AND",
                        "Criterias": [

                        ],
                        "Criterions": [
                          {
                            "Comment": "libvirt-client is earlier than 0:4.5.0-35.3.module+el8.1.0+5931+8897e7e1"
                          },
                          {
                            "Comment": "libvirt-client is signed with Red Hat redhatrelease2 key"
                          }
                        ]
                      },
                      {
                        "Operator": "AND",
                        "Criterias": [

                        ],
                        "Criterions": [
                          {
                            "Comment": "libvirt-daemon is earlier than 0:4.5.0-35.3.module+el8.1.0+5931+8897e7e1"
                          },
                          {
                            "Comment": "libvirt-daemon is signed with Red Hat redhatrelease2 key"
                          }
                        ]
                      },
                      {
                        "Operator": "AND",
                        "Criterias": [

                        ],
                        "Criterions": [
                          {
                            "Comment": "libvirt-daemon-config-network is earlier than 0:4.5.0-35.3.module+el8.1.0+5931+8897e7e1"
                          },
                          {
                            "Comment": "libvirt-daemon-config-network is signed with Red Hat redhatrelease2 key"
                          }
                        ]
                      },
                      {
                        "Operator": "AND",
                        "Criterias": [

                        ],
                        "Criterions": [
                          {
                            "Comment": "libvirt-daemon-config-nwfilter is earlier than 0:4.5.0-35.3.module+el8.1.0+5931+8897e7e1"
                          },
                          {
                            "Comment": "libvirt-daemon-config-nwfilter is signed with Red Hat redhatrelease2 key"
                          }
                        ]
                      },
                      {
                        "Operator": "AND",
                        "Criterias": [

                        ],
                        "Criterions": [
                          {
                            "Comment": "libvirt-daemon-driver-interface is earlier than 0:4.5.0-35.3.module+el8.1.0+5931+8897e7e1"
                          },
                          {
                            "Comment": "libvirt-daemon-driver-interface is signed with Red Hat redhatrelease2 key"
                          }
                        ]
                      },
                      {
                        "Operator": "AND",
                        "Criterias": [

                        ],
                        "Criterions": [
                          {
                            "Comment": "libvirt-daemon-driver-network is earlier than 0:4.5.0-35.3.module+el8.1.0+5931+8897e7e1"
                          },
                          {
                            "Comment": "libvirt-daemon-driver-network is signed with Red Hat redhatrelease2 key"
                          }
                        ]
                      },
                      {
                        "Operator": "AND",
                        "Criterias": [

                        ],
                        "Criterions": [
                          {
                            "Comment": "libvirt-daemon-driver-nodedev is earlier than 0:4.5.0-35.3.module+el8.1.0+5931+8897e7e1"
                          },
                          {
                            "Comment": "libvirt-daemon-driver-nodedev is signed with Red Hat redhatrelease2 key"
                          }
                        ]
                      },
                      {
                        "Operator": "AND",
                        "Criterias": [

                        ],
                        "Criterions": [
                          {
                            "Comment": "libvirt-daemon-driver-nwfilter is earlier than 0:4.5.0-35.3.module+el8.1.0+5931+8897e7e1"
                          },
                          {
                            "Comment": "libvirt-daemon-driver-nwfilter is signed with Red Hat redhatrelease2 key"
                          }
                        ]
                      },
                      {
                        "Operator": "AND",
                        "Criterias": [

                        ],
                        "Criterions": [
                          {
                            "Comment": "libvirt-daemon-driver-qemu is earlier than 0:4.5.0-35.3.module+el8.1.0+5931+8897e7e1"
                          },
                          {
                            "Comment": "libvirt-daemon-driver-qemu is signed with Red Hat redhatrelease2 key"
                          }
                        ]
                      },
                      {
                        "Operator": "AND",
                        "Criterias": [

                        ],
                        "Criterions": [
                          {
                            "Comment": "libvirt-daemon-driver-secret is earlier than 0:4.5.0-35.3.module+el8.1.0+5931+8897e7e1"
                          },
                          {
                            "Comment": "libvirt-daemon-driver-secret is signed with Red Hat redhatrelease2 key"
                          }
                        ]
                      },
                      {
                        "Operator": "AND",
                        "Criterias": [

                        ],
                        "Criterions": [
                          {
                            "Comment": "libvirt-daemon-driver-storage is earlier than 0:4.5.0-35.3.module+el8.1.0+5931+8897e7e1"
                          },
                          {
                            "Comment": "libvirt-daemon-driver-storage is signed with Red Hat redhatrelease2 key"
                          }
                        ]
                      },
                      {
                        "Operator": "AND",
                        "Criterias": [

                        ],
                        "Criterions": [
                          {
                            "Comment": "libvirt-daemon-driver-storage-core is earlier than 0:4.5.0-35.3.module+el8.1.0+5931+8897e7e1"
                          },
                          {
                            "Comment": "libvirt-daemon-driver-storage-core is signed with Red Hat redhatrelease2 key"
                          }
                        ]
                      },
                      {
                        "Operator": "AND",
                        "Criterias": [

                        ],
                        "Criterions": [
                          {
                            "Comment": "libvirt-daemon-driver-storage-disk is earlier than 0:4.5.0-35.3.module+el8.1.0+5931+8897e7e1"
                          },
                          {
                            "Comment": "libvirt-daemon-driver-storage-disk is signed with Red Hat redhatrelease2 key"
                          }
                        ]
                      },
                      {
                        "Operator": "AND",
                        "Criterias": [

                        ],
                        "Criterions": [
                          {
                            "Comment": "libvirt-daemon-driver-storage-gluster is earlier than 0:4.5.0-35.3.module+el8.1.0+5931+8897e7e1"
                          },
                          {
                            "Comment": "libvirt-daemon-driver-storage-gluster is signed with Red Hat redhatrelease2 key"
                          }
                        ]
                      },
                      {
                        "Operator": "AND",
                        "Criterias": [

                        ],
                        "Criterions": [
                          {
                            "Comment": "libvirt-daemon-driver-storage-iscsi is earlier than 0:4.5.0-35.3.module+el8.1.0+5931+8897e7e1"
                          },
                          {
                            "Comment": "libvirt-daemon-driver-storage-iscsi is signed with Red Hat redhatrelease2 key"
                          }
                        ]
                      },
                      {
                        "Operator": "AND",
                        "Criterias": [

                        ],
                        "Criterions": [
                          {
                            "Comment": "libvirt-daemon-driver-storage-logical is earlier than 0:4.5.0-35.3.module+el8.1.0+5931+8897e7e1"
                          },
                          {
                            "Comment": "libvirt-daemon-driver-storage-logical is signed with Red Hat redhatrelease2 key"
                          }
                        ]
                      },
                      {
                        "Operator": "AND",
                        "Criterias": [

                        ],
                        "Criterions": [
                          {
                            "Comment": "libvirt-daemon-driver-storage-mpath is earlier than 0:4.5.0-35.3.module+el8.1.0+5931+8897e7e1"
                          },
                          {
                            "Comment": "libvirt-daemon-driver-storage-mpath is signed with Red Hat redhatrelease2 key"
                          }
                        ]
                      },
                      {
                        "Operator": "AND",
                        "Criterias": [

                        ],
                        "Criterions": [
                          {
                            "Comment": "libvirt-daemon-driver-storage-rbd is earlier than 0:4.5.0-35.3.module+el8.1.0+5931+8897e7e1"
                          },
                          {
                            "Comment": "libvirt-daemon-driver-storage-rbd is signed with Red Hat redhatrelease2 key"
                          }
                        ]
                      },
                      {
                        "Operator": "AND",
                        "Criterias": [

                        ],
                        "Criterions": [
                          {
                            "Comment": "libvirt-daemon-driver-storage-scsi is earlier than 0:4.5.0-35.3.module+el8.1.0+5931+8897e7e1"
                          },
                          {
                            "Comment": "libvirt-daemon-driver-storage-scsi is signed with Red Hat redhatrelease2 key"
                          }
                        ]
                      },
                      {
                        "Operator": "AND",
                        "Criterias": [

                        ],
                        "Criterions": [
                          {
                            "Comment": "libvirt-daemon-kvm is earlier than 0:4.5.0-35.3.module+el8.1.0+5931+8897e7e1"
                          },
                          {
                            "Comment": "libvirt-daemon-kvm is signed with Red Hat redhatrelease2 key"
                          }
                        ]
                      },
                      {
                        "Operator": "AND",
                        "Criterias": [

                        ],
                        "Criterions": [
                          {
                            "Comment": "libvirt-dbus is earlier than 0:1.2.0-3.module+el8.1.0+4066+0f1aadab"
                          },
                          {
                            "Comment": "libvirt-dbus is signed with Red Hat redhatrelease2 key"
                          }
                        ]
                      },
                      {
                        "Operator": "AND",
                        "Criterias": [

                        ],
                        "Criterions": [
                          {
                            "Comment": "libvirt-devel is earlier than 0:4.5.0-35.3.module+el8.1.0+5931+8897e7e1"
                          },
                          {
                            "Comment": "libvirt-devel is signed with Red Hat redhatrelease2 key"
                          }
                        ]
                      },
                      {
                        "Operator": "AND",
                        "Criterias": [

                        ],
                        "Criterions": [
                          {
                            "Comment": "libvirt-docs is earlier than 0:4.5.0-35.3.module+el8.1.0+5931+8897e7e1"
                          },
                          {
                            "Comment": "libvirt-docs is signed with Red Hat redhatrelease2 key"
                          }
                        ]
                      },
                      {
                        "Operator": "AND",
                        "Criterias": [

                        ],
                        "Criterions": [
                          {
                            "Comment": "libvirt-libs is earlier than 0:4.5.0-35.3.module+el8.1.0+5931+8897e7e1"
                          },
                          {
                            "Comment": "libvirt-libs is signed with Red Hat redhatrelease2 key"
                          }
                        ]
                      },
                      {
                        "Operator": "AND",
                        "Criterias": [

                        ],
                        "Criterions": [
                          {
                            "Comment": "libvirt-lock-sanlock is earlier than 0:4.5.0-35.3.module+el8.1.0+5931+8897e7e1"
                          },
                          {
                            "Comment": "libvirt-lock-sanlock is signed with Red Hat redhatrelease2 key"
                          }
                        ]
                      },
                      {
                        "Operator": "AND",
                        "Criterias": [

                        ],
                        "Criterions": [
                          {
                            "Comment": "libvirt-nss is earlier than 0:4.5.0-35.3.module+el8.1.0+5931+8897e7e1"
                          },
                          {
                            "Comment": "libvirt-nss is signed with Red Hat redhatrelease2 key"
                          }
                        ]
                      },
                      {
                        "Operator": "AND",
                        "Criterias": [

                        ],
                        "Criterions": [
                          {
                            "Comment": "lua-guestfs is earlier than 1:1.38.4-14.module+el8.1.0+4066+0f1aadab"
                          },
                          {
                            "Comment": "lua-guestfs is signed with Red Hat redhatrelease2 key"
                          }
                        ]
                      },
                      {
                        "Operator": "AND",
                        "Criterias": [

                        ],
                        "Criterions": [
                          {
                            "Comment": "nbdkit is earlier than 0:1.4.2-5.module+el8.1.0+4066+0f1aadab"
                          },
                          {
                            "Comment": "nbdkit is signed with Red Hat redhatrelease2 key"
                          }
                        ]
                      },
                      {
                        "Operator": "AND",
                        "Criterias": [

                        ],
                        "Criterions": [
                          {
                            "Comment": "nbdkit-bash-completion is earlier than 0:1.4.2-5.module+el8.1.0+4066+0f1aadab"
                          },
                          {
                            "Comment": "nbdkit-bash-completion is signed with Red Hat redhatrelease2 key"
                          }
                        ]
                      },
                      {
                        "Operator": "AND",
                        "Criterias": [

                        ],
                        "Criterions": [
                          {
                            "Comment": "nbdkit-basic-plugins is earlier than 0:1.4.2-5.module+el8.1.0+4066+0f1aadab"
                          },
                          {
                            "Comment": "nbdkit-basic-plugins is signed with Red Hat redhatrelease2 key"
                          }
                        ]
                      },
                      {
                        "Operator": "AND",
                        "Criterias": [

                        ],
                        "Criterions": [
                          {
                            "Comment": "nbdkit-devel is earlier than 0:1.4.2-5.module+el8.1.0+4066+0f1aadab"
                          },
                          {
                            "Comment": "nbdkit-devel is signed with Red Hat redhatrelease2 key"
                          }
                        ]
                      },
                      {
                        "Operator": "AND",
                        "Criterias": [

                        ],
                        "Criterions": [
                          {
                            "Comment": "nbdkit-example-plugins is earlier than 0:1.4.2-5.module+el8.1.0+4066+0f1aadab"
                          },
                          {
                            "Comment": "nbdkit-example-plugins is signed with Red Hat redhatrelease2 key"
                          }
                        ]
                      },
                      {
                        "Operator": "AND",
                        "Criterias": [

                        ],
                        "Criterions": [
                          {
                            "Comment": "nbdkit-plugin-gzip is earlier than 0:1.4.2-5.module+el8.1.0+4066+0f1aadab"
                          },
                          {
                            "Comment": "nbdkit-plugin-gzip is signed with Red Hat redhatrelease2 key"
                          }
                        ]
                      },
                      {
                        "Operator": "AND",
                        "Criterias": [

                        ],
                        "Criterions": [
                          {
                            "Comment": "nbdkit-plugin-python-common is earlier than 0:1.4.2-5.module+el8.1.0+4066+0f1aadab"
                          },
                          {
                            "Comment": "nbdkit-plugin-python-common is signed with Red Hat redhatrelease2 key"
                          }
                        ]
                      },
                      {
                        "Operator": "AND",
                        "Criterias": [

                        ],
                        "Criterions": [
                          {
                            "Comment": "nbdkit-plugin-python3 is earlier than 0:1.4.2-5.module+el8.1.0+4066+0f1aadab"
                          },
                          {
                            "Comment": "nbdkit-plugin-python3 is signed with Red Hat redhatrelease2 key"
                          }
                        ]
                      },
                      {
                        "Operator": "AND",
                        "Criterias": [

                        ],
                        "Criterions": [
                          {
                            "Comment": "nbdkit-plugin-vddk is earlier than 0:1.4.2-5.module+el8.1.0+4066+0f1aadab"
                          },
                          {
                            "Comment": "nbdkit-plugin-vddk is signed with Red Hat redhatrelease2 key"
                          }
                        ]
                      },
                      {
                        "Operator": "AND",
                        "Criterias": [

                        ],
                        "Criterions": [
                          {
                            "Comment": "nbdkit-plugin-xz is earlier than 0:1.4.2-5.module+el8.1.0+4066+0f1aadab"
                          },
                          {
                            "Comment": "nbdkit-plugin-xz is signed with Red Hat redhatrelease2 key"
                          }
                        ]
                      },
                      {
                        "Operator": "AND",
                        "Criterias": [

                        ],
                        "Criterions": [
                          {
                            "Comment": "netcf is earlier than 0:0.2.8-12.module+el8.1.0+4066+0f1aadab"
                          },
                          {
                            "Comment": "netcf is signed with Red Hat redhatrelease2 key"
                          }
                        ]
                      },
                      {
                        "Operator": "AND",
                        "Criterias": [

                        ],
                        "Criterions": [
                          {
                            "Comment": "netcf-devel is earlier than 0:0.2.8-12.module+el8.1.0+4066+0f1aadab"
                          },
                          {
                            "Comment": "netcf-devel is signed with Red Hat redhatrelease2 key"
                          }
                        ]
                      },
                      {
                        "Operator": "AND",
                        "Criterias": [

                        ],
                        "Criterions": [
                          {
                            "Comment": "netcf-libs is earlier than 0:0.2.8-12.module+el8.1.0+4066+0f1aadab"
                          },
                          {
                            "Comment": "netcf-libs is signed with Red Hat redhatrelease2 key"
                          }
                        ]
                      },
                      {
                        "Operator": "AND",
                        "Criterias": [

                        ],
                        "Criterions": [
                          {
                            "Comment": "perl-Sys-Guestfs is earlier than 1:1.38.4-14.module+el8.1.0+4066+0f1aadab"
                          },
                          {
                            "Comment": "perl-Sys-Guestfs is signed with Red Hat redhatrelease2 key"
                          }
                        ]
                      },
                      {
                        "Operator": "AND",
                        "Criterias": [

                        ],
                        "Criterions": [
                          {
                            "Comment": "perl-Sys-Virt is earlier than 0:4.5.0-5.module+el8.1.0+4066+0f1aadab"
                          },
                          {
                            "Comment": "perl-Sys-Virt is signed with Red Hat redhatrelease2 key"
                          }
                        ]
                      },
                      {
                        "Operator": "AND",
                        "Criterias": [

                        ],
                        "Criterions": [
                          {
                            "Comment": "perl-hivex is earlier than 0:1.3.15-7.module+el8.1.0+4066+0f1aadab"
                          },
                          {
                            "Comment": "perl-hivex is signed with Red Hat redhatrelease2 key"
                          }
                        ]
                      },
                      {
                        "Operator": "AND",
                        "Criterias": [

                        ],
                        "Criterions": [
                          {
                            "Comment": "python3-hivex is earlier than 0:1.3.15-7.module+el8.1.0+4066+0f1aadab"
                          },
                          {
                            "Comment": "python3-hivex is signed with Red Hat redhatrelease2 key"
                          }
                        ]
                      },
                      {
                        "Operator": "AND",
                        "Criterias": [

                        ],
                        "Criterions": [
                          {
                            "Comment": "python3-libguestfs is earlier than 1:1.38.4-14.module+el8.1.0+4066+0f1aadab"
                          },
                          {
                            "Comment": "python3-libguestfs is signed with Red Hat redhatrelease2 key"
                          }
                        ]
                      },
                      {
                        "Operator": "AND",
                        "Criterias": [

                        ],
                        "Criterions": [
                          {
                            "Comment": "python3-libvirt is earlier than 0:4.5.0-2.module+el8.1.0+4066+0f1aadab"
                          },
                          {
                            "Comment": "python3-libvirt is signed with Red Hat redhatrelease2 key"
                          }
                        ]
                      },
                      {
                        "Operator": "AND",
                        "Criterias": [

                        ],
                        "Criterions": [
                          {
                            "Comment": "qemu-guest-agent is earlier than 15:2.12.0-88.module+el8.1.0+5708+85d8e057.3"
                          },
                          {
                            "Comment": "qemu-guest-agent is signed with Red Hat redhatrelease2 key"
                          }
                        ]
                      },
                      {
                        "Operator": "AND",
                        "Criterias": [

                        ],
                        "Criterions": [
                          {
                            "Comment": "qemu-img is earlier than 15:2.12.0-88.module+el8.1.0+5708+85d8e057.3"
                          },
                          {
                            "Comment": "qemu-img is signed with Red Hat redhatrelease2 key"
                          }
                        ]
                      },
                      {
                        "Operator": "AND",
                        "Criterias": [

                        ],
                        "Criterions": [
                          {
                            "Comment": "qemu-kvm is earlier than 15:2.12.0-88.module+el8.1.0+5708+85d8e057.3"
                          },
                          {
                            "Comment": "qemu-kvm is signed with Red Hat redhatrelease2 key"
                          }
                        ]
                      },
                      {
                        "Operator": "AND",
                        "Criterias": [

                        ],
                        "Criterions": [
                          {
                            "Comment": "qemu-kvm-block-curl is earlier than 15:2.12.0-88.module+el8.1.0+5708+85d8e057.3"
                          },
                          {
                            "Comment": "qemu-kvm-block-curl is signed with Red Hat redhatrelease2 key"
                          }
                        ]
                      },
                      {
                        "Operator": "AND",
                        "Criterias": [

                        ],
                        "Criterions": [
                          {
                            "Comment": "qemu-kvm-block-gluster is earlier than 15:2.12.0-88.module+el8.1.0+5708+85d8e057.3"
                          },
                          {
                            "Comment": "qemu-kvm-block-gluster is signed with Red Hat redhatrelease2 key"
                          }
                        ]
                      },
                      {
                        "Operator": "AND",
                        "Criterias": [

                        ],
                        "Criterions": [
                          {
                            "Comment": "qemu-kvm-block-iscsi is earlier than 15:2.12.0-88.module+el8.1.0+5708+85d8e057.3"
                          },
                          {
                            "Comment": "qemu-kvm-block-iscsi is signed with Red Hat redhatrelease2 key"
                          }
                        ]
                      },
                      {
                        "Operator": "AND",
                        "Criterias": [

                        ],
                        "Criterions": [
                          {
                            "Comment": "qemu-kvm-block-rbd is earlier than 15:2.12.0-88.module+el8.1.0+5708+85d8e057.3"
                          },
                          {
                            "Comment": "qemu-kvm-block-rbd is signed with Red Hat redhatrelease2 key"
                          }
                        ]
                      },
                      {
                        "Operator": "AND",
                        "Criterias": [

                        ],
                        "Criterions": [
                          {
                            "Comment": "qemu-kvm-block-ssh is earlier than 15:2.12.0-88.module+el8.1.0+5708+85d8e057.3"
                          },
                          {
                            "Comment": "qemu-kvm-block-ssh is signed with Red Hat redhatrelease2 key"
                          }
                        ]
                      },
                      {
                        "Operator": "AND",
                        "Criterias": [

                        ],
                        "Criterions": [
                          {
                            "Comment": "qemu-kvm-common is earlier than 15:2.12.0-88.module+el8.1.0+5708+85d8e057.3"
                          },
                          {
                            "Comment": "qemu-kvm-common is signed with Red Hat redhatrelease2 key"
                          }
                        ]
                      },
                      {
                        "Operator": "AND",
                        "Criterias": [

                        ],
                        "Criterions": [
                          {
                            "Comment": "qemu-kvm-core is earlier than 15:2.12.0-88.module+el8.1.0+5708+85d8e057.3"
                          },
                          {
                            "Comment": "qemu-kvm-core is signed with Red Hat redhatrelease2 key"
                          }
                        ]
                      },
                      {
                        "Operator": "AND",
                        "Criterias": [

                        ],
                        "Criterions": [
                          {
                            "Comment": "ruby-hivex is earlier than 0:1.3.15-7.module+el8.1.0+4066+0f1aadab"
                          },
                          {
                            "Comment": "ruby-hivex is signed with Red Hat redhatrelease2 key"
                          }
                        ]
                      },
                      {
                        "Operator": "AND",
                        "Criterias": [

                        ],
                        "Criterions": [
                          {
                            "Comment": "ruby-libguestfs is earlier than 1:1.38.4-14.module+el8.1.0+4066+0f1aadab"
                          },
                          {
                            "Comment": "ruby-libguestfs is signed with Red Hat redhatrelease2 key"
                          }
                        ]
                      },
                      {
                        "Operator": "AND",
                        "Criterias": [

                        ],
                        "Criterions": [
                          {
                            "Comment": "seabios is earlier than 0:1.11.1-4.module+el8.1.0+4066+0f1aadab"
                          },
                          {
                            "Comment": "seabios is signed with Red Hat redhatrelease2 key"
                          }
                        ]
                      },
                      {
                        "Operator": "AND",
                        "Criterias": [

                        ],
                        "Criterions": [
                          {
                            "Comment": "seabios-bin is earlier than 0:1.11.1-4.module+el8.1.0+4066+0f1aadab"
                          },
                          {
                            "Comment": "seabios-bin is signed with Red Hat redhatrelease2 key"
                          }
                        ]
                      },
                      {
                        "Operator": "AND",
                        "Criterias": [

                        ],
                        "Criterions": [
                          {
                            "Comment": "seavgabios-bin is earlier than 0:1.11.1-4.module+el8.1.0+4066+0f1aadab"
                          },
                          {
                            "Comment": "seavgabios-bin is signed with Red Hat redhatrelease2 key"
                          }
                        ]
                      },
                      {
                        "Operator": "AND",
                        "Criterias": [

                        ],
                        "Criterions": [
                          {
                            "Comment": "sgabios is earlier than 1:0.20170427git-3.module+el8.1.0+4066+0f1aadab"
                          },
                          {
                            "Comment": "sgabios is signed with Red Hat redhatrelease2 key"
                          }
                        ]
                      },
                      {
                        "Operator": "AND",
                        "Criterias": [

                        ],
                        "Criterions": [
                          {
                            "Comment": "sgabios-bin is earlier than 1:0.20170427git-3.module+el8.1.0+4066+0f1aadab"
                          },
                          {
                            "Comment": "sgabios-bin is signed with Red Hat redhatrelease2 key"
                          }
                        ]
                      },
                      {
                        "Operator": "AND",
                        "Criterias": [

                        ],
                        "Criterions": [
                          {
                            "Comment": "supermin is earlier than 0:5.1.19-9.module+el8.1.0+4066+0f1aadab"
                          },
                          {
                            "Comment": "supermin is signed with Red Hat redhatrelease2 key"
                          }
                        ]
                      },
                      {
                        "Operator": "AND",
                        "Criterias": [

                        ],
                        "Criterions": [
                          {
                            "Comment": "supermin-devel is earlier than 0:5.1.19-9.module+el8.1.0+4066+0f1aadab"
                          },
                          {
                            "Comment": "supermin-devel is signed with Red Hat redhatrelease2 key"
                          }
                        ]
                      },
                      {
                        "Operator": "AND",
                        "Criterias": [

                        ],
                        "Criterions": [
                          {
                            "Comment": "virt-dib is earlier than 1:1.38.4-14.module+el8.1.0+4066+0f1aadab"
                          },
                          {
                            "Comment": "virt-dib is signed with Red Hat redhatrelease2 key"
                          }
                        ]
                      },
                      {
                        "Operator": "AND",
                        "Criterias": [

                        ],
                        "Criterions": [
                          {
                            "Comment": "virt-p2v-maker is earlier than 1:1.38.4-14.module+el8.1.0+4066+0f1aadab"
                          },
                          {
                            "Comment": "virt-p2v-maker is signed with Red Hat redhatrelease2 key"
                          }
                        ]
                      },
                      {
                        "Operator": "AND",
                        "Criterias": [

                        ],
                        "Criterions": [
                          {
                            "Comment": "virt-v2v is earlier than 1:1.38.4-14.module+el8.1.0+4066+0f1aadab"
                          },
                          {
                            "Comment": "virt-v2v is signed with Red Hat redhatrelease2 key"
                          }
                        ]
                      }
                    ],
                    "Criterions": [

                    ]
                  }
                ],
                "Criterions": [
                  {
                    "Comment": "Module virt:rhel is enabled"
                  }
                ]
              },
              {
                "Operator": "AND",
                "Criterias": [
                  {
                    "Operator": "OR",
                    "Criterias": [
                      {
                        "Operator": "AND",
                        "Criterias": [

                        ],
                        "Criterions": [
                          {
                            "Comment": "hivex is earlier than 0:1.3.15-7.module+el8.1.0+4066+0f1aadab"
                          },
                          {
                            "Comment": "hivex is signed with Red Hat redhatrelease2 key"
                          }
                        ]
                      },
                      {
                        "Operator": "AND",
                        "Criterias": [

                        ],
                        "Criterions": [
                          {
                            "Comment": "hivex-devel is earlier than 0:1.3.15-7.module+el8.1.0+4066+0f1aadab"
                          },
                          {
                            "Comment": "hivex-devel is signed with Red Hat redhatrelease2 key"
                          }
                        ]
                      },
                      {
                        "Operator": "AND",
                        "Criterias": [

                        ],
                        "Criterions": [
                          {
                            "Comment": "libguestfs-winsupport is earlier than 0:8.0-4.module+el8.1.0+4066+0f1aadab"
                          },
                          {
                            "Comment": "libguestfs-winsupport is signed with Red Hat redhatrelease2 key"
                          }
                        ]
                      },
                      {
                        "Operator": "AND",
                        "Criterias": [

                        ],
                        "Criterions": [
                          {
                            "Comment": "libiscsi is earlier than 0:1.18.0-8.module+el8.1.0+4066+0f1aadab"
                          },
                          {
                            "Comment": "libiscsi is signed with Red Hat redhatrelease2 key"
                          }
                        ]
                      },
                      {
                        "Operator": "AND",
                        "Criterias": [

                        ],
                        "Criterions": [
                          {
                            "Comment": "libiscsi-devel is earlier than 0:1.18.0-8.module+el8.1.0+4066+0f1aadab"
                          },
                          {
                            "Comment": "libiscsi-devel is signed with Red Hat redhatrelease2 key"
                          }
                        ]
                      },
                      {
                        "Operator": "AND",
                        "Criterias": [

                        ],
                        "Criterions": [
                          {
                            "Comment": "libiscsi-utils is earlier than 0:1.18.0-8.module+el8.1.0+4066+0f1aadab"
                          },
                          {
                            "Comment": "libiscsi-utils is signed with Red Hat redhatrelease2 key"
                          }
                        ]
                      },
                      {
                        "Operator": "AND",
                        "Criterias": [

                        ],
                        "Criterions": [
                          {
                            "Comment": "libvirt is earlier than 0:4.5.0-35.3.module+el8.1.0+5931+8897e7e1"
                          },
                          {
                            "Comment": "libvirt is signed with Red Hat redhatrelease2 key"
                          }
                        ]
                      },
                      {
                        "Operator": "AND",
                        "Criterias": [

                        ],
                        "Criterions": [
                          {
                            "Comment": "libvirt-admin is earlier than 0:4.5.0-35.3.module+el8.1.0+5931+8897e7e1"
                          },
                          {
                            "Comment": "libvirt-admin is signed with Red Hat redhatrelease2 key"
                          }
                        ]
                      },
                      {
                        "Operator": "AND",
                        "Criterias": [

                        ],
                        "Criterions": [
                          {
                            "Comment": "libvirt-bash-completion is earlier than 0:4.5.0-35.3.module+el8.1.0+5931+8897e7e1"
                          },
                          {
                            "Comment": "libvirt-bash-completion is signed with Red Hat redhatrelease2 key"
                          }
                        ]
                      },
                      {
                        "Operator": "AND",
                        "Criterias": [

                        ],
                        "Criterions": [
                          {
                            "Comment": "libvirt-client is earlier than 0:4.5.0-35.3.module+el8.1.0+5931+8897e7e1"
                          },
                          {
                            "Comment": "libvirt-client is signed with Red Hat redhatrelease2 key"
                          }
                        ]
                      },
                      {
                        "Operator": "AND",
                        "Criterias": [

                        ],
                        "Criterions": [
                          {
                            "Comment": "libvirt-daemon is earlier than 0:4.5.0-35.3.module+el8.1.0+5931+8897e7e1"
                          },
                          {
                            "Comment": "libvirt-daemon is signed with Red Hat redhatrelease2 key"
                          }
                        ]
                      },
                      {
                        "Operator": "AND",
                        "Criterias": [

                        ],
                        "Criterions": [
                          {
                            "Comment": "libvirt-daemon-config-network is earlier than 0:4.5.0-35.3.module+el8.1.0+5931+8897e7e1"
                          },
                          {
                            "Comment": "libvirt-daemon-config-network is signed with Red Hat redhatrelease2 key"
                          }
                        ]
                      },
                      {
                        "Operator": "AND",
                        "Criterias": [

                        ],
                        "Criterions": [
                          {
                            "Comment": "libvirt-daemon-config-nwfilter is earlier than 0:4.5.0-35.3.module+el8.1.0+5931+8897e7e1"
                          },
                          {
                            "Comment": "libvirt-daemon-config-nwfilter is signed with Red Hat redhatrelease2 key"
                          }
                        ]
                      },
                      {
                        "Operator": "AND",
                        "Criterias": [

                        ],
                        "Criterions": [
                          {
                            "Comment": "libvirt-daemon-driver-interface is earlier than 0:4.5.0-35.3.module+el8.1.0+5931+8897e7e1"
                          },
                          {
                            "Comment": "libvirt-daemon-driver-interface is signed with Red Hat redhatrelease2 key"
                          }
                        ]
                      },
                      {
                        "Operator": "AND",
                        "Criterias": [

                        ],
                        "Criterions": [
                          {
                            "Comment": "libvirt-daemon-driver-network is earlier than 0:4.5.0-35.3.module+el8.1.0+5931+8897e7e1"
                          },
                          {
                            "Comment": "libvirt-daemon-driver-network is signed with Red Hat redhatrelease2 key"
                          }
                        ]
                      },
                      {
                        "Operator": "AND",
                        "Criterias": [

                        ],
                        "Criterions": [
                          {
                            "Comment": "libvirt-daemon-driver-nodedev is earlier than 0:4.5.0-35.3.module+el8.1.0+5931+8897e7e1"
                          },
                          {
                            "Comment": "libvirt-daemon-driver-nodedev is signed with Red Hat redhatrelease2 key"
                          }
                        ]
                      },
                      {
                        "Operator": "AND",
                        "Criterias": [

                        ],
                        "Criterions": [
                          {
                            "Comment": "libvirt-daemon-driver-nwfilter is earlier than 0:4.5.0-35.3.module+el8.1.0+5931+8897e7e1"
                          },
                          {
                            "Comment": "libvirt-daemon-driver-nwfilter is signed with Red Hat redhatrelease2 key"
                          }
                        ]
                      },
                      {
                        "Operator": "AND",
                        "Criterias": [

                        ],
                        "Criterions": [
                          {
                            "Comment": "libvirt-daemon-driver-secret is earlier than 0:4.5.0-35.3.module+el8.1.0+5931+8897e7e1"
                          },
                          {
                            "Comment": "libvirt-daemon-driver-secret is signed with Red Hat redhatrelease2 key"
                          }
                        ]
                      },
                      {
                        "Operator": "AND",
                        "Criterias": [

                        ],
                        "Criterions": [
                          {
                            "Comment": "libvirt-daemon-driver-storage is earlier than 0:4.5.0-35.3.module+el8.1.0+5931+8897e7e1"
                          },
                          {
                            "Comment": "libvirt-daemon-driver-storage is signed with Red Hat redhatrelease2 key"
                          }
                        ]
                      },
                      {
                        "Operator": "AND",
                        "Criterias": [

                        ],
                        "Criterions": [
                          {
                            "Comment": "libvirt-daemon-driver-storage-core is earlier than 0:4.5.0-35.3.module+el8.1.0+5931+8897e7e1"
                          },
                          {
                            "Comment": "libvirt-daemon-driver-storage-core is signed with Red Hat redhatrelease2 key"
                          }
                        ]
                      },
                      {
                        "Operator": "AND",
                        "Criterias": [

                        ],
                        "Criterions": [
                          {
                            "Comment": "libvirt-daemon-driver-storage-disk is earlier than 0:4.5.0-35.3.module+el8.1.0+5931+8897e7e1"
                          },
                          {
                            "Comment": "libvirt-daemon-driver-storage-disk is signed with Red Hat redhatrelease2 key"
                          }
                        ]
                      },
                      {
                        "Operator": "AND",
                        "Criterias": [

                        ],
                        "Criterions": [
                          {
                            "Comment": "libvirt-daemon-driver-storage-iscsi is earlier than 0:4.5.0-35.3.module+el8.1.0+5931+8897e7e1"
                          },
                          {
                            "Comment": "libvirt-daemon-driver-storage-iscsi is signed with Red Hat redhatrelease2 key"
                          }
                        ]
                      },
                      {
                        "Operator": "AND",
                        "Criterias": [

                        ],
                        "Criterions": [
                          {
                            "Comment": "libvirt-daemon-driver-storage-logical is earlier than 0:4.5.0-35.3.module+el8.1.0+5931+8897e7e1"
                          },
                          {
                            "Comment": "libvirt-daemon-driver-storage-logical is signed with Red Hat redhatrelease2 key"
                          }
                        ]
                      },
                      {
                        "Operator": "AND",
                        "Criterias": [

                        ],
                        "Criterions": [
                          {
                            "Comment": "libvirt-daemon-driver-storage-mpath is earlier than 0:4.5.0-35.3.module+el8.1.0+5931+8897e7e1"
                          },
                          {
                            "Comment": "libvirt-daemon-driver-storage-mpath is signed with Red Hat redhatrelease2 key"
                          }
                        ]
                      },
                      {
                        "Operator": "AND",
                        "Criterias": [

                        ],
                        "Criterions": [
                          {
                            "Comment": "libvirt-daemon-driver-storage-rbd is earlier than 0:4.5.0-35.3.module+el8.1.0+5931+8897e7e1"
                          },
                          {
                            "Comment": "libvirt-daemon-driver-storage-rbd is signed with Red Hat redhatrelease2 key"
                          }
                        ]
                      },
                      {
                        "Operator": "AND",
                        "Criterias": [

                        ],
                        "Criterions": [
                          {
                            "Comment": "libvirt-daemon-driver-storage-scsi is earlier than 0:4.5.0-35.3.module+el8.1.0+5931+8897e7e1"
                          },
                          {
                            "Comment": "libvirt-daemon-driver-storage-scsi is signed with Red Hat redhatrelease2 key"
                          }
                        ]
                      },
                      {
                        "Operator": "AND",
                        "Criterias": [

                        ],
                        "Criterions": [
                          {
                            "Comment": "libvirt-dbus is earlier than 0:1.2.0-3.module+el8.1.0+4066+0f1aadab"
                          },
                          {
                            "Comment": "libvirt-dbus is signed with Red Hat redhatrelease2 key"
                          }
                        ]
                      },
                      {
                        "Operator": "AND",
                        "Criterias": [

                        ],
                        "Criterions": [
                          {
                            "Comment": "libvirt-devel is earlier than 0:4.5.0-35.3.module+el8.1.0+5931+8897e7e1"
                          },
                          {
                            "Comment": "libvirt-devel is signed with Red Hat redhatrelease2 key"
                          }
                        ]
                      },
                      {
                        "Operator": "AND",
                        "Criterias": [

                        ],
                        "Criterions": [
                          {
                            "Comment": "libvirt-docs is earlier than 0:4.5.0-35.3.module+el8.1.0+5931+8897e7e1"
                          },
                          {
                            "Comment": "libvirt-docs is signed with Red Hat redhatrelease2 key"
                          }
                        ]
                      },
                      {
                        "Operator": "AND",
                        "Criterias": [

                        ],
                        "Criterions": [
                          {
                            "Comment": "libvirt-libs is earlier than 0:4.5.0-35.3.module+el8.1.0+5931+8897e7e1"
                          },
                          {
                            "Comment": "libvirt-libs is signed with Red Hat redhatrelease2 key"
                          }
                        ]
                      },
                      {
                        "Operator": "AND",
                        "Criterias": [

                        ],
                        "Criterions": [
                          {
                            "Comment": "libvirt-nss is earlier than 0:4.5.0-35.3.module+el8.1.0+5931+8897e7e1"
                          },
                          {
                            "Comment": "libvirt-nss is signed with Red Hat redhatrelease2 key"
                          }
                        ]
                      },
                      {
                        "Operator": "AND",
                        "Criterias": [

                        ],
                        "Criterions": [
                          {
                            "Comment": "netcf is earlier than 0:0.2.8-12.module+el8.1.0+4066+0f1aadab"
                          },
                          {
                            "Comment": "netcf is signed with Red Hat redhatrelease2 key"
                          }
                        ]
                      },
                      {
                        "Operator": "AND",
                        "Criterias": [

                        ],
                        "Criterions": [
                          {
                            "Comment": "netcf-devel is earlier than 0:0.2.8-12.module+el8.1.0+4066+0f1aadab"
                          },
                          {
                            "Comment": "netcf-devel is signed with Red Hat redhatrelease2 key"
                          }
                        ]
                      },
                      {
                        "Operator": "AND",
                        "Criterias": [

                        ],
                        "Criterions": [
                          {
                            "Comment": "netcf-libs is earlier than 0:0.2.8-12.module+el8.1.0+4066+0f1aadab"
                          },
                          {
                            "Comment": "netcf-libs is signed with Red Hat redhatrelease2 key"
                          }
                        ]
                      },
                      {
                        "Operator": "AND",
                        "Criterias": [

                        ],
                        "Criterions": [
                          {
                            "Comment": "ocaml-hivex is earlier than 0:1.3.15-7.module+el8.1.0+4066+0f1aadab"
                          },
                          {
                            "Comment": "ocaml-hivex is signed with Red Hat redhatrelease2 key"
                          }
                        ]
                      },
                      {
                        "Operator": "AND",
                        "Criterias": [

                        ],
                        "Criterions": [
                          {
                            "Comment": "ocaml-hivex-devel is earlier than 0:1.3.15-7.module+el8.1.0+4066+0f1aadab"
                          },
                          {
                            "Comment": "ocaml-hivex-devel is signed with Red Hat redhatrelease2 key"
                          }
                        ]
                      },
                      {
                        "Operator": "AND",
                        "Criterias": [

                        ],
                        "Criterions": [
                          {
                            "Comment": "ocaml-libguestfs is earlier than 1:1.38.4-14.module+el8.1.0+4066+0f1aadab"
                          },
                          {
                            "Comment": "ocaml-libguestfs is signed with Red Hat redhatrelease2 key"
                          }
                        ]
                      },
                      {
                        "Operator": "AND",
                        "Criterias": [

                        ],
                        "Criterions": [
                          {
                            "Comment": "ocaml-libguestfs-devel is earlier than 1:1.38.4-14.module+el8.1.0+4066+0f1aadab"
                          },
                          {
                            "Comment": "ocaml-libguestfs-devel is signed with Red Hat redhatrelease2 key"
                          }
                        ]
                      },
                      {
                        "Operator": "AND",
                        "Criterias": [

                        ],
                        "Criterions": [
                          {
                            "Comment": "perl-Sys-Virt is earlier than 0:4.5.0-5.module+el8.1.0+4066+0f1aadab"
                          },
                          {
                            "Comment": "perl-Sys-Virt is signed with Red Hat redhatrelease2 key"
                          }
                        ]
                      },
                      {
                        "Operator": "AND",
                        "Criterias": [

                        ],
                        "Criterions": [
                          {
                            "Comment": "perl-hivex is earlier than 0:1.3.15-7.module+el8.1.0+4066+0f1aadab"
                          },
                          {
                            "Comment": "perl-hivex is signed with Red Hat redhatrelease2 key"
                          }
                        ]
                      },
                      {
                        "Operator": "AND",
                        "Criterias": [

                        ],
                        "Criterions": [
                          {
                            "Comment": "python3-hivex is earlier than 0:1.3.15-7.module+el8.1.0+4066+0f1aadab"
                          },
                          {
                            "Comment": "python3-hivex is signed with Red Hat redhatrelease2 key"
                          }
                        ]
                      },
                      {
                        "Operator": "AND",
                        "Criterias": [

                        ],
                        "Criterions": [
                          {
                            "Comment": "python3-libvirt is earlier than 0:4.5.0-2.module+el8.1.0+4066+0f1aadab"
                          },
                          {
                            "Comment": "python3-libvirt is signed with Red Hat redhatrelease2 key"
                          }
                        ]
                      },
                      {
                        "Operator": "AND",
                        "Criterias": [

                        ],
                        "Criterions": [
                          {
                            "Comment": "qemu-kvm-tests is earlier than 15:2.12.0-88.module+el8.1.0+5708+85d8e057.3"
                          },
                          {
                            "Comment": "qemu-kvm-tests is signed with Red Hat redhatrelease2 key"
                          }
                        ]
                      },
                      {
                        "Operator": "AND",
                        "Criterias": [

                        ],
                        "Criterions": [
                          {
                            "Comment": "ruby-hivex is earlier than 0:1.3.15-7.module+el8.1.0+4066+0f1aadab"
                          },
                          {
                            "Comment": "ruby-hivex is signed with Red Hat redhatrelease2 key"
                          }
                        ]
                      },
                      {
                        "Operator": "AND",
                        "Criterias": [

                        ],
                        "Criterions": [
                          {
                            "Comment": "sgabios is earlier than 1:0.20170427git-3.module+el8.1.0+4066+0f1aadab"
                          },
                          {
                            "Comment": "sgabios is signed with Red Hat redhatrelease2 key"
                          }
                        ]
                      }
                    ],
                    "Criterions": [

                    ]
                  }
                ],
                "Criterions": [
                  {
                    "Comment": "Module virt-devel:rhel is enabled"
                  }
                ]
              }
            ],
            "Criterions": [

            ]
          }
        ],
        "Criterions": [

        ]
      }
    ],
    "Criterions": [
      {
        "Comment": "Oracle Linux 8 is installed"
      }
    ]
  },
  "Severity": "Important",
  "Cves": [
    {
      "Impact": "",
      "Href": "",
      "ID": "CVE-2020-1711"
    },
    {
      "Impact": "",
      "Href": "",
      "ID": "CVE-2020-7039"
    }
  ],
  "Issued": {
    "Date": "2020-04-07"
  }
}