{
  "Title": "RHSA-2020:2082: kernel security and bug fix update (Important)",
  "Description": "The kernel packages contain the Linux kernel, the core of any Linux operating system.\nSecurity Fix(es):\n* kernel: double free may be caused by the function allocate_trace_buffer in the file kernel/trace/trace.c (CVE-2017-18595)\n* kernel: use-after-free in __blk_add_trace in kernel/trace/blktrace.c (CVE-2019-19768)\n* Kernel: NetLabel: null pointer dereference while receiving CIPSO packet with null category may cause kernel panic (CVE-2020-10711)\nFor more details about the security issue(s), including the impact, a CVSS score, acknowledgments, and other related information, refer to the CVE page(s) listed in the References section.\nBug Fix(es):\n* Delay in RT task scheduled. Incorrect nr_scheduled value. (BZ#1796262)\n* ixgbevf interface goes down on hypervisor and causes outage (BZ#1796799)\n* kernel: UAF in cdev_put() when a PTP device is removed while its chardev is open (BZ#1798396)\n* [HPEMC RHEL 7.7 RHEL 7.8 REGRESSION]  kernel not populating numa_nod in /sys/devices... for PMEM (BZ#1801699)\n* Unable to exclude files from auditing (BZ#1806430)\n* DNAT'd packet is not unmangled upon reply on openshift node (BZ#1806447)\n* top shows super high loads when tuned profile realtime-virtual-host is applied (BZ#1808030)\n* [RHEL 7.9] mdraid devices do not autocorrect read errors on parity blocks (BZ#1810062)\n* Observed a memory leak while using dm-multipath (BZ#1812937)\n* RHEL7.8: megaraid_sas: MSIx allocation fails in resume path (BZ#1813249)\n* Backport: Guest microcode version mismatch on secondary processors (BZ#1814003)\n* dm-multipath high load backport incorrect (BZ#1814537)\n* qla2xxx: Urgent driver fix needed. Initiator does not relogin to target after receiving an explicit logout (BZ#1815596)\n* Potential deadlock in iscsi_if_rx func (BZ#1817497)\n* High iSCSI read latency resolved by 'tcp: implement coalescing on backlog queue' (BZ#1817499)\n* kdump: crashkernel=xM,low is likely to fail when x is big enough (BZ#1817502)\n* [RHEL7.8][Azure]Commits to resolve high network latency (BZ#1817935)\n* net_sched: remove a bogus warning in hfsc (BZ#1821262)\n* NETDEV WATCHDOG: enp3s0 (r8169): transmit queue 0 timed out (BZ#1822548)\n* BUG: unable to handle kernel NULL pointer dereference at fl_dump (BZ#1824548)\n* [ Marvell 7.9] update qla2xxx driver with critical bug fixes (BZ#1827274)",
  "Platform": [
    "Red Hat Enterprise Linux 7"
  ],
  "References": [
    {
      "Source": "RHSA",
      "URI": "https://access.redhat.com/errata/RHSA-2020:2082",
      "ID": "RHSA-2020:2082"
    },
    {
      "Source": "CVE",
      "URI": "https://access.redhat.com/security/cve/CVE-2017-18595",
      "ID": "CVE-2017-18595"
    },
    {
      "Source": "CVE",
      "URI": "https://access.redhat.com/security/cve/CVE-2019-19768",
      "ID": "CVE-2019-19768"
    },
    {
      "Source": "CVE",
      "URI": "https://access.redhat.com/security/cve/CVE-2020-10711",
      "ID": "CVE-2020-10711"
    }
  ],
  "Criteria": {
    "Operator": "OR",
    "Criterias": [
      {
        "Operator": "AND",
        "Criterias": [
          {
            "Operator": "OR",
            "Criterias": [

            ],
            "Criterions": [
              {
                "Comment": "kernel earlier than 0:3.10.0-1127.8.2.el7 is currently running"
              },
              {
                "Comment": "kernel earlier than 0:3.10.0-1127.8.2.el7 is set to boot up on next boot"
              }
            ]
          },
          {
            "Operator": "OR",
            "Criterias": [
              {
                "Operator": "AND",
                "Criterias": [

                ],
                "Criterions": [
                  {
                    "Comment": "bpftool is earlier than 0:3.10.0-1127.8.2.el7"
                  },
                  {
                    "Comment": "bpftool is signed with Red Hat redhatrelease2 key"
                  }
                ]
              },
              {
                "Operator": "AND",
                "Criterias": [

                ],
                "Criterions": [
                  {
                    "Comment": "kernel is earlier than 0:3.10.0-1127.8.2.el7"
                  },
                  {
                    "Comment": "kernel is signed with Red Hat redhatrelease2 key"
                  }
                ]
              },
              {
                "Operator": "AND",
                "Criterias": [

                ],
                "Criterions": [
                  {
                    "Comment": "kernel-abi-whitelists is earlier than 0:3.10.0-1127.8.2.el7"
                  },
                  {
                    "Comment": "kernel-abi-whitelists is signed with Red Hat redhatrelease2 key"
                  }
                ]
              },
              {
                "Operator": "AND",
                "Criterias": [

                ],
                "Criterions": [
                  {
                    "Comment": "kernel-bootwrapper is earlier than 0:3.10.0-1127.8.2.el7"
                  },
                  {
                    "Comment": "kernel-bootwrapper is signed with Red Hat redhatrelease2 key"
                  }
                ]
              },
              {
                "Operator": "AND",
                "Criterias": [

                ],
                "Criterions": [
                  {
                    "Comment": "kernel-debug is earlier than 0:3.10.0-1127.8.2.el7"
                  },
                  {
                    "Comment": "kernel-debug is signed with Red Hat redhatrelease2 key"
                  }
                ]
              },
              {
                "Operator": "AND",
                "Criterias": [

                ],
                "Criterions": [
                  {
                    "Comment": "kernel-debug-devel is earlier than 0:3.10.0-1127.8.2.el7"
                  },
                  {
                    "Comment": "kernel-debug-devel is signed with Red Hat redhatrelease2 key"
                  }
                ]
              },
              {
                "Operator": "AND",
                "Criterias": [

                ],
                "Criterions": [
                  {
                    "Comment": "kernel-devel is earlier than 0:3.10.0-1127.8.2.el7"
                  },
                  {
                    "Comment": "kernel-devel is signed with Red Hat redhatrelease2 key"
                  }
                ]
              },
              {
                "Operator": "AND",
                "Criterias": [

                ],
                "Criterions": [
                  {
                    "Comment": "kernel-doc is earlier than 0:3.10.0-1127.8.2.el7"
                  },
                  {
                    "Comment": "kernel-doc is signed with Red Hat redhatrelease2 key"
                  }
                ]
              },
              {
                "Operator": "AND",
                "Criterias": [

                ],
                "Criterions": [
                  {
                    "Comment": "kernel-headers is earlier than 0:3.10.0-1127.8.2.el7"
                  },
                  {
                    "Comment": "kernel-headers is signed with Red Hat redhatrelease2 key"
                  }
                ]
              },
              {
                "Operator": "AND",
                "Criterias": [

                ],
                "Criterions": [
                  {
                    "Comment": "kernel-kdump is earlier than 0:3.10.0-1127.8.2.el7"
                  },
                  {
                    "Comment": "kernel-kdump is signed with Red Hat redhatrelease2 key"
                  }
                ]
              },
              {
                "Operator": "AND",
                "Criterias": [

                ],
                "Criterions": [
                  {
                    "Comment": "kernel-kdump-devel is earlier than 0:3.10.0-1127.8.2.el7"
                  },
                  {
                    "Comment": "kernel-kdump-devel is signed with Red Hat redhatrelease2 key"
                  }
                ]
              },
              {
                "Operator": "AND",
                "Criterias": [

                ],
                "Criterions": [
                  {
                    "Comment": "kernel-tools is earlier than 0:3.10.0-1127.8.2.el7"
                  },
                  {
                    "Comment": "kernel-tools is signed with Red Hat redhatrelease2 key"
                  }
                ]
              },
              {
                "Operator": "AND",
                "Criterias": [

                ],
                "Criterions": [
                  {
                    "Comment": "kernel-tools-libs is earlier than 0:3.10.0-1127.8.2.el7"
                  },
                  {
                    "Comment": "kernel-tools-libs is signed with Red Hat redhatrelease2 key"
                  }
                ]
              },
              {
                "Operator": "AND",
                "Criterias": [

                ],
                "Criterions": [
                  {
                    "Comment": "kernel-tools-libs-devel is earlier than 0:3.10.0-1127.8.2.el7"
                  },
                  {
                    "Comment": "kernel-tools-libs-devel is signed with Red Hat redhatrelease2 key"
                  }
                ]
              },
              {
                "Operator": "AND",
                "Criterias": [

                ],
                "Criterions": [
                  {
                    "Comment": "perf is earlier than 0:3.10.0-1127.8.2.el7"
                  },
                  {
                    "Comment": "perf is signed with Red Hat redhatrelease2 key"
                  }
                ]
              },
              {
                "Operator": "AND",
                "Criterias": [

                ],
                "Criterions": [
                  {
                    "Comment": "python-perf is earlier than 0:3.10.0-1127.8.2.el7"
                  },
                  {
                    "Comment": "python-perf is signed with Red Hat redhatrelease2 key"
                  }
                ]
              }
            ],
            "Criterions": [

            ]
          }
        ],
        "Criterions": [
          {
            "Comment": "Oracle Linux 7 is installed"
          }
        ]
      }
    ],
    "Criterions": [
      {
        "Comment": "Oracle Linux 7 is installed"
      }
    ]
  },
  "Severity": "Important",
  "Cves": [
    {
      "Impact": "",
      "Href": "",
      "ID": "CVE-2017-18595"
    },
    {
      "Impact": "",
      "Href": "",
      "ID": "CVE-2019-19768"
    },
    {
      "Impact": "",
      "Href": "",
      "ID": "CVE-2020-10711"
    }
  ],
  "Issued": {
    "Date": "2020-05-12"
  }
}