{
  "Title": "RHSA-2020:3966: fontforge security update (Moderate)",
  "Description": "FontForge is a font editor for outline and bitmap fonts. It supports a range of font formats, including PostScript (ASCII and binary Type 1, some Type 3 and Type 0), TrueType, OpenType (Type2) and CID-keyed fonts. \nSecurity Fix(es):\n* fontforge: out-of-bounds write in SFD_GetFontMetaData function in sfd.c (CVE-2020-5395)\nFor more details about the security issue(s), including the impact, a CVSS score, acknowledgments, and other related information, refer to the CVE page(s) listed in the References section.\nAdditional Changes:\nFor detailed information on changes in this release, see the Red Hat Enterprise Linux 7.9 Release Notes linked from the References section.",
  "Platform": [
    "Red Hat Enterprise Linux 7"
  ],
  "References": [
    {
      "Source": "RHSA",
      "URI": "https://access.redhat.com/errata/RHSA-2020:3966",
      "ID": "RHSA-2020:3966"
    },
    {
      "Source": "CVE",
      "URI": "https://access.redhat.com/security/cve/CVE-2020-5395",
      "ID": "CVE-2020-5395"
    }
  ],
  "Criteria": {
    "Operator": "OR",
    "Criterias": [
      {
        "Operator": "AND",
        "Criterias": [
          {
            "Operator": "OR",
            "Criterias": [
              {
                "Operator": "AND",
                "Criterias": [

                ],
                "Criterions": [
                  {
                    "Comment": "fontforge is earlier than 0:20120731b-13.el7"
                  },
                  {
                    "Comment": "fontforge is signed with Red Hat redhatrelease2 key"
                  }
                ]
              },
              {
                "Operator": "AND",
                "Criterias": [

                ],
                "Criterions": [
                  {
                    "Comment": "fontforge-devel is earlier than 0:20120731b-13.el7"
                  },
                  {
                    "Comment": "fontforge-devel is signed with Red Hat redhatrelease2 key"
                  }
                ]
              }
            ],
            "Criterions": [

            ]
          }
        ],
        "Criterions": [
          {
            "Comment": "Oracle Linux 7 is installed"
          }
        ]
      }
    ],
    "Criterions": [
      {
        "Comment": "Oracle Linux 7 is installed"
      }
    ]
  },
  "Severity": "Moderate",
  "Cves": [
    {
      "Impact": "",
      "Href": "",
      "ID": "CVE-2020-5395"
    }
  ],
  "Issued": {
    "Date": "2020-09-29"
  }
}