{
  "Title": "RHSA-2020:1091: python-twisted-web security update (Moderate)",
  "Description": "Twisted is an event-based framework for internet applications. Twisted Web is a complete web server, aimed at hosting web applications using Twisted and Python, but fully able to serve static pages too.\nSecurity Fix(es):\n* python-twisted: Improper neutralization of CRLF characters in URIs and HTTP methods (CVE-2019-12387)\nFor more details about the security issue(s), including the impact, a CVSS score, acknowledgments, and other related information, refer to the CVE page(s) listed in the References section.\nAdditional Changes:\nFor detailed information on changes in this release, see the Red Hat Enterprise Linux 7.8 Release Notes linked from the References section.",
  "Platform": [
    "Red Hat Enterprise Linux 7"
  ],
  "References": [
    {
      "Source": "RHSA",
      "URI": "https://access.redhat.com/errata/RHSA-2020:1091",
      "ID": "RHSA-2020:1091"
    },
    {
      "Source": "CVE",
      "URI": "https://access.redhat.com/security/cve/CVE-2019-12387",
      "ID": "CVE-2019-12387"
    }
  ],
  "Criteria": {
    "Operator": "OR",
    "Criterias": [
      {
        "Operator": "AND",
        "Criterias": [

        ],
        "Criterions": [
          {
            "Comment": "Oracle Linux 7 is installed"
          },
          {
            "Comment": "python-twisted-web is earlier than 0:12.1.0-6.el7"
          },
          {
            "Comment": "python-twisted-web is signed with Red Hat redhatrelease2 key"
          }
        ]
      }
    ],
    "Criterions": [
      {
        "Comment": "Oracle Linux 7 is installed"
      }
    ]
  },
  "Severity": "Moderate",
  "Cves": [
    {
      "Impact": "",
      "Href": "",
      "ID": "CVE-2019-12387"
    }
  ],
  "Issued": {
    "Date": "2020-03-31"
  }
}