{
  "Title": "RHSA-2020:4539: pcre2 security and enhancement update (Moderate)",
  "Description": "The pcre2 package contains a new generation of the Perl Compatible Regular Expression libraries for implementing regular expression pattern matching using the same syntax and semantics as Perl. \nSecurity Fix(es):\n* pcre: Out of bounds read in JIT mode when \\X is used in non-UTF mode (CVE-2019-20454)\nFor more details about the security issue(s), including the impact, a CVSS score, acknowledgments, and other related information, refer to the CVE page(s) listed in the References section.\nAdditional Changes:\nFor detailed information on changes in this release, see the Red Hat Enterprise Linux 8.3 Release Notes linked from the References section.",
  "Platform": [
    "Red Hat Enterprise Linux 8"
  ],
  "References": [
    {
      "Source": "RHSA",
      "URI": "https://access.redhat.com/errata/RHSA-2020:4539",
      "ID": "RHSA-2020:4539"
    },
    {
      "Source": "CVE",
      "URI": "https://access.redhat.com/security/cve/CVE-2019-20454",
      "ID": "CVE-2019-20454"
    }
  ],
  "Criteria": {
    "Operator": "OR",
    "Criterias": [
      {
        "Operator": "AND",
        "Criterias": [
          {
            "Operator": "OR",
            "Criterias": [

            ],
            "Criterions": [
              {
                "Comment": "Oracle Linux 8 is installed"
              },
              {
                "Comment": "Red Hat CoreOS 4 is installed"
              }
            ]
          },
          {
            "Operator": "OR",
            "Criterias": [
              {
                "Operator": "AND",
                "Criterias": [

                ],
                "Criterions": [
                  {
                    "Comment": "pcre2 is earlier than 0:10.32-2.el8"
                  },
                  {
                    "Comment": "pcre2 is signed with Red Hat redhatrelease2 key"
                  }
                ]
              },
              {
                "Operator": "AND",
                "Criterias": [

                ],
                "Criterions": [
                  {
                    "Comment": "pcre2-devel is earlier than 0:10.32-2.el8"
                  },
                  {
                    "Comment": "pcre2-devel is signed with Red Hat redhatrelease2 key"
                  }
                ]
              },
              {
                "Operator": "AND",
                "Criterias": [

                ],
                "Criterions": [
                  {
                    "Comment": "pcre2-tools is earlier than 0:10.32-2.el8"
                  },
                  {
                    "Comment": "pcre2-tools is signed with Red Hat redhatrelease2 key"
                  }
                ]
              },
              {
                "Operator": "AND",
                "Criterias": [

                ],
                "Criterions": [
                  {
                    "Comment": "pcre2-utf16 is earlier than 0:10.32-2.el8"
                  },
                  {
                    "Comment": "pcre2-utf16 is signed with Red Hat redhatrelease2 key"
                  }
                ]
              },
              {
                "Operator": "AND",
                "Criterias": [

                ],
                "Criterions": [
                  {
                    "Comment": "pcre2-utf32 is earlier than 0:10.32-2.el8"
                  },
                  {
                    "Comment": "pcre2-utf32 is signed with Red Hat redhatrelease2 key"
                  }
                ]
              }
            ],
            "Criterions": [

            ]
          }
        ],
        "Criterions": [

        ]
      }
    ],
    "Criterions": [
      {
        "Comment": "Oracle Linux 8 is installed"
      }
    ]
  },
  "Severity": "Moderate",
  "Cves": [
    {
      "Impact": "",
      "Href": "",
      "ID": "CVE-2019-20454"
    }
  ],
  "Issued": {
    "Date": "2020-11-04"
  }
}