{
  "Title": "RHSA-2020:2897: jbig2dec security update (Important)",
  "Description": "jbig2dec is a decoder implementation of the JBIG2 image compression format. \nSecurity Fix(es):\n* jbig2dec: heap-based buffer overflow in jbig2_image_compose in jbig2_image.c (CVE-2020-12268)\nFor more details about the security issue(s), including the impact, a CVSS score, acknowledgments, and other related information, refer to the CVE page(s) listed in the References section.",
  "Platform": [
    "Red Hat Enterprise Linux 8"
  ],
  "References": [
    {
      "Source": "RHSA",
      "URI": "https://access.redhat.com/errata/RHSA-2020:2897",
      "ID": "RHSA-2020:2897"
    },
    {
      "Source": "CVE",
      "URI": "https://access.redhat.com/security/cve/CVE-2020-12268",
      "ID": "CVE-2020-12268"
    }
  ],
  "Criteria": {
    "Operator": "OR",
    "Criterias": [
      {
        "Operator": "AND",
        "Criterias": [
          {
            "Operator": "OR",
            "Criterias": [

            ],
            "Criterions": [
              {
                "Comment": "Oracle Linux 8 is installed"
              },
              {
                "Comment": "Red Hat CoreOS 4 is installed"
              }
            ]
          }
        ],
        "Criterions": [
          {
            "Comment": "jbig2dec-libs is earlier than 0:0.14-4.el8_2"
          },
          {
            "Comment": "jbig2dec-libs is signed with Red Hat redhatrelease2 key"
          }
        ]
      }
    ],
    "Criterions": [
      {
        "Comment": "Oracle Linux 8 is installed"
      }
    ]
  },
  "Severity": "Important",
  "Cves": [
    {
      "Impact": "",
      "Href": "",
      "ID": "CVE-2020-12268"
    }
  ],
  "Issued": {
    "Date": "2020-07-13"
  }
}