{
  "Title": "RHSA-2020:1081: net-snmp security and bug fix update (Moderate)",
  "Description": "The net-snmp packages provide various libraries and tools for the Simple Network Management Protocol (SNMP), including an SNMP library, an extensible agent, tools for requesting or setting information from SNMP agents, tools for generating and handling SNMP traps, a version of the netstat command which uses SNMP, and a Tk/Perl Management Information Base (MIB) browser.\nSecurity Fix(es):\n* net-snmp: NULL pointer exception in snmp_oid_compare in snmplib/snmp_api.c resulting in a denial of service (CVE-2018-18066)\nFor more details about the security issue(s), including the impact, a CVSS score, acknowledgments, and other related information, refer to the CVE page(s) listed in the References section.\nAdditional Changes:\nFor detailed information on changes in this release, see the Red Hat Enterprise Linux 7.8 Release Notes linked from the References section.",
  "Platform": [
    "Red Hat Enterprise Linux 7"
  ],
  "References": [
    {
      "Source": "RHSA",
      "URI": "https://access.redhat.com/errata/RHSA-2020:1081",
      "ID": "RHSA-2020:1081"
    },
    {
      "Source": "CVE",
      "URI": "https://access.redhat.com/security/cve/CVE-2018-18066",
      "ID": "CVE-2018-18066"
    }
  ],
  "Criteria": {
    "Operator": "OR",
    "Criterias": [
      {
        "Operator": "AND",
        "Criterias": [
          {
            "Operator": "OR",
            "Criterias": [
              {
                "Operator": "AND",
                "Criterias": [

                ],
                "Criterions": [
                  {
                    "Comment": "net-snmp is earlier than 1:5.7.2-47.el7"
                  },
                  {
                    "Comment": "net-snmp is signed with Red Hat redhatrelease2 key"
                  }
                ]
              },
              {
                "Operator": "AND",
                "Criterias": [

                ],
                "Criterions": [
                  {
                    "Comment": "net-snmp-agent-libs is earlier than 1:5.7.2-47.el7"
                  },
                  {
                    "Comment": "net-snmp-agent-libs is signed with Red Hat redhatrelease2 key"
                  }
                ]
              },
              {
                "Operator": "AND",
                "Criterias": [

                ],
                "Criterions": [
                  {
                    "Comment": "net-snmp-devel is earlier than 1:5.7.2-47.el7"
                  },
                  {
                    "Comment": "net-snmp-devel is signed with Red Hat redhatrelease2 key"
                  }
                ]
              },
              {
                "Operator": "AND",
                "Criterias": [

                ],
                "Criterions": [
                  {
                    "Comment": "net-snmp-gui is earlier than 1:5.7.2-47.el7"
                  },
                  {
                    "Comment": "net-snmp-gui is signed with Red Hat redhatrelease2 key"
                  }
                ]
              },
              {
                "Operator": "AND",
                "Criterias": [

                ],
                "Criterions": [
                  {
                    "Comment": "net-snmp-libs is earlier than 1:5.7.2-47.el7"
                  },
                  {
                    "Comment": "net-snmp-libs is signed with Red Hat redhatrelease2 key"
                  }
                ]
              },
              {
                "Operator": "AND",
                "Criterias": [

                ],
                "Criterions": [
                  {
                    "Comment": "net-snmp-perl is earlier than 1:5.7.2-47.el7"
                  },
                  {
                    "Comment": "net-snmp-perl is signed with Red Hat redhatrelease2 key"
                  }
                ]
              },
              {
                "Operator": "AND",
                "Criterias": [

                ],
                "Criterions": [
                  {
                    "Comment": "net-snmp-python is earlier than 1:5.7.2-47.el7"
                  },
                  {
                    "Comment": "net-snmp-python is signed with Red Hat redhatrelease2 key"
                  }
                ]
              },
              {
                "Operator": "AND",
                "Criterias": [

                ],
                "Criterions": [
                  {
                    "Comment": "net-snmp-sysvinit is earlier than 1:5.7.2-47.el7"
                  },
                  {
                    "Comment": "net-snmp-sysvinit is signed with Red Hat redhatrelease2 key"
                  }
                ]
              },
              {
                "Operator": "AND",
                "Criterias": [

                ],
                "Criterions": [
                  {
                    "Comment": "net-snmp-utils is earlier than 1:5.7.2-47.el7"
                  },
                  {
                    "Comment": "net-snmp-utils is signed with Red Hat redhatrelease2 key"
                  }
                ]
              }
            ],
            "Criterions": [

            ]
          }
        ],
        "Criterions": [
          {
            "Comment": "Oracle Linux 7 is installed"
          }
        ]
      }
    ],
    "Criterions": [
      {
        "Comment": "Oracle Linux 7 is installed"
      }
    ]
  },
  "Severity": "Moderate",
  "Cves": [
    {
      "Impact": "",
      "Href": "",
      "ID": "CVE-2018-18066"
    }
  ],
  "Issued": {
    "Date": "2020-03-31"
  }
}