{
  "Title": "RHSA-2020:1725: haproxy security, bug fix, and enhancement update (Moderate)",
  "Description": "The haproxy packages provide a reliable, high-performance network load balancer for TCP and HTTP-based applications.\nThe following packages have been upgraded to a later upstream version: haproxy (1.8.23). (BZ#1774745)\nSecurity Fix(es):\n* haproxy: HTTP request smuggling issue with transfer-encoding header containing an obfuscated \"chunked\" value (CVE-2019-18277)\n* haproxy: HTTP/2 implementation vulnerable to intermediary encapsulation attacks (CVE-2019-19330)\nFor more details about the security issue(s), including the impact, a CVSS score, acknowledgments, and other related information, refer to the CVE page(s) listed in the References section.\nAdditional Changes:\nFor detailed information on changes in this release, see the Red Hat Enterprise Linux 8.2 Release Notes linked from the References section.",
  "Platform": [
    "Red Hat Enterprise Linux 8"
  ],
  "References": [
    {
      "Source": "RHSA",
      "URI": "https://access.redhat.com/errata/RHSA-2020:1725",
      "ID": "RHSA-2020:1725"
    },
    {
      "Source": "CVE",
      "URI": "https://access.redhat.com/security/cve/CVE-2019-18277",
      "ID": "CVE-2019-18277"
    },
    {
      "Source": "CVE",
      "URI": "https://access.redhat.com/security/cve/CVE-2019-19330",
      "ID": "CVE-2019-19330"
    }
  ],
  "Criteria": {
    "Operator": "OR",
    "Criterias": [
      {
        "Operator": "AND",
        "Criterias": [
          {
            "Operator": "OR",
            "Criterias": [

            ],
            "Criterions": [
              {
                "Comment": "Oracle Linux 8 is installed"
              },
              {
                "Comment": "Red Hat CoreOS 4 is installed"
              }
            ]
          }
        ],
        "Criterions": [
          {
            "Comment": "haproxy is earlier than 0:1.8.23-3.el8"
          },
          {
            "Comment": "haproxy is signed with Red Hat redhatrelease2 key"
          }
        ]
      }
    ],
    "Criterions": [
      {
        "Comment": "Oracle Linux 8 is installed"
      }
    ]
  },
  "Severity": "Moderate",
  "Cves": [
    {
      "Impact": "",
      "Href": "",
      "ID": "CVE-2019-18277"
    },
    {
      "Impact": "",
      "Href": "",
      "ID": "CVE-2019-19330"
    }
  ],
  "Issued": {
    "Date": "2020-04-28"
  }
}