{
  "Title": "RHSA-2020:2143: .NET Core security update (Important)",
  "Description": ".NET Core is a managed-software framework. It implements a subset of the .NET framework APIs and several new APIs, and it includes a CLR implementation.\nA new version of .NET Core that addresses a security vulnerability is now available. The updated version is .NET Core Runtime 2.1.18 and SDK 2.1.514.\nSecurity Fix(es):\n* dotnet: Denial of service via untrusted input (CVE-2020-1108)\nDefault inclusions for applications built with .NET Core have been updated to reference the newest versions and their security fixes.\nFor more details about the security issue(s), including the impact, a CVSS score, acknowledgments, and other related information, refer to the CVE page(s) listed in the References section.",
  "Platform": [
    "Red Hat Enterprise Linux 8"
  ],
  "References": [
    {
      "Source": "RHSA",
      "URI": "https://access.redhat.com/errata/RHSA-2020:2143",
      "ID": "RHSA-2020:2143"
    },
    {
      "Source": "CVE",
      "URI": "https://access.redhat.com/security/cve/CVE-2020-1108",
      "ID": "CVE-2020-1108"
    }
  ],
  "Criteria": {
    "Operator": "OR",
    "Criterias": [
      {
        "Operator": "AND",
        "Criterias": [
          {
            "Operator": "OR",
            "Criterias": [

            ],
            "Criterions": [
              {
                "Comment": "Oracle Linux 8 is installed"
              },
              {
                "Comment": "Red Hat CoreOS 4 is installed"
              }
            ]
          },
          {
            "Operator": "OR",
            "Criterias": [
              {
                "Operator": "AND",
                "Criterias": [

                ],
                "Criterions": [
                  {
                    "Comment": "dotnet-host-fxr-2.1 is earlier than 0:2.1.18-2.el8_2"
                  },
                  {
                    "Comment": "dotnet-host-fxr-2.1 is signed with Red Hat redhatrelease2 key"
                  }
                ]
              },
              {
                "Operator": "AND",
                "Criterias": [

                ],
                "Criterions": [
                  {
                    "Comment": "dotnet-runtime-2.1 is earlier than 0:2.1.18-2.el8_2"
                  },
                  {
                    "Comment": "dotnet-runtime-2.1 is signed with Red Hat redhatrelease2 key"
                  }
                ]
              },
              {
                "Operator": "AND",
                "Criterias": [

                ],
                "Criterions": [
                  {
                    "Comment": "dotnet-sdk-2.1 is earlier than 0:2.1.514-2.el8_2"
                  },
                  {
                    "Comment": "dotnet-sdk-2.1 is signed with Red Hat redhatrelease2 key"
                  }
                ]
              },
              {
                "Operator": "AND",
                "Criterias": [

                ],
                "Criterions": [
                  {
                    "Comment": "dotnet-sdk-2.1.5xx is earlier than 0:2.1.514-2.el8_2"
                  },
                  {
                    "Comment": "dotnet-sdk-2.1.5xx is signed with Red Hat redhatrelease2 key"
                  }
                ]
              }
            ],
            "Criterions": [

            ]
          }
        ],
        "Criterions": [

        ]
      }
    ],
    "Criterions": [
      {
        "Comment": "Oracle Linux 8 is installed"
      }
    ]
  },
  "Severity": "Important",
  "Cves": [
    {
      "Impact": "",
      "Href": "",
      "ID": "CVE-2020-1108"
    }
  ],
  "Issued": {
    "Date": "2020-05-13"
  }
}