{
  "Title": "RHSA-2020:0912: tomcat6 security update (Important)",
  "Description": "Apache Tomcat is a servlet container for the Java Servlet and JavaServer Pages (JSP) technologies.\nSecurity Fix(es):\n* tomcat: Apache Tomcat AJP File Read/Inclusion Vulnerability (CVE-2020-1938)\nFor more details about the security issue(s), including the impact, a CVSS score, acknowledgments, and other related information, refer to the CVE page(s) listed in the References section.",
  "Platform": [
    "Red Hat Enterprise Linux 6"
  ],
  "References": [
    {
      "Source": "RHSA",
      "URI": "https://access.redhat.com/errata/RHSA-2020:0912",
      "ID": "RHSA-2020:0912"
    },
    {
      "Source": "CVE",
      "URI": "https://access.redhat.com/security/cve/CVE-2020-1938",
      "ID": "CVE-2020-1938"
    }
  ],
  "Criteria": {
    "Operator": "OR",
    "Criterias": [
      {
        "Operator": "AND",
        "Criterias": [
          {
            "Operator": "OR",
            "Criterias": [
              {
                "Operator": "AND",
                "Criterias": [

                ],
                "Criterions": [
                  {
                    "Comment": "tomcat6 is earlier than 0:6.0.24-114.el6_10"
                  },
                  {
                    "Comment": "tomcat6 is signed with Red Hat redhatrelease2 key"
                  }
                ]
              },
              {
                "Operator": "AND",
                "Criterias": [

                ],
                "Criterions": [
                  {
                    "Comment": "tomcat6-admin-webapps is earlier than 0:6.0.24-114.el6_10"
                  },
                  {
                    "Comment": "tomcat6-admin-webapps is signed with Red Hat redhatrelease2 key"
                  }
                ]
              },
              {
                "Operator": "AND",
                "Criterias": [

                ],
                "Criterions": [
                  {
                    "Comment": "tomcat6-docs-webapp is earlier than 0:6.0.24-114.el6_10"
                  },
                  {
                    "Comment": "tomcat6-docs-webapp is signed with Red Hat redhatrelease2 key"
                  }
                ]
              },
              {
                "Operator": "AND",
                "Criterias": [

                ],
                "Criterions": [
                  {
                    "Comment": "tomcat6-el-2.1-api is earlier than 0:6.0.24-114.el6_10"
                  },
                  {
                    "Comment": "tomcat6-el-2.1-api is signed with Red Hat redhatrelease2 key"
                  }
                ]
              },
              {
                "Operator": "AND",
                "Criterias": [

                ],
                "Criterions": [
                  {
                    "Comment": "tomcat6-javadoc is earlier than 0:6.0.24-114.el6_10"
                  },
                  {
                    "Comment": "tomcat6-javadoc is signed with Red Hat redhatrelease2 key"
                  }
                ]
              },
              {
                "Operator": "AND",
                "Criterias": [

                ],
                "Criterions": [
                  {
                    "Comment": "tomcat6-jsp-2.1-api is earlier than 0:6.0.24-114.el6_10"
                  },
                  {
                    "Comment": "tomcat6-jsp-2.1-api is signed with Red Hat redhatrelease2 key"
                  }
                ]
              },
              {
                "Operator": "AND",
                "Criterias": [

                ],
                "Criterions": [
                  {
                    "Comment": "tomcat6-lib is earlier than 0:6.0.24-114.el6_10"
                  },
                  {
                    "Comment": "tomcat6-lib is signed with Red Hat redhatrelease2 key"
                  }
                ]
              },
              {
                "Operator": "AND",
                "Criterias": [

                ],
                "Criterions": [
                  {
                    "Comment": "tomcat6-servlet-2.5-api is earlier than 0:6.0.24-114.el6_10"
                  },
                  {
                    "Comment": "tomcat6-servlet-2.5-api is signed with Red Hat redhatrelease2 key"
                  }
                ]
              },
              {
                "Operator": "AND",
                "Criterias": [

                ],
                "Criterions": [
                  {
                    "Comment": "tomcat6-webapps is earlier than 0:6.0.24-114.el6_10"
                  },
                  {
                    "Comment": "tomcat6-webapps is signed with Red Hat redhatrelease2 key"
                  }
                ]
              }
            ],
            "Criterions": [

            ]
          }
        ],
        "Criterions": [
          {
            "Comment": "Oracle Linux 6 is installed"
          }
        ]
      }
    ],
    "Criterions": [
      {
        "Comment": "Oracle Linux 6 is installed"
      }
    ]
  },
  "Severity": "Important",
  "Cves": [
    {
      "Impact": "",
      "Href": "",
      "ID": "CVE-2020-1938"
    }
  ],
  "Issued": {
    "Date": "2020-03-23"
  }
}