{
  "Title": "RHSA-2020:1209: qemu-kvm-ma security update (Important)",
  "Description": "Kernel-based Virtual Machine (KVM) is a full virtualization solution for Linux on a variety of architectures. The qemu-kvm-ma packages provide the user-space component for running virtual machines that use KVM on the IBM z Systems, IBM Power, and 64-bit ARM architectures.\nSecurity Fix(es):\n* QEMU: Slirp: potential OOB access due to unsafe snprintf() usages (CVE-2020-8608)\nFor more details about the security issue(s), including the impact, a CVSS score, acknowledgments, and other related information, refer to the CVE page(s) listed in the References section.",
  "Platform": [
    "Red Hat Enterprise Linux 7"
  ],
  "References": [
    {
      "Source": "RHSA",
      "URI": "https://access.redhat.com/errata/RHSA-2020:1209",
      "ID": "RHSA-2020:1209"
    },
    {
      "Source": "CVE",
      "URI": "https://access.redhat.com/security/cve/CVE-2020-8608",
      "ID": "CVE-2020-8608"
    }
  ],
  "Criteria": {
    "Operator": "OR",
    "Criterias": [
      {
        "Operator": "AND",
        "Criterias": [
          {
            "Operator": "OR",
            "Criterias": [
              {
                "Operator": "AND",
                "Criterias": [

                ],
                "Criterions": [
                  {
                    "Comment": "qemu-img-ma is earlier than 10:2.12.0-44.el7_8.1"
                  },
                  {
                    "Comment": "qemu-img-ma is signed with Red Hat redhatrelease2 key"
                  }
                ]
              },
              {
                "Operator": "AND",
                "Criterias": [

                ],
                "Criterions": [
                  {
                    "Comment": "qemu-kvm-common-ma is earlier than 10:2.12.0-44.el7_8.1"
                  },
                  {
                    "Comment": "qemu-kvm-common-ma is signed with Red Hat redhatrelease2 key"
                  }
                ]
              },
              {
                "Operator": "AND",
                "Criterias": [

                ],
                "Criterions": [
                  {
                    "Comment": "qemu-kvm-ma is earlier than 10:2.12.0-44.el7_8.1"
                  },
                  {
                    "Comment": "qemu-kvm-ma is signed with Red Hat redhatrelease2 key"
                  }
                ]
              },
              {
                "Operator": "AND",
                "Criterias": [

                ],
                "Criterions": [
                  {
                    "Comment": "qemu-kvm-tools-ma is earlier than 10:2.12.0-44.el7_8.1"
                  },
                  {
                    "Comment": "qemu-kvm-tools-ma is signed with Red Hat redhatrelease2 key"
                  }
                ]
              }
            ],
            "Criterions": [

            ]
          }
        ],
        "Criterions": [
          {
            "Comment": "Oracle Linux 7 is installed"
          }
        ]
      }
    ],
    "Criterions": [
      {
        "Comment": "Oracle Linux 7 is installed"
      }
    ]
  },
  "Severity": "Important",
  "Cves": [
    {
      "Impact": "",
      "Href": "",
      "ID": "CVE-2020-8608"
    }
  ],
  "Issued": {
    "Date": "2020-03-31"
  }
}