{
  "Title": "RHSA-2020:1631: GStreamer, libmad, and SDL security, bug fix, and enhancement update (Low)",
  "Description": "The GStreamer library provides a streaming media framework based on graphs of media data filters.\nThe libmad package is an MPEG audio decoder capable of 24-bit output. \nSimple DirectMedia Layer (SDL) is a cross-platform multimedia library designed to provide fast access to the graphics frame buffer and audio device.\nSecurity Fix(es):\n* libmad: Double-free in the mad_decoder_run() function (CVE-2018-7263)\nFor more details about the security issue(s), including the impact, a CVSS score, acknowledgments, and other related information, refer to the CVE page(s) listed in the References section.\nAdditional Changes:\nFor detailed information on changes in this release, see the Red Hat Enterprise Linux 8.2 Release Notes linked from the References section.",
  "Platform": [
    "Red Hat Enterprise Linux 8"
  ],
  "References": [
    {
      "Source": "RHSA",
      "URI": "https://access.redhat.com/errata/RHSA-2020:1631",
      "ID": "RHSA-2020:1631"
    },
    {
      "Source": "CVE",
      "URI": "https://access.redhat.com/security/cve/CVE-2018-7263",
      "ID": "CVE-2018-7263"
    }
  ],
  "Criteria": {
    "Operator": "OR",
    "Criterias": [
      {
        "Operator": "AND",
        "Criterias": [
          {
            "Operator": "OR",
            "Criterias": [

            ],
            "Criterions": [
              {
                "Comment": "Oracle Linux 8 is installed"
              },
              {
                "Comment": "Red Hat CoreOS 4 is installed"
              }
            ]
          },
          {
            "Operator": "OR",
            "Criterias": [
              {
                "Operator": "AND",
                "Criterias": [

                ],
                "Criterions": [
                  {
                    "Comment": "orc is earlier than 0:0.4.28-3.el8"
                  },
                  {
                    "Comment": "orc is signed with Red Hat redhatrelease2 key"
                  }
                ]
              },
              {
                "Operator": "AND",
                "Criterias": [

                ],
                "Criterions": [
                  {
                    "Comment": "orc-compiler is earlier than 0:0.4.28-3.el8"
                  },
                  {
                    "Comment": "orc-compiler is signed with Red Hat redhatrelease2 key"
                  }
                ]
              },
              {
                "Operator": "AND",
                "Criterias": [

                ],
                "Criterions": [
                  {
                    "Comment": "orc-devel is earlier than 0:0.4.28-3.el8"
                  },
                  {
                    "Comment": "orc-devel is signed with Red Hat redhatrelease2 key"
                  }
                ]
              },
              {
                "Operator": "AND",
                "Criterias": [

                ],
                "Criterions": [
                  {
                    "Comment": "gstreamer1-plugins-bad-free is earlier than 0:1.16.1-1.el8"
                  },
                  {
                    "Comment": "gstreamer1-plugins-bad-free is signed with Red Hat redhatrelease2 key"
                  }
                ]
              },
              {
                "Operator": "AND",
                "Criterias": [

                ],
                "Criterions": [
                  {
                    "Comment": "gstreamer1-plugins-bad-free-devel is earlier than 0:1.16.1-1.el8"
                  },
                  {
                    "Comment": "gstreamer1-plugins-bad-free-devel is signed with Red Hat redhatrelease2 key"
                  }
                ]
              },
              {
                "Operator": "AND",
                "Criterias": [

                ],
                "Criterions": [
                  {
                    "Comment": "gstreamer1-plugins-base is earlier than 0:1.16.1-1.el8"
                  },
                  {
                    "Comment": "gstreamer1-plugins-base is signed with Red Hat redhatrelease2 key"
                  }
                ]
              },
              {
                "Operator": "AND",
                "Criterias": [

                ],
                "Criterions": [
                  {
                    "Comment": "gstreamer1-plugins-base-devel is earlier than 0:1.16.1-1.el8"
                  },
                  {
                    "Comment": "gstreamer1-plugins-base-devel is signed with Red Hat redhatrelease2 key"
                  }
                ]
              },
              {
                "Operator": "AND",
                "Criterias": [

                ],
                "Criterions": [
                  {
                    "Comment": "gstreamer1-plugins-good is earlier than 0:1.16.1-1.el8"
                  },
                  {
                    "Comment": "gstreamer1-plugins-good is signed with Red Hat redhatrelease2 key"
                  }
                ]
              },
              {
                "Operator": "AND",
                "Criterias": [

                ],
                "Criterions": [
                  {
                    "Comment": "gstreamer1-plugins-good-gtk is earlier than 0:1.16.1-1.el8"
                  },
                  {
                    "Comment": "gstreamer1-plugins-good-gtk is signed with Red Hat redhatrelease2 key"
                  }
                ]
              },
              {
                "Operator": "AND",
                "Criterias": [

                ],
                "Criterions": [
                  {
                    "Comment": "gstreamer1-plugins-ugly-free is earlier than 0:1.16.1-1.el8"
                  },
                  {
                    "Comment": "gstreamer1-plugins-ugly-free is signed with Red Hat redhatrelease2 key"
                  }
                ]
              },
              {
                "Operator": "AND",
                "Criterias": [

                ],
                "Criterions": [
                  {
                    "Comment": "gstreamer1 is earlier than 0:1.16.1-2.el8"
                  },
                  {
                    "Comment": "gstreamer1 is signed with Red Hat redhatrelease2 key"
                  }
                ]
              },
              {
                "Operator": "AND",
                "Criterias": [

                ],
                "Criterions": [
                  {
                    "Comment": "gstreamer1-devel is earlier than 0:1.16.1-2.el8"
                  },
                  {
                    "Comment": "gstreamer1-devel is signed with Red Hat redhatrelease2 key"
                  }
                ]
              },
              {
                "Operator": "AND",
                "Criterias": [

                ],
                "Criterions": [
                  {
                    "Comment": "SDL is earlier than 0:1.2.15-37.el8"
                  },
                  {
                    "Comment": "SDL is signed with Red Hat redhatrelease2 key"
                  }
                ]
              },
              {
                "Operator": "AND",
                "Criterias": [

                ],
                "Criterions": [
                  {
                    "Comment": "SDL-devel is earlier than 0:1.2.15-37.el8"
                  },
                  {
                    "Comment": "SDL-devel is signed with Red Hat redhatrelease2 key"
                  }
                ]
              },
              {
                "Operator": "AND",
                "Criterias": [

                ],
                "Criterions": [
                  {
                    "Comment": "SDL2 is earlier than 0:2.0.10-2.el8"
                  },
                  {
                    "Comment": "SDL2 is signed with Red Hat redhatrelease2 key"
                  }
                ]
              },
              {
                "Operator": "AND",
                "Criterias": [

                ],
                "Criterions": [
                  {
                    "Comment": "SDL2-devel is earlier than 0:2.0.10-2.el8"
                  },
                  {
                    "Comment": "SDL2-devel is signed with Red Hat redhatrelease2 key"
                  }
                ]
              },
              {
                "Operator": "AND",
                "Criterias": [

                ],
                "Criterions": [
                  {
                    "Comment": "SDL2-static is earlier than 0:2.0.10-2.el8"
                  },
                  {
                    "Comment": "SDL2-static is signed with Red Hat redhatrelease2 key"
                  }
                ]
              },
              {
                "Operator": "AND",
                "Criterias": [

                ],
                "Criterions": [
                  {
                    "Comment": "libmad is earlier than 0:0.15.1b-25.el8"
                  },
                  {
                    "Comment": "libmad is signed with Red Hat redhatrelease2 key"
                  }
                ]
              },
              {
                "Operator": "AND",
                "Criterias": [

                ],
                "Criterions": [
                  {
                    "Comment": "libmad-devel is earlier than 0:0.15.1b-25.el8"
                  },
                  {
                    "Comment": "libmad-devel is signed with Red Hat redhatrelease2 key"
                  }
                ]
              }
            ],
            "Criterions": [

            ]
          }
        ],
        "Criterions": [

        ]
      }
    ],
    "Criterions": [
      {
        "Comment": "Oracle Linux 8 is installed"
      }
    ]
  },
  "Severity": "Low",
  "Cves": [
    {
      "Impact": "",
      "Href": "",
      "ID": "CVE-2018-7263"
    }
  ],
  "Issued": {
    "Date": "2020-04-28"
  }
}