{
  "Title": "RHSA-2020:5020: tomcat security update (Low)",
  "Description": "Apache Tomcat is a servlet container for the Java Servlet and JavaServer Pages (JSP) technologies.\nSecurity Fix(es):\n* tomcat: Mishandling of Transfer-Encoding header allows for HTTP request smuggling (CVE-2020-1935)\nFor more details about the security issue(s), including the impact, a CVSS score, acknowledgments, and other related information, refer to the CVE page(s) listed in the References section.",
  "Platform": [
    "Red Hat Enterprise Linux 7"
  ],
  "References": [
    {
      "Source": "RHSA",
      "URI": "https://access.redhat.com/errata/RHSA-2020:5020",
      "ID": "RHSA-2020:5020"
    },
    {
      "Source": "CVE",
      "URI": "https://access.redhat.com/security/cve/CVE-2020-1935",
      "ID": "CVE-2020-1935"
    }
  ],
  "Criteria": {
    "Operator": "OR",
    "Criterias": [
      {
        "Operator": "AND",
        "Criterias": [
          {
            "Operator": "OR",
            "Criterias": [
              {
                "Operator": "AND",
                "Criterias": [

                ],
                "Criterions": [
                  {
                    "Comment": "tomcat is earlier than 0:7.0.76-16.el7_9"
                  },
                  {
                    "Comment": "tomcat is signed with Red Hat redhatrelease2 key"
                  }
                ]
              },
              {
                "Operator": "AND",
                "Criterias": [

                ],
                "Criterions": [
                  {
                    "Comment": "tomcat-admin-webapps is earlier than 0:7.0.76-16.el7_9"
                  },
                  {
                    "Comment": "tomcat-admin-webapps is signed with Red Hat redhatrelease2 key"
                  }
                ]
              },
              {
                "Operator": "AND",
                "Criterias": [

                ],
                "Criterions": [
                  {
                    "Comment": "tomcat-docs-webapp is earlier than 0:7.0.76-16.el7_9"
                  },
                  {
                    "Comment": "tomcat-docs-webapp is signed with Red Hat redhatrelease2 key"
                  }
                ]
              },
              {
                "Operator": "AND",
                "Criterias": [

                ],
                "Criterions": [
                  {
                    "Comment": "tomcat-el-2.2-api is earlier than 0:7.0.76-16.el7_9"
                  },
                  {
                    "Comment": "tomcat-el-2.2-api is signed with Red Hat redhatrelease2 key"
                  }
                ]
              },
              {
                "Operator": "AND",
                "Criterias": [

                ],
                "Criterions": [
                  {
                    "Comment": "tomcat-javadoc is earlier than 0:7.0.76-16.el7_9"
                  },
                  {
                    "Comment": "tomcat-javadoc is signed with Red Hat redhatrelease2 key"
                  }
                ]
              },
              {
                "Operator": "AND",
                "Criterias": [

                ],
                "Criterions": [
                  {
                    "Comment": "tomcat-jsp-2.2-api is earlier than 0:7.0.76-16.el7_9"
                  },
                  {
                    "Comment": "tomcat-jsp-2.2-api is signed with Red Hat redhatrelease2 key"
                  }
                ]
              },
              {
                "Operator": "AND",
                "Criterias": [

                ],
                "Criterions": [
                  {
                    "Comment": "tomcat-jsvc is earlier than 0:7.0.76-16.el7_9"
                  },
                  {
                    "Comment": "tomcat-jsvc is signed with Red Hat redhatrelease2 key"
                  }
                ]
              },
              {
                "Operator": "AND",
                "Criterias": [

                ],
                "Criterions": [
                  {
                    "Comment": "tomcat-lib is earlier than 0:7.0.76-16.el7_9"
                  },
                  {
                    "Comment": "tomcat-lib is signed with Red Hat redhatrelease2 key"
                  }
                ]
              },
              {
                "Operator": "AND",
                "Criterias": [

                ],
                "Criterions": [
                  {
                    "Comment": "tomcat-servlet-3.0-api is earlier than 0:7.0.76-16.el7_9"
                  },
                  {
                    "Comment": "tomcat-servlet-3.0-api is signed with Red Hat redhatrelease2 key"
                  }
                ]
              },
              {
                "Operator": "AND",
                "Criterias": [

                ],
                "Criterions": [
                  {
                    "Comment": "tomcat-webapps is earlier than 0:7.0.76-16.el7_9"
                  },
                  {
                    "Comment": "tomcat-webapps is signed with Red Hat redhatrelease2 key"
                  }
                ]
              }
            ],
            "Criterions": [

            ]
          }
        ],
        "Criterions": [
          {
            "Comment": "Oracle Linux 7 is installed"
          }
        ]
      }
    ],
    "Criterions": [
      {
        "Comment": "Oracle Linux 7 is installed"
      }
    ]
  },
  "Severity": "Low",
  "Cves": [
    {
      "Impact": "",
      "Href": "",
      "ID": "CVE-2020-1935"
    }
  ],
  "Issued": {
    "Date": "2020-11-10"
  }
}