{
  "Title": "RHSA-2020:1766: GNOME security, bug fix, and enhancement update (Moderate)",
  "Description": "GNOME is the default desktop environment of Red Hat Enterprise Linux.\nSecurity Fix(es):\n* LibRaw: stack-based buffer overflow in the parse_makernote function of dcraw_common.cpp (CVE-2018-20337)\n* gdm: lock screen bypass when timed login is enabled (CVE-2019-3825)\n* gvfs: mishandling of file ownership in daemon/gvfsbackendadmin.c (CVE-2019-12447)\n* gvfs: race condition in daemon/gvfsbackendadmin.c due to admin backend not implementing query_info_on_read/write (CVE-2019-12448)\n* gvfs: mishandling of file's user and group ownership in daemon/gvfsbackendadmin.c due to unavailability of root privileges (CVE-2019-12449)\nFor more details about the security issue(s), including the impact, a CVSS score, acknowledgments, and other related information, refer to the CVE page(s) listed in the References section.\nAdditional Changes:\nFor detailed information on changes in this release, see the Red Hat Enterprise Linux 8.2 Release Notes linked from the References section.",
  "Platform": [
    "Red Hat Enterprise Linux 8"
  ],
  "References": [
    {
      "Source": "RHSA",
      "URI": "https://access.redhat.com/errata/RHSA-2020:1766",
      "ID": "RHSA-2020:1766"
    },
    {
      "Source": "CVE",
      "URI": "https://access.redhat.com/security/cve/CVE-2018-20337",
      "ID": "CVE-2018-20337"
    },
    {
      "Source": "CVE",
      "URI": "https://access.redhat.com/security/cve/CVE-2019-12447",
      "ID": "CVE-2019-12447"
    },
    {
      "Source": "CVE",
      "URI": "https://access.redhat.com/security/cve/CVE-2019-12448",
      "ID": "CVE-2019-12448"
    },
    {
      "Source": "CVE",
      "URI": "https://access.redhat.com/security/cve/CVE-2019-12449",
      "ID": "CVE-2019-12449"
    },
    {
      "Source": "CVE",
      "URI": "https://access.redhat.com/security/cve/CVE-2019-3825",
      "ID": "CVE-2019-3825"
    }
  ],
  "Criteria": {
    "Operator": "OR",
    "Criterias": [
      {
        "Operator": "AND",
        "Criterias": [
          {
            "Operator": "OR",
            "Criterias": [

            ],
            "Criterions": [
              {
                "Comment": "Oracle Linux 8 is installed"
              },
              {
                "Comment": "Red Hat CoreOS 4 is installed"
              }
            ]
          },
          {
            "Operator": "OR",
            "Criterias": [
              {
                "Operator": "AND",
                "Criterias": [

                ],
                "Criterions": [
                  {
                    "Comment": "gvfs is earlier than 0:1.36.2-8.el8"
                  },
                  {
                    "Comment": "gvfs is signed with Red Hat redhatrelease2 key"
                  }
                ]
              },
              {
                "Operator": "AND",
                "Criterias": [

                ],
                "Criterions": [
                  {
                    "Comment": "gvfs-afc is earlier than 0:1.36.2-8.el8"
                  },
                  {
                    "Comment": "gvfs-afc is signed with Red Hat redhatrelease2 key"
                  }
                ]
              },
              {
                "Operator": "AND",
                "Criterias": [

                ],
                "Criterions": [
                  {
                    "Comment": "gvfs-afp is earlier than 0:1.36.2-8.el8"
                  },
                  {
                    "Comment": "gvfs-afp is signed with Red Hat redhatrelease2 key"
                  }
                ]
              },
              {
                "Operator": "AND",
                "Criterias": [

                ],
                "Criterions": [
                  {
                    "Comment": "gvfs-archive is earlier than 0:1.36.2-8.el8"
                  },
                  {
                    "Comment": "gvfs-archive is signed with Red Hat redhatrelease2 key"
                  }
                ]
              },
              {
                "Operator": "AND",
                "Criterias": [

                ],
                "Criterions": [
                  {
                    "Comment": "gvfs-client is earlier than 0:1.36.2-8.el8"
                  },
                  {
                    "Comment": "gvfs-client is signed with Red Hat redhatrelease2 key"
                  }
                ]
              },
              {
                "Operator": "AND",
                "Criterias": [

                ],
                "Criterions": [
                  {
                    "Comment": "gvfs-devel is earlier than 0:1.36.2-8.el8"
                  },
                  {
                    "Comment": "gvfs-devel is signed with Red Hat redhatrelease2 key"
                  }
                ]
              },
              {
                "Operator": "AND",
                "Criterias": [

                ],
                "Criterions": [
                  {
                    "Comment": "gvfs-fuse is earlier than 0:1.36.2-8.el8"
                  },
                  {
                    "Comment": "gvfs-fuse is signed with Red Hat redhatrelease2 key"
                  }
                ]
              },
              {
                "Operator": "AND",
                "Criterias": [

                ],
                "Criterions": [
                  {
                    "Comment": "gvfs-goa is earlier than 0:1.36.2-8.el8"
                  },
                  {
                    "Comment": "gvfs-goa is signed with Red Hat redhatrelease2 key"
                  }
                ]
              },
              {
                "Operator": "AND",
                "Criterias": [

                ],
                "Criterions": [
                  {
                    "Comment": "gvfs-gphoto2 is earlier than 0:1.36.2-8.el8"
                  },
                  {
                    "Comment": "gvfs-gphoto2 is signed with Red Hat redhatrelease2 key"
                  }
                ]
              },
              {
                "Operator": "AND",
                "Criterias": [

                ],
                "Criterions": [
                  {
                    "Comment": "gvfs-mtp is earlier than 0:1.36.2-8.el8"
                  },
                  {
                    "Comment": "gvfs-mtp is signed with Red Hat redhatrelease2 key"
                  }
                ]
              },
              {
                "Operator": "AND",
                "Criterias": [

                ],
                "Criterions": [
                  {
                    "Comment": "gvfs-smb is earlier than 0:1.36.2-8.el8"
                  },
                  {
                    "Comment": "gvfs-smb is signed with Red Hat redhatrelease2 key"
                  }
                ]
              },
              {
                "Operator": "AND",
                "Criterias": [

                ],
                "Criterions": [
                  {
                    "Comment": "baobab is earlier than 0:3.28.0-4.el8"
                  },
                  {
                    "Comment": "baobab is signed with Red Hat redhatrelease2 key"
                  }
                ]
              },
              {
                "Operator": "AND",
                "Criterias": [

                ],
                "Criterions": [
                  {
                    "Comment": "LibRaw is earlier than 0:0.19.5-1.el8"
                  },
                  {
                    "Comment": "LibRaw is signed with Red Hat redhatrelease2 key"
                  }
                ]
              },
              {
                "Operator": "AND",
                "Criterias": [

                ],
                "Criterions": [
                  {
                    "Comment": "LibRaw-devel is earlier than 0:0.19.5-1.el8"
                  },
                  {
                    "Comment": "LibRaw-devel is signed with Red Hat redhatrelease2 key"
                  }
                ]
              },
              {
                "Operator": "AND",
                "Criterias": [

                ],
                "Criterions": [
                  {
                    "Comment": "evince is earlier than 0:3.28.4-4.el8"
                  },
                  {
                    "Comment": "evince is signed with Red Hat redhatrelease2 key"
                  }
                ]
              },
              {
                "Operator": "AND",
                "Criterias": [

                ],
                "Criterions": [
                  {
                    "Comment": "evince-browser-plugin is earlier than 0:3.28.4-4.el8"
                  },
                  {
                    "Comment": "evince-browser-plugin is signed with Red Hat redhatrelease2 key"
                  }
                ]
              },
              {
                "Operator": "AND",
                "Criterias": [

                ],
                "Criterions": [
                  {
                    "Comment": "evince-libs is earlier than 0:3.28.4-4.el8"
                  },
                  {
                    "Comment": "evince-libs is signed with Red Hat redhatrelease2 key"
                  }
                ]
              },
              {
                "Operator": "AND",
                "Criterias": [

                ],
                "Criterions": [
                  {
                    "Comment": "evince-nautilus is earlier than 0:3.28.4-4.el8"
                  },
                  {
                    "Comment": "evince-nautilus is signed with Red Hat redhatrelease2 key"
                  }
                ]
              },
              {
                "Operator": "AND",
                "Criterias": [

                ],
                "Criterions": [
                  {
                    "Comment": "gnome-online-accounts is earlier than 0:3.28.2-1.el8"
                  },
                  {
                    "Comment": "gnome-online-accounts is signed with Red Hat redhatrelease2 key"
                  }
                ]
              },
              {
                "Operator": "AND",
                "Criterias": [

                ],
                "Criterions": [
                  {
                    "Comment": "gnome-online-accounts-devel is earlier than 0:3.28.2-1.el8"
                  },
                  {
                    "Comment": "gnome-online-accounts-devel is signed with Red Hat redhatrelease2 key"
                  }
                ]
              },
              {
                "Operator": "AND",
                "Criterias": [

                ],
                "Criterions": [
                  {
                    "Comment": "gtk-update-icon-cache is earlier than 0:3.22.30-5.el8"
                  },
                  {
                    "Comment": "gtk-update-icon-cache is signed with Red Hat redhatrelease2 key"
                  }
                ]
              },
              {
                "Operator": "AND",
                "Criterias": [

                ],
                "Criterions": [
                  {
                    "Comment": "gtk3 is earlier than 0:3.22.30-5.el8"
                  },
                  {
                    "Comment": "gtk3 is signed with Red Hat redhatrelease2 key"
                  }
                ]
              },
              {
                "Operator": "AND",
                "Criterias": [

                ],
                "Criterions": [
                  {
                    "Comment": "gtk3-devel is earlier than 0:3.22.30-5.el8"
                  },
                  {
                    "Comment": "gtk3-devel is signed with Red Hat redhatrelease2 key"
                  }
                ]
              },
              {
                "Operator": "AND",
                "Criterias": [

                ],
                "Criterions": [
                  {
                    "Comment": "gtk3-immodule-xim is earlier than 0:3.22.30-5.el8"
                  },
                  {
                    "Comment": "gtk3-immodule-xim is signed with Red Hat redhatrelease2 key"
                  }
                ]
              },
              {
                "Operator": "AND",
                "Criterias": [

                ],
                "Criterions": [
                  {
                    "Comment": "gsettings-desktop-schemas is earlier than 0:3.32.0-4.el8"
                  },
                  {
                    "Comment": "gsettings-desktop-schemas is signed with Red Hat redhatrelease2 key"
                  }
                ]
              },
              {
                "Operator": "AND",
                "Criterias": [

                ],
                "Criterions": [
                  {
                    "Comment": "gsettings-desktop-schemas-devel is earlier than 0:3.32.0-4.el8"
                  },
                  {
                    "Comment": "gsettings-desktop-schemas-devel is signed with Red Hat redhatrelease2 key"
                  }
                ]
              },
              {
                "Operator": "AND",
                "Criterias": [

                ],
                "Criterions": [
                  {
                    "Comment": "gnome-session is earlier than 0:3.28.1-8.el8"
                  },
                  {
                    "Comment": "gnome-session is signed with Red Hat redhatrelease2 key"
                  }
                ]
              },
              {
                "Operator": "AND",
                "Criterias": [

                ],
                "Criterions": [
                  {
                    "Comment": "gnome-session-wayland-session is earlier than 0:3.28.1-8.el8"
                  },
                  {
                    "Comment": "gnome-session-wayland-session is signed with Red Hat redhatrelease2 key"
                  }
                ]
              },
              {
                "Operator": "AND",
                "Criterias": [

                ],
                "Criterions": [
                  {
                    "Comment": "gnome-session-xsession is earlier than 0:3.28.1-8.el8"
                  },
                  {
                    "Comment": "gnome-session-xsession is signed with Red Hat redhatrelease2 key"
                  }
                ]
              },
              {
                "Operator": "AND",
                "Criterias": [

                ],
                "Criterions": [
                  {
                    "Comment": "gnome-settings-daemon is earlier than 0:3.32.0-9.el8"
                  },
                  {
                    "Comment": "gnome-settings-daemon is signed with Red Hat redhatrelease2 key"
                  }
                ]
              },
              {
                "Operator": "AND",
                "Criterias": [

                ],
                "Criterions": [
                  {
                    "Comment": "gnome-remote-desktop is earlier than 0:0.1.6-8.el8"
                  },
                  {
                    "Comment": "gnome-remote-desktop is signed with Red Hat redhatrelease2 key"
                  }
                ]
              },
              {
                "Operator": "AND",
                "Criterias": [

                ],
                "Criterions": [
                  {
                    "Comment": "appstream-data is earlier than 0:8-20191129.el8"
                  },
                  {
                    "Comment": "appstream-data is signed with Red Hat redhatrelease2 key"
                  }
                ]
              },
              {
                "Operator": "AND",
                "Criterias": [

                ],
                "Criterions": [
                  {
                    "Comment": "gnome-menus is earlier than 0:3.13.3-11.el8"
                  },
                  {
                    "Comment": "gnome-menus is signed with Red Hat redhatrelease2 key"
                  }
                ]
              },
              {
                "Operator": "AND",
                "Criterias": [

                ],
                "Criterions": [
                  {
                    "Comment": "gnome-menus-devel is earlier than 0:3.13.3-11.el8"
                  },
                  {
                    "Comment": "gnome-menus-devel is signed with Red Hat redhatrelease2 key"
                  }
                ]
              },
              {
                "Operator": "AND",
                "Criterias": [

                ],
                "Criterions": [
                  {
                    "Comment": "nautilus is earlier than 0:3.28.1-12.el8"
                  },
                  {
                    "Comment": "nautilus is signed with Red Hat redhatrelease2 key"
                  }
                ]
              },
              {
                "Operator": "AND",
                "Criterias": [

                ],
                "Criterions": [
                  {
                    "Comment": "nautilus-devel is earlier than 0:3.28.1-12.el8"
                  },
                  {
                    "Comment": "nautilus-devel is signed with Red Hat redhatrelease2 key"
                  }
                ]
              },
              {
                "Operator": "AND",
                "Criterias": [

                ],
                "Criterions": [
                  {
                    "Comment": "nautilus-extensions is earlier than 0:3.28.1-12.el8"
                  },
                  {
                    "Comment": "nautilus-extensions is signed with Red Hat redhatrelease2 key"
                  }
                ]
              },
              {
                "Operator": "AND",
                "Criterias": [

                ],
                "Criterions": [
                  {
                    "Comment": "gnome-terminal is earlier than 0:3.28.3-1.el8"
                  },
                  {
                    "Comment": "gnome-terminal is signed with Red Hat redhatrelease2 key"
                  }
                ]
              },
              {
                "Operator": "AND",
                "Criterias": [

                ],
                "Criterions": [
                  {
                    "Comment": "gnome-terminal-nautilus is earlier than 0:3.28.3-1.el8"
                  },
                  {
                    "Comment": "gnome-terminal-nautilus is signed with Red Hat redhatrelease2 key"
                  }
                ]
              },
              {
                "Operator": "AND",
                "Criterias": [

                ],
                "Criterions": [
                  {
                    "Comment": "accountsservice is earlier than 0:0.6.50-8.el8"
                  },
                  {
                    "Comment": "accountsservice is signed with Red Hat redhatrelease2 key"
                  }
                ]
              },
              {
                "Operator": "AND",
                "Criterias": [

                ],
                "Criterions": [
                  {
                    "Comment": "accountsservice-devel is earlier than 0:0.6.50-8.el8"
                  },
                  {
                    "Comment": "accountsservice-devel is signed with Red Hat redhatrelease2 key"
                  }
                ]
              },
              {
                "Operator": "AND",
                "Criterias": [

                ],
                "Criterions": [
                  {
                    "Comment": "accountsservice-libs is earlier than 0:0.6.50-8.el8"
                  },
                  {
                    "Comment": "accountsservice-libs is signed with Red Hat redhatrelease2 key"
                  }
                ]
              },
              {
                "Operator": "AND",
                "Criterias": [

                ],
                "Criterions": [
                  {
                    "Comment": "libxslt is earlier than 0:1.1.32-4.el8"
                  },
                  {
                    "Comment": "libxslt is signed with Red Hat redhatrelease2 key"
                  }
                ]
              },
              {
                "Operator": "AND",
                "Criterias": [

                ],
                "Criterions": [
                  {
                    "Comment": "libxslt-devel is earlier than 0:1.1.32-4.el8"
                  },
                  {
                    "Comment": "libxslt-devel is signed with Red Hat redhatrelease2 key"
                  }
                ]
              },
              {
                "Operator": "AND",
                "Criterias": [

                ],
                "Criterions": [
                  {
                    "Comment": "vinagre is earlier than 0:3.22.0-21.el8"
                  },
                  {
                    "Comment": "vinagre is signed with Red Hat redhatrelease2 key"
                  }
                ]
              },
              {
                "Operator": "AND",
                "Criterias": [

                ],
                "Criterions": [
                  {
                    "Comment": "gnome-boxes is earlier than 0:3.28.5-8.el8"
                  },
                  {
                    "Comment": "gnome-boxes is signed with Red Hat redhatrelease2 key"
                  }
                ]
              },
              {
                "Operator": "AND",
                "Criterias": [

                ],
                "Criterions": [
                  {
                    "Comment": "gnome-software is earlier than 0:3.30.6-3.el8"
                  },
                  {
                    "Comment": "gnome-software is signed with Red Hat redhatrelease2 key"
                  }
                ]
              },
              {
                "Operator": "AND",
                "Criterias": [

                ],
                "Criterions": [
                  {
                    "Comment": "gnome-software-editor is earlier than 0:3.30.6-3.el8"
                  },
                  {
                    "Comment": "gnome-software-editor is signed with Red Hat redhatrelease2 key"
                  }
                ]
              },
              {
                "Operator": "AND",
                "Criterias": [

                ],
                "Criterions": [
                  {
                    "Comment": "gdm is earlier than 1:3.28.3-29.el8"
                  },
                  {
                    "Comment": "gdm is signed with Red Hat redhatrelease2 key"
                  }
                ]
              },
              {
                "Operator": "AND",
                "Criterias": [

                ],
                "Criterions": [
                  {
                    "Comment": "mozjs52 is earlier than 0:52.9.0-2.el8"
                  },
                  {
                    "Comment": "mozjs52 is signed with Red Hat redhatrelease2 key"
                  }
                ]
              },
              {
                "Operator": "AND",
                "Criterias": [

                ],
                "Criterions": [
                  {
                    "Comment": "mozjs52-devel is earlier than 0:52.9.0-2.el8"
                  },
                  {
                    "Comment": "mozjs52-devel is signed with Red Hat redhatrelease2 key"
                  }
                ]
              },
              {
                "Operator": "AND",
                "Criterias": [

                ],
                "Criterions": [
                  {
                    "Comment": "vala is earlier than 0:0.40.19-1.el8"
                  },
                  {
                    "Comment": "vala is signed with Red Hat redhatrelease2 key"
                  }
                ]
              },
              {
                "Operator": "AND",
                "Criterias": [

                ],
                "Criterions": [
                  {
                    "Comment": "vala-devel is earlier than 0:0.40.19-1.el8"
                  },
                  {
                    "Comment": "vala-devel is signed with Red Hat redhatrelease2 key"
                  }
                ]
              },
              {
                "Operator": "AND",
                "Criterias": [

                ],
                "Criterions": [
                  {
                    "Comment": "mozjs60 is earlier than 0:60.9.0-4.el8"
                  },
                  {
                    "Comment": "mozjs60 is signed with Red Hat redhatrelease2 key"
                  }
                ]
              },
              {
                "Operator": "AND",
                "Criterias": [

                ],
                "Criterions": [
                  {
                    "Comment": "mozjs60-devel is earlier than 0:60.9.0-4.el8"
                  },
                  {
                    "Comment": "mozjs60-devel is signed with Red Hat redhatrelease2 key"
                  }
                ]
              },
              {
                "Operator": "AND",
                "Criterias": [

                ],
                "Criterions": [
                  {
                    "Comment": "gjs is earlier than 0:1.56.2-4.el8"
                  },
                  {
                    "Comment": "gjs is signed with Red Hat redhatrelease2 key"
                  }
                ]
              },
              {
                "Operator": "AND",
                "Criterias": [

                ],
                "Criterions": [
                  {
                    "Comment": "gjs-devel is earlier than 0:1.56.2-4.el8"
                  },
                  {
                    "Comment": "gjs-devel is signed with Red Hat redhatrelease2 key"
                  }
                ]
              },
              {
                "Operator": "AND",
                "Criterias": [

                ],
                "Criterions": [
                  {
                    "Comment": "gnome-tweaks is earlier than 0:3.28.1-7.el8"
                  },
                  {
                    "Comment": "gnome-tweaks is signed with Red Hat redhatrelease2 key"
                  }
                ]
              },
              {
                "Operator": "AND",
                "Criterias": [

                ],
                "Criterions": [
                  {
                    "Comment": "clutter is earlier than 0:1.26.2-8.el8"
                  },
                  {
                    "Comment": "clutter is signed with Red Hat redhatrelease2 key"
                  }
                ]
              },
              {
                "Operator": "AND",
                "Criterias": [

                ],
                "Criterions": [
                  {
                    "Comment": "clutter-devel is earlier than 0:1.26.2-8.el8"
                  },
                  {
                    "Comment": "clutter-devel is signed with Red Hat redhatrelease2 key"
                  }
                ]
              },
              {
                "Operator": "AND",
                "Criterias": [

                ],
                "Criterions": [
                  {
                    "Comment": "clutter-doc is earlier than 0:1.26.2-8.el8"
                  },
                  {
                    "Comment": "clutter-doc is signed with Red Hat redhatrelease2 key"
                  }
                ]
              },
              {
                "Operator": "AND",
                "Criterias": [

                ],
                "Criterions": [
                  {
                    "Comment": "gnome-control-center is earlier than 0:3.28.2-19.el8"
                  },
                  {
                    "Comment": "gnome-control-center is signed with Red Hat redhatrelease2 key"
                  }
                ]
              },
              {
                "Operator": "AND",
                "Criterias": [

                ],
                "Criterions": [
                  {
                    "Comment": "gnome-control-center-filesystem is earlier than 0:3.28.2-19.el8"
                  },
                  {
                    "Comment": "gnome-control-center-filesystem is signed with Red Hat redhatrelease2 key"
                  }
                ]
              },
              {
                "Operator": "AND",
                "Criterias": [

                ],
                "Criterions": [
                  {
                    "Comment": "gnome-shell is earlier than 0:3.32.2-14.el8"
                  },
                  {
                    "Comment": "gnome-shell is signed with Red Hat redhatrelease2 key"
                  }
                ]
              },
              {
                "Operator": "AND",
                "Criterias": [

                ],
                "Criterions": [
                  {
                    "Comment": "mutter is earlier than 0:3.32.2-34.el8"
                  },
                  {
                    "Comment": "mutter is signed with Red Hat redhatrelease2 key"
                  }
                ]
              },
              {
                "Operator": "AND",
                "Criterias": [

                ],
                "Criterions": [
                  {
                    "Comment": "mutter-devel is earlier than 0:3.32.2-34.el8"
                  },
                  {
                    "Comment": "mutter-devel is signed with Red Hat redhatrelease2 key"
                  }
                ]
              },
              {
                "Operator": "AND",
                "Criterias": [

                ],
                "Criterions": [
                  {
                    "Comment": "libvncserver is earlier than 0:0.9.11-14.el8"
                  },
                  {
                    "Comment": "libvncserver is signed with Red Hat redhatrelease2 key"
                  }
                ]
              },
              {
                "Operator": "AND",
                "Criterias": [

                ],
                "Criterions": [
                  {
                    "Comment": "libvncserver-devel is earlier than 0:0.9.11-14.el8"
                  },
                  {
                    "Comment": "libvncserver-devel is signed with Red Hat redhatrelease2 key"
                  }
                ]
              }
            ],
            "Criterions": [

            ]
          }
        ],
        "Criterions": [

        ]
      }
    ],
    "Criterions": [
      {
        "Comment": "Oracle Linux 8 is installed"
      }
    ]
  },
  "Severity": "Moderate",
  "Cves": [
    {
      "Impact": "",
      "Href": "",
      "ID": "CVE-2018-20337"
    },
    {
      "Impact": "",
      "Href": "",
      "ID": "CVE-2019-12447"
    },
    {
      "Impact": "",
      "Href": "",
      "ID": "CVE-2019-12448"
    },
    {
      "Impact": "",
      "Href": "",
      "ID": "CVE-2019-12449"
    },
    {
      "Impact": "",
      "Href": "",
      "ID": "CVE-2019-3825"
    }
  ],
  "Issued": {
    "Date": "2020-04-28"
  }
}