{
  "Title": "RHSA-2020:4628: libreoffice security, bug fix, and enhancement update (Low)",
  "Description": "LibreOffice is an open source, community-developed office productivity suite. It includes key desktop applications, such as a word processor, a spreadsheet, a presentation manager, a formula editor, and a drawing program. LibreOffice replaces OpenOffice and provides a similar but enhanced and extended office suite.\nThe following packages have been upgraded to a later upstream version: libreoffice (6.3.6.2), libcmis (0.5.2), liborcus (0.14.1). (BZ#1796893)\nSecurity Fix(es):\n* libreoffice: 'stealth mode' remote resource restrictions bypass (CVE-2020-12802)\n* libreoffice: forms allowed to be submitted to any URI could result in local file overwrite (CVE-2020-12803)\nFor more details about the security issue(s), including the impact, a CVSS score, acknowledgments, and other related information, refer to the CVE page(s) listed in the References section.\nAdditional Changes:\nFor detailed information on changes in this release, see the Red Hat Enterprise Linux 8.3 Release Notes linked from the References section.",
  "Platform": [
    "Red Hat Enterprise Linux 8"
  ],
  "References": [
    {
      "Source": "RHSA",
      "URI": "https://access.redhat.com/errata/RHSA-2020:4628",
      "ID": "RHSA-2020:4628"
    },
    {
      "Source": "CVE",
      "URI": "https://access.redhat.com/security/cve/CVE-2020-12802",
      "ID": "CVE-2020-12802"
    },
    {
      "Source": "CVE",
      "URI": "https://access.redhat.com/security/cve/CVE-2020-12803",
      "ID": "CVE-2020-12803"
    }
  ],
  "Criteria": {
    "Operator": "OR",
    "Criterias": [
      {
        "Operator": "AND",
        "Criterias": [
          {
            "Operator": "OR",
            "Criterias": [

            ],
            "Criterions": [
              {
                "Comment": "Oracle Linux 8 is installed"
              },
              {
                "Comment": "Red Hat CoreOS 4 is installed"
              }
            ]
          },
          {
            "Operator": "OR",
            "Criterias": [
              {
                "Operator": "AND",
                "Criterias": [

                ],
                "Criterions": [
                  {
                    "Comment": "liborcus is earlier than 0:0.14.1-1.el8"
                  },
                  {
                    "Comment": "liborcus is signed with Red Hat redhatrelease2 key"
                  }
                ]
              },
              {
                "Operator": "AND",
                "Criterias": [

                ],
                "Criterions": [
                  {
                    "Comment": "libcmis is earlier than 0:0.5.2-1.el8"
                  },
                  {
                    "Comment": "libcmis is signed with Red Hat redhatrelease2 key"
                  }
                ]
              },
              {
                "Operator": "AND",
                "Criterias": [

                ],
                "Criterions": [
                  {
                    "Comment": "autocorr-af is earlier than 1:6.3.6.2-3.el8"
                  },
                  {
                    "Comment": "autocorr-af is signed with Red Hat redhatrelease2 key"
                  }
                ]
              },
              {
                "Operator": "AND",
                "Criterias": [

                ],
                "Criterions": [
                  {
                    "Comment": "autocorr-bg is earlier than 1:6.3.6.2-3.el8"
                  },
                  {
                    "Comment": "autocorr-bg is signed with Red Hat redhatrelease2 key"
                  }
                ]
              },
              {
                "Operator": "AND",
                "Criterias": [

                ],
                "Criterions": [
                  {
                    "Comment": "autocorr-ca is earlier than 1:6.3.6.2-3.el8"
                  },
                  {
                    "Comment": "autocorr-ca is signed with Red Hat redhatrelease2 key"
                  }
                ]
              },
              {
                "Operator": "AND",
                "Criterias": [

                ],
                "Criterions": [
                  {
                    "Comment": "autocorr-cs is earlier than 1:6.3.6.2-3.el8"
                  },
                  {
                    "Comment": "autocorr-cs is signed with Red Hat redhatrelease2 key"
                  }
                ]
              },
              {
                "Operator": "AND",
                "Criterias": [

                ],
                "Criterions": [
                  {
                    "Comment": "autocorr-da is earlier than 1:6.3.6.2-3.el8"
                  },
                  {
                    "Comment": "autocorr-da is signed with Red Hat redhatrelease2 key"
                  }
                ]
              },
              {
                "Operator": "AND",
                "Criterias": [

                ],
                "Criterions": [
                  {
                    "Comment": "autocorr-de is earlier than 1:6.3.6.2-3.el8"
                  },
                  {
                    "Comment": "autocorr-de is signed with Red Hat redhatrelease2 key"
                  }
                ]
              },
              {
                "Operator": "AND",
                "Criterias": [

                ],
                "Criterions": [
                  {
                    "Comment": "autocorr-en is earlier than 1:6.3.6.2-3.el8"
                  },
                  {
                    "Comment": "autocorr-en is signed with Red Hat redhatrelease2 key"
                  }
                ]
              },
              {
                "Operator": "AND",
                "Criterias": [

                ],
                "Criterions": [
                  {
                    "Comment": "autocorr-es is earlier than 1:6.3.6.2-3.el8"
                  },
                  {
                    "Comment": "autocorr-es is signed with Red Hat redhatrelease2 key"
                  }
                ]
              },
              {
                "Operator": "AND",
                "Criterias": [

                ],
                "Criterions": [
                  {
                    "Comment": "autocorr-fa is earlier than 1:6.3.6.2-3.el8"
                  },
                  {
                    "Comment": "autocorr-fa is signed with Red Hat redhatrelease2 key"
                  }
                ]
              },
              {
                "Operator": "AND",
                "Criterias": [

                ],
                "Criterions": [
                  {
                    "Comment": "autocorr-fi is earlier than 1:6.3.6.2-3.el8"
                  },
                  {
                    "Comment": "autocorr-fi is signed with Red Hat redhatrelease2 key"
                  }
                ]
              },
              {
                "Operator": "AND",
                "Criterias": [

                ],
                "Criterions": [
                  {
                    "Comment": "autocorr-fr is earlier than 1:6.3.6.2-3.el8"
                  },
                  {
                    "Comment": "autocorr-fr is signed with Red Hat redhatrelease2 key"
                  }
                ]
              },
              {
                "Operator": "AND",
                "Criterias": [

                ],
                "Criterions": [
                  {
                    "Comment": "autocorr-ga is earlier than 1:6.3.6.2-3.el8"
                  },
                  {
                    "Comment": "autocorr-ga is signed with Red Hat redhatrelease2 key"
                  }
                ]
              },
              {
                "Operator": "AND",
                "Criterias": [

                ],
                "Criterions": [
                  {
                    "Comment": "autocorr-hr is earlier than 1:6.3.6.2-3.el8"
                  },
                  {
                    "Comment": "autocorr-hr is signed with Red Hat redhatrelease2 key"
                  }
                ]
              },
              {
                "Operator": "AND",
                "Criterias": [

                ],
                "Criterions": [
                  {
                    "Comment": "autocorr-hu is earlier than 1:6.3.6.2-3.el8"
                  },
                  {
                    "Comment": "autocorr-hu is signed with Red Hat redhatrelease2 key"
                  }
                ]
              },
              {
                "Operator": "AND",
                "Criterias": [

                ],
                "Criterions": [
                  {
                    "Comment": "autocorr-is is earlier than 1:6.3.6.2-3.el8"
                  },
                  {
                    "Comment": "autocorr-is is signed with Red Hat redhatrelease2 key"
                  }
                ]
              },
              {
                "Operator": "AND",
                "Criterias": [

                ],
                "Criterions": [
                  {
                    "Comment": "autocorr-it is earlier than 1:6.3.6.2-3.el8"
                  },
                  {
                    "Comment": "autocorr-it is signed with Red Hat redhatrelease2 key"
                  }
                ]
              },
              {
                "Operator": "AND",
                "Criterias": [

                ],
                "Criterions": [
                  {
                    "Comment": "autocorr-ja is earlier than 1:6.3.6.2-3.el8"
                  },
                  {
                    "Comment": "autocorr-ja is signed with Red Hat redhatrelease2 key"
                  }
                ]
              },
              {
                "Operator": "AND",
                "Criterias": [

                ],
                "Criterions": [
                  {
                    "Comment": "autocorr-ko is earlier than 1:6.3.6.2-3.el8"
                  },
                  {
                    "Comment": "autocorr-ko is signed with Red Hat redhatrelease2 key"
                  }
                ]
              },
              {
                "Operator": "AND",
                "Criterias": [

                ],
                "Criterions": [
                  {
                    "Comment": "autocorr-lb is earlier than 1:6.3.6.2-3.el8"
                  },
                  {
                    "Comment": "autocorr-lb is signed with Red Hat redhatrelease2 key"
                  }
                ]
              },
              {
                "Operator": "AND",
                "Criterias": [

                ],
                "Criterions": [
                  {
                    "Comment": "autocorr-lt is earlier than 1:6.3.6.2-3.el8"
                  },
                  {
                    "Comment": "autocorr-lt is signed with Red Hat redhatrelease2 key"
                  }
                ]
              },
              {
                "Operator": "AND",
                "Criterias": [

                ],
                "Criterions": [
                  {
                    "Comment": "autocorr-mn is earlier than 1:6.3.6.2-3.el8"
                  },
                  {
                    "Comment": "autocorr-mn is signed with Red Hat redhatrelease2 key"
                  }
                ]
              },
              {
                "Operator": "AND",
                "Criterias": [

                ],
                "Criterions": [
                  {
                    "Comment": "autocorr-nl is earlier than 1:6.3.6.2-3.el8"
                  },
                  {
                    "Comment": "autocorr-nl is signed with Red Hat redhatrelease2 key"
                  }
                ]
              },
              {
                "Operator": "AND",
                "Criterias": [

                ],
                "Criterions": [
                  {
                    "Comment": "autocorr-pl is earlier than 1:6.3.6.2-3.el8"
                  },
                  {
                    "Comment": "autocorr-pl is signed with Red Hat redhatrelease2 key"
                  }
                ]
              },
              {
                "Operator": "AND",
                "Criterias": [

                ],
                "Criterions": [
                  {
                    "Comment": "autocorr-pt is earlier than 1:6.3.6.2-3.el8"
                  },
                  {
                    "Comment": "autocorr-pt is signed with Red Hat redhatrelease2 key"
                  }
                ]
              },
              {
                "Operator": "AND",
                "Criterias": [

                ],
                "Criterions": [
                  {
                    "Comment": "autocorr-ro is earlier than 1:6.3.6.2-3.el8"
                  },
                  {
                    "Comment": "autocorr-ro is signed with Red Hat redhatrelease2 key"
                  }
                ]
              },
              {
                "Operator": "AND",
                "Criterias": [

                ],
                "Criterions": [
                  {
                    "Comment": "autocorr-ru is earlier than 1:6.3.6.2-3.el8"
                  },
                  {
                    "Comment": "autocorr-ru is signed with Red Hat redhatrelease2 key"
                  }
                ]
              },
              {
                "Operator": "AND",
                "Criterias": [

                ],
                "Criterions": [
                  {
                    "Comment": "autocorr-sk is earlier than 1:6.3.6.2-3.el8"
                  },
                  {
                    "Comment": "autocorr-sk is signed with Red Hat redhatrelease2 key"
                  }
                ]
              },
              {
                "Operator": "AND",
                "Criterias": [

                ],
                "Criterions": [
                  {
                    "Comment": "autocorr-sl is earlier than 1:6.3.6.2-3.el8"
                  },
                  {
                    "Comment": "autocorr-sl is signed with Red Hat redhatrelease2 key"
                  }
                ]
              },
              {
                "Operator": "AND",
                "Criterias": [

                ],
                "Criterions": [
                  {
                    "Comment": "autocorr-sr is earlier than 1:6.3.6.2-3.el8"
                  },
                  {
                    "Comment": "autocorr-sr is signed with Red Hat redhatrelease2 key"
                  }
                ]
              },
              {
                "Operator": "AND",
                "Criterias": [

                ],
                "Criterions": [
                  {
                    "Comment": "autocorr-sv is earlier than 1:6.3.6.2-3.el8"
                  },
                  {
                    "Comment": "autocorr-sv is signed with Red Hat redhatrelease2 key"
                  }
                ]
              },
              {
                "Operator": "AND",
                "Criterias": [

                ],
                "Criterions": [
                  {
                    "Comment": "autocorr-tr is earlier than 1:6.3.6.2-3.el8"
                  },
                  {
                    "Comment": "autocorr-tr is signed with Red Hat redhatrelease2 key"
                  }
                ]
              },
              {
                "Operator": "AND",
                "Criterias": [

                ],
                "Criterions": [
                  {
                    "Comment": "autocorr-vi is earlier than 1:6.3.6.2-3.el8"
                  },
                  {
                    "Comment": "autocorr-vi is signed with Red Hat redhatrelease2 key"
                  }
                ]
              },
              {
                "Operator": "AND",
                "Criterias": [

                ],
                "Criterions": [
                  {
                    "Comment": "autocorr-zh is earlier than 1:6.3.6.2-3.el8"
                  },
                  {
                    "Comment": "autocorr-zh is signed with Red Hat redhatrelease2 key"
                  }
                ]
              },
              {
                "Operator": "AND",
                "Criterias": [

                ],
                "Criterions": [
                  {
                    "Comment": "libreoffice-base is earlier than 1:6.3.6.2-3.el8"
                  },
                  {
                    "Comment": "libreoffice-base is signed with Red Hat redhatrelease2 key"
                  }
                ]
              },
              {
                "Operator": "AND",
                "Criterias": [

                ],
                "Criterions": [
                  {
                    "Comment": "libreoffice-calc is earlier than 1:6.3.6.2-3.el8"
                  },
                  {
                    "Comment": "libreoffice-calc is signed with Red Hat redhatrelease2 key"
                  }
                ]
              },
              {
                "Operator": "AND",
                "Criterias": [

                ],
                "Criterions": [
                  {
                    "Comment": "libreoffice-core is earlier than 1:6.3.6.2-3.el8"
                  },
                  {
                    "Comment": "libreoffice-core is signed with Red Hat redhatrelease2 key"
                  }
                ]
              },
              {
                "Operator": "AND",
                "Criterias": [

                ],
                "Criterions": [
                  {
                    "Comment": "libreoffice-data is earlier than 1:6.3.6.2-3.el8"
                  },
                  {
                    "Comment": "libreoffice-data is signed with Red Hat redhatrelease2 key"
                  }
                ]
              },
              {
                "Operator": "AND",
                "Criterias": [

                ],
                "Criterions": [
                  {
                    "Comment": "libreoffice-draw is earlier than 1:6.3.6.2-3.el8"
                  },
                  {
                    "Comment": "libreoffice-draw is signed with Red Hat redhatrelease2 key"
                  }
                ]
              },
              {
                "Operator": "AND",
                "Criterias": [

                ],
                "Criterions": [
                  {
                    "Comment": "libreoffice-emailmerge is earlier than 1:6.3.6.2-3.el8"
                  },
                  {
                    "Comment": "libreoffice-emailmerge is signed with Red Hat redhatrelease2 key"
                  }
                ]
              },
              {
                "Operator": "AND",
                "Criterias": [

                ],
                "Criterions": [
                  {
                    "Comment": "libreoffice-filters is earlier than 1:6.3.6.2-3.el8"
                  },
                  {
                    "Comment": "libreoffice-filters is signed with Red Hat redhatrelease2 key"
                  }
                ]
              },
              {
                "Operator": "AND",
                "Criterias": [

                ],
                "Criterions": [
                  {
                    "Comment": "libreoffice-gdb-debug-support is earlier than 1:6.3.6.2-3.el8"
                  },
                  {
                    "Comment": "libreoffice-gdb-debug-support is signed with Red Hat redhatrelease2 key"
                  }
                ]
              },
              {
                "Operator": "AND",
                "Criterias": [

                ],
                "Criterions": [
                  {
                    "Comment": "libreoffice-graphicfilter is earlier than 1:6.3.6.2-3.el8"
                  },
                  {
                    "Comment": "libreoffice-graphicfilter is signed with Red Hat redhatrelease2 key"
                  }
                ]
              },
              {
                "Operator": "AND",
                "Criterias": [

                ],
                "Criterions": [
                  {
                    "Comment": "libreoffice-gtk3 is earlier than 1:6.3.6.2-3.el8"
                  },
                  {
                    "Comment": "libreoffice-gtk3 is signed with Red Hat redhatrelease2 key"
                  }
                ]
              },
              {
                "Operator": "AND",
                "Criterias": [

                ],
                "Criterions": [
                  {
                    "Comment": "libreoffice-help-ar is earlier than 1:6.3.6.2-3.el8"
                  },
                  {
                    "Comment": "libreoffice-help-ar is signed with Red Hat redhatrelease2 key"
                  }
                ]
              },
              {
                "Operator": "AND",
                "Criterias": [

                ],
                "Criterions": [
                  {
                    "Comment": "libreoffice-help-bg is earlier than 1:6.3.6.2-3.el8"
                  },
                  {
                    "Comment": "libreoffice-help-bg is signed with Red Hat redhatrelease2 key"
                  }
                ]
              },
              {
                "Operator": "AND",
                "Criterias": [

                ],
                "Criterions": [
                  {
                    "Comment": "libreoffice-help-bn is earlier than 1:6.3.6.2-3.el8"
                  },
                  {
                    "Comment": "libreoffice-help-bn is signed with Red Hat redhatrelease2 key"
                  }
                ]
              },
              {
                "Operator": "AND",
                "Criterias": [

                ],
                "Criterions": [
                  {
                    "Comment": "libreoffice-help-ca is earlier than 1:6.3.6.2-3.el8"
                  },
                  {
                    "Comment": "libreoffice-help-ca is signed with Red Hat redhatrelease2 key"
                  }
                ]
              },
              {
                "Operator": "AND",
                "Criterias": [

                ],
                "Criterions": [
                  {
                    "Comment": "libreoffice-help-cs is earlier than 1:6.3.6.2-3.el8"
                  },
                  {
                    "Comment": "libreoffice-help-cs is signed with Red Hat redhatrelease2 key"
                  }
                ]
              },
              {
                "Operator": "AND",
                "Criterias": [

                ],
                "Criterions": [
                  {
                    "Comment": "libreoffice-help-da is earlier than 1:6.3.6.2-3.el8"
                  },
                  {
                    "Comment": "libreoffice-help-da is signed with Red Hat redhatrelease2 key"
                  }
                ]
              },
              {
                "Operator": "AND",
                "Criterias": [

                ],
                "Criterions": [
                  {
                    "Comment": "libreoffice-help-de is earlier than 1:6.3.6.2-3.el8"
                  },
                  {
                    "Comment": "libreoffice-help-de is signed with Red Hat redhatrelease2 key"
                  }
                ]
              },
              {
                "Operator": "AND",
                "Criterias": [

                ],
                "Criterions": [
                  {
                    "Comment": "libreoffice-help-dz is earlier than 1:6.3.6.2-3.el8"
                  },
                  {
                    "Comment": "libreoffice-help-dz is signed with Red Hat redhatrelease2 key"
                  }
                ]
              },
              {
                "Operator": "AND",
                "Criterias": [

                ],
                "Criterions": [
                  {
                    "Comment": "libreoffice-help-el is earlier than 1:6.3.6.2-3.el8"
                  },
                  {
                    "Comment": "libreoffice-help-el is signed with Red Hat redhatrelease2 key"
                  }
                ]
              },
              {
                "Operator": "AND",
                "Criterias": [

                ],
                "Criterions": [
                  {
                    "Comment": "libreoffice-help-en is earlier than 1:6.3.6.2-3.el8"
                  },
                  {
                    "Comment": "libreoffice-help-en is signed with Red Hat redhatrelease2 key"
                  }
                ]
              },
              {
                "Operator": "AND",
                "Criterias": [

                ],
                "Criterions": [
                  {
                    "Comment": "libreoffice-help-es is earlier than 1:6.3.6.2-3.el8"
                  },
                  {
                    "Comment": "libreoffice-help-es is signed with Red Hat redhatrelease2 key"
                  }
                ]
              },
              {
                "Operator": "AND",
                "Criterias": [

                ],
                "Criterions": [
                  {
                    "Comment": "libreoffice-help-et is earlier than 1:6.3.6.2-3.el8"
                  },
                  {
                    "Comment": "libreoffice-help-et is signed with Red Hat redhatrelease2 key"
                  }
                ]
              },
              {
                "Operator": "AND",
                "Criterias": [

                ],
                "Criterions": [
                  {
                    "Comment": "libreoffice-help-eu is earlier than 1:6.3.6.2-3.el8"
                  },
                  {
                    "Comment": "libreoffice-help-eu is signed with Red Hat redhatrelease2 key"
                  }
                ]
              },
              {
                "Operator": "AND",
                "Criterias": [

                ],
                "Criterions": [
                  {
                    "Comment": "libreoffice-help-fi is earlier than 1:6.3.6.2-3.el8"
                  },
                  {
                    "Comment": "libreoffice-help-fi is signed with Red Hat redhatrelease2 key"
                  }
                ]
              },
              {
                "Operator": "AND",
                "Criterias": [

                ],
                "Criterions": [
                  {
                    "Comment": "libreoffice-help-fr is earlier than 1:6.3.6.2-3.el8"
                  },
                  {
                    "Comment": "libreoffice-help-fr is signed with Red Hat redhatrelease2 key"
                  }
                ]
              },
              {
                "Operator": "AND",
                "Criterias": [

                ],
                "Criterions": [
                  {
                    "Comment": "libreoffice-help-gl is earlier than 1:6.3.6.2-3.el8"
                  },
                  {
                    "Comment": "libreoffice-help-gl is signed with Red Hat redhatrelease2 key"
                  }
                ]
              },
              {
                "Operator": "AND",
                "Criterias": [

                ],
                "Criterions": [
                  {
                    "Comment": "libreoffice-help-gu is earlier than 1:6.3.6.2-3.el8"
                  },
                  {
                    "Comment": "libreoffice-help-gu is signed with Red Hat redhatrelease2 key"
                  }
                ]
              },
              {
                "Operator": "AND",
                "Criterias": [

                ],
                "Criterions": [
                  {
                    "Comment": "libreoffice-help-he is earlier than 1:6.3.6.2-3.el8"
                  },
                  {
                    "Comment": "libreoffice-help-he is signed with Red Hat redhatrelease2 key"
                  }
                ]
              },
              {
                "Operator": "AND",
                "Criterias": [

                ],
                "Criterions": [
                  {
                    "Comment": "libreoffice-help-hi is earlier than 1:6.3.6.2-3.el8"
                  },
                  {
                    "Comment": "libreoffice-help-hi is signed with Red Hat redhatrelease2 key"
                  }
                ]
              },
              {
                "Operator": "AND",
                "Criterias": [

                ],
                "Criterions": [
                  {
                    "Comment": "libreoffice-help-hr is earlier than 1:6.3.6.2-3.el8"
                  },
                  {
                    "Comment": "libreoffice-help-hr is signed with Red Hat redhatrelease2 key"
                  }
                ]
              },
              {
                "Operator": "AND",
                "Criterias": [

                ],
                "Criterions": [
                  {
                    "Comment": "libreoffice-help-hu is earlier than 1:6.3.6.2-3.el8"
                  },
                  {
                    "Comment": "libreoffice-help-hu is signed with Red Hat redhatrelease2 key"
                  }
                ]
              },
              {
                "Operator": "AND",
                "Criterias": [

                ],
                "Criterions": [
                  {
                    "Comment": "libreoffice-help-id is earlier than 1:6.3.6.2-3.el8"
                  },
                  {
                    "Comment": "libreoffice-help-id is signed with Red Hat redhatrelease2 key"
                  }
                ]
              },
              {
                "Operator": "AND",
                "Criterias": [

                ],
                "Criterions": [
                  {
                    "Comment": "libreoffice-help-it is earlier than 1:6.3.6.2-3.el8"
                  },
                  {
                    "Comment": "libreoffice-help-it is signed with Red Hat redhatrelease2 key"
                  }
                ]
              },
              {
                "Operator": "AND",
                "Criterias": [

                ],
                "Criterions": [
                  {
                    "Comment": "libreoffice-help-ja is earlier than 1:6.3.6.2-3.el8"
                  },
                  {
                    "Comment": "libreoffice-help-ja is signed with Red Hat redhatrelease2 key"
                  }
                ]
              },
              {
                "Operator": "AND",
                "Criterias": [

                ],
                "Criterions": [
                  {
                    "Comment": "libreoffice-help-ko is earlier than 1:6.3.6.2-3.el8"
                  },
                  {
                    "Comment": "libreoffice-help-ko is signed with Red Hat redhatrelease2 key"
                  }
                ]
              },
              {
                "Operator": "AND",
                "Criterias": [

                ],
                "Criterions": [
                  {
                    "Comment": "libreoffice-help-lt is earlier than 1:6.3.6.2-3.el8"
                  },
                  {
                    "Comment": "libreoffice-help-lt is signed with Red Hat redhatrelease2 key"
                  }
                ]
              },
              {
                "Operator": "AND",
                "Criterias": [

                ],
                "Criterions": [
                  {
                    "Comment": "libreoffice-help-lv is earlier than 1:6.3.6.2-3.el8"
                  },
                  {
                    "Comment": "libreoffice-help-lv is signed with Red Hat redhatrelease2 key"
                  }
                ]
              },
              {
                "Operator": "AND",
                "Criterias": [

                ],
                "Criterions": [
                  {
                    "Comment": "libreoffice-help-nb is earlier than 1:6.3.6.2-3.el8"
                  },
                  {
                    "Comment": "libreoffice-help-nb is signed with Red Hat redhatrelease2 key"
                  }
                ]
              },
              {
                "Operator": "AND",
                "Criterias": [

                ],
                "Criterions": [
                  {
                    "Comment": "libreoffice-help-nl is earlier than 1:6.3.6.2-3.el8"
                  },
                  {
                    "Comment": "libreoffice-help-nl is signed with Red Hat redhatrelease2 key"
                  }
                ]
              },
              {
                "Operator": "AND",
                "Criterias": [

                ],
                "Criterions": [
                  {
                    "Comment": "libreoffice-help-nn is earlier than 1:6.3.6.2-3.el8"
                  },
                  {
                    "Comment": "libreoffice-help-nn is signed with Red Hat redhatrelease2 key"
                  }
                ]
              },
              {
                "Operator": "AND",
                "Criterias": [

                ],
                "Criterions": [
                  {
                    "Comment": "libreoffice-help-pl is earlier than 1:6.3.6.2-3.el8"
                  },
                  {
                    "Comment": "libreoffice-help-pl is signed with Red Hat redhatrelease2 key"
                  }
                ]
              },
              {
                "Operator": "AND",
                "Criterias": [

                ],
                "Criterions": [
                  {
                    "Comment": "libreoffice-help-pt-BR is earlier than 1:6.3.6.2-3.el8"
                  },
                  {
                    "Comment": "libreoffice-help-pt-BR is signed with Red Hat redhatrelease2 key"
                  }
                ]
              },
              {
                "Operator": "AND",
                "Criterias": [

                ],
                "Criterions": [
                  {
                    "Comment": "libreoffice-help-pt-PT is earlier than 1:6.3.6.2-3.el8"
                  },
                  {
                    "Comment": "libreoffice-help-pt-PT is signed with Red Hat redhatrelease2 key"
                  }
                ]
              },
              {
                "Operator": "AND",
                "Criterias": [

                ],
                "Criterions": [
                  {
                    "Comment": "libreoffice-help-ro is earlier than 1:6.3.6.2-3.el8"
                  },
                  {
                    "Comment": "libreoffice-help-ro is signed with Red Hat redhatrelease2 key"
                  }
                ]
              },
              {
                "Operator": "AND",
                "Criterias": [

                ],
                "Criterions": [
                  {
                    "Comment": "libreoffice-help-ru is earlier than 1:6.3.6.2-3.el8"
                  },
                  {
                    "Comment": "libreoffice-help-ru is signed with Red Hat redhatrelease2 key"
                  }
                ]
              },
              {
                "Operator": "AND",
                "Criterias": [

                ],
                "Criterions": [
                  {
                    "Comment": "libreoffice-help-si is earlier than 1:6.3.6.2-3.el8"
                  },
                  {
                    "Comment": "libreoffice-help-si is signed with Red Hat redhatrelease2 key"
                  }
                ]
              },
              {
                "Operator": "AND",
                "Criterias": [

                ],
                "Criterions": [
                  {
                    "Comment": "libreoffice-help-sk is earlier than 1:6.3.6.2-3.el8"
                  },
                  {
                    "Comment": "libreoffice-help-sk is signed with Red Hat redhatrelease2 key"
                  }
                ]
              },
              {
                "Operator": "AND",
                "Criterias": [

                ],
                "Criterions": [
                  {
                    "Comment": "libreoffice-help-sl is earlier than 1:6.3.6.2-3.el8"
                  },
                  {
                    "Comment": "libreoffice-help-sl is signed with Red Hat redhatrelease2 key"
                  }
                ]
              },
              {
                "Operator": "AND",
                "Criterias": [

                ],
                "Criterions": [
                  {
                    "Comment": "libreoffice-help-sv is earlier than 1:6.3.6.2-3.el8"
                  },
                  {
                    "Comment": "libreoffice-help-sv is signed with Red Hat redhatrelease2 key"
                  }
                ]
              },
              {
                "Operator": "AND",
                "Criterias": [

                ],
                "Criterions": [
                  {
                    "Comment": "libreoffice-help-ta is earlier than 1:6.3.6.2-3.el8"
                  },
                  {
                    "Comment": "libreoffice-help-ta is signed with Red Hat redhatrelease2 key"
                  }
                ]
              },
              {
                "Operator": "AND",
                "Criterias": [

                ],
                "Criterions": [
                  {
                    "Comment": "libreoffice-help-tr is earlier than 1:6.3.6.2-3.el8"
                  },
                  {
                    "Comment": "libreoffice-help-tr is signed with Red Hat redhatrelease2 key"
                  }
                ]
              },
              {
                "Operator": "AND",
                "Criterias": [

                ],
                "Criterions": [
                  {
                    "Comment": "libreoffice-help-uk is earlier than 1:6.3.6.2-3.el8"
                  },
                  {
                    "Comment": "libreoffice-help-uk is signed with Red Hat redhatrelease2 key"
                  }
                ]
              },
              {
                "Operator": "AND",
                "Criterias": [

                ],
                "Criterions": [
                  {
                    "Comment": "libreoffice-help-zh-Hans is earlier than 1:6.3.6.2-3.el8"
                  },
                  {
                    "Comment": "libreoffice-help-zh-Hans is signed with Red Hat redhatrelease2 key"
                  }
                ]
              },
              {
                "Operator": "AND",
                "Criterias": [

                ],
                "Criterions": [
                  {
                    "Comment": "libreoffice-help-zh-Hant is earlier than 1:6.3.6.2-3.el8"
                  },
                  {
                    "Comment": "libreoffice-help-zh-Hant is signed with Red Hat redhatrelease2 key"
                  }
                ]
              },
              {
                "Operator": "AND",
                "Criterias": [

                ],
                "Criterions": [
                  {
                    "Comment": "libreoffice-impress is earlier than 1:6.3.6.2-3.el8"
                  },
                  {
                    "Comment": "libreoffice-impress is signed with Red Hat redhatrelease2 key"
                  }
                ]
              },
              {
                "Operator": "AND",
                "Criterias": [

                ],
                "Criterions": [
                  {
                    "Comment": "libreoffice-langpack-af is earlier than 1:6.3.6.2-3.el8"
                  },
                  {
                    "Comment": "libreoffice-langpack-af is signed with Red Hat redhatrelease2 key"
                  }
                ]
              },
              {
                "Operator": "AND",
                "Criterias": [

                ],
                "Criterions": [
                  {
                    "Comment": "libreoffice-langpack-ar is earlier than 1:6.3.6.2-3.el8"
                  },
                  {
                    "Comment": "libreoffice-langpack-ar is signed with Red Hat redhatrelease2 key"
                  }
                ]
              },
              {
                "Operator": "AND",
                "Criterias": [

                ],
                "Criterions": [
                  {
                    "Comment": "libreoffice-langpack-as is earlier than 1:6.3.6.2-3.el8"
                  },
                  {
                    "Comment": "libreoffice-langpack-as is signed with Red Hat redhatrelease2 key"
                  }
                ]
              },
              {
                "Operator": "AND",
                "Criterias": [

                ],
                "Criterions": [
                  {
                    "Comment": "libreoffice-langpack-bg is earlier than 1:6.3.6.2-3.el8"
                  },
                  {
                    "Comment": "libreoffice-langpack-bg is signed with Red Hat redhatrelease2 key"
                  }
                ]
              },
              {
                "Operator": "AND",
                "Criterias": [

                ],
                "Criterions": [
                  {
                    "Comment": "libreoffice-langpack-bn is earlier than 1:6.3.6.2-3.el8"
                  },
                  {
                    "Comment": "libreoffice-langpack-bn is signed with Red Hat redhatrelease2 key"
                  }
                ]
              },
              {
                "Operator": "AND",
                "Criterias": [

                ],
                "Criterions": [
                  {
                    "Comment": "libreoffice-langpack-br is earlier than 1:6.3.6.2-3.el8"
                  },
                  {
                    "Comment": "libreoffice-langpack-br is signed with Red Hat redhatrelease2 key"
                  }
                ]
              },
              {
                "Operator": "AND",
                "Criterias": [

                ],
                "Criterions": [
                  {
                    "Comment": "libreoffice-langpack-ca is earlier than 1:6.3.6.2-3.el8"
                  },
                  {
                    "Comment": "libreoffice-langpack-ca is signed with Red Hat redhatrelease2 key"
                  }
                ]
              },
              {
                "Operator": "AND",
                "Criterias": [

                ],
                "Criterions": [
                  {
                    "Comment": "libreoffice-langpack-cs is earlier than 1:6.3.6.2-3.el8"
                  },
                  {
                    "Comment": "libreoffice-langpack-cs is signed with Red Hat redhatrelease2 key"
                  }
                ]
              },
              {
                "Operator": "AND",
                "Criterias": [

                ],
                "Criterions": [
                  {
                    "Comment": "libreoffice-langpack-cy is earlier than 1:6.3.6.2-3.el8"
                  },
                  {
                    "Comment": "libreoffice-langpack-cy is signed with Red Hat redhatrelease2 key"
                  }
                ]
              },
              {
                "Operator": "AND",
                "Criterias": [

                ],
                "Criterions": [
                  {
                    "Comment": "libreoffice-langpack-da is earlier than 1:6.3.6.2-3.el8"
                  },
                  {
                    "Comment": "libreoffice-langpack-da is signed with Red Hat redhatrelease2 key"
                  }
                ]
              },
              {
                "Operator": "AND",
                "Criterias": [

                ],
                "Criterions": [
                  {
                    "Comment": "libreoffice-langpack-de is earlier than 1:6.3.6.2-3.el8"
                  },
                  {
                    "Comment": "libreoffice-langpack-de is signed with Red Hat redhatrelease2 key"
                  }
                ]
              },
              {
                "Operator": "AND",
                "Criterias": [

                ],
                "Criterions": [
                  {
                    "Comment": "libreoffice-langpack-dz is earlier than 1:6.3.6.2-3.el8"
                  },
                  {
                    "Comment": "libreoffice-langpack-dz is signed with Red Hat redhatrelease2 key"
                  }
                ]
              },
              {
                "Operator": "AND",
                "Criterias": [

                ],
                "Criterions": [
                  {
                    "Comment": "libreoffice-langpack-el is earlier than 1:6.3.6.2-3.el8"
                  },
                  {
                    "Comment": "libreoffice-langpack-el is signed with Red Hat redhatrelease2 key"
                  }
                ]
              },
              {
                "Operator": "AND",
                "Criterias": [

                ],
                "Criterions": [
                  {
                    "Comment": "libreoffice-langpack-en is earlier than 1:6.3.6.2-3.el8"
                  },
                  {
                    "Comment": "libreoffice-langpack-en is signed with Red Hat redhatrelease2 key"
                  }
                ]
              },
              {
                "Operator": "AND",
                "Criterias": [

                ],
                "Criterions": [
                  {
                    "Comment": "libreoffice-langpack-es is earlier than 1:6.3.6.2-3.el8"
                  },
                  {
                    "Comment": "libreoffice-langpack-es is signed with Red Hat redhatrelease2 key"
                  }
                ]
              },
              {
                "Operator": "AND",
                "Criterias": [

                ],
                "Criterions": [
                  {
                    "Comment": "libreoffice-langpack-et is earlier than 1:6.3.6.2-3.el8"
                  },
                  {
                    "Comment": "libreoffice-langpack-et is signed with Red Hat redhatrelease2 key"
                  }
                ]
              },
              {
                "Operator": "AND",
                "Criterias": [

                ],
                "Criterions": [
                  {
                    "Comment": "libreoffice-langpack-eu is earlier than 1:6.3.6.2-3.el8"
                  },
                  {
                    "Comment": "libreoffice-langpack-eu is signed with Red Hat redhatrelease2 key"
                  }
                ]
              },
              {
                "Operator": "AND",
                "Criterias": [

                ],
                "Criterions": [
                  {
                    "Comment": "libreoffice-langpack-fa is earlier than 1:6.3.6.2-3.el8"
                  },
                  {
                    "Comment": "libreoffice-langpack-fa is signed with Red Hat redhatrelease2 key"
                  }
                ]
              },
              {
                "Operator": "AND",
                "Criterias": [

                ],
                "Criterions": [
                  {
                    "Comment": "libreoffice-langpack-fi is earlier than 1:6.3.6.2-3.el8"
                  },
                  {
                    "Comment": "libreoffice-langpack-fi is signed with Red Hat redhatrelease2 key"
                  }
                ]
              },
              {
                "Operator": "AND",
                "Criterias": [

                ],
                "Criterions": [
                  {
                    "Comment": "libreoffice-langpack-fr is earlier than 1:6.3.6.2-3.el8"
                  },
                  {
                    "Comment": "libreoffice-langpack-fr is signed with Red Hat redhatrelease2 key"
                  }
                ]
              },
              {
                "Operator": "AND",
                "Criterias": [

                ],
                "Criterions": [
                  {
                    "Comment": "libreoffice-langpack-ga is earlier than 1:6.3.6.2-3.el8"
                  },
                  {
                    "Comment": "libreoffice-langpack-ga is signed with Red Hat redhatrelease2 key"
                  }
                ]
              },
              {
                "Operator": "AND",
                "Criterias": [

                ],
                "Criterions": [
                  {
                    "Comment": "libreoffice-langpack-gl is earlier than 1:6.3.6.2-3.el8"
                  },
                  {
                    "Comment": "libreoffice-langpack-gl is signed with Red Hat redhatrelease2 key"
                  }
                ]
              },
              {
                "Operator": "AND",
                "Criterias": [

                ],
                "Criterions": [
                  {
                    "Comment": "libreoffice-langpack-gu is earlier than 1:6.3.6.2-3.el8"
                  },
                  {
                    "Comment": "libreoffice-langpack-gu is signed with Red Hat redhatrelease2 key"
                  }
                ]
              },
              {
                "Operator": "AND",
                "Criterias": [

                ],
                "Criterions": [
                  {
                    "Comment": "libreoffice-langpack-he is earlier than 1:6.3.6.2-3.el8"
                  },
                  {
                    "Comment": "libreoffice-langpack-he is signed with Red Hat redhatrelease2 key"
                  }
                ]
              },
              {
                "Operator": "AND",
                "Criterias": [

                ],
                "Criterions": [
                  {
                    "Comment": "libreoffice-langpack-hi is earlier than 1:6.3.6.2-3.el8"
                  },
                  {
                    "Comment": "libreoffice-langpack-hi is signed with Red Hat redhatrelease2 key"
                  }
                ]
              },
              {
                "Operator": "AND",
                "Criterias": [

                ],
                "Criterions": [
                  {
                    "Comment": "libreoffice-langpack-hr is earlier than 1:6.3.6.2-3.el8"
                  },
                  {
                    "Comment": "libreoffice-langpack-hr is signed with Red Hat redhatrelease2 key"
                  }
                ]
              },
              {
                "Operator": "AND",
                "Criterias": [

                ],
                "Criterions": [
                  {
                    "Comment": "libreoffice-langpack-hu is earlier than 1:6.3.6.2-3.el8"
                  },
                  {
                    "Comment": "libreoffice-langpack-hu is signed with Red Hat redhatrelease2 key"
                  }
                ]
              },
              {
                "Operator": "AND",
                "Criterias": [

                ],
                "Criterions": [
                  {
                    "Comment": "libreoffice-langpack-id is earlier than 1:6.3.6.2-3.el8"
                  },
                  {
                    "Comment": "libreoffice-langpack-id is signed with Red Hat redhatrelease2 key"
                  }
                ]
              },
              {
                "Operator": "AND",
                "Criterias": [

                ],
                "Criterions": [
                  {
                    "Comment": "libreoffice-langpack-it is earlier than 1:6.3.6.2-3.el8"
                  },
                  {
                    "Comment": "libreoffice-langpack-it is signed with Red Hat redhatrelease2 key"
                  }
                ]
              },
              {
                "Operator": "AND",
                "Criterias": [

                ],
                "Criterions": [
                  {
                    "Comment": "libreoffice-langpack-ja is earlier than 1:6.3.6.2-3.el8"
                  },
                  {
                    "Comment": "libreoffice-langpack-ja is signed with Red Hat redhatrelease2 key"
                  }
                ]
              },
              {
                "Operator": "AND",
                "Criterias": [

                ],
                "Criterions": [
                  {
                    "Comment": "libreoffice-langpack-kk is earlier than 1:6.3.6.2-3.el8"
                  },
                  {
                    "Comment": "libreoffice-langpack-kk is signed with Red Hat redhatrelease2 key"
                  }
                ]
              },
              {
                "Operator": "AND",
                "Criterias": [

                ],
                "Criterions": [
                  {
                    "Comment": "libreoffice-langpack-kn is earlier than 1:6.3.6.2-3.el8"
                  },
                  {
                    "Comment": "libreoffice-langpack-kn is signed with Red Hat redhatrelease2 key"
                  }
                ]
              },
              {
                "Operator": "AND",
                "Criterias": [

                ],
                "Criterions": [
                  {
                    "Comment": "libreoffice-langpack-ko is earlier than 1:6.3.6.2-3.el8"
                  },
                  {
                    "Comment": "libreoffice-langpack-ko is signed with Red Hat redhatrelease2 key"
                  }
                ]
              },
              {
                "Operator": "AND",
                "Criterias": [

                ],
                "Criterions": [
                  {
                    "Comment": "libreoffice-langpack-lt is earlier than 1:6.3.6.2-3.el8"
                  },
                  {
                    "Comment": "libreoffice-langpack-lt is signed with Red Hat redhatrelease2 key"
                  }
                ]
              },
              {
                "Operator": "AND",
                "Criterias": [

                ],
                "Criterions": [
                  {
                    "Comment": "libreoffice-langpack-lv is earlier than 1:6.3.6.2-3.el8"
                  },
                  {
                    "Comment": "libreoffice-langpack-lv is signed with Red Hat redhatrelease2 key"
                  }
                ]
              },
              {
                "Operator": "AND",
                "Criterias": [

                ],
                "Criterions": [
                  {
                    "Comment": "libreoffice-langpack-mai is earlier than 1:6.3.6.2-3.el8"
                  },
                  {
                    "Comment": "libreoffice-langpack-mai is signed with Red Hat redhatrelease2 key"
                  }
                ]
              },
              {
                "Operator": "AND",
                "Criterias": [

                ],
                "Criterions": [
                  {
                    "Comment": "libreoffice-langpack-ml is earlier than 1:6.3.6.2-3.el8"
                  },
                  {
                    "Comment": "libreoffice-langpack-ml is signed with Red Hat redhatrelease2 key"
                  }
                ]
              },
              {
                "Operator": "AND",
                "Criterias": [

                ],
                "Criterions": [
                  {
                    "Comment": "libreoffice-langpack-mr is earlier than 1:6.3.6.2-3.el8"
                  },
                  {
                    "Comment": "libreoffice-langpack-mr is signed with Red Hat redhatrelease2 key"
                  }
                ]
              },
              {
                "Operator": "AND",
                "Criterias": [

                ],
                "Criterions": [
                  {
                    "Comment": "libreoffice-langpack-nb is earlier than 1:6.3.6.2-3.el8"
                  },
                  {
                    "Comment": "libreoffice-langpack-nb is signed with Red Hat redhatrelease2 key"
                  }
                ]
              },
              {
                "Operator": "AND",
                "Criterias": [

                ],
                "Criterions": [
                  {
                    "Comment": "libreoffice-langpack-nl is earlier than 1:6.3.6.2-3.el8"
                  },
                  {
                    "Comment": "libreoffice-langpack-nl is signed with Red Hat redhatrelease2 key"
                  }
                ]
              },
              {
                "Operator": "AND",
                "Criterias": [

                ],
                "Criterions": [
                  {
                    "Comment": "libreoffice-langpack-nn is earlier than 1:6.3.6.2-3.el8"
                  },
                  {
                    "Comment": "libreoffice-langpack-nn is signed with Red Hat redhatrelease2 key"
                  }
                ]
              },
              {
                "Operator": "AND",
                "Criterias": [

                ],
                "Criterions": [
                  {
                    "Comment": "libreoffice-langpack-nr is earlier than 1:6.3.6.2-3.el8"
                  },
                  {
                    "Comment": "libreoffice-langpack-nr is signed with Red Hat redhatrelease2 key"
                  }
                ]
              },
              {
                "Operator": "AND",
                "Criterias": [

                ],
                "Criterions": [
                  {
                    "Comment": "libreoffice-langpack-nso is earlier than 1:6.3.6.2-3.el8"
                  },
                  {
                    "Comment": "libreoffice-langpack-nso is signed with Red Hat redhatrelease2 key"
                  }
                ]
              },
              {
                "Operator": "AND",
                "Criterias": [

                ],
                "Criterions": [
                  {
                    "Comment": "libreoffice-langpack-or is earlier than 1:6.3.6.2-3.el8"
                  },
                  {
                    "Comment": "libreoffice-langpack-or is signed with Red Hat redhatrelease2 key"
                  }
                ]
              },
              {
                "Operator": "AND",
                "Criterias": [

                ],
                "Criterions": [
                  {
                    "Comment": "libreoffice-langpack-pa is earlier than 1:6.3.6.2-3.el8"
                  },
                  {
                    "Comment": "libreoffice-langpack-pa is signed with Red Hat redhatrelease2 key"
                  }
                ]
              },
              {
                "Operator": "AND",
                "Criterias": [

                ],
                "Criterions": [
                  {
                    "Comment": "libreoffice-langpack-pl is earlier than 1:6.3.6.2-3.el8"
                  },
                  {
                    "Comment": "libreoffice-langpack-pl is signed with Red Hat redhatrelease2 key"
                  }
                ]
              },
              {
                "Operator": "AND",
                "Criterias": [

                ],
                "Criterions": [
                  {
                    "Comment": "libreoffice-langpack-pt-BR is earlier than 1:6.3.6.2-3.el8"
                  },
                  {
                    "Comment": "libreoffice-langpack-pt-BR is signed with Red Hat redhatrelease2 key"
                  }
                ]
              },
              {
                "Operator": "AND",
                "Criterias": [

                ],
                "Criterions": [
                  {
                    "Comment": "libreoffice-langpack-pt-PT is earlier than 1:6.3.6.2-3.el8"
                  },
                  {
                    "Comment": "libreoffice-langpack-pt-PT is signed with Red Hat redhatrelease2 key"
                  }
                ]
              },
              {
                "Operator": "AND",
                "Criterias": [

                ],
                "Criterions": [
                  {
                    "Comment": "libreoffice-langpack-ro is earlier than 1:6.3.6.2-3.el8"
                  },
                  {
                    "Comment": "libreoffice-langpack-ro is signed with Red Hat redhatrelease2 key"
                  }
                ]
              },
              {
                "Operator": "AND",
                "Criterias": [

                ],
                "Criterions": [
                  {
                    "Comment": "libreoffice-langpack-ru is earlier than 1:6.3.6.2-3.el8"
                  },
                  {
                    "Comment": "libreoffice-langpack-ru is signed with Red Hat redhatrelease2 key"
                  }
                ]
              },
              {
                "Operator": "AND",
                "Criterias": [

                ],
                "Criterions": [
                  {
                    "Comment": "libreoffice-langpack-si is earlier than 1:6.3.6.2-3.el8"
                  },
                  {
                    "Comment": "libreoffice-langpack-si is signed with Red Hat redhatrelease2 key"
                  }
                ]
              },
              {
                "Operator": "AND",
                "Criterias": [

                ],
                "Criterions": [
                  {
                    "Comment": "libreoffice-langpack-sk is earlier than 1:6.3.6.2-3.el8"
                  },
                  {
                    "Comment": "libreoffice-langpack-sk is signed with Red Hat redhatrelease2 key"
                  }
                ]
              },
              {
                "Operator": "AND",
                "Criterias": [

                ],
                "Criterions": [
                  {
                    "Comment": "libreoffice-langpack-sl is earlier than 1:6.3.6.2-3.el8"
                  },
                  {
                    "Comment": "libreoffice-langpack-sl is signed with Red Hat redhatrelease2 key"
                  }
                ]
              },
              {
                "Operator": "AND",
                "Criterias": [

                ],
                "Criterions": [
                  {
                    "Comment": "libreoffice-langpack-sr is earlier than 1:6.3.6.2-3.el8"
                  },
                  {
                    "Comment": "libreoffice-langpack-sr is signed with Red Hat redhatrelease2 key"
                  }
                ]
              },
              {
                "Operator": "AND",
                "Criterias": [

                ],
                "Criterions": [
                  {
                    "Comment": "libreoffice-langpack-ss is earlier than 1:6.3.6.2-3.el8"
                  },
                  {
                    "Comment": "libreoffice-langpack-ss is signed with Red Hat redhatrelease2 key"
                  }
                ]
              },
              {
                "Operator": "AND",
                "Criterias": [

                ],
                "Criterions": [
                  {
                    "Comment": "libreoffice-langpack-st is earlier than 1:6.3.6.2-3.el8"
                  },
                  {
                    "Comment": "libreoffice-langpack-st is signed with Red Hat redhatrelease2 key"
                  }
                ]
              },
              {
                "Operator": "AND",
                "Criterias": [

                ],
                "Criterions": [
                  {
                    "Comment": "libreoffice-langpack-sv is earlier than 1:6.3.6.2-3.el8"
                  },
                  {
                    "Comment": "libreoffice-langpack-sv is signed with Red Hat redhatrelease2 key"
                  }
                ]
              },
              {
                "Operator": "AND",
                "Criterias": [

                ],
                "Criterions": [
                  {
                    "Comment": "libreoffice-langpack-ta is earlier than 1:6.3.6.2-3.el8"
                  },
                  {
                    "Comment": "libreoffice-langpack-ta is signed with Red Hat redhatrelease2 key"
                  }
                ]
              },
              {
                "Operator": "AND",
                "Criterias": [

                ],
                "Criterions": [
                  {
                    "Comment": "libreoffice-langpack-te is earlier than 1:6.3.6.2-3.el8"
                  },
                  {
                    "Comment": "libreoffice-langpack-te is signed with Red Hat redhatrelease2 key"
                  }
                ]
              },
              {
                "Operator": "AND",
                "Criterias": [

                ],
                "Criterions": [
                  {
                    "Comment": "libreoffice-langpack-th is earlier than 1:6.3.6.2-3.el8"
                  },
                  {
                    "Comment": "libreoffice-langpack-th is signed with Red Hat redhatrelease2 key"
                  }
                ]
              },
              {
                "Operator": "AND",
                "Criterias": [

                ],
                "Criterions": [
                  {
                    "Comment": "libreoffice-langpack-tn is earlier than 1:6.3.6.2-3.el8"
                  },
                  {
                    "Comment": "libreoffice-langpack-tn is signed with Red Hat redhatrelease2 key"
                  }
                ]
              },
              {
                "Operator": "AND",
                "Criterias": [

                ],
                "Criterions": [
                  {
                    "Comment": "libreoffice-langpack-tr is earlier than 1:6.3.6.2-3.el8"
                  },
                  {
                    "Comment": "libreoffice-langpack-tr is signed with Red Hat redhatrelease2 key"
                  }
                ]
              },
              {
                "Operator": "AND",
                "Criterias": [

                ],
                "Criterions": [
                  {
                    "Comment": "libreoffice-langpack-ts is earlier than 1:6.3.6.2-3.el8"
                  },
                  {
                    "Comment": "libreoffice-langpack-ts is signed with Red Hat redhatrelease2 key"
                  }
                ]
              },
              {
                "Operator": "AND",
                "Criterias": [

                ],
                "Criterions": [
                  {
                    "Comment": "libreoffice-langpack-uk is earlier than 1:6.3.6.2-3.el8"
                  },
                  {
                    "Comment": "libreoffice-langpack-uk is signed with Red Hat redhatrelease2 key"
                  }
                ]
              },
              {
                "Operator": "AND",
                "Criterias": [

                ],
                "Criterions": [
                  {
                    "Comment": "libreoffice-langpack-ve is earlier than 1:6.3.6.2-3.el8"
                  },
                  {
                    "Comment": "libreoffice-langpack-ve is signed with Red Hat redhatrelease2 key"
                  }
                ]
              },
              {
                "Operator": "AND",
                "Criterias": [

                ],
                "Criterions": [
                  {
                    "Comment": "libreoffice-langpack-xh is earlier than 1:6.3.6.2-3.el8"
                  },
                  {
                    "Comment": "libreoffice-langpack-xh is signed with Red Hat redhatrelease2 key"
                  }
                ]
              },
              {
                "Operator": "AND",
                "Criterias": [

                ],
                "Criterions": [
                  {
                    "Comment": "libreoffice-langpack-zh-Hans is earlier than 1:6.3.6.2-3.el8"
                  },
                  {
                    "Comment": "libreoffice-langpack-zh-Hans is signed with Red Hat redhatrelease2 key"
                  }
                ]
              },
              {
                "Operator": "AND",
                "Criterias": [

                ],
                "Criterions": [
                  {
                    "Comment": "libreoffice-langpack-zh-Hant is earlier than 1:6.3.6.2-3.el8"
                  },
                  {
                    "Comment": "libreoffice-langpack-zh-Hant is signed with Red Hat redhatrelease2 key"
                  }
                ]
              },
              {
                "Operator": "AND",
                "Criterias": [

                ],
                "Criterions": [
                  {
                    "Comment": "libreoffice-langpack-zu is earlier than 1:6.3.6.2-3.el8"
                  },
                  {
                    "Comment": "libreoffice-langpack-zu is signed with Red Hat redhatrelease2 key"
                  }
                ]
              },
              {
                "Operator": "AND",
                "Criterias": [

                ],
                "Criterions": [
                  {
                    "Comment": "libreoffice-math is earlier than 1:6.3.6.2-3.el8"
                  },
                  {
                    "Comment": "libreoffice-math is signed with Red Hat redhatrelease2 key"
                  }
                ]
              },
              {
                "Operator": "AND",
                "Criterias": [

                ],
                "Criterions": [
                  {
                    "Comment": "libreoffice-ogltrans is earlier than 1:6.3.6.2-3.el8"
                  },
                  {
                    "Comment": "libreoffice-ogltrans is signed with Red Hat redhatrelease2 key"
                  }
                ]
              },
              {
                "Operator": "AND",
                "Criterias": [

                ],
                "Criterions": [
                  {
                    "Comment": "libreoffice-opensymbol-fonts is earlier than 1:6.3.6.2-3.el8"
                  },
                  {
                    "Comment": "libreoffice-opensymbol-fonts is signed with Red Hat redhatrelease2 key"
                  }
                ]
              },
              {
                "Operator": "AND",
                "Criterias": [

                ],
                "Criterions": [
                  {
                    "Comment": "libreoffice-pdfimport is earlier than 1:6.3.6.2-3.el8"
                  },
                  {
                    "Comment": "libreoffice-pdfimport is signed with Red Hat redhatrelease2 key"
                  }
                ]
              },
              {
                "Operator": "AND",
                "Criterias": [

                ],
                "Criterions": [
                  {
                    "Comment": "libreoffice-pyuno is earlier than 1:6.3.6.2-3.el8"
                  },
                  {
                    "Comment": "libreoffice-pyuno is signed with Red Hat redhatrelease2 key"
                  }
                ]
              },
              {
                "Operator": "AND",
                "Criterias": [

                ],
                "Criterions": [
                  {
                    "Comment": "libreoffice-sdk is earlier than 1:6.3.6.2-3.el8"
                  },
                  {
                    "Comment": "libreoffice-sdk is signed with Red Hat redhatrelease2 key"
                  }
                ]
              },
              {
                "Operator": "AND",
                "Criterias": [

                ],
                "Criterions": [
                  {
                    "Comment": "libreoffice-sdk-doc is earlier than 1:6.3.6.2-3.el8"
                  },
                  {
                    "Comment": "libreoffice-sdk-doc is signed with Red Hat redhatrelease2 key"
                  }
                ]
              },
              {
                "Operator": "AND",
                "Criterias": [

                ],
                "Criterions": [
                  {
                    "Comment": "libreoffice-ure is earlier than 1:6.3.6.2-3.el8"
                  },
                  {
                    "Comment": "libreoffice-ure is signed with Red Hat redhatrelease2 key"
                  }
                ]
              },
              {
                "Operator": "AND",
                "Criterias": [

                ],
                "Criterions": [
                  {
                    "Comment": "libreoffice-ure-common is earlier than 1:6.3.6.2-3.el8"
                  },
                  {
                    "Comment": "libreoffice-ure-common is signed with Red Hat redhatrelease2 key"
                  }
                ]
              },
              {
                "Operator": "AND",
                "Criterias": [

                ],
                "Criterions": [
                  {
                    "Comment": "libreoffice-wiki-publisher is earlier than 1:6.3.6.2-3.el8"
                  },
                  {
                    "Comment": "libreoffice-wiki-publisher is signed with Red Hat redhatrelease2 key"
                  }
                ]
              },
              {
                "Operator": "AND",
                "Criterias": [

                ],
                "Criterions": [
                  {
                    "Comment": "libreoffice-writer is earlier than 1:6.3.6.2-3.el8"
                  },
                  {
                    "Comment": "libreoffice-writer is signed with Red Hat redhatrelease2 key"
                  }
                ]
              },
              {
                "Operator": "AND",
                "Criterias": [

                ],
                "Criterions": [
                  {
                    "Comment": "libreoffice-x11 is earlier than 1:6.3.6.2-3.el8"
                  },
                  {
                    "Comment": "libreoffice-x11 is signed with Red Hat redhatrelease2 key"
                  }
                ]
              },
              {
                "Operator": "AND",
                "Criterias": [

                ],
                "Criterions": [
                  {
                    "Comment": "libreoffice-xsltfilter is earlier than 1:6.3.6.2-3.el8"
                  },
                  {
                    "Comment": "libreoffice-xsltfilter is signed with Red Hat redhatrelease2 key"
                  }
                ]
              },
              {
                "Operator": "AND",
                "Criterias": [

                ],
                "Criterions": [
                  {
                    "Comment": "libreofficekit is earlier than 1:6.3.6.2-3.el8"
                  },
                  {
                    "Comment": "libreofficekit is signed with Red Hat redhatrelease2 key"
                  }
                ]
              }
            ],
            "Criterions": [

            ]
          }
        ],
        "Criterions": [

        ]
      }
    ],
    "Criterions": [
      {
        "Comment": "Oracle Linux 8 is installed"
      }
    ]
  },
  "Severity": "Low",
  "Cves": [
    {
      "Impact": "",
      "Href": "",
      "ID": "CVE-2020-12802"
    },
    {
      "Impact": "",
      "Href": "",
      "ID": "CVE-2020-12803"
    }
  ],
  "Issued": {
    "Date": "2020-11-04"
  }
}