{
  "Title": "RHSA-2020:1334: telnet security update (Important)",
  "Description": "Telnet is a popular protocol for logging in to remote systems over the Internet. The telnet-server packages include a telnet service that supports remote logins into the host machine. The telnet service is disabled by default.\nSecurity Fix(es):\n* telnet-server: no bounds checks in nextitem() function allows to remotely execute arbitrary code (CVE-2020-10188)\nFor more details about the security issue(s), including the impact, a CVSS score, acknowledgments, and other related information, refer to the CVE page(s) listed in the References section.",
  "Platform": [
    "Red Hat Enterprise Linux 7"
  ],
  "References": [
    {
      "Source": "RHSA",
      "URI": "https://access.redhat.com/errata/RHSA-2020:1334",
      "ID": "RHSA-2020:1334"
    },
    {
      "Source": "CVE",
      "URI": "https://access.redhat.com/security/cve/CVE-2020-10188",
      "ID": "CVE-2020-10188"
    }
  ],
  "Criteria": {
    "Operator": "OR",
    "Criterias": [
      {
        "Operator": "AND",
        "Criterias": [

        ],
        "Criterions": [
          {
            "Comment": "Oracle Linux 7 is installed"
          },
          {
            "Comment": "telnet-server is earlier than 1:0.17-65.el7_8"
          },
          {
            "Comment": "telnet-server is signed with Red Hat redhatrelease2 key"
          }
        ]
      }
    ],
    "Criterions": [
      {
        "Comment": "Oracle Linux 7 is installed"
      }
    ]
  },
  "Severity": "Important",
  "Cves": [
    {
      "Impact": "",
      "Href": "",
      "ID": "CVE-2020-10188"
    }
  ],
  "Issued": {
    "Date": "2020-04-06"
  }
}