{
  "Title": "RHSA-2020:3848: libmspack security update (Low)",
  "Description": "The libmspack packages contain a library providing compression and extraction of the Cabinet (CAB) file format used by Microsoft.\nSecurity Fix(es):\n* libmspack: buffer overflow in function chmd_read_headers() (CVE-2019-1010305)\nFor more details about the security issue(s), including the impact, a CVSS score, acknowledgments, and other related information, refer to the CVE page(s) listed in the References section.\nAdditional Changes:\nFor detailed information on changes in this release, see the Red Hat Enterprise Linux 7.9 Release Notes linked from the References section.",
  "Platform": [
    "Red Hat Enterprise Linux 7"
  ],
  "References": [
    {
      "Source": "RHSA",
      "URI": "https://access.redhat.com/errata/RHSA-2020:3848",
      "ID": "RHSA-2020:3848"
    },
    {
      "Source": "CVE",
      "URI": "https://access.redhat.com/security/cve/CVE-2019-1010305",
      "ID": "CVE-2019-1010305"
    }
  ],
  "Criteria": {
    "Operator": "OR",
    "Criterias": [
      {
        "Operator": "AND",
        "Criterias": [
          {
            "Operator": "OR",
            "Criterias": [
              {
                "Operator": "AND",
                "Criterias": [

                ],
                "Criterions": [
                  {
                    "Comment": "libmspack is earlier than 0:0.5-0.8.alpha.el7"
                  },
                  {
                    "Comment": "libmspack is signed with Red Hat redhatrelease2 key"
                  }
                ]
              },
              {
                "Operator": "AND",
                "Criterias": [

                ],
                "Criterions": [
                  {
                    "Comment": "libmspack-devel is earlier than 0:0.5-0.8.alpha.el7"
                  },
                  {
                    "Comment": "libmspack-devel is signed with Red Hat redhatrelease2 key"
                  }
                ]
              }
            ],
            "Criterions": [

            ]
          }
        ],
        "Criterions": [
          {
            "Comment": "Oracle Linux 7 is installed"
          }
        ]
      }
    ],
    "Criterions": [
      {
        "Comment": "Oracle Linux 7 is installed"
      }
    ]
  },
  "Severity": "Low",
  "Cves": [
    {
      "Impact": "",
      "Href": "",
      "ID": "CVE-2019-1010305"
    }
  ],
  "Issued": {
    "Date": "2020-09-29"
  }
}