{
  "Title": "RHSA-2020:4638: sysstat security update (Low)",
  "Description": "The sysstat packages provide the sar and iostat commands. These commands enable system monitoring of disk, network, and other I/O activity.\nSecurity Fix(es):\n* sysstat: memory corruption due to an integer overflow in remap_struct in sa_common.c (CVE-2019-16167)\nFor more details about the security issue(s), including the impact, a CVSS score, acknowledgments, and other related information, refer to the CVE page(s) listed in the References section.\nAdditional Changes:\nFor detailed information on changes in this release, see the Red Hat Enterprise Linux 8.3 Release Notes linked from the References section.",
  "Platform": [
    "Red Hat Enterprise Linux 8"
  ],
  "References": [
    {
      "Source": "RHSA",
      "URI": "https://access.redhat.com/errata/RHSA-2020:4638",
      "ID": "RHSA-2020:4638"
    },
    {
      "Source": "CVE",
      "URI": "https://access.redhat.com/security/cve/CVE-2019-16167",
      "ID": "CVE-2019-16167"
    }
  ],
  "Criteria": {
    "Operator": "OR",
    "Criterias": [
      {
        "Operator": "AND",
        "Criterias": [
          {
            "Operator": "OR",
            "Criterias": [

            ],
            "Criterions": [
              {
                "Comment": "Oracle Linux 8 is installed"
              },
              {
                "Comment": "Red Hat CoreOS 4 is installed"
              }
            ]
          }
        ],
        "Criterions": [
          {
            "Comment": "sysstat is earlier than 0:11.7.3-5.el8"
          },
          {
            "Comment": "sysstat is signed with Red Hat redhatrelease2 key"
          }
        ]
      }
    ],
    "Criterions": [
      {
        "Comment": "Oracle Linux 8 is installed"
      }
    ]
  },
  "Severity": "Low",
  "Cves": [
    {
      "Impact": "",
      "Href": "",
      "ID": "CVE-2019-16167"
    }
  ],
  "Issued": {
    "Date": "2020-11-04"
  }
}