{
  "Title": "RHBA-2017:2100: GTK+ bug fix update (Moderate)",
  "Description": "The GTK+ packages contain the GIMP ToolKit (GTK+), a library for creating graphical user interfaces for the X Window System. \nFor detailed information on changes in this release, see the Red Hat Enterprise Linux 7.4 Release Notes linked from the References section.\nUsers of GTK+ are advised to upgrade to these updated packages.",
  "Platform": [
    "Red Hat Enterprise Linux 7"
  ],
  "References": [
    {
      "Source": "RHSA",
      "URI": "https://access.redhat.com/errata/RHBA-2017:2100",
      "ID": "RHBA-2017:2100"
    },
    {
      "Source": "CVE",
      "URI": "https://access.redhat.com/security/cve/CVE-2015-7552",
      "ID": "CVE-2015-7552"
    }
  ],
  "Criteria": {
    "Operator": "OR",
    "Criterias": [
      {
        "Operator": "AND",
        "Criterias": [
          {
            "Operator": "OR",
            "Criterias": [
              {
                "Operator": "AND",
                "Criterias": [

                ],
                "Criterions": [
                  {
                    "Comment": "at-spi2-core is earlier than 0:2.22.0-1.el7"
                  },
                  {
                    "Comment": "at-spi2-core is signed with Red Hat redhatrelease2 key"
                  }
                ]
              },
              {
                "Operator": "AND",
                "Criterias": [

                ],
                "Criterions": [
                  {
                    "Comment": "at-spi2-core-devel is earlier than 0:2.22.0-1.el7"
                  },
                  {
                    "Comment": "at-spi2-core-devel is signed with Red Hat redhatrelease2 key"
                  }
                ]
              },
              {
                "Operator": "AND",
                "Criterias": [

                ],
                "Criterions": [
                  {
                    "Comment": "glib-networking is earlier than 0:2.50.0-1.el7"
                  },
                  {
                    "Comment": "glib-networking is signed with Red Hat redhatrelease2 key"
                  }
                ]
              },
              {
                "Operator": "AND",
                "Criterias": [

                ],
                "Criterions": [
                  {
                    "Comment": "glib-networking-tests is earlier than 0:2.50.0-1.el7"
                  },
                  {
                    "Comment": "glib-networking-tests is signed with Red Hat redhatrelease2 key"
                  }
                ]
              },
              {
                "Operator": "AND",
                "Criterias": [

                ],
                "Criterions": [
                  {
                    "Comment": "gtk2 is earlier than 0:2.24.31-1.el7"
                  },
                  {
                    "Comment": "gtk2 is signed with Red Hat redhatrelease2 key"
                  }
                ]
              },
              {
                "Operator": "AND",
                "Criterias": [

                ],
                "Criterions": [
                  {
                    "Comment": "gtk2-devel is earlier than 0:2.24.31-1.el7"
                  },
                  {
                    "Comment": "gtk2-devel is signed with Red Hat redhatrelease2 key"
                  }
                ]
              },
              {
                "Operator": "AND",
                "Criterias": [

                ],
                "Criterions": [
                  {
                    "Comment": "gtk2-devel-docs is earlier than 0:2.24.31-1.el7"
                  },
                  {
                    "Comment": "gtk2-devel-docs is signed with Red Hat redhatrelease2 key"
                  }
                ]
              },
              {
                "Operator": "AND",
                "Criterias": [

                ],
                "Criterions": [
                  {
                    "Comment": "gtk2-immodule-xim is earlier than 0:2.24.31-1.el7"
                  },
                  {
                    "Comment": "gtk2-immodule-xim is signed with Red Hat redhatrelease2 key"
                  }
                ]
              },
              {
                "Operator": "AND",
                "Criterias": [

                ],
                "Criterions": [
                  {
                    "Comment": "gtk2-immodules is earlier than 0:2.24.31-1.el7"
                  },
                  {
                    "Comment": "gtk2-immodules is signed with Red Hat redhatrelease2 key"
                  }
                ]
              },
              {
                "Operator": "AND",
                "Criterias": [

                ],
                "Criterions": [
                  {
                    "Comment": "gdk-pixbuf2 is earlier than 0:2.36.5-1.el7"
                  },
                  {
                    "Comment": "gdk-pixbuf2 is signed with Red Hat redhatrelease2 key"
                  }
                ]
              },
              {
                "Operator": "AND",
                "Criterias": [

                ],
                "Criterions": [
                  {
                    "Comment": "gdk-pixbuf2-devel is earlier than 0:2.36.5-1.el7"
                  },
                  {
                    "Comment": "gdk-pixbuf2-devel is signed with Red Hat redhatrelease2 key"
                  }
                ]
              },
              {
                "Operator": "AND",
                "Criterias": [

                ],
                "Criterions": [
                  {
                    "Comment": "gdk-pixbuf2-tests is earlier than 0:2.36.5-1.el7"
                  },
                  {
                    "Comment": "gdk-pixbuf2-tests is signed with Red Hat redhatrelease2 key"
                  }
                ]
              },
              {
                "Operator": "AND",
                "Criterias": [

                ],
                "Criterions": [
                  {
                    "Comment": "harfbuzz is earlier than 0:1.3.2-1.el7"
                  },
                  {
                    "Comment": "harfbuzz is signed with Red Hat redhatrelease2 key"
                  }
                ]
              },
              {
                "Operator": "AND",
                "Criterias": [

                ],
                "Criterions": [
                  {
                    "Comment": "harfbuzz-devel is earlier than 0:1.3.2-1.el7"
                  },
                  {
                    "Comment": "harfbuzz-devel is signed with Red Hat redhatrelease2 key"
                  }
                ]
              },
              {
                "Operator": "AND",
                "Criterias": [

                ],
                "Criterions": [
                  {
                    "Comment": "harfbuzz-icu is earlier than 0:1.3.2-1.el7"
                  },
                  {
                    "Comment": "harfbuzz-icu is signed with Red Hat redhatrelease2 key"
                  }
                ]
              },
              {
                "Operator": "AND",
                "Criterias": [

                ],
                "Criterions": [
                  {
                    "Comment": "pango is earlier than 0:1.40.4-1.el7"
                  },
                  {
                    "Comment": "pango is signed with Red Hat redhatrelease2 key"
                  }
                ]
              },
              {
                "Operator": "AND",
                "Criterias": [

                ],
                "Criterions": [
                  {
                    "Comment": "pango-devel is earlier than 0:1.40.4-1.el7"
                  },
                  {
                    "Comment": "pango-devel is signed with Red Hat redhatrelease2 key"
                  }
                ]
              },
              {
                "Operator": "AND",
                "Criterias": [

                ],
                "Criterions": [
                  {
                    "Comment": "pango-tests is earlier than 0:1.40.4-1.el7"
                  },
                  {
                    "Comment": "pango-tests is signed with Red Hat redhatrelease2 key"
                  }
                ]
              },
              {
                "Operator": "AND",
                "Criterias": [

                ],
                "Criterions": [
                  {
                    "Comment": "json-glib is earlier than 0:1.2.6-1.el7"
                  },
                  {
                    "Comment": "json-glib is signed with Red Hat redhatrelease2 key"
                  }
                ]
              },
              {
                "Operator": "AND",
                "Criterias": [

                ],
                "Criterions": [
                  {
                    "Comment": "json-glib-devel is earlier than 0:1.2.6-1.el7"
                  },
                  {
                    "Comment": "json-glib-devel is signed with Red Hat redhatrelease2 key"
                  }
                ]
              },
              {
                "Operator": "AND",
                "Criterias": [

                ],
                "Criterions": [
                  {
                    "Comment": "json-glib-tests is earlier than 0:1.2.6-1.el7"
                  },
                  {
                    "Comment": "json-glib-tests is signed with Red Hat redhatrelease2 key"
                  }
                ]
              },
              {
                "Operator": "AND",
                "Criterias": [

                ],
                "Criterions": [
                  {
                    "Comment": "pyatspi is earlier than 0:2.20.3-1.el7"
                  },
                  {
                    "Comment": "pyatspi is signed with Red Hat redhatrelease2 key"
                  }
                ]
              },
              {
                "Operator": "AND",
                "Criterias": [

                ],
                "Criterions": [
                  {
                    "Comment": "cairo is earlier than 0:1.14.8-2.el7"
                  },
                  {
                    "Comment": "cairo is signed with Red Hat redhatrelease2 key"
                  }
                ]
              },
              {
                "Operator": "AND",
                "Criterias": [

                ],
                "Criterions": [
                  {
                    "Comment": "cairo-devel is earlier than 0:1.14.8-2.el7"
                  },
                  {
                    "Comment": "cairo-devel is signed with Red Hat redhatrelease2 key"
                  }
                ]
              },
              {
                "Operator": "AND",
                "Criterias": [

                ],
                "Criterions": [
                  {
                    "Comment": "cairo-gobject is earlier than 0:1.14.8-2.el7"
                  },
                  {
                    "Comment": "cairo-gobject is signed with Red Hat redhatrelease2 key"
                  }
                ]
              },
              {
                "Operator": "AND",
                "Criterias": [

                ],
                "Criterions": [
                  {
                    "Comment": "cairo-gobject-devel is earlier than 0:1.14.8-2.el7"
                  },
                  {
                    "Comment": "cairo-gobject-devel is signed with Red Hat redhatrelease2 key"
                  }
                ]
              },
              {
                "Operator": "AND",
                "Criterias": [

                ],
                "Criterions": [
                  {
                    "Comment": "cairo-tools is earlier than 0:1.14.8-2.el7"
                  },
                  {
                    "Comment": "cairo-tools is signed with Red Hat redhatrelease2 key"
                  }
                ]
              },
              {
                "Operator": "AND",
                "Criterias": [

                ],
                "Criterions": [
                  {
                    "Comment": "at-spi2-atk is earlier than 0:2.22.0-2.el7"
                  },
                  {
                    "Comment": "at-spi2-atk is signed with Red Hat redhatrelease2 key"
                  }
                ]
              },
              {
                "Operator": "AND",
                "Criterias": [

                ],
                "Criterions": [
                  {
                    "Comment": "at-spi2-atk-devel is earlier than 0:2.22.0-2.el7"
                  },
                  {
                    "Comment": "at-spi2-atk-devel is signed with Red Hat redhatrelease2 key"
                  }
                ]
              },
              {
                "Operator": "AND",
                "Criterias": [

                ],
                "Criterions": [
                  {
                    "Comment": "gtk-update-icon-cache is earlier than 0:3.22.10-4.el7"
                  },
                  {
                    "Comment": "gtk-update-icon-cache is signed with Red Hat redhatrelease2 key"
                  }
                ]
              },
              {
                "Operator": "AND",
                "Criterias": [

                ],
                "Criterions": [
                  {
                    "Comment": "gtk3 is earlier than 0:3.22.10-4.el7"
                  },
                  {
                    "Comment": "gtk3 is signed with Red Hat redhatrelease2 key"
                  }
                ]
              },
              {
                "Operator": "AND",
                "Criterias": [

                ],
                "Criterions": [
                  {
                    "Comment": "gtk3-devel is earlier than 0:3.22.10-4.el7"
                  },
                  {
                    "Comment": "gtk3-devel is signed with Red Hat redhatrelease2 key"
                  }
                ]
              },
              {
                "Operator": "AND",
                "Criterias": [

                ],
                "Criterions": [
                  {
                    "Comment": "gtk3-devel-docs is earlier than 0:3.22.10-4.el7"
                  },
                  {
                    "Comment": "gtk3-devel-docs is signed with Red Hat redhatrelease2 key"
                  }
                ]
              },
              {
                "Operator": "AND",
                "Criterias": [

                ],
                "Criterions": [
                  {
                    "Comment": "gtk3-immodule-xim is earlier than 0:3.22.10-4.el7"
                  },
                  {
                    "Comment": "gtk3-immodule-xim is signed with Red Hat redhatrelease2 key"
                  }
                ]
              },
              {
                "Operator": "AND",
                "Criterias": [

                ],
                "Criterions": [
                  {
                    "Comment": "gtk3-immodules is earlier than 0:3.22.10-4.el7"
                  },
                  {
                    "Comment": "gtk3-immodules is signed with Red Hat redhatrelease2 key"
                  }
                ]
              },
              {
                "Operator": "AND",
                "Criterias": [

                ],
                "Criterions": [
                  {
                    "Comment": "gtk3-tests is earlier than 0:3.22.10-4.el7"
                  },
                  {
                    "Comment": "gtk3-tests is signed with Red Hat redhatrelease2 key"
                  }
                ]
              },
              {
                "Operator": "AND",
                "Criterias": [

                ],
                "Criterions": [
                  {
                    "Comment": "atk is earlier than 0:2.22.0-3.el7"
                  },
                  {
                    "Comment": "atk is signed with Red Hat redhatrelease2 key"
                  }
                ]
              },
              {
                "Operator": "AND",
                "Criterias": [

                ],
                "Criterions": [
                  {
                    "Comment": "atk-devel is earlier than 0:2.22.0-3.el7"
                  },
                  {
                    "Comment": "atk-devel is signed with Red Hat redhatrelease2 key"
                  }
                ]
              },
              {
                "Operator": "AND",
                "Criterias": [

                ],
                "Criterions": [
                  {
                    "Comment": "glib2 is earlier than 0:2.50.3-3.el7"
                  },
                  {
                    "Comment": "glib2 is signed with Red Hat redhatrelease2 key"
                  }
                ]
              },
              {
                "Operator": "AND",
                "Criterias": [

                ],
                "Criterions": [
                  {
                    "Comment": "glib2-devel is earlier than 0:2.50.3-3.el7"
                  },
                  {
                    "Comment": "glib2-devel is signed with Red Hat redhatrelease2 key"
                  }
                ]
              },
              {
                "Operator": "AND",
                "Criterias": [

                ],
                "Criterions": [
                  {
                    "Comment": "glib2-doc is earlier than 0:2.50.3-3.el7"
                  },
                  {
                    "Comment": "glib2-doc is signed with Red Hat redhatrelease2 key"
                  }
                ]
              },
              {
                "Operator": "AND",
                "Criterias": [

                ],
                "Criterions": [
                  {
                    "Comment": "glib2-fam is earlier than 0:2.50.3-3.el7"
                  },
                  {
                    "Comment": "glib2-fam is signed with Red Hat redhatrelease2 key"
                  }
                ]
              },
              {
                "Operator": "AND",
                "Criterias": [

                ],
                "Criterions": [
                  {
                    "Comment": "glib2-static is earlier than 0:2.50.3-3.el7"
                  },
                  {
                    "Comment": "glib2-static is signed with Red Hat redhatrelease2 key"
                  }
                ]
              },
              {
                "Operator": "AND",
                "Criterias": [

                ],
                "Criterions": [
                  {
                    "Comment": "glib2-tests is earlier than 0:2.50.3-3.el7"
                  },
                  {
                    "Comment": "glib2-tests is signed with Red Hat redhatrelease2 key"
                  }
                ]
              }
            ],
            "Criterions": [

            ]
          }
        ],
        "Criterions": [
          {
            "Comment": "Oracle Linux 7 is installed"
          }
        ]
      }
    ],
    "Criterions": [
      {
        "Comment": "Oracle Linux 7 is installed"
      }
    ]
  },
  "Severity": "Moderate",
  "Cves": [
    {
      "Impact": "",
      "Href": "",
      "ID": "CVE-2015-7552"
    }
  ],
  "Issued": {
    "Date": "2017-08-01"
  }
}