{
  "Title": "RHSA-2017:1792: java-1.6.0-sun security update (Critical)",
  "Description": "Oracle Java SE version 6 includes the Oracle Java Runtime Environment and the Oracle Java Software Development Kit.\nThis update upgrades Oracle Java SE 6 to version 6 Update 161.\nSecurity Fix(es):\n* This update fixes multiple vulnerabilities in the Oracle Java Runtime Environment and the Oracle Java Software Development Kit. Further information about these flaws can be found on the Oracle Java SE Critical Patch Update Advisory page, listed in the References section. (CVE-2017-10053, CVE-2017-10067, CVE-2017-10074, CVE-2017-10081, CVE-2017-10087, CVE-2017-10089, CVE-2017-10096, CVE-2017-10101, CVE-2017-10102, CVE-2017-10105, CVE-2017-10107, CVE-2017-10108, CVE-2017-10109, CVE-2017-10110, CVE-2017-10115, CVE-2017-10116, CVE-2017-10135, CVE-2017-10193, CVE-2017-10198, CVE-2017-10243)",
  "Platform": [
    "Oracle Java for Red Hat Enterprise Linux 6",
    "Oracle Java for Red Hat Enterprise Linux 7"
  ],
  "References": [
    {
      "Source": "RHSA",
      "URI": "https://access.redhat.com/errata/RHSA-2017:1792",
      "ID": "RHSA-2017:1792"
    },
    {
      "Source": "CVE",
      "URI": "https://access.redhat.com/security/cve/CVE-2017-10053",
      "ID": "CVE-2017-10053"
    },
    {
      "Source": "CVE",
      "URI": "https://access.redhat.com/security/cve/CVE-2017-10067",
      "ID": "CVE-2017-10067"
    },
    {
      "Source": "CVE",
      "URI": "https://access.redhat.com/security/cve/CVE-2017-10074",
      "ID": "CVE-2017-10074"
    },
    {
      "Source": "CVE",
      "URI": "https://access.redhat.com/security/cve/CVE-2017-10081",
      "ID": "CVE-2017-10081"
    },
    {
      "Source": "CVE",
      "URI": "https://access.redhat.com/security/cve/CVE-2017-10087",
      "ID": "CVE-2017-10087"
    },
    {
      "Source": "CVE",
      "URI": "https://access.redhat.com/security/cve/CVE-2017-10089",
      "ID": "CVE-2017-10089"
    },
    {
      "Source": "CVE",
      "URI": "https://access.redhat.com/security/cve/CVE-2017-10096",
      "ID": "CVE-2017-10096"
    },
    {
      "Source": "CVE",
      "URI": "https://access.redhat.com/security/cve/CVE-2017-10101",
      "ID": "CVE-2017-10101"
    },
    {
      "Source": "CVE",
      "URI": "https://access.redhat.com/security/cve/CVE-2017-10102",
      "ID": "CVE-2017-10102"
    },
    {
      "Source": "CVE",
      "URI": "https://access.redhat.com/security/cve/CVE-2017-10105",
      "ID": "CVE-2017-10105"
    },
    {
      "Source": "CVE",
      "URI": "https://access.redhat.com/security/cve/CVE-2017-10107",
      "ID": "CVE-2017-10107"
    },
    {
      "Source": "CVE",
      "URI": "https://access.redhat.com/security/cve/CVE-2017-10108",
      "ID": "CVE-2017-10108"
    },
    {
      "Source": "CVE",
      "URI": "https://access.redhat.com/security/cve/CVE-2017-10109",
      "ID": "CVE-2017-10109"
    },
    {
      "Source": "CVE",
      "URI": "https://access.redhat.com/security/cve/CVE-2017-10110",
      "ID": "CVE-2017-10110"
    },
    {
      "Source": "CVE",
      "URI": "https://access.redhat.com/security/cve/CVE-2017-10115",
      "ID": "CVE-2017-10115"
    },
    {
      "Source": "CVE",
      "URI": "https://access.redhat.com/security/cve/CVE-2017-10116",
      "ID": "CVE-2017-10116"
    },
    {
      "Source": "CVE",
      "URI": "https://access.redhat.com/security/cve/CVE-2017-10135",
      "ID": "CVE-2017-10135"
    },
    {
      "Source": "CVE",
      "URI": "https://access.redhat.com/security/cve/CVE-2017-10193",
      "ID": "CVE-2017-10193"
    },
    {
      "Source": "CVE",
      "URI": "https://access.redhat.com/security/cve/CVE-2017-10198",
      "ID": "CVE-2017-10198"
    },
    {
      "Source": "CVE",
      "URI": "https://access.redhat.com/security/cve/CVE-2017-10243",
      "ID": "CVE-2017-10243"
    }
  ],
  "Criteria": {
    "Operator": "OR",
    "Criterias": [
      {
        "Operator": "AND",
        "Criterias": [
          {
            "Operator": "OR",
            "Criterias": [
              {
                "Operator": "AND",
                "Criterias": [

                ],
                "Criterions": [
                  {
                    "Comment": "java-1.6.0-sun is earlier than 1:1.6.0.161-1jpp.3.el7_3"
                  },
                  {
                    "Comment": "java-1.6.0-sun is signed with Red Hat redhatrelease2 key"
                  }
                ]
              },
              {
                "Operator": "AND",
                "Criterias": [

                ],
                "Criterions": [
                  {
                    "Comment": "java-1.6.0-sun-demo is earlier than 1:1.6.0.161-1jpp.3.el7_3"
                  },
                  {
                    "Comment": "java-1.6.0-sun-demo is signed with Red Hat redhatrelease2 key"
                  }
                ]
              },
              {
                "Operator": "AND",
                "Criterias": [

                ],
                "Criterions": [
                  {
                    "Comment": "java-1.6.0-sun-devel is earlier than 1:1.6.0.161-1jpp.3.el7_3"
                  },
                  {
                    "Comment": "java-1.6.0-sun-devel is signed with Red Hat redhatrelease2 key"
                  }
                ]
              },
              {
                "Operator": "AND",
                "Criterias": [

                ],
                "Criterions": [
                  {
                    "Comment": "java-1.6.0-sun-jdbc is earlier than 1:1.6.0.161-1jpp.3.el7_3"
                  },
                  {
                    "Comment": "java-1.6.0-sun-jdbc is signed with Red Hat redhatrelease2 key"
                  }
                ]
              },
              {
                "Operator": "AND",
                "Criterias": [

                ],
                "Criterions": [
                  {
                    "Comment": "java-1.6.0-sun-plugin is earlier than 1:1.6.0.161-1jpp.3.el7_3"
                  },
                  {
                    "Comment": "java-1.6.0-sun-plugin is signed with Red Hat redhatrelease2 key"
                  }
                ]
              },
              {
                "Operator": "AND",
                "Criterias": [

                ],
                "Criterions": [
                  {
                    "Comment": "java-1.6.0-sun-src is earlier than 1:1.6.0.161-1jpp.3.el7_3"
                  },
                  {
                    "Comment": "java-1.6.0-sun-src is signed with Red Hat redhatrelease2 key"
                  }
                ]
              }
            ],
            "Criterions": [

            ]
          }
        ],
        "Criterions": [
          {
            "Comment": "Oracle Linux 7 is installed"
          }
        ]
      },
      {
        "Operator": "AND",
        "Criterias": [
          {
            "Operator": "OR",
            "Criterias": [
              {
                "Operator": "AND",
                "Criterias": [

                ],
                "Criterions": [
                  {
                    "Comment": "java-1.6.0-sun is earlier than 1:1.6.0.161-1jpp.1.el6"
                  },
                  {
                    "Comment": "java-1.6.0-sun is signed with Red Hat redhatrelease2 key"
                  }
                ]
              },
              {
                "Operator": "AND",
                "Criterias": [

                ],
                "Criterions": [
                  {
                    "Comment": "java-1.6.0-sun-demo is earlier than 1:1.6.0.161-1jpp.1.el6"
                  },
                  {
                    "Comment": "java-1.6.0-sun-demo is signed with Red Hat redhatrelease2 key"
                  }
                ]
              },
              {
                "Operator": "AND",
                "Criterias": [

                ],
                "Criterions": [
                  {
                    "Comment": "java-1.6.0-sun-devel is earlier than 1:1.6.0.161-1jpp.1.el6"
                  },
                  {
                    "Comment": "java-1.6.0-sun-devel is signed with Red Hat redhatrelease2 key"
                  }
                ]
              },
              {
                "Operator": "AND",
                "Criterias": [

                ],
                "Criterions": [
                  {
                    "Comment": "java-1.6.0-sun-jdbc is earlier than 1:1.6.0.161-1jpp.1.el6"
                  },
                  {
                    "Comment": "java-1.6.0-sun-jdbc is signed with Red Hat redhatrelease2 key"
                  }
                ]
              },
              {
                "Operator": "AND",
                "Criterias": [

                ],
                "Criterions": [
                  {
                    "Comment": "java-1.6.0-sun-plugin is earlier than 1:1.6.0.161-1jpp.1.el6"
                  },
                  {
                    "Comment": "java-1.6.0-sun-plugin is signed with Red Hat redhatrelease2 key"
                  }
                ]
              },
              {
                "Operator": "AND",
                "Criterias": [

                ],
                "Criterions": [
                  {
                    "Comment": "java-1.6.0-sun-src is earlier than 1:1.6.0.161-1jpp.1.el6"
                  },
                  {
                    "Comment": "java-1.6.0-sun-src is signed with Red Hat redhatrelease2 key"
                  }
                ]
              }
            ],
            "Criterions": [

            ]
          }
        ],
        "Criterions": [
          {
            "Comment": "Oracle Linux 6 is installed"
          }
        ]
      }
    ],
    "Criterions": [
      {
        "Comment": "Oracle Linux 6 is installed"
      }
    ]
  },
  "Severity": "Critical",
  "Cves": [
    {
      "Impact": "",
      "Href": "",
      "ID": "CVE-2017-10053"
    },
    {
      "Impact": "",
      "Href": "",
      "ID": "CVE-2017-10067"
    },
    {
      "Impact": "",
      "Href": "",
      "ID": "CVE-2017-10074"
    },
    {
      "Impact": "",
      "Href": "",
      "ID": "CVE-2017-10081"
    },
    {
      "Impact": "",
      "Href": "",
      "ID": "CVE-2017-10087"
    },
    {
      "Impact": "",
      "Href": "",
      "ID": "CVE-2017-10089"
    },
    {
      "Impact": "",
      "Href": "",
      "ID": "CVE-2017-10096"
    },
    {
      "Impact": "",
      "Href": "",
      "ID": "CVE-2017-10101"
    },
    {
      "Impact": "",
      "Href": "",
      "ID": "CVE-2017-10102"
    },
    {
      "Impact": "",
      "Href": "",
      "ID": "CVE-2017-10105"
    },
    {
      "Impact": "",
      "Href": "",
      "ID": "CVE-2017-10107"
    },
    {
      "Impact": "",
      "Href": "",
      "ID": "CVE-2017-10108"
    },
    {
      "Impact": "",
      "Href": "",
      "ID": "CVE-2017-10109"
    },
    {
      "Impact": "",
      "Href": "",
      "ID": "CVE-2017-10110"
    },
    {
      "Impact": "",
      "Href": "",
      "ID": "CVE-2017-10115"
    },
    {
      "Impact": "",
      "Href": "",
      "ID": "CVE-2017-10116"
    },
    {
      "Impact": "",
      "Href": "",
      "ID": "CVE-2017-10135"
    },
    {
      "Impact": "",
      "Href": "",
      "ID": "CVE-2017-10193"
    },
    {
      "Impact": "",
      "Href": "",
      "ID": "CVE-2017-10198"
    },
    {
      "Impact": "",
      "Href": "",
      "ID": "CVE-2017-10243"
    }
  ],
  "Issued": {
    "Date": "2017-07-20"
  }
}