{
  "Title": "RHSA-2017:1101: nss security update (Critical)",
  "Description": "Network Security Services (NSS) is a set of libraries designed to support the cross-platform development of security-enabled client and server applications.\nSecurity Fix(es):\n* An out-of-bounds write flaw was found in the way NSS performed certain Base64-decoding operations. An attacker could use this flaw to create a specially crafted certificate which, when parsed by NSS, could cause it to crash or execute arbitrary code, using the permissions of the user running an application compiled against the NSS library. (CVE-2017-5461)\nRed Hat would like to thank the Mozilla project for reporting this issue. Upstream acknowledges Ronald Crane as the original reporter.",
  "Platform": [
    "Red Hat Enterprise Linux 5 Extended Lifecycle Support"
  ],
  "References": [
    {
      "Source": "RHSA",
      "URI": "https://access.redhat.com/errata/RHSA-2017:1101",
      "ID": "RHSA-2017:1101"
    },
    {
      "Source": "CVE",
      "URI": "https://access.redhat.com/security/cve/CVE-2017-5461",
      "ID": "CVE-2017-5461"
    }
  ],
  "Criteria": {
    "Operator": "OR",
    "Criterias": [
      {
        "Operator": "AND",
        "Criterias": [
          {
            "Operator": "OR",
            "Criterias": [
              {
                "Operator": "AND",
                "Criterias": [

                ],
                "Criterions": [
                  {
                    "Comment": "nss is earlier than 0:3.21.4-1.el5_11"
                  },
                  {
                    "Comment": "nss is signed with Red Hat redhatrelease2 key"
                  }
                ]
              },
              {
                "Operator": "AND",
                "Criterias": [

                ],
                "Criterions": [
                  {
                    "Comment": "nss-devel is earlier than 0:3.21.4-1.el5_11"
                  },
                  {
                    "Comment": "nss-devel is signed with Red Hat redhatrelease2 key"
                  }
                ]
              },
              {
                "Operator": "AND",
                "Criterias": [

                ],
                "Criterions": [
                  {
                    "Comment": "nss-pkcs11-devel is earlier than 0:3.21.4-1.el5_11"
                  },
                  {
                    "Comment": "nss-pkcs11-devel is signed with Red Hat redhatrelease2 key"
                  }
                ]
              },
              {
                "Operator": "AND",
                "Criterias": [

                ],
                "Criterions": [
                  {
                    "Comment": "nss-tools is earlier than 0:3.21.4-1.el5_11"
                  },
                  {
                    "Comment": "nss-tools is signed with Red Hat redhatrelease2 key"
                  }
                ]
              }
            ],
            "Criterions": [

            ]
          }
        ],
        "Criterions": [
          {
            "Comment": "Oracle Linux 5 is installed"
          }
        ]
      }
    ],
    "Criterions": [
      {
        "Comment": "Oracle Linux 5 Extended Lifecycle Support is installed"
      }
    ]
  },
  "Severity": "Critical",
  "Cves": [
    {
      "Impact": "",
      "Href": "",
      "ID": "CVE-2017-5461"
    }
  ],
  "Issued": {
    "Date": "2017-04-20"
  }
}