{
  "Title": "RHSA-2017:3278: samba4 security update (Important)",
  "Description": "Samba is an open-source implementation of the Server Message Block (SMB) or Common Internet File System (CIFS) protocol, which allows PC-compatible machines to share files, printers, and other information.\nSecurity Fix(es):\n* A use-after-free flaw was found in the way samba servers handled certain SMB1 requests. An unauthenticated attacker could send specially-crafted SMB1 requests to cause the server to crash or execute arbitrary code. (CVE-2017-14746)\n* A memory disclosure flaw was found in samba. An attacker could retrieve parts of server memory, which could contain potentially sensitive data, by sending specially-crafted requests to the samba server. (CVE-2017-15275)\nRed Hat would like to thank the Samba project for reporting these issues. Upstream acknowledges Yihan Lian and Zhibin Hu (Qihoo 360 GearTeam) as the original reporter of CVE-2017-14746; and Volker Lendecke (SerNet and the Samba Team) as the original reporter of CVE-2017-15275.",
  "Platform": [
    "Red Hat Enterprise Linux 6"
  ],
  "References": [
    {
      "Source": "RHSA",
      "URI": "https://access.redhat.com/errata/RHSA-2017:3278",
      "ID": "RHSA-2017:3278"
    },
    {
      "Source": "CVE",
      "URI": "https://access.redhat.com/security/cve/CVE-2017-14746",
      "ID": "CVE-2017-14746"
    },
    {
      "Source": "CVE",
      "URI": "https://access.redhat.com/security/cve/CVE-2017-15275",
      "ID": "CVE-2017-15275"
    }
  ],
  "Criteria": {
    "Operator": "OR",
    "Criterias": [
      {
        "Operator": "AND",
        "Criterias": [
          {
            "Operator": "OR",
            "Criterias": [
              {
                "Operator": "AND",
                "Criterias": [

                ],
                "Criterions": [
                  {
                    "Comment": "samba4 is earlier than 0:4.2.10-12.el6_9"
                  },
                  {
                    "Comment": "samba4 is signed with Red Hat redhatrelease2 key"
                  }
                ]
              },
              {
                "Operator": "AND",
                "Criterias": [

                ],
                "Criterions": [
                  {
                    "Comment": "samba4-client is earlier than 0:4.2.10-12.el6_9"
                  },
                  {
                    "Comment": "samba4-client is signed with Red Hat redhatrelease2 key"
                  }
                ]
              },
              {
                "Operator": "AND",
                "Criterias": [

                ],
                "Criterions": [
                  {
                    "Comment": "samba4-common is earlier than 0:4.2.10-12.el6_9"
                  },
                  {
                    "Comment": "samba4-common is signed with Red Hat redhatrelease2 key"
                  }
                ]
              },
              {
                "Operator": "AND",
                "Criterias": [

                ],
                "Criterions": [
                  {
                    "Comment": "samba4-dc is earlier than 0:4.2.10-12.el6_9"
                  },
                  {
                    "Comment": "samba4-dc is signed with Red Hat redhatrelease2 key"
                  }
                ]
              },
              {
                "Operator": "AND",
                "Criterias": [

                ],
                "Criterions": [
                  {
                    "Comment": "samba4-dc-libs is earlier than 0:4.2.10-12.el6_9"
                  },
                  {
                    "Comment": "samba4-dc-libs is signed with Red Hat redhatrelease2 key"
                  }
                ]
              },
              {
                "Operator": "AND",
                "Criterias": [

                ],
                "Criterions": [
                  {
                    "Comment": "samba4-devel is earlier than 0:4.2.10-12.el6_9"
                  },
                  {
                    "Comment": "samba4-devel is signed with Red Hat redhatrelease2 key"
                  }
                ]
              },
              {
                "Operator": "AND",
                "Criterias": [

                ],
                "Criterions": [
                  {
                    "Comment": "samba4-libs is earlier than 0:4.2.10-12.el6_9"
                  },
                  {
                    "Comment": "samba4-libs is signed with Red Hat redhatrelease2 key"
                  }
                ]
              },
              {
                "Operator": "AND",
                "Criterias": [

                ],
                "Criterions": [
                  {
                    "Comment": "samba4-pidl is earlier than 0:4.2.10-12.el6_9"
                  },
                  {
                    "Comment": "samba4-pidl is signed with Red Hat redhatrelease2 key"
                  }
                ]
              },
              {
                "Operator": "AND",
                "Criterias": [

                ],
                "Criterions": [
                  {
                    "Comment": "samba4-python is earlier than 0:4.2.10-12.el6_9"
                  },
                  {
                    "Comment": "samba4-python is signed with Red Hat redhatrelease2 key"
                  }
                ]
              },
              {
                "Operator": "AND",
                "Criterias": [

                ],
                "Criterions": [
                  {
                    "Comment": "samba4-test is earlier than 0:4.2.10-12.el6_9"
                  },
                  {
                    "Comment": "samba4-test is signed with Red Hat redhatrelease2 key"
                  }
                ]
              },
              {
                "Operator": "AND",
                "Criterias": [

                ],
                "Criterions": [
                  {
                    "Comment": "samba4-winbind is earlier than 0:4.2.10-12.el6_9"
                  },
                  {
                    "Comment": "samba4-winbind is signed with Red Hat redhatrelease2 key"
                  }
                ]
              },
              {
                "Operator": "AND",
                "Criterias": [

                ],
                "Criterions": [
                  {
                    "Comment": "samba4-winbind-clients is earlier than 0:4.2.10-12.el6_9"
                  },
                  {
                    "Comment": "samba4-winbind-clients is signed with Red Hat redhatrelease2 key"
                  }
                ]
              },
              {
                "Operator": "AND",
                "Criterias": [

                ],
                "Criterions": [
                  {
                    "Comment": "samba4-winbind-krb5-locator is earlier than 0:4.2.10-12.el6_9"
                  },
                  {
                    "Comment": "samba4-winbind-krb5-locator is signed with Red Hat redhatrelease2 key"
                  }
                ]
              }
            ],
            "Criterions": [

            ]
          }
        ],
        "Criterions": [
          {
            "Comment": "Oracle Linux 6 is installed"
          }
        ]
      }
    ],
    "Criterions": [
      {
        "Comment": "Oracle Linux 6 is installed"
      }
    ]
  },
  "Severity": "Important",
  "Cves": [
    {
      "Impact": "",
      "Href": "",
      "ID": "CVE-2017-14746"
    },
    {
      "Impact": "",
      "Href": "",
      "ID": "CVE-2017-15275"
    }
  ],
  "Issued": {
    "Date": "2017-11-29"
  }
}