{
  "Title": "RHSA-2017:2840: dnsmasq security update (Critical)",
  "Description": "The dnsmasq packages contain Dnsmasq, a lightweight DNS (Domain Name Server) forwarder and DHCP (Dynamic Host Configuration Protocol) server.\nSecurity Fix(es):\n* A heap buffer overflow was found in dnsmasq in the code responsible for building DNS replies. An attacker could send crafted DNS packets to dnsmasq which would cause it to crash or, potentially, execute arbitrary code. (CVE-2017-14491)\nRed Hat would like to thank Felix Wilhelm (Google Security Team), Fermin J. Serna (Google Security Team), Gabriel Campana (Google Security Team), Kevin Hamacher (Google Security Team), and Ron Bowes (Google Security Team) for reporting this issue.",
  "Platform": [
    "Red Hat Enterprise Linux 5 Extended Lifecycle Support"
  ],
  "References": [
    {
      "Source": "RHSA",
      "URI": "https://access.redhat.com/errata/RHSA-2017:2840",
      "ID": "RHSA-2017:2840"
    },
    {
      "Source": "CVE",
      "URI": "https://access.redhat.com/security/cve/CVE-2017-14491",
      "ID": "CVE-2017-14491"
    }
  ],
  "Criteria": {
    "Operator": "OR",
    "Criterias": [
      {
        "Operator": "AND",
        "Criterias": [

        ],
        "Criterions": [
          {
            "Comment": "Oracle Linux 5 is installed"
          },
          {
            "Comment": "dnsmasq is earlier than 0:2.45-2.el5_11.1"
          },
          {
            "Comment": "dnsmasq is signed with Red Hat redhatrelease2 key"
          }
        ]
      }
    ],
    "Criterions": [
      {
        "Comment": "Oracle Linux 5 Extended Lifecycle Support is installed"
      }
    ]
  },
  "Severity": "Critical",
  "Cves": [
    {
      "Impact": "",
      "Href": "",
      "ID": "CVE-2017-14491"
    }
  ],
  "Issued": {
    "Date": "2017-10-02"
  }
}