{
  "Title": "RHSA-2017:1298: kernel-rt security and bug fix update (Important)",
  "Description": "The kernel-rt packages provide the Real Time Linux Kernel, which enables fine-tuning for systems with extremely high determinism requirements.\nSecurity Fix(es):\n* It was found that the packet_set_ring() function of the Linux kernel's networking implementation did not properly validate certain block-size data. A local attacker with CAP_NET_RAW capability could use this flaw to trigger a buffer overflow, resulting in the crash of the system. Due to the nature of the flaw, privilege escalation cannot be fully ruled out. (CVE-2017-7308, Important)\n* Mounting a crafted EXT4 image read-only leads to an attacker controlled memory corruption and SLAB-Out-of-Bounds reads. (CVE-2016-10208, Moderate)\n* A flaw was found in the Linux kernel's implementation of seq_file where a local attacker could manipulate memory in the put() function pointer. This could lead to memory corruption and possible privileged escalation. (CVE-2016-7910, Moderate)\n* A vulnerability was found in the Linux kernel. An unprivileged local user could trigger oops in shash_async_export() by attempting to force the in-kernel hashing algorithms into decrypting an empty data set. (CVE-2016-8646, Moderate)\nRed Hat would like to thank Igor Redko (Virtuozzo kernel team) for reporting CVE-2016-8646.\nBug Fix(es):\n* The kernel-rt packages have been upgraded to the 3.10.0-514.21.1 source tree, which provides a number of bug fixes over the previous version. (BZ#1440803)",
  "Platform": [
    "Red Hat Enterprise Linux 7"
  ],
  "References": [
    {
      "Source": "RHSA",
      "URI": "https://access.redhat.com/errata/RHSA-2017:1298",
      "ID": "RHSA-2017:1298"
    },
    {
      "Source": "CVE",
      "URI": "https://access.redhat.com/security/cve/CVE-2016-10208",
      "ID": "CVE-2016-10208"
    },
    {
      "Source": "CVE",
      "URI": "https://access.redhat.com/security/cve/CVE-2016-7910",
      "ID": "CVE-2016-7910"
    },
    {
      "Source": "CVE",
      "URI": "https://access.redhat.com/security/cve/CVE-2016-8646",
      "ID": "CVE-2016-8646"
    },
    {
      "Source": "CVE",
      "URI": "https://access.redhat.com/security/cve/CVE-2017-7308",
      "ID": "CVE-2017-7308"
    }
  ],
  "Criteria": {
    "Operator": "OR",
    "Criterias": [
      {
        "Operator": "AND",
        "Criterias": [
          {
            "Operator": "OR",
            "Criterias": [

            ],
            "Criterions": [
              {
                "Comment": "kernel-rt earlier than 0:3.10.0-514.21.1.rt56.438.el7 is currently running"
              },
              {
                "Comment": "kernel-rt earlier than 0:3.10.0-514.21.1.rt56.438.el7 is set to boot up on next boot"
              }
            ]
          },
          {
            "Operator": "OR",
            "Criterias": [
              {
                "Operator": "AND",
                "Criterias": [

                ],
                "Criterions": [
                  {
                    "Comment": "kernel-rt is earlier than 0:3.10.0-514.21.1.rt56.438.el7"
                  },
                  {
                    "Comment": "kernel-rt is signed with Red Hat redhatrelease2 key"
                  }
                ]
              },
              {
                "Operator": "AND",
                "Criterias": [

                ],
                "Criterions": [
                  {
                    "Comment": "kernel-rt-debug is earlier than 0:3.10.0-514.21.1.rt56.438.el7"
                  },
                  {
                    "Comment": "kernel-rt-debug is signed with Red Hat redhatrelease2 key"
                  }
                ]
              },
              {
                "Operator": "AND",
                "Criterias": [

                ],
                "Criterions": [
                  {
                    "Comment": "kernel-rt-debug-devel is earlier than 0:3.10.0-514.21.1.rt56.438.el7"
                  },
                  {
                    "Comment": "kernel-rt-debug-devel is signed with Red Hat redhatrelease2 key"
                  }
                ]
              },
              {
                "Operator": "AND",
                "Criterias": [

                ],
                "Criterions": [
                  {
                    "Comment": "kernel-rt-debug-kvm is earlier than 0:3.10.0-514.21.1.rt56.438.el7"
                  },
                  {
                    "Comment": "kernel-rt-debug-kvm is signed with Red Hat redhatrelease2 key"
                  }
                ]
              },
              {
                "Operator": "AND",
                "Criterias": [

                ],
                "Criterions": [
                  {
                    "Comment": "kernel-rt-devel is earlier than 0:3.10.0-514.21.1.rt56.438.el7"
                  },
                  {
                    "Comment": "kernel-rt-devel is signed with Red Hat redhatrelease2 key"
                  }
                ]
              },
              {
                "Operator": "AND",
                "Criterias": [

                ],
                "Criterions": [
                  {
                    "Comment": "kernel-rt-doc is earlier than 0:3.10.0-514.21.1.rt56.438.el7"
                  },
                  {
                    "Comment": "kernel-rt-doc is signed with Red Hat redhatrelease2 key"
                  }
                ]
              },
              {
                "Operator": "AND",
                "Criterias": [

                ],
                "Criterions": [
                  {
                    "Comment": "kernel-rt-kvm is earlier than 0:3.10.0-514.21.1.rt56.438.el7"
                  },
                  {
                    "Comment": "kernel-rt-kvm is signed with Red Hat redhatrelease2 key"
                  }
                ]
              },
              {
                "Operator": "AND",
                "Criterias": [

                ],
                "Criterions": [
                  {
                    "Comment": "kernel-rt-trace is earlier than 0:3.10.0-514.21.1.rt56.438.el7"
                  },
                  {
                    "Comment": "kernel-rt-trace is signed with Red Hat redhatrelease2 key"
                  }
                ]
              },
              {
                "Operator": "AND",
                "Criterias": [

                ],
                "Criterions": [
                  {
                    "Comment": "kernel-rt-trace-devel is earlier than 0:3.10.0-514.21.1.rt56.438.el7"
                  },
                  {
                    "Comment": "kernel-rt-trace-devel is signed with Red Hat redhatrelease2 key"
                  }
                ]
              },
              {
                "Operator": "AND",
                "Criterias": [

                ],
                "Criterions": [
                  {
                    "Comment": "kernel-rt-trace-kvm is earlier than 0:3.10.0-514.21.1.rt56.438.el7"
                  },
                  {
                    "Comment": "kernel-rt-trace-kvm is signed with Red Hat redhatrelease2 key"
                  }
                ]
              }
            ],
            "Criterions": [

            ]
          }
        ],
        "Criterions": [
          {
            "Comment": "Oracle Linux 7 is installed"
          }
        ]
      }
    ],
    "Criterions": [
      {
        "Comment": "Oracle Linux 7 is installed"
      }
    ]
  },
  "Severity": "Important",
  "Cves": [
    {
      "Impact": "",
      "Href": "",
      "ID": "CVE-2016-10208"
    },
    {
      "Impact": "",
      "Href": "",
      "ID": "CVE-2016-7910"
    },
    {
      "Impact": "",
      "Href": "",
      "ID": "CVE-2016-8646"
    },
    {
      "Impact": "",
      "Href": "",
      "ID": "CVE-2017-7308"
    }
  ],
  "Issued": {
    "Date": "2017-05-25"
  }
}