{
  "Title": "RHSA-2017:1852: openldap security, bug fix, and enhancement update (Moderate)",
  "Description": "OpenLDAP is an open-source suite of Lightweight Directory Access Protocol (LDAP) applications and development tools. LDAP is a set of protocols used to access and maintain distributed directory information services over an IP network. The openldap packages contain configuration files, libraries, and documentation for OpenLDAP.\nThe following packages have been upgraded to a later upstream version: openldap (2.4.44). (BZ#1386365)\nSecurity Fix(es):\n* A double-free flaw was found in the way OpenLDAP's slapd server using the MDB backend handled LDAP searches. A remote attacker with access to search the directory could potentially use this flaw to crash slapd by issuing a specially crafted LDAP search query. (CVE-2017-9287)\nAdditional Changes:\nFor detailed information on changes in this release, see the Red Hat Enterprise Linux 7.4 Release Notes linked from the References section.",
  "Platform": [
    "Red Hat Enterprise Linux 7"
  ],
  "References": [
    {
      "Source": "RHSA",
      "URI": "https://access.redhat.com/errata/RHSA-2017:1852",
      "ID": "RHSA-2017:1852"
    },
    {
      "Source": "CVE",
      "URI": "https://access.redhat.com/security/cve/CVE-2017-9287",
      "ID": "CVE-2017-9287"
    }
  ],
  "Criteria": {
    "Operator": "OR",
    "Criterias": [
      {
        "Operator": "AND",
        "Criterias": [
          {
            "Operator": "OR",
            "Criterias": [
              {
                "Operator": "AND",
                "Criterias": [

                ],
                "Criterions": [
                  {
                    "Comment": "openldap is earlier than 0:2.4.44-5.el7"
                  },
                  {
                    "Comment": "openldap is signed with Red Hat redhatrelease2 key"
                  }
                ]
              },
              {
                "Operator": "AND",
                "Criterias": [

                ],
                "Criterions": [
                  {
                    "Comment": "openldap-clients is earlier than 0:2.4.44-5.el7"
                  },
                  {
                    "Comment": "openldap-clients is signed with Red Hat redhatrelease2 key"
                  }
                ]
              },
              {
                "Operator": "AND",
                "Criterias": [

                ],
                "Criterions": [
                  {
                    "Comment": "openldap-devel is earlier than 0:2.4.44-5.el7"
                  },
                  {
                    "Comment": "openldap-devel is signed with Red Hat redhatrelease2 key"
                  }
                ]
              },
              {
                "Operator": "AND",
                "Criterias": [

                ],
                "Criterions": [
                  {
                    "Comment": "openldap-servers is earlier than 0:2.4.44-5.el7"
                  },
                  {
                    "Comment": "openldap-servers is signed with Red Hat redhatrelease2 key"
                  }
                ]
              },
              {
                "Operator": "AND",
                "Criterias": [

                ],
                "Criterions": [
                  {
                    "Comment": "openldap-servers-sql is earlier than 0:2.4.44-5.el7"
                  },
                  {
                    "Comment": "openldap-servers-sql is signed with Red Hat redhatrelease2 key"
                  }
                ]
              }
            ],
            "Criterions": [

            ]
          }
        ],
        "Criterions": [
          {
            "Comment": "Oracle Linux 7 is installed"
          }
        ]
      }
    ],
    "Criterions": [
      {
        "Comment": "Oracle Linux 7 is installed"
      }
    ]
  },
  "Severity": "Moderate",
  "Cves": [
    {
      "Impact": "",
      "Href": "",
      "ID": "CVE-2017-9287"
    }
  ],
  "Issued": {
    "Date": "2017-08-01"
  }
}