{
  "Title": "RHSA-2017:2285: authconfig security, bug fix, and enhancement update (Moderate)",
  "Description": "The authconfig packages contain a command-line utility and a GUI application that can configure a workstation to be a client for certain network user information, authentication schemes, and other user information and authentication-related options.\nSecurity Fix(es):\n* A flaw was found where authconfig could configure sssd in a way that treats existing and non-existing logins differently, leaking information on existence of a user. An attacker with physical or network access to the machine could enumerate users via a timing attack. (CVE-2017-7488)\nThis issue was discovered by Tomas Mraz (Red Hat) and Thorsten Scherf (Red Hat).\nAdditional Changes:\nFor detailed information on changes in this release, see the Red Hat Enterprise Linux 7.4 Release Notes linked from the References section.",
  "Platform": [
    "Red Hat Enterprise Linux 7"
  ],
  "References": [
    {
      "Source": "RHSA",
      "URI": "https://access.redhat.com/errata/RHSA-2017:2285",
      "ID": "RHSA-2017:2285"
    },
    {
      "Source": "CVE",
      "URI": "https://access.redhat.com/security/cve/CVE-2017-7488",
      "ID": "CVE-2017-7488"
    }
  ],
  "Criteria": {
    "Operator": "OR",
    "Criterias": [
      {
        "Operator": "AND",
        "Criterias": [
          {
            "Operator": "OR",
            "Criterias": [
              {
                "Operator": "AND",
                "Criterias": [

                ],
                "Criterions": [
                  {
                    "Comment": "authconfig is earlier than 0:6.2.8-30.el7"
                  },
                  {
                    "Comment": "authconfig is signed with Red Hat redhatrelease2 key"
                  }
                ]
              },
              {
                "Operator": "AND",
                "Criterias": [

                ],
                "Criterions": [
                  {
                    "Comment": "authconfig-gtk is earlier than 0:6.2.8-30.el7"
                  },
                  {
                    "Comment": "authconfig-gtk is signed with Red Hat redhatrelease2 key"
                  }
                ]
              }
            ],
            "Criterions": [

            ]
          }
        ],
        "Criterions": [
          {
            "Comment": "Oracle Linux 7 is installed"
          }
        ]
      }
    ],
    "Criterions": [
      {
        "Comment": "Oracle Linux 7 is installed"
      }
    ]
  },
  "Severity": "Moderate",
  "Cves": [
    {
      "Impact": "",
      "Href": "",
      "ID": "CVE-2017-7488"
    }
  ],
  "Issued": {
    "Date": "2017-08-01"
  }
}