{
  "Title": "RHSA-2017:1268: libtirpc security update (Important)",
  "Description": "The libtirpc packages contain SunLib's implementation of transport-independent remote procedure call (TI-RPC) documentation, which includes a library required by programs in the nfs-utils and rpcbind packages.\nSecurity Fix(es):\n* It was found that due to the way rpcbind uses libtirpc (libntirpc), a memory leak can occur when parsing specially crafted XDR messages. An attacker sending thousands of messages to rpcbind could cause its memory usage to grow without bound, eventually causing it to be terminated by the OOM killer. (CVE-2017-8779)",
  "Platform": [
    "Red Hat Enterprise Linux 6"
  ],
  "References": [
    {
      "Source": "RHSA",
      "URI": "https://access.redhat.com/errata/RHSA-2017:1268",
      "ID": "RHSA-2017:1268"
    },
    {
      "Source": "CVE",
      "URI": "https://access.redhat.com/security/cve/CVE-2017-8779",
      "ID": "CVE-2017-8779"
    }
  ],
  "Criteria": {
    "Operator": "OR",
    "Criterias": [
      {
        "Operator": "AND",
        "Criterias": [
          {
            "Operator": "OR",
            "Criterias": [
              {
                "Operator": "AND",
                "Criterias": [

                ],
                "Criterions": [
                  {
                    "Comment": "libtirpc is earlier than 0:0.2.1-13.el6_9"
                  },
                  {
                    "Comment": "libtirpc is signed with Red Hat redhatrelease2 key"
                  }
                ]
              },
              {
                "Operator": "AND",
                "Criterias": [

                ],
                "Criterions": [
                  {
                    "Comment": "libtirpc-devel is earlier than 0:0.2.1-13.el6_9"
                  },
                  {
                    "Comment": "libtirpc-devel is signed with Red Hat redhatrelease2 key"
                  }
                ]
              }
            ],
            "Criterions": [

            ]
          }
        ],
        "Criterions": [
          {
            "Comment": "Oracle Linux 6 is installed"
          }
        ]
      }
    ],
    "Criterions": [
      {
        "Comment": "Oracle Linux 6 is installed"
      }
    ]
  },
  "Severity": "Important",
  "Cves": [
    {
      "Impact": "",
      "Href": "",
      "ID": "CVE-2017-8779"
    }
  ],
  "Issued": {
    "Date": "2017-05-23"
  }
}