{
  "Title": "RHSA-2017:2972: httpd security update (Moderate)",
  "Description": "The httpd packages provide the Apache HTTP Server, a powerful, efficient, and extensible web server.\nSecurity Fix(es):\n* A use-after-free flaw was found in the way httpd handled invalid and previously unregistered HTTP methods specified in the Limit directive used in an .htaccess file. A remote attacker could possibly use this flaw to disclose portions of the server memory, or cause httpd child process to crash. (CVE-2017-9798)\n* A regression was found in the Red Hat Enterprise Linux 6.9 version of httpd, causing comments in the \"Allow\" and \"Deny\" configuration lines to be parsed incorrectly. A web administrator could unintentionally allow any client to access a restricted HTTP resource. (CVE-2017-12171)\nRed Hat would like to thank Hanno Böck for reporting CVE-2017-9798 and KAWAHARA Masashi for reporting CVE-2017-12171.",
  "Platform": [
    "Red Hat Enterprise Linux 6"
  ],
  "References": [
    {
      "Source": "RHSA",
      "URI": "https://access.redhat.com/errata/RHSA-2017:2972",
      "ID": "RHSA-2017:2972"
    },
    {
      "Source": "CVE",
      "URI": "https://access.redhat.com/security/cve/CVE-2017-12171",
      "ID": "CVE-2017-12171"
    },
    {
      "Source": "CVE",
      "URI": "https://access.redhat.com/security/cve/CVE-2017-9798",
      "ID": "CVE-2017-9798"
    }
  ],
  "Criteria": {
    "Operator": "OR",
    "Criterias": [
      {
        "Operator": "AND",
        "Criterias": [
          {
            "Operator": "OR",
            "Criterias": [
              {
                "Operator": "AND",
                "Criterias": [

                ],
                "Criterions": [
                  {
                    "Comment": "httpd is earlier than 0:2.2.15-60.el6_9.6"
                  },
                  {
                    "Comment": "httpd is signed with Red Hat redhatrelease2 key"
                  }
                ]
              },
              {
                "Operator": "AND",
                "Criterias": [

                ],
                "Criterions": [
                  {
                    "Comment": "httpd-devel is earlier than 0:2.2.15-60.el6_9.6"
                  },
                  {
                    "Comment": "httpd-devel is signed with Red Hat redhatrelease2 key"
                  }
                ]
              },
              {
                "Operator": "AND",
                "Criterias": [

                ],
                "Criterions": [
                  {
                    "Comment": "httpd-manual is earlier than 0:2.2.15-60.el6_9.6"
                  },
                  {
                    "Comment": "httpd-manual is signed with Red Hat redhatrelease2 key"
                  }
                ]
              },
              {
                "Operator": "AND",
                "Criterias": [

                ],
                "Criterions": [
                  {
                    "Comment": "httpd-tools is earlier than 0:2.2.15-60.el6_9.6"
                  },
                  {
                    "Comment": "httpd-tools is signed with Red Hat redhatrelease2 key"
                  }
                ]
              },
              {
                "Operator": "AND",
                "Criterias": [

                ],
                "Criterions": [
                  {
                    "Comment": "mod_ssl is earlier than 1:2.2.15-60.el6_9.6"
                  },
                  {
                    "Comment": "mod_ssl is signed with Red Hat redhatrelease2 key"
                  }
                ]
              }
            ],
            "Criterions": [

            ]
          }
        ],
        "Criterions": [
          {
            "Comment": "Oracle Linux 6 is installed"
          }
        ]
      }
    ],
    "Criterions": [
      {
        "Comment": "Oracle Linux 6 is installed"
      }
    ]
  },
  "Severity": "Moderate",
  "Cves": [
    {
      "Impact": "",
      "Href": "",
      "ID": "CVE-2017-12171"
    },
    {
      "Impact": "",
      "Href": "",
      "ID": "CVE-2017-9798"
    }
  ],
  "Issued": {
    "Date": "2017-10-19"
  }
}