{
  "Title": "RHSA-2017:3080: tomcat6 security update (Important)",
  "Description": "Apache Tomcat is a servlet container for the Java Servlet and JavaServer Pages (JSP) technologies.\nSecurity Fix(es):\n* A vulnerability was discovered in Tomcat's handling of pipelined requests when \"Sendfile\" was used. If sendfile processing completed quickly, it was possible for the Processor to be added to the processor cache twice. This could lead to invalid responses or information disclosure. (CVE-2017-5647)\n* A vulnerability was discovered in the error page mechanism in Tomcat's DefaultServlet implementation. A crafted HTTP request could cause undesired side effects, possibly including the removal or replacement of the custom error page. (CVE-2017-5664)\n* Two vulnerabilities were discovered in Tomcat where if a servlet context was configured with readonly=false and HTTP PUT requests were allowed, an attacker could upload a JSP file to that context and achieve code execution. (CVE-2017-12615, CVE-2017-12617)",
  "Platform": [
    "Red Hat Enterprise Linux 6"
  ],
  "References": [
    {
      "Source": "RHSA",
      "URI": "https://access.redhat.com/errata/RHSA-2017:3080",
      "ID": "RHSA-2017:3080"
    },
    {
      "Source": "CVE",
      "URI": "https://access.redhat.com/security/cve/CVE-2017-12615",
      "ID": "CVE-2017-12615"
    },
    {
      "Source": "CVE",
      "URI": "https://access.redhat.com/security/cve/CVE-2017-12617",
      "ID": "CVE-2017-12617"
    },
    {
      "Source": "CVE",
      "URI": "https://access.redhat.com/security/cve/CVE-2017-5647",
      "ID": "CVE-2017-5647"
    },
    {
      "Source": "CVE",
      "URI": "https://access.redhat.com/security/cve/CVE-2017-5664",
      "ID": "CVE-2017-5664"
    }
  ],
  "Criteria": {
    "Operator": "OR",
    "Criterias": [
      {
        "Operator": "AND",
        "Criterias": [
          {
            "Operator": "OR",
            "Criterias": [
              {
                "Operator": "AND",
                "Criterias": [

                ],
                "Criterions": [
                  {
                    "Comment": "tomcat6 is earlier than 0:6.0.24-111.el6_9"
                  },
                  {
                    "Comment": "tomcat6 is signed with Red Hat redhatrelease2 key"
                  }
                ]
              },
              {
                "Operator": "AND",
                "Criterias": [

                ],
                "Criterions": [
                  {
                    "Comment": "tomcat6-admin-webapps is earlier than 0:6.0.24-111.el6_9"
                  },
                  {
                    "Comment": "tomcat6-admin-webapps is signed with Red Hat redhatrelease2 key"
                  }
                ]
              },
              {
                "Operator": "AND",
                "Criterias": [

                ],
                "Criterions": [
                  {
                    "Comment": "tomcat6-docs-webapp is earlier than 0:6.0.24-111.el6_9"
                  },
                  {
                    "Comment": "tomcat6-docs-webapp is signed with Red Hat redhatrelease2 key"
                  }
                ]
              },
              {
                "Operator": "AND",
                "Criterias": [

                ],
                "Criterions": [
                  {
                    "Comment": "tomcat6-el-2.1-api is earlier than 0:6.0.24-111.el6_9"
                  },
                  {
                    "Comment": "tomcat6-el-2.1-api is signed with Red Hat redhatrelease2 key"
                  }
                ]
              },
              {
                "Operator": "AND",
                "Criterias": [

                ],
                "Criterions": [
                  {
                    "Comment": "tomcat6-javadoc is earlier than 0:6.0.24-111.el6_9"
                  },
                  {
                    "Comment": "tomcat6-javadoc is signed with Red Hat redhatrelease2 key"
                  }
                ]
              },
              {
                "Operator": "AND",
                "Criterias": [

                ],
                "Criterions": [
                  {
                    "Comment": "tomcat6-jsp-2.1-api is earlier than 0:6.0.24-111.el6_9"
                  },
                  {
                    "Comment": "tomcat6-jsp-2.1-api is signed with Red Hat redhatrelease2 key"
                  }
                ]
              },
              {
                "Operator": "AND",
                "Criterias": [

                ],
                "Criterions": [
                  {
                    "Comment": "tomcat6-lib is earlier than 0:6.0.24-111.el6_9"
                  },
                  {
                    "Comment": "tomcat6-lib is signed with Red Hat redhatrelease2 key"
                  }
                ]
              },
              {
                "Operator": "AND",
                "Criterias": [

                ],
                "Criterions": [
                  {
                    "Comment": "tomcat6-servlet-2.5-api is earlier than 0:6.0.24-111.el6_9"
                  },
                  {
                    "Comment": "tomcat6-servlet-2.5-api is signed with Red Hat redhatrelease2 key"
                  }
                ]
              },
              {
                "Operator": "AND",
                "Criterias": [

                ],
                "Criterions": [
                  {
                    "Comment": "tomcat6-webapps is earlier than 0:6.0.24-111.el6_9"
                  },
                  {
                    "Comment": "tomcat6-webapps is signed with Red Hat redhatrelease2 key"
                  }
                ]
              }
            ],
            "Criterions": [

            ]
          }
        ],
        "Criterions": [
          {
            "Comment": "Oracle Linux 6 is installed"
          }
        ]
      }
    ],
    "Criterions": [
      {
        "Comment": "Oracle Linux 6 is installed"
      }
    ]
  },
  "Severity": "Important",
  "Cves": [
    {
      "Impact": "",
      "Href": "",
      "ID": "CVE-2017-12615"
    },
    {
      "Impact": "",
      "Href": "",
      "ID": "CVE-2017-12617"
    },
    {
      "Impact": "",
      "Href": "",
      "ID": "CVE-2017-5647"
    },
    {
      "Impact": "",
      "Href": "",
      "ID": "CVE-2017-5664"
    }
  ],
  "Issued": {
    "Date": "2017-10-30"
  }
}