{
  "Title": "RHSA-2017:2585: kernel-rt security and bug fix update (Important)",
  "Description": "The kernel-rt packages provide the Real Time Linux Kernel, which enables fine-tuning for systems with extremely high determinism requirements.\nSecurity Fix(es):\n* A race condition was found in the Linux kernel, present since v3.14-rc1 through v4.12. The race happens between threads of inotify_handle_event() and vfs_rename() while running the rename operation against the same file. As a result of the race the next slab data or the slab's free list pointer can be corrupted with attacker-controlled data, which may lead to the privilege escalation. (CVE-2017-7533, Important)\nRed Hat would like to thank Leilei Lin (Alibaba Group), Fan Wu (The University of Hong Kong), and Shixiong Zhao (The University of Hong Kong) for reporting this issue.\nBug Fix(es):\n* The kernel-rt packages have been upgraded to the 3.10.0-693.2.1 source tree, which provides a number of bug fixes over the previous version. (BZ#1473393) (BZ#1473393)",
  "Platform": [
    "Red Hat Enterprise Linux 7"
  ],
  "References": [
    {
      "Source": "RHSA",
      "URI": "https://access.redhat.com/errata/RHSA-2017:2585",
      "ID": "RHSA-2017:2585"
    },
    {
      "Source": "CVE",
      "URI": "https://access.redhat.com/security/cve/CVE-2017-7533",
      "ID": "CVE-2017-7533"
    }
  ],
  "Criteria": {
    "Operator": "OR",
    "Criterias": [
      {
        "Operator": "AND",
        "Criterias": [
          {
            "Operator": "OR",
            "Criterias": [

            ],
            "Criterions": [
              {
                "Comment": "kernel-rt earlier than 0:3.10.0-693.2.1.rt56.620.el7 is currently running"
              },
              {
                "Comment": "kernel-rt earlier than 0:3.10.0-693.2.1.rt56.620.el7 is set to boot up on next boot"
              }
            ]
          },
          {
            "Operator": "OR",
            "Criterias": [
              {
                "Operator": "AND",
                "Criterias": [

                ],
                "Criterions": [
                  {
                    "Comment": "kernel-rt is earlier than 0:3.10.0-693.2.1.rt56.620.el7"
                  },
                  {
                    "Comment": "kernel-rt is signed with Red Hat redhatrelease2 key"
                  }
                ]
              },
              {
                "Operator": "AND",
                "Criterias": [

                ],
                "Criterions": [
                  {
                    "Comment": "kernel-rt-debug is earlier than 0:3.10.0-693.2.1.rt56.620.el7"
                  },
                  {
                    "Comment": "kernel-rt-debug is signed with Red Hat redhatrelease2 key"
                  }
                ]
              },
              {
                "Operator": "AND",
                "Criterias": [

                ],
                "Criterions": [
                  {
                    "Comment": "kernel-rt-debug-devel is earlier than 0:3.10.0-693.2.1.rt56.620.el7"
                  },
                  {
                    "Comment": "kernel-rt-debug-devel is signed with Red Hat redhatrelease2 key"
                  }
                ]
              },
              {
                "Operator": "AND",
                "Criterias": [

                ],
                "Criterions": [
                  {
                    "Comment": "kernel-rt-debug-kvm is earlier than 0:3.10.0-693.2.1.rt56.620.el7"
                  },
                  {
                    "Comment": "kernel-rt-debug-kvm is signed with Red Hat redhatrelease2 key"
                  }
                ]
              },
              {
                "Operator": "AND",
                "Criterias": [

                ],
                "Criterions": [
                  {
                    "Comment": "kernel-rt-devel is earlier than 0:3.10.0-693.2.1.rt56.620.el7"
                  },
                  {
                    "Comment": "kernel-rt-devel is signed with Red Hat redhatrelease2 key"
                  }
                ]
              },
              {
                "Operator": "AND",
                "Criterias": [

                ],
                "Criterions": [
                  {
                    "Comment": "kernel-rt-doc is earlier than 0:3.10.0-693.2.1.rt56.620.el7"
                  },
                  {
                    "Comment": "kernel-rt-doc is signed with Red Hat redhatrelease2 key"
                  }
                ]
              },
              {
                "Operator": "AND",
                "Criterias": [

                ],
                "Criterions": [
                  {
                    "Comment": "kernel-rt-kvm is earlier than 0:3.10.0-693.2.1.rt56.620.el7"
                  },
                  {
                    "Comment": "kernel-rt-kvm is signed with Red Hat redhatrelease2 key"
                  }
                ]
              },
              {
                "Operator": "AND",
                "Criterias": [

                ],
                "Criterions": [
                  {
                    "Comment": "kernel-rt-trace is earlier than 0:3.10.0-693.2.1.rt56.620.el7"
                  },
                  {
                    "Comment": "kernel-rt-trace is signed with Red Hat redhatrelease2 key"
                  }
                ]
              },
              {
                "Operator": "AND",
                "Criterias": [

                ],
                "Criterions": [
                  {
                    "Comment": "kernel-rt-trace-devel is earlier than 0:3.10.0-693.2.1.rt56.620.el7"
                  },
                  {
                    "Comment": "kernel-rt-trace-devel is signed with Red Hat redhatrelease2 key"
                  }
                ]
              },
              {
                "Operator": "AND",
                "Criterias": [

                ],
                "Criterions": [
                  {
                    "Comment": "kernel-rt-trace-kvm is earlier than 0:3.10.0-693.2.1.rt56.620.el7"
                  },
                  {
                    "Comment": "kernel-rt-trace-kvm is signed with Red Hat redhatrelease2 key"
                  }
                ]
              }
            ],
            "Criterions": [

            ]
          }
        ],
        "Criterions": [
          {
            "Comment": "Oracle Linux 7 is installed"
          }
        ]
      }
    ],
    "Criterions": [
      {
        "Comment": "Oracle Linux 7 is installed"
      }
    ]
  },
  "Severity": "Important",
  "Cves": [
    {
      "Impact": "",
      "Href": "",
      "ID": "CVE-2017-7533"
    }
  ],
  "Issued": {
    "Date": "2017-09-05"
  }
}