{
  "Title": "RHSA-2017:0725: bash security and bug fix update (Moderate)",
  "Description": "The bash packages provide Bash (Bourne-again shell), which is the default shell for Red Hat Enterprise Linux.\nSecurity Fix(es):\n* An arbitrary command injection flaw was found in the way bash processed the hostname value. A malicious DHCP server could use this flaw to execute arbitrary commands on the DHCP client machines running bash under specific circumstances. (CVE-2016-0634)\n* An arbitrary command injection flaw was found in the way bash processed the SHELLOPTS and PS4 environment variables. A local, authenticated attacker could use this flaw to exploit poorly written setuid programs to elevate their privileges under certain circumstances. (CVE-2016-7543)\n* A denial of service flaw was found in the way bash handled popd commands. A poorly written shell script could cause bash to crash resulting in a local denial of service limited to a specific bash session. (CVE-2016-9401)\nAdditional Changes:\nFor detailed information on changes in this release, see the Red Hat Enterprise Linux 6.9 Release Notes and Red Hat Enterprise Linux 6.9 Technical Notes linked from the References section.",
  "Platform": [
    "Red Hat Enterprise Linux 6"
  ],
  "References": [
    {
      "Source": "RHSA",
      "URI": "https://access.redhat.com/errata/RHSA-2017:0725",
      "ID": "RHSA-2017:0725"
    },
    {
      "Source": "CVE",
      "URI": "https://access.redhat.com/security/cve/CVE-2016-0634",
      "ID": "CVE-2016-0634"
    },
    {
      "Source": "CVE",
      "URI": "https://access.redhat.com/security/cve/CVE-2016-7543",
      "ID": "CVE-2016-7543"
    },
    {
      "Source": "CVE",
      "URI": "https://access.redhat.com/security/cve/CVE-2016-9401",
      "ID": "CVE-2016-9401"
    }
  ],
  "Criteria": {
    "Operator": "OR",
    "Criterias": [
      {
        "Operator": "AND",
        "Criterias": [
          {
            "Operator": "OR",
            "Criterias": [
              {
                "Operator": "AND",
                "Criterias": [

                ],
                "Criterions": [
                  {
                    "Comment": "bash is earlier than 0:4.1.2-48.el6"
                  },
                  {
                    "Comment": "bash is signed with Red Hat redhatrelease2 key"
                  }
                ]
              },
              {
                "Operator": "AND",
                "Criterias": [

                ],
                "Criterions": [
                  {
                    "Comment": "bash-doc is earlier than 0:4.1.2-48.el6"
                  },
                  {
                    "Comment": "bash-doc is signed with Red Hat redhatrelease2 key"
                  }
                ]
              }
            ],
            "Criterions": [

            ]
          }
        ],
        "Criterions": [
          {
            "Comment": "Oracle Linux 6 is installed"
          }
        ]
      }
    ],
    "Criterions": [
      {
        "Comment": "Oracle Linux 6 is installed"
      }
    ]
  },
  "Severity": "Moderate",
  "Cves": [
    {
      "Impact": "",
      "Href": "",
      "ID": "CVE-2016-0634"
    },
    {
      "Impact": "",
      "Href": "",
      "ID": "CVE-2016-7543"
    },
    {
      "Impact": "",
      "Href": "",
      "ID": "CVE-2016-9401"
    }
  ],
  "Issued": {
    "Date": "2017-03-21"
  }
}