{
  "Title": "RHSA-2017:0461: firefox security update (Critical)",
  "Description": "Mozilla Firefox is an open source web browser.\nThis update upgrades Firefox to version 52.0 ESR.\nSecurity Fix(es):\n* Multiple flaws were found in the processing of malformed web content. A web page containing malicious content could cause Firefox to crash or, potentially, execute arbitrary code with the privileges of the user running Firefox. (CVE-2017-5398, CVE-2017-5400, CVE-2017-5401, CVE-2017-5402, CVE-2017-5404, CVE-2017-5407, CVE-2017-5408, CVE-2017-5410, CVE-2017-5405)\nRed Hat would like to thank the Mozilla project for reporting these issues. Upstream acknowledges Nils, Jerri Rice, Rh0, Anton Eliasson, David Kohlbrenner, Ivan Fratric of Google Project Zero, Anonymous, Eric Lawrence of Chrome Security, Boris Zbarsky, Christian Holler, Honza Bambas, Jon Coppeard, Randell Jesup, André Bargull, Kan-Ru Chen, and Nathan Froyd as the original reporters.",
  "Platform": [
    "Red Hat Enterprise Linux 7"
  ],
  "References": [
    {
      "Source": "RHSA",
      "URI": "https://access.redhat.com/errata/RHSA-2017:0461",
      "ID": "RHSA-2017:0461"
    },
    {
      "Source": "CVE",
      "URI": "https://access.redhat.com/security/cve/CVE-2017-5398",
      "ID": "CVE-2017-5398"
    },
    {
      "Source": "CVE",
      "URI": "https://access.redhat.com/security/cve/CVE-2017-5400",
      "ID": "CVE-2017-5400"
    },
    {
      "Source": "CVE",
      "URI": "https://access.redhat.com/security/cve/CVE-2017-5401",
      "ID": "CVE-2017-5401"
    },
    {
      "Source": "CVE",
      "URI": "https://access.redhat.com/security/cve/CVE-2017-5402",
      "ID": "CVE-2017-5402"
    },
    {
      "Source": "CVE",
      "URI": "https://access.redhat.com/security/cve/CVE-2017-5404",
      "ID": "CVE-2017-5404"
    },
    {
      "Source": "CVE",
      "URI": "https://access.redhat.com/security/cve/CVE-2017-5405",
      "ID": "CVE-2017-5405"
    },
    {
      "Source": "CVE",
      "URI": "https://access.redhat.com/security/cve/CVE-2017-5407",
      "ID": "CVE-2017-5407"
    },
    {
      "Source": "CVE",
      "URI": "https://access.redhat.com/security/cve/CVE-2017-5408",
      "ID": "CVE-2017-5408"
    },
    {
      "Source": "CVE",
      "URI": "https://access.redhat.com/security/cve/CVE-2017-5410",
      "ID": "CVE-2017-5410"
    }
  ],
  "Criteria": {
    "Operator": "OR",
    "Criterias": [
      {
        "Operator": "AND",
        "Criterias": [

        ],
        "Criterions": [
          {
            "Comment": "Oracle Linux 7 is installed"
          },
          {
            "Comment": "firefox is earlier than 0:52.0-4.el7_3"
          },
          {
            "Comment": "firefox is signed with Red Hat redhatrelease2 key"
          }
        ]
      }
    ],
    "Criterions": [
      {
        "Comment": "Oracle Linux 7 is installed"
      }
    ]
  },
  "Severity": "Critical",
  "Cves": [
    {
      "Impact": "",
      "Href": "",
      "ID": "CVE-2017-5398"
    },
    {
      "Impact": "",
      "Href": "",
      "ID": "CVE-2017-5400"
    },
    {
      "Impact": "",
      "Href": "",
      "ID": "CVE-2017-5401"
    },
    {
      "Impact": "",
      "Href": "",
      "ID": "CVE-2017-5402"
    },
    {
      "Impact": "",
      "Href": "",
      "ID": "CVE-2017-5404"
    },
    {
      "Impact": "",
      "Href": "",
      "ID": "CVE-2017-5405"
    },
    {
      "Impact": "",
      "Href": "",
      "ID": "CVE-2017-5407"
    },
    {
      "Impact": "",
      "Href": "",
      "ID": "CVE-2017-5408"
    },
    {
      "Impact": "",
      "Href": "",
      "ID": "CVE-2017-5410"
    }
  ],
  "Issued": {
    "Date": "2017-03-08"
  }
}