{
  "Title": "RHSA-2017:2335: pki-core security update (Moderate)",
  "Description": "Red Hat Certificate System is an enterprise software system designed to manage enterprise public key infrastructure (PKI) deployments. PKI Core contains fundamental packages required by Red Hat Certificate System, which comprise the Certificate Authority (CA) subsystem.\nSecurity Fix(es):\n* It was found that a mock CMC authentication plugin with a hardcoded secret was accidentally enabled by default in the pki-core package. An attacker could potentially use this flaw to bypass the regular authentication process and trick the CA server into issuing certificates. (CVE-2017-7537)\nThis issue was discovered by Christina Fu (Red Hat).",
  "Platform": [
    "Red Hat Enterprise Linux 7"
  ],
  "References": [
    {
      "Source": "RHSA",
      "URI": "https://access.redhat.com/errata/RHSA-2017:2335",
      "ID": "RHSA-2017:2335"
    },
    {
      "Source": "CVE",
      "URI": "https://access.redhat.com/security/cve/CVE-2017-7537",
      "ID": "CVE-2017-7537"
    }
  ],
  "Criteria": {
    "Operator": "OR",
    "Criterias": [
      {
        "Operator": "AND",
        "Criterias": [
          {
            "Operator": "OR",
            "Criterias": [
              {
                "Operator": "AND",
                "Criterias": [

                ],
                "Criterions": [
                  {
                    "Comment": "pki-base is earlier than 0:10.4.1-11.el7"
                  },
                  {
                    "Comment": "pki-base is signed with Red Hat redhatrelease2 key"
                  }
                ]
              },
              {
                "Operator": "AND",
                "Criterias": [

                ],
                "Criterions": [
                  {
                    "Comment": "pki-base-java is earlier than 0:10.4.1-11.el7"
                  },
                  {
                    "Comment": "pki-base-java is signed with Red Hat redhatrelease2 key"
                  }
                ]
              },
              {
                "Operator": "AND",
                "Criterias": [

                ],
                "Criterions": [
                  {
                    "Comment": "pki-ca is earlier than 0:10.4.1-11.el7"
                  },
                  {
                    "Comment": "pki-ca is signed with Red Hat redhatrelease2 key"
                  }
                ]
              },
              {
                "Operator": "AND",
                "Criterias": [

                ],
                "Criterions": [
                  {
                    "Comment": "pki-javadoc is earlier than 0:10.4.1-11.el7"
                  },
                  {
                    "Comment": "pki-javadoc is signed with Red Hat redhatrelease2 key"
                  }
                ]
              },
              {
                "Operator": "AND",
                "Criterias": [

                ],
                "Criterions": [
                  {
                    "Comment": "pki-kra is earlier than 0:10.4.1-11.el7"
                  },
                  {
                    "Comment": "pki-kra is signed with Red Hat redhatrelease2 key"
                  }
                ]
              },
              {
                "Operator": "AND",
                "Criterias": [

                ],
                "Criterions": [
                  {
                    "Comment": "pki-server is earlier than 0:10.4.1-11.el7"
                  },
                  {
                    "Comment": "pki-server is signed with Red Hat redhatrelease2 key"
                  }
                ]
              },
              {
                "Operator": "AND",
                "Criterias": [

                ],
                "Criterions": [
                  {
                    "Comment": "pki-symkey is earlier than 0:10.4.1-11.el7"
                  },
                  {
                    "Comment": "pki-symkey is signed with Red Hat redhatrelease2 key"
                  }
                ]
              },
              {
                "Operator": "AND",
                "Criterias": [

                ],
                "Criterions": [
                  {
                    "Comment": "pki-tools is earlier than 0:10.4.1-11.el7"
                  },
                  {
                    "Comment": "pki-tools is signed with Red Hat redhatrelease2 key"
                  }
                ]
              }
            ],
            "Criterions": [

            ]
          }
        ],
        "Criterions": [
          {
            "Comment": "Oracle Linux 7 is installed"
          }
        ]
      }
    ],
    "Criterions": [
      {
        "Comment": "Oracle Linux 7 is installed"
      }
    ]
  },
  "Severity": "Moderate",
  "Cves": [
    {
      "Impact": "",
      "Href": "",
      "ID": "CVE-2017-7537"
    }
  ],
  "Issued": {
    "Date": "2017-08-01"
  }
}