{
  "Title": "RHSA-2017:2788: augeas security update (Important)",
  "Description": "Augeas is a configuration editing tool. It parses configuration files in their native formats and transforms them into a tree. Configuration changes are made by manipulating this tree and saving it back into native config files.\nSecurity Fix(es):\n* A vulnerability was discovered in augeas affecting the handling of escaped strings. An attacker could send crafted strings that would cause the application using augeas to copy past the end of a buffer, leading to a crash or possible code execution. (CVE-2017-7555)\nThis issue was discovered by Han Han (Red Hat).",
  "Platform": [
    "Red Hat Enterprise Linux 7"
  ],
  "References": [
    {
      "Source": "RHSA",
      "URI": "https://access.redhat.com/errata/RHSA-2017:2788",
      "ID": "RHSA-2017:2788"
    },
    {
      "Source": "CVE",
      "URI": "https://access.redhat.com/security/cve/CVE-2017-7555",
      "ID": "CVE-2017-7555"
    }
  ],
  "Criteria": {
    "Operator": "OR",
    "Criterias": [
      {
        "Operator": "AND",
        "Criterias": [
          {
            "Operator": "OR",
            "Criterias": [
              {
                "Operator": "AND",
                "Criterias": [

                ],
                "Criterions": [
                  {
                    "Comment": "augeas is earlier than 0:1.4.0-2.el7_4.1"
                  },
                  {
                    "Comment": "augeas is signed with Red Hat redhatrelease2 key"
                  }
                ]
              },
              {
                "Operator": "AND",
                "Criterias": [

                ],
                "Criterions": [
                  {
                    "Comment": "augeas-devel is earlier than 0:1.4.0-2.el7_4.1"
                  },
                  {
                    "Comment": "augeas-devel is signed with Red Hat redhatrelease2 key"
                  }
                ]
              },
              {
                "Operator": "AND",
                "Criterias": [

                ],
                "Criterions": [
                  {
                    "Comment": "augeas-libs is earlier than 0:1.4.0-2.el7_4.1"
                  },
                  {
                    "Comment": "augeas-libs is signed with Red Hat redhatrelease2 key"
                  }
                ]
              }
            ],
            "Criterions": [

            ]
          }
        ],
        "Criterions": [
          {
            "Comment": "Oracle Linux 7 is installed"
          }
        ]
      }
    ],
    "Criterions": [
      {
        "Comment": "Oracle Linux 7 is installed"
      }
    ]
  },
  "Severity": "Important",
  "Cves": [
    {
      "Impact": "",
      "Href": "",
      "ID": "CVE-2017-7555"
    }
  ],
  "Issued": {
    "Date": "2017-09-21"
  }
}