{
  "Title": "RHSA-2017:1105: bind security update (Important)",
  "Description": "The Berkeley Internet Name Domain (BIND) is an implementation of the Domain Name System (DNS) protocols. BIND includes a DNS server (named); a resolver library (routines for applications to use when interfacing with DNS); and tools for verifying that the DNS server is operating correctly.\nSecurity Fix(es):\n* A denial of service flaw was found in the way BIND handled a query response containing CNAME or DNAME resource records in an unusual order. A remote attacker could use this flaw to make named exit unexpectedly with an assertion failure via a specially crafted DNS response. (CVE-2017-3137)\n* A denial of service flaw was found in the way BIND handled query requests when using DNS64 with \"break-dnssec yes\" option. A remote attacker could use this flaw to make named exit unexpectedly with an assertion failure via a specially crafted DNS request. (CVE-2017-3136)\nRed Hat would like to thank ISC for reporting these issues. Upstream acknowledges Oleg Gorokhov (Yandex) as the original reporter of CVE-2017-3136.",
  "Platform": [
    "Red Hat Enterprise Linux 6"
  ],
  "References": [
    {
      "Source": "RHSA",
      "URI": "https://access.redhat.com/errata/RHSA-2017:1105",
      "ID": "RHSA-2017:1105"
    },
    {
      "Source": "CVE",
      "URI": "https://access.redhat.com/security/cve/CVE-2017-3136",
      "ID": "CVE-2017-3136"
    },
    {
      "Source": "CVE",
      "URI": "https://access.redhat.com/security/cve/CVE-2017-3137",
      "ID": "CVE-2017-3137"
    }
  ],
  "Criteria": {
    "Operator": "OR",
    "Criterias": [
      {
        "Operator": "AND",
        "Criterias": [
          {
            "Operator": "OR",
            "Criterias": [
              {
                "Operator": "AND",
                "Criterias": [

                ],
                "Criterions": [
                  {
                    "Comment": "bind is earlier than 32:9.8.2-0.62.rc1.el6_9.1"
                  },
                  {
                    "Comment": "bind is signed with Red Hat redhatrelease2 key"
                  }
                ]
              },
              {
                "Operator": "AND",
                "Criterias": [

                ],
                "Criterions": [
                  {
                    "Comment": "bind-chroot is earlier than 32:9.8.2-0.62.rc1.el6_9.1"
                  },
                  {
                    "Comment": "bind-chroot is signed with Red Hat redhatrelease2 key"
                  }
                ]
              },
              {
                "Operator": "AND",
                "Criterias": [

                ],
                "Criterions": [
                  {
                    "Comment": "bind-devel is earlier than 32:9.8.2-0.62.rc1.el6_9.1"
                  },
                  {
                    "Comment": "bind-devel is signed with Red Hat redhatrelease2 key"
                  }
                ]
              },
              {
                "Operator": "AND",
                "Criterias": [

                ],
                "Criterions": [
                  {
                    "Comment": "bind-libs is earlier than 32:9.8.2-0.62.rc1.el6_9.1"
                  },
                  {
                    "Comment": "bind-libs is signed with Red Hat redhatrelease2 key"
                  }
                ]
              },
              {
                "Operator": "AND",
                "Criterias": [

                ],
                "Criterions": [
                  {
                    "Comment": "bind-sdb is earlier than 32:9.8.2-0.62.rc1.el6_9.1"
                  },
                  {
                    "Comment": "bind-sdb is signed with Red Hat redhatrelease2 key"
                  }
                ]
              },
              {
                "Operator": "AND",
                "Criterias": [

                ],
                "Criterions": [
                  {
                    "Comment": "bind-utils is earlier than 32:9.8.2-0.62.rc1.el6_9.1"
                  },
                  {
                    "Comment": "bind-utils is signed with Red Hat redhatrelease2 key"
                  }
                ]
              }
            ],
            "Criterions": [

            ]
          }
        ],
        "Criterions": [
          {
            "Comment": "Oracle Linux 6 is installed"
          }
        ]
      }
    ],
    "Criterions": [
      {
        "Comment": "Oracle Linux 6 is installed"
      }
    ]
  },
  "Severity": "Important",
  "Cves": [
    {
      "Impact": "",
      "Href": "",
      "ID": "CVE-2017-3136"
    },
    {
      "Impact": "",
      "Href": "",
      "ID": "CVE-2017-3137"
    }
  ],
  "Issued": {
    "Date": "2017-04-20"
  }
}