{
  "Title": "RHSA-2017:0621: qemu-kvm security and bug fix update (Moderate)",
  "Description": "Kernel-based Virtual Machine (KVM) is a full virtualization solution for Linux on a variety of architectures. The qemu-kvm packages provide the user-space component for running virtual machines that use KVM.\nSecurity Fix(es):\n* An integer overflow flaw and an out-of-bounds read flaw were found in the way QEMU's VGA emulator set certain VGA registers while in VBE mode. A privileged guest user could use this flaw to crash the QEMU process instance. (CVE-2016-3712)\nRed Hat would like to thank Zuozhi Fzz (Alibaba Inc.) for reporting this issue.\nAdditional Changes:\nFor detailed information on changes in this release, see the Red Hat Enterprise Linux 6.9 Release Notes and Red Hat Enterprise Linux 6.9 Technical Notes linked from the References section.",
  "Platform": [
    "Red Hat Enterprise Linux 6"
  ],
  "References": [
    {
      "Source": "RHSA",
      "URI": "https://access.redhat.com/errata/RHSA-2017:0621",
      "ID": "RHSA-2017:0621"
    },
    {
      "Source": "CVE",
      "URI": "https://access.redhat.com/security/cve/CVE-2016-3712",
      "ID": "CVE-2016-3712"
    }
  ],
  "Criteria": {
    "Operator": "OR",
    "Criterias": [
      {
        "Operator": "AND",
        "Criterias": [
          {
            "Operator": "OR",
            "Criterias": [
              {
                "Operator": "AND",
                "Criterias": [

                ],
                "Criterions": [
                  {
                    "Comment": "qemu-guest-agent is earlier than 2:0.12.1.2-2.503.el6"
                  },
                  {
                    "Comment": "qemu-guest-agent is signed with Red Hat redhatrelease2 key"
                  }
                ]
              },
              {
                "Operator": "AND",
                "Criterias": [

                ],
                "Criterions": [
                  {
                    "Comment": "qemu-img is earlier than 2:0.12.1.2-2.503.el6"
                  },
                  {
                    "Comment": "qemu-img is signed with Red Hat redhatrelease2 key"
                  }
                ]
              },
              {
                "Operator": "AND",
                "Criterias": [

                ],
                "Criterions": [
                  {
                    "Comment": "qemu-kvm is earlier than 2:0.12.1.2-2.503.el6"
                  },
                  {
                    "Comment": "qemu-kvm is signed with Red Hat redhatrelease2 key"
                  }
                ]
              },
              {
                "Operator": "AND",
                "Criterias": [

                ],
                "Criterions": [
                  {
                    "Comment": "qemu-kvm-tools is earlier than 2:0.12.1.2-2.503.el6"
                  },
                  {
                    "Comment": "qemu-kvm-tools is signed with Red Hat redhatrelease2 key"
                  }
                ]
              }
            ],
            "Criterions": [

            ]
          }
        ],
        "Criterions": [
          {
            "Comment": "Oracle Linux 6 is installed"
          }
        ]
      }
    ],
    "Criterions": [
      {
        "Comment": "Oracle Linux 6 is installed"
      }
    ]
  },
  "Severity": "Moderate",
  "Cves": [
    {
      "Impact": "",
      "Href": "",
      "ID": "CVE-2016-3712"
    }
  ],
  "Issued": {
    "Date": "2017-03-21"
  }
}