{
  "Title": "RHSA-2017:0680: glibc security and bug fix update (Moderate)",
  "Description": "The glibc packages provide the standard C libraries (libc), POSIX thread libraries (libpthread), standard math libraries (libm), and the name service cache daemon (nscd) used by multiple programs on the system. Without these libraries, the Linux system cannot function correctly.\nSecurity Fix(es):\n* A stack overflow vulnerability was found in nan* functions that could cause applications, which process long strings with the nan function, to crash or, potentially, execute arbitrary code. (CVE-2014-9761)\n* It was found that out-of-range time values passed to the strftime() function could result in an out-of-bounds memory access. This could lead to application crash or, potentially, information disclosure. (CVE-2015-8776)\n* An integer overflow vulnerability was found in hcreate() and hcreate_r() functions which could result in an out-of-bounds memory access. This could lead to application crash or, potentially, arbitrary code execution. (CVE-2015-8778)\n* A stack based buffer overflow vulnerability was found in the catopen() function. An excessively long string passed to the function could cause it to crash or, potentially, execute arbitrary code. (CVE-2015-8779)\nAdditional Changes:\nFor detailed information on changes in this release, see the Red Hat Enterprise Linux 6.9 Release Notes and Red Hat Enterprise Linux 6.9 Technical Notes linked from the References section.",
  "Platform": [
    "Red Hat Enterprise Linux 6"
  ],
  "References": [
    {
      "Source": "RHSA",
      "URI": "https://access.redhat.com/errata/RHSA-2017:0680",
      "ID": "RHSA-2017:0680"
    },
    {
      "Source": "CVE",
      "URI": "https://access.redhat.com/security/cve/CVE-2014-9761",
      "ID": "CVE-2014-9761"
    },
    {
      "Source": "CVE",
      "URI": "https://access.redhat.com/security/cve/CVE-2015-8776",
      "ID": "CVE-2015-8776"
    },
    {
      "Source": "CVE",
      "URI": "https://access.redhat.com/security/cve/CVE-2015-8778",
      "ID": "CVE-2015-8778"
    },
    {
      "Source": "CVE",
      "URI": "https://access.redhat.com/security/cve/CVE-2015-8779",
      "ID": "CVE-2015-8779"
    }
  ],
  "Criteria": {
    "Operator": "OR",
    "Criterias": [
      {
        "Operator": "AND",
        "Criterias": [
          {
            "Operator": "OR",
            "Criterias": [
              {
                "Operator": "AND",
                "Criterias": [

                ],
                "Criterions": [
                  {
                    "Comment": "glibc is earlier than 0:2.12-1.209.el6"
                  },
                  {
                    "Comment": "glibc is signed with Red Hat redhatrelease2 key"
                  }
                ]
              },
              {
                "Operator": "AND",
                "Criterias": [

                ],
                "Criterions": [
                  {
                    "Comment": "glibc-common is earlier than 0:2.12-1.209.el6"
                  },
                  {
                    "Comment": "glibc-common is signed with Red Hat redhatrelease2 key"
                  }
                ]
              },
              {
                "Operator": "AND",
                "Criterias": [

                ],
                "Criterions": [
                  {
                    "Comment": "glibc-devel is earlier than 0:2.12-1.209.el6"
                  },
                  {
                    "Comment": "glibc-devel is signed with Red Hat redhatrelease2 key"
                  }
                ]
              },
              {
                "Operator": "AND",
                "Criterias": [

                ],
                "Criterions": [
                  {
                    "Comment": "glibc-headers is earlier than 0:2.12-1.209.el6"
                  },
                  {
                    "Comment": "glibc-headers is signed with Red Hat redhatrelease2 key"
                  }
                ]
              },
              {
                "Operator": "AND",
                "Criterias": [

                ],
                "Criterions": [
                  {
                    "Comment": "glibc-static is earlier than 0:2.12-1.209.el6"
                  },
                  {
                    "Comment": "glibc-static is signed with Red Hat redhatrelease2 key"
                  }
                ]
              },
              {
                "Operator": "AND",
                "Criterias": [

                ],
                "Criterions": [
                  {
                    "Comment": "glibc-utils is earlier than 0:2.12-1.209.el6"
                  },
                  {
                    "Comment": "glibc-utils is signed with Red Hat redhatrelease2 key"
                  }
                ]
              },
              {
                "Operator": "AND",
                "Criterias": [

                ],
                "Criterions": [
                  {
                    "Comment": "nscd is earlier than 0:2.12-1.209.el6"
                  },
                  {
                    "Comment": "nscd is signed with Red Hat redhatrelease2 key"
                  }
                ]
              }
            ],
            "Criterions": [

            ]
          }
        ],
        "Criterions": [
          {
            "Comment": "Oracle Linux 6 is installed"
          }
        ]
      }
    ],
    "Criterions": [
      {
        "Comment": "Oracle Linux 6 is installed"
      }
    ]
  },
  "Severity": "Moderate",
  "Cves": [
    {
      "Impact": "",
      "Href": "",
      "ID": "CVE-2014-9761"
    },
    {
      "Impact": "",
      "Href": "",
      "ID": "CVE-2015-8776"
    },
    {
      "Impact": "",
      "Href": "",
      "ID": "CVE-2015-8778"
    },
    {
      "Impact": "",
      "Href": "",
      "ID": "CVE-2015-8779"
    }
  ],
  "Issued": {
    "Date": "2017-03-21"
  }
}