{
  "Title": "RHSA-2017:0662: samba security and bug fix update (Moderate)",
  "Description": "Samba is an open-source implementation of the Server Message Block (SMB) protocol and the related Common Internet File System (CIFS) protocol, which allow PC-compatible machines to share files, printers, and various information.\nSecurity Fix(es):\n* It was found that Samba always requested forwardable tickets when using Kerberos authentication. A service to which Samba authenticated using Kerberos could subsequently use the ticket to impersonate Samba to other services or domain users. (CVE-2016-2125)\n* A flaw was found in the way Samba handled PAC (Privilege Attribute Certificate) checksums. A remote, authenticated attacker could use this flaw to crash the winbindd process. (CVE-2016-2126)\nAdditional Changes:\nFor detailed information on changes in this release, see the Red Hat Enterprise Linux 6.9 Release Notes and Red Hat Enterprise Linux 6.9 Technical Notes linked from the References section.",
  "Platform": [
    "Red Hat Enterprise Linux 6"
  ],
  "References": [
    {
      "Source": "RHSA",
      "URI": "https://access.redhat.com/errata/RHSA-2017:0662",
      "ID": "RHSA-2017:0662"
    },
    {
      "Source": "CVE",
      "URI": "https://access.redhat.com/security/cve/CVE-2016-2125",
      "ID": "CVE-2016-2125"
    },
    {
      "Source": "CVE",
      "URI": "https://access.redhat.com/security/cve/CVE-2016-2126",
      "ID": "CVE-2016-2126"
    }
  ],
  "Criteria": {
    "Operator": "OR",
    "Criterias": [
      {
        "Operator": "AND",
        "Criterias": [
          {
            "Operator": "OR",
            "Criterias": [
              {
                "Operator": "AND",
                "Criterias": [

                ],
                "Criterions": [
                  {
                    "Comment": "libsmbclient is earlier than 0:3.6.23-41.el6"
                  },
                  {
                    "Comment": "libsmbclient is signed with Red Hat redhatrelease2 key"
                  }
                ]
              },
              {
                "Operator": "AND",
                "Criterias": [

                ],
                "Criterions": [
                  {
                    "Comment": "libsmbclient-devel is earlier than 0:3.6.23-41.el6"
                  },
                  {
                    "Comment": "libsmbclient-devel is signed with Red Hat redhatrelease2 key"
                  }
                ]
              },
              {
                "Operator": "AND",
                "Criterias": [

                ],
                "Criterions": [
                  {
                    "Comment": "samba is earlier than 0:3.6.23-41.el6"
                  },
                  {
                    "Comment": "samba is signed with Red Hat redhatrelease2 key"
                  }
                ]
              },
              {
                "Operator": "AND",
                "Criterias": [

                ],
                "Criterions": [
                  {
                    "Comment": "samba-client is earlier than 0:3.6.23-41.el6"
                  },
                  {
                    "Comment": "samba-client is signed with Red Hat redhatrelease2 key"
                  }
                ]
              },
              {
                "Operator": "AND",
                "Criterias": [

                ],
                "Criterions": [
                  {
                    "Comment": "samba-common is earlier than 0:3.6.23-41.el6"
                  },
                  {
                    "Comment": "samba-common is signed with Red Hat redhatrelease2 key"
                  }
                ]
              },
              {
                "Operator": "AND",
                "Criterias": [

                ],
                "Criterions": [
                  {
                    "Comment": "samba-doc is earlier than 0:3.6.23-41.el6"
                  },
                  {
                    "Comment": "samba-doc is signed with Red Hat redhatrelease2 key"
                  }
                ]
              },
              {
                "Operator": "AND",
                "Criterias": [

                ],
                "Criterions": [
                  {
                    "Comment": "samba-domainjoin-gui is earlier than 0:3.6.23-41.el6"
                  },
                  {
                    "Comment": "samba-domainjoin-gui is signed with Red Hat redhatrelease2 key"
                  }
                ]
              },
              {
                "Operator": "AND",
                "Criterias": [

                ],
                "Criterions": [
                  {
                    "Comment": "samba-glusterfs is earlier than 0:3.6.23-41.el6"
                  },
                  {
                    "Comment": "samba-glusterfs is signed with Red Hat redhatrelease2 key"
                  }
                ]
              },
              {
                "Operator": "AND",
                "Criterias": [

                ],
                "Criterions": [
                  {
                    "Comment": "samba-swat is earlier than 0:3.6.23-41.el6"
                  },
                  {
                    "Comment": "samba-swat is signed with Red Hat redhatrelease2 key"
                  }
                ]
              },
              {
                "Operator": "AND",
                "Criterias": [

                ],
                "Criterions": [
                  {
                    "Comment": "samba-winbind is earlier than 0:3.6.23-41.el6"
                  },
                  {
                    "Comment": "samba-winbind is signed with Red Hat redhatrelease2 key"
                  }
                ]
              },
              {
                "Operator": "AND",
                "Criterias": [

                ],
                "Criterions": [
                  {
                    "Comment": "samba-winbind-clients is earlier than 0:3.6.23-41.el6"
                  },
                  {
                    "Comment": "samba-winbind-clients is signed with Red Hat redhatrelease2 key"
                  }
                ]
              },
              {
                "Operator": "AND",
                "Criterias": [

                ],
                "Criterions": [
                  {
                    "Comment": "samba-winbind-devel is earlier than 0:3.6.23-41.el6"
                  },
                  {
                    "Comment": "samba-winbind-devel is signed with Red Hat redhatrelease2 key"
                  }
                ]
              },
              {
                "Operator": "AND",
                "Criterias": [

                ],
                "Criterions": [
                  {
                    "Comment": "samba-winbind-krb5-locator is earlier than 0:3.6.23-41.el6"
                  },
                  {
                    "Comment": "samba-winbind-krb5-locator is signed with Red Hat redhatrelease2 key"
                  }
                ]
              }
            ],
            "Criterions": [

            ]
          }
        ],
        "Criterions": [
          {
            "Comment": "Oracle Linux 6 is installed"
          }
        ]
      }
    ],
    "Criterions": [
      {
        "Comment": "Oracle Linux 6 is installed"
      }
    ]
  },
  "Severity": "Moderate",
  "Cves": [
    {
      "Impact": "",
      "Href": "",
      "ID": "CVE-2016-2125"
    },
    {
      "Impact": "",
      "Href": "",
      "ID": "CVE-2016-2126"
    }
  ],
  "Issued": {
    "Date": "2017-03-21"
  }
}