{
  "Title": "RHSA-2017:2292: gnutls security, bug fix, and enhancement update (Moderate)",
  "Description": "The gnutls packages provide the GNU Transport Layer Security (GnuTLS) library, which implements cryptographic algorithms and protocols such as SSL, TLS, and DTLS.\nThe following packages have been upgraded to a later upstream version: gnutls (3.3.26). (BZ#1378373)\nSecurity Fix(es):\n* A double-free flaw was found in the way GnuTLS parsed certain X.509 certificates with Proxy Certificate Information extension. An attacker could create a specially-crafted certificate which, when processed by an application compiled against GnuTLS, could cause that application to crash. (CVE-2017-5334)\n* Multiple flaws were found in the way gnutls processed OpenPGP certificates. An attacker could create specially crafted OpenPGP certificates which, when parsed by gnutls, would cause it to crash. (CVE-2017-5335, CVE-2017-5336, CVE-2017-5337, CVE-2017-7869)\n* A null pointer dereference flaw was found in the way GnuTLS processed ClientHello messages with status_request extension. A remote attacker could use this flaw to cause an application compiled with GnuTLS to crash. (CVE-2017-7507)\n* A flaw was found in the way GnuTLS validated certificates using OCSP responses. This could falsely report a certificate as valid under certain circumstances. (CVE-2016-7444)\nThe CVE-2017-7507 issue was discovered by Hubert Kario (Red Hat QE BaseOS Security team).\nAdditional Changes:\nFor detailed information on changes in this release, see the Red Hat Enterprise Linux 7.4 Release Notes linked from the References section.",
  "Platform": [
    "Red Hat Enterprise Linux 7"
  ],
  "References": [
    {
      "Source": "RHSA",
      "URI": "https://access.redhat.com/errata/RHSA-2017:2292",
      "ID": "RHSA-2017:2292"
    },
    {
      "Source": "CVE",
      "URI": "https://access.redhat.com/security/cve/CVE-2016-7444",
      "ID": "CVE-2016-7444"
    },
    {
      "Source": "CVE",
      "URI": "https://access.redhat.com/security/cve/CVE-2017-5334",
      "ID": "CVE-2017-5334"
    },
    {
      "Source": "CVE",
      "URI": "https://access.redhat.com/security/cve/CVE-2017-5335",
      "ID": "CVE-2017-5335"
    },
    {
      "Source": "CVE",
      "URI": "https://access.redhat.com/security/cve/CVE-2017-5336",
      "ID": "CVE-2017-5336"
    },
    {
      "Source": "CVE",
      "URI": "https://access.redhat.com/security/cve/CVE-2017-5337",
      "ID": "CVE-2017-5337"
    },
    {
      "Source": "CVE",
      "URI": "https://access.redhat.com/security/cve/CVE-2017-7507",
      "ID": "CVE-2017-7507"
    },
    {
      "Source": "CVE",
      "URI": "https://access.redhat.com/security/cve/CVE-2017-7869",
      "ID": "CVE-2017-7869"
    }
  ],
  "Criteria": {
    "Operator": "OR",
    "Criterias": [
      {
        "Operator": "AND",
        "Criterias": [
          {
            "Operator": "OR",
            "Criterias": [
              {
                "Operator": "AND",
                "Criterias": [

                ],
                "Criterions": [
                  {
                    "Comment": "gnutls is earlier than 0:3.3.26-9.el7"
                  },
                  {
                    "Comment": "gnutls is signed with Red Hat redhatrelease2 key"
                  }
                ]
              },
              {
                "Operator": "AND",
                "Criterias": [

                ],
                "Criterions": [
                  {
                    "Comment": "gnutls-c++ is earlier than 0:3.3.26-9.el7"
                  },
                  {
                    "Comment": "gnutls-c++ is signed with Red Hat redhatrelease2 key"
                  }
                ]
              },
              {
                "Operator": "AND",
                "Criterias": [

                ],
                "Criterions": [
                  {
                    "Comment": "gnutls-dane is earlier than 0:3.3.26-9.el7"
                  },
                  {
                    "Comment": "gnutls-dane is signed with Red Hat redhatrelease2 key"
                  }
                ]
              },
              {
                "Operator": "AND",
                "Criterias": [

                ],
                "Criterions": [
                  {
                    "Comment": "gnutls-devel is earlier than 0:3.3.26-9.el7"
                  },
                  {
                    "Comment": "gnutls-devel is signed with Red Hat redhatrelease2 key"
                  }
                ]
              },
              {
                "Operator": "AND",
                "Criterias": [

                ],
                "Criterions": [
                  {
                    "Comment": "gnutls-utils is earlier than 0:3.3.26-9.el7"
                  },
                  {
                    "Comment": "gnutls-utils is signed with Red Hat redhatrelease2 key"
                  }
                ]
              }
            ],
            "Criterions": [

            ]
          }
        ],
        "Criterions": [
          {
            "Comment": "Oracle Linux 7 is installed"
          }
        ]
      }
    ],
    "Criterions": [
      {
        "Comment": "Oracle Linux 7 is installed"
      }
    ]
  },
  "Severity": "Moderate",
  "Cves": [
    {
      "Impact": "",
      "Href": "",
      "ID": "CVE-2016-7444"
    },
    {
      "Impact": "",
      "Href": "",
      "ID": "CVE-2017-5334"
    },
    {
      "Impact": "",
      "Href": "",
      "ID": "CVE-2017-5335"
    },
    {
      "Impact": "",
      "Href": "",
      "ID": "CVE-2017-5336"
    },
    {
      "Impact": "",
      "Href": "",
      "ID": "CVE-2017-5337"
    },
    {
      "Impact": "",
      "Href": "",
      "ID": "CVE-2017-7507"
    },
    {
      "Impact": "",
      "Href": "",
      "ID": "CVE-2017-7869"
    }
  ],
  "Issued": {
    "Date": "2017-08-01"
  }
}