{
  "Title": "RHSA-2017:0893: 389-ds-base security and bug fix update (Important)",
  "Description": "389 Directory Server is an LDAP version 3 (LDAPv3) compliant server. The base packages include the Lightweight Directory Access Protocol (LDAP) server and command-line utilities for server administration.\nSecurity Fix(es):\n* An invalid pointer dereference flaw was found in the way 389-ds-base handled LDAP bind requests. A remote unauthenticated attacker could use this flaw to make ns-slapd crash via a specially crafted LDAP bind request, resulting in denial of service. (CVE-2017-2668)\nRed Hat would like to thank Joachim Jabs (F24) for reporting this issue.\nBug Fix(es):\n* Previously, the \"deref\" plug-in failed to dereference attributes that use distinguished name (DN) syntax, such as \"uniqueMember\". With this patch, the \"deref\" plug-in can dereference such attributes and additionally \"Name and Optional UID\" syntax. As a result, the \"deref\" plug-in now supports any syntax. (BZ#1435365)",
  "Platform": [
    "Red Hat Enterprise Linux 6"
  ],
  "References": [
    {
      "Source": "RHSA",
      "URI": "https://access.redhat.com/errata/RHSA-2017:0893",
      "ID": "RHSA-2017:0893"
    },
    {
      "Source": "CVE",
      "URI": "https://access.redhat.com/security/cve/CVE-2017-2668",
      "ID": "CVE-2017-2668"
    }
  ],
  "Criteria": {
    "Operator": "OR",
    "Criterias": [
      {
        "Operator": "AND",
        "Criterias": [
          {
            "Operator": "OR",
            "Criterias": [
              {
                "Operator": "AND",
                "Criterias": [

                ],
                "Criterions": [
                  {
                    "Comment": "389-ds-base is earlier than 0:1.2.11.15-91.el6_9"
                  },
                  {
                    "Comment": "389-ds-base is signed with Red Hat redhatrelease2 key"
                  }
                ]
              },
              {
                "Operator": "AND",
                "Criterias": [

                ],
                "Criterions": [
                  {
                    "Comment": "389-ds-base-devel is earlier than 0:1.2.11.15-91.el6_9"
                  },
                  {
                    "Comment": "389-ds-base-devel is signed with Red Hat redhatrelease2 key"
                  }
                ]
              },
              {
                "Operator": "AND",
                "Criterias": [

                ],
                "Criterions": [
                  {
                    "Comment": "389-ds-base-libs is earlier than 0:1.2.11.15-91.el6_9"
                  },
                  {
                    "Comment": "389-ds-base-libs is signed with Red Hat redhatrelease2 key"
                  }
                ]
              }
            ],
            "Criterions": [

            ]
          }
        ],
        "Criterions": [
          {
            "Comment": "Oracle Linux 6 is installed"
          }
        ]
      }
    ],
    "Criterions": [
      {
        "Comment": "Oracle Linux 6 is installed"
      }
    ]
  },
  "Severity": "Important",
  "Cves": [
    {
      "Impact": "",
      "Href": "",
      "ID": "CVE-2017-2668"
    }
  ],
  "Issued": {
    "Date": "2017-04-11"
  }
}