{
  "Title": "RHSA-2017:0276: bind security update (Moderate)",
  "Description": "The Berkeley Internet Name Domain (BIND) is an implementation of the Domain Name System (DNS) protocols. BIND includes a DNS server (named); a resolver library (routines for applications to use when interfacing with DNS); and tools for verifying that the DNS server is operating correctly.\nSecurity Fix(es):\n* A denial of service flaw was found in the way BIND handled query responses when both DNS64 and RPZ were used. A remote attacker could use this flaw to make named exit unexpectedly with an assertion failure or a null pointer dereference via a specially crafted DNS response. (CVE-2017-3135)\nRed Hat would like to thank ISC for reporting this issue. Upstream acknowledges Ramesh Damodaran (Infoblox) and Aliaksandr Shubnik (Infoblox) as the original reporter.",
  "Platform": [
    "Red Hat Enterprise Linux 7"
  ],
  "References": [
    {
      "Source": "RHSA",
      "URI": "https://access.redhat.com/errata/RHSA-2017:0276",
      "ID": "RHSA-2017:0276"
    },
    {
      "Source": "CVE",
      "URI": "https://access.redhat.com/security/cve/CVE-2017-3135",
      "ID": "CVE-2017-3135"
    }
  ],
  "Criteria": {
    "Operator": "OR",
    "Criterias": [
      {
        "Operator": "AND",
        "Criterias": [
          {
            "Operator": "OR",
            "Criterias": [
              {
                "Operator": "AND",
                "Criterias": [

                ],
                "Criterions": [
                  {
                    "Comment": "bind is earlier than 32:9.9.4-38.el7_3.2"
                  },
                  {
                    "Comment": "bind is signed with Red Hat redhatrelease2 key"
                  }
                ]
              },
              {
                "Operator": "AND",
                "Criterias": [

                ],
                "Criterions": [
                  {
                    "Comment": "bind-chroot is earlier than 32:9.9.4-38.el7_3.2"
                  },
                  {
                    "Comment": "bind-chroot is signed with Red Hat redhatrelease2 key"
                  }
                ]
              },
              {
                "Operator": "AND",
                "Criterias": [

                ],
                "Criterions": [
                  {
                    "Comment": "bind-devel is earlier than 32:9.9.4-38.el7_3.2"
                  },
                  {
                    "Comment": "bind-devel is signed with Red Hat redhatrelease2 key"
                  }
                ]
              },
              {
                "Operator": "AND",
                "Criterias": [

                ],
                "Criterions": [
                  {
                    "Comment": "bind-libs is earlier than 32:9.9.4-38.el7_3.2"
                  },
                  {
                    "Comment": "bind-libs is signed with Red Hat redhatrelease2 key"
                  }
                ]
              },
              {
                "Operator": "AND",
                "Criterias": [

                ],
                "Criterions": [
                  {
                    "Comment": "bind-libs-lite is earlier than 32:9.9.4-38.el7_3.2"
                  },
                  {
                    "Comment": "bind-libs-lite is signed with Red Hat redhatrelease2 key"
                  }
                ]
              },
              {
                "Operator": "AND",
                "Criterias": [

                ],
                "Criterions": [
                  {
                    "Comment": "bind-license is earlier than 32:9.9.4-38.el7_3.2"
                  },
                  {
                    "Comment": "bind-license is signed with Red Hat redhatrelease2 key"
                  }
                ]
              },
              {
                "Operator": "AND",
                "Criterias": [

                ],
                "Criterions": [
                  {
                    "Comment": "bind-lite-devel is earlier than 32:9.9.4-38.el7_3.2"
                  },
                  {
                    "Comment": "bind-lite-devel is signed with Red Hat redhatrelease2 key"
                  }
                ]
              },
              {
                "Operator": "AND",
                "Criterias": [

                ],
                "Criterions": [
                  {
                    "Comment": "bind-pkcs11 is earlier than 32:9.9.4-38.el7_3.2"
                  },
                  {
                    "Comment": "bind-pkcs11 is signed with Red Hat redhatrelease2 key"
                  }
                ]
              },
              {
                "Operator": "AND",
                "Criterias": [

                ],
                "Criterions": [
                  {
                    "Comment": "bind-pkcs11-devel is earlier than 32:9.9.4-38.el7_3.2"
                  },
                  {
                    "Comment": "bind-pkcs11-devel is signed with Red Hat redhatrelease2 key"
                  }
                ]
              },
              {
                "Operator": "AND",
                "Criterias": [

                ],
                "Criterions": [
                  {
                    "Comment": "bind-pkcs11-libs is earlier than 32:9.9.4-38.el7_3.2"
                  },
                  {
                    "Comment": "bind-pkcs11-libs is signed with Red Hat redhatrelease2 key"
                  }
                ]
              },
              {
                "Operator": "AND",
                "Criterias": [

                ],
                "Criterions": [
                  {
                    "Comment": "bind-pkcs11-utils is earlier than 32:9.9.4-38.el7_3.2"
                  },
                  {
                    "Comment": "bind-pkcs11-utils is signed with Red Hat redhatrelease2 key"
                  }
                ]
              },
              {
                "Operator": "AND",
                "Criterias": [

                ],
                "Criterions": [
                  {
                    "Comment": "bind-sdb is earlier than 32:9.9.4-38.el7_3.2"
                  },
                  {
                    "Comment": "bind-sdb is signed with Red Hat redhatrelease2 key"
                  }
                ]
              },
              {
                "Operator": "AND",
                "Criterias": [

                ],
                "Criterions": [
                  {
                    "Comment": "bind-sdb-chroot is earlier than 32:9.9.4-38.el7_3.2"
                  },
                  {
                    "Comment": "bind-sdb-chroot is signed with Red Hat redhatrelease2 key"
                  }
                ]
              },
              {
                "Operator": "AND",
                "Criterias": [

                ],
                "Criterions": [
                  {
                    "Comment": "bind-utils is earlier than 32:9.9.4-38.el7_3.2"
                  },
                  {
                    "Comment": "bind-utils is signed with Red Hat redhatrelease2 key"
                  }
                ]
              }
            ],
            "Criterions": [

            ]
          }
        ],
        "Criterions": [
          {
            "Comment": "Oracle Linux 7 is installed"
          }
        ]
      }
    ],
    "Criterions": [
      {
        "Comment": "Oracle Linux 7 is installed"
      }
    ]
  },
  "Severity": "Moderate",
  "Cves": [
    {
      "Impact": "",
      "Href": "",
      "ID": "CVE-2017-3135"
    }
  ],
  "Issued": {
    "Date": "2017-02-15"
  }
}