{
  "Title": "RHSA-2017:1871: tcpdump security, bug fix, and enhancement update (Moderate)",
  "Description": "The tcpdump packages contain the tcpdump utility for monitoring network traffic. The tcpdump utility can capture and display the packet headers on a particular network interface or on all interfaces.\nThe following packages have been upgraded to a later upstream version: tcpdump (4.9.0). (BZ#1422473)\nSecurity Fix(es):\n* Multiple out of bounds read and integer overflow vulnerabilities were found in tcpdump affecting the decoding of various protocols. An attacker could create a crafted pcap file or send specially crafted packets to the network segment where tcpdump is running in live capture mode (without -w) which could cause it to display incorrect data, crash or enter an infinite loop. (CVE-2015-0261, CVE-2015-2153, CVE-2015-2154, CVE-2015-2155, CVE-2016-7922, CVE-2016-7923, CVE-2016-7924, CVE-2016-7925, CVE-2016-7926, CVE-2016-7927, CVE-2016-7928, CVE-2016-7929, CVE-2016-7930, CVE-2016-7931, CVE-2016-7932, CVE-2016-7933, CVE-2016-7934, CVE-2016-7935, CVE-2016-7936, CVE-2016-7937, CVE-2016-7938, CVE-2016-7939, CVE-2016-7940, CVE-2016-7973, CVE-2016-7974, CVE-2016-7975, CVE-2016-7983, CVE-2016-7984, CVE-2016-7985, CVE-2016-7986, CVE-2016-7992, CVE-2016-7993, CVE-2016-8574, CVE-2016-8575, CVE-2017-5202, CVE-2017-5203, CVE-2017-5204, CVE-2017-5205, CVE-2017-5341, CVE-2017-5342, CVE-2017-5482, CVE-2017-5483, CVE-2017-5484, CVE-2017-5485, CVE-2017-5486)\nRed Hat would like to thank the Tcpdump project for reporting CVE-2016-7922, CVE-2016-7923, CVE-2016-7924, CVE-2016-7925, CVE-2016-7926, CVE-2016-7927, CVE-2016-7928, CVE-2016-7929, CVE-2016-7930, CVE-2016-7931, CVE-2016-7932, CVE-2016-7933, CVE-2016-7934, CVE-2016-7935, CVE-2016-7936, CVE-2016-7937, CVE-2016-7938, CVE-2016-7939, CVE-2016-7940, CVE-2016-7973, CVE-2016-7974, CVE-2016-7975, CVE-2016-7983, CVE-2016-7984, CVE-2016-7985, CVE-2016-7986, CVE-2016-7992, CVE-2016-7993, CVE-2016-8574, CVE-2016-8575, CVE-2017-5202, CVE-2017-5203, CVE-2017-5204, CVE-2017-5205, CVE-2017-5341, CVE-2017-5342, CVE-2017-5482, CVE-2017-5483, CVE-2017-5484, CVE-2017-5485, and CVE-2017-5486.\nAdditional Changes:\nFor detailed information on changes in this release, see the Red Hat Enterprise Linux 7.4 Release Notes linked from the References section.",
  "Platform": [
    "Red Hat Enterprise Linux 7"
  ],
  "References": [
    {
      "Source": "RHSA",
      "URI": "https://access.redhat.com/errata/RHSA-2017:1871",
      "ID": "RHSA-2017:1871"
    },
    {
      "Source": "CVE",
      "URI": "https://access.redhat.com/security/cve/CVE-2015-0261",
      "ID": "CVE-2015-0261"
    },
    {
      "Source": "CVE",
      "URI": "https://access.redhat.com/security/cve/CVE-2015-2153",
      "ID": "CVE-2015-2153"
    },
    {
      "Source": "CVE",
      "URI": "https://access.redhat.com/security/cve/CVE-2015-2154",
      "ID": "CVE-2015-2154"
    },
    {
      "Source": "CVE",
      "URI": "https://access.redhat.com/security/cve/CVE-2015-2155",
      "ID": "CVE-2015-2155"
    },
    {
      "Source": "CVE",
      "URI": "https://access.redhat.com/security/cve/CVE-2016-7922",
      "ID": "CVE-2016-7922"
    },
    {
      "Source": "CVE",
      "URI": "https://access.redhat.com/security/cve/CVE-2016-7923",
      "ID": "CVE-2016-7923"
    },
    {
      "Source": "CVE",
      "URI": "https://access.redhat.com/security/cve/CVE-2016-7924",
      "ID": "CVE-2016-7924"
    },
    {
      "Source": "CVE",
      "URI": "https://access.redhat.com/security/cve/CVE-2016-7925",
      "ID": "CVE-2016-7925"
    },
    {
      "Source": "CVE",
      "URI": "https://access.redhat.com/security/cve/CVE-2016-7926",
      "ID": "CVE-2016-7926"
    },
    {
      "Source": "CVE",
      "URI": "https://access.redhat.com/security/cve/CVE-2016-7927",
      "ID": "CVE-2016-7927"
    },
    {
      "Source": "CVE",
      "URI": "https://access.redhat.com/security/cve/CVE-2016-7928",
      "ID": "CVE-2016-7928"
    },
    {
      "Source": "CVE",
      "URI": "https://access.redhat.com/security/cve/CVE-2016-7929",
      "ID": "CVE-2016-7929"
    },
    {
      "Source": "CVE",
      "URI": "https://access.redhat.com/security/cve/CVE-2016-7930",
      "ID": "CVE-2016-7930"
    },
    {
      "Source": "CVE",
      "URI": "https://access.redhat.com/security/cve/CVE-2016-7931",
      "ID": "CVE-2016-7931"
    },
    {
      "Source": "CVE",
      "URI": "https://access.redhat.com/security/cve/CVE-2016-7932",
      "ID": "CVE-2016-7932"
    },
    {
      "Source": "CVE",
      "URI": "https://access.redhat.com/security/cve/CVE-2016-7933",
      "ID": "CVE-2016-7933"
    },
    {
      "Source": "CVE",
      "URI": "https://access.redhat.com/security/cve/CVE-2016-7934",
      "ID": "CVE-2016-7934"
    },
    {
      "Source": "CVE",
      "URI": "https://access.redhat.com/security/cve/CVE-2016-7935",
      "ID": "CVE-2016-7935"
    },
    {
      "Source": "CVE",
      "URI": "https://access.redhat.com/security/cve/CVE-2016-7936",
      "ID": "CVE-2016-7936"
    },
    {
      "Source": "CVE",
      "URI": "https://access.redhat.com/security/cve/CVE-2016-7937",
      "ID": "CVE-2016-7937"
    },
    {
      "Source": "CVE",
      "URI": "https://access.redhat.com/security/cve/CVE-2016-7938",
      "ID": "CVE-2016-7938"
    },
    {
      "Source": "CVE",
      "URI": "https://access.redhat.com/security/cve/CVE-2016-7939",
      "ID": "CVE-2016-7939"
    },
    {
      "Source": "CVE",
      "URI": "https://access.redhat.com/security/cve/CVE-2016-7940",
      "ID": "CVE-2016-7940"
    },
    {
      "Source": "CVE",
      "URI": "https://access.redhat.com/security/cve/CVE-2016-7973",
      "ID": "CVE-2016-7973"
    },
    {
      "Source": "CVE",
      "URI": "https://access.redhat.com/security/cve/CVE-2016-7974",
      "ID": "CVE-2016-7974"
    },
    {
      "Source": "CVE",
      "URI": "https://access.redhat.com/security/cve/CVE-2016-7975",
      "ID": "CVE-2016-7975"
    },
    {
      "Source": "CVE",
      "URI": "https://access.redhat.com/security/cve/CVE-2016-7983",
      "ID": "CVE-2016-7983"
    },
    {
      "Source": "CVE",
      "URI": "https://access.redhat.com/security/cve/CVE-2016-7984",
      "ID": "CVE-2016-7984"
    },
    {
      "Source": "CVE",
      "URI": "https://access.redhat.com/security/cve/CVE-2016-7985",
      "ID": "CVE-2016-7985"
    },
    {
      "Source": "CVE",
      "URI": "https://access.redhat.com/security/cve/CVE-2016-7986",
      "ID": "CVE-2016-7986"
    },
    {
      "Source": "CVE",
      "URI": "https://access.redhat.com/security/cve/CVE-2016-7992",
      "ID": "CVE-2016-7992"
    },
    {
      "Source": "CVE",
      "URI": "https://access.redhat.com/security/cve/CVE-2016-7993",
      "ID": "CVE-2016-7993"
    },
    {
      "Source": "CVE",
      "URI": "https://access.redhat.com/security/cve/CVE-2016-8574",
      "ID": "CVE-2016-8574"
    },
    {
      "Source": "CVE",
      "URI": "https://access.redhat.com/security/cve/CVE-2016-8575",
      "ID": "CVE-2016-8575"
    },
    {
      "Source": "CVE",
      "URI": "https://access.redhat.com/security/cve/CVE-2017-5202",
      "ID": "CVE-2017-5202"
    },
    {
      "Source": "CVE",
      "URI": "https://access.redhat.com/security/cve/CVE-2017-5203",
      "ID": "CVE-2017-5203"
    },
    {
      "Source": "CVE",
      "URI": "https://access.redhat.com/security/cve/CVE-2017-5204",
      "ID": "CVE-2017-5204"
    },
    {
      "Source": "CVE",
      "URI": "https://access.redhat.com/security/cve/CVE-2017-5205",
      "ID": "CVE-2017-5205"
    },
    {
      "Source": "CVE",
      "URI": "https://access.redhat.com/security/cve/CVE-2017-5341",
      "ID": "CVE-2017-5341"
    },
    {
      "Source": "CVE",
      "URI": "https://access.redhat.com/security/cve/CVE-2017-5342",
      "ID": "CVE-2017-5342"
    },
    {
      "Source": "CVE",
      "URI": "https://access.redhat.com/security/cve/CVE-2017-5482",
      "ID": "CVE-2017-5482"
    },
    {
      "Source": "CVE",
      "URI": "https://access.redhat.com/security/cve/CVE-2017-5483",
      "ID": "CVE-2017-5483"
    },
    {
      "Source": "CVE",
      "URI": "https://access.redhat.com/security/cve/CVE-2017-5484",
      "ID": "CVE-2017-5484"
    },
    {
      "Source": "CVE",
      "URI": "https://access.redhat.com/security/cve/CVE-2017-5485",
      "ID": "CVE-2017-5485"
    },
    {
      "Source": "CVE",
      "URI": "https://access.redhat.com/security/cve/CVE-2017-5486",
      "ID": "CVE-2017-5486"
    }
  ],
  "Criteria": {
    "Operator": "OR",
    "Criterias": [
      {
        "Operator": "AND",
        "Criterias": [

        ],
        "Criterions": [
          {
            "Comment": "Oracle Linux 7 is installed"
          },
          {
            "Comment": "tcpdump is earlier than 14:4.9.0-5.el7"
          },
          {
            "Comment": "tcpdump is signed with Red Hat redhatrelease2 key"
          }
        ]
      }
    ],
    "Criterions": [
      {
        "Comment": "Oracle Linux 7 is installed"
      }
    ]
  },
  "Severity": "Moderate",
  "Cves": [
    {
      "Impact": "",
      "Href": "",
      "ID": "CVE-2015-0261"
    },
    {
      "Impact": "",
      "Href": "",
      "ID": "CVE-2015-2153"
    },
    {
      "Impact": "",
      "Href": "",
      "ID": "CVE-2015-2154"
    },
    {
      "Impact": "",
      "Href": "",
      "ID": "CVE-2015-2155"
    },
    {
      "Impact": "",
      "Href": "",
      "ID": "CVE-2016-7922"
    },
    {
      "Impact": "",
      "Href": "",
      "ID": "CVE-2016-7923"
    },
    {
      "Impact": "",
      "Href": "",
      "ID": "CVE-2016-7924"
    },
    {
      "Impact": "",
      "Href": "",
      "ID": "CVE-2016-7925"
    },
    {
      "Impact": "",
      "Href": "",
      "ID": "CVE-2016-7926"
    },
    {
      "Impact": "",
      "Href": "",
      "ID": "CVE-2016-7927"
    },
    {
      "Impact": "",
      "Href": "",
      "ID": "CVE-2016-7928"
    },
    {
      "Impact": "",
      "Href": "",
      "ID": "CVE-2016-7929"
    },
    {
      "Impact": "",
      "Href": "",
      "ID": "CVE-2016-7930"
    },
    {
      "Impact": "",
      "Href": "",
      "ID": "CVE-2016-7931"
    },
    {
      "Impact": "",
      "Href": "",
      "ID": "CVE-2016-7932"
    },
    {
      "Impact": "",
      "Href": "",
      "ID": "CVE-2016-7933"
    },
    {
      "Impact": "",
      "Href": "",
      "ID": "CVE-2016-7934"
    },
    {
      "Impact": "",
      "Href": "",
      "ID": "CVE-2016-7935"
    },
    {
      "Impact": "",
      "Href": "",
      "ID": "CVE-2016-7936"
    },
    {
      "Impact": "",
      "Href": "",
      "ID": "CVE-2016-7937"
    },
    {
      "Impact": "",
      "Href": "",
      "ID": "CVE-2016-7938"
    },
    {
      "Impact": "",
      "Href": "",
      "ID": "CVE-2016-7939"
    },
    {
      "Impact": "",
      "Href": "",
      "ID": "CVE-2016-7940"
    },
    {
      "Impact": "",
      "Href": "",
      "ID": "CVE-2016-7973"
    },
    {
      "Impact": "",
      "Href": "",
      "ID": "CVE-2016-7974"
    },
    {
      "Impact": "",
      "Href": "",
      "ID": "CVE-2016-7975"
    },
    {
      "Impact": "",
      "Href": "",
      "ID": "CVE-2016-7983"
    },
    {
      "Impact": "",
      "Href": "",
      "ID": "CVE-2016-7984"
    },
    {
      "Impact": "",
      "Href": "",
      "ID": "CVE-2016-7985"
    },
    {
      "Impact": "",
      "Href": "",
      "ID": "CVE-2016-7986"
    },
    {
      "Impact": "",
      "Href": "",
      "ID": "CVE-2016-7992"
    },
    {
      "Impact": "",
      "Href": "",
      "ID": "CVE-2016-7993"
    },
    {
      "Impact": "",
      "Href": "",
      "ID": "CVE-2016-8574"
    },
    {
      "Impact": "",
      "Href": "",
      "ID": "CVE-2016-8575"
    },
    {
      "Impact": "",
      "Href": "",
      "ID": "CVE-2017-5202"
    },
    {
      "Impact": "",
      "Href": "",
      "ID": "CVE-2017-5203"
    },
    {
      "Impact": "",
      "Href": "",
      "ID": "CVE-2017-5204"
    },
    {
      "Impact": "",
      "Href": "",
      "ID": "CVE-2017-5205"
    },
    {
      "Impact": "",
      "Href": "",
      "ID": "CVE-2017-5341"
    },
    {
      "Impact": "",
      "Href": "",
      "ID": "CVE-2017-5342"
    },
    {
      "Impact": "",
      "Href": "",
      "ID": "CVE-2017-5482"
    },
    {
      "Impact": "",
      "Href": "",
      "ID": "CVE-2017-5483"
    },
    {
      "Impact": "",
      "Href": "",
      "ID": "CVE-2017-5484"
    },
    {
      "Impact": "",
      "Href": "",
      "ID": "CVE-2017-5485"
    },
    {
      "Impact": "",
      "Href": "",
      "ID": "CVE-2017-5486"
    }
  ],
  "Issued": {
    "Date": "2017-08-01"
  }
}