{
  "Title": "RHSA-2017:2790: samba security update (Moderate)",
  "Description": "Samba is an open-source implementation of the Server Message Block (SMB) protocol and the related Common Internet File System (CIFS) protocol, which allow PC-compatible machines to share files, printers, and various information.\nSecurity Fix(es):\n* It was found that samba did not enforce \"SMB signing\" when certain configuration options were enabled. A remote attacker could launch a man-in-the-middle attack and retrieve information in plain-text. (CVE-2017-12150)\n* A flaw was found in the way samba client used encryption with the max protocol set as SMB3. The connection could lose the requirement for signing and encrypting to any DFS redirects, allowing an attacker to read or alter the contents of the connection via a man-in-the-middle attack. (CVE-2017-12151)\n* An information leak flaw was found in the way SMB1 protocol was implemented by Samba. A malicious client could use this flaw to dump server memory contents to a file on the samba share or to a shared printer, though the exact area of server memory cannot be controlled by the attacker. (CVE-2017-12163)\nRed Hat would like to thank the Samba project for reporting CVE-2017-12150 and CVE-2017-12151 and Yihan Lian and Zhibin Hu (Qihoo 360 GearTeam), Stefan Metzmacher (SerNet), and Jeremy Allison (Google) for reporting CVE-2017-12163. Upstream acknowledges Stefan Metzmacher (SerNet) as the original reporter of CVE-2017-12150 and CVE-2017-12151.",
  "Platform": [
    "Red Hat Enterprise Linux 7"
  ],
  "References": [
    {
      "Source": "RHSA",
      "URI": "https://access.redhat.com/errata/RHSA-2017:2790",
      "ID": "RHSA-2017:2790"
    },
    {
      "Source": "CVE",
      "URI": "https://access.redhat.com/security/cve/CVE-2017-12150",
      "ID": "CVE-2017-12150"
    },
    {
      "Source": "CVE",
      "URI": "https://access.redhat.com/security/cve/CVE-2017-12151",
      "ID": "CVE-2017-12151"
    },
    {
      "Source": "CVE",
      "URI": "https://access.redhat.com/security/cve/CVE-2017-12163",
      "ID": "CVE-2017-12163"
    }
  ],
  "Criteria": {
    "Operator": "OR",
    "Criterias": [
      {
        "Operator": "AND",
        "Criterias": [
          {
            "Operator": "OR",
            "Criterias": [
              {
                "Operator": "AND",
                "Criterias": [

                ],
                "Criterions": [
                  {
                    "Comment": "ctdb is earlier than 0:4.6.2-11.el7_4"
                  },
                  {
                    "Comment": "ctdb is signed with Red Hat redhatrelease2 key"
                  }
                ]
              },
              {
                "Operator": "AND",
                "Criterias": [

                ],
                "Criterions": [
                  {
                    "Comment": "ctdb-tests is earlier than 0:4.6.2-11.el7_4"
                  },
                  {
                    "Comment": "ctdb-tests is signed with Red Hat redhatrelease2 key"
                  }
                ]
              },
              {
                "Operator": "AND",
                "Criterias": [

                ],
                "Criterions": [
                  {
                    "Comment": "libsmbclient is earlier than 0:4.6.2-11.el7_4"
                  },
                  {
                    "Comment": "libsmbclient is signed with Red Hat redhatrelease2 key"
                  }
                ]
              },
              {
                "Operator": "AND",
                "Criterias": [

                ],
                "Criterions": [
                  {
                    "Comment": "libsmbclient-devel is earlier than 0:4.6.2-11.el7_4"
                  },
                  {
                    "Comment": "libsmbclient-devel is signed with Red Hat redhatrelease2 key"
                  }
                ]
              },
              {
                "Operator": "AND",
                "Criterias": [

                ],
                "Criterions": [
                  {
                    "Comment": "libwbclient is earlier than 0:4.6.2-11.el7_4"
                  },
                  {
                    "Comment": "libwbclient is signed with Red Hat redhatrelease2 key"
                  }
                ]
              },
              {
                "Operator": "AND",
                "Criterias": [

                ],
                "Criterions": [
                  {
                    "Comment": "libwbclient-devel is earlier than 0:4.6.2-11.el7_4"
                  },
                  {
                    "Comment": "libwbclient-devel is signed with Red Hat redhatrelease2 key"
                  }
                ]
              },
              {
                "Operator": "AND",
                "Criterias": [

                ],
                "Criterions": [
                  {
                    "Comment": "samba is earlier than 0:4.6.2-11.el7_4"
                  },
                  {
                    "Comment": "samba is signed with Red Hat redhatrelease2 key"
                  }
                ]
              },
              {
                "Operator": "AND",
                "Criterias": [

                ],
                "Criterions": [
                  {
                    "Comment": "samba-client is earlier than 0:4.6.2-11.el7_4"
                  },
                  {
                    "Comment": "samba-client is signed with Red Hat redhatrelease2 key"
                  }
                ]
              },
              {
                "Operator": "AND",
                "Criterias": [

                ],
                "Criterions": [
                  {
                    "Comment": "samba-client-libs is earlier than 0:4.6.2-11.el7_4"
                  },
                  {
                    "Comment": "samba-client-libs is signed with Red Hat redhatrelease2 key"
                  }
                ]
              },
              {
                "Operator": "AND",
                "Criterias": [

                ],
                "Criterions": [
                  {
                    "Comment": "samba-common is earlier than 0:4.6.2-11.el7_4"
                  },
                  {
                    "Comment": "samba-common is signed with Red Hat redhatrelease2 key"
                  }
                ]
              },
              {
                "Operator": "AND",
                "Criterias": [

                ],
                "Criterions": [
                  {
                    "Comment": "samba-common-libs is earlier than 0:4.6.2-11.el7_4"
                  },
                  {
                    "Comment": "samba-common-libs is signed with Red Hat redhatrelease2 key"
                  }
                ]
              },
              {
                "Operator": "AND",
                "Criterias": [

                ],
                "Criterions": [
                  {
                    "Comment": "samba-common-tools is earlier than 0:4.6.2-11.el7_4"
                  },
                  {
                    "Comment": "samba-common-tools is signed with Red Hat redhatrelease2 key"
                  }
                ]
              },
              {
                "Operator": "AND",
                "Criterias": [

                ],
                "Criterions": [
                  {
                    "Comment": "samba-dc is earlier than 0:4.6.2-11.el7_4"
                  },
                  {
                    "Comment": "samba-dc is signed with Red Hat redhatrelease2 key"
                  }
                ]
              },
              {
                "Operator": "AND",
                "Criterias": [

                ],
                "Criterions": [
                  {
                    "Comment": "samba-dc-libs is earlier than 0:4.6.2-11.el7_4"
                  },
                  {
                    "Comment": "samba-dc-libs is signed with Red Hat redhatrelease2 key"
                  }
                ]
              },
              {
                "Operator": "AND",
                "Criterias": [

                ],
                "Criterions": [
                  {
                    "Comment": "samba-devel is earlier than 0:4.6.2-11.el7_4"
                  },
                  {
                    "Comment": "samba-devel is signed with Red Hat redhatrelease2 key"
                  }
                ]
              },
              {
                "Operator": "AND",
                "Criterias": [

                ],
                "Criterions": [
                  {
                    "Comment": "samba-krb5-printing is earlier than 0:4.6.2-11.el7_4"
                  },
                  {
                    "Comment": "samba-krb5-printing is signed with Red Hat redhatrelease2 key"
                  }
                ]
              },
              {
                "Operator": "AND",
                "Criterias": [

                ],
                "Criterions": [
                  {
                    "Comment": "samba-libs is earlier than 0:4.6.2-11.el7_4"
                  },
                  {
                    "Comment": "samba-libs is signed with Red Hat redhatrelease2 key"
                  }
                ]
              },
              {
                "Operator": "AND",
                "Criterias": [

                ],
                "Criterions": [
                  {
                    "Comment": "samba-pidl is earlier than 0:4.6.2-11.el7_4"
                  },
                  {
                    "Comment": "samba-pidl is signed with Red Hat redhatrelease2 key"
                  }
                ]
              },
              {
                "Operator": "AND",
                "Criterias": [

                ],
                "Criterions": [
                  {
                    "Comment": "samba-python is earlier than 0:4.6.2-11.el7_4"
                  },
                  {
                    "Comment": "samba-python is signed with Red Hat redhatrelease2 key"
                  }
                ]
              },
              {
                "Operator": "AND",
                "Criterias": [

                ],
                "Criterions": [
                  {
                    "Comment": "samba-test is earlier than 0:4.6.2-11.el7_4"
                  },
                  {
                    "Comment": "samba-test is signed with Red Hat redhatrelease2 key"
                  }
                ]
              },
              {
                "Operator": "AND",
                "Criterias": [

                ],
                "Criterions": [
                  {
                    "Comment": "samba-test-libs is earlier than 0:4.6.2-11.el7_4"
                  },
                  {
                    "Comment": "samba-test-libs is signed with Red Hat redhatrelease2 key"
                  }
                ]
              },
              {
                "Operator": "AND",
                "Criterias": [

                ],
                "Criterions": [
                  {
                    "Comment": "samba-vfs-glusterfs is earlier than 0:4.6.2-11.el7_4"
                  },
                  {
                    "Comment": "samba-vfs-glusterfs is signed with Red Hat redhatrelease2 key"
                  }
                ]
              },
              {
                "Operator": "AND",
                "Criterias": [

                ],
                "Criterions": [
                  {
                    "Comment": "samba-winbind is earlier than 0:4.6.2-11.el7_4"
                  },
                  {
                    "Comment": "samba-winbind is signed with Red Hat redhatrelease2 key"
                  }
                ]
              },
              {
                "Operator": "AND",
                "Criterias": [

                ],
                "Criterions": [
                  {
                    "Comment": "samba-winbind-clients is earlier than 0:4.6.2-11.el7_4"
                  },
                  {
                    "Comment": "samba-winbind-clients is signed with Red Hat redhatrelease2 key"
                  }
                ]
              },
              {
                "Operator": "AND",
                "Criterias": [

                ],
                "Criterions": [
                  {
                    "Comment": "samba-winbind-krb5-locator is earlier than 0:4.6.2-11.el7_4"
                  },
                  {
                    "Comment": "samba-winbind-krb5-locator is signed with Red Hat redhatrelease2 key"
                  }
                ]
              },
              {
                "Operator": "AND",
                "Criterias": [

                ],
                "Criterions": [
                  {
                    "Comment": "samba-winbind-modules is earlier than 0:4.6.2-11.el7_4"
                  },
                  {
                    "Comment": "samba-winbind-modules is signed with Red Hat redhatrelease2 key"
                  }
                ]
              }
            ],
            "Criterions": [

            ]
          }
        ],
        "Criterions": [
          {
            "Comment": "Oracle Linux 7 is installed"
          }
        ]
      }
    ],
    "Criterions": [
      {
        "Comment": "Oracle Linux 7 is installed"
      }
    ]
  },
  "Severity": "Moderate",
  "Cves": [
    {
      "Impact": "",
      "Href": "",
      "ID": "CVE-2017-12150"
    },
    {
      "Impact": "",
      "Href": "",
      "ID": "CVE-2017-12151"
    },
    {
      "Impact": "",
      "Href": "",
      "ID": "CVE-2017-12163"
    }
  ],
  "Issued": {
    "Date": "2017-09-21"
  }
}