{
  "Title": "RHSA-2017:0631: wireshark security and bug fix update (Moderate)",
  "Description": "The wireshark packages contain a network protocol analyzer used to capture and browse the traffic running on a computer network.\nSecurity Fix(es):\n* Several denial of service flaws were found in Wireshark. Wireshark could crash or stop responding if it read a malformed packet off a network, or opened a malicious dump file. (CVE-2015-3811, CVE-2015-3812, CVE-2015-3813, CVE-2013-4075)\nAdditional Changes:\nFor detailed information on changes in this release, see the Red Hat Enterprise Linux 6.9 Release Notes and Red Hat Enterprise Linux 6.9 Technical Notes linked from the References section.",
  "Platform": [
    "Red Hat Enterprise Linux 6"
  ],
  "References": [
    {
      "Source": "RHSA",
      "URI": "https://access.redhat.com/errata/RHSA-2017:0631",
      "ID": "RHSA-2017:0631"
    },
    {
      "Source": "CVE",
      "URI": "https://access.redhat.com/security/cve/CVE-2013-4075",
      "ID": "CVE-2013-4075"
    },
    {
      "Source": "CVE",
      "URI": "https://access.redhat.com/security/cve/CVE-2015-3811",
      "ID": "CVE-2015-3811"
    },
    {
      "Source": "CVE",
      "URI": "https://access.redhat.com/security/cve/CVE-2015-3812",
      "ID": "CVE-2015-3812"
    },
    {
      "Source": "CVE",
      "URI": "https://access.redhat.com/security/cve/CVE-2015-3813",
      "ID": "CVE-2015-3813"
    }
  ],
  "Criteria": {
    "Operator": "OR",
    "Criterias": [
      {
        "Operator": "AND",
        "Criterias": [
          {
            "Operator": "OR",
            "Criterias": [
              {
                "Operator": "AND",
                "Criterias": [

                ],
                "Criterions": [
                  {
                    "Comment": "wireshark is earlier than 0:1.8.10-25.el6"
                  },
                  {
                    "Comment": "wireshark is signed with Red Hat redhatrelease2 key"
                  }
                ]
              },
              {
                "Operator": "AND",
                "Criterias": [

                ],
                "Criterions": [
                  {
                    "Comment": "wireshark-devel is earlier than 0:1.8.10-25.el6"
                  },
                  {
                    "Comment": "wireshark-devel is signed with Red Hat redhatrelease2 key"
                  }
                ]
              },
              {
                "Operator": "AND",
                "Criterias": [

                ],
                "Criterions": [
                  {
                    "Comment": "wireshark-gnome is earlier than 0:1.8.10-25.el6"
                  },
                  {
                    "Comment": "wireshark-gnome is signed with Red Hat redhatrelease2 key"
                  }
                ]
              }
            ],
            "Criterions": [

            ]
          }
        ],
        "Criterions": [
          {
            "Comment": "Oracle Linux 6 is installed"
          }
        ]
      }
    ],
    "Criterions": [
      {
        "Comment": "Oracle Linux 6 is installed"
      }
    ]
  },
  "Severity": "Moderate",
  "Cves": [
    {
      "Impact": "",
      "Href": "",
      "ID": "CVE-2013-4075"
    },
    {
      "Impact": "",
      "Href": "",
      "ID": "CVE-2015-3811"
    },
    {
      "Impact": "",
      "Href": "",
      "ID": "CVE-2015-3812"
    },
    {
      "Impact": "",
      "Href": "",
      "ID": "CVE-2015-3813"
    }
  ],
  "Issued": {
    "Date": "2017-03-21"
  }
}