{
  "Title": "RHSA-2017:2258: gtk-vnc security, bug fix, and enhancement update (Moderate)",
  "Description": "The gtk-vnc packages provide a VNC viewer widget for GTK. The gtk-vnc widget is built by using co-routines, which allows the widget to be completely asynchronous while remaining single-threaded.\nThe following packages have been upgraded to a later upstream version: gtk-vnc (0.7.0). (BZ#1416783)\nSecurity Fix(es):\n* It was found that gtk-vnc lacked proper bounds checking while processing messages using RRE, hextile, or copyrect encodings. A remote malicious VNC server could use this flaw to crash VNC viewers which are based on the gtk-vnc library. (CVE-2017-5884)\n* An integer overflow flaw was found in gtk-vnc. A remote malicious VNC server could use this flaw to crash VNC viewers which are based on the gtk-vnc library. (CVE-2017-5885)\nAdditional Changes:\nFor detailed information on changes in this release, see the Red Hat Enterprise Linux 7.4 Release Notes linked from the References section.",
  "Platform": [
    "Red Hat Enterprise Linux 7"
  ],
  "References": [
    {
      "Source": "RHSA",
      "URI": "https://access.redhat.com/errata/RHSA-2017:2258",
      "ID": "RHSA-2017:2258"
    },
    {
      "Source": "CVE",
      "URI": "https://access.redhat.com/security/cve/CVE-2017-5884",
      "ID": "CVE-2017-5884"
    },
    {
      "Source": "CVE",
      "URI": "https://access.redhat.com/security/cve/CVE-2017-5885",
      "ID": "CVE-2017-5885"
    }
  ],
  "Criteria": {
    "Operator": "OR",
    "Criterias": [
      {
        "Operator": "AND",
        "Criterias": [
          {
            "Operator": "OR",
            "Criterias": [
              {
                "Operator": "AND",
                "Criterias": [

                ],
                "Criterions": [
                  {
                    "Comment": "gtk-vnc is earlier than 0:0.7.0-2.el7"
                  },
                  {
                    "Comment": "gtk-vnc is signed with Red Hat redhatrelease2 key"
                  }
                ]
              },
              {
                "Operator": "AND",
                "Criterias": [

                ],
                "Criterions": [
                  {
                    "Comment": "gtk-vnc-devel is earlier than 0:0.7.0-2.el7"
                  },
                  {
                    "Comment": "gtk-vnc-devel is signed with Red Hat redhatrelease2 key"
                  }
                ]
              },
              {
                "Operator": "AND",
                "Criterias": [

                ],
                "Criterions": [
                  {
                    "Comment": "gtk-vnc-python is earlier than 0:0.7.0-2.el7"
                  },
                  {
                    "Comment": "gtk-vnc-python is signed with Red Hat redhatrelease2 key"
                  }
                ]
              },
              {
                "Operator": "AND",
                "Criterias": [

                ],
                "Criterions": [
                  {
                    "Comment": "gtk-vnc2 is earlier than 0:0.7.0-2.el7"
                  },
                  {
                    "Comment": "gtk-vnc2 is signed with Red Hat redhatrelease2 key"
                  }
                ]
              },
              {
                "Operator": "AND",
                "Criterias": [

                ],
                "Criterions": [
                  {
                    "Comment": "gtk-vnc2-devel is earlier than 0:0.7.0-2.el7"
                  },
                  {
                    "Comment": "gtk-vnc2-devel is signed with Red Hat redhatrelease2 key"
                  }
                ]
              },
              {
                "Operator": "AND",
                "Criterias": [

                ],
                "Criterions": [
                  {
                    "Comment": "gvnc is earlier than 0:0.7.0-2.el7"
                  },
                  {
                    "Comment": "gvnc is signed with Red Hat redhatrelease2 key"
                  }
                ]
              },
              {
                "Operator": "AND",
                "Criterias": [

                ],
                "Criterions": [
                  {
                    "Comment": "gvnc-devel is earlier than 0:0.7.0-2.el7"
                  },
                  {
                    "Comment": "gvnc-devel is signed with Red Hat redhatrelease2 key"
                  }
                ]
              },
              {
                "Operator": "AND",
                "Criterias": [

                ],
                "Criterions": [
                  {
                    "Comment": "gvnc-tools is earlier than 0:0.7.0-2.el7"
                  },
                  {
                    "Comment": "gvnc-tools is signed with Red Hat redhatrelease2 key"
                  }
                ]
              },
              {
                "Operator": "AND",
                "Criterias": [

                ],
                "Criterions": [
                  {
                    "Comment": "gvncpulse is earlier than 0:0.7.0-2.el7"
                  },
                  {
                    "Comment": "gvncpulse is signed with Red Hat redhatrelease2 key"
                  }
                ]
              },
              {
                "Operator": "AND",
                "Criterias": [

                ],
                "Criterions": [
                  {
                    "Comment": "gvncpulse-devel is earlier than 0:0.7.0-2.el7"
                  },
                  {
                    "Comment": "gvncpulse-devel is signed with Red Hat redhatrelease2 key"
                  }
                ]
              }
            ],
            "Criterions": [

            ]
          }
        ],
        "Criterions": [
          {
            "Comment": "Oracle Linux 7 is installed"
          }
        ]
      }
    ],
    "Criterions": [
      {
        "Comment": "Oracle Linux 7 is installed"
      }
    ]
  },
  "Severity": "Moderate",
  "Cves": [
    {
      "Impact": "",
      "Href": "",
      "ID": "CVE-2017-5884"
    },
    {
      "Impact": "",
      "Href": "",
      "ID": "CVE-2017-5885"
    }
  ],
  "Issued": {
    "Date": "2017-08-01"
  }
}