{
  "Title": "RHSA-2017:2863: kernel security and bug fix update (Moderate)",
  "Description": "The kernel packages contain the Linux kernel, the core of any Linux operating system.\nSecurity Fix(es):\n* Kernel memory corruption due to a buffer overflow was found in brcmf_cfg80211_mgmt_tx() function in Linux kernels from v3.9-rc1 to v4.13-rc1. The vulnerability can be triggered by sending a crafted NL80211_CMD_FRAME packet via netlink. This flaw is unlikely to be triggered remotely as certain userspace code is needed for this. An unprivileged local user could use this flaw to induce kernel memory corruption on the system, leading to a crash. Due to the nature of the flaw, privilege escalation cannot be fully ruled out, although it is unlikely. (CVE-2017-7541, Moderate)\nBug Fix(es):\n* Previously, removal of a rport during ISCSI target scanning could cause a kernel panic. This was happening because addition of STARGET_REMOVE to the rport state introduced a race condition to the SCSI code. This update adds the STARGET_CREATED_REMOVE state as a possible state of the rport and appropriate handling of that state, thus fixing the bug. As a result, the kernel panic no longer occurs under the described circumstances. (BZ#1472127)\n* Previously, GFS2 contained multiple bugs where the wrong inode was assigned to GFS2 cluster-wide locks (glocks), or the assigned inode was cleared incorrectly. Consequently, kernel panic could occur when using GFS2. With this update, GFS2 has been fixed, and the kernel no longer panics due to those bugs. (BZ#1479397)\n* Previously, VMs with memory larger than 64GB running on Hyper-V with Windows Server hosts reported potential memory size of 4TB and more, but could not use more than 64GB. This was happening because the Memory Type Range Register (MTRR) for memory above 64GB was omitted. With this update, the /proc/mtrr file has been fixed to show correct base/size if they are more than 44 bit wide. As a result, the whole size of memory is now available as expected under the described circumstances. (BZ#1482855)",
  "Platform": [
    "Red Hat Enterprise Linux 6"
  ],
  "References": [
    {
      "Source": "RHSA",
      "URI": "https://access.redhat.com/errata/RHSA-2017:2863",
      "ID": "RHSA-2017:2863"
    },
    {
      "Source": "CVE",
      "URI": "https://access.redhat.com/security/cve/CVE-2017-7541",
      "ID": "CVE-2017-7541"
    }
  ],
  "Criteria": {
    "Operator": "OR",
    "Criterias": [
      {
        "Operator": "AND",
        "Criterias": [
          {
            "Operator": "OR",
            "Criterias": [

            ],
            "Criterions": [
              {
                "Comment": "kernel earlier than 0:2.6.32-696.13.2.el6 is currently running"
              },
              {
                "Comment": "kernel earlier than 0:2.6.32-696.13.2.el6 is set to boot up on next boot"
              }
            ]
          },
          {
            "Operator": "OR",
            "Criterias": [
              {
                "Operator": "AND",
                "Criterias": [

                ],
                "Criterions": [
                  {
                    "Comment": "kernel is earlier than 0:2.6.32-696.13.2.el6"
                  },
                  {
                    "Comment": "kernel is signed with Red Hat redhatrelease2 key"
                  }
                ]
              },
              {
                "Operator": "AND",
                "Criterias": [

                ],
                "Criterions": [
                  {
                    "Comment": "kernel-abi-whitelists is earlier than 0:2.6.32-696.13.2.el6"
                  },
                  {
                    "Comment": "kernel-abi-whitelists is signed with Red Hat redhatrelease2 key"
                  }
                ]
              },
              {
                "Operator": "AND",
                "Criterias": [

                ],
                "Criterions": [
                  {
                    "Comment": "kernel-bootwrapper is earlier than 0:2.6.32-696.13.2.el6"
                  },
                  {
                    "Comment": "kernel-bootwrapper is signed with Red Hat redhatrelease2 key"
                  }
                ]
              },
              {
                "Operator": "AND",
                "Criterias": [

                ],
                "Criterions": [
                  {
                    "Comment": "kernel-debug is earlier than 0:2.6.32-696.13.2.el6"
                  },
                  {
                    "Comment": "kernel-debug is signed with Red Hat redhatrelease2 key"
                  }
                ]
              },
              {
                "Operator": "AND",
                "Criterias": [

                ],
                "Criterions": [
                  {
                    "Comment": "kernel-debug-devel is earlier than 0:2.6.32-696.13.2.el6"
                  },
                  {
                    "Comment": "kernel-debug-devel is signed with Red Hat redhatrelease2 key"
                  }
                ]
              },
              {
                "Operator": "AND",
                "Criterias": [

                ],
                "Criterions": [
                  {
                    "Comment": "kernel-devel is earlier than 0:2.6.32-696.13.2.el6"
                  },
                  {
                    "Comment": "kernel-devel is signed with Red Hat redhatrelease2 key"
                  }
                ]
              },
              {
                "Operator": "AND",
                "Criterias": [

                ],
                "Criterions": [
                  {
                    "Comment": "kernel-doc is earlier than 0:2.6.32-696.13.2.el6"
                  },
                  {
                    "Comment": "kernel-doc is signed with Red Hat redhatrelease2 key"
                  }
                ]
              },
              {
                "Operator": "AND",
                "Criterias": [

                ],
                "Criterions": [
                  {
                    "Comment": "kernel-firmware is earlier than 0:2.6.32-696.13.2.el6"
                  },
                  {
                    "Comment": "kernel-firmware is signed with Red Hat redhatrelease2 key"
                  }
                ]
              },
              {
                "Operator": "AND",
                "Criterias": [

                ],
                "Criterions": [
                  {
                    "Comment": "kernel-headers is earlier than 0:2.6.32-696.13.2.el6"
                  },
                  {
                    "Comment": "kernel-headers is signed with Red Hat redhatrelease2 key"
                  }
                ]
              },
              {
                "Operator": "AND",
                "Criterias": [

                ],
                "Criterions": [
                  {
                    "Comment": "kernel-kdump is earlier than 0:2.6.32-696.13.2.el6"
                  },
                  {
                    "Comment": "kernel-kdump is signed with Red Hat redhatrelease2 key"
                  }
                ]
              },
              {
                "Operator": "AND",
                "Criterias": [

                ],
                "Criterions": [
                  {
                    "Comment": "kernel-kdump-devel is earlier than 0:2.6.32-696.13.2.el6"
                  },
                  {
                    "Comment": "kernel-kdump-devel is signed with Red Hat redhatrelease2 key"
                  }
                ]
              },
              {
                "Operator": "AND",
                "Criterias": [

                ],
                "Criterions": [
                  {
                    "Comment": "perf is earlier than 0:2.6.32-696.13.2.el6"
                  },
                  {
                    "Comment": "perf is signed with Red Hat redhatrelease2 key"
                  }
                ]
              },
              {
                "Operator": "AND",
                "Criterias": [

                ],
                "Criterions": [
                  {
                    "Comment": "python-perf is earlier than 0:2.6.32-696.13.2.el6"
                  },
                  {
                    "Comment": "python-perf is signed with Red Hat redhatrelease2 key"
                  }
                ]
              }
            ],
            "Criterions": [

            ]
          }
        ],
        "Criterions": [
          {
            "Comment": "Oracle Linux 6 is installed"
          }
        ]
      }
    ],
    "Criterions": [
      {
        "Comment": "Oracle Linux 6 is installed"
      }
    ]
  },
  "Severity": "Moderate",
  "Cves": [
    {
      "Impact": "",
      "Href": "",
      "ID": "CVE-2017-7541"
    }
  ],
  "Issued": {
    "Date": "2017-10-05"
  }
}