{
  "Title": "RHSA-2017:1576: mercurial security update (Important)",
  "Description": "Mercurial is a fast, lightweight source control management system designed for efficient handling of very large distributed projects.\nSecurity Fix(es):\n* A flaw was found in the way \"hg serve --stdio\" command in Mercurial handled command-line options. A remote, authenticated attacker could use this flaw to execute arbitrary code on the Mercurial server by using specially crafted command-line options. (CVE-2017-9462)",
  "Platform": [
    "Red Hat Enterprise Linux 6",
    "Red Hat Enterprise Linux 7"
  ],
  "References": [
    {
      "Source": "RHSA",
      "URI": "https://access.redhat.com/errata/RHSA-2017:1576",
      "ID": "RHSA-2017:1576"
    },
    {
      "Source": "CVE",
      "URI": "https://access.redhat.com/security/cve/CVE-2017-9462",
      "ID": "CVE-2017-9462"
    }
  ],
  "Criteria": {
    "Operator": "OR",
    "Criterias": [
      {
        "Operator": "AND",
        "Criterias": [
          {
            "Operator": "OR",
            "Criterias": [
              {
                "Operator": "AND",
                "Criterias": [

                ],
                "Criterions": [
                  {
                    "Comment": "emacs-mercurial is earlier than 0:2.6.2-7.el7_3"
                  },
                  {
                    "Comment": "emacs-mercurial is signed with Red Hat redhatrelease2 key"
                  }
                ]
              },
              {
                "Operator": "AND",
                "Criterias": [

                ],
                "Criterions": [
                  {
                    "Comment": "emacs-mercurial-el is earlier than 0:2.6.2-7.el7_3"
                  },
                  {
                    "Comment": "emacs-mercurial-el is signed with Red Hat redhatrelease2 key"
                  }
                ]
              },
              {
                "Operator": "AND",
                "Criterias": [

                ],
                "Criterions": [
                  {
                    "Comment": "mercurial is earlier than 0:2.6.2-7.el7_3"
                  },
                  {
                    "Comment": "mercurial is signed with Red Hat redhatrelease2 key"
                  }
                ]
              },
              {
                "Operator": "AND",
                "Criterias": [

                ],
                "Criterions": [
                  {
                    "Comment": "mercurial-hgk is earlier than 0:2.6.2-7.el7_3"
                  },
                  {
                    "Comment": "mercurial-hgk is signed with Red Hat redhatrelease2 key"
                  }
                ]
              }
            ],
            "Criterions": [

            ]
          }
        ],
        "Criterions": [
          {
            "Comment": "Oracle Linux 7 is installed"
          }
        ]
      },
      {
        "Operator": "AND",
        "Criterias": [
          {
            "Operator": "OR",
            "Criterias": [
              {
                "Operator": "AND",
                "Criterias": [

                ],
                "Criterions": [
                  {
                    "Comment": "emacs-mercurial is earlier than 0:1.4-5.el6_9"
                  },
                  {
                    "Comment": "emacs-mercurial is signed with Red Hat redhatrelease2 key"
                  }
                ]
              },
              {
                "Operator": "AND",
                "Criterias": [

                ],
                "Criterions": [
                  {
                    "Comment": "emacs-mercurial-el is earlier than 0:1.4-5.el6_9"
                  },
                  {
                    "Comment": "emacs-mercurial-el is signed with Red Hat redhatrelease2 key"
                  }
                ]
              },
              {
                "Operator": "AND",
                "Criterias": [

                ],
                "Criterions": [
                  {
                    "Comment": "mercurial is earlier than 0:1.4-5.el6_9"
                  },
                  {
                    "Comment": "mercurial is signed with Red Hat redhatrelease2 key"
                  }
                ]
              },
              {
                "Operator": "AND",
                "Criterias": [

                ],
                "Criterions": [
                  {
                    "Comment": "mercurial-hgk is earlier than 0:1.4-5.el6_9"
                  },
                  {
                    "Comment": "mercurial-hgk is signed with Red Hat redhatrelease2 key"
                  }
                ]
              }
            ],
            "Criterions": [

            ]
          }
        ],
        "Criterions": [
          {
            "Comment": "Oracle Linux 6 is installed"
          }
        ]
      }
    ],
    "Criterions": [
      {
        "Comment": "Oracle Linux 6 is installed"
      }
    ]
  },
  "Severity": "Important",
  "Cves": [
    {
      "Impact": "",
      "Href": "",
      "ID": "CVE-2017-9462"
    }
  ],
  "Issued": {
    "Date": "2017-06-27"
  }
}