{
  "Title": "RHSA-2017:1381: sudo security update (Important)",
  "Description": "The sudo packages contain the sudo utility which allows system administrators to provide certain users with the permission to execute privileged commands, which are used for system management purposes, without having to log in as root.\nSecurity Fix(es):\n* A flaw was found in the way sudo parsed tty information from the process status file in the proc filesystem. A local user with privileges to execute commands via sudo could use this flaw to escalate their privileges to root. (CVE-2017-1000367)\nRed Hat would like to thank Qualys Security for reporting this issue.",
  "Platform": [
    "Red Hat Enterprise Linux 5 Extended Lifecycle Support"
  ],
  "References": [
    {
      "Source": "RHSA",
      "URI": "https://access.redhat.com/errata/RHSA-2017:1381",
      "ID": "RHSA-2017:1381"
    },
    {
      "Source": "CVE",
      "URI": "https://access.redhat.com/security/cve/CVE-2017-1000367",
      "ID": "CVE-2017-1000367"
    }
  ],
  "Criteria": {
    "Operator": "OR",
    "Criterias": [
      {
        "Operator": "AND",
        "Criterias": [

        ],
        "Criterions": [
          {
            "Comment": "Oracle Linux 5 is installed"
          },
          {
            "Comment": "sudo is earlier than 0:1.7.2p1-30.el5_11"
          },
          {
            "Comment": "sudo is signed with Red Hat redhatrelease2 key"
          }
        ]
      }
    ],
    "Criterions": [
      {
        "Comment": "Oracle Linux 5 Extended Lifecycle Support is installed"
      }
    ]
  },
  "Severity": "Important",
  "Cves": [
    {
      "Impact": "",
      "Href": "",
      "ID": "CVE-2017-1000367"
    }
  ],
  "Issued": {
    "Date": "2017-05-30"
  }
}