{
  "Title": "RHSA-2017:2486: groovy security update (Important)",
  "Description": "Groovy is an agile and dynamic language for the Java Virtual Machine, built upon Java with features inspired by languages like Python, Ruby, and Smalltalk. It seamlessly integrates with all existing Java objects and libraries and compiles straight to Java bytecode so you can use it anywhere you can use Java.\nSecurity Fix(es):\n* It was found that a flaw in Apache groovy library allows remote code execution wherever deserialization occurs in the application. It is possible for an attacker to craft a special serialized object that will execute code directly when deserialized. All applications which rely on serialization and do not isolate the code which deserializes objects are subject to this vulnerability. (CVE-2016-6814)",
  "Platform": [
    "Red Hat Enterprise Linux 7"
  ],
  "References": [
    {
      "Source": "RHSA",
      "URI": "https://access.redhat.com/errata/RHSA-2017:2486",
      "ID": "RHSA-2017:2486"
    },
    {
      "Source": "CVE",
      "URI": "https://access.redhat.com/security/cve/CVE-2015-3253",
      "ID": "CVE-2015-3253"
    },
    {
      "Source": "CVE",
      "URI": "https://access.redhat.com/security/cve/CVE-2016-6814",
      "ID": "CVE-2016-6814"
    }
  ],
  "Criteria": {
    "Operator": "OR",
    "Criterias": [
      {
        "Operator": "AND",
        "Criterias": [
          {
            "Operator": "OR",
            "Criterias": [
              {
                "Operator": "AND",
                "Criterias": [

                ],
                "Criterions": [
                  {
                    "Comment": "groovy is earlier than 0:1.8.9-8.el7_4"
                  },
                  {
                    "Comment": "groovy is signed with Red Hat redhatrelease2 key"
                  }
                ]
              },
              {
                "Operator": "AND",
                "Criterias": [

                ],
                "Criterions": [
                  {
                    "Comment": "groovy-javadoc is earlier than 0:1.8.9-8.el7_4"
                  },
                  {
                    "Comment": "groovy-javadoc is signed with Red Hat redhatrelease2 key"
                  }
                ]
              }
            ],
            "Criterions": [

            ]
          }
        ],
        "Criterions": [
          {
            "Comment": "Oracle Linux 7 is installed"
          }
        ]
      }
    ],
    "Criterions": [
      {
        "Comment": "Oracle Linux 7 is installed"
      }
    ]
  },
  "Severity": "Important",
  "Cves": [
    {
      "Impact": "",
      "Href": "",
      "ID": "CVE-2015-3253"
    },
    {
      "Impact": "",
      "Href": "",
      "ID": "CVE-2016-6814"
    }
  ],
  "Issued": {
    "Date": "2017-08-17"
  }
}