{
  "Title": "RHSA-2017:0914: libreoffice security and bug fix update (Moderate)",
  "Description": "LibreOffice is an open source, community-developed office productivity suite. It includes key desktop applications, such as a word processor, a spreadsheet, a presentation manager, a formula editor, and a drawing program. LibreOffice replaces OpenOffice and provides a similar but enhanced and extended office suite.\nSecurity Fix(es):\n* It was found that LibreOffice disclosed contents of a file specified in an embedded object's preview. An attacker could potentially use this flaw to expose details of a system running LibreOffice as an online service via a crafted document. (CVE-2017-3157)\nBug Fix(es):\n* Previously, an improper resource management caused the LibreOffice Calc spreadsheet application to terminate unexpectedly after closing a dialog window with accessibility support enabled. The resource management has been improved, and the described problem no longer occurs. (BZ#1425536)\n* Previously, when an incorrect password was entered for a password protected document, the document has been considered as valid and a fallback attempt to open it as plain text has been made. As a consequence, it could appear that the document succesfully loaded, while just the encrypted unreadable content was shown. A fix has been made to terminate import attempts after entering incorrect password, and now nothing is loaded when a wrong password is entered. (BZ#1426348)\n* Previously, an improper resource management caused the LibreOffice Calc spreadsheet application to terminate unexpectedly during exit, after the Text Import dialog for CSV (Comma-separated Value) files closed, when accessibility support was enabled. The resource management has been improved, and the described problem no longer occurs. (BZ#1425535)",
  "Platform": [
    "Red Hat Enterprise Linux 7"
  ],
  "References": [
    {
      "Source": "RHSA",
      "URI": "https://access.redhat.com/errata/RHSA-2017:0914",
      "ID": "RHSA-2017:0914"
    },
    {
      "Source": "CVE",
      "URI": "https://access.redhat.com/security/cve/CVE-2017-3157",
      "ID": "CVE-2017-3157"
    }
  ],
  "Criteria": {
    "Operator": "OR",
    "Criterias": [
      {
        "Operator": "AND",
        "Criterias": [
          {
            "Operator": "OR",
            "Criterias": [
              {
                "Operator": "AND",
                "Criterias": [

                ],
                "Criterions": [
                  {
                    "Comment": "autocorr-af is earlier than 1:5.0.6.2-5.el7_3.1"
                  },
                  {
                    "Comment": "autocorr-af is signed with Red Hat redhatrelease2 key"
                  }
                ]
              },
              {
                "Operator": "AND",
                "Criterias": [

                ],
                "Criterions": [
                  {
                    "Comment": "autocorr-bg is earlier than 1:5.0.6.2-5.el7_3.1"
                  },
                  {
                    "Comment": "autocorr-bg is signed with Red Hat redhatrelease2 key"
                  }
                ]
              },
              {
                "Operator": "AND",
                "Criterias": [

                ],
                "Criterions": [
                  {
                    "Comment": "autocorr-ca is earlier than 1:5.0.6.2-5.el7_3.1"
                  },
                  {
                    "Comment": "autocorr-ca is signed with Red Hat redhatrelease2 key"
                  }
                ]
              },
              {
                "Operator": "AND",
                "Criterias": [

                ],
                "Criterions": [
                  {
                    "Comment": "autocorr-cs is earlier than 1:5.0.6.2-5.el7_3.1"
                  },
                  {
                    "Comment": "autocorr-cs is signed with Red Hat redhatrelease2 key"
                  }
                ]
              },
              {
                "Operator": "AND",
                "Criterias": [

                ],
                "Criterions": [
                  {
                    "Comment": "autocorr-da is earlier than 1:5.0.6.2-5.el7_3.1"
                  },
                  {
                    "Comment": "autocorr-da is signed with Red Hat redhatrelease2 key"
                  }
                ]
              },
              {
                "Operator": "AND",
                "Criterias": [

                ],
                "Criterions": [
                  {
                    "Comment": "autocorr-de is earlier than 1:5.0.6.2-5.el7_3.1"
                  },
                  {
                    "Comment": "autocorr-de is signed with Red Hat redhatrelease2 key"
                  }
                ]
              },
              {
                "Operator": "AND",
                "Criterias": [

                ],
                "Criterions": [
                  {
                    "Comment": "autocorr-en is earlier than 1:5.0.6.2-5.el7_3.1"
                  },
                  {
                    "Comment": "autocorr-en is signed with Red Hat redhatrelease2 key"
                  }
                ]
              },
              {
                "Operator": "AND",
                "Criterias": [

                ],
                "Criterions": [
                  {
                    "Comment": "autocorr-es is earlier than 1:5.0.6.2-5.el7_3.1"
                  },
                  {
                    "Comment": "autocorr-es is signed with Red Hat redhatrelease2 key"
                  }
                ]
              },
              {
                "Operator": "AND",
                "Criterias": [

                ],
                "Criterions": [
                  {
                    "Comment": "autocorr-fa is earlier than 1:5.0.6.2-5.el7_3.1"
                  },
                  {
                    "Comment": "autocorr-fa is signed with Red Hat redhatrelease2 key"
                  }
                ]
              },
              {
                "Operator": "AND",
                "Criterias": [

                ],
                "Criterions": [
                  {
                    "Comment": "autocorr-fi is earlier than 1:5.0.6.2-5.el7_3.1"
                  },
                  {
                    "Comment": "autocorr-fi is signed with Red Hat redhatrelease2 key"
                  }
                ]
              },
              {
                "Operator": "AND",
                "Criterias": [

                ],
                "Criterions": [
                  {
                    "Comment": "autocorr-fr is earlier than 1:5.0.6.2-5.el7_3.1"
                  },
                  {
                    "Comment": "autocorr-fr is signed with Red Hat redhatrelease2 key"
                  }
                ]
              },
              {
                "Operator": "AND",
                "Criterias": [

                ],
                "Criterions": [
                  {
                    "Comment": "autocorr-ga is earlier than 1:5.0.6.2-5.el7_3.1"
                  },
                  {
                    "Comment": "autocorr-ga is signed with Red Hat redhatrelease2 key"
                  }
                ]
              },
              {
                "Operator": "AND",
                "Criterias": [

                ],
                "Criterions": [
                  {
                    "Comment": "autocorr-hr is earlier than 1:5.0.6.2-5.el7_3.1"
                  },
                  {
                    "Comment": "autocorr-hr is signed with Red Hat redhatrelease2 key"
                  }
                ]
              },
              {
                "Operator": "AND",
                "Criterias": [

                ],
                "Criterions": [
                  {
                    "Comment": "autocorr-hu is earlier than 1:5.0.6.2-5.el7_3.1"
                  },
                  {
                    "Comment": "autocorr-hu is signed with Red Hat redhatrelease2 key"
                  }
                ]
              },
              {
                "Operator": "AND",
                "Criterias": [

                ],
                "Criterions": [
                  {
                    "Comment": "autocorr-is is earlier than 1:5.0.6.2-5.el7_3.1"
                  },
                  {
                    "Comment": "autocorr-is is signed with Red Hat redhatrelease2 key"
                  }
                ]
              },
              {
                "Operator": "AND",
                "Criterias": [

                ],
                "Criterions": [
                  {
                    "Comment": "autocorr-it is earlier than 1:5.0.6.2-5.el7_3.1"
                  },
                  {
                    "Comment": "autocorr-it is signed with Red Hat redhatrelease2 key"
                  }
                ]
              },
              {
                "Operator": "AND",
                "Criterias": [

                ],
                "Criterions": [
                  {
                    "Comment": "autocorr-ja is earlier than 1:5.0.6.2-5.el7_3.1"
                  },
                  {
                    "Comment": "autocorr-ja is signed with Red Hat redhatrelease2 key"
                  }
                ]
              },
              {
                "Operator": "AND",
                "Criterias": [

                ],
                "Criterions": [
                  {
                    "Comment": "autocorr-ko is earlier than 1:5.0.6.2-5.el7_3.1"
                  },
                  {
                    "Comment": "autocorr-ko is signed with Red Hat redhatrelease2 key"
                  }
                ]
              },
              {
                "Operator": "AND",
                "Criterias": [

                ],
                "Criterions": [
                  {
                    "Comment": "autocorr-lb is earlier than 1:5.0.6.2-5.el7_3.1"
                  },
                  {
                    "Comment": "autocorr-lb is signed with Red Hat redhatrelease2 key"
                  }
                ]
              },
              {
                "Operator": "AND",
                "Criterias": [

                ],
                "Criterions": [
                  {
                    "Comment": "autocorr-lt is earlier than 1:5.0.6.2-5.el7_3.1"
                  },
                  {
                    "Comment": "autocorr-lt is signed with Red Hat redhatrelease2 key"
                  }
                ]
              },
              {
                "Operator": "AND",
                "Criterias": [

                ],
                "Criterions": [
                  {
                    "Comment": "autocorr-mn is earlier than 1:5.0.6.2-5.el7_3.1"
                  },
                  {
                    "Comment": "autocorr-mn is signed with Red Hat redhatrelease2 key"
                  }
                ]
              },
              {
                "Operator": "AND",
                "Criterias": [

                ],
                "Criterions": [
                  {
                    "Comment": "autocorr-nl is earlier than 1:5.0.6.2-5.el7_3.1"
                  },
                  {
                    "Comment": "autocorr-nl is signed with Red Hat redhatrelease2 key"
                  }
                ]
              },
              {
                "Operator": "AND",
                "Criterias": [

                ],
                "Criterions": [
                  {
                    "Comment": "autocorr-pl is earlier than 1:5.0.6.2-5.el7_3.1"
                  },
                  {
                    "Comment": "autocorr-pl is signed with Red Hat redhatrelease2 key"
                  }
                ]
              },
              {
                "Operator": "AND",
                "Criterias": [

                ],
                "Criterions": [
                  {
                    "Comment": "autocorr-pt is earlier than 1:5.0.6.2-5.el7_3.1"
                  },
                  {
                    "Comment": "autocorr-pt is signed with Red Hat redhatrelease2 key"
                  }
                ]
              },
              {
                "Operator": "AND",
                "Criterias": [

                ],
                "Criterions": [
                  {
                    "Comment": "autocorr-ro is earlier than 1:5.0.6.2-5.el7_3.1"
                  },
                  {
                    "Comment": "autocorr-ro is signed with Red Hat redhatrelease2 key"
                  }
                ]
              },
              {
                "Operator": "AND",
                "Criterias": [

                ],
                "Criterions": [
                  {
                    "Comment": "autocorr-ru is earlier than 1:5.0.6.2-5.el7_3.1"
                  },
                  {
                    "Comment": "autocorr-ru is signed with Red Hat redhatrelease2 key"
                  }
                ]
              },
              {
                "Operator": "AND",
                "Criterias": [

                ],
                "Criterions": [
                  {
                    "Comment": "autocorr-sk is earlier than 1:5.0.6.2-5.el7_3.1"
                  },
                  {
                    "Comment": "autocorr-sk is signed with Red Hat redhatrelease2 key"
                  }
                ]
              },
              {
                "Operator": "AND",
                "Criterias": [

                ],
                "Criterions": [
                  {
                    "Comment": "autocorr-sl is earlier than 1:5.0.6.2-5.el7_3.1"
                  },
                  {
                    "Comment": "autocorr-sl is signed with Red Hat redhatrelease2 key"
                  }
                ]
              },
              {
                "Operator": "AND",
                "Criterias": [

                ],
                "Criterions": [
                  {
                    "Comment": "autocorr-sr is earlier than 1:5.0.6.2-5.el7_3.1"
                  },
                  {
                    "Comment": "autocorr-sr is signed with Red Hat redhatrelease2 key"
                  }
                ]
              },
              {
                "Operator": "AND",
                "Criterias": [

                ],
                "Criterions": [
                  {
                    "Comment": "autocorr-sv is earlier than 1:5.0.6.2-5.el7_3.1"
                  },
                  {
                    "Comment": "autocorr-sv is signed with Red Hat redhatrelease2 key"
                  }
                ]
              },
              {
                "Operator": "AND",
                "Criterias": [

                ],
                "Criterions": [
                  {
                    "Comment": "autocorr-tr is earlier than 1:5.0.6.2-5.el7_3.1"
                  },
                  {
                    "Comment": "autocorr-tr is signed with Red Hat redhatrelease2 key"
                  }
                ]
              },
              {
                "Operator": "AND",
                "Criterias": [

                ],
                "Criterions": [
                  {
                    "Comment": "autocorr-vi is earlier than 1:5.0.6.2-5.el7_3.1"
                  },
                  {
                    "Comment": "autocorr-vi is signed with Red Hat redhatrelease2 key"
                  }
                ]
              },
              {
                "Operator": "AND",
                "Criterias": [

                ],
                "Criterions": [
                  {
                    "Comment": "autocorr-zh is earlier than 1:5.0.6.2-5.el7_3.1"
                  },
                  {
                    "Comment": "autocorr-zh is signed with Red Hat redhatrelease2 key"
                  }
                ]
              },
              {
                "Operator": "AND",
                "Criterias": [

                ],
                "Criterions": [
                  {
                    "Comment": "libreoffice is earlier than 1:5.0.6.2-5.el7_3.1"
                  },
                  {
                    "Comment": "libreoffice is signed with Red Hat redhatrelease2 key"
                  }
                ]
              },
              {
                "Operator": "AND",
                "Criterias": [

                ],
                "Criterions": [
                  {
                    "Comment": "libreoffice-base is earlier than 1:5.0.6.2-5.el7_3.1"
                  },
                  {
                    "Comment": "libreoffice-base is signed with Red Hat redhatrelease2 key"
                  }
                ]
              },
              {
                "Operator": "AND",
                "Criterias": [

                ],
                "Criterions": [
                  {
                    "Comment": "libreoffice-bsh is earlier than 1:5.0.6.2-5.el7_3.1"
                  },
                  {
                    "Comment": "libreoffice-bsh is signed with Red Hat redhatrelease2 key"
                  }
                ]
              },
              {
                "Operator": "AND",
                "Criterias": [

                ],
                "Criterions": [
                  {
                    "Comment": "libreoffice-calc is earlier than 1:5.0.6.2-5.el7_3.1"
                  },
                  {
                    "Comment": "libreoffice-calc is signed with Red Hat redhatrelease2 key"
                  }
                ]
              },
              {
                "Operator": "AND",
                "Criterias": [

                ],
                "Criterions": [
                  {
                    "Comment": "libreoffice-core is earlier than 1:5.0.6.2-5.el7_3.1"
                  },
                  {
                    "Comment": "libreoffice-core is signed with Red Hat redhatrelease2 key"
                  }
                ]
              },
              {
                "Operator": "AND",
                "Criterias": [

                ],
                "Criterions": [
                  {
                    "Comment": "libreoffice-draw is earlier than 1:5.0.6.2-5.el7_3.1"
                  },
                  {
                    "Comment": "libreoffice-draw is signed with Red Hat redhatrelease2 key"
                  }
                ]
              },
              {
                "Operator": "AND",
                "Criterias": [

                ],
                "Criterions": [
                  {
                    "Comment": "libreoffice-emailmerge is earlier than 1:5.0.6.2-5.el7_3.1"
                  },
                  {
                    "Comment": "libreoffice-emailmerge is signed with Red Hat redhatrelease2 key"
                  }
                ]
              },
              {
                "Operator": "AND",
                "Criterias": [

                ],
                "Criterions": [
                  {
                    "Comment": "libreoffice-filters is earlier than 1:5.0.6.2-5.el7_3.1"
                  },
                  {
                    "Comment": "libreoffice-filters is signed with Red Hat redhatrelease2 key"
                  }
                ]
              },
              {
                "Operator": "AND",
                "Criterias": [

                ],
                "Criterions": [
                  {
                    "Comment": "libreoffice-gdb-debug-support is earlier than 1:5.0.6.2-5.el7_3.1"
                  },
                  {
                    "Comment": "libreoffice-gdb-debug-support is signed with Red Hat redhatrelease2 key"
                  }
                ]
              },
              {
                "Operator": "AND",
                "Criterias": [

                ],
                "Criterions": [
                  {
                    "Comment": "libreoffice-glade is earlier than 1:5.0.6.2-5.el7_3.1"
                  },
                  {
                    "Comment": "libreoffice-glade is signed with Red Hat redhatrelease2 key"
                  }
                ]
              },
              {
                "Operator": "AND",
                "Criterias": [

                ],
                "Criterions": [
                  {
                    "Comment": "libreoffice-graphicfilter is earlier than 1:5.0.6.2-5.el7_3.1"
                  },
                  {
                    "Comment": "libreoffice-graphicfilter is signed with Red Hat redhatrelease2 key"
                  }
                ]
              },
              {
                "Operator": "AND",
                "Criterias": [

                ],
                "Criterions": [
                  {
                    "Comment": "libreoffice-impress is earlier than 1:5.0.6.2-5.el7_3.1"
                  },
                  {
                    "Comment": "libreoffice-impress is signed with Red Hat redhatrelease2 key"
                  }
                ]
              },
              {
                "Operator": "AND",
                "Criterias": [

                ],
                "Criterions": [
                  {
                    "Comment": "libreoffice-langpack-af is earlier than 1:5.0.6.2-5.el7_3.1"
                  },
                  {
                    "Comment": "libreoffice-langpack-af is signed with Red Hat redhatrelease2 key"
                  }
                ]
              },
              {
                "Operator": "AND",
                "Criterias": [

                ],
                "Criterions": [
                  {
                    "Comment": "libreoffice-langpack-ar is earlier than 1:5.0.6.2-5.el7_3.1"
                  },
                  {
                    "Comment": "libreoffice-langpack-ar is signed with Red Hat redhatrelease2 key"
                  }
                ]
              },
              {
                "Operator": "AND",
                "Criterias": [

                ],
                "Criterions": [
                  {
                    "Comment": "libreoffice-langpack-as is earlier than 1:5.0.6.2-5.el7_3.1"
                  },
                  {
                    "Comment": "libreoffice-langpack-as is signed with Red Hat redhatrelease2 key"
                  }
                ]
              },
              {
                "Operator": "AND",
                "Criterias": [

                ],
                "Criterions": [
                  {
                    "Comment": "libreoffice-langpack-bg is earlier than 1:5.0.6.2-5.el7_3.1"
                  },
                  {
                    "Comment": "libreoffice-langpack-bg is signed with Red Hat redhatrelease2 key"
                  }
                ]
              },
              {
                "Operator": "AND",
                "Criterias": [

                ],
                "Criterions": [
                  {
                    "Comment": "libreoffice-langpack-bn is earlier than 1:5.0.6.2-5.el7_3.1"
                  },
                  {
                    "Comment": "libreoffice-langpack-bn is signed with Red Hat redhatrelease2 key"
                  }
                ]
              },
              {
                "Operator": "AND",
                "Criterias": [

                ],
                "Criterions": [
                  {
                    "Comment": "libreoffice-langpack-br is earlier than 1:5.0.6.2-5.el7_3.1"
                  },
                  {
                    "Comment": "libreoffice-langpack-br is signed with Red Hat redhatrelease2 key"
                  }
                ]
              },
              {
                "Operator": "AND",
                "Criterias": [

                ],
                "Criterions": [
                  {
                    "Comment": "libreoffice-langpack-ca is earlier than 1:5.0.6.2-5.el7_3.1"
                  },
                  {
                    "Comment": "libreoffice-langpack-ca is signed with Red Hat redhatrelease2 key"
                  }
                ]
              },
              {
                "Operator": "AND",
                "Criterias": [

                ],
                "Criterions": [
                  {
                    "Comment": "libreoffice-langpack-cs is earlier than 1:5.0.6.2-5.el7_3.1"
                  },
                  {
                    "Comment": "libreoffice-langpack-cs is signed with Red Hat redhatrelease2 key"
                  }
                ]
              },
              {
                "Operator": "AND",
                "Criterias": [

                ],
                "Criterions": [
                  {
                    "Comment": "libreoffice-langpack-cy is earlier than 1:5.0.6.2-5.el7_3.1"
                  },
                  {
                    "Comment": "libreoffice-langpack-cy is signed with Red Hat redhatrelease2 key"
                  }
                ]
              },
              {
                "Operator": "AND",
                "Criterias": [

                ],
                "Criterions": [
                  {
                    "Comment": "libreoffice-langpack-da is earlier than 1:5.0.6.2-5.el7_3.1"
                  },
                  {
                    "Comment": "libreoffice-langpack-da is signed with Red Hat redhatrelease2 key"
                  }
                ]
              },
              {
                "Operator": "AND",
                "Criterias": [

                ],
                "Criterions": [
                  {
                    "Comment": "libreoffice-langpack-de is earlier than 1:5.0.6.2-5.el7_3.1"
                  },
                  {
                    "Comment": "libreoffice-langpack-de is signed with Red Hat redhatrelease2 key"
                  }
                ]
              },
              {
                "Operator": "AND",
                "Criterias": [

                ],
                "Criterions": [
                  {
                    "Comment": "libreoffice-langpack-dz is earlier than 1:5.0.6.2-5.el7_3.1"
                  },
                  {
                    "Comment": "libreoffice-langpack-dz is signed with Red Hat redhatrelease2 key"
                  }
                ]
              },
              {
                "Operator": "AND",
                "Criterias": [

                ],
                "Criterions": [
                  {
                    "Comment": "libreoffice-langpack-el is earlier than 1:5.0.6.2-5.el7_3.1"
                  },
                  {
                    "Comment": "libreoffice-langpack-el is signed with Red Hat redhatrelease2 key"
                  }
                ]
              },
              {
                "Operator": "AND",
                "Criterias": [

                ],
                "Criterions": [
                  {
                    "Comment": "libreoffice-langpack-en is earlier than 1:5.0.6.2-5.el7_3.1"
                  },
                  {
                    "Comment": "libreoffice-langpack-en is signed with Red Hat redhatrelease2 key"
                  }
                ]
              },
              {
                "Operator": "AND",
                "Criterias": [

                ],
                "Criterions": [
                  {
                    "Comment": "libreoffice-langpack-es is earlier than 1:5.0.6.2-5.el7_3.1"
                  },
                  {
                    "Comment": "libreoffice-langpack-es is signed with Red Hat redhatrelease2 key"
                  }
                ]
              },
              {
                "Operator": "AND",
                "Criterias": [

                ],
                "Criterions": [
                  {
                    "Comment": "libreoffice-langpack-et is earlier than 1:5.0.6.2-5.el7_3.1"
                  },
                  {
                    "Comment": "libreoffice-langpack-et is signed with Red Hat redhatrelease2 key"
                  }
                ]
              },
              {
                "Operator": "AND",
                "Criterias": [

                ],
                "Criterions": [
                  {
                    "Comment": "libreoffice-langpack-eu is earlier than 1:5.0.6.2-5.el7_3.1"
                  },
                  {
                    "Comment": "libreoffice-langpack-eu is signed with Red Hat redhatrelease2 key"
                  }
                ]
              },
              {
                "Operator": "AND",
                "Criterias": [

                ],
                "Criterions": [
                  {
                    "Comment": "libreoffice-langpack-fa is earlier than 1:5.0.6.2-5.el7_3.1"
                  },
                  {
                    "Comment": "libreoffice-langpack-fa is signed with Red Hat redhatrelease2 key"
                  }
                ]
              },
              {
                "Operator": "AND",
                "Criterias": [

                ],
                "Criterions": [
                  {
                    "Comment": "libreoffice-langpack-fi is earlier than 1:5.0.6.2-5.el7_3.1"
                  },
                  {
                    "Comment": "libreoffice-langpack-fi is signed with Red Hat redhatrelease2 key"
                  }
                ]
              },
              {
                "Operator": "AND",
                "Criterias": [

                ],
                "Criterions": [
                  {
                    "Comment": "libreoffice-langpack-fr is earlier than 1:5.0.6.2-5.el7_3.1"
                  },
                  {
                    "Comment": "libreoffice-langpack-fr is signed with Red Hat redhatrelease2 key"
                  }
                ]
              },
              {
                "Operator": "AND",
                "Criterias": [

                ],
                "Criterions": [
                  {
                    "Comment": "libreoffice-langpack-ga is earlier than 1:5.0.6.2-5.el7_3.1"
                  },
                  {
                    "Comment": "libreoffice-langpack-ga is signed with Red Hat redhatrelease2 key"
                  }
                ]
              },
              {
                "Operator": "AND",
                "Criterias": [

                ],
                "Criterions": [
                  {
                    "Comment": "libreoffice-langpack-gl is earlier than 1:5.0.6.2-5.el7_3.1"
                  },
                  {
                    "Comment": "libreoffice-langpack-gl is signed with Red Hat redhatrelease2 key"
                  }
                ]
              },
              {
                "Operator": "AND",
                "Criterias": [

                ],
                "Criterions": [
                  {
                    "Comment": "libreoffice-langpack-gu is earlier than 1:5.0.6.2-5.el7_3.1"
                  },
                  {
                    "Comment": "libreoffice-langpack-gu is signed with Red Hat redhatrelease2 key"
                  }
                ]
              },
              {
                "Operator": "AND",
                "Criterias": [

                ],
                "Criterions": [
                  {
                    "Comment": "libreoffice-langpack-he is earlier than 1:5.0.6.2-5.el7_3.1"
                  },
                  {
                    "Comment": "libreoffice-langpack-he is signed with Red Hat redhatrelease2 key"
                  }
                ]
              },
              {
                "Operator": "AND",
                "Criterias": [

                ],
                "Criterions": [
                  {
                    "Comment": "libreoffice-langpack-hi is earlier than 1:5.0.6.2-5.el7_3.1"
                  },
                  {
                    "Comment": "libreoffice-langpack-hi is signed with Red Hat redhatrelease2 key"
                  }
                ]
              },
              {
                "Operator": "AND",
                "Criterias": [

                ],
                "Criterions": [
                  {
                    "Comment": "libreoffice-langpack-hr is earlier than 1:5.0.6.2-5.el7_3.1"
                  },
                  {
                    "Comment": "libreoffice-langpack-hr is signed with Red Hat redhatrelease2 key"
                  }
                ]
              },
              {
                "Operator": "AND",
                "Criterias": [

                ],
                "Criterions": [
                  {
                    "Comment": "libreoffice-langpack-hu is earlier than 1:5.0.6.2-5.el7_3.1"
                  },
                  {
                    "Comment": "libreoffice-langpack-hu is signed with Red Hat redhatrelease2 key"
                  }
                ]
              },
              {
                "Operator": "AND",
                "Criterias": [

                ],
                "Criterions": [
                  {
                    "Comment": "libreoffice-langpack-it is earlier than 1:5.0.6.2-5.el7_3.1"
                  },
                  {
                    "Comment": "libreoffice-langpack-it is signed with Red Hat redhatrelease2 key"
                  }
                ]
              },
              {
                "Operator": "AND",
                "Criterias": [

                ],
                "Criterions": [
                  {
                    "Comment": "libreoffice-langpack-ja is earlier than 1:5.0.6.2-5.el7_3.1"
                  },
                  {
                    "Comment": "libreoffice-langpack-ja is signed with Red Hat redhatrelease2 key"
                  }
                ]
              },
              {
                "Operator": "AND",
                "Criterias": [

                ],
                "Criterions": [
                  {
                    "Comment": "libreoffice-langpack-kk is earlier than 1:5.0.6.2-5.el7_3.1"
                  },
                  {
                    "Comment": "libreoffice-langpack-kk is signed with Red Hat redhatrelease2 key"
                  }
                ]
              },
              {
                "Operator": "AND",
                "Criterias": [

                ],
                "Criterions": [
                  {
                    "Comment": "libreoffice-langpack-kn is earlier than 1:5.0.6.2-5.el7_3.1"
                  },
                  {
                    "Comment": "libreoffice-langpack-kn is signed with Red Hat redhatrelease2 key"
                  }
                ]
              },
              {
                "Operator": "AND",
                "Criterias": [

                ],
                "Criterions": [
                  {
                    "Comment": "libreoffice-langpack-ko is earlier than 1:5.0.6.2-5.el7_3.1"
                  },
                  {
                    "Comment": "libreoffice-langpack-ko is signed with Red Hat redhatrelease2 key"
                  }
                ]
              },
              {
                "Operator": "AND",
                "Criterias": [

                ],
                "Criterions": [
                  {
                    "Comment": "libreoffice-langpack-lt is earlier than 1:5.0.6.2-5.el7_3.1"
                  },
                  {
                    "Comment": "libreoffice-langpack-lt is signed with Red Hat redhatrelease2 key"
                  }
                ]
              },
              {
                "Operator": "AND",
                "Criterias": [

                ],
                "Criterions": [
                  {
                    "Comment": "libreoffice-langpack-lv is earlier than 1:5.0.6.2-5.el7_3.1"
                  },
                  {
                    "Comment": "libreoffice-langpack-lv is signed with Red Hat redhatrelease2 key"
                  }
                ]
              },
              {
                "Operator": "AND",
                "Criterias": [

                ],
                "Criterions": [
                  {
                    "Comment": "libreoffice-langpack-mai is earlier than 1:5.0.6.2-5.el7_3.1"
                  },
                  {
                    "Comment": "libreoffice-langpack-mai is signed with Red Hat redhatrelease2 key"
                  }
                ]
              },
              {
                "Operator": "AND",
                "Criterias": [

                ],
                "Criterions": [
                  {
                    "Comment": "libreoffice-langpack-ml is earlier than 1:5.0.6.2-5.el7_3.1"
                  },
                  {
                    "Comment": "libreoffice-langpack-ml is signed with Red Hat redhatrelease2 key"
                  }
                ]
              },
              {
                "Operator": "AND",
                "Criterias": [

                ],
                "Criterions": [
                  {
                    "Comment": "libreoffice-langpack-mr is earlier than 1:5.0.6.2-5.el7_3.1"
                  },
                  {
                    "Comment": "libreoffice-langpack-mr is signed with Red Hat redhatrelease2 key"
                  }
                ]
              },
              {
                "Operator": "AND",
                "Criterias": [

                ],
                "Criterions": [
                  {
                    "Comment": "libreoffice-langpack-nb is earlier than 1:5.0.6.2-5.el7_3.1"
                  },
                  {
                    "Comment": "libreoffice-langpack-nb is signed with Red Hat redhatrelease2 key"
                  }
                ]
              },
              {
                "Operator": "AND",
                "Criterias": [

                ],
                "Criterions": [
                  {
                    "Comment": "libreoffice-langpack-nl is earlier than 1:5.0.6.2-5.el7_3.1"
                  },
                  {
                    "Comment": "libreoffice-langpack-nl is signed with Red Hat redhatrelease2 key"
                  }
                ]
              },
              {
                "Operator": "AND",
                "Criterias": [

                ],
                "Criterions": [
                  {
                    "Comment": "libreoffice-langpack-nn is earlier than 1:5.0.6.2-5.el7_3.1"
                  },
                  {
                    "Comment": "libreoffice-langpack-nn is signed with Red Hat redhatrelease2 key"
                  }
                ]
              },
              {
                "Operator": "AND",
                "Criterias": [

                ],
                "Criterions": [
                  {
                    "Comment": "libreoffice-langpack-nr is earlier than 1:5.0.6.2-5.el7_3.1"
                  },
                  {
                    "Comment": "libreoffice-langpack-nr is signed with Red Hat redhatrelease2 key"
                  }
                ]
              },
              {
                "Operator": "AND",
                "Criterias": [

                ],
                "Criterions": [
                  {
                    "Comment": "libreoffice-langpack-nso is earlier than 1:5.0.6.2-5.el7_3.1"
                  },
                  {
                    "Comment": "libreoffice-langpack-nso is signed with Red Hat redhatrelease2 key"
                  }
                ]
              },
              {
                "Operator": "AND",
                "Criterias": [

                ],
                "Criterions": [
                  {
                    "Comment": "libreoffice-langpack-or is earlier than 1:5.0.6.2-5.el7_3.1"
                  },
                  {
                    "Comment": "libreoffice-langpack-or is signed with Red Hat redhatrelease2 key"
                  }
                ]
              },
              {
                "Operator": "AND",
                "Criterias": [

                ],
                "Criterions": [
                  {
                    "Comment": "libreoffice-langpack-pa is earlier than 1:5.0.6.2-5.el7_3.1"
                  },
                  {
                    "Comment": "libreoffice-langpack-pa is signed with Red Hat redhatrelease2 key"
                  }
                ]
              },
              {
                "Operator": "AND",
                "Criterias": [

                ],
                "Criterions": [
                  {
                    "Comment": "libreoffice-langpack-pl is earlier than 1:5.0.6.2-5.el7_3.1"
                  },
                  {
                    "Comment": "libreoffice-langpack-pl is signed with Red Hat redhatrelease2 key"
                  }
                ]
              },
              {
                "Operator": "AND",
                "Criterias": [

                ],
                "Criterions": [
                  {
                    "Comment": "libreoffice-langpack-pt-BR is earlier than 1:5.0.6.2-5.el7_3.1"
                  },
                  {
                    "Comment": "libreoffice-langpack-pt-BR is signed with Red Hat redhatrelease2 key"
                  }
                ]
              },
              {
                "Operator": "AND",
                "Criterias": [

                ],
                "Criterions": [
                  {
                    "Comment": "libreoffice-langpack-pt-PT is earlier than 1:5.0.6.2-5.el7_3.1"
                  },
                  {
                    "Comment": "libreoffice-langpack-pt-PT is signed with Red Hat redhatrelease2 key"
                  }
                ]
              },
              {
                "Operator": "AND",
                "Criterias": [

                ],
                "Criterions": [
                  {
                    "Comment": "libreoffice-langpack-ro is earlier than 1:5.0.6.2-5.el7_3.1"
                  },
                  {
                    "Comment": "libreoffice-langpack-ro is signed with Red Hat redhatrelease2 key"
                  }
                ]
              },
              {
                "Operator": "AND",
                "Criterias": [

                ],
                "Criterions": [
                  {
                    "Comment": "libreoffice-langpack-ru is earlier than 1:5.0.6.2-5.el7_3.1"
                  },
                  {
                    "Comment": "libreoffice-langpack-ru is signed with Red Hat redhatrelease2 key"
                  }
                ]
              },
              {
                "Operator": "AND",
                "Criterias": [

                ],
                "Criterions": [
                  {
                    "Comment": "libreoffice-langpack-si is earlier than 1:5.0.6.2-5.el7_3.1"
                  },
                  {
                    "Comment": "libreoffice-langpack-si is signed with Red Hat redhatrelease2 key"
                  }
                ]
              },
              {
                "Operator": "AND",
                "Criterias": [

                ],
                "Criterions": [
                  {
                    "Comment": "libreoffice-langpack-sk is earlier than 1:5.0.6.2-5.el7_3.1"
                  },
                  {
                    "Comment": "libreoffice-langpack-sk is signed with Red Hat redhatrelease2 key"
                  }
                ]
              },
              {
                "Operator": "AND",
                "Criterias": [

                ],
                "Criterions": [
                  {
                    "Comment": "libreoffice-langpack-sl is earlier than 1:5.0.6.2-5.el7_3.1"
                  },
                  {
                    "Comment": "libreoffice-langpack-sl is signed with Red Hat redhatrelease2 key"
                  }
                ]
              },
              {
                "Operator": "AND",
                "Criterias": [

                ],
                "Criterions": [
                  {
                    "Comment": "libreoffice-langpack-sr is earlier than 1:5.0.6.2-5.el7_3.1"
                  },
                  {
                    "Comment": "libreoffice-langpack-sr is signed with Red Hat redhatrelease2 key"
                  }
                ]
              },
              {
                "Operator": "AND",
                "Criterias": [

                ],
                "Criterions": [
                  {
                    "Comment": "libreoffice-langpack-ss is earlier than 1:5.0.6.2-5.el7_3.1"
                  },
                  {
                    "Comment": "libreoffice-langpack-ss is signed with Red Hat redhatrelease2 key"
                  }
                ]
              },
              {
                "Operator": "AND",
                "Criterias": [

                ],
                "Criterions": [
                  {
                    "Comment": "libreoffice-langpack-st is earlier than 1:5.0.6.2-5.el7_3.1"
                  },
                  {
                    "Comment": "libreoffice-langpack-st is signed with Red Hat redhatrelease2 key"
                  }
                ]
              },
              {
                "Operator": "AND",
                "Criterias": [

                ],
                "Criterions": [
                  {
                    "Comment": "libreoffice-langpack-sv is earlier than 1:5.0.6.2-5.el7_3.1"
                  },
                  {
                    "Comment": "libreoffice-langpack-sv is signed with Red Hat redhatrelease2 key"
                  }
                ]
              },
              {
                "Operator": "AND",
                "Criterias": [

                ],
                "Criterions": [
                  {
                    "Comment": "libreoffice-langpack-ta is earlier than 1:5.0.6.2-5.el7_3.1"
                  },
                  {
                    "Comment": "libreoffice-langpack-ta is signed with Red Hat redhatrelease2 key"
                  }
                ]
              },
              {
                "Operator": "AND",
                "Criterias": [

                ],
                "Criterions": [
                  {
                    "Comment": "libreoffice-langpack-te is earlier than 1:5.0.6.2-5.el7_3.1"
                  },
                  {
                    "Comment": "libreoffice-langpack-te is signed with Red Hat redhatrelease2 key"
                  }
                ]
              },
              {
                "Operator": "AND",
                "Criterias": [

                ],
                "Criterions": [
                  {
                    "Comment": "libreoffice-langpack-th is earlier than 1:5.0.6.2-5.el7_3.1"
                  },
                  {
                    "Comment": "libreoffice-langpack-th is signed with Red Hat redhatrelease2 key"
                  }
                ]
              },
              {
                "Operator": "AND",
                "Criterias": [

                ],
                "Criterions": [
                  {
                    "Comment": "libreoffice-langpack-tn is earlier than 1:5.0.6.2-5.el7_3.1"
                  },
                  {
                    "Comment": "libreoffice-langpack-tn is signed with Red Hat redhatrelease2 key"
                  }
                ]
              },
              {
                "Operator": "AND",
                "Criterias": [

                ],
                "Criterions": [
                  {
                    "Comment": "libreoffice-langpack-tr is earlier than 1:5.0.6.2-5.el7_3.1"
                  },
                  {
                    "Comment": "libreoffice-langpack-tr is signed with Red Hat redhatrelease2 key"
                  }
                ]
              },
              {
                "Operator": "AND",
                "Criterias": [

                ],
                "Criterions": [
                  {
                    "Comment": "libreoffice-langpack-ts is earlier than 1:5.0.6.2-5.el7_3.1"
                  },
                  {
                    "Comment": "libreoffice-langpack-ts is signed with Red Hat redhatrelease2 key"
                  }
                ]
              },
              {
                "Operator": "AND",
                "Criterias": [

                ],
                "Criterions": [
                  {
                    "Comment": "libreoffice-langpack-uk is earlier than 1:5.0.6.2-5.el7_3.1"
                  },
                  {
                    "Comment": "libreoffice-langpack-uk is signed with Red Hat redhatrelease2 key"
                  }
                ]
              },
              {
                "Operator": "AND",
                "Criterias": [

                ],
                "Criterions": [
                  {
                    "Comment": "libreoffice-langpack-ve is earlier than 1:5.0.6.2-5.el7_3.1"
                  },
                  {
                    "Comment": "libreoffice-langpack-ve is signed with Red Hat redhatrelease2 key"
                  }
                ]
              },
              {
                "Operator": "AND",
                "Criterias": [

                ],
                "Criterions": [
                  {
                    "Comment": "libreoffice-langpack-xh is earlier than 1:5.0.6.2-5.el7_3.1"
                  },
                  {
                    "Comment": "libreoffice-langpack-xh is signed with Red Hat redhatrelease2 key"
                  }
                ]
              },
              {
                "Operator": "AND",
                "Criterias": [

                ],
                "Criterions": [
                  {
                    "Comment": "libreoffice-langpack-zh-Hans is earlier than 1:5.0.6.2-5.el7_3.1"
                  },
                  {
                    "Comment": "libreoffice-langpack-zh-Hans is signed with Red Hat redhatrelease2 key"
                  }
                ]
              },
              {
                "Operator": "AND",
                "Criterias": [

                ],
                "Criterions": [
                  {
                    "Comment": "libreoffice-langpack-zh-Hant is earlier than 1:5.0.6.2-5.el7_3.1"
                  },
                  {
                    "Comment": "libreoffice-langpack-zh-Hant is signed with Red Hat redhatrelease2 key"
                  }
                ]
              },
              {
                "Operator": "AND",
                "Criterias": [

                ],
                "Criterions": [
                  {
                    "Comment": "libreoffice-langpack-zu is earlier than 1:5.0.6.2-5.el7_3.1"
                  },
                  {
                    "Comment": "libreoffice-langpack-zu is signed with Red Hat redhatrelease2 key"
                  }
                ]
              },
              {
                "Operator": "AND",
                "Criterias": [

                ],
                "Criterions": [
                  {
                    "Comment": "libreoffice-librelogo is earlier than 1:5.0.6.2-5.el7_3.1"
                  },
                  {
                    "Comment": "libreoffice-librelogo is signed with Red Hat redhatrelease2 key"
                  }
                ]
              },
              {
                "Operator": "AND",
                "Criterias": [

                ],
                "Criterions": [
                  {
                    "Comment": "libreoffice-math is earlier than 1:5.0.6.2-5.el7_3.1"
                  },
                  {
                    "Comment": "libreoffice-math is signed with Red Hat redhatrelease2 key"
                  }
                ]
              },
              {
                "Operator": "AND",
                "Criterias": [

                ],
                "Criterions": [
                  {
                    "Comment": "libreoffice-nlpsolver is earlier than 1:5.0.6.2-5.el7_3.1"
                  },
                  {
                    "Comment": "libreoffice-nlpsolver is signed with Red Hat redhatrelease2 key"
                  }
                ]
              },
              {
                "Operator": "AND",
                "Criterias": [

                ],
                "Criterions": [
                  {
                    "Comment": "libreoffice-officebean is earlier than 1:5.0.6.2-5.el7_3.1"
                  },
                  {
                    "Comment": "libreoffice-officebean is signed with Red Hat redhatrelease2 key"
                  }
                ]
              },
              {
                "Operator": "AND",
                "Criterias": [

                ],
                "Criterions": [
                  {
                    "Comment": "libreoffice-ogltrans is earlier than 1:5.0.6.2-5.el7_3.1"
                  },
                  {
                    "Comment": "libreoffice-ogltrans is signed with Red Hat redhatrelease2 key"
                  }
                ]
              },
              {
                "Operator": "AND",
                "Criterias": [

                ],
                "Criterions": [
                  {
                    "Comment": "libreoffice-opensymbol-fonts is earlier than 1:5.0.6.2-5.el7_3.1"
                  },
                  {
                    "Comment": "libreoffice-opensymbol-fonts is signed with Red Hat redhatrelease2 key"
                  }
                ]
              },
              {
                "Operator": "AND",
                "Criterias": [

                ],
                "Criterions": [
                  {
                    "Comment": "libreoffice-pdfimport is earlier than 1:5.0.6.2-5.el7_3.1"
                  },
                  {
                    "Comment": "libreoffice-pdfimport is signed with Red Hat redhatrelease2 key"
                  }
                ]
              },
              {
                "Operator": "AND",
                "Criterias": [

                ],
                "Criterions": [
                  {
                    "Comment": "libreoffice-postgresql is earlier than 1:5.0.6.2-5.el7_3.1"
                  },
                  {
                    "Comment": "libreoffice-postgresql is signed with Red Hat redhatrelease2 key"
                  }
                ]
              },
              {
                "Operator": "AND",
                "Criterias": [

                ],
                "Criterions": [
                  {
                    "Comment": "libreoffice-pyuno is earlier than 1:5.0.6.2-5.el7_3.1"
                  },
                  {
                    "Comment": "libreoffice-pyuno is signed with Red Hat redhatrelease2 key"
                  }
                ]
              },
              {
                "Operator": "AND",
                "Criterias": [

                ],
                "Criterions": [
                  {
                    "Comment": "libreoffice-rhino is earlier than 1:5.0.6.2-5.el7_3.1"
                  },
                  {
                    "Comment": "libreoffice-rhino is signed with Red Hat redhatrelease2 key"
                  }
                ]
              },
              {
                "Operator": "AND",
                "Criterias": [

                ],
                "Criterions": [
                  {
                    "Comment": "libreoffice-sdk is earlier than 1:5.0.6.2-5.el7_3.1"
                  },
                  {
                    "Comment": "libreoffice-sdk is signed with Red Hat redhatrelease2 key"
                  }
                ]
              },
              {
                "Operator": "AND",
                "Criterias": [

                ],
                "Criterions": [
                  {
                    "Comment": "libreoffice-sdk-doc is earlier than 1:5.0.6.2-5.el7_3.1"
                  },
                  {
                    "Comment": "libreoffice-sdk-doc is signed with Red Hat redhatrelease2 key"
                  }
                ]
              },
              {
                "Operator": "AND",
                "Criterias": [

                ],
                "Criterions": [
                  {
                    "Comment": "libreoffice-ure is earlier than 1:5.0.6.2-5.el7_3.1"
                  },
                  {
                    "Comment": "libreoffice-ure is signed with Red Hat redhatrelease2 key"
                  }
                ]
              },
              {
                "Operator": "AND",
                "Criterias": [

                ],
                "Criterions": [
                  {
                    "Comment": "libreoffice-wiki-publisher is earlier than 1:5.0.6.2-5.el7_3.1"
                  },
                  {
                    "Comment": "libreoffice-wiki-publisher is signed with Red Hat redhatrelease2 key"
                  }
                ]
              },
              {
                "Operator": "AND",
                "Criterias": [

                ],
                "Criterions": [
                  {
                    "Comment": "libreoffice-writer is earlier than 1:5.0.6.2-5.el7_3.1"
                  },
                  {
                    "Comment": "libreoffice-writer is signed with Red Hat redhatrelease2 key"
                  }
                ]
              },
              {
                "Operator": "AND",
                "Criterias": [

                ],
                "Criterions": [
                  {
                    "Comment": "libreoffice-xsltfilter is earlier than 1:5.0.6.2-5.el7_3.1"
                  },
                  {
                    "Comment": "libreoffice-xsltfilter is signed with Red Hat redhatrelease2 key"
                  }
                ]
              }
            ],
            "Criterions": [

            ]
          }
        ],
        "Criterions": [
          {
            "Comment": "Oracle Linux 7 is installed"
          }
        ]
      }
    ],
    "Criterions": [
      {
        "Comment": "Oracle Linux 7 is installed"
      }
    ]
  },
  "Severity": "Moderate",
  "Cves": [
    {
      "Impact": "",
      "Href": "",
      "ID": "CVE-2017-3157"
    }
  ],
  "Issued": {
    "Date": "2017-04-12"
  }
}