{
  "Title": "RHSA-2017:3047: java-1.6.0-sun security update (Important)",
  "Description": "Oracle Java SE version 6 includes the Oracle Java Runtime Environment and the Oracle Java Software Development Kit.\nThis update upgrades Oracle Java SE 6 to version 6 Update 171.\nSecurity Fix(es):\n* This update fixes multiple vulnerabilities in the Oracle Java Runtime Environment and the Oracle Java Software Development Kit. Further information about these flaws can be found on the Oracle Java SE Critical Patch Update Advisory page listed in the References section. (CVE-2016-9840, CVE-2016-9841, CVE-2016-9842, CVE-2016-9843, CVE-2017-10274, CVE-2017-10281, CVE-2017-10285, CVE-2017-10293, CVE-2017-10295, CVE-2017-10345, CVE-2017-10346, CVE-2017-10347, CVE-2017-10348, CVE-2017-10349, CVE-2017-10355, CVE-2017-10356, CVE-2017-10357, CVE-2017-10388)\nNote: Starting with this update, Java web browser plugin and Java Web Start application are no longer included with Oracle Java SE 6. Refer to the Releases Notes and the Oracle Java SE Support Roadmap pages linked to in the References section for further information about this change.",
  "Platform": [
    "Oracle Java for Red Hat Enterprise Linux 6",
    "Oracle Java for Red Hat Enterprise Linux 7"
  ],
  "References": [
    {
      "Source": "RHSA",
      "URI": "https://access.redhat.com/errata/RHSA-2017:3047",
      "ID": "RHSA-2017:3047"
    },
    {
      "Source": "CVE",
      "URI": "https://access.redhat.com/security/cve/CVE-2016-9840",
      "ID": "CVE-2016-9840"
    },
    {
      "Source": "CVE",
      "URI": "https://access.redhat.com/security/cve/CVE-2016-9841",
      "ID": "CVE-2016-9841"
    },
    {
      "Source": "CVE",
      "URI": "https://access.redhat.com/security/cve/CVE-2016-9842",
      "ID": "CVE-2016-9842"
    },
    {
      "Source": "CVE",
      "URI": "https://access.redhat.com/security/cve/CVE-2016-9843",
      "ID": "CVE-2016-9843"
    },
    {
      "Source": "CVE",
      "URI": "https://access.redhat.com/security/cve/CVE-2017-10274",
      "ID": "CVE-2017-10274"
    },
    {
      "Source": "CVE",
      "URI": "https://access.redhat.com/security/cve/CVE-2017-10281",
      "ID": "CVE-2017-10281"
    },
    {
      "Source": "CVE",
      "URI": "https://access.redhat.com/security/cve/CVE-2017-10285",
      "ID": "CVE-2017-10285"
    },
    {
      "Source": "CVE",
      "URI": "https://access.redhat.com/security/cve/CVE-2017-10293",
      "ID": "CVE-2017-10293"
    },
    {
      "Source": "CVE",
      "URI": "https://access.redhat.com/security/cve/CVE-2017-10295",
      "ID": "CVE-2017-10295"
    },
    {
      "Source": "CVE",
      "URI": "https://access.redhat.com/security/cve/CVE-2017-10345",
      "ID": "CVE-2017-10345"
    },
    {
      "Source": "CVE",
      "URI": "https://access.redhat.com/security/cve/CVE-2017-10346",
      "ID": "CVE-2017-10346"
    },
    {
      "Source": "CVE",
      "URI": "https://access.redhat.com/security/cve/CVE-2017-10347",
      "ID": "CVE-2017-10347"
    },
    {
      "Source": "CVE",
      "URI": "https://access.redhat.com/security/cve/CVE-2017-10348",
      "ID": "CVE-2017-10348"
    },
    {
      "Source": "CVE",
      "URI": "https://access.redhat.com/security/cve/CVE-2017-10349",
      "ID": "CVE-2017-10349"
    },
    {
      "Source": "CVE",
      "URI": "https://access.redhat.com/security/cve/CVE-2017-10355",
      "ID": "CVE-2017-10355"
    },
    {
      "Source": "CVE",
      "URI": "https://access.redhat.com/security/cve/CVE-2017-10356",
      "ID": "CVE-2017-10356"
    },
    {
      "Source": "CVE",
      "URI": "https://access.redhat.com/security/cve/CVE-2017-10357",
      "ID": "CVE-2017-10357"
    },
    {
      "Source": "CVE",
      "URI": "https://access.redhat.com/security/cve/CVE-2017-10388",
      "ID": "CVE-2017-10388"
    }
  ],
  "Criteria": {
    "Operator": "OR",
    "Criterias": [
      {
        "Operator": "AND",
        "Criterias": [
          {
            "Operator": "OR",
            "Criterias": [
              {
                "Operator": "AND",
                "Criterias": [

                ],
                "Criterions": [
                  {
                    "Comment": "java-1.6.0-sun is earlier than 1:1.6.0.171-1jpp.4.el7"
                  },
                  {
                    "Comment": "java-1.6.0-sun is signed with Red Hat redhatrelease2 key"
                  }
                ]
              },
              {
                "Operator": "AND",
                "Criterias": [

                ],
                "Criterions": [
                  {
                    "Comment": "java-1.6.0-sun-demo is earlier than 1:1.6.0.171-1jpp.4.el7"
                  },
                  {
                    "Comment": "java-1.6.0-sun-demo is signed with Red Hat redhatrelease2 key"
                  }
                ]
              },
              {
                "Operator": "AND",
                "Criterias": [

                ],
                "Criterions": [
                  {
                    "Comment": "java-1.6.0-sun-devel is earlier than 1:1.6.0.171-1jpp.4.el7"
                  },
                  {
                    "Comment": "java-1.6.0-sun-devel is signed with Red Hat redhatrelease2 key"
                  }
                ]
              },
              {
                "Operator": "AND",
                "Criterias": [

                ],
                "Criterions": [
                  {
                    "Comment": "java-1.6.0-sun-jdbc is earlier than 1:1.6.0.171-1jpp.4.el7"
                  },
                  {
                    "Comment": "java-1.6.0-sun-jdbc is signed with Red Hat redhatrelease2 key"
                  }
                ]
              },
              {
                "Operator": "AND",
                "Criterias": [

                ],
                "Criterions": [
                  {
                    "Comment": "java-1.6.0-sun-plugin is earlier than 1:1.6.0.171-1jpp.4.el7"
                  },
                  {
                    "Comment": "java-1.6.0-sun-plugin is signed with Red Hat redhatrelease2 key"
                  }
                ]
              },
              {
                "Operator": "AND",
                "Criterias": [

                ],
                "Criterions": [
                  {
                    "Comment": "java-1.6.0-sun-src is earlier than 1:1.6.0.171-1jpp.4.el7"
                  },
                  {
                    "Comment": "java-1.6.0-sun-src is signed with Red Hat redhatrelease2 key"
                  }
                ]
              }
            ],
            "Criterions": [

            ]
          }
        ],
        "Criterions": [
          {
            "Comment": "Oracle Linux 7 is installed"
          }
        ]
      },
      {
        "Operator": "AND",
        "Criterias": [
          {
            "Operator": "OR",
            "Criterias": [
              {
                "Operator": "AND",
                "Criterias": [

                ],
                "Criterions": [
                  {
                    "Comment": "java-1.6.0-sun is earlier than 1:1.6.0.171-1jpp.4.el6"
                  },
                  {
                    "Comment": "java-1.6.0-sun is signed with Red Hat redhatrelease2 key"
                  }
                ]
              },
              {
                "Operator": "AND",
                "Criterias": [

                ],
                "Criterions": [
                  {
                    "Comment": "java-1.6.0-sun-demo is earlier than 1:1.6.0.171-1jpp.4.el6"
                  },
                  {
                    "Comment": "java-1.6.0-sun-demo is signed with Red Hat redhatrelease2 key"
                  }
                ]
              },
              {
                "Operator": "AND",
                "Criterias": [

                ],
                "Criterions": [
                  {
                    "Comment": "java-1.6.0-sun-devel is earlier than 1:1.6.0.171-1jpp.4.el6"
                  },
                  {
                    "Comment": "java-1.6.0-sun-devel is signed with Red Hat redhatrelease2 key"
                  }
                ]
              },
              {
                "Operator": "AND",
                "Criterias": [

                ],
                "Criterions": [
                  {
                    "Comment": "java-1.6.0-sun-jdbc is earlier than 1:1.6.0.171-1jpp.4.el6"
                  },
                  {
                    "Comment": "java-1.6.0-sun-jdbc is signed with Red Hat redhatrelease2 key"
                  }
                ]
              },
              {
                "Operator": "AND",
                "Criterias": [

                ],
                "Criterions": [
                  {
                    "Comment": "java-1.6.0-sun-plugin is earlier than 1:1.6.0.171-1jpp.4.el6"
                  },
                  {
                    "Comment": "java-1.6.0-sun-plugin is signed with Red Hat redhatrelease2 key"
                  }
                ]
              },
              {
                "Operator": "AND",
                "Criterias": [

                ],
                "Criterions": [
                  {
                    "Comment": "java-1.6.0-sun-src is earlier than 1:1.6.0.171-1jpp.4.el6"
                  },
                  {
                    "Comment": "java-1.6.0-sun-src is signed with Red Hat redhatrelease2 key"
                  }
                ]
              }
            ],
            "Criterions": [

            ]
          }
        ],
        "Criterions": [
          {
            "Comment": "Oracle Linux 6 is installed"
          }
        ]
      }
    ],
    "Criterions": [
      {
        "Comment": "Oracle Linux 6 is installed"
      }
    ]
  },
  "Severity": "Important",
  "Cves": [
    {
      "Impact": "",
      "Href": "",
      "ID": "CVE-2016-9840"
    },
    {
      "Impact": "",
      "Href": "",
      "ID": "CVE-2016-9841"
    },
    {
      "Impact": "",
      "Href": "",
      "ID": "CVE-2016-9842"
    },
    {
      "Impact": "",
      "Href": "",
      "ID": "CVE-2016-9843"
    },
    {
      "Impact": "",
      "Href": "",
      "ID": "CVE-2017-10274"
    },
    {
      "Impact": "",
      "Href": "",
      "ID": "CVE-2017-10281"
    },
    {
      "Impact": "",
      "Href": "",
      "ID": "CVE-2017-10285"
    },
    {
      "Impact": "",
      "Href": "",
      "ID": "CVE-2017-10293"
    },
    {
      "Impact": "",
      "Href": "",
      "ID": "CVE-2017-10295"
    },
    {
      "Impact": "",
      "Href": "",
      "ID": "CVE-2017-10345"
    },
    {
      "Impact": "",
      "Href": "",
      "ID": "CVE-2017-10346"
    },
    {
      "Impact": "",
      "Href": "",
      "ID": "CVE-2017-10347"
    },
    {
      "Impact": "",
      "Href": "",
      "ID": "CVE-2017-10348"
    },
    {
      "Impact": "",
      "Href": "",
      "ID": "CVE-2017-10349"
    },
    {
      "Impact": "",
      "Href": "",
      "ID": "CVE-2017-10355"
    },
    {
      "Impact": "",
      "Href": "",
      "ID": "CVE-2017-10356"
    },
    {
      "Impact": "",
      "Href": "",
      "ID": "CVE-2017-10357"
    },
    {
      "Impact": "",
      "Href": "",
      "ID": "CVE-2017-10388"
    }
  ],
  "Issued": {
    "Date": "2017-10-24"
  }
}