{
  "Title": "RHSA-2017:2836: dnsmasq security update (Critical)",
  "Description": "The dnsmasq packages contain Dnsmasq, a lightweight DNS (Domain Name Server) forwarder and DHCP (Dynamic Host Configuration Protocol) server.\nSecurity Fix(es):\n* A heap buffer overflow was found in dnsmasq in the code responsible for building DNS replies. An attacker could send crafted DNS packets to dnsmasq which would cause it to crash or, potentially, execute arbitrary code. (CVE-2017-14491)\n* A heap buffer overflow was discovered in dnsmasq in the IPv6 router advertisement (RA) handling code. An attacker on the local network segment could send crafted RAs to dnsmasq which would cause it to crash or, potentially, execute arbitrary code. This issue only affected configurations using one of these options: enable-ra, ra-only, slaac, ra-names, ra-advrouter, or ra-stateless. (CVE-2017-14492)\n* A stack buffer overflow was found in dnsmasq in the DHCPv6 code. An attacker on the local network could send a crafted DHCPv6 request to dnsmasq which would cause it to a crash or, potentially, execute arbitrary code. (CVE-2017-14493)\n* An information leak was found in dnsmasq in the DHCPv6 relay code. An attacker on the local network could send crafted DHCPv6 packets to dnsmasq causing it to forward the contents of process memory, potentially leaking sensitive data. (CVE-2017-14494)\n* A memory exhaustion flaw was found in dnsmasq in the EDNS0 code. An attacker could send crafted DNS packets which would trigger memory allocations which would never be freed, leading to unbounded memory consumption and eventually a crash. This issue only affected configurations using one of the options: add-mac, add-cpe-id, or add-subnet. (CVE-2017-14495)\n* An integer underflow flaw leading to a buffer over-read was found in dnsmasq in the EDNS0 code. An attacker could send crafted DNS packets to dnsmasq which would cause it to crash. This issue only affected configurations using one of the options: add-mac, add-cpe-id, or add-subnet. (CVE-2017-14496)\nRed Hat would like to thank Felix Wilhelm (Google Security Team), Fermin J. Serna (Google Security Team), Gabriel Campana (Google Security Team), Kevin Hamacher (Google Security Team), and Ron Bowes (Google Security Team) for reporting these issues.",
  "Platform": [
    "Red Hat Enterprise Linux 7"
  ],
  "References": [
    {
      "Source": "RHSA",
      "URI": "https://access.redhat.com/errata/RHSA-2017:2836",
      "ID": "RHSA-2017:2836"
    },
    {
      "Source": "CVE",
      "URI": "https://access.redhat.com/security/cve/CVE-2017-14491",
      "ID": "CVE-2017-14491"
    },
    {
      "Source": "CVE",
      "URI": "https://access.redhat.com/security/cve/CVE-2017-14492",
      "ID": "CVE-2017-14492"
    },
    {
      "Source": "CVE",
      "URI": "https://access.redhat.com/security/cve/CVE-2017-14493",
      "ID": "CVE-2017-14493"
    },
    {
      "Source": "CVE",
      "URI": "https://access.redhat.com/security/cve/CVE-2017-14494",
      "ID": "CVE-2017-14494"
    },
    {
      "Source": "CVE",
      "URI": "https://access.redhat.com/security/cve/CVE-2017-14495",
      "ID": "CVE-2017-14495"
    },
    {
      "Source": "CVE",
      "URI": "https://access.redhat.com/security/cve/CVE-2017-14496",
      "ID": "CVE-2017-14496"
    }
  ],
  "Criteria": {
    "Operator": "OR",
    "Criterias": [
      {
        "Operator": "AND",
        "Criterias": [
          {
            "Operator": "OR",
            "Criterias": [
              {
                "Operator": "AND",
                "Criterias": [

                ],
                "Criterions": [
                  {
                    "Comment": "dnsmasq is earlier than 0:2.76-2.el7_4.2"
                  },
                  {
                    "Comment": "dnsmasq is signed with Red Hat redhatrelease2 key"
                  }
                ]
              },
              {
                "Operator": "AND",
                "Criterias": [

                ],
                "Criterions": [
                  {
                    "Comment": "dnsmasq-utils is earlier than 0:2.76-2.el7_4.2"
                  },
                  {
                    "Comment": "dnsmasq-utils is signed with Red Hat redhatrelease2 key"
                  }
                ]
              }
            ],
            "Criterions": [

            ]
          }
        ],
        "Criterions": [
          {
            "Comment": "Oracle Linux 7 is installed"
          }
        ]
      }
    ],
    "Criterions": [
      {
        "Comment": "Oracle Linux 7 is installed"
      }
    ]
  },
  "Severity": "Critical",
  "Cves": [
    {
      "Impact": "",
      "Href": "",
      "ID": "CVE-2017-14491"
    },
    {
      "Impact": "",
      "Href": "",
      "ID": "CVE-2017-14492"
    },
    {
      "Impact": "",
      "Href": "",
      "ID": "CVE-2017-14493"
    },
    {
      "Impact": "",
      "Href": "",
      "ID": "CVE-2017-14494"
    },
    {
      "Impact": "",
      "Href": "",
      "ID": "CVE-2017-14495"
    },
    {
      "Impact": "",
      "Href": "",
      "ID": "CVE-2017-14496"
    }
  ],
  "Issued": {
    "Date": "2017-10-02"
  }
}