{
  "Title": "RHSA-2017:1561: thunderbird security update (Important)",
  "Description": "Mozilla Thunderbird is a standalone mail and newsgroup client.\nThis update upgrades Thunderbird to version 52.2.0.\nSecurity Fix(es):\n* Multiple flaws were found in the processing of malformed web content. A web page containing malicious content could cause Thunderbird to crash or, potentially, execute arbitrary code with the privileges of the user running Thunderbird. (CVE-2017-5470, CVE-2017-5472, CVE-2017-7749, CVE-2017-7750, CVE-2017-7751, CVE-2017-7756, CVE-2017-7771, CVE-2017-7772, CVE-2017-7773, CVE-2017-7774, CVE-2017-7775, CVE-2017-7776, CVE-2017-7777, CVE-2017-7778, CVE-2017-7752, CVE-2017-7754, CVE-2017-7757, CVE-2017-7758, CVE-2017-7764)\nRed Hat would like to thank the Mozilla project for reporting these issues. Upstream acknowledges Nils, Nicolas Trippar (Zimperium zLabs), Tyson Smith, Mats Palmgren, Philipp, Masayuki Nakano, Christian Holler, Andrew McCreight, Gary Kwong, André Bargull, Carsten Book, Jesse Schwartzentruber, Julian Hector, Marcia Knous, Ronald Crane, Samuel Erb, Holger Fuhrmannek, Abhishek Arya, and F. Alonso (revskills) as the original reporters.",
  "Platform": [
    "Red Hat Enterprise Linux 6",
    "Red Hat Enterprise Linux 7"
  ],
  "References": [
    {
      "Source": "RHSA",
      "URI": "https://access.redhat.com/errata/RHSA-2017:1561",
      "ID": "RHSA-2017:1561"
    },
    {
      "Source": "CVE",
      "URI": "https://access.redhat.com/security/cve/CVE-2017-5470",
      "ID": "CVE-2017-5470"
    },
    {
      "Source": "CVE",
      "URI": "https://access.redhat.com/security/cve/CVE-2017-5472",
      "ID": "CVE-2017-5472"
    },
    {
      "Source": "CVE",
      "URI": "https://access.redhat.com/security/cve/CVE-2017-7749",
      "ID": "CVE-2017-7749"
    },
    {
      "Source": "CVE",
      "URI": "https://access.redhat.com/security/cve/CVE-2017-7750",
      "ID": "CVE-2017-7750"
    },
    {
      "Source": "CVE",
      "URI": "https://access.redhat.com/security/cve/CVE-2017-7751",
      "ID": "CVE-2017-7751"
    },
    {
      "Source": "CVE",
      "URI": "https://access.redhat.com/security/cve/CVE-2017-7752",
      "ID": "CVE-2017-7752"
    },
    {
      "Source": "CVE",
      "URI": "https://access.redhat.com/security/cve/CVE-2017-7754",
      "ID": "CVE-2017-7754"
    },
    {
      "Source": "CVE",
      "URI": "https://access.redhat.com/security/cve/CVE-2017-7756",
      "ID": "CVE-2017-7756"
    },
    {
      "Source": "CVE",
      "URI": "https://access.redhat.com/security/cve/CVE-2017-7757",
      "ID": "CVE-2017-7757"
    },
    {
      "Source": "CVE",
      "URI": "https://access.redhat.com/security/cve/CVE-2017-7758",
      "ID": "CVE-2017-7758"
    },
    {
      "Source": "CVE",
      "URI": "https://access.redhat.com/security/cve/CVE-2017-7764",
      "ID": "CVE-2017-7764"
    },
    {
      "Source": "CVE",
      "URI": "https://access.redhat.com/security/cve/CVE-2017-7771",
      "ID": "CVE-2017-7771"
    },
    {
      "Source": "CVE",
      "URI": "https://access.redhat.com/security/cve/CVE-2017-7772",
      "ID": "CVE-2017-7772"
    },
    {
      "Source": "CVE",
      "URI": "https://access.redhat.com/security/cve/CVE-2017-7773",
      "ID": "CVE-2017-7773"
    },
    {
      "Source": "CVE",
      "URI": "https://access.redhat.com/security/cve/CVE-2017-7774",
      "ID": "CVE-2017-7774"
    },
    {
      "Source": "CVE",
      "URI": "https://access.redhat.com/security/cve/CVE-2017-7775",
      "ID": "CVE-2017-7775"
    },
    {
      "Source": "CVE",
      "URI": "https://access.redhat.com/security/cve/CVE-2017-7776",
      "ID": "CVE-2017-7776"
    },
    {
      "Source": "CVE",
      "URI": "https://access.redhat.com/security/cve/CVE-2017-7777",
      "ID": "CVE-2017-7777"
    },
    {
      "Source": "CVE",
      "URI": "https://access.redhat.com/security/cve/CVE-2017-7778",
      "ID": "CVE-2017-7778"
    }
  ],
  "Criteria": {
    "Operator": "OR",
    "Criterias": [
      {
        "Operator": "AND",
        "Criterias": [

        ],
        "Criterions": [
          {
            "Comment": "Oracle Linux 7 is installed"
          },
          {
            "Comment": "thunderbird is earlier than 0:52.2.0-1.el7_3"
          },
          {
            "Comment": "thunderbird is signed with Red Hat redhatrelease2 key"
          }
        ]
      },
      {
        "Operator": "AND",
        "Criterias": [

        ],
        "Criterions": [
          {
            "Comment": "Oracle Linux 6 is installed"
          },
          {
            "Comment": "thunderbird is earlier than 0:52.2.0-1.el6_9"
          },
          {
            "Comment": "thunderbird is signed with Red Hat redhatrelease2 key"
          }
        ]
      }
    ],
    "Criterions": [
      {
        "Comment": "Oracle Linux 6 is installed"
      }
    ]
  },
  "Severity": "Important",
  "Cves": [
    {
      "Impact": "",
      "Href": "",
      "ID": "CVE-2017-5470"
    },
    {
      "Impact": "",
      "Href": "",
      "ID": "CVE-2017-5472"
    },
    {
      "Impact": "",
      "Href": "",
      "ID": "CVE-2017-7749"
    },
    {
      "Impact": "",
      "Href": "",
      "ID": "CVE-2017-7750"
    },
    {
      "Impact": "",
      "Href": "",
      "ID": "CVE-2017-7751"
    },
    {
      "Impact": "",
      "Href": "",
      "ID": "CVE-2017-7752"
    },
    {
      "Impact": "",
      "Href": "",
      "ID": "CVE-2017-7754"
    },
    {
      "Impact": "",
      "Href": "",
      "ID": "CVE-2017-7756"
    },
    {
      "Impact": "",
      "Href": "",
      "ID": "CVE-2017-7757"
    },
    {
      "Impact": "",
      "Href": "",
      "ID": "CVE-2017-7758"
    },
    {
      "Impact": "",
      "Href": "",
      "ID": "CVE-2017-7764"
    },
    {
      "Impact": "",
      "Href": "",
      "ID": "CVE-2017-7771"
    },
    {
      "Impact": "",
      "Href": "",
      "ID": "CVE-2017-7772"
    },
    {
      "Impact": "",
      "Href": "",
      "ID": "CVE-2017-7773"
    },
    {
      "Impact": "",
      "Href": "",
      "ID": "CVE-2017-7774"
    },
    {
      "Impact": "",
      "Href": "",
      "ID": "CVE-2017-7775"
    },
    {
      "Impact": "",
      "Href": "",
      "ID": "CVE-2017-7776"
    },
    {
      "Impact": "",
      "Href": "",
      "ID": "CVE-2017-7777"
    },
    {
      "Impact": "",
      "Href": "",
      "ID": "CVE-2017-7778"
    }
  ],
  "Issued": {
    "Date": "2017-06-21"
  }
}