{
  "Title": "RHSA-2017:0654: coreutils security and bug fix update (Moderate)",
  "Description": "The coreutils packages contain the GNU Core Utilities and represent a combination of the previously used GNU fileutils, sh-utils, and textutils packages.\nSecurity Fix(es):\n* A race condition was found in the way su handled the management of child processes. A local authenticated attacker could use this flaw to kill other processes with root privileges under specific conditions. (CVE-2017-2616)\nRed Hat would like to thank Tobias Stöckmann for reporting this issue.\nAdditional Changes:\nFor detailed information on changes in this release, see the Red Hat Enterprise Linux 6.9 Release Notes and Red Hat Enterprise Linux 6.9 Technical Notes linked from the References section.",
  "Platform": [
    "Red Hat Enterprise Linux 6"
  ],
  "References": [
    {
      "Source": "RHSA",
      "URI": "https://access.redhat.com/errata/RHSA-2017:0654",
      "ID": "RHSA-2017:0654"
    },
    {
      "Source": "CVE",
      "URI": "https://access.redhat.com/security/cve/CVE-2017-2616",
      "ID": "CVE-2017-2616"
    }
  ],
  "Criteria": {
    "Operator": "OR",
    "Criterias": [
      {
        "Operator": "AND",
        "Criterias": [
          {
            "Operator": "OR",
            "Criterias": [
              {
                "Operator": "AND",
                "Criterias": [

                ],
                "Criterions": [
                  {
                    "Comment": "coreutils is earlier than 0:8.4-46.el6"
                  },
                  {
                    "Comment": "coreutils is signed with Red Hat redhatrelease2 key"
                  }
                ]
              },
              {
                "Operator": "AND",
                "Criterias": [

                ],
                "Criterions": [
                  {
                    "Comment": "coreutils-libs is earlier than 0:8.4-46.el6"
                  },
                  {
                    "Comment": "coreutils-libs is signed with Red Hat redhatrelease2 key"
                  }
                ]
              }
            ],
            "Criterions": [

            ]
          }
        ],
        "Criterions": [
          {
            "Comment": "Oracle Linux 6 is installed"
          }
        ]
      }
    ],
    "Criterions": [
      {
        "Comment": "Oracle Linux 6 is installed"
      }
    ]
  },
  "Severity": "Moderate",
  "Cves": [
    {
      "Impact": "",
      "Href": "",
      "ID": "CVE-2017-2616"
    }
  ],
  "Issued": {
    "Date": "2017-03-21"
  }
}