{
  "Title": "RHSA-2017:2004: git security and bug fix update (Moderate)",
  "Description": "Git is a distributed revision control system with a decentralized architecture. As opposed to centralized version control systems with a client-server model, Git ensures that each working copy of a Git repository is an exact copy with complete revision history. This not only allows the user to work on and contribute to projects without the need to have permission to push the changes to their official repositories, but also makes it possible for the user to work with no network connection.\nSecurity Fix(es):\n* It was found that the git-prompt.sh script shipped with git failed to correctly handle branch names containing special characters. A specially crafted git repository could use this flaw to execute arbitrary commands if a user working with the repository configured their shell to include repository information in the prompt. (CVE-2014-9938)\n* A flaw was found in the way git-shell handled command-line options for the restricted set of git-shell commands. A remote, authenticated attacker could use this flaw to bypass git-shell restrictions, to view and manipulate files, by abusing the instance of the less command launched using crafted command-line options. (CVE-2017-8386)\nAdditional Changes:\nFor detailed information on changes in this release, see the Red Hat Enterprise Linux 7.4 Release Notes linked from the References section.",
  "Platform": [
    "Red Hat Enterprise Linux 7"
  ],
  "References": [
    {
      "Source": "RHSA",
      "URI": "https://access.redhat.com/errata/RHSA-2017:2004",
      "ID": "RHSA-2017:2004"
    },
    {
      "Source": "CVE",
      "URI": "https://access.redhat.com/security/cve/CVE-2014-9938",
      "ID": "CVE-2014-9938"
    },
    {
      "Source": "CVE",
      "URI": "https://access.redhat.com/security/cve/CVE-2017-8386",
      "ID": "CVE-2017-8386"
    }
  ],
  "Criteria": {
    "Operator": "OR",
    "Criterias": [
      {
        "Operator": "AND",
        "Criterias": [
          {
            "Operator": "OR",
            "Criterias": [
              {
                "Operator": "AND",
                "Criterias": [

                ],
                "Criterions": [
                  {
                    "Comment": "emacs-git is earlier than 0:1.8.3.1-11.el7"
                  },
                  {
                    "Comment": "emacs-git is signed with Red Hat redhatrelease2 key"
                  }
                ]
              },
              {
                "Operator": "AND",
                "Criterias": [

                ],
                "Criterions": [
                  {
                    "Comment": "emacs-git-el is earlier than 0:1.8.3.1-11.el7"
                  },
                  {
                    "Comment": "emacs-git-el is signed with Red Hat redhatrelease2 key"
                  }
                ]
              },
              {
                "Operator": "AND",
                "Criterias": [

                ],
                "Criterions": [
                  {
                    "Comment": "git is earlier than 0:1.8.3.1-11.el7"
                  },
                  {
                    "Comment": "git is signed with Red Hat redhatrelease2 key"
                  }
                ]
              },
              {
                "Operator": "AND",
                "Criterias": [

                ],
                "Criterions": [
                  {
                    "Comment": "git-all is earlier than 0:1.8.3.1-11.el7"
                  },
                  {
                    "Comment": "git-all is signed with Red Hat redhatrelease2 key"
                  }
                ]
              },
              {
                "Operator": "AND",
                "Criterias": [

                ],
                "Criterions": [
                  {
                    "Comment": "git-bzr is earlier than 0:1.8.3.1-11.el7"
                  },
                  {
                    "Comment": "git-bzr is signed with Red Hat redhatrelease2 key"
                  }
                ]
              },
              {
                "Operator": "AND",
                "Criterias": [

                ],
                "Criterions": [
                  {
                    "Comment": "git-cvs is earlier than 0:1.8.3.1-11.el7"
                  },
                  {
                    "Comment": "git-cvs is signed with Red Hat redhatrelease2 key"
                  }
                ]
              },
              {
                "Operator": "AND",
                "Criterias": [

                ],
                "Criterions": [
                  {
                    "Comment": "git-daemon is earlier than 0:1.8.3.1-11.el7"
                  },
                  {
                    "Comment": "git-daemon is signed with Red Hat redhatrelease2 key"
                  }
                ]
              },
              {
                "Operator": "AND",
                "Criterias": [

                ],
                "Criterions": [
                  {
                    "Comment": "git-email is earlier than 0:1.8.3.1-11.el7"
                  },
                  {
                    "Comment": "git-email is signed with Red Hat redhatrelease2 key"
                  }
                ]
              },
              {
                "Operator": "AND",
                "Criterias": [

                ],
                "Criterions": [
                  {
                    "Comment": "git-gui is earlier than 0:1.8.3.1-11.el7"
                  },
                  {
                    "Comment": "git-gui is signed with Red Hat redhatrelease2 key"
                  }
                ]
              },
              {
                "Operator": "AND",
                "Criterias": [

                ],
                "Criterions": [
                  {
                    "Comment": "git-hg is earlier than 0:1.8.3.1-11.el7"
                  },
                  {
                    "Comment": "git-hg is signed with Red Hat redhatrelease2 key"
                  }
                ]
              },
              {
                "Operator": "AND",
                "Criterias": [

                ],
                "Criterions": [
                  {
                    "Comment": "git-p4 is earlier than 0:1.8.3.1-11.el7"
                  },
                  {
                    "Comment": "git-p4 is signed with Red Hat redhatrelease2 key"
                  }
                ]
              },
              {
                "Operator": "AND",
                "Criterias": [

                ],
                "Criterions": [
                  {
                    "Comment": "git-svn is earlier than 0:1.8.3.1-11.el7"
                  },
                  {
                    "Comment": "git-svn is signed with Red Hat redhatrelease2 key"
                  }
                ]
              },
              {
                "Operator": "AND",
                "Criterias": [

                ],
                "Criterions": [
                  {
                    "Comment": "gitk is earlier than 0:1.8.3.1-11.el7"
                  },
                  {
                    "Comment": "gitk is signed with Red Hat redhatrelease2 key"
                  }
                ]
              },
              {
                "Operator": "AND",
                "Criterias": [

                ],
                "Criterions": [
                  {
                    "Comment": "gitweb is earlier than 0:1.8.3.1-11.el7"
                  },
                  {
                    "Comment": "gitweb is signed with Red Hat redhatrelease2 key"
                  }
                ]
              },
              {
                "Operator": "AND",
                "Criterias": [

                ],
                "Criterions": [
                  {
                    "Comment": "perl-Git is earlier than 0:1.8.3.1-11.el7"
                  },
                  {
                    "Comment": "perl-Git is signed with Red Hat redhatrelease2 key"
                  }
                ]
              },
              {
                "Operator": "AND",
                "Criterias": [

                ],
                "Criterions": [
                  {
                    "Comment": "perl-Git-SVN is earlier than 0:1.8.3.1-11.el7"
                  },
                  {
                    "Comment": "perl-Git-SVN is signed with Red Hat redhatrelease2 key"
                  }
                ]
              }
            ],
            "Criterions": [

            ]
          }
        ],
        "Criterions": [
          {
            "Comment": "Oracle Linux 7 is installed"
          }
        ]
      }
    ],
    "Criterions": [
      {
        "Comment": "Oracle Linux 7 is installed"
      }
    ]
  },
  "Severity": "Moderate",
  "Cves": [
    {
      "Impact": "",
      "Href": "",
      "ID": "CVE-2014-9938"
    },
    {
      "Impact": "",
      "Href": "",
      "ID": "CVE-2017-8386"
    }
  ],
  "Issued": {
    "Date": "2017-08-01"
  }
}