{
  "Title": "RHBA-2012:0319: gnutls bug fix update (Low)",
  "Description": "The gnutls package provides the GNU Transport Layer Security (GnuTLS) library, which provides a secure layer over a transport layer using protocols such as TLS, SSL and DTLS.\nThis update fixes the following bug:\n* Under certain circumstances, a NULL pointer could have been dereferenced in the GnuTLS library. This caused TLS clients, such as the rsyslog utility, to terminate unexpectedly with a segmentation fault. This update adds a test condition ensuring that a NULL pointer can no longer be dereferenced and TLS clients no longer crash. (BZ#789041)\nAll users of gnutls are advised to upgrade to these updated packages, which fix this bug. All applications linked with the GnuTLS library must be restarted (or the system rebooted) in order for this update to take effect.",
  "Platform": [
    "Red Hat Enterprise Linux 5"
  ],
  "References": [
    {
      "Source": "RHSA",
      "URI": "https://access.redhat.com/errata/RHBA-2012:0319",
      "ID": "RHBA-2012:0319"
    },
    {
      "Source": "CVE",
      "URI": "https://access.redhat.com/security/cve/CVE-2006-7239",
      "ID": "CVE-2006-7239"
    }
  ],
  "Criteria": {
    "Operator": "OR",
    "Criterias": [
      {
        "Operator": "AND",
        "Criterias": [
          {
            "Operator": "OR",
            "Criterias": [
              {
                "Operator": "AND",
                "Criterias": [

                ],
                "Criterions": [
                  {
                    "Comment": "gnutls is earlier than 0:1.4.1-7.el5_8.1"
                  },
                  {
                    "Comment": "gnutls is signed with Red Hat redhatrelease2 key"
                  }
                ]
              },
              {
                "Operator": "AND",
                "Criterias": [

                ],
                "Criterions": [
                  {
                    "Comment": "gnutls-devel is earlier than 0:1.4.1-7.el5_8.1"
                  },
                  {
                    "Comment": "gnutls-devel is signed with Red Hat redhatrelease2 key"
                  }
                ]
              },
              {
                "Operator": "AND",
                "Criterias": [

                ],
                "Criterions": [
                  {
                    "Comment": "gnutls-utils is earlier than 0:1.4.1-7.el5_8.1"
                  },
                  {
                    "Comment": "gnutls-utils is signed with Red Hat redhatrelease2 key"
                  }
                ]
              }
            ],
            "Criterions": [

            ]
          }
        ],
        "Criterions": [
          {
            "Comment": "Oracle Linux 5 is installed"
          }
        ]
      }
    ],
    "Criterions": [
      {
        "Comment": "Oracle Linux 5 is installed"
      }
    ]
  },
  "Severity": "Low",
  "Cves": [
    {
      "Impact": "",
      "Href": "",
      "ID": "CVE-2006-7239"
    }
  ],
  "Issued": {
    "Date": "2012-02-21"
  }
}