{
  "Title": "RHSA-2012:1149: sudo security and bug fix update (Moderate)",
  "Description": "The sudo (superuser do) utility allows system administrators to give\ncertain users the ability to run commands as root.\nAn insecure temporary file use flaw was found in the sudo package's\npost-uninstall script. A local attacker could possibly use this flaw to\noverwrite an arbitrary file via a symbolic link attack, or modify the\ncontents of the \"/etc/nsswitch.conf\" file during the upgrade or removal of\nthe sudo package. (CVE-2012-3440)\nThis update also fixes the following bugs:\n* Previously, sudo escaped non-alphanumeric characters in commands using\n\"sudo -s\" or \"sudo -\" at the wrong place and interfered with the\nauthorization process. Some valid commands were not permitted. Now,\nnon-alphanumeric characters escape immediately before the command is\nexecuted and no longer interfere with the authorization process.\n(BZ#844418)\n* Prior to this update, the sudo utility could, under certain\ncircumstances, fail to receive the SIGCHLD signal when it was executed\nfrom a process that blocked the SIGCHLD signal. As a consequence, sudo\ncould become suspended and fail to exit. This update modifies the signal\nprocess mask so that sudo can exit and sends the correct output.\n(BZ#844419)\n* The sudo update RHSA-2012:0309 introduced a regression that caused the\nSecurity-Enhanced Linux (SELinux) context of the \"/etc/nsswitch.conf\" file\nto change during the installation or upgrade of the sudo package. This\ncould cause various services confined by SELinux to no longer be permitted\nto access the file. In reported cases, this issue prevented PostgreSQL and\nPostfix from starting. (BZ#842759)\n* Updating the sudo package resulted in the \"sudoers\" line in\n\"/etc/nsswitch.conf\" being removed. This update corrects the bug in the\nsudo package's post-uninstall script that caused this issue. (BZ#844420)\n* Prior to this update, a race condition bug existed in sudo. When a\nprogram was executed with sudo, the program could possibly exit\nsuccessfully before sudo started waiting for it. In this situation, the\nprogram would be left in a zombie state and sudo would wait for it\nendlessly, expecting it to still be running. (BZ#844978)\nAll users of sudo are advised to upgrade to this updated package, which\ncontains backported patches to correct these issues.",
  "Platform": [
    "Red Hat Enterprise Linux 5"
  ],
  "References": [
    {
      "Source": "RHSA",
      "URI": "https://access.redhat.com/errata/RHSA-2012:1149",
      "ID": "RHSA-2012:1149"
    },
    {
      "Source": "CVE",
      "URI": "https://access.redhat.com/security/cve/CVE-2012-3440",
      "ID": "CVE-2012-3440"
    }
  ],
  "Criteria": {
    "Operator": "OR",
    "Criterias": [
      {
        "Operator": "AND",
        "Criterias": [

        ],
        "Criterions": [
          {
            "Comment": "Oracle Linux 5 is installed"
          },
          {
            "Comment": "sudo is earlier than 0:1.7.2p1-14.el5_8.2"
          },
          {
            "Comment": "sudo is signed with Red Hat redhatrelease2 key"
          }
        ]
      }
    ],
    "Criterions": [
      {
        "Comment": "Oracle Linux 5 is installed"
      }
    ]
  },
  "Severity": "Moderate",
  "Cves": [
    {
      "Impact": "",
      "Href": "",
      "ID": "CVE-2012-3440"
    }
  ],
  "Issued": {
    "Date": "2012-08-07"
  }
}