{
  "Title": "RHSA-2012:1139: bind-dyndb-ldap security update (Important)",
  "Description": "The dynamic LDAP back end is a plug-in for BIND that provides back-end\ncapabilities to LDAP databases. It features support for dynamic updates and\ninternal caching that help to reduce the load on LDAP servers.\nA flaw was found in the way bind-dyndb-ldap performed the escaping of names\nfrom DNS requests for use in LDAP queries. A remote attacker able to send\nDNS queries to a named server that is configured to use bind-dyndb-ldap\ncould use this flaw to cause named to exit unexpectedly with an assertion\nfailure. (CVE-2012-3429)\nRed Hat would like to thank Sigbjorn Lie of Atea Norway for reporting this\nissue.\nAll bind-dyndb-ldap users should upgrade to this updated package, which\ncontains a backported patch to correct this issue. For the update to take\neffect, the named service must be restarted.",
  "Platform": [
    "Red Hat Enterprise Linux 6"
  ],
  "References": [
    {
      "Source": "RHSA",
      "URI": "https://access.redhat.com/errata/RHSA-2012:1139",
      "ID": "RHSA-2012:1139"
    },
    {
      "Source": "CVE",
      "URI": "https://access.redhat.com/security/cve/CVE-2012-3429",
      "ID": "CVE-2012-3429"
    }
  ],
  "Criteria": {
    "Operator": "OR",
    "Criterias": [
      {
        "Operator": "AND",
        "Criterias": [

        ],
        "Criterions": [
          {
            "Comment": "Oracle Linux 6 is installed"
          },
          {
            "Comment": "bind-dyndb-ldap is earlier than 0:1.1.0-0.9.b1.el6_3.1"
          },
          {
            "Comment": "bind-dyndb-ldap is signed with Red Hat redhatrelease2 key"
          }
        ]
      }
    ],
    "Criterions": [
      {
        "Comment": "Oracle Linux 6 is installed"
      }
    ]
  },
  "Severity": "Important",
  "Cves": [
    {
      "Impact": "",
      "Href": "",
      "ID": "CVE-2012-3429"
    }
  ],
  "Issued": {
    "Date": "2012-08-03"
  }
}