{
  "Title": "RHSA-2012:0731: expat security update (Moderate)",
  "Description": "Expat is a C library written by James Clark for parsing XML documents.\nA denial of service flaw was found in the implementation of hash arrays in\nExpat. An attacker could use this flaw to make an application using Expat\nconsume an excessive amount of CPU time by providing a specially-crafted\nXML file that triggers multiple hash function collisions. To mitigate\nthis issue, randomization has been added to the hash function to reduce the\nchance of an attacker successfully causing intentional collisions.\n(CVE-2012-0876)\nA memory leak flaw was found in Expat. If an XML file processed by an\napplication linked against Expat triggered a memory re-allocation failure,\nExpat failed to free the previously allocated memory. This could cause the\napplication to exit unexpectedly or crash when all available memory is\nexhausted. (CVE-2012-1148)\nAll Expat users should upgrade to these updated packages, which contain\nbackported patches to correct these issues. After installing the updated\npackages, applications using the Expat library must be restarted for the\nupdate to take effect.",
  "Platform": [
    "Red Hat Enterprise Linux 5",
    "Red Hat Enterprise Linux 6"
  ],
  "References": [
    {
      "Source": "RHSA",
      "URI": "https://access.redhat.com/errata/RHSA-2012:0731",
      "ID": "RHSA-2012:0731"
    },
    {
      "Source": "CVE",
      "URI": "https://access.redhat.com/security/cve/CVE-2012-0876",
      "ID": "CVE-2012-0876"
    },
    {
      "Source": "CVE",
      "URI": "https://access.redhat.com/security/cve/CVE-2012-1148",
      "ID": "CVE-2012-1148"
    }
  ],
  "Criteria": {
    "Operator": "OR",
    "Criterias": [
      {
        "Operator": "AND",
        "Criterias": [
          {
            "Operator": "OR",
            "Criterias": [
              {
                "Operator": "AND",
                "Criterias": [

                ],
                "Criterions": [
                  {
                    "Comment": "expat is earlier than 0:2.0.1-11.el6_2"
                  },
                  {
                    "Comment": "expat is signed with Red Hat redhatrelease2 key"
                  }
                ]
              },
              {
                "Operator": "AND",
                "Criterias": [

                ],
                "Criterions": [
                  {
                    "Comment": "expat-devel is earlier than 0:2.0.1-11.el6_2"
                  },
                  {
                    "Comment": "expat-devel is signed with Red Hat redhatrelease2 key"
                  }
                ]
              }
            ],
            "Criterions": [

            ]
          }
        ],
        "Criterions": [
          {
            "Comment": "Oracle Linux 6 is installed"
          }
        ]
      },
      {
        "Operator": "AND",
        "Criterias": [
          {
            "Operator": "OR",
            "Criterias": [
              {
                "Operator": "AND",
                "Criterias": [

                ],
                "Criterions": [
                  {
                    "Comment": "expat is earlier than 0:1.95.8-11.el5_8"
                  },
                  {
                    "Comment": "expat is signed with Red Hat redhatrelease2 key"
                  }
                ]
              },
              {
                "Operator": "AND",
                "Criterias": [

                ],
                "Criterions": [
                  {
                    "Comment": "expat-devel is earlier than 0:1.95.8-11.el5_8"
                  },
                  {
                    "Comment": "expat-devel is signed with Red Hat redhatrelease2 key"
                  }
                ]
              }
            ],
            "Criterions": [

            ]
          }
        ],
        "Criterions": [
          {
            "Comment": "Oracle Linux 5 is installed"
          }
        ]
      }
    ],
    "Criterions": [
      {
        "Comment": "Oracle Linux 5 is installed"
      }
    ]
  },
  "Severity": "Moderate",
  "Cves": [
    {
      "Impact": "",
      "Href": "",
      "ID": "CVE-2012-0876"
    },
    {
      "Impact": "",
      "Href": "",
      "ID": "CVE-2012-1148"
    }
  ],
  "Issued": {
    "Date": "2012-06-13"
  }
}