{
  "Title": "RHSA-2012:1043: libwpd security update (Important)",
  "Description": "libwpd is a library for reading and converting Corel WordPerfect Office\ndocuments.\nA buffer overflow flaw was found in the way libwpd processed certain\nCorel WordPerfect Office documents (.wpd files). An attacker could provide\na specially-crafted .wpd file that, when opened in an application linked\nagainst libwpd, such as OpenOffice.org, would cause the application to\ncrash or, potentially, execute arbitrary code with the privileges of the\nuser running the application. (CVE-2012-2149)\nAll libwpd users are advised to upgrade to these updated packages, which\ncontain a backported patch to correct this issue. All running applications\nthat are linked against libwpd must be restarted for this update to take\neffect.",
  "Platform": [
    "Red Hat Enterprise Linux 5"
  ],
  "References": [
    {
      "Source": "RHSA",
      "URI": "https://access.redhat.com/errata/RHSA-2012:1043",
      "ID": "RHSA-2012:1043"
    },
    {
      "Source": "CVE",
      "URI": "https://access.redhat.com/security/cve/CVE-2012-2149",
      "ID": "CVE-2012-2149"
    }
  ],
  "Criteria": {
    "Operator": "OR",
    "Criterias": [
      {
        "Operator": "AND",
        "Criterias": [
          {
            "Operator": "OR",
            "Criterias": [
              {
                "Operator": "AND",
                "Criterias": [

                ],
                "Criterions": [
                  {
                    "Comment": "libwpd is earlier than 0:0.8.7-3.1.el5_8"
                  },
                  {
                    "Comment": "libwpd is signed with Red Hat redhatrelease key"
                  }
                ]
              },
              {
                "Operator": "AND",
                "Criterias": [

                ],
                "Criterions": [
                  {
                    "Comment": "libwpd-devel is earlier than 0:0.8.7-3.1.el5_8"
                  },
                  {
                    "Comment": "libwpd-devel is signed with Red Hat redhatrelease key"
                  }
                ]
              },
              {
                "Operator": "AND",
                "Criterias": [

                ],
                "Criterions": [
                  {
                    "Comment": "libwpd-tools is earlier than 0:0.8.7-3.1.el5_8"
                  },
                  {
                    "Comment": "libwpd-tools is signed with Red Hat redhatrelease key"
                  }
                ]
              }
            ],
            "Criterions": [

            ]
          }
        ],
        "Criterions": [
          {
            "Comment": "Oracle Linux 5 is installed"
          }
        ]
      }
    ],
    "Criterions": [
      {
        "Comment": "Oracle Linux 5 is installed"
      }
    ]
  },
  "Severity": "Important",
  "Cves": [
    {
      "Impact": "",
      "Href": "",
      "ID": "CVE-2012-2149"
    }
  ],
  "Issued": {
    "Date": "2012-06-26"
  }
}