{
  "Title": "RHSA-2012:0721: kernel security update (Important)",
  "Description": "The kernel packages contain the Linux kernel, the core of any Linux\noperating system.\nThis update fixes the following security issues:\n* It was found that the Xen hypervisor implementation as shipped with Red\nHat Enterprise Linux 5 did not properly restrict the syscall return\naddresses in the sysret return path to canonical addresses. An unprivileged\nuser in a 64-bit para-virtualized guest, that is running on a 64-bit host\nthat has an Intel CPU, could use this flaw to crash the host or,\npotentially, escalate their privileges, allowing them to execute arbitrary\ncode at the hypervisor level. (CVE-2012-0217, Important)\n* It was found that guests could trigger a bug in earlier AMD CPUs, leading\nto a CPU hard lockup, when running on the Xen hypervisor implementation. An\nunprivileged user in a 64-bit para-virtualized guest could use this flaw to\ncrash the host. Warning: After installing this update, hosts that are using\nan affected AMD CPU (refer to Red Hat Bugzilla bug #824966 for a list) will\nfail to boot. In order to boot such hosts, the new kernel parameter,\nallow_unsafe, can be used (\"allow_unsafe=on\"). This option should only be\nused with hosts that are running trusted guests, as setting it to \"on\"\nreintroduces the flaw (allowing guests to crash the host). (CVE-2012-2934,\nModerate)\nNote: For Red Hat Enterprise Linux guests, only privileged guest users can\nexploit the CVE-2012-0217 and CVE-2012-2934 issues.\nRed Hat would like to thank the Xen project for reporting these issues.\nUpstream acknowledges Rafal Wojtczuk as the original reporter of\nCVE-2012-0217.\nUsers should upgrade to these updated packages, which contain backported\npatches to correct these issues. The system must be rebooted for this\nupdate to take effect.",
  "Platform": [
    "Red Hat Enterprise Linux 5"
  ],
  "References": [
    {
      "Source": "RHSA",
      "URI": "https://access.redhat.com/errata/RHSA-2012:0721",
      "ID": "RHSA-2012:0721"
    },
    {
      "Source": "CVE",
      "URI": "https://access.redhat.com/security/cve/CVE-2012-0217",
      "ID": "CVE-2012-0217"
    },
    {
      "Source": "CVE",
      "URI": "https://access.redhat.com/security/cve/CVE-2012-2934",
      "ID": "CVE-2012-2934"
    }
  ],
  "Criteria": {
    "Operator": "OR",
    "Criterias": [
      {
        "Operator": "AND",
        "Criterias": [
          {
            "Operator": "OR",
            "Criterias": [

            ],
            "Criterions": [
              {
                "Comment": "kernel earlier than 0:2.6.18-308.8.2.el5 is currently running"
              },
              {
                "Comment": "kernel earlier than 0:2.6.18-308.8.2.el5 is set to boot up on next boot"
              }
            ]
          },
          {
            "Operator": "OR",
            "Criterias": [
              {
                "Operator": "AND",
                "Criterias": [

                ],
                "Criterions": [
                  {
                    "Comment": "kernel is earlier than 0:2.6.18-308.8.2.el5"
                  },
                  {
                    "Comment": "kernel is signed with Red Hat redhatrelease2 key"
                  }
                ]
              },
              {
                "Operator": "AND",
                "Criterias": [

                ],
                "Criterions": [
                  {
                    "Comment": "kernel-PAE is earlier than 0:2.6.18-308.8.2.el5"
                  },
                  {
                    "Comment": "kernel-PAE is signed with Red Hat redhatrelease2 key"
                  }
                ]
              },
              {
                "Operator": "AND",
                "Criterias": [

                ],
                "Criterions": [
                  {
                    "Comment": "kernel-PAE-devel is earlier than 0:2.6.18-308.8.2.el5"
                  },
                  {
                    "Comment": "kernel-PAE-devel is signed with Red Hat redhatrelease2 key"
                  }
                ]
              },
              {
                "Operator": "AND",
                "Criterias": [

                ],
                "Criterions": [
                  {
                    "Comment": "kernel-debug is earlier than 0:2.6.18-308.8.2.el5"
                  },
                  {
                    "Comment": "kernel-debug is signed with Red Hat redhatrelease2 key"
                  }
                ]
              },
              {
                "Operator": "AND",
                "Criterias": [

                ],
                "Criterions": [
                  {
                    "Comment": "kernel-debug-devel is earlier than 0:2.6.18-308.8.2.el5"
                  },
                  {
                    "Comment": "kernel-debug-devel is signed with Red Hat redhatrelease2 key"
                  }
                ]
              },
              {
                "Operator": "AND",
                "Criterias": [

                ],
                "Criterions": [
                  {
                    "Comment": "kernel-devel is earlier than 0:2.6.18-308.8.2.el5"
                  },
                  {
                    "Comment": "kernel-devel is signed with Red Hat redhatrelease2 key"
                  }
                ]
              },
              {
                "Operator": "AND",
                "Criterias": [

                ],
                "Criterions": [
                  {
                    "Comment": "kernel-doc is earlier than 0:2.6.18-308.8.2.el5"
                  },
                  {
                    "Comment": "kernel-doc is signed with Red Hat redhatrelease2 key"
                  }
                ]
              },
              {
                "Operator": "AND",
                "Criterias": [

                ],
                "Criterions": [
                  {
                    "Comment": "kernel-headers is earlier than 0:2.6.18-308.8.2.el5"
                  },
                  {
                    "Comment": "kernel-headers is signed with Red Hat redhatrelease2 key"
                  }
                ]
              },
              {
                "Operator": "AND",
                "Criterias": [

                ],
                "Criterions": [
                  {
                    "Comment": "kernel-kdump is earlier than 0:2.6.18-308.8.2.el5"
                  },
                  {
                    "Comment": "kernel-kdump is signed with Red Hat redhatrelease2 key"
                  }
                ]
              },
              {
                "Operator": "AND",
                "Criterias": [

                ],
                "Criterions": [
                  {
                    "Comment": "kernel-kdump-devel is earlier than 0:2.6.18-308.8.2.el5"
                  },
                  {
                    "Comment": "kernel-kdump-devel is signed with Red Hat redhatrelease2 key"
                  }
                ]
              },
              {
                "Operator": "AND",
                "Criterias": [

                ],
                "Criterions": [
                  {
                    "Comment": "kernel-xen is earlier than 0:2.6.18-308.8.2.el5"
                  },
                  {
                    "Comment": "kernel-xen is signed with Red Hat redhatrelease2 key"
                  }
                ]
              },
              {
                "Operator": "AND",
                "Criterias": [

                ],
                "Criterions": [
                  {
                    "Comment": "kernel-xen-devel is earlier than 0:2.6.18-308.8.2.el5"
                  },
                  {
                    "Comment": "kernel-xen-devel is signed with Red Hat redhatrelease2 key"
                  }
                ]
              }
            ],
            "Criterions": [

            ]
          }
        ],
        "Criterions": [
          {
            "Comment": "Oracle Linux 5 is installed"
          }
        ]
      }
    ],
    "Criterions": [
      {
        "Comment": "Oracle Linux 5 is installed"
      }
    ]
  },
  "Severity": "Important",
  "Cves": [
    {
      "Impact": "",
      "Href": "",
      "ID": "CVE-2012-0217"
    },
    {
      "Impact": "",
      "Href": "",
      "ID": "CVE-2012-2934"
    }
  ],
  "Issued": {
    "Date": "2012-06-12"
  }
}