{
  "Title": "RHSA-2012:1455: gegl security update (Moderate)",
  "Description": "GEGL (Generic Graphics Library) is a graph-based image processing\nframework.\nAn integer overflow flaw, leading to a heap-based buffer overflow, was\nfound in the way the gegl utility processed .ppm (Portable Pixel Map) image\nfiles. An attacker could create a specially-crafted .ppm file that, when\nopened in gegl, would cause gegl to crash or, potentially, execute\narbitrary code. (CVE-2012-4433)\nThis issue was discovered by Murray McAllister of the Red Hat Security\nResponse Team.\nUsers of gegl should upgrade to these updated packages, which contain a\nbackported patch to correct this issue.",
  "Platform": [
    "Red Hat Enterprise Linux 6"
  ],
  "References": [
    {
      "Source": "RHSA",
      "URI": "https://access.redhat.com/errata/RHSA-2012:1455",
      "ID": "RHSA-2012:1455"
    },
    {
      "Source": "CVE",
      "URI": "https://access.redhat.com/security/cve/CVE-2012-4433",
      "ID": "CVE-2012-4433"
    }
  ],
  "Criteria": {
    "Operator": "OR",
    "Criterias": [
      {
        "Operator": "AND",
        "Criterias": [
          {
            "Operator": "OR",
            "Criterias": [
              {
                "Operator": "AND",
                "Criterias": [

                ],
                "Criterions": [
                  {
                    "Comment": "gegl is earlier than 0:0.1.2-4.el6_3"
                  },
                  {
                    "Comment": "gegl is signed with Red Hat redhatrelease2 key"
                  }
                ]
              },
              {
                "Operator": "AND",
                "Criterias": [

                ],
                "Criterions": [
                  {
                    "Comment": "gegl-devel is earlier than 0:0.1.2-4.el6_3"
                  },
                  {
                    "Comment": "gegl-devel is signed with Red Hat redhatrelease2 key"
                  }
                ]
              }
            ],
            "Criterions": [

            ]
          }
        ],
        "Criterions": [
          {
            "Comment": "Oracle Linux 6 is installed"
          }
        ]
      }
    ],
    "Criterions": [
      {
        "Comment": "Oracle Linux 6 is installed"
      }
    ]
  },
  "Severity": "Moderate",
  "Cves": [
    {
      "Impact": "",
      "Href": "",
      "ID": "CVE-2012-4433"
    }
  ],
  "Issued": {
    "Date": "2012-11-12"
  }
}