{
  "Title": "RHSA-2012:1327: freeradius2 security update (Moderate)",
  "Description": "FreeRADIUS is a high-performance and highly configurable free Remote\nAuthentication Dial In User Service (RADIUS) server, designed to allow\ncentralized authentication and authorization for a network.\nA buffer overflow flaw was discovered in the way radiusd handled the\nexpiration date field in X.509 client certificates. A remote attacker could\npossibly use this flaw to crash radiusd if it were configured to use the\ncertificate or TLS tunnelled authentication methods (such as EAP-TLS,\nEAP-TTLS, and PEAP). (CVE-2012-3547)\nRed Hat would like to thank Timo Warns of PRESENSE Technologies GmbH for\nreporting this issue.\nUsers of FreeRADIUS are advised to upgrade to these updated packages, which\ncontain a backported patch to correct this issue. After installing the\nupdate, radiusd will be restarted automatically.",
  "Platform": [
    "Red Hat Enterprise Linux 5"
  ],
  "References": [
    {
      "Source": "RHSA",
      "URI": "https://access.redhat.com/errata/RHSA-2012:1327",
      "ID": "RHSA-2012:1327"
    },
    {
      "Source": "CVE",
      "URI": "https://access.redhat.com/security/cve/CVE-2012-3547",
      "ID": "CVE-2012-3547"
    }
  ],
  "Criteria": {
    "Operator": "OR",
    "Criterias": [
      {
        "Operator": "AND",
        "Criterias": [
          {
            "Operator": "OR",
            "Criterias": [
              {
                "Operator": "AND",
                "Criterias": [

                ],
                "Criterions": [
                  {
                    "Comment": "freeradius2 is earlier than 0:2.1.12-4.el5_8"
                  },
                  {
                    "Comment": "freeradius2 is signed with Red Hat redhatrelease2 key"
                  }
                ]
              },
              {
                "Operator": "AND",
                "Criterias": [

                ],
                "Criterions": [
                  {
                    "Comment": "freeradius2-krb5 is earlier than 0:2.1.12-4.el5_8"
                  },
                  {
                    "Comment": "freeradius2-krb5 is signed with Red Hat redhatrelease2 key"
                  }
                ]
              },
              {
                "Operator": "AND",
                "Criterias": [

                ],
                "Criterions": [
                  {
                    "Comment": "freeradius2-ldap is earlier than 0:2.1.12-4.el5_8"
                  },
                  {
                    "Comment": "freeradius2-ldap is signed with Red Hat redhatrelease2 key"
                  }
                ]
              },
              {
                "Operator": "AND",
                "Criterias": [

                ],
                "Criterions": [
                  {
                    "Comment": "freeradius2-mysql is earlier than 0:2.1.12-4.el5_8"
                  },
                  {
                    "Comment": "freeradius2-mysql is signed with Red Hat redhatrelease2 key"
                  }
                ]
              },
              {
                "Operator": "AND",
                "Criterias": [

                ],
                "Criterions": [
                  {
                    "Comment": "freeradius2-perl is earlier than 0:2.1.12-4.el5_8"
                  },
                  {
                    "Comment": "freeradius2-perl is signed with Red Hat redhatrelease2 key"
                  }
                ]
              },
              {
                "Operator": "AND",
                "Criterias": [

                ],
                "Criterions": [
                  {
                    "Comment": "freeradius2-postgresql is earlier than 0:2.1.12-4.el5_8"
                  },
                  {
                    "Comment": "freeradius2-postgresql is signed with Red Hat redhatrelease2 key"
                  }
                ]
              },
              {
                "Operator": "AND",
                "Criterias": [

                ],
                "Criterions": [
                  {
                    "Comment": "freeradius2-python is earlier than 0:2.1.12-4.el5_8"
                  },
                  {
                    "Comment": "freeradius2-python is signed with Red Hat redhatrelease2 key"
                  }
                ]
              },
              {
                "Operator": "AND",
                "Criterias": [

                ],
                "Criterions": [
                  {
                    "Comment": "freeradius2-unixODBC is earlier than 0:2.1.12-4.el5_8"
                  },
                  {
                    "Comment": "freeradius2-unixODBC is signed with Red Hat redhatrelease2 key"
                  }
                ]
              },
              {
                "Operator": "AND",
                "Criterias": [

                ],
                "Criterions": [
                  {
                    "Comment": "freeradius2-utils is earlier than 0:2.1.12-4.el5_8"
                  },
                  {
                    "Comment": "freeradius2-utils is signed with Red Hat redhatrelease2 key"
                  }
                ]
              }
            ],
            "Criterions": [

            ]
          }
        ],
        "Criterions": [
          {
            "Comment": "Oracle Linux 5 is installed"
          }
        ]
      }
    ],
    "Criterions": [
      {
        "Comment": "Oracle Linux 5 is installed"
      }
    ]
  },
  "Severity": "Moderate",
  "Cves": [
    {
      "Impact": "",
      "Href": "",
      "ID": "CVE-2012-3547"
    }
  ],
  "Issued": {
    "Date": "2012-10-02"
  }
}