{
  "Title": "RHSA-2012:0136: libvorbis security update (Important)",
  "Description": "The libvorbis packages contain runtime libraries for use in programs that\nsupport Ogg Vorbis. Ogg Vorbis is a fully open, non-proprietary, patent-and\nroyalty-free, general-purpose compressed audio format.\nA heap-based buffer overflow flaw was found in the way the libvorbis\nlibrary parsed Ogg Vorbis media files. If a specially-crafted Ogg Vorbis\nmedia file was opened by an application using libvorbis, it could cause the\napplication to crash or, possibly, execute arbitrary code with the\nprivileges of the user running the application. (CVE-2012-0444)\nUsers of libvorbis should upgrade to these updated packages, which contain\na backported patch to correct this issue. The desktop must be restarted\n(log out, then log back in) for this update to take effect.",
  "Platform": [
    "Red Hat Enterprise Linux 4",
    "Red Hat Enterprise Linux 5",
    "Red Hat Enterprise Linux 6"
  ],
  "References": [
    {
      "Source": "RHSA",
      "URI": "https://access.redhat.com/errata/RHSA-2012:0136",
      "ID": "RHSA-2012:0136"
    },
    {
      "Source": "CVE",
      "URI": "https://access.redhat.com/security/cve/CVE-2012-0444",
      "ID": "CVE-2012-0444"
    }
  ],
  "Criteria": {
    "Operator": "OR",
    "Criterias": [
      {
        "Operator": "AND",
        "Criterias": [
          {
            "Operator": "OR",
            "Criterias": [
              {
                "Operator": "AND",
                "Criterias": [

                ],
                "Criterions": [
                  {
                    "Comment": "libvorbis is earlier than 1:1.1.0-4.el4.5"
                  },
                  {
                    "Comment": "libvorbis is signed with Red Hat redhatrelease2 key"
                  }
                ]
              },
              {
                "Operator": "AND",
                "Criterias": [

                ],
                "Criterions": [
                  {
                    "Comment": "libvorbis-devel is earlier than 1:1.1.0-4.el4.5"
                  },
                  {
                    "Comment": "libvorbis-devel is signed with Red Hat redhatrelease2 key"
                  }
                ]
              }
            ],
            "Criterions": [

            ]
          }
        ],
        "Criterions": [
          {
            "Comment": "Oracle Linux 4 is installed"
          }
        ]
      },
      {
        "Operator": "AND",
        "Criterias": [
          {
            "Operator": "OR",
            "Criterias": [
              {
                "Operator": "AND",
                "Criterias": [

                ],
                "Criterions": [
                  {
                    "Comment": "libvorbis is earlier than 1:1.1.2-3.el5_7.6"
                  },
                  {
                    "Comment": "libvorbis is signed with Red Hat redhatrelease2 key"
                  }
                ]
              },
              {
                "Operator": "AND",
                "Criterias": [

                ],
                "Criterions": [
                  {
                    "Comment": "libvorbis-devel is earlier than 1:1.1.2-3.el5_7.6"
                  },
                  {
                    "Comment": "libvorbis-devel is signed with Red Hat redhatrelease2 key"
                  }
                ]
              }
            ],
            "Criterions": [

            ]
          }
        ],
        "Criterions": [
          {
            "Comment": "Oracle Linux 5 is installed"
          }
        ]
      },
      {
        "Operator": "AND",
        "Criterias": [
          {
            "Operator": "OR",
            "Criterias": [
              {
                "Operator": "AND",
                "Criterias": [

                ],
                "Criterions": [
                  {
                    "Comment": "libvorbis is earlier than 1:1.2.3-4.el6_2.1"
                  },
                  {
                    "Comment": "libvorbis is signed with Red Hat redhatrelease2 key"
                  }
                ]
              },
              {
                "Operator": "AND",
                "Criterias": [

                ],
                "Criterions": [
                  {
                    "Comment": "libvorbis-devel is earlier than 1:1.2.3-4.el6_2.1"
                  },
                  {
                    "Comment": "libvorbis-devel is signed with Red Hat redhatrelease2 key"
                  }
                ]
              },
              {
                "Operator": "AND",
                "Criterias": [

                ],
                "Criterions": [
                  {
                    "Comment": "libvorbis-devel-docs is earlier than 1:1.2.3-4.el6_2.1"
                  },
                  {
                    "Comment": "libvorbis-devel-docs is signed with Red Hat redhatrelease2 key"
                  }
                ]
              }
            ],
            "Criterions": [

            ]
          }
        ],
        "Criterions": [
          {
            "Comment": "Oracle Linux 6 is installed"
          }
        ]
      }
    ],
    "Criterions": [
      {
        "Comment": "Oracle Linux 4 is installed"
      }
    ]
  },
  "Severity": "Important",
  "Cves": [
    {
      "Impact": "",
      "Href": "",
      "ID": "CVE-2012-0444"
    }
  ],
  "Issued": {
    "Date": "2012-02-15"
  }
}