{
  "Title": "RHSA-2012:0509: wireshark security update (Moderate)",
  "Description": "Wireshark is a program for monitoring network traffic. Wireshark was\npreviously known as Ethereal.\nSeveral flaws were found in Wireshark. If Wireshark read a malformed packet\noff a network or opened a malicious dump file, it could crash or, possibly,\nexecute arbitrary code as the user running Wireshark. (CVE-2011-1590,\nCVE-2011-4102, CVE-2012-1595)\nSeveral denial of service flaws were found in Wireshark. Wireshark could\ncrash or stop responding if it read a malformed packet off a network, or\nopened a malicious dump file. (CVE-2011-1143, CVE-2011-1957, CVE-2011-1958,\nCVE-2011-1959, CVE-2011-2174, CVE-2011-2175, CVE-2011-2597, CVE-2011-2698,\nCVE-2012-0041, CVE-2012-0042, CVE-2012-0067, CVE-2012-0066)\nUsers of Wireshark should upgrade to these updated packages, which contain\nbackported patches to correct these issues. All running instances of\nWireshark must be restarted for the update to take effect.",
  "Platform": [
    "Red Hat Enterprise Linux 6"
  ],
  "References": [
    {
      "Source": "RHSA",
      "URI": "https://access.redhat.com/errata/RHSA-2012:0509",
      "ID": "RHSA-2012:0509"
    },
    {
      "Source": "CVE",
      "URI": "https://access.redhat.com/security/cve/CVE-2011-1143",
      "ID": "CVE-2011-1143"
    },
    {
      "Source": "CVE",
      "URI": "https://access.redhat.com/security/cve/CVE-2011-1590",
      "ID": "CVE-2011-1590"
    },
    {
      "Source": "CVE",
      "URI": "https://access.redhat.com/security/cve/CVE-2011-1957",
      "ID": "CVE-2011-1957"
    },
    {
      "Source": "CVE",
      "URI": "https://access.redhat.com/security/cve/CVE-2011-1958",
      "ID": "CVE-2011-1958"
    },
    {
      "Source": "CVE",
      "URI": "https://access.redhat.com/security/cve/CVE-2011-1959",
      "ID": "CVE-2011-1959"
    },
    {
      "Source": "CVE",
      "URI": "https://access.redhat.com/security/cve/CVE-2011-2174",
      "ID": "CVE-2011-2174"
    },
    {
      "Source": "CVE",
      "URI": "https://access.redhat.com/security/cve/CVE-2011-2175",
      "ID": "CVE-2011-2175"
    },
    {
      "Source": "CVE",
      "URI": "https://access.redhat.com/security/cve/CVE-2011-2597",
      "ID": "CVE-2011-2597"
    },
    {
      "Source": "CVE",
      "URI": "https://access.redhat.com/security/cve/CVE-2011-2698",
      "ID": "CVE-2011-2698"
    },
    {
      "Source": "CVE",
      "URI": "https://access.redhat.com/security/cve/CVE-2011-4102",
      "ID": "CVE-2011-4102"
    },
    {
      "Source": "CVE",
      "URI": "https://access.redhat.com/security/cve/CVE-2012-0041",
      "ID": "CVE-2012-0041"
    },
    {
      "Source": "CVE",
      "URI": "https://access.redhat.com/security/cve/CVE-2012-0042",
      "ID": "CVE-2012-0042"
    },
    {
      "Source": "CVE",
      "URI": "https://access.redhat.com/security/cve/CVE-2012-0066",
      "ID": "CVE-2012-0066"
    },
    {
      "Source": "CVE",
      "URI": "https://access.redhat.com/security/cve/CVE-2012-0067",
      "ID": "CVE-2012-0067"
    },
    {
      "Source": "CVE",
      "URI": "https://access.redhat.com/security/cve/CVE-2012-1595",
      "ID": "CVE-2012-1595"
    }
  ],
  "Criteria": {
    "Operator": "OR",
    "Criterias": [
      {
        "Operator": "AND",
        "Criterias": [
          {
            "Operator": "OR",
            "Criterias": [
              {
                "Operator": "AND",
                "Criterias": [

                ],
                "Criterions": [
                  {
                    "Comment": "wireshark is earlier than 0:1.2.15-2.el6_2.1"
                  },
                  {
                    "Comment": "wireshark is signed with Red Hat redhatrelease2 key"
                  }
                ]
              },
              {
                "Operator": "AND",
                "Criterias": [

                ],
                "Criterions": [
                  {
                    "Comment": "wireshark-devel is earlier than 0:1.2.15-2.el6_2.1"
                  },
                  {
                    "Comment": "wireshark-devel is signed with Red Hat redhatrelease2 key"
                  }
                ]
              },
              {
                "Operator": "AND",
                "Criterias": [

                ],
                "Criterions": [
                  {
                    "Comment": "wireshark-gnome is earlier than 0:1.2.15-2.el6_2.1"
                  },
                  {
                    "Comment": "wireshark-gnome is signed with Red Hat redhatrelease2 key"
                  }
                ]
              }
            ],
            "Criterions": [

            ]
          }
        ],
        "Criterions": [
          {
            "Comment": "Oracle Linux 6 is installed"
          }
        ]
      }
    ],
    "Criterions": [
      {
        "Comment": "Oracle Linux 6 is installed"
      }
    ]
  },
  "Severity": "Moderate",
  "Cves": [
    {
      "Impact": "",
      "Href": "",
      "ID": "CVE-2011-1143"
    },
    {
      "Impact": "",
      "Href": "",
      "ID": "CVE-2011-1590"
    },
    {
      "Impact": "",
      "Href": "",
      "ID": "CVE-2011-1957"
    },
    {
      "Impact": "",
      "Href": "",
      "ID": "CVE-2011-1958"
    },
    {
      "Impact": "",
      "Href": "",
      "ID": "CVE-2011-1959"
    },
    {
      "Impact": "",
      "Href": "",
      "ID": "CVE-2011-2174"
    },
    {
      "Impact": "",
      "Href": "",
      "ID": "CVE-2011-2175"
    },
    {
      "Impact": "",
      "Href": "",
      "ID": "CVE-2011-2597"
    },
    {
      "Impact": "",
      "Href": "",
      "ID": "CVE-2011-2698"
    },
    {
      "Impact": "",
      "Href": "",
      "ID": "CVE-2011-4102"
    },
    {
      "Impact": "",
      "Href": "",
      "ID": "CVE-2012-0041"
    },
    {
      "Impact": "",
      "Href": "",
      "ID": "CVE-2012-0042"
    },
    {
      "Impact": "",
      "Href": "",
      "ID": "CVE-2012-0066"
    },
    {
      "Impact": "",
      "Href": "",
      "ID": "CVE-2012-0067"
    },
    {
      "Impact": "",
      "Href": "",
      "ID": "CVE-2012-1595"
    }
  ],
  "Issued": {
    "Date": "2012-04-23"
  }
}