{
  "Title": "RHSA-2012:0468: libtiff security update (Important)",
  "Description": "The libtiff packages contain a library of functions for manipulating Tagged\nImage File Format (TIFF) files.\nTwo integer overflow flaws, leading to heap-based buffer overflows, were\nfound in the way libtiff attempted to allocate space for a tile in a TIFF\nimage file. An attacker could use these flaws to create a specially-crafted\nTIFF file that, when opened, would cause an application linked against\nlibtiff to crash or, possibly, execute arbitrary code. (CVE-2012-1173)\nAll libtiff users should upgrade to these updated packages, which contain a\nbackported patch to resolve these issues. All running applications linked\nagainst libtiff must be restarted for this update to take effect.",
  "Platform": [
    "Red Hat Enterprise Linux 5",
    "Red Hat Enterprise Linux 6"
  ],
  "References": [
    {
      "Source": "RHSA",
      "URI": "https://access.redhat.com/errata/RHSA-2012:0468",
      "ID": "RHSA-2012:0468"
    },
    {
      "Source": "CVE",
      "URI": "https://access.redhat.com/security/cve/CVE-2012-1173",
      "ID": "CVE-2012-1173"
    }
  ],
  "Criteria": {
    "Operator": "OR",
    "Criterias": [
      {
        "Operator": "AND",
        "Criterias": [
          {
            "Operator": "OR",
            "Criterias": [
              {
                "Operator": "AND",
                "Criterias": [

                ],
                "Criterions": [
                  {
                    "Comment": "libtiff is earlier than 0:3.9.4-5.el6_2"
                  },
                  {
                    "Comment": "libtiff is signed with Red Hat redhatrelease2 key"
                  }
                ]
              },
              {
                "Operator": "AND",
                "Criterias": [

                ],
                "Criterions": [
                  {
                    "Comment": "libtiff-devel is earlier than 0:3.9.4-5.el6_2"
                  },
                  {
                    "Comment": "libtiff-devel is signed with Red Hat redhatrelease2 key"
                  }
                ]
              },
              {
                "Operator": "AND",
                "Criterias": [

                ],
                "Criterions": [
                  {
                    "Comment": "libtiff-static is earlier than 0:3.9.4-5.el6_2"
                  },
                  {
                    "Comment": "libtiff-static is signed with Red Hat redhatrelease2 key"
                  }
                ]
              }
            ],
            "Criterions": [

            ]
          }
        ],
        "Criterions": [
          {
            "Comment": "Oracle Linux 6 is installed"
          }
        ]
      },
      {
        "Operator": "AND",
        "Criterias": [
          {
            "Operator": "OR",
            "Criterias": [
              {
                "Operator": "AND",
                "Criterias": [

                ],
                "Criterions": [
                  {
                    "Comment": "libtiff is earlier than 0:3.8.2-14.el5_8"
                  },
                  {
                    "Comment": "libtiff is signed with Red Hat redhatrelease2 key"
                  }
                ]
              },
              {
                "Operator": "AND",
                "Criterias": [

                ],
                "Criterions": [
                  {
                    "Comment": "libtiff-devel is earlier than 0:3.8.2-14.el5_8"
                  },
                  {
                    "Comment": "libtiff-devel is signed with Red Hat redhatrelease2 key"
                  }
                ]
              }
            ],
            "Criterions": [

            ]
          }
        ],
        "Criterions": [
          {
            "Comment": "Oracle Linux 5 is installed"
          }
        ]
      }
    ],
    "Criterions": [
      {
        "Comment": "Oracle Linux 5 is installed"
      }
    ]
  },
  "Severity": "Important",
  "Cves": [
    {
      "Impact": "",
      "Href": "",
      "ID": "CVE-2012-1173"
    }
  ],
  "Issued": {
    "Date": "2012-04-10"
  }
}