{
  "Title": "RHSA-2012:0545: ImageMagick security and bug fix update (Moderate)",
  "Description": "ImageMagick is an image display and manipulation tool for the X Window\nSystem that can read and write multiple image formats.\nA flaw was found in the way ImageMagick processed images with malformed\nExchangeable image file format (Exif) metadata. An attacker could create a\nspecially-crafted image file that, when opened by a victim, would cause\nImageMagick to crash or, potentially, execute arbitrary code.\n(CVE-2012-0247)\nA denial of service flaw was found in the way ImageMagick processed images\nwith malformed Exif metadata. An attacker could create a specially-crafted\nimage file that, when opened by a victim, could cause ImageMagick to enter\nan infinite loop. (CVE-2012-0248)\nA denial of service flaw was found in the way ImageMagick decoded certain\nJPEG images. A remote attacker could provide a JPEG image with\nspecially-crafted sequences of RST0 up to RST7 restart markers (used to\nindicate the input stream to be corrupted), which once processed by\nImageMagick, would cause it to consume excessive amounts of memory and CPU\ntime. (CVE-2012-0260)\nRed Hat would like to thank CERT-FI for reporting CVE-2012-0260. CERT-FI\nacknowledges Aleksis Kauppinen, Joonas Kuorilehto, Tuomas Parttimaa and\nLasse Ylivainio of Codenomicon's CROSS project as the original reporters.\nThis update also fixes the following bug:\n* The fix for Red Hat Bugzilla bug 694922, provided by the RHSA-2012:0301\nImageMagick update, introduced a regression. Attempting to use the\n\"convert\" utility to convert a PostScript document could fail with a\n\"/undefinedfilename\" error. With this update, conversion works as expected.\n(BZ#804546)\nUsers of ImageMagick are advised to upgrade to these updated packages,\nwhich contain backported patches to correct these issues. All running\ninstances of ImageMagick must be restarted for this update to take effect.",
  "Platform": [
    "Red Hat Enterprise Linux 5"
  ],
  "References": [
    {
      "Source": "RHSA",
      "URI": "https://access.redhat.com/errata/RHSA-2012:0545",
      "ID": "RHSA-2012:0545"
    },
    {
      "Source": "CVE",
      "URI": "https://access.redhat.com/security/cve/CVE-2012-0247",
      "ID": "CVE-2012-0247"
    },
    {
      "Source": "CVE",
      "URI": "https://access.redhat.com/security/cve/CVE-2012-0248",
      "ID": "CVE-2012-0248"
    },
    {
      "Source": "CVE",
      "URI": "https://access.redhat.com/security/cve/CVE-2012-0260",
      "ID": "CVE-2012-0260"
    }
  ],
  "Criteria": {
    "Operator": "OR",
    "Criterias": [
      {
        "Operator": "AND",
        "Criterias": [
          {
            "Operator": "OR",
            "Criterias": [
              {
                "Operator": "AND",
                "Criterias": [

                ],
                "Criterions": [
                  {
                    "Comment": "ImageMagick is earlier than 0:6.2.8.0-15.el5_8"
                  },
                  {
                    "Comment": "ImageMagick is signed with Red Hat redhatrelease key"
                  }
                ]
              },
              {
                "Operator": "AND",
                "Criterias": [

                ],
                "Criterions": [
                  {
                    "Comment": "ImageMagick-c++ is earlier than 0:6.2.8.0-15.el5_8"
                  },
                  {
                    "Comment": "ImageMagick-c++ is signed with Red Hat redhatrelease key"
                  }
                ]
              },
              {
                "Operator": "AND",
                "Criterias": [

                ],
                "Criterions": [
                  {
                    "Comment": "ImageMagick-c++-devel is earlier than 0:6.2.8.0-15.el5_8"
                  },
                  {
                    "Comment": "ImageMagick-c++-devel is signed with Red Hat redhatrelease key"
                  }
                ]
              },
              {
                "Operator": "AND",
                "Criterias": [

                ],
                "Criterions": [
                  {
                    "Comment": "ImageMagick-devel is earlier than 0:6.2.8.0-15.el5_8"
                  },
                  {
                    "Comment": "ImageMagick-devel is signed with Red Hat redhatrelease key"
                  }
                ]
              },
              {
                "Operator": "AND",
                "Criterias": [

                ],
                "Criterions": [
                  {
                    "Comment": "ImageMagick-perl is earlier than 0:6.2.8.0-15.el5_8"
                  },
                  {
                    "Comment": "ImageMagick-perl is signed with Red Hat redhatrelease key"
                  }
                ]
              }
            ],
            "Criterions": [

            ]
          }
        ],
        "Criterions": [
          {
            "Comment": "Oracle Linux 5 is installed"
          }
        ]
      }
    ],
    "Criterions": [
      {
        "Comment": "Oracle Linux 5 is installed"
      }
    ]
  },
  "Severity": "Moderate",
  "Cves": [
    {
      "Impact": "",
      "Href": "",
      "ID": "CVE-2012-0247"
    },
    {
      "Impact": "",
      "Href": "",
      "ID": "CVE-2012-0248"
    },
    {
      "Impact": "",
      "Href": "",
      "ID": "CVE-2012-0260"
    }
  ],
  "Issued": {
    "Date": "2012-05-07"
  }
}