{
  "Title": "RHSA-2012:1263: postgresql and postgresql84 security update (Moderate)",
  "Description": "PostgreSQL is an advanced object-relational database management system\n(DBMS).\nIt was found that the optional PostgreSQL xml2 contrib module allowed local\nfiles and remote URLs to be read and written to with the privileges of the\ndatabase server when parsing Extensible Stylesheet Language Transformations\n(XSLT). An unprivileged database user could use this flaw to read and write\nto local files (such as the database's configuration files) and remote URLs\nthey would otherwise not have access to by issuing a specially-crafted SQL\nquery. (CVE-2012-3488)\nIt was found that the \"xml\" data type allowed local files and remote URLs\nto be read with the privileges of the database server to resolve DTD and\nentity references in the provided XML. An unprivileged database user could\nuse this flaw to read local files they would otherwise not have access to\nby issuing a specially-crafted SQL query. Note that the full contents of\nthe files were not returned, but portions could be displayed to the user\nvia error messages. (CVE-2012-3489)\nRed Hat would like to thank the PostgreSQL project for reporting these\nissues. Upstream acknowledges Peter Eisentraut as the original reporter of\nCVE-2012-3488, and Noah Misch as the original reporter of CVE-2012-3489.\nThese updated packages upgrade PostgreSQL to version 8.4.13. Refer to the\nPostgreSQL Release Notes for a list of changes:\nhttp://www.postgresql.org/docs/8.4/static/release-8-4-13.html\nAll PostgreSQL users are advised to upgrade to these updated packages,\nwhich correct these issues. If the postgresql service is running, it will\nbe automatically restarted after installing this update.",
  "Platform": [
    "Red Hat Enterprise Linux 5",
    "Red Hat Enterprise Linux 6"
  ],
  "References": [
    {
      "Source": "RHSA",
      "URI": "https://access.redhat.com/errata/RHSA-2012:1263",
      "ID": "RHSA-2012:1263"
    },
    {
      "Source": "CVE",
      "URI": "https://access.redhat.com/security/cve/CVE-2012-3488",
      "ID": "CVE-2012-3488"
    },
    {
      "Source": "CVE",
      "URI": "https://access.redhat.com/security/cve/CVE-2012-3489",
      "ID": "CVE-2012-3489"
    }
  ],
  "Criteria": {
    "Operator": "OR",
    "Criterias": [
      {
        "Operator": "AND",
        "Criterias": [
          {
            "Operator": "OR",
            "Criterias": [
              {
                "Operator": "AND",
                "Criterias": [

                ],
                "Criterions": [
                  {
                    "Comment": "postgresql84 is earlier than 0:8.4.13-1.el5_8"
                  },
                  {
                    "Comment": "postgresql84 is signed with Red Hat redhatrelease2 key"
                  }
                ]
              },
              {
                "Operator": "AND",
                "Criterias": [

                ],
                "Criterions": [
                  {
                    "Comment": "postgresql84-contrib is earlier than 0:8.4.13-1.el5_8"
                  },
                  {
                    "Comment": "postgresql84-contrib is signed with Red Hat redhatrelease2 key"
                  }
                ]
              },
              {
                "Operator": "AND",
                "Criterias": [

                ],
                "Criterions": [
                  {
                    "Comment": "postgresql84-devel is earlier than 0:8.4.13-1.el5_8"
                  },
                  {
                    "Comment": "postgresql84-devel is signed with Red Hat redhatrelease2 key"
                  }
                ]
              },
              {
                "Operator": "AND",
                "Criterias": [

                ],
                "Criterions": [
                  {
                    "Comment": "postgresql84-docs is earlier than 0:8.4.13-1.el5_8"
                  },
                  {
                    "Comment": "postgresql84-docs is signed with Red Hat redhatrelease2 key"
                  }
                ]
              },
              {
                "Operator": "AND",
                "Criterias": [

                ],
                "Criterions": [
                  {
                    "Comment": "postgresql84-libs is earlier than 0:8.4.13-1.el5_8"
                  },
                  {
                    "Comment": "postgresql84-libs is signed with Red Hat redhatrelease2 key"
                  }
                ]
              },
              {
                "Operator": "AND",
                "Criterias": [

                ],
                "Criterions": [
                  {
                    "Comment": "postgresql84-plperl is earlier than 0:8.4.13-1.el5_8"
                  },
                  {
                    "Comment": "postgresql84-plperl is signed with Red Hat redhatrelease2 key"
                  }
                ]
              },
              {
                "Operator": "AND",
                "Criterias": [

                ],
                "Criterions": [
                  {
                    "Comment": "postgresql84-plpython is earlier than 0:8.4.13-1.el5_8"
                  },
                  {
                    "Comment": "postgresql84-plpython is signed with Red Hat redhatrelease2 key"
                  }
                ]
              },
              {
                "Operator": "AND",
                "Criterias": [

                ],
                "Criterions": [
                  {
                    "Comment": "postgresql84-pltcl is earlier than 0:8.4.13-1.el5_8"
                  },
                  {
                    "Comment": "postgresql84-pltcl is signed with Red Hat redhatrelease2 key"
                  }
                ]
              },
              {
                "Operator": "AND",
                "Criterias": [

                ],
                "Criterions": [
                  {
                    "Comment": "postgresql84-python is earlier than 0:8.4.13-1.el5_8"
                  },
                  {
                    "Comment": "postgresql84-python is signed with Red Hat redhatrelease2 key"
                  }
                ]
              },
              {
                "Operator": "AND",
                "Criterias": [

                ],
                "Criterions": [
                  {
                    "Comment": "postgresql84-server is earlier than 0:8.4.13-1.el5_8"
                  },
                  {
                    "Comment": "postgresql84-server is signed with Red Hat redhatrelease2 key"
                  }
                ]
              },
              {
                "Operator": "AND",
                "Criterias": [

                ],
                "Criterions": [
                  {
                    "Comment": "postgresql84-tcl is earlier than 0:8.4.13-1.el5_8"
                  },
                  {
                    "Comment": "postgresql84-tcl is signed with Red Hat redhatrelease2 key"
                  }
                ]
              },
              {
                "Operator": "AND",
                "Criterias": [

                ],
                "Criterions": [
                  {
                    "Comment": "postgresql84-test is earlier than 0:8.4.13-1.el5_8"
                  },
                  {
                    "Comment": "postgresql84-test is signed with Red Hat redhatrelease2 key"
                  }
                ]
              }
            ],
            "Criterions": [

            ]
          }
        ],
        "Criterions": [
          {
            "Comment": "Oracle Linux 5 is installed"
          }
        ]
      },
      {
        "Operator": "AND",
        "Criterias": [
          {
            "Operator": "OR",
            "Criterias": [
              {
                "Operator": "AND",
                "Criterias": [

                ],
                "Criterions": [
                  {
                    "Comment": "postgresql is earlier than 0:8.4.13-1.el6_3"
                  },
                  {
                    "Comment": "postgresql is signed with Red Hat redhatrelease2 key"
                  }
                ]
              },
              {
                "Operator": "AND",
                "Criterias": [

                ],
                "Criterions": [
                  {
                    "Comment": "postgresql-contrib is earlier than 0:8.4.13-1.el6_3"
                  },
                  {
                    "Comment": "postgresql-contrib is signed with Red Hat redhatrelease2 key"
                  }
                ]
              },
              {
                "Operator": "AND",
                "Criterias": [

                ],
                "Criterions": [
                  {
                    "Comment": "postgresql-devel is earlier than 0:8.4.13-1.el6_3"
                  },
                  {
                    "Comment": "postgresql-devel is signed with Red Hat redhatrelease2 key"
                  }
                ]
              },
              {
                "Operator": "AND",
                "Criterias": [

                ],
                "Criterions": [
                  {
                    "Comment": "postgresql-docs is earlier than 0:8.4.13-1.el6_3"
                  },
                  {
                    "Comment": "postgresql-docs is signed with Red Hat redhatrelease2 key"
                  }
                ]
              },
              {
                "Operator": "AND",
                "Criterias": [

                ],
                "Criterions": [
                  {
                    "Comment": "postgresql-libs is earlier than 0:8.4.13-1.el6_3"
                  },
                  {
                    "Comment": "postgresql-libs is signed with Red Hat redhatrelease2 key"
                  }
                ]
              },
              {
                "Operator": "AND",
                "Criterias": [

                ],
                "Criterions": [
                  {
                    "Comment": "postgresql-plperl is earlier than 0:8.4.13-1.el6_3"
                  },
                  {
                    "Comment": "postgresql-plperl is signed with Red Hat redhatrelease2 key"
                  }
                ]
              },
              {
                "Operator": "AND",
                "Criterias": [

                ],
                "Criterions": [
                  {
                    "Comment": "postgresql-plpython is earlier than 0:8.4.13-1.el6_3"
                  },
                  {
                    "Comment": "postgresql-plpython is signed with Red Hat redhatrelease2 key"
                  }
                ]
              },
              {
                "Operator": "AND",
                "Criterias": [

                ],
                "Criterions": [
                  {
                    "Comment": "postgresql-pltcl is earlier than 0:8.4.13-1.el6_3"
                  },
                  {
                    "Comment": "postgresql-pltcl is signed with Red Hat redhatrelease2 key"
                  }
                ]
              },
              {
                "Operator": "AND",
                "Criterias": [

                ],
                "Criterions": [
                  {
                    "Comment": "postgresql-server is earlier than 0:8.4.13-1.el6_3"
                  },
                  {
                    "Comment": "postgresql-server is signed with Red Hat redhatrelease2 key"
                  }
                ]
              },
              {
                "Operator": "AND",
                "Criterias": [

                ],
                "Criterions": [
                  {
                    "Comment": "postgresql-test is earlier than 0:8.4.13-1.el6_3"
                  },
                  {
                    "Comment": "postgresql-test is signed with Red Hat redhatrelease2 key"
                  }
                ]
              }
            ],
            "Criterions": [

            ]
          }
        ],
        "Criterions": [
          {
            "Comment": "Oracle Linux 6 is installed"
          }
        ]
      }
    ],
    "Criterions": [
      {
        "Comment": "Oracle Linux 5 is installed"
      }
    ]
  },
  "Severity": "Moderate",
  "Cves": [
    {
      "Impact": "",
      "Href": "",
      "ID": "CVE-2012-3488"
    },
    {
      "Impact": "",
      "Href": "",
      "ID": "CVE-2012-3489"
    }
  ],
  "Issued": {
    "Date": "2012-09-13"
  }
}