{
  "Title": "RHSA-2012:0469: acroread security update (Critical)",
  "Description": "Adobe Reader allows users to view and print documents in Portable Document\nFormat (PDF).\nThis update fixes multiple security flaws in Adobe Reader. These flaws are\ndetailed on the Adobe security page APSB12-08, listed in the References\nsection. A specially-crafted PDF file could cause Adobe Reader to crash or,\npotentially, execute arbitrary code as the user running Adobe Reader when\nopened. (CVE-2012-0774, CVE-2012-0775, CVE-2012-0777)\nAll Adobe Reader users should install these updated packages. They contain\nAdobe Reader version 9.5.1, which is not vulnerable to these issues. All\nrunning instances of Adobe Reader must be restarted for the update to take\neffect.",
  "Platform": [
    "Supplementary for Red Hat Enterprise Linux 5",
    "Supplementary for Red Hat Enterprise Linux 6"
  ],
  "References": [
    {
      "Source": "RHSA",
      "URI": "https://rhn.redhat.com/errata/RHSA-2012-0469.html",
      "ID": "RHSA-2012:0469-05"
    },
    {
      "Source": "CVE",
      "URI": "https://access.redhat.com/security/cve/CVE-2011-4370",
      "ID": "CVE-2011-4370"
    },
    {
      "Source": "CVE",
      "URI": "https://access.redhat.com/security/cve/CVE-2011-4371",
      "ID": "CVE-2011-4371"
    },
    {
      "Source": "CVE",
      "URI": "https://access.redhat.com/security/cve/CVE-2011-4372",
      "ID": "CVE-2011-4372"
    },
    {
      "Source": "CVE",
      "URI": "https://access.redhat.com/security/cve/CVE-2011-4373",
      "ID": "CVE-2011-4373"
    },
    {
      "Source": "CVE",
      "URI": "https://access.redhat.com/security/cve/CVE-2012-0774",
      "ID": "CVE-2012-0774"
    },
    {
      "Source": "CVE",
      "URI": "https://access.redhat.com/security/cve/CVE-2012-0775",
      "ID": "CVE-2012-0775"
    },
    {
      "Source": "CVE",
      "URI": "https://access.redhat.com/security/cve/CVE-2012-0777",
      "ID": "CVE-2012-0777"
    }
  ],
  "Criteria": {
    "Operator": "OR",
    "Criterias": [
      {
        "Operator": "AND",
        "Criterias": [
          {
            "Operator": "OR",
            "Criterias": [
              {
                "Operator": "AND",
                "Criterias": [

                ],
                "Criterions": [
                  {
                    "Comment": "acroread is earlier than 0:9.5.1-1.el5"
                  },
                  {
                    "Comment": "acroread is signed with Red Hat redhatrelease key"
                  }
                ]
              },
              {
                "Operator": "AND",
                "Criterias": [

                ],
                "Criterions": [
                  {
                    "Comment": "acroread-plugin is earlier than 0:9.5.1-1.el5"
                  },
                  {
                    "Comment": "acroread-plugin is signed with Red Hat redhatrelease key"
                  }
                ]
              }
            ],
            "Criterions": [

            ]
          }
        ],
        "Criterions": [
          {
            "Comment": "Oracle Linux 5 is installed"
          }
        ]
      },
      {
        "Operator": "AND",
        "Criterias": [
          {
            "Operator": "OR",
            "Criterias": [

            ],
            "Criterions": [
              {
                "Comment": "Oracle Linux 6 Client is installed"
              },
              {
                "Comment": "Oracle Linux 6 Server is installed"
              },
              {
                "Comment": "Oracle Linux 6 Workstation is installed"
              },
              {
                "Comment": "Oracle Linux 6 ComputeNode is installed"
              }
            ]
          },
          {
            "Operator": "OR",
            "Criterias": [
              {
                "Operator": "AND",
                "Criterias": [

                ],
                "Criterions": [
                  {
                    "Comment": "acroread is earlier than 0:9.5.1-1.el6_2"
                  },
                  {
                    "Comment": "acroread is signed with Red Hat redhatrelease2 key"
                  }
                ]
              },
              {
                "Operator": "AND",
                "Criterias": [

                ],
                "Criterions": [
                  {
                    "Comment": "acroread-plugin is earlier than 0:9.5.1-1.el6_2"
                  },
                  {
                    "Comment": "acroread-plugin is signed with Red Hat redhatrelease2 key"
                  }
                ]
              }
            ],
            "Criterions": [

            ]
          }
        ],
        "Criterions": [

        ]
      }
    ],
    "Criterions": [

    ]
  },
  "Severity": "Critical",
  "Cves": [
    {
      "Impact": "",
      "Href": "",
      "ID": "CVE-2011-4370"
    },
    {
      "Impact": "",
      "Href": "",
      "ID": "CVE-2011-4371"
    },
    {
      "Impact": "",
      "Href": "",
      "ID": "CVE-2011-4372"
    },
    {
      "Impact": "",
      "Href": "",
      "ID": "CVE-2011-4373"
    },
    {
      "Impact": "",
      "Href": "",
      "ID": "CVE-2012-0774"
    },
    {
      "Impact": "",
      "Href": "",
      "ID": "CVE-2012-0775"
    },
    {
      "Impact": "",
      "Href": "",
      "ID": "CVE-2012-0777"
    }
  ],
  "Issued": {
    "Date": "2012-04-10"
  }
}