{
  "Title": "RHSA-2012:0306: krb5 security and bug fix update (Low)",
  "Description": "Kerberos is a network authentication system which allows clients and\nservers to authenticate to each other using symmetric encryption and a\ntrusted third-party, the Key Distribution Center (KDC).\nIt was found that ftpd, a Kerberos-aware FTP server, did not properly drop\nprivileges. On Red Hat Enterprise Linux 5, the ftpd daemon did not check\nfor the potential failure of the effective group ID change system call. If\nthe group ID change failed, a remote FTP user could use this flaw to gain\nunauthorized read or write access to files that are owned by the root\ngroup. (CVE-2011-1526)\nRed Hat would like to thank the MIT Kerberos project for reporting this\nissue. Upstream acknowledges Tim Zingelman as the original reporter.\nThis update also fixes the following bugs:\n* Due to a mistake in the Kerberos libraries, a client could fail to\ncontact a Key Distribution Center (KDC) or terminate unexpectedly if the\nclient had already more than 1024 file descriptors in use. This update\nbackports modifications to the Kerberos libraries and the libraries use\nthe poll() function instead of the select() function, as poll() does not\nhave this limitation. (BZ#701444)\n* The KDC failed to release memory when processing a TGS (ticket-granting\nserver) request from a client if the client request included an\nauthenticator with a subkey. As a result, the KDC consumed an excessive\namount of memory. With this update, the code releasing the memory has been\nadded and the problem no longer occurs. (BZ#708516)\n* Under certain circumstances, if services requiring Kerberos\nauthentication sent two authentication requests to the authenticating\nserver, the second authentication request was flagged as a replay attack.\nAs a result, the second authentication attempt was denied. This update\napplies an upstream patch that fixes this bug. (BZ#713500)\n* Previously, if Kerberos credentials had expired, the klist command could\nterminate unexpectedly with a segmentation fault when invoked with the -s\noption. This happened when klist encountered and failed to process an entry\nwith no realm name while scanning the credential cache. With this update,\nthe underlying code has been modified and the command handles such entries\ncorrectly. (BZ#729067)\n* Due to a regression, multi-line FTP macros terminated prematurely with a\nsegmentation fault. This occurred because the previously-added patch failed\nto properly support multi-line macros. This update restores the support for\nmulti-line macros and the problem no longer occurs. (BZ#735363, BZ#736132)\nAll users of krb5 are advised to upgrade to these updated packages, which\nresolve these issues.",
  "Platform": [
    "Red Hat Enterprise Linux 5"
  ],
  "References": [
    {
      "Source": "RHSA",
      "URI": "https://access.redhat.com/errata/RHSA-2012:0306",
      "ID": "RHSA-2012:0306"
    },
    {
      "Source": "CVE",
      "URI": "https://access.redhat.com/security/cve/CVE-2011-1526",
      "ID": "CVE-2011-1526"
    }
  ],
  "Criteria": {
    "Operator": "OR",
    "Criterias": [
      {
        "Operator": "AND",
        "Criterias": [
          {
            "Operator": "OR",
            "Criterias": [
              {
                "Operator": "AND",
                "Criterias": [

                ],
                "Criterions": [
                  {
                    "Comment": "krb5-devel is earlier than 0:1.6.1-70.el5"
                  },
                  {
                    "Comment": "krb5-devel is signed with Red Hat redhatrelease2 key"
                  }
                ]
              },
              {
                "Operator": "AND",
                "Criterias": [

                ],
                "Criterions": [
                  {
                    "Comment": "krb5-libs is earlier than 0:1.6.1-70.el5"
                  },
                  {
                    "Comment": "krb5-libs is signed with Red Hat redhatrelease2 key"
                  }
                ]
              },
              {
                "Operator": "AND",
                "Criterias": [

                ],
                "Criterions": [
                  {
                    "Comment": "krb5-server is earlier than 0:1.6.1-70.el5"
                  },
                  {
                    "Comment": "krb5-server is signed with Red Hat redhatrelease2 key"
                  }
                ]
              },
              {
                "Operator": "AND",
                "Criterias": [

                ],
                "Criterions": [
                  {
                    "Comment": "krb5-server-ldap is earlier than 0:1.6.1-70.el5"
                  },
                  {
                    "Comment": "krb5-server-ldap is signed with Red Hat redhatrelease2 key"
                  }
                ]
              },
              {
                "Operator": "AND",
                "Criterias": [

                ],
                "Criterions": [
                  {
                    "Comment": "krb5-workstation is earlier than 0:1.6.1-70.el5"
                  },
                  {
                    "Comment": "krb5-workstation is signed with Red Hat redhatrelease2 key"
                  }
                ]
              }
            ],
            "Criterions": [

            ]
          }
        ],
        "Criterions": [
          {
            "Comment": "Oracle Linux 5 is installed"
          }
        ]
      }
    ],
    "Criterions": [
      {
        "Comment": "Oracle Linux 5 is installed"
      }
    ]
  },
  "Severity": "Low",
  "Cves": [
    {
      "Impact": "",
      "Href": "",
      "ID": "CVE-2011-1526"
    }
  ],
  "Issued": {
    "Date": "2012-02-21"
  }
}