{
  "Title": "RHSA-2012:0533: samba and samba3x security update (Important)",
  "Description": "Samba is an open-source implementation of the Server Message Block (SMB) or\nCommon Internet File System (CIFS) protocol, which allows PC-compatible\nmachines to share files, printers, and other information.\nA flaw was found in the way Samba handled certain Local Security Authority\n(LSA) Remote Procedure Calls (RPC). An authenticated user could use this\nflaw to issue an RPC call that would modify the privileges database on the\nSamba server, allowing them to steal the ownership of files and directories\nthat are being shared by the Samba server, and create, delete, and modify\nuser accounts, as well as other Samba server administration tasks.\n(CVE-2012-2111)\nRed Hat would like to thank the Samba project for reporting this issue.\nUpstream acknowledges Ivano Cristofolini as the original reporter.\nUsers of Samba are advised to upgrade to these updated packages, which\ncontain a backported patch to resolve this issue. After installing this\nupdate, the smb service will be restarted automatically.",
  "Platform": [
    "Red Hat Enterprise Linux 5",
    "Red Hat Enterprise Linux 6"
  ],
  "References": [
    {
      "Source": "RHSA",
      "URI": "https://access.redhat.com/errata/RHSA-2012:0533",
      "ID": "RHSA-2012:0533"
    },
    {
      "Source": "CVE",
      "URI": "https://access.redhat.com/security/cve/CVE-2012-2111",
      "ID": "CVE-2012-2111"
    }
  ],
  "Criteria": {
    "Operator": "OR",
    "Criterias": [
      {
        "Operator": "AND",
        "Criterias": [
          {
            "Operator": "OR",
            "Criterias": [
              {
                "Operator": "AND",
                "Criterias": [

                ],
                "Criterions": [
                  {
                    "Comment": "libsmbclient is earlier than 0:3.5.10-116.el6_2"
                  },
                  {
                    "Comment": "libsmbclient is signed with Red Hat redhatrelease2 key"
                  }
                ]
              },
              {
                "Operator": "AND",
                "Criterias": [

                ],
                "Criterions": [
                  {
                    "Comment": "libsmbclient-devel is earlier than 0:3.5.10-116.el6_2"
                  },
                  {
                    "Comment": "libsmbclient-devel is signed with Red Hat redhatrelease2 key"
                  }
                ]
              },
              {
                "Operator": "AND",
                "Criterias": [

                ],
                "Criterions": [
                  {
                    "Comment": "samba is earlier than 0:3.5.10-116.el6_2"
                  },
                  {
                    "Comment": "samba is signed with Red Hat redhatrelease2 key"
                  }
                ]
              },
              {
                "Operator": "AND",
                "Criterias": [

                ],
                "Criterions": [
                  {
                    "Comment": "samba-client is earlier than 0:3.5.10-116.el6_2"
                  },
                  {
                    "Comment": "samba-client is signed with Red Hat redhatrelease2 key"
                  }
                ]
              },
              {
                "Operator": "AND",
                "Criterias": [

                ],
                "Criterions": [
                  {
                    "Comment": "samba-common is earlier than 0:3.5.10-116.el6_2"
                  },
                  {
                    "Comment": "samba-common is signed with Red Hat redhatrelease2 key"
                  }
                ]
              },
              {
                "Operator": "AND",
                "Criterias": [

                ],
                "Criterions": [
                  {
                    "Comment": "samba-doc is earlier than 0:3.5.10-116.el6_2"
                  },
                  {
                    "Comment": "samba-doc is signed with Red Hat redhatrelease2 key"
                  }
                ]
              },
              {
                "Operator": "AND",
                "Criterias": [

                ],
                "Criterions": [
                  {
                    "Comment": "samba-domainjoin-gui is earlier than 0:3.5.10-116.el6_2"
                  },
                  {
                    "Comment": "samba-domainjoin-gui is signed with Red Hat redhatrelease2 key"
                  }
                ]
              },
              {
                "Operator": "AND",
                "Criterias": [

                ],
                "Criterions": [
                  {
                    "Comment": "samba-swat is earlier than 0:3.5.10-116.el6_2"
                  },
                  {
                    "Comment": "samba-swat is signed with Red Hat redhatrelease2 key"
                  }
                ]
              },
              {
                "Operator": "AND",
                "Criterias": [

                ],
                "Criterions": [
                  {
                    "Comment": "samba-winbind is earlier than 0:3.5.10-116.el6_2"
                  },
                  {
                    "Comment": "samba-winbind is signed with Red Hat redhatrelease2 key"
                  }
                ]
              },
              {
                "Operator": "AND",
                "Criterias": [

                ],
                "Criterions": [
                  {
                    "Comment": "samba-winbind-clients is earlier than 0:3.5.10-116.el6_2"
                  },
                  {
                    "Comment": "samba-winbind-clients is signed with Red Hat redhatrelease2 key"
                  }
                ]
              },
              {
                "Operator": "AND",
                "Criterias": [

                ],
                "Criterions": [
                  {
                    "Comment": "samba-winbind-devel is earlier than 0:3.5.10-116.el6_2"
                  },
                  {
                    "Comment": "samba-winbind-devel is signed with Red Hat redhatrelease2 key"
                  }
                ]
              },
              {
                "Operator": "AND",
                "Criterias": [

                ],
                "Criterions": [
                  {
                    "Comment": "samba-winbind-krb5-locator is earlier than 0:3.5.10-116.el6_2"
                  },
                  {
                    "Comment": "samba-winbind-krb5-locator is signed with Red Hat redhatrelease2 key"
                  }
                ]
              }
            ],
            "Criterions": [

            ]
          }
        ],
        "Criterions": [
          {
            "Comment": "Oracle Linux 6 is installed"
          }
        ]
      },
      {
        "Operator": "AND",
        "Criterias": [
          {
            "Operator": "OR",
            "Criterias": [
              {
                "Operator": "AND",
                "Criterias": [

                ],
                "Criterions": [
                  {
                    "Comment": "samba3x is earlier than 0:3.5.10-0.109.el5_8"
                  },
                  {
                    "Comment": "samba3x is signed with Red Hat redhatrelease2 key"
                  }
                ]
              },
              {
                "Operator": "AND",
                "Criterias": [

                ],
                "Criterions": [
                  {
                    "Comment": "samba3x-client is earlier than 0:3.5.10-0.109.el5_8"
                  },
                  {
                    "Comment": "samba3x-client is signed with Red Hat redhatrelease2 key"
                  }
                ]
              },
              {
                "Operator": "AND",
                "Criterias": [

                ],
                "Criterions": [
                  {
                    "Comment": "samba3x-common is earlier than 0:3.5.10-0.109.el5_8"
                  },
                  {
                    "Comment": "samba3x-common is signed with Red Hat redhatrelease2 key"
                  }
                ]
              },
              {
                "Operator": "AND",
                "Criterias": [

                ],
                "Criterions": [
                  {
                    "Comment": "samba3x-doc is earlier than 0:3.5.10-0.109.el5_8"
                  },
                  {
                    "Comment": "samba3x-doc is signed with Red Hat redhatrelease2 key"
                  }
                ]
              },
              {
                "Operator": "AND",
                "Criterias": [

                ],
                "Criterions": [
                  {
                    "Comment": "samba3x-domainjoin-gui is earlier than 0:3.5.10-0.109.el5_8"
                  },
                  {
                    "Comment": "samba3x-domainjoin-gui is signed with Red Hat redhatrelease2 key"
                  }
                ]
              },
              {
                "Operator": "AND",
                "Criterias": [

                ],
                "Criterions": [
                  {
                    "Comment": "samba3x-swat is earlier than 0:3.5.10-0.109.el5_8"
                  },
                  {
                    "Comment": "samba3x-swat is signed with Red Hat redhatrelease2 key"
                  }
                ]
              },
              {
                "Operator": "AND",
                "Criterias": [

                ],
                "Criterions": [
                  {
                    "Comment": "samba3x-winbind is earlier than 0:3.5.10-0.109.el5_8"
                  },
                  {
                    "Comment": "samba3x-winbind is signed with Red Hat redhatrelease2 key"
                  }
                ]
              },
              {
                "Operator": "AND",
                "Criterias": [

                ],
                "Criterions": [
                  {
                    "Comment": "samba3x-winbind-devel is earlier than 0:3.5.10-0.109.el5_8"
                  },
                  {
                    "Comment": "samba3x-winbind-devel is signed with Red Hat redhatrelease2 key"
                  }
                ]
              }
            ],
            "Criterions": [

            ]
          }
        ],
        "Criterions": [
          {
            "Comment": "Oracle Linux 5 is installed"
          }
        ]
      }
    ],
    "Criterions": [
      {
        "Comment": "Oracle Linux 5 is installed"
      }
    ]
  },
  "Severity": "Important",
  "Cves": [
    {
      "Impact": "",
      "Href": "",
      "ID": "CVE-2012-2111"
    }
  ],
  "Issued": {
    "Date": "2012-04-30"
  }
}