{
  "Title": "RHSA-2012:1391: java-1.7.0-oracle security update (Critical)",
  "Description": "Oracle Java SE version 7 includes the Oracle Java Runtime Environment and\nthe Oracle Java Software Development Kit.\nThis update fixes several vulnerabilities in the Oracle Java Runtime\nEnvironment and the Oracle Java Software Development Kit. Further\ninformation about these flaws can be found on the Oracle Java SE Critical\nPatch Update Advisory page, listed in the References section.\n(CVE-2012-1531, CVE-2012-1532, CVE-2012-1533, CVE-2012-3143, CVE-2012-3159,\nCVE-2012-3216, CVE-2012-4416, CVE-2012-5067, CVE-2012-5068, CVE-2012-5069,\nCVE-2012-5070, CVE-2012-5071, CVE-2012-5072, CVE-2012-5073, CVE-2012-5074,\nCVE-2012-5075, CVE-2012-5076, CVE-2012-5077, CVE-2012-5079, CVE-2012-5081,\nCVE-2012-5083, CVE-2012-5084, CVE-2012-5085, CVE-2012-5086, CVE-2012-5087,\nCVE-2012-5088, CVE-2012-5089)\nAll users of java-1.7.0-oracle are advised to upgrade to these updated\npackages, which provide Oracle Java 7 Update 9. All running instances of\nOracle Java must be restarted for the update to take effect.",
  "Platform": [
    "Supplementary for Red Hat Enterprise Linux 6"
  ],
  "References": [
    {
      "Source": "RHSA",
      "URI": "https://rhn.redhat.com/errata/RHSA-2012-1391.html",
      "ID": "RHSA-2012:1391-01"
    },
    {
      "Source": "CVE",
      "URI": "https://www.redhat.com/security/data/cve/CVE-2012-1531.html",
      "ID": "CVE-2012-1531"
    },
    {
      "Source": "CVE",
      "URI": "https://www.redhat.com/security/data/cve/CVE-2012-1532.html",
      "ID": "CVE-2012-1532"
    },
    {
      "Source": "CVE",
      "URI": "https://www.redhat.com/security/data/cve/CVE-2012-1533.html",
      "ID": "CVE-2012-1533"
    },
    {
      "Source": "CVE",
      "URI": "https://www.redhat.com/security/data/cve/CVE-2012-3143.html",
      "ID": "CVE-2012-3143"
    },
    {
      "Source": "CVE",
      "URI": "https://www.redhat.com/security/data/cve/CVE-2012-3159.html",
      "ID": "CVE-2012-3159"
    },
    {
      "Source": "CVE",
      "URI": "https://www.redhat.com/security/data/cve/CVE-2012-3216.html",
      "ID": "CVE-2012-3216"
    },
    {
      "Source": "CVE",
      "URI": "https://www.redhat.com/security/data/cve/CVE-2012-4416.html",
      "ID": "CVE-2012-4416"
    },
    {
      "Source": "CVE",
      "URI": "https://www.redhat.com/security/data/cve/CVE-2012-5067.html",
      "ID": "CVE-2012-5067"
    },
    {
      "Source": "CVE",
      "URI": "https://www.redhat.com/security/data/cve/CVE-2012-5068.html",
      "ID": "CVE-2012-5068"
    },
    {
      "Source": "CVE",
      "URI": "https://www.redhat.com/security/data/cve/CVE-2012-5069.html",
      "ID": "CVE-2012-5069"
    },
    {
      "Source": "CVE",
      "URI": "https://www.redhat.com/security/data/cve/CVE-2012-5070.html",
      "ID": "CVE-2012-5070"
    },
    {
      "Source": "CVE",
      "URI": "https://www.redhat.com/security/data/cve/CVE-2012-5071.html",
      "ID": "CVE-2012-5071"
    },
    {
      "Source": "CVE",
      "URI": "https://www.redhat.com/security/data/cve/CVE-2012-5072.html",
      "ID": "CVE-2012-5072"
    },
    {
      "Source": "CVE",
      "URI": "https://www.redhat.com/security/data/cve/CVE-2012-5073.html",
      "ID": "CVE-2012-5073"
    },
    {
      "Source": "CVE",
      "URI": "https://www.redhat.com/security/data/cve/CVE-2012-5074.html",
      "ID": "CVE-2012-5074"
    },
    {
      "Source": "CVE",
      "URI": "https://www.redhat.com/security/data/cve/CVE-2012-5075.html",
      "ID": "CVE-2012-5075"
    },
    {
      "Source": "CVE",
      "URI": "https://www.redhat.com/security/data/cve/CVE-2012-5076.html",
      "ID": "CVE-2012-5076"
    },
    {
      "Source": "CVE",
      "URI": "https://www.redhat.com/security/data/cve/CVE-2012-5077.html",
      "ID": "CVE-2012-5077"
    },
    {
      "Source": "CVE",
      "URI": "https://www.redhat.com/security/data/cve/CVE-2012-5079.html",
      "ID": "CVE-2012-5079"
    },
    {
      "Source": "CVE",
      "URI": "https://www.redhat.com/security/data/cve/CVE-2012-5081.html",
      "ID": "CVE-2012-5081"
    },
    {
      "Source": "CVE",
      "URI": "https://www.redhat.com/security/data/cve/CVE-2012-5083.html",
      "ID": "CVE-2012-5083"
    },
    {
      "Source": "CVE",
      "URI": "https://www.redhat.com/security/data/cve/CVE-2012-5084.html",
      "ID": "CVE-2012-5084"
    },
    {
      "Source": "CVE",
      "URI": "https://www.redhat.com/security/data/cve/CVE-2012-5085.html",
      "ID": "CVE-2012-5085"
    },
    {
      "Source": "CVE",
      "URI": "https://www.redhat.com/security/data/cve/CVE-2012-5086.html",
      "ID": "CVE-2012-5086"
    },
    {
      "Source": "CVE",
      "URI": "https://www.redhat.com/security/data/cve/CVE-2012-5087.html",
      "ID": "CVE-2012-5087"
    },
    {
      "Source": "CVE",
      "URI": "https://www.redhat.com/security/data/cve/CVE-2012-5088.html",
      "ID": "CVE-2012-5088"
    },
    {
      "Source": "CVE",
      "URI": "https://www.redhat.com/security/data/cve/CVE-2012-5089.html",
      "ID": "CVE-2012-5089"
    }
  ],
  "Criteria": {
    "Operator": "AND",
    "Criterias": [
      {
        "Operator": "OR",
        "Criterias": [

        ],
        "Criterions": [
          {
            "Comment": "Oracle Linux 6 Client is installed"
          },
          {
            "Comment": "Oracle Linux 6 Server is installed"
          },
          {
            "Comment": "Oracle Linux 6 Workstation is installed"
          },
          {
            "Comment": "Oracle Linux 6 ComputeNode is installed"
          }
        ]
      },
      {
        "Operator": "OR",
        "Criterias": [
          {
            "Operator": "AND",
            "Criterias": [

            ],
            "Criterions": [
              {
                "Comment": "java-1.7.0-oracle is earlier than 1:1.7.0.9-1jpp.3.el6_3"
              },
              {
                "Comment": "java-1.7.0-oracle is signed with Red Hat redhatrelease2 key"
              }
            ]
          },
          {
            "Operator": "AND",
            "Criterias": [

            ],
            "Criterions": [
              {
                "Comment": "java-1.7.0-oracle-src is earlier than 1:1.7.0.9-1jpp.3.el6_3"
              },
              {
                "Comment": "java-1.7.0-oracle-src is signed with Red Hat redhatrelease2 key"
              }
            ]
          },
          {
            "Operator": "AND",
            "Criterias": [

            ],
            "Criterions": [
              {
                "Comment": "java-1.7.0-oracle-javafx is earlier than 1:1.7.0.9-1jpp.3.el6_3"
              },
              {
                "Comment": "java-1.7.0-oracle-javafx is signed with Red Hat redhatrelease2 key"
              }
            ]
          },
          {
            "Operator": "AND",
            "Criterias": [

            ],
            "Criterions": [
              {
                "Comment": "java-1.7.0-oracle-plugin is earlier than 1:1.7.0.9-1jpp.3.el6_3"
              },
              {
                "Comment": "java-1.7.0-oracle-plugin is signed with Red Hat redhatrelease2 key"
              }
            ]
          },
          {
            "Operator": "AND",
            "Criterias": [

            ],
            "Criterions": [
              {
                "Comment": "java-1.7.0-oracle-jdbc is earlier than 1:1.7.0.9-1jpp.3.el6_3"
              },
              {
                "Comment": "java-1.7.0-oracle-jdbc is signed with Red Hat redhatrelease2 key"
              }
            ]
          },
          {
            "Operator": "AND",
            "Criterias": [

            ],
            "Criterions": [
              {
                "Comment": "java-1.7.0-oracle-devel is earlier than 1:1.7.0.9-1jpp.3.el6_3"
              },
              {
                "Comment": "java-1.7.0-oracle-devel is signed with Red Hat redhatrelease2 key"
              }
            ]
          }
        ],
        "Criterions": [

        ]
      }
    ],
    "Criterions": [

    ]
  },
  "Severity": "Critical",
  "Cves": [
    {
      "Impact": "",
      "Href": "",
      "ID": "CVE-2012-1531"
    },
    {
      "Impact": "",
      "Href": "",
      "ID": "CVE-2012-1532"
    },
    {
      "Impact": "",
      "Href": "",
      "ID": "CVE-2012-1533"
    },
    {
      "Impact": "",
      "Href": "",
      "ID": "CVE-2012-3143"
    },
    {
      "Impact": "",
      "Href": "",
      "ID": "CVE-2012-3159"
    },
    {
      "Impact": "",
      "Href": "",
      "ID": "CVE-2012-3216"
    },
    {
      "Impact": "",
      "Href": "",
      "ID": "CVE-2012-4416"
    },
    {
      "Impact": "",
      "Href": "",
      "ID": "CVE-2012-5067"
    },
    {
      "Impact": "",
      "Href": "",
      "ID": "CVE-2012-5068"
    },
    {
      "Impact": "",
      "Href": "",
      "ID": "CVE-2012-5069"
    },
    {
      "Impact": "",
      "Href": "",
      "ID": "CVE-2012-5070"
    },
    {
      "Impact": "",
      "Href": "",
      "ID": "CVE-2012-5071"
    },
    {
      "Impact": "",
      "Href": "",
      "ID": "CVE-2012-5072"
    },
    {
      "Impact": "",
      "Href": "",
      "ID": "CVE-2012-5073"
    },
    {
      "Impact": "",
      "Href": "",
      "ID": "CVE-2012-5074"
    },
    {
      "Impact": "",
      "Href": "",
      "ID": "CVE-2012-5075"
    },
    {
      "Impact": "",
      "Href": "",
      "ID": "CVE-2012-5076"
    },
    {
      "Impact": "",
      "Href": "",
      "ID": "CVE-2012-5077"
    },
    {
      "Impact": "",
      "Href": "",
      "ID": "CVE-2012-5079"
    },
    {
      "Impact": "",
      "Href": "",
      "ID": "CVE-2012-5081"
    },
    {
      "Impact": "",
      "Href": "",
      "ID": "CVE-2012-5083"
    },
    {
      "Impact": "",
      "Href": "",
      "ID": "CVE-2012-5084"
    },
    {
      "Impact": "",
      "Href": "",
      "ID": "CVE-2012-5085"
    },
    {
      "Impact": "",
      "Href": "",
      "ID": "CVE-2012-5086"
    },
    {
      "Impact": "",
      "Href": "",
      "ID": "CVE-2012-5087"
    },
    {
      "Impact": "",
      "Href": "",
      "ID": "CVE-2012-5088"
    },
    {
      "Impact": "",
      "Href": "",
      "ID": "CVE-2012-5089"
    }
  ],
  "Issued": {
    "Date": "2012-10-18"
  }
}