{
  "Title": "RHSA-2012:1211: thunderbird security update (Critical)",
  "Description": "Mozilla Thunderbird is a standalone mail and newsgroup client.\nSeveral flaws were found in the processing of malformed content. Malicious\ncontent could cause Thunderbird to crash or, potentially, execute arbitrary\ncode with the privileges of the user running Thunderbird. (CVE-2012-1970,\nCVE-2012-1972, CVE-2012-1973, CVE-2012-1974, CVE-2012-1975, CVE-2012-1976,\nCVE-2012-3956, CVE-2012-3957, CVE-2012-3958, CVE-2012-3959, CVE-2012-3960,\nCVE-2012-3961, CVE-2012-3962, CVE-2012-3963, CVE-2012-3964)\nContent containing a malicious Scalable Vector Graphics (SVG) image file\ncould cause Thunderbird to crash or, potentially, execute arbitrary code\nwith the privileges of the user running Thunderbird. (CVE-2012-3969,\nCVE-2012-3970)\nTwo flaws were found in the way Thunderbird rendered certain images using\nWebGL. Malicious content could cause Thunderbird to crash or, under certain\nconditions, possibly execute arbitrary code with the privileges of the user\nrunning Thunderbird. (CVE-2012-3967, CVE-2012-3968)\nA flaw was found in the way Thunderbird decoded embedded bitmap images in\nIcon Format (ICO) files. Content containing a malicious ICO file could\ncause Thunderbird to crash or, under certain conditions, possibly execute\narbitrary code with the privileges of the user running Thunderbird.\n(CVE-2012-3966)\nA flaw was found in the way the \"eval\" command was handled by the\nThunderbird Error Console. Running \"eval\" in the Error Console while\nviewing malicious content could possibly cause Thunderbird to execute\narbitrary code with the privileges of the user running Thunderbird.\n(CVE-2012-3980)\nAn out-of-bounds memory read flaw was found in the way Thunderbird used the\nformat-number feature of XSLT (Extensible Stylesheet Language\nTransformations). Malicious content could possibly cause an information\nleak, or cause Thunderbird to crash. (CVE-2012-3972)\nA flaw was found in the location object implementation in Thunderbird.\nMalicious content could use this flaw to possibly allow restricted content\nto be loaded. (CVE-2012-3978)\nRed Hat would like to thank the Mozilla project for reporting these issues.\nUpstream acknowledges Gary Kwong, Christian Holler, Jesse Ruderman, John\nSchoenick, Vladimir Vukicevic, Daniel Holbert, Abhishek Arya, Frédéric\nHoguin, miaubiz, Arthur Gerkis, Nicolas Grégoire, moz_bug_r_a4, and Colby\nRussell as the original reporters of these issues.\nNote: All issues except CVE-2012-3969 and CVE-2012-3970 cannot be exploited\nby a specially-crafted HTML mail message as JavaScript is disabled by\ndefault for mail messages. They could be exploited another way in\nThunderbird, for example, when viewing the full remote content of an RSS\nfeed.\nAll Thunderbird users should upgrade to this updated package, which\ncontains Thunderbird version 10.0.7 ESR, which corrects these issues. After\ninstalling the update, Thunderbird must be restarted for the changes to\ntake effect.",
  "Platform": [
    "Red Hat Enterprise Linux 5",
    "Red Hat Enterprise Linux 6"
  ],
  "References": [
    {
      "Source": "RHSA",
      "URI": "https://access.redhat.com/errata/RHSA-2012:1211",
      "ID": "RHSA-2012:1211"
    },
    {
      "Source": "CVE",
      "URI": "https://access.redhat.com/security/cve/CVE-2012-1970",
      "ID": "CVE-2012-1970"
    },
    {
      "Source": "CVE",
      "URI": "https://access.redhat.com/security/cve/CVE-2012-1972",
      "ID": "CVE-2012-1972"
    },
    {
      "Source": "CVE",
      "URI": "https://access.redhat.com/security/cve/CVE-2012-1973",
      "ID": "CVE-2012-1973"
    },
    {
      "Source": "CVE",
      "URI": "https://access.redhat.com/security/cve/CVE-2012-1974",
      "ID": "CVE-2012-1974"
    },
    {
      "Source": "CVE",
      "URI": "https://access.redhat.com/security/cve/CVE-2012-1975",
      "ID": "CVE-2012-1975"
    },
    {
      "Source": "CVE",
      "URI": "https://access.redhat.com/security/cve/CVE-2012-1976",
      "ID": "CVE-2012-1976"
    },
    {
      "Source": "CVE",
      "URI": "https://access.redhat.com/security/cve/CVE-2012-3956",
      "ID": "CVE-2012-3956"
    },
    {
      "Source": "CVE",
      "URI": "https://access.redhat.com/security/cve/CVE-2012-3957",
      "ID": "CVE-2012-3957"
    },
    {
      "Source": "CVE",
      "URI": "https://access.redhat.com/security/cve/CVE-2012-3958",
      "ID": "CVE-2012-3958"
    },
    {
      "Source": "CVE",
      "URI": "https://access.redhat.com/security/cve/CVE-2012-3959",
      "ID": "CVE-2012-3959"
    },
    {
      "Source": "CVE",
      "URI": "https://access.redhat.com/security/cve/CVE-2012-3960",
      "ID": "CVE-2012-3960"
    },
    {
      "Source": "CVE",
      "URI": "https://access.redhat.com/security/cve/CVE-2012-3961",
      "ID": "CVE-2012-3961"
    },
    {
      "Source": "CVE",
      "URI": "https://access.redhat.com/security/cve/CVE-2012-3962",
      "ID": "CVE-2012-3962"
    },
    {
      "Source": "CVE",
      "URI": "https://access.redhat.com/security/cve/CVE-2012-3963",
      "ID": "CVE-2012-3963"
    },
    {
      "Source": "CVE",
      "URI": "https://access.redhat.com/security/cve/CVE-2012-3964",
      "ID": "CVE-2012-3964"
    },
    {
      "Source": "CVE",
      "URI": "https://access.redhat.com/security/cve/CVE-2012-3966",
      "ID": "CVE-2012-3966"
    },
    {
      "Source": "CVE",
      "URI": "https://access.redhat.com/security/cve/CVE-2012-3967",
      "ID": "CVE-2012-3967"
    },
    {
      "Source": "CVE",
      "URI": "https://access.redhat.com/security/cve/CVE-2012-3968",
      "ID": "CVE-2012-3968"
    },
    {
      "Source": "CVE",
      "URI": "https://access.redhat.com/security/cve/CVE-2012-3969",
      "ID": "CVE-2012-3969"
    },
    {
      "Source": "CVE",
      "URI": "https://access.redhat.com/security/cve/CVE-2012-3970",
      "ID": "CVE-2012-3970"
    },
    {
      "Source": "CVE",
      "URI": "https://access.redhat.com/security/cve/CVE-2012-3972",
      "ID": "CVE-2012-3972"
    },
    {
      "Source": "CVE",
      "URI": "https://access.redhat.com/security/cve/CVE-2012-3978",
      "ID": "CVE-2012-3978"
    },
    {
      "Source": "CVE",
      "URI": "https://access.redhat.com/security/cve/CVE-2012-3980",
      "ID": "CVE-2012-3980"
    }
  ],
  "Criteria": {
    "Operator": "OR",
    "Criterias": [
      {
        "Operator": "AND",
        "Criterias": [

        ],
        "Criterions": [
          {
            "Comment": "Oracle Linux 5 is installed"
          },
          {
            "Comment": "thunderbird is earlier than 0:10.0.7-1.el5_8"
          },
          {
            "Comment": "thunderbird is signed with Red Hat redhatrelease2 key"
          }
        ]
      },
      {
        "Operator": "AND",
        "Criterias": [

        ],
        "Criterions": [
          {
            "Comment": "Oracle Linux 6 is installed"
          },
          {
            "Comment": "thunderbird is earlier than 0:10.0.7-1.el6_3"
          },
          {
            "Comment": "thunderbird is signed with Red Hat redhatrelease2 key"
          }
        ]
      }
    ],
    "Criterions": [
      {
        "Comment": "Oracle Linux 5 is installed"
      }
    ]
  },
  "Severity": "Critical",
  "Cves": [
    {
      "Impact": "",
      "Href": "",
      "ID": "CVE-2012-1970"
    },
    {
      "Impact": "",
      "Href": "",
      "ID": "CVE-2012-1972"
    },
    {
      "Impact": "",
      "Href": "",
      "ID": "CVE-2012-1973"
    },
    {
      "Impact": "",
      "Href": "",
      "ID": "CVE-2012-1974"
    },
    {
      "Impact": "",
      "Href": "",
      "ID": "CVE-2012-1975"
    },
    {
      "Impact": "",
      "Href": "",
      "ID": "CVE-2012-1976"
    },
    {
      "Impact": "",
      "Href": "",
      "ID": "CVE-2012-3956"
    },
    {
      "Impact": "",
      "Href": "",
      "ID": "CVE-2012-3957"
    },
    {
      "Impact": "",
      "Href": "",
      "ID": "CVE-2012-3958"
    },
    {
      "Impact": "",
      "Href": "",
      "ID": "CVE-2012-3959"
    },
    {
      "Impact": "",
      "Href": "",
      "ID": "CVE-2012-3960"
    },
    {
      "Impact": "",
      "Href": "",
      "ID": "CVE-2012-3961"
    },
    {
      "Impact": "",
      "Href": "",
      "ID": "CVE-2012-3962"
    },
    {
      "Impact": "",
      "Href": "",
      "ID": "CVE-2012-3963"
    },
    {
      "Impact": "",
      "Href": "",
      "ID": "CVE-2012-3964"
    },
    {
      "Impact": "",
      "Href": "",
      "ID": "CVE-2012-3966"
    },
    {
      "Impact": "",
      "Href": "",
      "ID": "CVE-2012-3967"
    },
    {
      "Impact": "",
      "Href": "",
      "ID": "CVE-2012-3968"
    },
    {
      "Impact": "",
      "Href": "",
      "ID": "CVE-2012-3969"
    },
    {
      "Impact": "",
      "Href": "",
      "ID": "CVE-2012-3970"
    },
    {
      "Impact": "",
      "Href": "",
      "ID": "CVE-2012-3972"
    },
    {
      "Impact": "",
      "Href": "",
      "ID": "CVE-2012-3978"
    },
    {
      "Impact": "",
      "Href": "",
      "ID": "CVE-2012-3980"
    }
  ],
  "Issued": {
    "Date": "2012-08-29"
  }
}