{
  "Title": "RHSA-2012:1255: libexif security update (Moderate)",
  "Description": "The libexif packages provide an Exchangeable image file format (Exif)\nlibrary. Exif allows metadata to be added to and read from certain types\nof image files.\nMultiple flaws were found in the way libexif processed Exif tags. An\nattacker could create a specially-crafted image file that, when opened in\nan application linked against libexif, could cause the application to\ncrash or, potentially, execute arbitrary code with the privileges of the\nuser running the application. (CVE-2012-2812, CVE-2012-2813, CVE-2012-2814,\nCVE-2012-2836, CVE-2012-2837, CVE-2012-2840, CVE-2012-2841)\nRed Hat would like to thank Dan Fandrich for reporting these issues.\nUpstream acknowledges Mateusz Jurczyk of the Google Security Team as the\noriginal reporter of CVE-2012-2812, CVE-2012-2813, and CVE-2012-2814; and\nYunho Kim as the original reporter of CVE-2012-2836 and CVE-2012-2837.\nUsers of libexif are advised to upgrade to these updated packages, which\ncontain backported patches to resolve these issues. All running\napplications linked against libexif must be restarted for the update to\ntake effect.",
  "Platform": [
    "Red Hat Enterprise Linux 5",
    "Red Hat Enterprise Linux 6"
  ],
  "References": [
    {
      "Source": "RHSA",
      "URI": "https://access.redhat.com/errata/RHSA-2012:1255",
      "ID": "RHSA-2012:1255"
    },
    {
      "Source": "CVE",
      "URI": "https://access.redhat.com/security/cve/CVE-2012-2812",
      "ID": "CVE-2012-2812"
    },
    {
      "Source": "CVE",
      "URI": "https://access.redhat.com/security/cve/CVE-2012-2813",
      "ID": "CVE-2012-2813"
    },
    {
      "Source": "CVE",
      "URI": "https://access.redhat.com/security/cve/CVE-2012-2814",
      "ID": "CVE-2012-2814"
    },
    {
      "Source": "CVE",
      "URI": "https://access.redhat.com/security/cve/CVE-2012-2836",
      "ID": "CVE-2012-2836"
    },
    {
      "Source": "CVE",
      "URI": "https://access.redhat.com/security/cve/CVE-2012-2837",
      "ID": "CVE-2012-2837"
    },
    {
      "Source": "CVE",
      "URI": "https://access.redhat.com/security/cve/CVE-2012-2840",
      "ID": "CVE-2012-2840"
    },
    {
      "Source": "CVE",
      "URI": "https://access.redhat.com/security/cve/CVE-2012-2841",
      "ID": "CVE-2012-2841"
    }
  ],
  "Criteria": {
    "Operator": "OR",
    "Criterias": [
      {
        "Operator": "AND",
        "Criterias": [
          {
            "Operator": "OR",
            "Criterias": [
              {
                "Operator": "AND",
                "Criterias": [

                ],
                "Criterions": [
                  {
                    "Comment": "libexif is earlier than 0:0.6.21-1.el5_8"
                  },
                  {
                    "Comment": "libexif is signed with Red Hat redhatrelease2 key"
                  }
                ]
              },
              {
                "Operator": "AND",
                "Criterias": [

                ],
                "Criterions": [
                  {
                    "Comment": "libexif-devel is earlier than 0:0.6.21-1.el5_8"
                  },
                  {
                    "Comment": "libexif-devel is signed with Red Hat redhatrelease2 key"
                  }
                ]
              }
            ],
            "Criterions": [

            ]
          }
        ],
        "Criterions": [
          {
            "Comment": "Oracle Linux 5 is installed"
          }
        ]
      },
      {
        "Operator": "AND",
        "Criterias": [
          {
            "Operator": "OR",
            "Criterias": [
              {
                "Operator": "AND",
                "Criterias": [

                ],
                "Criterions": [
                  {
                    "Comment": "libexif is earlier than 0:0.6.21-5.el6_3"
                  },
                  {
                    "Comment": "libexif is signed with Red Hat redhatrelease2 key"
                  }
                ]
              },
              {
                "Operator": "AND",
                "Criterias": [

                ],
                "Criterions": [
                  {
                    "Comment": "libexif-devel is earlier than 0:0.6.21-5.el6_3"
                  },
                  {
                    "Comment": "libexif-devel is signed with Red Hat redhatrelease2 key"
                  }
                ]
              }
            ],
            "Criterions": [

            ]
          }
        ],
        "Criterions": [
          {
            "Comment": "Oracle Linux 6 is installed"
          }
        ]
      }
    ],
    "Criterions": [
      {
        "Comment": "Oracle Linux 5 is installed"
      }
    ]
  },
  "Severity": "Moderate",
  "Cves": [
    {
      "Impact": "",
      "Href": "",
      "ID": "CVE-2012-2812"
    },
    {
      "Impact": "",
      "Href": "",
      "ID": "CVE-2012-2813"
    },
    {
      "Impact": "",
      "Href": "",
      "ID": "CVE-2012-2814"
    },
    {
      "Impact": "",
      "Href": "",
      "ID": "CVE-2012-2836"
    },
    {
      "Impact": "",
      "Href": "",
      "ID": "CVE-2012-2837"
    },
    {
      "Impact": "",
      "Href": "",
      "ID": "CVE-2012-2840"
    },
    {
      "Impact": "",
      "Href": "",
      "ID": "CVE-2012-2841"
    }
  ],
  "Issued": {
    "Date": "2012-09-11"
  }
}