{
  "Title": "RHSA-2012:1364: bind97 security update (Important)",
  "Description": "The Berkeley Internet Name Domain (BIND) is an implementation of the\nDomain Name System (DNS) protocols. BIND includes a DNS server (named); a\nresolver library (routines for applications to use when interfacing with\nDNS); and tools for verifying that the DNS server is operating correctly.\nA flaw was found in the way BIND handled certain combinations of resource\nrecords. A remote attacker could use this flaw to cause a recursive\nresolver, or an authoritative server in certain configurations, to lockup.\n(CVE-2012-5166)\nUsers of bind97 are advised to upgrade to these updated packages, which\ncorrect this issue. After installing the update, the BIND daemon (named)\nwill be restarted automatically.",
  "Platform": [
    "Red Hat Enterprise Linux 5"
  ],
  "References": [
    {
      "Source": "RHSA",
      "URI": "https://access.redhat.com/errata/RHSA-2012:1364",
      "ID": "RHSA-2012:1364"
    },
    {
      "Source": "CVE",
      "URI": "https://access.redhat.com/security/cve/CVE-2012-5166",
      "ID": "CVE-2012-5166"
    }
  ],
  "Criteria": {
    "Operator": "OR",
    "Criterias": [
      {
        "Operator": "AND",
        "Criterias": [
          {
            "Operator": "OR",
            "Criterias": [
              {
                "Operator": "AND",
                "Criterias": [

                ],
                "Criterions": [
                  {
                    "Comment": "bind97 is earlier than 32:9.7.0-10.P2.el5_8.4"
                  },
                  {
                    "Comment": "bind97 is signed with Red Hat redhatrelease2 key"
                  }
                ]
              },
              {
                "Operator": "AND",
                "Criterias": [

                ],
                "Criterions": [
                  {
                    "Comment": "bind97-chroot is earlier than 32:9.7.0-10.P2.el5_8.4"
                  },
                  {
                    "Comment": "bind97-chroot is signed with Red Hat redhatrelease2 key"
                  }
                ]
              },
              {
                "Operator": "AND",
                "Criterias": [

                ],
                "Criterions": [
                  {
                    "Comment": "bind97-devel is earlier than 32:9.7.0-10.P2.el5_8.4"
                  },
                  {
                    "Comment": "bind97-devel is signed with Red Hat redhatrelease2 key"
                  }
                ]
              },
              {
                "Operator": "AND",
                "Criterias": [

                ],
                "Criterions": [
                  {
                    "Comment": "bind97-libs is earlier than 32:9.7.0-10.P2.el5_8.4"
                  },
                  {
                    "Comment": "bind97-libs is signed with Red Hat redhatrelease2 key"
                  }
                ]
              },
              {
                "Operator": "AND",
                "Criterias": [

                ],
                "Criterions": [
                  {
                    "Comment": "bind97-utils is earlier than 32:9.7.0-10.P2.el5_8.4"
                  },
                  {
                    "Comment": "bind97-utils is signed with Red Hat redhatrelease2 key"
                  }
                ]
              }
            ],
            "Criterions": [

            ]
          }
        ],
        "Criterions": [
          {
            "Comment": "Oracle Linux 5 is installed"
          }
        ]
      }
    ],
    "Criterions": [
      {
        "Comment": "Oracle Linux 5 is installed"
      }
    ]
  },
  "Severity": "Important",
  "Cves": [
    {
      "Impact": "",
      "Href": "",
      "ID": "CVE-2012-5166"
    }
  ],
  "Issued": {
    "Date": "2012-10-12"
  }
}