{
  "Title": "RHSA-2012:0481: kernel security, bug fix, and enhancement update (Moderate)",
  "Description": "The kernel packages contain the Linux kernel, the core of any Linux\noperating system.\nThis update fixes the following security issues:\n* Numerous reference count leaks were found in the Linux kernel's block\nlayer I/O context handling implementation. This could allow a local,\nunprivileged user to cause a denial of service. (CVE-2012-0879,\nModerate)\n* A flaw was found in the Linux kernel's cifs_lookup() implementation.\nPOSIX open during lookup should only be supported for regular files. When\nnon-regular files (for example, a named (FIFO) pipe or other special files)\nare opened on lookup, it could cause a denial of service. (CVE-2012-1090,\nModerate)\n* It was found that the Linux kernel's register set (regset) common\ninfrastructure implementation did not check if the required get and set\nhandlers were initialized. A local, unprivileged user could use this flaw\nto cause a denial of service by performing a register set operation with a\nptrace() PTRACE_SETREGSET or PTRACE_GETREGSET request. (CVE-2012-1097,\nModerate)\nRed Hat would like to thank H. Peter Anvin for reporting CVE-2012-1097.\nThis update also fixes several bugs and adds various enhancements.\nDocumentation for these changes will be available shortly from the\nTechnical Notes document linked to in the References section.\nUsers should upgrade to these updated packages, which contain backported\npatches to correct these issues, and fix the bugs and add the enhancements\nnoted in the Technical Notes. The system must be rebooted for this update\nto take effect.",
  "Platform": [
    "Red Hat Enterprise Linux 6"
  ],
  "References": [
    {
      "Source": "RHSA",
      "URI": "https://access.redhat.com/errata/RHSA-2012:0481",
      "ID": "RHSA-2012:0481"
    },
    {
      "Source": "CVE",
      "URI": "https://access.redhat.com/security/cve/CVE-2011-4080",
      "ID": "CVE-2011-4080"
    },
    {
      "Source": "CVE",
      "URI": "https://access.redhat.com/security/cve/CVE-2012-0879",
      "ID": "CVE-2012-0879"
    },
    {
      "Source": "CVE",
      "URI": "https://access.redhat.com/security/cve/CVE-2012-1090",
      "ID": "CVE-2012-1090"
    },
    {
      "Source": "CVE",
      "URI": "https://access.redhat.com/security/cve/CVE-2012-1097",
      "ID": "CVE-2012-1097"
    }
  ],
  "Criteria": {
    "Operator": "OR",
    "Criterias": [
      {
        "Operator": "AND",
        "Criterias": [
          {
            "Operator": "OR",
            "Criterias": [

            ],
            "Criterions": [
              {
                "Comment": "kernel earlier than 0:2.6.32-220.13.1.el6 is currently running"
              },
              {
                "Comment": "kernel earlier than 0:2.6.32-220.13.1.el6 is set to boot up on next boot"
              }
            ]
          },
          {
            "Operator": "OR",
            "Criterias": [
              {
                "Operator": "AND",
                "Criterias": [

                ],
                "Criterions": [
                  {
                    "Comment": "kernel is earlier than 0:2.6.32-220.13.1.el6"
                  },
                  {
                    "Comment": "kernel is signed with Red Hat redhatrelease2 key"
                  }
                ]
              },
              {
                "Operator": "AND",
                "Criterias": [

                ],
                "Criterions": [
                  {
                    "Comment": "kernel-bootwrapper is earlier than 0:2.6.32-220.13.1.el6"
                  },
                  {
                    "Comment": "kernel-bootwrapper is signed with Red Hat redhatrelease2 key"
                  }
                ]
              },
              {
                "Operator": "AND",
                "Criterias": [

                ],
                "Criterions": [
                  {
                    "Comment": "kernel-debug is earlier than 0:2.6.32-220.13.1.el6"
                  },
                  {
                    "Comment": "kernel-debug is signed with Red Hat redhatrelease2 key"
                  }
                ]
              },
              {
                "Operator": "AND",
                "Criterias": [

                ],
                "Criterions": [
                  {
                    "Comment": "kernel-debug-devel is earlier than 0:2.6.32-220.13.1.el6"
                  },
                  {
                    "Comment": "kernel-debug-devel is signed with Red Hat redhatrelease2 key"
                  }
                ]
              },
              {
                "Operator": "AND",
                "Criterias": [

                ],
                "Criterions": [
                  {
                    "Comment": "kernel-devel is earlier than 0:2.6.32-220.13.1.el6"
                  },
                  {
                    "Comment": "kernel-devel is signed with Red Hat redhatrelease2 key"
                  }
                ]
              },
              {
                "Operator": "AND",
                "Criterias": [

                ],
                "Criterions": [
                  {
                    "Comment": "kernel-doc is earlier than 0:2.6.32-220.13.1.el6"
                  },
                  {
                    "Comment": "kernel-doc is signed with Red Hat redhatrelease2 key"
                  }
                ]
              },
              {
                "Operator": "AND",
                "Criterias": [

                ],
                "Criterions": [
                  {
                    "Comment": "kernel-firmware is earlier than 0:2.6.32-220.13.1.el6"
                  },
                  {
                    "Comment": "kernel-firmware is signed with Red Hat redhatrelease2 key"
                  }
                ]
              },
              {
                "Operator": "AND",
                "Criterias": [

                ],
                "Criterions": [
                  {
                    "Comment": "kernel-headers is earlier than 0:2.6.32-220.13.1.el6"
                  },
                  {
                    "Comment": "kernel-headers is signed with Red Hat redhatrelease2 key"
                  }
                ]
              },
              {
                "Operator": "AND",
                "Criterias": [

                ],
                "Criterions": [
                  {
                    "Comment": "kernel-kdump is earlier than 0:2.6.32-220.13.1.el6"
                  },
                  {
                    "Comment": "kernel-kdump is signed with Red Hat redhatrelease2 key"
                  }
                ]
              },
              {
                "Operator": "AND",
                "Criterias": [

                ],
                "Criterions": [
                  {
                    "Comment": "kernel-kdump-devel is earlier than 0:2.6.32-220.13.1.el6"
                  },
                  {
                    "Comment": "kernel-kdump-devel is signed with Red Hat redhatrelease2 key"
                  }
                ]
              },
              {
                "Operator": "AND",
                "Criterias": [

                ],
                "Criterions": [
                  {
                    "Comment": "perf is earlier than 0:2.6.32-220.13.1.el6"
                  },
                  {
                    "Comment": "perf is signed with Red Hat redhatrelease2 key"
                  }
                ]
              },
              {
                "Operator": "AND",
                "Criterias": [

                ],
                "Criterions": [
                  {
                    "Comment": "python-perf is earlier than 0:2.6.32-220.13.1.el6"
                  },
                  {
                    "Comment": "python-perf is signed with Red Hat redhatrelease2 key"
                  }
                ]
              }
            ],
            "Criterions": [

            ]
          }
        ],
        "Criterions": [
          {
            "Comment": "Oracle Linux 6 is installed"
          }
        ]
      }
    ],
    "Criterions": [
      {
        "Comment": "Oracle Linux 6 is installed"
      }
    ]
  },
  "Severity": "Moderate",
  "Cves": [
    {
      "Impact": "",
      "Href": "",
      "ID": "CVE-2011-4080"
    },
    {
      "Impact": "",
      "Href": "",
      "ID": "CVE-2012-0879"
    },
    {
      "Impact": "",
      "Href": "",
      "ID": "CVE-2012-1090"
    },
    {
      "Impact": "",
      "Href": "",
      "ID": "CVE-2012-1097"
    }
  ],
  "Issued": {
    "Date": "2012-04-17"
  }
}