{
  "Title": "RHSA-2012:1461: libproxy security update (Moderate)",
  "Description": "libproxy is a library that handles all the details of proxy configuration.\nA buffer overflow flaw was found in the way libproxy handled the\ndownloading of proxy auto-configuration (PAC) files. A malicious server\nhosting a PAC file or a man-in-the-middle attacker could use this flaw to\ncause an application using libproxy to crash or, possibly, execute\narbitrary code, if the proxy settings obtained by libproxy (from the\nenvironment or the desktop environment settings) instructed the use of a\nPAC proxy configuration. (CVE-2012-4505)\nThis issue was discovered by the Red Hat Security Response Team.\nUsers of libproxy should upgrade to these updated packages, which contain\na backported patch to correct this issue. All applications using libproxy\nmust be restarted for this update to take effect.",
  "Platform": [
    "Red Hat Enterprise Linux 6"
  ],
  "References": [
    {
      "Source": "RHSA",
      "URI": "https://access.redhat.com/errata/RHSA-2012:1461",
      "ID": "RHSA-2012:1461"
    },
    {
      "Source": "CVE",
      "URI": "https://access.redhat.com/security/cve/CVE-2012-4505",
      "ID": "CVE-2012-4505"
    }
  ],
  "Criteria": {
    "Operator": "OR",
    "Criterias": [
      {
        "Operator": "AND",
        "Criterias": [
          {
            "Operator": "OR",
            "Criterias": [
              {
                "Operator": "AND",
                "Criterias": [

                ],
                "Criterions": [
                  {
                    "Comment": "libproxy is earlier than 0:0.3.0-3.el6_3"
                  },
                  {
                    "Comment": "libproxy is signed with Red Hat redhatrelease2 key"
                  }
                ]
              },
              {
                "Operator": "AND",
                "Criterias": [

                ],
                "Criterions": [
                  {
                    "Comment": "libproxy-bin is earlier than 0:0.3.0-3.el6_3"
                  },
                  {
                    "Comment": "libproxy-bin is signed with Red Hat redhatrelease2 key"
                  }
                ]
              },
              {
                "Operator": "AND",
                "Criterias": [

                ],
                "Criterions": [
                  {
                    "Comment": "libproxy-devel is earlier than 0:0.3.0-3.el6_3"
                  },
                  {
                    "Comment": "libproxy-devel is signed with Red Hat redhatrelease2 key"
                  }
                ]
              },
              {
                "Operator": "AND",
                "Criterias": [

                ],
                "Criterions": [
                  {
                    "Comment": "libproxy-gnome is earlier than 0:0.3.0-3.el6_3"
                  },
                  {
                    "Comment": "libproxy-gnome is signed with Red Hat redhatrelease2 key"
                  }
                ]
              },
              {
                "Operator": "AND",
                "Criterias": [

                ],
                "Criterions": [
                  {
                    "Comment": "libproxy-kde is earlier than 0:0.3.0-3.el6_3"
                  },
                  {
                    "Comment": "libproxy-kde is signed with Red Hat redhatrelease2 key"
                  }
                ]
              },
              {
                "Operator": "AND",
                "Criterias": [

                ],
                "Criterions": [
                  {
                    "Comment": "libproxy-mozjs is earlier than 0:0.3.0-3.el6_3"
                  },
                  {
                    "Comment": "libproxy-mozjs is signed with Red Hat redhatrelease2 key"
                  }
                ]
              },
              {
                "Operator": "AND",
                "Criterias": [

                ],
                "Criterions": [
                  {
                    "Comment": "libproxy-python is earlier than 0:0.3.0-3.el6_3"
                  },
                  {
                    "Comment": "libproxy-python is signed with Red Hat redhatrelease2 key"
                  }
                ]
              },
              {
                "Operator": "AND",
                "Criterias": [

                ],
                "Criterions": [
                  {
                    "Comment": "libproxy-webkit is earlier than 0:0.3.0-3.el6_3"
                  },
                  {
                    "Comment": "libproxy-webkit is signed with Red Hat redhatrelease2 key"
                  }
                ]
              }
            ],
            "Criterions": [

            ]
          }
        ],
        "Criterions": [
          {
            "Comment": "Oracle Linux 6 is installed"
          }
        ]
      }
    ],
    "Criterions": [
      {
        "Comment": "Oracle Linux 6 is installed"
      }
    ]
  },
  "Severity": "Moderate",
  "Cves": [
    {
      "Impact": "",
      "Href": "",
      "ID": "CVE-2012-4505"
    }
  ],
  "Issued": {
    "Date": "2012-11-14"
  }
}