{
  "Title": "RHSA-2012:1261: dbus security update (Moderate)",
  "Description": "D-Bus is a system for sending messages between applications. It is used for\nthe system-wide message bus service and as a per-user-login-session\nmessaging facility.\nIt was discovered that the D-Bus library honored environment settings even\nwhen running with elevated privileges. A local attacker could possibly use\nthis flaw to escalate their privileges, by setting specific environment\nvariables before running a setuid or setgid application linked against the\nD-Bus library (libdbus). (CVE-2012-3524)\nNote: With this update, libdbus ignores environment variables when used by\nsetuid or setgid applications. The environment is not ignored when an\napplication gains privileges via file system capabilities; however, no\napplication shipped in Red Hat Enterprise Linux 6 gains privileges via file\nsystem capabilities.\nRed Hat would like to thank Sebastian Krahmer of the SUSE Security Team for\nreporting this issue.\nAll users are advised to upgrade to these updated packages, which contain a\nbackported patch to correct this issue. For the update to take effect, all\nrunning instances of dbus-daemon and all running applications using the\nlibdbus library must be restarted, or the system rebooted.",
  "Platform": [
    "Red Hat Enterprise Linux 6"
  ],
  "References": [
    {
      "Source": "RHSA",
      "URI": "https://access.redhat.com/errata/RHSA-2012:1261",
      "ID": "RHSA-2012:1261"
    },
    {
      "Source": "CVE",
      "URI": "https://access.redhat.com/security/cve/CVE-2012-3524",
      "ID": "CVE-2012-3524"
    }
  ],
  "Criteria": {
    "Operator": "OR",
    "Criterias": [
      {
        "Operator": "AND",
        "Criterias": [
          {
            "Operator": "OR",
            "Criterias": [
              {
                "Operator": "AND",
                "Criterias": [

                ],
                "Criterions": [
                  {
                    "Comment": "dbus is earlier than 1:1.2.24-7.el6_3"
                  },
                  {
                    "Comment": "dbus is signed with Red Hat redhatrelease2 key"
                  }
                ]
              },
              {
                "Operator": "AND",
                "Criterias": [

                ],
                "Criterions": [
                  {
                    "Comment": "dbus-devel is earlier than 1:1.2.24-7.el6_3"
                  },
                  {
                    "Comment": "dbus-devel is signed with Red Hat redhatrelease2 key"
                  }
                ]
              },
              {
                "Operator": "AND",
                "Criterias": [

                ],
                "Criterions": [
                  {
                    "Comment": "dbus-doc is earlier than 1:1.2.24-7.el6_3"
                  },
                  {
                    "Comment": "dbus-doc is signed with Red Hat redhatrelease2 key"
                  }
                ]
              },
              {
                "Operator": "AND",
                "Criterias": [

                ],
                "Criterions": [
                  {
                    "Comment": "dbus-libs is earlier than 1:1.2.24-7.el6_3"
                  },
                  {
                    "Comment": "dbus-libs is signed with Red Hat redhatrelease2 key"
                  }
                ]
              },
              {
                "Operator": "AND",
                "Criterias": [

                ],
                "Criterions": [
                  {
                    "Comment": "dbus-x11 is earlier than 1:1.2.24-7.el6_3"
                  },
                  {
                    "Comment": "dbus-x11 is signed with Red Hat redhatrelease2 key"
                  }
                ]
              }
            ],
            "Criterions": [

            ]
          }
        ],
        "Criterions": [
          {
            "Comment": "Oracle Linux 6 is installed"
          }
        ]
      }
    ],
    "Criterions": [
      {
        "Comment": "Oracle Linux 6 is installed"
      }
    ]
  },
  "Severity": "Moderate",
  "Cves": [
    {
      "Impact": "",
      "Href": "",
      "ID": "CVE-2012-3524"
    }
  ],
  "Issued": {
    "Date": "2012-09-13"
  }
}