{
  "Title": "RHSA-2012:0301: ImageMagick security and bug fix update (Low)",
  "Description": "ImageMagick is an image display and manipulation tool for the X Window\nSystem that can read and write multiple image formats.\nIt was found that ImageMagick utilities tried to load ImageMagick\nconfiguration files from the current working directory. If a user ran an\nImageMagick utility in an attacker-controlled directory containing a\nspecially-crafted ImageMagick configuration file, it could cause the\nutility to execute arbitrary code. (CVE-2010-4167)\nThis update also fixes the following bugs:\n* Previously, the \"identify -verbose\" command failed with an assertion if\nthere was no image information available. An upstream patch has been\napplied, so that GetImageOption() is now called correctly. Now, the\n\"identify -verbose\" command works correctly even if no image information is\navailable. (BZ#502626)\n* Previously, an incorrect use of the semaphore data type led to a\ndeadlock. As a consequence, the ImageMagick utility could become\nunresponsive when converting JPEG files to PDF (Portable Document Format)\nfiles. A patch has been applied to address the deadlock issue, and JPEG\nfiles can now be properly converted to PDF files. (BZ#530592)\n* Previously, running the \"convert\" command with the \"-color\" option failed\nwith a memory allocation error. The source code has been modified to fix\nproblems with memory allocation. Now, using the \"convert\" command with the\n\"-color\" option works correctly. (BZ#616538)\n* Previously, ImageMagick could become unresponsive when using the\n\"display\" command on damaged GIF files. The source code has been revised to\nprevent the issue. ImageMagick now produces an error message in the\ndescribed scenario. A file selector is now opened so the user can choose\nanother image to display. (BZ#693989)\n* Prior to this update, the \"convert\" command did not handle rotated PDF\nfiles correctly. As a consequence, the output was rendered as a portrait\nwith the content being cropped. With this update, the PDF render geometry\nis modified, and the output produced by the \"convert\" command is properly\nrendered as a landscape. (BZ#694922)\nAll users of ImageMagick are advised to upgrade to these updated packages,\nwhich contain backported patches to correct these issues. All running\ninstances of ImageMagick must be restarted for this update to take effect.",
  "Platform": [
    "Red Hat Enterprise Linux 5"
  ],
  "References": [
    {
      "Source": "RHSA",
      "URI": "https://access.redhat.com/errata/RHSA-2012:0301",
      "ID": "RHSA-2012:0301"
    },
    {
      "Source": "CVE",
      "URI": "https://access.redhat.com/security/cve/CVE-2010-4167",
      "ID": "CVE-2010-4167"
    }
  ],
  "Criteria": {
    "Operator": "OR",
    "Criterias": [
      {
        "Operator": "AND",
        "Criterias": [
          {
            "Operator": "OR",
            "Criterias": [
              {
                "Operator": "AND",
                "Criterias": [

                ],
                "Criterions": [
                  {
                    "Comment": "ImageMagick is earlier than 0:6.2.8.0-12.el5"
                  },
                  {
                    "Comment": "ImageMagick is signed with Red Hat redhatrelease2 key"
                  }
                ]
              },
              {
                "Operator": "AND",
                "Criterias": [

                ],
                "Criterions": [
                  {
                    "Comment": "ImageMagick-c++ is earlier than 0:6.2.8.0-12.el5"
                  },
                  {
                    "Comment": "ImageMagick-c++ is signed with Red Hat redhatrelease2 key"
                  }
                ]
              },
              {
                "Operator": "AND",
                "Criterias": [

                ],
                "Criterions": [
                  {
                    "Comment": "ImageMagick-c++-devel is earlier than 0:6.2.8.0-12.el5"
                  },
                  {
                    "Comment": "ImageMagick-c++-devel is signed with Red Hat redhatrelease2 key"
                  }
                ]
              },
              {
                "Operator": "AND",
                "Criterias": [

                ],
                "Criterions": [
                  {
                    "Comment": "ImageMagick-devel is earlier than 0:6.2.8.0-12.el5"
                  },
                  {
                    "Comment": "ImageMagick-devel is signed with Red Hat redhatrelease2 key"
                  }
                ]
              },
              {
                "Operator": "AND",
                "Criterias": [

                ],
                "Criterions": [
                  {
                    "Comment": "ImageMagick-perl is earlier than 0:6.2.8.0-12.el5"
                  },
                  {
                    "Comment": "ImageMagick-perl is signed with Red Hat redhatrelease2 key"
                  }
                ]
              }
            ],
            "Criterions": [

            ]
          }
        ],
        "Criterions": [
          {
            "Comment": "Oracle Linux 5 is installed"
          }
        ]
      }
    ],
    "Criterions": [
      {
        "Comment": "Oracle Linux 5 is installed"
      }
    ]
  },
  "Severity": "Low",
  "Cves": [
    {
      "Impact": "",
      "Href": "",
      "ID": "CVE-2010-4167"
    }
  ],
  "Issued": {
    "Date": "2012-02-21"
  }
}