{
  "Title": "RHSA-2012:0717: bind97 security update (Important)",
  "Description": "The Berkeley Internet Name Domain (BIND) is an implementation of the Domain\nName System (DNS) protocols. BIND includes a DNS server (named); a resolver\nlibrary (routines for applications to use when interfacing with DNS); and\ntools for verifying that the DNS server is operating correctly.\nA flaw was found in the way BIND handled zero length resource data records.\nA malicious owner of a DNS domain could use this flaw to create\nspecially-crafted DNS resource records that would cause a recursive\nresolver or secondary server to crash or, possibly, disclose portions of\nits memory. (CVE-2012-1667)\nA flaw was found in the way BIND handled the updating of cached name server\n(NS) resource records. A malicious owner of a DNS domain could use this\nflaw to keep the domain resolvable by the BIND server even after the\ndelegation was removed from the parent DNS zone. With this update, BIND\nlimits the time-to-live of the replacement record to that of the\ntime-to-live of the record being replaced. (CVE-2012-1033)\nUsers of bind97 are advised to upgrade to these updated packages, which\ncorrect these issues. After installing the update, the BIND daemon (named)\nwill be restarted automatically.",
  "Platform": [
    "Red Hat Enterprise Linux 5"
  ],
  "References": [
    {
      "Source": "RHSA",
      "URI": "https://access.redhat.com/errata/RHSA-2012:0717",
      "ID": "RHSA-2012:0717"
    },
    {
      "Source": "CVE",
      "URI": "https://access.redhat.com/security/cve/CVE-2012-1033",
      "ID": "CVE-2012-1033"
    },
    {
      "Source": "CVE",
      "URI": "https://access.redhat.com/security/cve/CVE-2012-1667",
      "ID": "CVE-2012-1667"
    }
  ],
  "Criteria": {
    "Operator": "OR",
    "Criterias": [
      {
        "Operator": "AND",
        "Criterias": [
          {
            "Operator": "OR",
            "Criterias": [
              {
                "Operator": "AND",
                "Criterias": [

                ],
                "Criterions": [
                  {
                    "Comment": "bind97 is earlier than 32:9.7.0-10.P2.el5_8.1"
                  },
                  {
                    "Comment": "bind97 is signed with Red Hat redhatrelease2 key"
                  }
                ]
              },
              {
                "Operator": "AND",
                "Criterias": [

                ],
                "Criterions": [
                  {
                    "Comment": "bind97-chroot is earlier than 32:9.7.0-10.P2.el5_8.1"
                  },
                  {
                    "Comment": "bind97-chroot is signed with Red Hat redhatrelease2 key"
                  }
                ]
              },
              {
                "Operator": "AND",
                "Criterias": [

                ],
                "Criterions": [
                  {
                    "Comment": "bind97-devel is earlier than 32:9.7.0-10.P2.el5_8.1"
                  },
                  {
                    "Comment": "bind97-devel is signed with Red Hat redhatrelease2 key"
                  }
                ]
              },
              {
                "Operator": "AND",
                "Criterias": [

                ],
                "Criterions": [
                  {
                    "Comment": "bind97-libs is earlier than 32:9.7.0-10.P2.el5_8.1"
                  },
                  {
                    "Comment": "bind97-libs is signed with Red Hat redhatrelease2 key"
                  }
                ]
              },
              {
                "Operator": "AND",
                "Criterias": [

                ],
                "Criterions": [
                  {
                    "Comment": "bind97-utils is earlier than 32:9.7.0-10.P2.el5_8.1"
                  },
                  {
                    "Comment": "bind97-utils is signed with Red Hat redhatrelease2 key"
                  }
                ]
              }
            ],
            "Criterions": [

            ]
          }
        ],
        "Criterions": [
          {
            "Comment": "Oracle Linux 5 is installed"
          }
        ]
      }
    ],
    "Criterions": [
      {
        "Comment": "Oracle Linux 5 is installed"
      }
    ]
  },
  "Severity": "Important",
  "Cves": [
    {
      "Impact": "",
      "Href": "",
      "ID": "CVE-2012-1033"
    },
    {
      "Impact": "",
      "Href": "",
      "ID": "CVE-2012-1667"
    }
  ],
  "Issued": {
    "Date": "2012-06-07"
  }
}