{
  "Title": "RHSA-2012:1265: libxslt security update (Important)",
  "Description": "libxslt is a library for transforming XML files into other textual formats\n(including HTML, plain text, and other XML representations of the\nunderlying data) using the standard XSLT stylesheet transformation\nmechanism.\nA heap-based buffer overflow flaw was found in the way libxslt applied\ntemplates to nodes selected by certain namespaces. An attacker could use\nthis flaw to create a malicious XSL file that, when used by an application\nlinked against libxslt to perform an XSL transformation, could cause the\napplication to crash or, possibly, execute arbitrary code with the\nprivileges of the user running the application. (CVE-2012-2871)\nSeveral denial of service flaws were found in libxslt. An attacker could\nuse these flaws to create a malicious XSL file that, when used by an\napplication linked against libxslt to perform an XSL transformation, could\ncause the application to crash. (CVE-2012-2825, CVE-2012-2870,\nCVE-2011-3970)\nAn information leak could occur if an application using libxslt processed\nan untrusted XPath expression, or used a malicious XSL file to perform an\nXSL transformation. If combined with other flaws, this leak could possibly\nhelp an attacker bypass intended memory corruption protections.\n(CVE-2011-1202)\nAll libxslt users are advised to upgrade to these updated packages, which\ncontain backported patches to resolve these issues. All running\napplications linked against libxslt must be restarted for this update to\ntake effect.",
  "Platform": [
    "Red Hat Enterprise Linux 5",
    "Red Hat Enterprise Linux 6"
  ],
  "References": [
    {
      "Source": "RHSA",
      "URI": "https://access.redhat.com/errata/RHSA-2012:1265",
      "ID": "RHSA-2012:1265"
    },
    {
      "Source": "CVE",
      "URI": "https://access.redhat.com/security/cve/CVE-2011-1202",
      "ID": "CVE-2011-1202"
    },
    {
      "Source": "CVE",
      "URI": "https://access.redhat.com/security/cve/CVE-2011-3970",
      "ID": "CVE-2011-3970"
    },
    {
      "Source": "CVE",
      "URI": "https://access.redhat.com/security/cve/CVE-2012-2825",
      "ID": "CVE-2012-2825"
    },
    {
      "Source": "CVE",
      "URI": "https://access.redhat.com/security/cve/CVE-2012-2870",
      "ID": "CVE-2012-2870"
    },
    {
      "Source": "CVE",
      "URI": "https://access.redhat.com/security/cve/CVE-2012-2871",
      "ID": "CVE-2012-2871"
    },
    {
      "Source": "CVE",
      "URI": "https://access.redhat.com/security/cve/CVE-2012-2893",
      "ID": "CVE-2012-2893"
    }
  ],
  "Criteria": {
    "Operator": "OR",
    "Criterias": [
      {
        "Operator": "AND",
        "Criterias": [
          {
            "Operator": "OR",
            "Criterias": [
              {
                "Operator": "AND",
                "Criterias": [

                ],
                "Criterions": [
                  {
                    "Comment": "libxslt is earlier than 0:1.1.17-4.el5_8.3"
                  },
                  {
                    "Comment": "libxslt is signed with Red Hat redhatrelease2 key"
                  }
                ]
              },
              {
                "Operator": "AND",
                "Criterias": [

                ],
                "Criterions": [
                  {
                    "Comment": "libxslt-devel is earlier than 0:1.1.17-4.el5_8.3"
                  },
                  {
                    "Comment": "libxslt-devel is signed with Red Hat redhatrelease2 key"
                  }
                ]
              },
              {
                "Operator": "AND",
                "Criterias": [

                ],
                "Criterions": [
                  {
                    "Comment": "libxslt-python is earlier than 0:1.1.17-4.el5_8.3"
                  },
                  {
                    "Comment": "libxslt-python is signed with Red Hat redhatrelease2 key"
                  }
                ]
              }
            ],
            "Criterions": [

            ]
          }
        ],
        "Criterions": [
          {
            "Comment": "Oracle Linux 5 is installed"
          }
        ]
      },
      {
        "Operator": "AND",
        "Criterias": [
          {
            "Operator": "OR",
            "Criterias": [
              {
                "Operator": "AND",
                "Criterias": [

                ],
                "Criterions": [
                  {
                    "Comment": "libxslt is earlier than 0:1.1.26-2.el6_3.1"
                  },
                  {
                    "Comment": "libxslt is signed with Red Hat redhatrelease2 key"
                  }
                ]
              },
              {
                "Operator": "AND",
                "Criterias": [

                ],
                "Criterions": [
                  {
                    "Comment": "libxslt-devel is earlier than 0:1.1.26-2.el6_3.1"
                  },
                  {
                    "Comment": "libxslt-devel is signed with Red Hat redhatrelease2 key"
                  }
                ]
              },
              {
                "Operator": "AND",
                "Criterias": [

                ],
                "Criterions": [
                  {
                    "Comment": "libxslt-python is earlier than 0:1.1.26-2.el6_3.1"
                  },
                  {
                    "Comment": "libxslt-python is signed with Red Hat redhatrelease2 key"
                  }
                ]
              }
            ],
            "Criterions": [

            ]
          }
        ],
        "Criterions": [
          {
            "Comment": "Oracle Linux 6 is installed"
          }
        ]
      }
    ],
    "Criterions": [
      {
        "Comment": "Oracle Linux 5 is installed"
      }
    ]
  },
  "Severity": "Important",
  "Cves": [
    {
      "Impact": "",
      "Href": "",
      "ID": "CVE-2011-1202"
    },
    {
      "Impact": "",
      "Href": "",
      "ID": "CVE-2011-3970"
    },
    {
      "Impact": "",
      "Href": "",
      "ID": "CVE-2012-2825"
    },
    {
      "Impact": "",
      "Href": "",
      "ID": "CVE-2012-2870"
    },
    {
      "Impact": "",
      "Href": "",
      "ID": "CVE-2012-2871"
    },
    {
      "Impact": "",
      "Href": "",
      "ID": "CVE-2012-2893"
    }
  ],
  "Issued": {
    "Date": "2012-09-13"
  }
}