{
  "Title": "RHSA-2012:1068: openjpeg security update (Important)",
  "Description": "OpenJPEG is an open source library for reading and writing image files in\nJPEG 2000 format.\nAn input validation flaw, leading to a heap-based buffer overflow, was\nfound in the way OpenJPEG handled the tile number and size in an image tile\nheader. A remote attacker could provide a specially-crafted image file\nthat, when decoded using an application linked against OpenJPEG, would\ncause the application to crash or, potentially, execute arbitrary code with\nthe privileges of the user running the application. (CVE-2012-3358)\nOpenJPEG allocated insufficient memory when encoding JPEG 2000 files from\ninput images that have certain color depths. A remote attacker could\nprovide a specially-crafted image file that, when opened in an application\nlinked against OpenJPEG (such as image_to_j2k), would cause the application\nto crash or, potentially, execute arbitrary code with the privileges of the\nuser running the application. (CVE-2009-5030)\nUsers of OpenJPEG should upgrade to these updated packages, which contain\npatches to correct these issues. All running applications using OpenJPEG\nmust be restarted for the update to take effect.",
  "Platform": [
    "Red Hat Enterprise Linux 6"
  ],
  "References": [
    {
      "Source": "RHSA",
      "URI": "https://access.redhat.com/errata/RHSA-2012:1068",
      "ID": "RHSA-2012:1068"
    },
    {
      "Source": "CVE",
      "URI": "https://access.redhat.com/security/cve/CVE-2009-5030",
      "ID": "CVE-2009-5030"
    },
    {
      "Source": "CVE",
      "URI": "https://access.redhat.com/security/cve/CVE-2012-3358",
      "ID": "CVE-2012-3358"
    }
  ],
  "Criteria": {
    "Operator": "OR",
    "Criterias": [
      {
        "Operator": "AND",
        "Criterias": [
          {
            "Operator": "OR",
            "Criterias": [
              {
                "Operator": "AND",
                "Criterias": [

                ],
                "Criterions": [
                  {
                    "Comment": "openjpeg is earlier than 0:1.3-8.el6_3"
                  },
                  {
                    "Comment": "openjpeg is signed with Red Hat redhatrelease2 key"
                  }
                ]
              },
              {
                "Operator": "AND",
                "Criterias": [

                ],
                "Criterions": [
                  {
                    "Comment": "openjpeg-devel is earlier than 0:1.3-8.el6_3"
                  },
                  {
                    "Comment": "openjpeg-devel is signed with Red Hat redhatrelease2 key"
                  }
                ]
              },
              {
                "Operator": "AND",
                "Criterias": [

                ],
                "Criterions": [
                  {
                    "Comment": "openjpeg-libs is earlier than 0:1.3-8.el6_3"
                  },
                  {
                    "Comment": "openjpeg-libs is signed with Red Hat redhatrelease2 key"
                  }
                ]
              }
            ],
            "Criterions": [

            ]
          }
        ],
        "Criterions": [
          {
            "Comment": "Oracle Linux 6 is installed"
          }
        ]
      }
    ],
    "Criterions": [
      {
        "Comment": "Oracle Linux 6 is installed"
      }
    ]
  },
  "Severity": "Important",
  "Cves": [
    {
      "Impact": "",
      "Href": "",
      "ID": "CVE-2009-5030"
    },
    {
      "Impact": "",
      "Href": "",
      "ID": "CVE-2012-3358"
    }
  ],
  "Issued": {
    "Date": "2012-07-11"
  }
}