{
  "Title": "RHSA-2012:0813: 389-ds-base security, bug fix, and enhancement update (Low)",
  "Description": "The 389 Directory Server is an LDAPv3 compliant server. The base packages\ninclude the Lightweight Directory Access Protocol (LDAP) server and\ncommand-line utilities for server administration.\nA flaw was found in the way the 389 Directory Server daemon (ns-slapd)\nhandled access control instructions (ACIs) using certificate groups. If an\nLDAP user that had a certificate group defined attempted to bind to the\ndirectory server, it would cause ns-slapd to enter an infinite loop and\nconsume an excessive amount of CPU time. (CVE-2012-0833)\nRed Hat would like to thank Graham Leggett for reporting this issue.\nThese updated 389-ds-base packages also include numerous bug fixes and\nenhancements. Space precludes documenting all of these changes in this\nadvisory. Users are directed to the Red Hat Enterprise Linux 6.3 Technical\nNotes for information on the most significant of these changes.\nUsers are advised to upgrade to these updated 389-ds-base packages, which\nresolve these issues and add these enhancements. After installing this\nupdate, the 389 server service will be restarted automatically.",
  "Platform": [
    "Red Hat Enterprise Linux 6"
  ],
  "References": [
    {
      "Source": "RHSA",
      "URI": "https://access.redhat.com/errata/RHSA-2012:0813",
      "ID": "RHSA-2012:0813"
    },
    {
      "Source": "CVE",
      "URI": "https://access.redhat.com/security/cve/CVE-2012-0833",
      "ID": "CVE-2012-0833"
    }
  ],
  "Criteria": {
    "Operator": "OR",
    "Criterias": [
      {
        "Operator": "AND",
        "Criterias": [
          {
            "Operator": "OR",
            "Criterias": [
              {
                "Operator": "AND",
                "Criterias": [

                ],
                "Criterions": [
                  {
                    "Comment": "389-ds-base is earlier than 0:1.2.10.2-15.el6"
                  },
                  {
                    "Comment": "389-ds-base is signed with Red Hat redhatrelease2 key"
                  }
                ]
              },
              {
                "Operator": "AND",
                "Criterias": [

                ],
                "Criterions": [
                  {
                    "Comment": "389-ds-base-devel is earlier than 0:1.2.10.2-15.el6"
                  },
                  {
                    "Comment": "389-ds-base-devel is signed with Red Hat redhatrelease2 key"
                  }
                ]
              },
              {
                "Operator": "AND",
                "Criterias": [

                ],
                "Criterions": [
                  {
                    "Comment": "389-ds-base-libs is earlier than 0:1.2.10.2-15.el6"
                  },
                  {
                    "Comment": "389-ds-base-libs is signed with Red Hat redhatrelease2 key"
                  }
                ]
              }
            ],
            "Criterions": [

            ]
          }
        ],
        "Criterions": [
          {
            "Comment": "Oracle Linux 6 is installed"
          }
        ]
      }
    ],
    "Criterions": [
      {
        "Comment": "Oracle Linux 6 is installed"
      }
    ]
  },
  "Severity": "Low",
  "Cves": [
    {
      "Impact": "",
      "Href": "",
      "ID": "CVE-2012-0833"
    }
  ],
  "Issued": {
    "Date": "2012-06-19"
  }
}