{
  "Title": "RHSA-2012:1181: gimp security update (Moderate)",
  "Description": "The GIMP (GNU Image Manipulation Program) is an image composition and\nediting program.\nMultiple integer overflow flaws, leading to heap-based buffer overflows,\nwere found in the GIMP's Adobe Photoshop (PSD) image file plug-in. An\nattacker could create a specially-crafted PSD image file that, when opened,\ncould cause the PSD plug-in to crash or, potentially, execute arbitrary\ncode with the privileges of the user running the GIMP. (CVE-2009-3909,\nCVE-2012-3402)\nAn integer overflow flaw, leading to a heap-based buffer overflow, was\nfound in the GIMP's GIF image format plug-in. An attacker could create a\nspecially-crafted GIF image file that, when opened, could cause the GIF\nplug-in to crash or, potentially, execute arbitrary code with the\nprivileges of the user running the GIMP. (CVE-2012-3481)\nA heap-based buffer overflow flaw was found in the Lempel-Ziv-Welch (LZW)\ndecompression algorithm implementation used by the GIMP's GIF image format\nplug-in. An attacker could create a specially-crafted GIF image file that,\nwhen opened, could cause the GIF plug-in to crash or, potentially, execute\narbitrary code with the privileges of the user running the GIMP.\n(CVE-2011-2896)\nA heap-based buffer overflow flaw was found in the GIMP's KiSS CEL file\nformat plug-in. An attacker could create a specially-crafted KiSS palette\nfile that, when opened, could cause the CEL plug-in to crash or,\npotentially, execute arbitrary code with the privileges of the user running\nthe GIMP. (CVE-2012-3403)\nRed Hat would like to thank Secunia Research for reporting CVE-2009-3909,\nand Matthias Weckbecker of the SUSE Security Team for reporting\nCVE-2012-3481.\nUsers of the GIMP are advised to upgrade to these updated packages, which\ncontain backported patches to correct these issues. The GIMP must be\nrestarted for the update to take effect.",
  "Platform": [
    "Red Hat Enterprise Linux 5"
  ],
  "References": [
    {
      "Source": "RHSA",
      "URI": "https://access.redhat.com/errata/RHSA-2012:1181",
      "ID": "RHSA-2012:1181"
    },
    {
      "Source": "CVE",
      "URI": "https://access.redhat.com/security/cve/CVE-2009-3909",
      "ID": "CVE-2009-3909"
    },
    {
      "Source": "CVE",
      "URI": "https://access.redhat.com/security/cve/CVE-2011-2896",
      "ID": "CVE-2011-2896"
    },
    {
      "Source": "CVE",
      "URI": "https://access.redhat.com/security/cve/CVE-2012-3402",
      "ID": "CVE-2012-3402"
    },
    {
      "Source": "CVE",
      "URI": "https://access.redhat.com/security/cve/CVE-2012-3403",
      "ID": "CVE-2012-3403"
    },
    {
      "Source": "CVE",
      "URI": "https://access.redhat.com/security/cve/CVE-2012-3481",
      "ID": "CVE-2012-3481"
    }
  ],
  "Criteria": {
    "Operator": "OR",
    "Criterias": [
      {
        "Operator": "AND",
        "Criterias": [
          {
            "Operator": "OR",
            "Criterias": [
              {
                "Operator": "AND",
                "Criterias": [

                ],
                "Criterions": [
                  {
                    "Comment": "gimp is earlier than 2:2.2.13-2.0.7.el5_8.5"
                  },
                  {
                    "Comment": "gimp is signed with Red Hat redhatrelease2 key"
                  }
                ]
              },
              {
                "Operator": "AND",
                "Criterias": [

                ],
                "Criterions": [
                  {
                    "Comment": "gimp-devel is earlier than 2:2.2.13-2.0.7.el5_8.5"
                  },
                  {
                    "Comment": "gimp-devel is signed with Red Hat redhatrelease2 key"
                  }
                ]
              },
              {
                "Operator": "AND",
                "Criterias": [

                ],
                "Criterions": [
                  {
                    "Comment": "gimp-libs is earlier than 2:2.2.13-2.0.7.el5_8.5"
                  },
                  {
                    "Comment": "gimp-libs is signed with Red Hat redhatrelease2 key"
                  }
                ]
              }
            ],
            "Criterions": [

            ]
          }
        ],
        "Criterions": [
          {
            "Comment": "Oracle Linux 5 is installed"
          }
        ]
      }
    ],
    "Criterions": [
      {
        "Comment": "Oracle Linux 5 is installed"
      }
    ]
  },
  "Severity": "Moderate",
  "Cves": [
    {
      "Impact": "",
      "Href": "",
      "ID": "CVE-2009-3909"
    },
    {
      "Impact": "",
      "Href": "",
      "ID": "CVE-2011-2896"
    },
    {
      "Impact": "",
      "Href": "",
      "ID": "CVE-2012-3402"
    },
    {
      "Impact": "",
      "Href": "",
      "ID": "CVE-2012-3403"
    },
    {
      "Impact": "",
      "Href": "",
      "ID": "CVE-2012-3481"
    }
  ],
  "Issued": {
    "Date": "2012-08-20"
  }
}