{
  "Title": "RHSA-2012:0376: systemtap security update (Moderate)",
  "Description": "SystemTap is an instrumentation system for systems running the Linux\nkernel. The system allows developers to write scripts to collect data on\nthe operation of the system.\nAn invalid pointer read flaw was found in the way SystemTap handled\nmalformed debugging information in DWARF format. When SystemTap\nunprivileged mode was enabled, an unprivileged user in the stapusr group\ncould use this flaw to crash the system or, potentially, read arbitrary\nkernel memory. Additionally, a privileged user (root, or a member of the\nstapdev group) could trigger this flaw when tricked into instrumenting a\nspecially-crafted ELF binary, even when unprivileged mode was not enabled.\n(CVE-2012-0875)\nSystemTap users should upgrade to these updated packages, which contain a\nbackported patch to correct this issue.",
  "Platform": [
    "Red Hat Enterprise Linux 5",
    "Red Hat Enterprise Linux 6"
  ],
  "References": [
    {
      "Source": "RHSA",
      "URI": "https://access.redhat.com/errata/RHSA-2012:0376",
      "ID": "RHSA-2012:0376"
    },
    {
      "Source": "CVE",
      "URI": "https://access.redhat.com/security/cve/CVE-2012-0875",
      "ID": "CVE-2012-0875"
    }
  ],
  "Criteria": {
    "Operator": "OR",
    "Criterias": [
      {
        "Operator": "AND",
        "Criterias": [
          {
            "Operator": "OR",
            "Criterias": [
              {
                "Operator": "AND",
                "Criterias": [

                ],
                "Criterions": [
                  {
                    "Comment": "systemtap is earlier than 0:1.6-5.el6_2"
                  },
                  {
                    "Comment": "systemtap is signed with Red Hat redhatrelease2 key"
                  }
                ]
              },
              {
                "Operator": "AND",
                "Criterias": [

                ],
                "Criterions": [
                  {
                    "Comment": "systemtap-grapher is earlier than 0:1.6-5.el6_2"
                  },
                  {
                    "Comment": "systemtap-grapher is signed with Red Hat redhatrelease2 key"
                  }
                ]
              },
              {
                "Operator": "AND",
                "Criterias": [

                ],
                "Criterions": [
                  {
                    "Comment": "systemtap-initscript is earlier than 0:1.6-5.el6_2"
                  },
                  {
                    "Comment": "systemtap-initscript is signed with Red Hat redhatrelease2 key"
                  }
                ]
              },
              {
                "Operator": "AND",
                "Criterias": [

                ],
                "Criterions": [
                  {
                    "Comment": "systemtap-runtime is earlier than 0:1.6-5.el6_2"
                  },
                  {
                    "Comment": "systemtap-runtime is signed with Red Hat redhatrelease2 key"
                  }
                ]
              },
              {
                "Operator": "AND",
                "Criterias": [

                ],
                "Criterions": [
                  {
                    "Comment": "systemtap-sdt-devel is earlier than 0:1.6-5.el6_2"
                  },
                  {
                    "Comment": "systemtap-sdt-devel is signed with Red Hat redhatrelease2 key"
                  }
                ]
              },
              {
                "Operator": "AND",
                "Criterias": [

                ],
                "Criterions": [
                  {
                    "Comment": "systemtap-server is earlier than 0:1.6-5.el6_2"
                  },
                  {
                    "Comment": "systemtap-server is signed with Red Hat redhatrelease2 key"
                  }
                ]
              },
              {
                "Operator": "AND",
                "Criterias": [

                ],
                "Criterions": [
                  {
                    "Comment": "systemtap-testsuite is earlier than 0:1.6-5.el6_2"
                  },
                  {
                    "Comment": "systemtap-testsuite is signed with Red Hat redhatrelease2 key"
                  }
                ]
              }
            ],
            "Criterions": [

            ]
          }
        ],
        "Criterions": [
          {
            "Comment": "Oracle Linux 6 is installed"
          }
        ]
      },
      {
        "Operator": "AND",
        "Criterias": [
          {
            "Operator": "OR",
            "Criterias": [
              {
                "Operator": "AND",
                "Criterias": [

                ],
                "Criterions": [
                  {
                    "Comment": "systemtap is earlier than 0:1.6-7.el5_8"
                  },
                  {
                    "Comment": "systemtap is signed with Red Hat redhatrelease2 key"
                  }
                ]
              },
              {
                "Operator": "AND",
                "Criterias": [

                ],
                "Criterions": [
                  {
                    "Comment": "systemtap-initscript is earlier than 0:1.6-7.el5_8"
                  },
                  {
                    "Comment": "systemtap-initscript is signed with Red Hat redhatrelease2 key"
                  }
                ]
              },
              {
                "Operator": "AND",
                "Criterias": [

                ],
                "Criterions": [
                  {
                    "Comment": "systemtap-runtime is earlier than 0:1.6-7.el5_8"
                  },
                  {
                    "Comment": "systemtap-runtime is signed with Red Hat redhatrelease2 key"
                  }
                ]
              },
              {
                "Operator": "AND",
                "Criterias": [

                ],
                "Criterions": [
                  {
                    "Comment": "systemtap-sdt-devel is earlier than 0:1.6-7.el5_8"
                  },
                  {
                    "Comment": "systemtap-sdt-devel is signed with Red Hat redhatrelease2 key"
                  }
                ]
              },
              {
                "Operator": "AND",
                "Criterias": [

                ],
                "Criterions": [
                  {
                    "Comment": "systemtap-server is earlier than 0:1.6-7.el5_8"
                  },
                  {
                    "Comment": "systemtap-server is signed with Red Hat redhatrelease2 key"
                  }
                ]
              },
              {
                "Operator": "AND",
                "Criterias": [

                ],
                "Criterions": [
                  {
                    "Comment": "systemtap-testsuite is earlier than 0:1.6-7.el5_8"
                  },
                  {
                    "Comment": "systemtap-testsuite is signed with Red Hat redhatrelease2 key"
                  }
                ]
              }
            ],
            "Criterions": [

            ]
          }
        ],
        "Criterions": [
          {
            "Comment": "Oracle Linux 5 is installed"
          }
        ]
      }
    ],
    "Criterions": [
      {
        "Comment": "Oracle Linux 5 is installed"
      }
    ]
  },
  "Severity": "Moderate",
  "Cves": [
    {
      "Impact": "",
      "Href": "",
      "ID": "CVE-2012-0875"
    }
  ],
  "Issued": {
    "Date": "2012-03-08"
  }
}