{
  "Title": "RHSA-2012:0388: thunderbird security update (Critical)",
  "Description": "Mozilla Thunderbird is a standalone mail and newsgroup client.\nSeveral flaws were found in the processing of malformed content. Malicious\ncontent could cause Thunderbird to crash or, potentially, execute arbitrary\ncode with the privileges of the user running Thunderbird. (CVE-2012-0461,\nCVE-2012-0462, CVE-2012-0464)\nTwo flaws were found in the way Thunderbird parsed certain Scalable Vector\nGraphics (SVG) image files. An HTML mail message containing a malicious SVG\nimage file could cause an information leak, or cause Thunderbird to crash\nor, potentially, execute arbitrary code with the privileges of the user\nrunning Thunderbird. (CVE-2012-0456, CVE-2012-0457)\nA flaw could allow malicious content to bypass intended restrictions,\npossibly leading to a cross-site scripting (XSS) attack if a user were\ntricked into dropping a \"javascript:\" link onto a frame. (CVE-2012-0455)\nIt was found that the home page could be set to a \"javascript:\" link. If a\nuser were tricked into setting such a home page by dragging a link to the\nhome button, it could cause Firefox to repeatedly crash, eventually leading\nto arbitrary code execution with the privileges of the user running\nFirefox. A similar flaw was found and fixed in Thunderbird. (CVE-2012-0458)\nA flaw was found in the way Thunderbird parsed certain, remote content\ncontaining \"cssText\". Malicious, remote content could cause Thunderbird to\ncrash or, potentially, execute arbitrary code with the privileges of the\nuser running Thunderbird. (CVE-2012-0459)\nIt was found that by using the DOM fullscreen API, untrusted content could\nbypass the mozRequestFullscreen security protections. Malicious content\ncould exploit this API flaw to cause user interface spoofing.\n(CVE-2012-0460)\nA flaw was found in the way Thunderbird handled content with multiple\nContent Security Policy (CSP) headers. This could lead to a cross-site\nscripting attack if used in conjunction with a website that has a header\ninjection flaw. (CVE-2012-0451)\nNote: All issues except CVE-2012-0456 and CVE-2012-0457 cannot be exploited\nby a specially-crafted HTML mail message as JavaScript is disabled by\ndefault for mail messages. It could be exploited another way in\nThunderbird, for example, when viewing the full remote content of an RSS\nfeed.\nAll Thunderbird users should upgrade to this updated package, which\ncontains Thunderbird version 10.0.3 ESR, which corrects these issues. After\ninstalling the update, Thunderbird must be restarted for the changes to\ntake effect.",
  "Platform": [
    "Red Hat Enterprise Linux 5",
    "Red Hat Enterprise Linux 6"
  ],
  "References": [
    {
      "Source": "RHSA",
      "URI": "https://access.redhat.com/errata/RHSA-2012:0388",
      "ID": "RHSA-2012:0388"
    },
    {
      "Source": "CVE",
      "URI": "https://access.redhat.com/security/cve/CVE-2012-0451",
      "ID": "CVE-2012-0451"
    },
    {
      "Source": "CVE",
      "URI": "https://access.redhat.com/security/cve/CVE-2012-0455",
      "ID": "CVE-2012-0455"
    },
    {
      "Source": "CVE",
      "URI": "https://access.redhat.com/security/cve/CVE-2012-0456",
      "ID": "CVE-2012-0456"
    },
    {
      "Source": "CVE",
      "URI": "https://access.redhat.com/security/cve/CVE-2012-0457",
      "ID": "CVE-2012-0457"
    },
    {
      "Source": "CVE",
      "URI": "https://access.redhat.com/security/cve/CVE-2012-0458",
      "ID": "CVE-2012-0458"
    },
    {
      "Source": "CVE",
      "URI": "https://access.redhat.com/security/cve/CVE-2012-0459",
      "ID": "CVE-2012-0459"
    },
    {
      "Source": "CVE",
      "URI": "https://access.redhat.com/security/cve/CVE-2012-0460",
      "ID": "CVE-2012-0460"
    },
    {
      "Source": "CVE",
      "URI": "https://access.redhat.com/security/cve/CVE-2012-0461",
      "ID": "CVE-2012-0461"
    },
    {
      "Source": "CVE",
      "URI": "https://access.redhat.com/security/cve/CVE-2012-0462",
      "ID": "CVE-2012-0462"
    },
    {
      "Source": "CVE",
      "URI": "https://access.redhat.com/security/cve/CVE-2012-0464",
      "ID": "CVE-2012-0464"
    }
  ],
  "Criteria": {
    "Operator": "OR",
    "Criterias": [
      {
        "Operator": "AND",
        "Criterias": [

        ],
        "Criterions": [
          {
            "Comment": "Oracle Linux 6 is installed"
          },
          {
            "Comment": "thunderbird is earlier than 0:10.0.3-1.el6_2"
          },
          {
            "Comment": "thunderbird is signed with Red Hat redhatrelease2 key"
          }
        ]
      },
      {
        "Operator": "AND",
        "Criterias": [

        ],
        "Criterions": [
          {
            "Comment": "Oracle Linux 5 is installed"
          },
          {
            "Comment": "thunderbird is earlier than 0:10.0.3-1.el5_8"
          },
          {
            "Comment": "thunderbird is signed with Red Hat redhatrelease2 key"
          }
        ]
      }
    ],
    "Criterions": [
      {
        "Comment": "Oracle Linux 5 is installed"
      }
    ]
  },
  "Severity": "Critical",
  "Cves": [
    {
      "Impact": "",
      "Href": "",
      "ID": "CVE-2012-0451"
    },
    {
      "Impact": "",
      "Href": "",
      "ID": "CVE-2012-0455"
    },
    {
      "Impact": "",
      "Href": "",
      "ID": "CVE-2012-0456"
    },
    {
      "Impact": "",
      "Href": "",
      "ID": "CVE-2012-0457"
    },
    {
      "Impact": "",
      "Href": "",
      "ID": "CVE-2012-0458"
    },
    {
      "Impact": "",
      "Href": "",
      "ID": "CVE-2012-0459"
    },
    {
      "Impact": "",
      "Href": "",
      "ID": "CVE-2012-0460"
    },
    {
      "Impact": "",
      "Href": "",
      "ID": "CVE-2012-0461"
    },
    {
      "Impact": "",
      "Href": "",
      "ID": "CVE-2012-0462"
    },
    {
      "Impact": "",
      "Href": "",
      "ID": "CVE-2012-0464"
    }
  ],
  "Issued": {
    "Date": "2012-03-14"
  }
}