{
  "Title": "RHSA-2012:1207: glibc security and bug fix update (Moderate)",
  "Description": "The glibc packages provide the standard C and standard math libraries used\nby multiple programs on the system. Without these libraries, the Linux\nsystem cannot function properly.\nMultiple integer overflow flaws, leading to stack-based buffer overflows,\nwere found in glibc's functions for converting a string to a numeric\nrepresentation (strtod(), strtof(), and strtold()). If an application used\nsuch a function on attacker controlled input, it could cause the\napplication to crash or, potentially, execute arbitrary code.\n(CVE-2012-3480)\nThis update also fixes the following bug:\n* Previously, logic errors in various mathematical functions, including\nexp, exp2, expf, exp2f, pow, sin, tan, and rint, caused inconsistent\nresults when the functions were used with the non-default rounding mode.\nThis could also cause applications to crash in some cases. With this\nupdate, the functions now give correct results across the four different\nrounding modes. (BZ#839411)\nAll users of glibc are advised to upgrade to these updated packages, which\ncontain backported patches to correct these issues.",
  "Platform": [
    "Red Hat Enterprise Linux 5"
  ],
  "References": [
    {
      "Source": "RHSA",
      "URI": "https://access.redhat.com/errata/RHSA-2012:1207",
      "ID": "RHSA-2012:1207"
    },
    {
      "Source": "CVE",
      "URI": "https://access.redhat.com/security/cve/CVE-2012-3480",
      "ID": "CVE-2012-3480"
    }
  ],
  "Criteria": {
    "Operator": "OR",
    "Criterias": [
      {
        "Operator": "AND",
        "Criterias": [
          {
            "Operator": "OR",
            "Criterias": [
              {
                "Operator": "AND",
                "Criterias": [

                ],
                "Criterions": [
                  {
                    "Comment": "glibc is earlier than 0:2.5-81.el5_8.7"
                  },
                  {
                    "Comment": "glibc is signed with Red Hat redhatrelease2 key"
                  }
                ]
              },
              {
                "Operator": "AND",
                "Criterias": [

                ],
                "Criterions": [
                  {
                    "Comment": "glibc-common is earlier than 0:2.5-81.el5_8.7"
                  },
                  {
                    "Comment": "glibc-common is signed with Red Hat redhatrelease2 key"
                  }
                ]
              },
              {
                "Operator": "AND",
                "Criterias": [

                ],
                "Criterions": [
                  {
                    "Comment": "glibc-devel is earlier than 0:2.5-81.el5_8.7"
                  },
                  {
                    "Comment": "glibc-devel is signed with Red Hat redhatrelease2 key"
                  }
                ]
              },
              {
                "Operator": "AND",
                "Criterias": [

                ],
                "Criterions": [
                  {
                    "Comment": "glibc-headers is earlier than 0:2.5-81.el5_8.7"
                  },
                  {
                    "Comment": "glibc-headers is signed with Red Hat redhatrelease2 key"
                  }
                ]
              },
              {
                "Operator": "AND",
                "Criterias": [

                ],
                "Criterions": [
                  {
                    "Comment": "glibc-utils is earlier than 0:2.5-81.el5_8.7"
                  },
                  {
                    "Comment": "glibc-utils is signed with Red Hat redhatrelease2 key"
                  }
                ]
              },
              {
                "Operator": "AND",
                "Criterias": [

                ],
                "Criterions": [
                  {
                    "Comment": "nscd is earlier than 0:2.5-81.el5_8.7"
                  },
                  {
                    "Comment": "nscd is signed with Red Hat redhatrelease2 key"
                  }
                ]
              }
            ],
            "Criterions": [

            ]
          }
        ],
        "Criterions": [
          {
            "Comment": "Oracle Linux 5 is installed"
          }
        ]
      }
    ],
    "Criterions": [
      {
        "Comment": "Oracle Linux 5 is installed"
      }
    ]
  },
  "Severity": "Moderate",
  "Cves": [
    {
      "Impact": "",
      "Href": "",
      "ID": "CVE-2012-3480"
    }
  ],
  "Issued": {
    "Date": "2012-08-27"
  }
}