{
  "Title": "RHSA-2012:0096: ghostscript security update (Moderate)",
  "Description": "Ghostscript is a set of software that provides a PostScript interpreter, a\nset of C procedures (the Ghostscript library, which implements the graphics\ncapabilities in the PostScript language) and an interpreter for Portable\nDocument Format (PDF) files.\nGhostscript included the current working directory in its library search\npath by default. If a user ran Ghostscript without the \"-P-\" option in an\nattacker-controlled directory containing a specially-crafted PostScript\nlibrary file, it could cause Ghostscript to execute arbitrary PostScript\ncode. With this update, Ghostscript no longer searches the current working\ndirectory for library files by default. (CVE-2010-4820)\nNote: The fix for CVE-2010-4820 could possibly break existing\nconfigurations. To use the previous, vulnerable behavior, run Ghostscript\nwith the \"-P\" option (to always search the current working directory\nfirst).\nA flaw was found in the way Ghostscript interpreted PostScript Type 1 and\nPostScript Type 2 font files. An attacker could create a specially-crafted\nPostScript Type 1 or PostScript Type 2 font file that, when interpreted,\ncould cause Ghostscript to crash or, potentially, execute arbitrary code.\n(CVE-2010-4054)\nUsers of Ghostscript are advised to upgrade to these updated packages,\nwhich contain backported patches to correct these issues.",
  "Platform": [
    "Red Hat Enterprise Linux 4"
  ],
  "References": [
    {
      "Source": "RHSA",
      "URI": "https://access.redhat.com/errata/RHSA-2012:0096",
      "ID": "RHSA-2012:0096"
    },
    {
      "Source": "CVE",
      "URI": "https://access.redhat.com/security/cve/CVE-2010-4054",
      "ID": "CVE-2010-4054"
    },
    {
      "Source": "CVE",
      "URI": "https://access.redhat.com/security/cve/CVE-2010-4820",
      "ID": "CVE-2010-4820"
    }
  ],
  "Criteria": {
    "Operator": "OR",
    "Criterias": [
      {
        "Operator": "AND",
        "Criterias": [
          {
            "Operator": "OR",
            "Criterias": [
              {
                "Operator": "AND",
                "Criterias": [

                ],
                "Criterions": [
                  {
                    "Comment": "ghostscript is earlier than 0:7.07-33.13.el4"
                  },
                  {
                    "Comment": "ghostscript is signed with Red Hat redhatrelease2 key"
                  }
                ]
              },
              {
                "Operator": "AND",
                "Criterias": [

                ],
                "Criterions": [
                  {
                    "Comment": "ghostscript-devel is earlier than 0:7.07-33.13.el4"
                  },
                  {
                    "Comment": "ghostscript-devel is signed with Red Hat redhatrelease2 key"
                  }
                ]
              },
              {
                "Operator": "AND",
                "Criterias": [

                ],
                "Criterions": [
                  {
                    "Comment": "ghostscript-gtk is earlier than 0:7.07-33.13.el4"
                  },
                  {
                    "Comment": "ghostscript-gtk is signed with Red Hat redhatrelease2 key"
                  }
                ]
              }
            ],
            "Criterions": [

            ]
          }
        ],
        "Criterions": [
          {
            "Comment": "Oracle Linux 4 is installed"
          }
        ]
      }
    ],
    "Criterions": [
      {
        "Comment": "Oracle Linux 4 is installed"
      }
    ]
  },
  "Severity": "Moderate",
  "Cves": [
    {
      "Impact": "",
      "Href": "",
      "ID": "CVE-2010-4054"
    },
    {
      "Impact": "",
      "Href": "",
      "ID": "CVE-2010-4820"
    }
  ],
  "Issued": {
    "Date": "2012-02-02"
  }
}