{
  "Title": "RHSA-2023:0611: git security update (Important)",
  "Description": "Git is a distributed revision control system with a decentralized architecture. As opposed to centralized version control systems with a client-server model, Git ensures that each working copy of a Git repository is an exact copy with complete revision history. This not only allows the user to work on and contribute to projects without the need to have permission to push the changes to their official repositories, but also makes it possible for the user to work with no network connection.\nSecurity Fix(es):\n* git: gitattributes parsing integer overflow (CVE-2022-23521)\n* git: Heap overflow in `git archive`, `git log --format` leading to RCE (CVE-2022-41903)\nFor more details about the security issue(s), including the impact, a CVSS score, acknowledgments, and other related information, refer to the CVE page(s) listed in the References section.",
  "Platform": [
    "Red Hat Enterprise Linux 9"
  ],
  "References": [
    {
      "Source": "RHSA",
      "URI": "https://access.redhat.com/errata/RHSA-2023:0611",
      "ID": "RHSA-2023:0611"
    },
    {
      "Source": "CVE",
      "URI": "https://access.redhat.com/security/cve/CVE-2022-23521",
      "ID": "CVE-2022-23521"
    },
    {
      "Source": "CVE",
      "URI": "https://access.redhat.com/security/cve/CVE-2022-41903",
      "ID": "CVE-2022-41903"
    }
  ],
  "Criteria": {
    "Operator": "OR",
    "Criterias": [
      {
        "Operator": "AND",
        "Criterias": [
          {
            "Operator": "OR",
            "Criterias": [
              {
                "Operator": "AND",
                "Criterias": [

                ],
                "Criterions": [
                  {
                    "Comment": "git is earlier than 0:2.31.1-3.el9_1"
                  },
                  {
                    "Comment": "git is signed with Red Hat redhatrelease2 key"
                  }
                ]
              },
              {
                "Operator": "AND",
                "Criterias": [

                ],
                "Criterions": [
                  {
                    "Comment": "git-all is earlier than 0:2.31.1-3.el9_1"
                  },
                  {
                    "Comment": "git-all is signed with Red Hat redhatrelease2 key"
                  }
                ]
              },
              {
                "Operator": "AND",
                "Criterias": [

                ],
                "Criterions": [
                  {
                    "Comment": "git-core is earlier than 0:2.31.1-3.el9_1"
                  },
                  {
                    "Comment": "git-core is signed with Red Hat redhatrelease2 key"
                  }
                ]
              },
              {
                "Operator": "AND",
                "Criterias": [

                ],
                "Criterions": [
                  {
                    "Comment": "git-core-doc is earlier than 0:2.31.1-3.el9_1"
                  },
                  {
                    "Comment": "git-core-doc is signed with Red Hat redhatrelease2 key"
                  }
                ]
              },
              {
                "Operator": "AND",
                "Criterias": [

                ],
                "Criterions": [
                  {
                    "Comment": "git-credential-libsecret is earlier than 0:2.31.1-3.el9_1"
                  },
                  {
                    "Comment": "git-credential-libsecret is signed with Red Hat redhatrelease2 key"
                  }
                ]
              },
              {
                "Operator": "AND",
                "Criterias": [

                ],
                "Criterions": [
                  {
                    "Comment": "git-daemon is earlier than 0:2.31.1-3.el9_1"
                  },
                  {
                    "Comment": "git-daemon is signed with Red Hat redhatrelease2 key"
                  }
                ]
              },
              {
                "Operator": "AND",
                "Criterias": [

                ],
                "Criterions": [
                  {
                    "Comment": "git-email is earlier than 0:2.31.1-3.el9_1"
                  },
                  {
                    "Comment": "git-email is signed with Red Hat redhatrelease2 key"
                  }
                ]
              },
              {
                "Operator": "AND",
                "Criterias": [

                ],
                "Criterions": [
                  {
                    "Comment": "git-gui is earlier than 0:2.31.1-3.el9_1"
                  },
                  {
                    "Comment": "git-gui is signed with Red Hat redhatrelease2 key"
                  }
                ]
              },
              {
                "Operator": "AND",
                "Criterias": [

                ],
                "Criterions": [
                  {
                    "Comment": "git-instaweb is earlier than 0:2.31.1-3.el9_1"
                  },
                  {
                    "Comment": "git-instaweb is signed with Red Hat redhatrelease2 key"
                  }
                ]
              },
              {
                "Operator": "AND",
                "Criterias": [

                ],
                "Criterions": [
                  {
                    "Comment": "git-subtree is earlier than 0:2.31.1-3.el9_1"
                  },
                  {
                    "Comment": "git-subtree is signed with Red Hat redhatrelease2 key"
                  }
                ]
              },
              {
                "Operator": "AND",
                "Criterias": [

                ],
                "Criterions": [
                  {
                    "Comment": "git-svn is earlier than 0:2.31.1-3.el9_1"
                  },
                  {
                    "Comment": "git-svn is signed with Red Hat redhatrelease2 key"
                  }
                ]
              },
              {
                "Operator": "AND",
                "Criterias": [

                ],
                "Criterions": [
                  {
                    "Comment": "gitk is earlier than 0:2.31.1-3.el9_1"
                  },
                  {
                    "Comment": "gitk is signed with Red Hat redhatrelease2 key"
                  }
                ]
              },
              {
                "Operator": "AND",
                "Criterias": [

                ],
                "Criterions": [
                  {
                    "Comment": "gitweb is earlier than 0:2.31.1-3.el9_1"
                  },
                  {
                    "Comment": "gitweb is signed with Red Hat redhatrelease2 key"
                  }
                ]
              },
              {
                "Operator": "AND",
                "Criterias": [

                ],
                "Criterions": [
                  {
                    "Comment": "perl-Git is earlier than 0:2.31.1-3.el9_1"
                  },
                  {
                    "Comment": "perl-Git is signed with Red Hat redhatrelease2 key"
                  }
                ]
              },
              {
                "Operator": "AND",
                "Criterias": [

                ],
                "Criterions": [
                  {
                    "Comment": "perl-Git-SVN is earlier than 0:2.31.1-3.el9_1"
                  },
                  {
                    "Comment": "perl-Git-SVN is signed with Red Hat redhatrelease2 key"
                  }
                ]
              }
            ],
            "Criterions": [

            ]
          }
        ],
        "Criterions": [
          {
            "Comment": "Oracle Linux 9 is installed"
          }
        ]
      }
    ],
    "Criterions": [
      {
        "Comment": "Oracle Linux 9 is installed"
      }
    ]
  },
  "Severity": "Important",
  "Cves": [
    {
      "Impact": "",
      "Href": "",
      "ID": "CVE-2022-23521"
    },
    {
      "Impact": "",
      "Href": "",
      "ID": "CVE-2022-41903"
    }
  ],
  "Issued": {
    "Date": "2023-02-06"
  }
}