{
  "Title": "RHSA-2023:0837: systemd security and bug fix update (Moderate)",
  "Description": "The systemd packages contain systemd, a system and service manager for Linux, compatible with the SysV and LSB init scripts. It provides aggressive parallelism capabilities, uses socket and D-Bus activation for starting services, offers on-demand starting of daemons, and keeps track of processes using Linux cgroups. In addition, it supports snapshotting and restoring of the system state, maintains mount and automount points, and implements an elaborate transactional dependency-based service control logic. It can also work as a drop-in replacement for sysvinit.\nSecurity Fix(es):\n* systemd: local information leak due to systemd-coredump not respecting fs.suid_dumpable kernel setting (CVE-2022-4415)\nFor more details about the security issue(s), including the impact, a CVSS score, acknowledgments, and other related information, refer to the CVE page(s) listed in the References section.\nBug Fix(es):\n* systemd doesn't record messages to the journal during boot (BZ#2164049)",
  "Platform": [
    "Red Hat Enterprise Linux 8"
  ],
  "References": [
    {
      "Source": "RHSA",
      "URI": "https://access.redhat.com/errata/RHSA-2023:0837",
      "ID": "RHSA-2023:0837"
    },
    {
      "Source": "CVE",
      "URI": "https://access.redhat.com/security/cve/CVE-2022-4415",
      "ID": "CVE-2022-4415"
    }
  ],
  "Criteria": {
    "Operator": "OR",
    "Criterias": [
      {
        "Operator": "AND",
        "Criterias": [
          {
            "Operator": "OR",
            "Criterias": [

            ],
            "Criterions": [
              {
                "Comment": "Oracle Linux 8 is installed"
              },
              {
                "Comment": "Red Hat CoreOS 4 is installed"
              }
            ]
          },
          {
            "Operator": "OR",
            "Criterias": [
              {
                "Operator": "AND",
                "Criterias": [

                ],
                "Criterions": [
                  {
                    "Comment": "systemd is earlier than 0:239-68.el8_7.4"
                  },
                  {
                    "Comment": "systemd is signed with Red Hat redhatrelease2 key"
                  }
                ]
              },
              {
                "Operator": "AND",
                "Criterias": [

                ],
                "Criterions": [
                  {
                    "Comment": "systemd-container is earlier than 0:239-68.el8_7.4"
                  },
                  {
                    "Comment": "systemd-container is signed with Red Hat redhatrelease2 key"
                  }
                ]
              },
              {
                "Operator": "AND",
                "Criterias": [

                ],
                "Criterions": [
                  {
                    "Comment": "systemd-devel is earlier than 0:239-68.el8_7.4"
                  },
                  {
                    "Comment": "systemd-devel is signed with Red Hat redhatrelease2 key"
                  }
                ]
              },
              {
                "Operator": "AND",
                "Criterias": [

                ],
                "Criterions": [
                  {
                    "Comment": "systemd-journal-remote is earlier than 0:239-68.el8_7.4"
                  },
                  {
                    "Comment": "systemd-journal-remote is signed with Red Hat redhatrelease2 key"
                  }
                ]
              },
              {
                "Operator": "AND",
                "Criterias": [

                ],
                "Criterions": [
                  {
                    "Comment": "systemd-libs is earlier than 0:239-68.el8_7.4"
                  },
                  {
                    "Comment": "systemd-libs is signed with Red Hat redhatrelease2 key"
                  }
                ]
              },
              {
                "Operator": "AND",
                "Criterias": [

                ],
                "Criterions": [
                  {
                    "Comment": "systemd-pam is earlier than 0:239-68.el8_7.4"
                  },
                  {
                    "Comment": "systemd-pam is signed with Red Hat redhatrelease2 key"
                  }
                ]
              },
              {
                "Operator": "AND",
                "Criterias": [

                ],
                "Criterions": [
                  {
                    "Comment": "systemd-tests is earlier than 0:239-68.el8_7.4"
                  },
                  {
                    "Comment": "systemd-tests is signed with Red Hat redhatrelease2 key"
                  }
                ]
              },
              {
                "Operator": "AND",
                "Criterias": [

                ],
                "Criterions": [
                  {
                    "Comment": "systemd-udev is earlier than 0:239-68.el8_7.4"
                  },
                  {
                    "Comment": "systemd-udev is signed with Red Hat redhatrelease2 key"
                  }
                ]
              }
            ],
            "Criterions": [

            ]
          }
        ],
        "Criterions": [

        ]
      }
    ],
    "Criterions": [
      {
        "Comment": "Oracle Linux 8 is installed"
      }
    ]
  },
  "Severity": "Moderate",
  "Cves": [
    {
      "Impact": "",
      "Href": "",
      "ID": "CVE-2022-4415"
    }
  ],
  "Issued": {
    "Date": "2023-02-21"
  }
}