{
  "Title": "RHSA-2007:1078: cairo security update (Important)",
  "Description": "Cairo is a vector graphics library designed to provide high-quality display\nand print output.\nAn integer overflow flaw was found in the way Cairo processes PNG images.\nIf an application linked against Cairo processes a malicious PNG image, it\nis possible to execute arbitrary code as the user running the application.\n(CVE-2007-5503)\nUsers of Cairo are advised to upgrade to these updated packages, which\ncontain a backported patch to resolve this issue.",
  "Platform": [
    "Red Hat Enterprise Linux 5"
  ],
  "References": [
    {
      "Source": "RHSA",
      "URI": "https://access.redhat.com/errata/RHSA-2007:1078",
      "ID": "RHSA-2007:1078"
    },
    {
      "Source": "CVE",
      "URI": "https://access.redhat.com/security/cve/CVE-2007-5503",
      "ID": "CVE-2007-5503"
    }
  ],
  "Criteria": {
    "Operator": "OR",
    "Criterias": [
      {
        "Operator": "AND",
        "Criterias": [
          {
            "Operator": "OR",
            "Criterias": [
              {
                "Operator": "AND",
                "Criterias": [

                ],
                "Criterions": [
                  {
                    "Comment": "cairo is earlier than 0:1.2.4-3.el5_1"
                  },
                  {
                    "Comment": "cairo is signed with Red Hat redhatrelease key"
                  }
                ]
              },
              {
                "Operator": "AND",
                "Criterias": [

                ],
                "Criterions": [
                  {
                    "Comment": "cairo-devel is earlier than 0:1.2.4-3.el5_1"
                  },
                  {
                    "Comment": "cairo-devel is signed with Red Hat redhatrelease key"
                  }
                ]
              }
            ],
            "Criterions": [

            ]
          }
        ],
        "Criterions": [
          {
            "Comment": "Oracle Linux 5 is installed"
          }
        ]
      }
    ],
    "Criterions": [
      {
        "Comment": "Oracle Linux 5 is installed"
      }
    ]
  },
  "Severity": "Important",
  "Cves": [
    {
      "Impact": "",
      "Href": "",
      "ID": "CVE-2007-5503"
    }
  ],
  "Issued": {
    "Date": "2007-11-29"
  }
}