{
  "Title": "RHSA-2007:0556: httpd security update (Moderate)",
  "Description": "The Apache HTTP Server is a popular Web server.\nThe Apache HTTP Server did not verify that a process was an Apache child\nprocess before sending it signals. A local attacker with the ability to run\nscripts on the Apache HTTP Server could manipulate the scoreboard and cause\narbitrary processes to be terminated which could lead to a denial of\nservice (CVE-2007-3304).  This issue is not exploitable on Red Hat\nEnterprise Linux 5 if using the default SELinux targeted policy.\nA flaw was found in the Apache HTTP Server mod_status module. On sites\nwhere the server-status page is publicly accessible and ExtendedStatus is\nenabled this could lead to a cross-site scripting attack. On Red Hat\nEnterprise Linux the server-status page is not enabled by default and it is\nbest practice to not make this publicly available. (CVE-2006-5752)\nA bug was found in the Apache HTTP Server mod_cache module. On sites where\ncaching is enabled, a remote attacker could send a carefully crafted\nrequest that would cause the Apache child process handling that request to\ncrash. This could lead to a denial of service if using a threaded\nMulti-Processing Module. (CVE-2007-1863)\nUsers of httpd should upgrade to these updated packages, which contain\nbackported patches to correct these issues. Users should restart Apache\nafter installing this update.",
  "Platform": [
    "Red Hat Enterprise Linux 5"
  ],
  "References": [
    {
      "Source": "RHSA",
      "URI": "https://access.redhat.com/errata/RHSA-2007:0556",
      "ID": "RHSA-2007:0556"
    },
    {
      "Source": "CVE",
      "URI": "https://access.redhat.com/security/cve/CVE-2006-5752",
      "ID": "CVE-2006-5752"
    },
    {
      "Source": "CVE",
      "URI": "https://access.redhat.com/security/cve/CVE-2007-1863",
      "ID": "CVE-2007-1863"
    },
    {
      "Source": "CVE",
      "URI": "https://access.redhat.com/security/cve/CVE-2007-3304",
      "ID": "CVE-2007-3304"
    }
  ],
  "Criteria": {
    "Operator": "OR",
    "Criterias": [
      {
        "Operator": "AND",
        "Criterias": [
          {
            "Operator": "OR",
            "Criterias": [
              {
                "Operator": "AND",
                "Criterias": [

                ],
                "Criterions": [
                  {
                    "Comment": "httpd is earlier than 0:2.2.3-7.el5"
                  },
                  {
                    "Comment": "httpd is signed with Red Hat redhatrelease key"
                  }
                ]
              },
              {
                "Operator": "AND",
                "Criterias": [

                ],
                "Criterions": [
                  {
                    "Comment": "httpd-devel is earlier than 0:2.2.3-7.el5"
                  },
                  {
                    "Comment": "httpd-devel is signed with Red Hat redhatrelease key"
                  }
                ]
              },
              {
                "Operator": "AND",
                "Criterias": [

                ],
                "Criterions": [
                  {
                    "Comment": "httpd-manual is earlier than 0:2.2.3-7.el5"
                  },
                  {
                    "Comment": "httpd-manual is signed with Red Hat redhatrelease key"
                  }
                ]
              },
              {
                "Operator": "AND",
                "Criterias": [

                ],
                "Criterions": [
                  {
                    "Comment": "mod_ssl is earlier than 1:2.2.3-7.el5"
                  },
                  {
                    "Comment": "mod_ssl is signed with Red Hat redhatrelease key"
                  }
                ]
              }
            ],
            "Criterions": [

            ]
          }
        ],
        "Criterions": [
          {
            "Comment": "Oracle Linux 5 is installed"
          }
        ]
      }
    ],
    "Criterions": [
      {
        "Comment": "Oracle Linux 5 is installed"
      }
    ]
  },
  "Severity": "Moderate",
  "Cves": [
    {
      "Impact": "",
      "Href": "",
      "ID": "CVE-2006-5752"
    },
    {
      "Impact": "",
      "Href": "",
      "ID": "CVE-2007-1863"
    },
    {
      "Impact": "",
      "Href": "",
      "ID": "CVE-2007-3304"
    }
  ],
  "Issued": {
    "Date": "2007-06-26"
  }
}