{
  "Title": "RHSA-2007:1095: htdig security update (Moderate)",
  "Description": "The ht://Dig system is a complete World Wide Web indexing and searching\nsystem for a small domain or intranet.\nA cross-site scripting flaw was discovered in a htdig search page. An\nattacker could construct a carefully crafted URL, which once visited by an \nunsuspecting user, could cause a user's Web browser to execute malicious\nscript in the context of the visited htdig search Web page. (CVE-2007-6110)\nUsers of htdig are advised to upgrade to these updated packages, which\ncontain backported patch to resolve this issue.",
  "Platform": [
    "Red Hat Enterprise Linux 4",
    "Red Hat Enterprise Linux 5"
  ],
  "References": [
    {
      "Source": "RHSA",
      "URI": "https://access.redhat.com/errata/RHSA-2007:1095",
      "ID": "RHSA-2007:1095"
    },
    {
      "Source": "CVE",
      "URI": "https://access.redhat.com/security/cve/CVE-2007-6110",
      "ID": "CVE-2007-6110"
    }
  ],
  "Criteria": {
    "Operator": "OR",
    "Criterias": [
      {
        "Operator": "AND",
        "Criterias": [
          {
            "Operator": "OR",
            "Criterias": [
              {
                "Operator": "AND",
                "Criterias": [

                ],
                "Criterions": [
                  {
                    "Comment": "htdig is earlier than 3:3.2.0b6-4.el4_6"
                  },
                  {
                    "Comment": "htdig is signed with Red Hat master key"
                  }
                ]
              },
              {
                "Operator": "AND",
                "Criterias": [

                ],
                "Criterions": [
                  {
                    "Comment": "htdig-web is earlier than 3:3.2.0b6-4.el4_6"
                  },
                  {
                    "Comment": "htdig-web is signed with Red Hat master key"
                  }
                ]
              }
            ],
            "Criterions": [

            ]
          }
        ],
        "Criterions": [
          {
            "Comment": "Oracle Linux 4 is installed"
          }
        ]
      },
      {
        "Operator": "AND",
        "Criterias": [
          {
            "Operator": "OR",
            "Criterias": [
              {
                "Operator": "AND",
                "Criterias": [

                ],
                "Criterions": [
                  {
                    "Comment": "htdig is earlier than 3:3.2.0b6-9.0.1.el5_1"
                  },
                  {
                    "Comment": "htdig is signed with Red Hat redhatrelease key"
                  }
                ]
              },
              {
                "Operator": "AND",
                "Criterias": [

                ],
                "Criterions": [
                  {
                    "Comment": "htdig-web is earlier than 3:3.2.0b6-9.0.1.el5_1"
                  },
                  {
                    "Comment": "htdig-web is signed with Red Hat redhatrelease key"
                  }
                ]
              }
            ],
            "Criterions": [

            ]
          }
        ],
        "Criterions": [
          {
            "Comment": "Oracle Linux 5 is installed"
          }
        ]
      }
    ],
    "Criterions": [
      {
        "Comment": "Oracle Linux 4 is installed"
      }
    ]
  },
  "Severity": "Moderate",
  "Cves": [
    {
      "Impact": "",
      "Href": "",
      "ID": "CVE-2007-6110"
    }
  ],
  "Issued": {
    "Date": "2007-12-03"
  }
}