{
  "Title": "RHSA-2007:1027: tetex security update (Important)",
  "Description": "TeTeX is an implementation of TeX. TeX takes a text file and a set of\nformatting commands as input, and creates a typesetter-independent DeVice\nIndependent (dvi) file as output. \nAlin Rad Pop discovered several flaws in the handling of PDF files. An\nattacker could create a malicious PDF file that would cause TeTeX to crash\nor potentially execute arbitrary code when opened. \n(CVE-2007-4352, CVE-2007-5392, CVE-2007-5393)\nA flaw was found in the t1lib library, used in the handling of Type 1\nfonts. An attacker could create a malicious file that would cause TeTeX to\ncrash, or potentially execute arbitrary code when opened. (CVE-2007-4033)\nUsers are advised to upgrade to these updated packages, which contain\nbackported patches to resolve these issues.",
  "Platform": [
    "Red Hat Enterprise Linux 4",
    "Red Hat Enterprise Linux 5"
  ],
  "References": [
    {
      "Source": "RHSA",
      "URI": "https://access.redhat.com/errata/RHSA-2007:1027",
      "ID": "RHSA-2007:1027"
    },
    {
      "Source": "CVE",
      "URI": "https://access.redhat.com/security/cve/CVE-2007-4033",
      "ID": "CVE-2007-4033"
    },
    {
      "Source": "CVE",
      "URI": "https://access.redhat.com/security/cve/CVE-2007-4352",
      "ID": "CVE-2007-4352"
    },
    {
      "Source": "CVE",
      "URI": "https://access.redhat.com/security/cve/CVE-2007-5392",
      "ID": "CVE-2007-5392"
    },
    {
      "Source": "CVE",
      "URI": "https://access.redhat.com/security/cve/CVE-2007-5393",
      "ID": "CVE-2007-5393"
    }
  ],
  "Criteria": {
    "Operator": "OR",
    "Criterias": [
      {
        "Operator": "AND",
        "Criterias": [
          {
            "Operator": "OR",
            "Criterias": [
              {
                "Operator": "AND",
                "Criterias": [

                ],
                "Criterions": [
                  {
                    "Comment": "tetex is earlier than 0:2.0.2-22.0.1.EL4.10"
                  },
                  {
                    "Comment": "tetex is signed with Red Hat master key"
                  }
                ]
              },
              {
                "Operator": "AND",
                "Criterias": [

                ],
                "Criterions": [
                  {
                    "Comment": "tetex-afm is earlier than 0:2.0.2-22.0.1.EL4.10"
                  },
                  {
                    "Comment": "tetex-afm is signed with Red Hat master key"
                  }
                ]
              },
              {
                "Operator": "AND",
                "Criterias": [

                ],
                "Criterions": [
                  {
                    "Comment": "tetex-doc is earlier than 0:2.0.2-22.0.1.EL4.10"
                  },
                  {
                    "Comment": "tetex-doc is signed with Red Hat master key"
                  }
                ]
              },
              {
                "Operator": "AND",
                "Criterias": [

                ],
                "Criterions": [
                  {
                    "Comment": "tetex-dvips is earlier than 0:2.0.2-22.0.1.EL4.10"
                  },
                  {
                    "Comment": "tetex-dvips is signed with Red Hat master key"
                  }
                ]
              },
              {
                "Operator": "AND",
                "Criterias": [

                ],
                "Criterions": [
                  {
                    "Comment": "tetex-fonts is earlier than 0:2.0.2-22.0.1.EL4.10"
                  },
                  {
                    "Comment": "tetex-fonts is signed with Red Hat master key"
                  }
                ]
              },
              {
                "Operator": "AND",
                "Criterias": [

                ],
                "Criterions": [
                  {
                    "Comment": "tetex-latex is earlier than 0:2.0.2-22.0.1.EL4.10"
                  },
                  {
                    "Comment": "tetex-latex is signed with Red Hat master key"
                  }
                ]
              },
              {
                "Operator": "AND",
                "Criterias": [

                ],
                "Criterions": [
                  {
                    "Comment": "tetex-xdvi is earlier than 0:2.0.2-22.0.1.EL4.10"
                  },
                  {
                    "Comment": "tetex-xdvi is signed with Red Hat master key"
                  }
                ]
              }
            ],
            "Criterions": [

            ]
          }
        ],
        "Criterions": [
          {
            "Comment": "Oracle Linux 4 is installed"
          }
        ]
      },
      {
        "Operator": "AND",
        "Criterias": [
          {
            "Operator": "OR",
            "Criterias": [
              {
                "Operator": "AND",
                "Criterias": [

                ],
                "Criterions": [
                  {
                    "Comment": "tetex is earlier than 0:3.0-33.2.el5_1.2"
                  },
                  {
                    "Comment": "tetex is signed with Red Hat redhatrelease key"
                  }
                ]
              },
              {
                "Operator": "AND",
                "Criterias": [

                ],
                "Criterions": [
                  {
                    "Comment": "tetex-afm is earlier than 0:3.0-33.2.el5_1.2"
                  },
                  {
                    "Comment": "tetex-afm is signed with Red Hat redhatrelease key"
                  }
                ]
              },
              {
                "Operator": "AND",
                "Criterias": [

                ],
                "Criterions": [
                  {
                    "Comment": "tetex-doc is earlier than 0:3.0-33.2.el5_1.2"
                  },
                  {
                    "Comment": "tetex-doc is signed with Red Hat redhatrelease key"
                  }
                ]
              },
              {
                "Operator": "AND",
                "Criterias": [

                ],
                "Criterions": [
                  {
                    "Comment": "tetex-dvips is earlier than 0:3.0-33.2.el5_1.2"
                  },
                  {
                    "Comment": "tetex-dvips is signed with Red Hat redhatrelease key"
                  }
                ]
              },
              {
                "Operator": "AND",
                "Criterias": [

                ],
                "Criterions": [
                  {
                    "Comment": "tetex-fonts is earlier than 0:3.0-33.2.el5_1.2"
                  },
                  {
                    "Comment": "tetex-fonts is signed with Red Hat redhatrelease key"
                  }
                ]
              },
              {
                "Operator": "AND",
                "Criterias": [

                ],
                "Criterions": [
                  {
                    "Comment": "tetex-latex is earlier than 0:3.0-33.2.el5_1.2"
                  },
                  {
                    "Comment": "tetex-latex is signed with Red Hat redhatrelease key"
                  }
                ]
              },
              {
                "Operator": "AND",
                "Criterias": [

                ],
                "Criterions": [
                  {
                    "Comment": "tetex-xdvi is earlier than 0:3.0-33.2.el5_1.2"
                  },
                  {
                    "Comment": "tetex-xdvi is signed with Red Hat redhatrelease key"
                  }
                ]
              }
            ],
            "Criterions": [

            ]
          }
        ],
        "Criterions": [
          {
            "Comment": "Oracle Linux 5 is installed"
          }
        ]
      }
    ],
    "Criterions": [
      {
        "Comment": "Oracle Linux 4 is installed"
      }
    ]
  },
  "Severity": "Important",
  "Cves": [
    {
      "Impact": "",
      "Href": "",
      "ID": "CVE-2007-4033"
    },
    {
      "Impact": "",
      "Href": "",
      "ID": "CVE-2007-4352"
    },
    {
      "Impact": "",
      "Href": "",
      "ID": "CVE-2007-5392"
    },
    {
      "Impact": "",
      "Href": "",
      "ID": "CVE-2007-5393"
    }
  ],
  "Issued": {
    "Date": "2007-11-08"
  }
}