{
  "Title": "RHSA-2007:0890: php security update (Moderate)",
  "Description": "PHP is an HTML-embedded scripting language commonly used with the Apache\nHTTP Web server.\nVarious integer overflow flaws were found in the PHP gd extension. A script\nthat could be forced to resize images from an untrusted source could\npossibly allow a remote attacker to execute arbitrary code as the apache\nuser. (CVE-2007-3996)\nAn integer overflow flaw was found in the PHP chunk_split function. If a\nremote attacker was able to pass arbitrary data to the third argument of\nchunk_split they could possibly execute arbitrary code as the apache user.\nNote that it is unusual for a PHP script to use the chunk_script function\nwith a user-supplied third argument. (CVE-2007-2872)\nA previous security update introduced a bug into PHP session cookie\nhandling. This could allow an attacker to stop a victim from viewing a\nvulnerable web site if the victim has first visited a malicious web page\nunder the control of the attacker, and that page can set a cookie for the\nvulnerable web site. (CVE-2007-4670)\nA flaw was found in the PHP money_format function. If a remote attacker\nwas able to pass arbitrary data to the money_format function this could\npossibly result in an information leak or denial of service. Note that is\nis unusual for a PHP script to pass user-supplied data to the money_format\nfunction. (CVE-2007-4658)\nA flaw was found in the PHP wordwrap function. If a remote attacker was\nable to pass arbitrary data to the wordwrap function this could possibly\nresult in a denial of service. (CVE-2007-3998)\nA bug was found in PHP session cookie handling. This could allow an\nattacker to create a cross-site cookie insertion attack if a victim follows\nan untrusted carefully-crafted URL. (CVE-2007-3799)\nAn infinite-loop flaw was discovered in the PHP gd extension. A script\nthat could be forced to process PNG images from an untrusted source could\nallow a remote attacker to cause a denial of service. (CVE-2007-2756)\nUsers of PHP should upgrade to these updated packages, which contain\nbackported patches to correct these issues.",
  "Platform": [
    "Red Hat Enterprise Linux 4",
    "Red Hat Enterprise Linux 5"
  ],
  "References": [
    {
      "Source": "RHSA",
      "URI": "https://access.redhat.com/errata/RHSA-2007:0890",
      "ID": "RHSA-2007:0890"
    },
    {
      "Source": "CVE",
      "URI": "https://access.redhat.com/security/cve/CVE-2007-2756",
      "ID": "CVE-2007-2756"
    },
    {
      "Source": "CVE",
      "URI": "https://access.redhat.com/security/cve/CVE-2007-2872",
      "ID": "CVE-2007-2872"
    },
    {
      "Source": "CVE",
      "URI": "https://access.redhat.com/security/cve/CVE-2007-3799",
      "ID": "CVE-2007-3799"
    },
    {
      "Source": "CVE",
      "URI": "https://access.redhat.com/security/cve/CVE-2007-3996",
      "ID": "CVE-2007-3996"
    },
    {
      "Source": "CVE",
      "URI": "https://access.redhat.com/security/cve/CVE-2007-3998",
      "ID": "CVE-2007-3998"
    },
    {
      "Source": "CVE",
      "URI": "https://access.redhat.com/security/cve/CVE-2007-4658",
      "ID": "CVE-2007-4658"
    },
    {
      "Source": "CVE",
      "URI": "https://access.redhat.com/security/cve/CVE-2007-4670",
      "ID": "CVE-2007-4670"
    }
  ],
  "Criteria": {
    "Operator": "OR",
    "Criterias": [
      {
        "Operator": "AND",
        "Criterias": [
          {
            "Operator": "OR",
            "Criterias": [
              {
                "Operator": "AND",
                "Criterias": [

                ],
                "Criterions": [
                  {
                    "Comment": "php is earlier than 0:4.3.9-3.22.9"
                  },
                  {
                    "Comment": "php is signed with Red Hat master key"
                  }
                ]
              },
              {
                "Operator": "AND",
                "Criterias": [

                ],
                "Criterions": [
                  {
                    "Comment": "php-devel is earlier than 0:4.3.9-3.22.9"
                  },
                  {
                    "Comment": "php-devel is signed with Red Hat master key"
                  }
                ]
              },
              {
                "Operator": "AND",
                "Criterias": [

                ],
                "Criterions": [
                  {
                    "Comment": "php-domxml is earlier than 0:4.3.9-3.22.9"
                  },
                  {
                    "Comment": "php-domxml is signed with Red Hat master key"
                  }
                ]
              },
              {
                "Operator": "AND",
                "Criterias": [

                ],
                "Criterions": [
                  {
                    "Comment": "php-gd is earlier than 0:4.3.9-3.22.9"
                  },
                  {
                    "Comment": "php-gd is signed with Red Hat master key"
                  }
                ]
              },
              {
                "Operator": "AND",
                "Criterias": [

                ],
                "Criterions": [
                  {
                    "Comment": "php-imap is earlier than 0:4.3.9-3.22.9"
                  },
                  {
                    "Comment": "php-imap is signed with Red Hat master key"
                  }
                ]
              },
              {
                "Operator": "AND",
                "Criterias": [

                ],
                "Criterions": [
                  {
                    "Comment": "php-ldap is earlier than 0:4.3.9-3.22.9"
                  },
                  {
                    "Comment": "php-ldap is signed with Red Hat master key"
                  }
                ]
              },
              {
                "Operator": "AND",
                "Criterias": [

                ],
                "Criterions": [
                  {
                    "Comment": "php-mbstring is earlier than 0:4.3.9-3.22.9"
                  },
                  {
                    "Comment": "php-mbstring is signed with Red Hat master key"
                  }
                ]
              },
              {
                "Operator": "AND",
                "Criterias": [

                ],
                "Criterions": [
                  {
                    "Comment": "php-mysql is earlier than 0:4.3.9-3.22.9"
                  },
                  {
                    "Comment": "php-mysql is signed with Red Hat master key"
                  }
                ]
              },
              {
                "Operator": "AND",
                "Criterias": [

                ],
                "Criterions": [
                  {
                    "Comment": "php-ncurses is earlier than 0:4.3.9-3.22.9"
                  },
                  {
                    "Comment": "php-ncurses is signed with Red Hat master key"
                  }
                ]
              },
              {
                "Operator": "AND",
                "Criterias": [

                ],
                "Criterions": [
                  {
                    "Comment": "php-odbc is earlier than 0:4.3.9-3.22.9"
                  },
                  {
                    "Comment": "php-odbc is signed with Red Hat master key"
                  }
                ]
              },
              {
                "Operator": "AND",
                "Criterias": [

                ],
                "Criterions": [
                  {
                    "Comment": "php-pear is earlier than 0:4.3.9-3.22.9"
                  },
                  {
                    "Comment": "php-pear is signed with Red Hat master key"
                  }
                ]
              },
              {
                "Operator": "AND",
                "Criterias": [

                ],
                "Criterions": [
                  {
                    "Comment": "php-pgsql is earlier than 0:4.3.9-3.22.9"
                  },
                  {
                    "Comment": "php-pgsql is signed with Red Hat master key"
                  }
                ]
              },
              {
                "Operator": "AND",
                "Criterias": [

                ],
                "Criterions": [
                  {
                    "Comment": "php-snmp is earlier than 0:4.3.9-3.22.9"
                  },
                  {
                    "Comment": "php-snmp is signed with Red Hat master key"
                  }
                ]
              },
              {
                "Operator": "AND",
                "Criterias": [

                ],
                "Criterions": [
                  {
                    "Comment": "php-xmlrpc is earlier than 0:4.3.9-3.22.9"
                  },
                  {
                    "Comment": "php-xmlrpc is signed with Red Hat master key"
                  }
                ]
              }
            ],
            "Criterions": [

            ]
          }
        ],
        "Criterions": [
          {
            "Comment": "Oracle Linux 4 is installed"
          }
        ]
      },
      {
        "Operator": "AND",
        "Criterias": [
          {
            "Operator": "OR",
            "Criterias": [
              {
                "Operator": "AND",
                "Criterias": [

                ],
                "Criterions": [
                  {
                    "Comment": "php is earlier than 0:5.1.6-15.el5"
                  },
                  {
                    "Comment": "php is signed with Red Hat redhatrelease key"
                  }
                ]
              },
              {
                "Operator": "AND",
                "Criterias": [

                ],
                "Criterions": [
                  {
                    "Comment": "php-bcmath is earlier than 0:5.1.6-15.el5"
                  },
                  {
                    "Comment": "php-bcmath is signed with Red Hat redhatrelease key"
                  }
                ]
              },
              {
                "Operator": "AND",
                "Criterias": [

                ],
                "Criterions": [
                  {
                    "Comment": "php-cli is earlier than 0:5.1.6-15.el5"
                  },
                  {
                    "Comment": "php-cli is signed with Red Hat redhatrelease key"
                  }
                ]
              },
              {
                "Operator": "AND",
                "Criterias": [

                ],
                "Criterions": [
                  {
                    "Comment": "php-common is earlier than 0:5.1.6-15.el5"
                  },
                  {
                    "Comment": "php-common is signed with Red Hat redhatrelease key"
                  }
                ]
              },
              {
                "Operator": "AND",
                "Criterias": [

                ],
                "Criterions": [
                  {
                    "Comment": "php-dba is earlier than 0:5.1.6-15.el5"
                  },
                  {
                    "Comment": "php-dba is signed with Red Hat redhatrelease key"
                  }
                ]
              },
              {
                "Operator": "AND",
                "Criterias": [

                ],
                "Criterions": [
                  {
                    "Comment": "php-devel is earlier than 0:5.1.6-15.el5"
                  },
                  {
                    "Comment": "php-devel is signed with Red Hat redhatrelease key"
                  }
                ]
              },
              {
                "Operator": "AND",
                "Criterias": [

                ],
                "Criterions": [
                  {
                    "Comment": "php-gd is earlier than 0:5.1.6-15.el5"
                  },
                  {
                    "Comment": "php-gd is signed with Red Hat redhatrelease key"
                  }
                ]
              },
              {
                "Operator": "AND",
                "Criterias": [

                ],
                "Criterions": [
                  {
                    "Comment": "php-imap is earlier than 0:5.1.6-15.el5"
                  },
                  {
                    "Comment": "php-imap is signed with Red Hat redhatrelease key"
                  }
                ]
              },
              {
                "Operator": "AND",
                "Criterias": [

                ],
                "Criterions": [
                  {
                    "Comment": "php-ldap is earlier than 0:5.1.6-15.el5"
                  },
                  {
                    "Comment": "php-ldap is signed with Red Hat redhatrelease key"
                  }
                ]
              },
              {
                "Operator": "AND",
                "Criterias": [

                ],
                "Criterions": [
                  {
                    "Comment": "php-mbstring is earlier than 0:5.1.6-15.el5"
                  },
                  {
                    "Comment": "php-mbstring is signed with Red Hat redhatrelease key"
                  }
                ]
              },
              {
                "Operator": "AND",
                "Criterias": [

                ],
                "Criterions": [
                  {
                    "Comment": "php-mysql is earlier than 0:5.1.6-15.el5"
                  },
                  {
                    "Comment": "php-mysql is signed with Red Hat redhatrelease key"
                  }
                ]
              },
              {
                "Operator": "AND",
                "Criterias": [

                ],
                "Criterions": [
                  {
                    "Comment": "php-ncurses is earlier than 0:5.1.6-15.el5"
                  },
                  {
                    "Comment": "php-ncurses is signed with Red Hat redhatrelease key"
                  }
                ]
              },
              {
                "Operator": "AND",
                "Criterias": [

                ],
                "Criterions": [
                  {
                    "Comment": "php-odbc is earlier than 0:5.1.6-15.el5"
                  },
                  {
                    "Comment": "php-odbc is signed with Red Hat redhatrelease key"
                  }
                ]
              },
              {
                "Operator": "AND",
                "Criterias": [

                ],
                "Criterions": [
                  {
                    "Comment": "php-pdo is earlier than 0:5.1.6-15.el5"
                  },
                  {
                    "Comment": "php-pdo is signed with Red Hat redhatrelease key"
                  }
                ]
              },
              {
                "Operator": "AND",
                "Criterias": [

                ],
                "Criterions": [
                  {
                    "Comment": "php-pgsql is earlier than 0:5.1.6-15.el5"
                  },
                  {
                    "Comment": "php-pgsql is signed with Red Hat redhatrelease key"
                  }
                ]
              },
              {
                "Operator": "AND",
                "Criterias": [

                ],
                "Criterions": [
                  {
                    "Comment": "php-snmp is earlier than 0:5.1.6-15.el5"
                  },
                  {
                    "Comment": "php-snmp is signed with Red Hat redhatrelease key"
                  }
                ]
              },
              {
                "Operator": "AND",
                "Criterias": [

                ],
                "Criterions": [
                  {
                    "Comment": "php-soap is earlier than 0:5.1.6-15.el5"
                  },
                  {
                    "Comment": "php-soap is signed with Red Hat redhatrelease key"
                  }
                ]
              },
              {
                "Operator": "AND",
                "Criterias": [

                ],
                "Criterions": [
                  {
                    "Comment": "php-xml is earlier than 0:5.1.6-15.el5"
                  },
                  {
                    "Comment": "php-xml is signed with Red Hat redhatrelease key"
                  }
                ]
              },
              {
                "Operator": "AND",
                "Criterias": [

                ],
                "Criterions": [
                  {
                    "Comment": "php-xmlrpc is earlier than 0:5.1.6-15.el5"
                  },
                  {
                    "Comment": "php-xmlrpc is signed with Red Hat redhatrelease key"
                  }
                ]
              }
            ],
            "Criterions": [

            ]
          }
        ],
        "Criterions": [
          {
            "Comment": "Oracle Linux 5 is installed"
          }
        ]
      }
    ],
    "Criterions": [
      {
        "Comment": "Oracle Linux 4 is installed"
      }
    ]
  },
  "Severity": "Moderate",
  "Cves": [
    {
      "Impact": "",
      "Href": "",
      "ID": "CVE-2007-2756"
    },
    {
      "Impact": "",
      "Href": "",
      "ID": "CVE-2007-2872"
    },
    {
      "Impact": "",
      "Href": "",
      "ID": "CVE-2007-3799"
    },
    {
      "Impact": "",
      "Href": "",
      "ID": "CVE-2007-3996"
    },
    {
      "Impact": "",
      "Href": "",
      "ID": "CVE-2007-3998"
    },
    {
      "Impact": "",
      "Href": "",
      "ID": "CVE-2007-4658"
    },
    {
      "Impact": "",
      "Href": "",
      "ID": "CVE-2007-4670"
    }
  ],
  "Issued": {
    "Date": "2007-09-20"
  }
}