{
  "Title": "RHSA-2007:0932: pwlib security update (Moderate)",
  "Description": "PWLib is a library used to support cross-platform applications.  \nIn Red Hat Enterprise Linux 5, the Ekiga teleconferencing application uses\nPWLib.\nA memory management flaw was discovered in PWLib.  An attacker could use this\nflaw to crash an application, such as Ekiga, which is linked with pwlib\n(CVE-2007-4897).  \nUsers should upgrade to these updated packages which contain a backported\npatch to correct this issue.",
  "Platform": [
    "Red Hat Enterprise Linux 5"
  ],
  "References": [
    {
      "Source": "RHSA",
      "URI": "https://access.redhat.com/errata/RHSA-2007:0932",
      "ID": "RHSA-2007:0932"
    },
    {
      "Source": "CVE",
      "URI": "https://access.redhat.com/security/cve/CVE-2007-4897",
      "ID": "CVE-2007-4897"
    }
  ],
  "Criteria": {
    "Operator": "OR",
    "Criterias": [
      {
        "Operator": "AND",
        "Criterias": [
          {
            "Operator": "OR",
            "Criterias": [
              {
                "Operator": "AND",
                "Criterias": [

                ],
                "Criterions": [
                  {
                    "Comment": "pwlib is earlier than 0:1.10.1-7.0.1.el5"
                  },
                  {
                    "Comment": "pwlib is signed with Red Hat redhatrelease2 key"
                  }
                ]
              },
              {
                "Operator": "AND",
                "Criterias": [

                ],
                "Criterions": [
                  {
                    "Comment": "pwlib-devel is earlier than 0:1.10.1-7.0.1.el5"
                  },
                  {
                    "Comment": "pwlib-devel is signed with Red Hat redhatrelease2 key"
                  }
                ]
              }
            ],
            "Criterions": [

            ]
          }
        ],
        "Criterions": [
          {
            "Comment": "Oracle Linux 5 is installed"
          }
        ]
      }
    ],
    "Criterions": [
      {
        "Comment": "Oracle Linux 5 is installed"
      }
    ]
  },
  "Severity": "Moderate",
  "Cves": [
    {
      "Impact": "",
      "Href": "",
      "ID": "CVE-2007-4897"
    }
  ],
  "Issued": {
    "Date": "2007-10-08"
  }
}