{
  "Title": "RHSA-2007:0106: gnupg security update (Important)",
  "Description": "GnuPG is a utility for encrypting data and creating digital signatures.\nGerardo Richarte discovered that a number of applications that make use of\nGnuPG are prone to a vulnerability involving incorrect verification of\nsignatures and encryption.  An attacker could add arbitrary content to a\nsigned message in such a way that a receiver of the message would not be\nable to distinguish between the properly signed parts of a message and the\nforged, unsigned, parts.  (CVE-2007-1263)\nWhilst this is not a vulnerability in GnuPG itself, the GnuPG team have\nproduced a patch to protect against messages with multiple plaintext\npackets.  Users should update to these erratum packages which contain the\nbackported patch for this issue.\nRed Hat would like to thank Core Security Technologies for reporting this\nissue.",
  "Platform": [
    "Red Hat Enterprise Linux 4"
  ],
  "References": [
    {
      "Source": "RHSA",
      "URI": "https://access.redhat.com/errata/RHSA-2007:0106",
      "ID": "RHSA-2007:0106"
    },
    {
      "Source": "CVE",
      "URI": "https://access.redhat.com/security/cve/CVE-2007-1263",
      "ID": "CVE-2007-1263"
    }
  ],
  "Criteria": {
    "Operator": "OR",
    "Criterias": [
      {
        "Operator": "AND",
        "Criterias": [

        ],
        "Criterions": [
          {
            "Comment": "Oracle Linux 4 is installed"
          },
          {
            "Comment": "gnupg is earlier than 0:1.2.6-9"
          },
          {
            "Comment": "gnupg is signed with Red Hat redhatrelease2 key"
          }
        ]
      }
    ],
    "Criterions": [
      {
        "Comment": "Oracle Linux 4 is installed"
      }
    ]
  },
  "Severity": "Important",
  "Cves": [
    {
      "Impact": "",
      "Href": "",
      "ID": "CVE-2007-1263"
    }
  ],
  "Issued": {
    "Date": "2007-03-06"
  }
}