{
  "Title": "RHSA-2007:0703: openssh security and bug fix update (Moderate)",
  "Description": "OpenSSH is OpenBSD's SSH (Secure SHell) protocol implementation. These\npackages include the core files necessary for both the OpenSSH client and\nserver.\nA flaw was found in the way the ssh server wrote account names to the\naudit subsystem. An attacker could inject strings containing parts of audit\nmessages which could possibly mislead or confuse audit log parsing tools.\n(CVE-2007-3102)\nA flaw was found in the way the OpenSSH server processes GSSAPI\nauthentication requests. When GSSAPI authentication was enabled in OpenSSH\nserver, a remote attacker may have been able to determine if a username is\nvalid. (CVE-2006-5052)\nThe following bugs were also fixed:\n* the ssh daemon did not generate audit messages when an ssh session was\nclosed.\n* GSSAPI authentication sometimes failed on clusters using DNS or\nload-balancing.\n* the sftp client and server leaked small amounts of memory in some cases.\n* the sftp client didn't properly exit and return non-zero status in batch\nmode when the destination disk drive was full.\n* when restarting the ssh daemon with the initscript, the ssh daemon was\nsometimes not restarted successfully because the old running ssh daemon was\nnot properly killed.\n* with challenge/response authentication enabled, the pam sub-process was\nnot terminated if the user authentication timed out.\nAll users of openssh should upgrade to these updated packages, which\ncontain patches to correct these issues.",
  "Platform": [
    "Red Hat Enterprise Linux 4"
  ],
  "References": [
    {
      "Source": "RHSA",
      "URI": "https://access.redhat.com/errata/RHSA-2007:0703",
      "ID": "RHSA-2007:0703"
    },
    {
      "Source": "CVE",
      "URI": "https://access.redhat.com/security/cve/CVE-2006-5052",
      "ID": "CVE-2006-5052"
    },
    {
      "Source": "CVE",
      "URI": "https://access.redhat.com/security/cve/CVE-2007-3102",
      "ID": "CVE-2007-3102"
    }
  ],
  "Criteria": {
    "Operator": "OR",
    "Criterias": [
      {
        "Operator": "AND",
        "Criterias": [
          {
            "Operator": "OR",
            "Criterias": [
              {
                "Operator": "AND",
                "Criterias": [

                ],
                "Criterions": [
                  {
                    "Comment": "openssh is earlier than 0:3.9p1-8.RHEL4.24"
                  },
                  {
                    "Comment": "openssh is signed with Red Hat master key"
                  }
                ]
              },
              {
                "Operator": "AND",
                "Criterias": [

                ],
                "Criterions": [
                  {
                    "Comment": "openssh-askpass is earlier than 0:3.9p1-8.RHEL4.24"
                  },
                  {
                    "Comment": "openssh-askpass is signed with Red Hat master key"
                  }
                ]
              },
              {
                "Operator": "AND",
                "Criterias": [

                ],
                "Criterions": [
                  {
                    "Comment": "openssh-askpass-gnome is earlier than 0:3.9p1-8.RHEL4.24"
                  },
                  {
                    "Comment": "openssh-askpass-gnome is signed with Red Hat master key"
                  }
                ]
              },
              {
                "Operator": "AND",
                "Criterias": [

                ],
                "Criterions": [
                  {
                    "Comment": "openssh-clients is earlier than 0:3.9p1-8.RHEL4.24"
                  },
                  {
                    "Comment": "openssh-clients is signed with Red Hat master key"
                  }
                ]
              },
              {
                "Operator": "AND",
                "Criterias": [

                ],
                "Criterions": [
                  {
                    "Comment": "openssh-server is earlier than 0:3.9p1-8.RHEL4.24"
                  },
                  {
                    "Comment": "openssh-server is signed with Red Hat master key"
                  }
                ]
              }
            ],
            "Criterions": [

            ]
          }
        ],
        "Criterions": [
          {
            "Comment": "Oracle Linux 4 is installed"
          }
        ]
      }
    ],
    "Criterions": [
      {
        "Comment": "Oracle Linux 4 is installed"
      }
    ]
  },
  "Severity": "Moderate",
  "Cves": [
    {
      "Impact": "",
      "Href": "",
      "ID": "CVE-2006-5052"
    },
    {
      "Impact": "",
      "Href": "",
      "ID": "CVE-2007-3102"
    }
  ],
  "Issued": {
    "Date": "2007-11-15"
  }
}