{
  "Title": "RHSA-2007:0082: php security update (Important)",
  "Description": "PHP is an HTML-embedded scripting language commonly used with the Apache\nHTTP Web server. \nA number of buffer overflow flaws were found in the PHP session extension;\nthe str_replace() function; and the imap_mail_compose() function. If very\nlong strings were passed to the str_replace() function, an integer\noverflow could occur in memory allocation. If a script used the\nimap_mail_compose() function to create a new MIME message based on an\ninput body from an untrusted source, it could result in a heap overflow.\nAn attacker with access to a PHP application affected by any these issues\ncould trigger the flaws and possibly execute arbitrary code as the\n'apache' user. (CVE-2007-0906)\nWhen unserializing untrusted data on 64-bit platforms, the\nzend_hash_init() function could be forced into an infinite loop, consuming\nCPU resources for a limited time, until the script timeout alarm aborted\nexecution of the script. (CVE-2007-0988)\nIf the wddx extension was used to import WDDX data from an untrusted\nsource, certain WDDX input packets could expose a random portion of heap\nmemory. (CVE-2007-0908)\nIf the odbc_result_all() function was used to display data from a\ndatabase, and the database table contents were under an attacker's\ncontrol, a format string vulnerability was possible which could allow\narbitrary code execution. (CVE-2007-0909)\nA one byte memory read always occurs before the beginning of a buffer.\nThis could be triggered, for example, by any use of the header() function\nin a script. However it is unlikely that this would have any effect.\n(CVE-2007-0907)\nSeveral flaws in PHP could allow attackers to \"clobber\" certain\nsuper-global variables via unspecified vectors. (CVE-2007-0910)\nAn input validation bug allowed a remote attacker to trigger a denial of\nservice attack by submitting an input variable with a deeply-nested-array.\n(CVE-2007-1285)\nUsers of PHP should upgrade to these updated packages which contain\nbackported patches to correct these issues.",
  "Platform": [
    "Red Hat Enterprise Linux 5"
  ],
  "References": [
    {
      "Source": "RHSA",
      "URI": "https://access.redhat.com/errata/RHSA-2007:0082",
      "ID": "RHSA-2007:0082"
    },
    {
      "Source": "CVE",
      "URI": "https://access.redhat.com/security/cve/CVE-2007-0906",
      "ID": "CVE-2007-0906"
    },
    {
      "Source": "CVE",
      "URI": "https://access.redhat.com/security/cve/CVE-2007-0907",
      "ID": "CVE-2007-0907"
    },
    {
      "Source": "CVE",
      "URI": "https://access.redhat.com/security/cve/CVE-2007-0908",
      "ID": "CVE-2007-0908"
    },
    {
      "Source": "CVE",
      "URI": "https://access.redhat.com/security/cve/CVE-2007-0909",
      "ID": "CVE-2007-0909"
    },
    {
      "Source": "CVE",
      "URI": "https://access.redhat.com/security/cve/CVE-2007-0910",
      "ID": "CVE-2007-0910"
    },
    {
      "Source": "CVE",
      "URI": "https://access.redhat.com/security/cve/CVE-2007-0988",
      "ID": "CVE-2007-0988"
    },
    {
      "Source": "CVE",
      "URI": "https://access.redhat.com/security/cve/CVE-2007-1285",
      "ID": "CVE-2007-1285"
    },
    {
      "Source": "CVE",
      "URI": "https://access.redhat.com/security/cve/CVE-2007-1380",
      "ID": "CVE-2007-1380"
    },
    {
      "Source": "CVE",
      "URI": "https://access.redhat.com/security/cve/CVE-2007-1701",
      "ID": "CVE-2007-1701"
    },
    {
      "Source": "CVE",
      "URI": "https://access.redhat.com/security/cve/CVE-2007-1825",
      "ID": "CVE-2007-1825"
    }
  ],
  "Criteria": {
    "Operator": "OR",
    "Criterias": [
      {
        "Operator": "AND",
        "Criterias": [
          {
            "Operator": "OR",
            "Criterias": [
              {
                "Operator": "AND",
                "Criterias": [

                ],
                "Criterions": [
                  {
                    "Comment": "php is earlier than 0:5.1.6-7.el5"
                  },
                  {
                    "Comment": "php is signed with Red Hat redhatrelease2 key"
                  }
                ]
              },
              {
                "Operator": "AND",
                "Criterias": [

                ],
                "Criterions": [
                  {
                    "Comment": "php-bcmath is earlier than 0:5.1.6-7.el5"
                  },
                  {
                    "Comment": "php-bcmath is signed with Red Hat redhatrelease2 key"
                  }
                ]
              },
              {
                "Operator": "AND",
                "Criterias": [

                ],
                "Criterions": [
                  {
                    "Comment": "php-cli is earlier than 0:5.1.6-7.el5"
                  },
                  {
                    "Comment": "php-cli is signed with Red Hat redhatrelease2 key"
                  }
                ]
              },
              {
                "Operator": "AND",
                "Criterias": [

                ],
                "Criterions": [
                  {
                    "Comment": "php-common is earlier than 0:5.1.6-7.el5"
                  },
                  {
                    "Comment": "php-common is signed with Red Hat redhatrelease2 key"
                  }
                ]
              },
              {
                "Operator": "AND",
                "Criterias": [

                ],
                "Criterions": [
                  {
                    "Comment": "php-dba is earlier than 0:5.1.6-7.el5"
                  },
                  {
                    "Comment": "php-dba is signed with Red Hat redhatrelease2 key"
                  }
                ]
              },
              {
                "Operator": "AND",
                "Criterias": [

                ],
                "Criterions": [
                  {
                    "Comment": "php-devel is earlier than 0:5.1.6-7.el5"
                  },
                  {
                    "Comment": "php-devel is signed with Red Hat redhatrelease2 key"
                  }
                ]
              },
              {
                "Operator": "AND",
                "Criterias": [

                ],
                "Criterions": [
                  {
                    "Comment": "php-gd is earlier than 0:5.1.6-7.el5"
                  },
                  {
                    "Comment": "php-gd is signed with Red Hat redhatrelease2 key"
                  }
                ]
              },
              {
                "Operator": "AND",
                "Criterias": [

                ],
                "Criterions": [
                  {
                    "Comment": "php-imap is earlier than 0:5.1.6-7.el5"
                  },
                  {
                    "Comment": "php-imap is signed with Red Hat redhatrelease2 key"
                  }
                ]
              },
              {
                "Operator": "AND",
                "Criterias": [

                ],
                "Criterions": [
                  {
                    "Comment": "php-ldap is earlier than 0:5.1.6-7.el5"
                  },
                  {
                    "Comment": "php-ldap is signed with Red Hat redhatrelease2 key"
                  }
                ]
              },
              {
                "Operator": "AND",
                "Criterias": [

                ],
                "Criterions": [
                  {
                    "Comment": "php-mbstring is earlier than 0:5.1.6-7.el5"
                  },
                  {
                    "Comment": "php-mbstring is signed with Red Hat redhatrelease2 key"
                  }
                ]
              },
              {
                "Operator": "AND",
                "Criterias": [

                ],
                "Criterions": [
                  {
                    "Comment": "php-mysql is earlier than 0:5.1.6-7.el5"
                  },
                  {
                    "Comment": "php-mysql is signed with Red Hat redhatrelease2 key"
                  }
                ]
              },
              {
                "Operator": "AND",
                "Criterias": [

                ],
                "Criterions": [
                  {
                    "Comment": "php-ncurses is earlier than 0:5.1.6-7.el5"
                  },
                  {
                    "Comment": "php-ncurses is signed with Red Hat redhatrelease2 key"
                  }
                ]
              },
              {
                "Operator": "AND",
                "Criterias": [

                ],
                "Criterions": [
                  {
                    "Comment": "php-odbc is earlier than 0:5.1.6-7.el5"
                  },
                  {
                    "Comment": "php-odbc is signed with Red Hat redhatrelease2 key"
                  }
                ]
              },
              {
                "Operator": "AND",
                "Criterias": [

                ],
                "Criterions": [
                  {
                    "Comment": "php-pdo is earlier than 0:5.1.6-7.el5"
                  },
                  {
                    "Comment": "php-pdo is signed with Red Hat redhatrelease2 key"
                  }
                ]
              },
              {
                "Operator": "AND",
                "Criterias": [

                ],
                "Criterions": [
                  {
                    "Comment": "php-pgsql is earlier than 0:5.1.6-7.el5"
                  },
                  {
                    "Comment": "php-pgsql is signed with Red Hat redhatrelease2 key"
                  }
                ]
              },
              {
                "Operator": "AND",
                "Criterias": [

                ],
                "Criterions": [
                  {
                    "Comment": "php-snmp is earlier than 0:5.1.6-7.el5"
                  },
                  {
                    "Comment": "php-snmp is signed with Red Hat redhatrelease2 key"
                  }
                ]
              },
              {
                "Operator": "AND",
                "Criterias": [

                ],
                "Criterions": [
                  {
                    "Comment": "php-soap is earlier than 0:5.1.6-7.el5"
                  },
                  {
                    "Comment": "php-soap is signed with Red Hat redhatrelease2 key"
                  }
                ]
              },
              {
                "Operator": "AND",
                "Criterias": [

                ],
                "Criterions": [
                  {
                    "Comment": "php-xml is earlier than 0:5.1.6-7.el5"
                  },
                  {
                    "Comment": "php-xml is signed with Red Hat redhatrelease2 key"
                  }
                ]
              },
              {
                "Operator": "AND",
                "Criterias": [

                ],
                "Criterions": [
                  {
                    "Comment": "php-xmlrpc is earlier than 0:5.1.6-7.el5"
                  },
                  {
                    "Comment": "php-xmlrpc is signed with Red Hat redhatrelease2 key"
                  }
                ]
              }
            ],
            "Criterions": [

            ]
          }
        ],
        "Criterions": [
          {
            "Comment": "Oracle Linux 5 is installed"
          }
        ]
      }
    ],
    "Criterions": [
      {
        "Comment": "Oracle Linux 5 is installed"
      }
    ]
  },
  "Severity": "Important",
  "Cves": [
    {
      "Impact": "",
      "Href": "",
      "ID": "CVE-2007-0906"
    },
    {
      "Impact": "",
      "Href": "",
      "ID": "CVE-2007-0907"
    },
    {
      "Impact": "",
      "Href": "",
      "ID": "CVE-2007-0908"
    },
    {
      "Impact": "",
      "Href": "",
      "ID": "CVE-2007-0909"
    },
    {
      "Impact": "",
      "Href": "",
      "ID": "CVE-2007-0910"
    },
    {
      "Impact": "",
      "Href": "",
      "ID": "CVE-2007-0988"
    },
    {
      "Impact": "",
      "Href": "",
      "ID": "CVE-2007-1285"
    },
    {
      "Impact": "",
      "Href": "",
      "ID": "CVE-2007-1380"
    },
    {
      "Impact": "",
      "Href": "",
      "ID": "CVE-2007-1701"
    },
    {
      "Impact": "",
      "Href": "",
      "ID": "CVE-2007-1825"
    }
  ],
  "Issued": {
    "Date": "2007-03-14"
  }
}