{
  "Title": "RHSA-2007:1059: pcre security update (Important)",
  "Description": "PCRE is a Perl-compatible regular expression library.\nFlaws were discovered in the way PCRE handles certain malformed regular\nexpressions. If an application linked against PCRE, such as Konqueror,\nparses a malicious regular expression, it may have been possible to run\narbitrary code as the user running the application.\n(CVE-2006-7225, CVE-2006-7226, CVE-2006-7228, CVE-2006-7230)\nUsers of PCRE are advised to upgrade to these updated packages, which\ncontain backported patches to resolve these issues.\nRed Hat would like to thank Ludwig Nussel for reporting these issues.",
  "Platform": [
    "Red Hat Enterprise Linux 5"
  ],
  "References": [
    {
      "Source": "RHSA",
      "URI": "https://access.redhat.com/errata/RHSA-2007:1059",
      "ID": "RHSA-2007:1059"
    },
    {
      "Source": "CVE",
      "URI": "https://access.redhat.com/security/cve/CVE-2006-7225",
      "ID": "CVE-2006-7225"
    },
    {
      "Source": "CVE",
      "URI": "https://access.redhat.com/security/cve/CVE-2006-7226",
      "ID": "CVE-2006-7226"
    },
    {
      "Source": "CVE",
      "URI": "https://access.redhat.com/security/cve/CVE-2006-7228",
      "ID": "CVE-2006-7228"
    },
    {
      "Source": "CVE",
      "URI": "https://access.redhat.com/security/cve/CVE-2006-7230",
      "ID": "CVE-2006-7230"
    }
  ],
  "Criteria": {
    "Operator": "OR",
    "Criterias": [
      {
        "Operator": "AND",
        "Criterias": [
          {
            "Operator": "OR",
            "Criterias": [
              {
                "Operator": "AND",
                "Criterias": [

                ],
                "Criterions": [
                  {
                    "Comment": "pcre is earlier than 0:6.6-2.el5_1.7"
                  },
                  {
                    "Comment": "pcre is signed with Red Hat redhatrelease key"
                  }
                ]
              },
              {
                "Operator": "AND",
                "Criterias": [

                ],
                "Criterions": [
                  {
                    "Comment": "pcre-devel is earlier than 0:6.6-2.el5_1.7"
                  },
                  {
                    "Comment": "pcre-devel is signed with Red Hat redhatrelease key"
                  }
                ]
              }
            ],
            "Criterions": [

            ]
          }
        ],
        "Criterions": [
          {
            "Comment": "Oracle Linux 5 is installed"
          }
        ]
      }
    ],
    "Criterions": [
      {
        "Comment": "Oracle Linux 5 is installed"
      }
    ]
  },
  "Severity": "Important",
  "Cves": [
    {
      "Impact": "",
      "Href": "",
      "ID": "CVE-2006-7225"
    },
    {
      "Impact": "",
      "Href": "",
      "ID": "CVE-2006-7226"
    },
    {
      "Impact": "",
      "Href": "",
      "ID": "CVE-2006-7228"
    },
    {
      "Impact": "",
      "Href": "",
      "ID": "CVE-2006-7230"
    }
  ],
  "Issued": {
    "Date": "2007-11-29"
  }
}