{
  "Title": "RHSA-2007:0095: krb5 security update (Critical)",
  "Description": "Kerberos is a network authentication system which allows clients and\nservers to authenticate to each other through use of symmetric encryption\nand a trusted third party, the KDC.\nA flaw was found in the username handling of the MIT krb5 telnet daemon\n(telnetd).  A remote attacker who can access the telnet port of a target\nmachine could log in as root without requiring a password.  (CVE-2007-0956)\nNote that the krb5 telnet daemon is not enabled by default in any version\nof Red Hat Enterprise Linux.  In addition, the default firewall rules block\nremote access to the telnet port.  This flaw does not affect the telnet\ndaemon distributed in the telnet-server package.\nFor users who have enabled the krb5 telnet daemon and have it accessible\nremotely, this update should be applied immediately.  \nWhilst we are not aware at this time that the flaw is being actively\nexploited, we have confirmed that the flaw is very easily exploitable.\nThis update also fixes two additional security issues:\nBuffer overflows were found which affect the Kerberos KDC and the kadmin\nserver daemon.  A remote attacker who can access the KDC could exploit this\nbug to run arbitrary code with the privileges of the KDC or kadmin server\nprocesses.  (CVE-2007-0957)\nA double-free flaw was found in the GSSAPI library used by the kadmin\nserver daemon.  Red Hat Enterprise Linux 4 and 5 contain checks within\nglibc that detect double-free flaws. Therefore, on Red Hat Enterprise Linux\n4 and 5 successful exploitation of this issue can only lead to a denial of\nservice.  Applications which use this library in earlier releases of Red\nHat Enterprise Linux may also be affected.  (CVE-2007-1216)\nAll users are advised to update to these erratum packages which contain a\nbackported fix to correct these issues.\nRed Hat would like to thank MIT and iDefense for reporting these\nvulnerabilities.",
  "Platform": [
    "Red Hat Enterprise Linux 4",
    "Red Hat Enterprise Linux 5"
  ],
  "References": [
    {
      "Source": "RHSA",
      "URI": "https://access.redhat.com/errata/RHSA-2007:0095",
      "ID": "RHSA-2007:0095"
    },
    {
      "Source": "CVE",
      "URI": "https://access.redhat.com/security/cve/CVE-2007-0956",
      "ID": "CVE-2007-0956"
    },
    {
      "Source": "CVE",
      "URI": "https://access.redhat.com/security/cve/CVE-2007-0957",
      "ID": "CVE-2007-0957"
    },
    {
      "Source": "CVE",
      "URI": "https://access.redhat.com/security/cve/CVE-2007-1216",
      "ID": "CVE-2007-1216"
    }
  ],
  "Criteria": {
    "Operator": "OR",
    "Criterias": [
      {
        "Operator": "AND",
        "Criterias": [
          {
            "Operator": "OR",
            "Criterias": [
              {
                "Operator": "AND",
                "Criterias": [

                ],
                "Criterions": [
                  {
                    "Comment": "krb5-devel is earlier than 0:1.3.4-46"
                  },
                  {
                    "Comment": "krb5-devel is signed with Red Hat master key"
                  }
                ]
              },
              {
                "Operator": "AND",
                "Criterias": [

                ],
                "Criterions": [
                  {
                    "Comment": "krb5-libs is earlier than 0:1.3.4-46"
                  },
                  {
                    "Comment": "krb5-libs is signed with Red Hat master key"
                  }
                ]
              },
              {
                "Operator": "AND",
                "Criterias": [

                ],
                "Criterions": [
                  {
                    "Comment": "krb5-server is earlier than 0:1.3.4-46"
                  },
                  {
                    "Comment": "krb5-server is signed with Red Hat master key"
                  }
                ]
              },
              {
                "Operator": "AND",
                "Criterias": [

                ],
                "Criterions": [
                  {
                    "Comment": "krb5-workstation is earlier than 0:1.3.4-46"
                  },
                  {
                    "Comment": "krb5-workstation is signed with Red Hat master key"
                  }
                ]
              }
            ],
            "Criterions": [

            ]
          }
        ],
        "Criterions": [
          {
            "Comment": "Oracle Linux 4 is installed"
          }
        ]
      },
      {
        "Operator": "AND",
        "Criterias": [
          {
            "Operator": "OR",
            "Criterias": [
              {
                "Operator": "AND",
                "Criterias": [

                ],
                "Criterions": [
                  {
                    "Comment": "krb5-devel is earlier than 0:1.5-23"
                  },
                  {
                    "Comment": "krb5-devel is signed with Red Hat redhatrelease key"
                  }
                ]
              },
              {
                "Operator": "AND",
                "Criterias": [

                ],
                "Criterions": [
                  {
                    "Comment": "krb5-libs is earlier than 0:1.5-23"
                  },
                  {
                    "Comment": "krb5-libs is signed with Red Hat redhatrelease key"
                  }
                ]
              },
              {
                "Operator": "AND",
                "Criterias": [

                ],
                "Criterions": [
                  {
                    "Comment": "krb5-server is earlier than 0:1.5-23"
                  },
                  {
                    "Comment": "krb5-server is signed with Red Hat redhatrelease key"
                  }
                ]
              },
              {
                "Operator": "AND",
                "Criterias": [

                ],
                "Criterions": [
                  {
                    "Comment": "krb5-workstation is earlier than 0:1.5-23"
                  },
                  {
                    "Comment": "krb5-workstation is signed with Red Hat redhatrelease key"
                  }
                ]
              }
            ],
            "Criterions": [

            ]
          }
        ],
        "Criterions": [
          {
            "Comment": "Oracle Linux 5 is installed"
          }
        ]
      }
    ],
    "Criterions": [
      {
        "Comment": "Oracle Linux 4 is installed"
      }
    ]
  },
  "Severity": "Critical",
  "Cves": [
    {
      "Impact": "",
      "Href": "",
      "ID": "CVE-2007-0956"
    },
    {
      "Impact": "",
      "Href": "",
      "ID": "CVE-2007-0957"
    },
    {
      "Impact": "",
      "Href": "",
      "ID": "CVE-2007-1216"
    }
  ],
  "Issued": {
    "Date": "2007-04-03"
  }
}