{
  "Title": "RHSA-2007:1026: poppler security update (Important)",
  "Description": "Poppler is a PDF rendering library, used by applications such as evince. \nAlin Rad Pop discovered several flaws in the handling of PDF files. An\nattacker could create a malicious PDF file that would cause an application\nlinked with poppler to crash, or potentially execute arbitrary code when\nopened. (CVE-2007-4352, CVE-2007-5392, CVE-2007-5393)\nUsers are advised to upgrade to these updated packages, which contain\nbackported patches to resolve these issues.",
  "Platform": [
    "Red Hat Enterprise Linux 5"
  ],
  "References": [
    {
      "Source": "RHSA",
      "URI": "https://access.redhat.com/errata/RHSA-2007:1026",
      "ID": "RHSA-2007:1026"
    },
    {
      "Source": "CVE",
      "URI": "https://access.redhat.com/security/cve/CVE-2007-4352",
      "ID": "CVE-2007-4352"
    },
    {
      "Source": "CVE",
      "URI": "https://access.redhat.com/security/cve/CVE-2007-5392",
      "ID": "CVE-2007-5392"
    },
    {
      "Source": "CVE",
      "URI": "https://access.redhat.com/security/cve/CVE-2007-5393",
      "ID": "CVE-2007-5393"
    }
  ],
  "Criteria": {
    "Operator": "OR",
    "Criterias": [
      {
        "Operator": "AND",
        "Criterias": [
          {
            "Operator": "OR",
            "Criterias": [
              {
                "Operator": "AND",
                "Criterias": [

                ],
                "Criterions": [
                  {
                    "Comment": "poppler is earlier than 0:0.5.4-4.3.el5_1"
                  },
                  {
                    "Comment": "poppler is signed with Red Hat redhatrelease key"
                  }
                ]
              },
              {
                "Operator": "AND",
                "Criterias": [

                ],
                "Criterions": [
                  {
                    "Comment": "poppler-devel is earlier than 0:0.5.4-4.3.el5_1"
                  },
                  {
                    "Comment": "poppler-devel is signed with Red Hat redhatrelease key"
                  }
                ]
              },
              {
                "Operator": "AND",
                "Criterias": [

                ],
                "Criterions": [
                  {
                    "Comment": "poppler-utils is earlier than 0:0.5.4-4.3.el5_1"
                  },
                  {
                    "Comment": "poppler-utils is signed with Red Hat redhatrelease key"
                  }
                ]
              }
            ],
            "Criterions": [

            ]
          }
        ],
        "Criterions": [
          {
            "Comment": "Oracle Linux 5 is installed"
          }
        ]
      }
    ],
    "Criterions": [
      {
        "Comment": "Oracle Linux 5 is installed"
      }
    ]
  },
  "Severity": "Important",
  "Cves": [
    {
      "Impact": "",
      "Href": "",
      "ID": "CVE-2007-4352"
    },
    {
      "Impact": "",
      "Href": "",
      "ID": "CVE-2007-5392"
    },
    {
      "Impact": "",
      "Href": "",
      "ID": "CVE-2007-5393"
    }
  ],
  "Issued": {
    "Date": "2007-11-07"
  }
}