{
  "Title": "RHSA-2007:0389: quagga security update (Moderate)",
  "Description": "Quagga is a TCP/IP based routing software suite.\nAn out of bounds memory read flaw was discovered in Quagga's bgpd.  A\nconfigured peer of bgpd could cause Quagga to crash, leading to a denial of\nservice (CVE-2007-1995).\nAll users of Quagga should upgrade to this updated package, which\ncontains a backported patch to correct these issues.",
  "Platform": [
    "Red Hat Enterprise Linux 4",
    "Red Hat Enterprise Linux 5"
  ],
  "References": [
    {
      "Source": "RHSA",
      "URI": "https://access.redhat.com/errata/RHSA-2007:0389",
      "ID": "RHSA-2007:0389"
    },
    {
      "Source": "CVE",
      "URI": "https://access.redhat.com/security/cve/CVE-2007-1995",
      "ID": "CVE-2007-1995"
    }
  ],
  "Criteria": {
    "Operator": "OR",
    "Criterias": [
      {
        "Operator": "AND",
        "Criterias": [
          {
            "Operator": "OR",
            "Criterias": [
              {
                "Operator": "AND",
                "Criterias": [

                ],
                "Criterions": [
                  {
                    "Comment": "quagga is earlier than 0:0.98.3-2.4.0.1.el4"
                  },
                  {
                    "Comment": "quagga is signed with Red Hat master key"
                  }
                ]
              },
              {
                "Operator": "AND",
                "Criterias": [

                ],
                "Criterions": [
                  {
                    "Comment": "quagga-contrib is earlier than 0:0.98.3-2.4.0.1.el4"
                  },
                  {
                    "Comment": "quagga-contrib is signed with Red Hat master key"
                  }
                ]
              },
              {
                "Operator": "AND",
                "Criterias": [

                ],
                "Criterions": [
                  {
                    "Comment": "quagga-devel is earlier than 0:0.98.3-2.4.0.1.el4"
                  },
                  {
                    "Comment": "quagga-devel is signed with Red Hat master key"
                  }
                ]
              }
            ],
            "Criterions": [

            ]
          }
        ],
        "Criterions": [
          {
            "Comment": "Oracle Linux 4 is installed"
          }
        ]
      },
      {
        "Operator": "AND",
        "Criterias": [
          {
            "Operator": "OR",
            "Criterias": [
              {
                "Operator": "AND",
                "Criterias": [

                ],
                "Criterions": [
                  {
                    "Comment": "quagga is earlier than 0:0.98.6-2.1.0.1.el5"
                  },
                  {
                    "Comment": "quagga is signed with Red Hat redhatrelease key"
                  }
                ]
              },
              {
                "Operator": "AND",
                "Criterias": [

                ],
                "Criterions": [
                  {
                    "Comment": "quagga-contrib is earlier than 0:0.98.6-2.1.0.1.el5"
                  },
                  {
                    "Comment": "quagga-contrib is signed with Red Hat redhatrelease key"
                  }
                ]
              },
              {
                "Operator": "AND",
                "Criterias": [

                ],
                "Criterions": [
                  {
                    "Comment": "quagga-devel is earlier than 0:0.98.6-2.1.0.1.el5"
                  },
                  {
                    "Comment": "quagga-devel is signed with Red Hat redhatrelease key"
                  }
                ]
              }
            ],
            "Criterions": [

            ]
          }
        ],
        "Criterions": [
          {
            "Comment": "Oracle Linux 5 is installed"
          }
        ]
      }
    ],
    "Criterions": [
      {
        "Comment": "Oracle Linux 4 is installed"
      }
    ]
  },
  "Severity": "Moderate",
  "Cves": [
    {
      "Impact": "",
      "Href": "",
      "ID": "CVE-2007-1995"
    }
  ],
  "Issued": {
    "Date": "2007-05-30"
  }
}