{
  "Title": "RHSA-2007:0817: java-1.4.2-ibm security update (Critical)",
  "Description": "IBM's 1.4.2 SR9 Java release includes the IBM Java 2 Runtime Environment\nand the IBM Java 2 Software Development Kit.\nA security vulnerability in the Java Web Start component was discovered. \nAn untrusted application could elevate it's privileges and read and write\nlocal files that are accessible to the user running the Java Web Start\napplication. (CVE-2007-2435)\nA buffer overflow in the Java Runtime Environment image handling code was\nfound. An untrusted applet or application could use this flaw to elevate\nits privileges and potentially execute arbitrary code as the user running\nthe java virtual machine. (CVE-2007-3004)\nAn unspecified vulnerability was discovered in the Java Runtime\nEnvironment. An untrusted applet or application could cause the java\nvirtual machine to become unresponsive. (CVE-2007-3005)\nAll users of java-1.4.2-ibm should upgrade to these updated packages, \nwhich contain IBM's 1.4.2 SR9 Java release that resolves these issues.",
  "Platform": [
    "Supplementary for Red Hat Enterprise Linux 5"
  ],
  "References": [
    {
      "Source": "RHSA",
      "URI": "https://rhn.redhat.com/errata/RHSA-2007-0817.html",
      "ID": "RHSA-2007:0817-01"
    },
    {
      "Source": "CVE",
      "URI": "https://access.redhat.com/security/cve/CVE-2007-2435",
      "ID": "CVE-2007-2435"
    },
    {
      "Source": "CVE",
      "URI": "https://access.redhat.com/security/cve/CVE-2007-2788",
      "ID": "CVE-2007-2788"
    },
    {
      "Source": "CVE",
      "URI": "https://access.redhat.com/security/cve/CVE-2007-2789",
      "ID": "CVE-2007-2789"
    }
  ],
  "Criteria": {
    "Operator": "AND",
    "Criterias": [
      {
        "Operator": "OR",
        "Criterias": [
          {
            "Operator": "AND",
            "Criterias": [

            ],
            "Criterions": [
              {
                "Comment": "java-1.4.2-ibm is earlier than 0:1.4.2.9-1jpp.1.el5"
              },
              {
                "Comment": "java-1.4.2-ibm is signed with Red Hat redhatrelease key"
              }
            ]
          },
          {
            "Operator": "AND",
            "Criterias": [

            ],
            "Criterions": [
              {
                "Comment": "java-1.4.2-ibm-demo is earlier than 0:1.4.2.9-1jpp.1.el5"
              },
              {
                "Comment": "java-1.4.2-ibm-demo is signed with Red Hat redhatrelease key"
              }
            ]
          },
          {
            "Operator": "AND",
            "Criterias": [

            ],
            "Criterions": [
              {
                "Comment": "java-1.4.2-ibm-devel is earlier than 0:1.4.2.9-1jpp.1.el5"
              },
              {
                "Comment": "java-1.4.2-ibm-devel is signed with Red Hat redhatrelease key"
              }
            ]
          },
          {
            "Operator": "AND",
            "Criterias": [

            ],
            "Criterions": [
              {
                "Comment": "java-1.4.2-ibm-javacomm is earlier than 0:1.4.2.9-1jpp.1.el5"
              },
              {
                "Comment": "java-1.4.2-ibm-javacomm is signed with Red Hat redhatrelease key"
              }
            ]
          },
          {
            "Operator": "AND",
            "Criterias": [

            ],
            "Criterions": [
              {
                "Comment": "java-1.4.2-ibm-jdbc is earlier than 0:1.4.2.9-1jpp.1.el5"
              },
              {
                "Comment": "java-1.4.2-ibm-jdbc is signed with Red Hat redhatrelease key"
              }
            ]
          },
          {
            "Operator": "AND",
            "Criterias": [

            ],
            "Criterions": [
              {
                "Comment": "java-1.4.2-ibm-plugin is earlier than 0:1.4.2.9-1jpp.1.el5"
              },
              {
                "Comment": "java-1.4.2-ibm-plugin is signed with Red Hat redhatrelease key"
              }
            ]
          },
          {
            "Operator": "AND",
            "Criterias": [

            ],
            "Criterions": [
              {
                "Comment": "java-1.4.2-ibm-src is earlier than 0:1.4.2.9-1jpp.1.el5"
              },
              {
                "Comment": "java-1.4.2-ibm-src is signed with Red Hat redhatrelease key"
              }
            ]
          }
        ],
        "Criterions": [

        ]
      }
    ],
    "Criterions": [
      {
        "Comment": "Oracle Linux 5 is installed"
      }
    ]
  },
  "Severity": "Critical",
  "Cves": [
    {
      "Impact": "",
      "Href": "",
      "ID": "CVE-2007-2435"
    },
    {
      "Impact": "",
      "Href": "",
      "ID": "CVE-2007-2788"
    },
    {
      "Impact": "",
      "Href": "",
      "ID": "CVE-2007-2789"
    }
  ],
  "Issued": {
    "Date": "2007-08-06"
  }
}