{
  "Title": "RHSA-2007:0203: unzip security and bug fix update (Low)",
  "Description": "The unzip utility is used to list, test, or extract files from a zip archive.\nA race condition was found in Unzip. Local users could use this flaw to\nmodify permissions of arbitrary files via a hard link attack on a file\nwhile it was being decompressed (CVE-2005-2475)\nA buffer overflow was found in Unzip command line argument handling.\nIf a user could be tricked into running Unzip with a specially crafted long\nfile name, an attacker could execute arbitrary code with that user's\nprivileges. (CVE-2005-4667)\nAs well, this update adds support for files larger than 2GB.\nAll users of unzip should upgrade to these updated packages, which\ncontain backported patches that resolve these issues.",
  "Platform": [
    "Red Hat Enterprise Linux 4"
  ],
  "References": [
    {
      "Source": "RHSA",
      "URI": "https://access.redhat.com/errata/RHSA-2007:0203",
      "ID": "RHSA-2007:0203"
    },
    {
      "Source": "CVE",
      "URI": "https://access.redhat.com/security/cve/CVE-2005-2475",
      "ID": "CVE-2005-2475"
    },
    {
      "Source": "CVE",
      "URI": "https://access.redhat.com/security/cve/CVE-2005-4667",
      "ID": "CVE-2005-4667"
    }
  ],
  "Criteria": {
    "Operator": "OR",
    "Criterias": [
      {
        "Operator": "AND",
        "Criterias": [

        ],
        "Criterions": [
          {
            "Comment": "Oracle Linux 4 is installed"
          },
          {
            "Comment": "unzip is earlier than 0:5.51-9.EL4.5"
          },
          {
            "Comment": "unzip is signed with Red Hat master key"
          }
        ]
      }
    ],
    "Criterions": [
      {
        "Comment": "Oracle Linux 4 is installed"
      }
    ]
  },
  "Severity": "Low",
  "Cves": [
    {
      "Impact": "",
      "Href": "",
      "ID": "CVE-2005-2475"
    },
    {
      "Impact": "",
      "Href": "",
      "ID": "CVE-2005-4667"
    }
  ],
  "Issued": {
    "Date": "2007-05-01"
  }
}