{
  "Title": "RHSA-2007:0358: squirrelmail security update (Moderate)",
  "Description": "SquirrelMail is a standards-based webmail package written in PHP4. \nSeveral HTML filtering bugs were discovered in SquirrelMail.  An attacker\ncould inject arbitrary JavaScript leading to cross-site scripting attacks\nby sending an e-mail viewed by a user within SquirrelMail. \n(CVE-2007-1262)\nSquirrelmail did not sufficiently check arguments to IMG tags in HTML\ne-mail messages. This could be exploited by an attacker by sending\narbitrary e-mail messages on behalf of a squirrelmail user tricked into opening\na maliciously crafted HTML e-mail message.  (CVE-2007-2589)\nUsers of SquirrelMail should upgrade to this erratum package, which\ncontains a backported patch to correct these issues.",
  "Platform": [
    "Red Hat Enterprise Linux 4",
    "Red Hat Enterprise Linux 5"
  ],
  "References": [
    {
      "Source": "RHSA",
      "URI": "https://access.redhat.com/errata/RHSA-2007:0358",
      "ID": "RHSA-2007:0358"
    },
    {
      "Source": "CVE",
      "URI": "https://access.redhat.com/security/cve/CVE-2007-1262",
      "ID": "CVE-2007-1262"
    },
    {
      "Source": "CVE",
      "URI": "https://access.redhat.com/security/cve/CVE-2007-2589",
      "ID": "CVE-2007-2589"
    }
  ],
  "Criteria": {
    "Operator": "OR",
    "Criterias": [
      {
        "Operator": "AND",
        "Criterias": [

        ],
        "Criterions": [
          {
            "Comment": "Oracle Linux 4 is installed"
          },
          {
            "Comment": "squirrelmail is earlier than 0:1.4.8-4.0.1.el4"
          },
          {
            "Comment": "squirrelmail is signed with Red Hat redhatrelease2 key"
          }
        ]
      },
      {
        "Operator": "AND",
        "Criterias": [

        ],
        "Criterions": [
          {
            "Comment": "Oracle Linux 5 is installed"
          },
          {
            "Comment": "squirrelmail is earlier than 0:1.4.8-4.0.1.el5"
          },
          {
            "Comment": "squirrelmail is signed with Red Hat redhatrelease2 key"
          }
        ]
      }
    ],
    "Criterions": [
      {
        "Comment": "Oracle Linux 4 is installed"
      }
    ]
  },
  "Severity": "Moderate",
  "Cves": [
    {
      "Impact": "",
      "Href": "",
      "ID": "CVE-2007-1262"
    },
    {
      "Impact": "",
      "Href": "",
      "ID": "CVE-2007-2589"
    }
  ],
  "Issued": {
    "Date": "2007-05-17"
  }
}