{
  "Title": "RHSA-2007:0722: seamonkey security update (Critical)",
  "Description": "SeaMonkey is an open source Web browser, advanced email and newsgroup\nclient, IRC chat client, and HTML editor.\nSeveral flaws were found in the way SeaMonkey processed certain malformed\nJavaScript code. A web page containing malicious JavaScript code could\ncause SeaMonkey to crash or potentially execute arbitrary code as the user\nrunning SeaMonkey. (CVE-2007-3734, CVE-2007-3735, CVE-2007-3737, CVE-2007-3738)\nSeveral content injection flaws were found in the way SeaMonkey handled\ncertain JavaScript code. A web page containing malicious JavaScript code\ncould inject arbitrary content into other web pages. (CVE-2007-3736,\nCVE-2007-3089)\nA flaw was found in the way SeaMonkey cached web pages on the local disk. A\nmalicious web page may be able to inject arbitrary HTML into a browsing\nsession if the user reloads a targeted site. (CVE-2007-3656)\nUsers of SeaMonkey are advised to upgrade to these erratum packages, which\ncontain backported patches that correct these issues.",
  "Platform": [
    "Red Hat Enterprise Linux 4"
  ],
  "References": [
    {
      "Source": "RHSA",
      "URI": "https://access.redhat.com/errata/RHSA-2007:0722",
      "ID": "RHSA-2007:0722"
    },
    {
      "Source": "CVE",
      "URI": "https://access.redhat.com/security/cve/CVE-2007-3089",
      "ID": "CVE-2007-3089"
    },
    {
      "Source": "CVE",
      "URI": "https://access.redhat.com/security/cve/CVE-2007-3656",
      "ID": "CVE-2007-3656"
    },
    {
      "Source": "CVE",
      "URI": "https://access.redhat.com/security/cve/CVE-2007-3734",
      "ID": "CVE-2007-3734"
    },
    {
      "Source": "CVE",
      "URI": "https://access.redhat.com/security/cve/CVE-2007-3735",
      "ID": "CVE-2007-3735"
    },
    {
      "Source": "CVE",
      "URI": "https://access.redhat.com/security/cve/CVE-2007-3736",
      "ID": "CVE-2007-3736"
    },
    {
      "Source": "CVE",
      "URI": "https://access.redhat.com/security/cve/CVE-2007-3737",
      "ID": "CVE-2007-3737"
    },
    {
      "Source": "CVE",
      "URI": "https://access.redhat.com/security/cve/CVE-2007-3738",
      "ID": "CVE-2007-3738"
    }
  ],
  "Criteria": {
    "Operator": "OR",
    "Criterias": [
      {
        "Operator": "AND",
        "Criterias": [
          {
            "Operator": "OR",
            "Criterias": [
              {
                "Operator": "AND",
                "Criterias": [

                ],
                "Criterions": [
                  {
                    "Comment": "seamonkey is earlier than 0:1.0.9-4.el4"
                  },
                  {
                    "Comment": "seamonkey is signed with Red Hat master key"
                  }
                ]
              },
              {
                "Operator": "AND",
                "Criterias": [

                ],
                "Criterions": [
                  {
                    "Comment": "seamonkey-chat is earlier than 0:1.0.9-4.el4"
                  },
                  {
                    "Comment": "seamonkey-chat is signed with Red Hat master key"
                  }
                ]
              },
              {
                "Operator": "AND",
                "Criterias": [

                ],
                "Criterions": [
                  {
                    "Comment": "seamonkey-devel is earlier than 0:1.0.9-4.el4"
                  },
                  {
                    "Comment": "seamonkey-devel is signed with Red Hat master key"
                  }
                ]
              },
              {
                "Operator": "AND",
                "Criterias": [

                ],
                "Criterions": [
                  {
                    "Comment": "seamonkey-dom-inspector is earlier than 0:1.0.9-4.el4"
                  },
                  {
                    "Comment": "seamonkey-dom-inspector is signed with Red Hat master key"
                  }
                ]
              },
              {
                "Operator": "AND",
                "Criterias": [

                ],
                "Criterions": [
                  {
                    "Comment": "seamonkey-js-debugger is earlier than 0:1.0.9-4.el4"
                  },
                  {
                    "Comment": "seamonkey-js-debugger is signed with Red Hat master key"
                  }
                ]
              },
              {
                "Operator": "AND",
                "Criterias": [

                ],
                "Criterions": [
                  {
                    "Comment": "seamonkey-mail is earlier than 0:1.0.9-4.el4"
                  },
                  {
                    "Comment": "seamonkey-mail is signed with Red Hat master key"
                  }
                ]
              }
            ],
            "Criterions": [

            ]
          }
        ],
        "Criterions": [
          {
            "Comment": "Oracle Linux 4 is installed"
          }
        ]
      }
    ],
    "Criterions": [
      {
        "Comment": "Oracle Linux 4 is installed"
      }
    ]
  },
  "Severity": "Critical",
  "Cves": [
    {
      "Impact": "",
      "Href": "",
      "ID": "CVE-2007-3089"
    },
    {
      "Impact": "",
      "Href": "",
      "ID": "CVE-2007-3656"
    },
    {
      "Impact": "",
      "Href": "",
      "ID": "CVE-2007-3734"
    },
    {
      "Impact": "",
      "Href": "",
      "ID": "CVE-2007-3735"
    },
    {
      "Impact": "",
      "Href": "",
      "ID": "CVE-2007-3736"
    },
    {
      "Impact": "",
      "Href": "",
      "ID": "CVE-2007-3737"
    },
    {
      "Impact": "",
      "Href": "",
      "ID": "CVE-2007-3738"
    }
  ],
  "Issued": {
    "Date": "2007-07-19"
  }
}