{
  "Title": "RHSA-2007:0400: firefox security update (Critical)",
  "Description": "Mozilla Firefox is an open source Web browser.\nSeveral flaws were found in the way Firefox processed certain malformed\nJavaScript code. A web page containing malicious JavaScript code could\ncause Firefox to crash or potentially execute arbitrary code as the user\nrunning Firefox. (CVE-2007-2867, CVE-2007-2868)\nA flaw was found in the way Firefox handled certain FTP PASV commands. A\nmalicious FTP server could use this flaw to perform a rudimentary\nport-scan of machines behind a user's firewall. (CVE-2007-1562)\nSeveral denial of service flaws were found in the way Firefox handled\ncertain form and cookie data. A malicious web site that is able to set\narbitrary form and cookie data could prevent Firefox from\nfunctioning properly. (CVE-2007-1362, CVE-2007-2869)\nA flaw was found in the way Firefox handled the addEventListener\nJavaScript method. A malicious web site could use this method to access or\nmodify sensitive data from another web site. (CVE-2007-2870)\nA flaw was found in the way Firefox displayed certain web content. A\nmalicious web page could generate content that would overlay user\ninterface elements such as the hostname and security indicators, tricking \nusers into thinking they are visiting a different site. (CVE-2007-2871)\nUsers of Firefox are advised to upgrade to these erratum packages, which\ncontain Firefox version 1.5.0.12 that corrects these issues.",
  "Platform": [
    "Red Hat Enterprise Linux 4",
    "Red Hat Enterprise Linux 5"
  ],
  "References": [
    {
      "Source": "RHSA",
      "URI": "https://access.redhat.com/errata/RHSA-2007:0400",
      "ID": "RHSA-2007:0400"
    },
    {
      "Source": "CVE",
      "URI": "https://access.redhat.com/security/cve/CVE-2007-1362",
      "ID": "CVE-2007-1362"
    },
    {
      "Source": "CVE",
      "URI": "https://access.redhat.com/security/cve/CVE-2007-1562",
      "ID": "CVE-2007-1562"
    },
    {
      "Source": "CVE",
      "URI": "https://access.redhat.com/security/cve/CVE-2007-2867",
      "ID": "CVE-2007-2867"
    },
    {
      "Source": "CVE",
      "URI": "https://access.redhat.com/security/cve/CVE-2007-2868",
      "ID": "CVE-2007-2868"
    },
    {
      "Source": "CVE",
      "URI": "https://access.redhat.com/security/cve/CVE-2007-2869",
      "ID": "CVE-2007-2869"
    },
    {
      "Source": "CVE",
      "URI": "https://access.redhat.com/security/cve/CVE-2007-2870",
      "ID": "CVE-2007-2870"
    },
    {
      "Source": "CVE",
      "URI": "https://access.redhat.com/security/cve/CVE-2007-2871",
      "ID": "CVE-2007-2871"
    }
  ],
  "Criteria": {
    "Operator": "OR",
    "Criterias": [
      {
        "Operator": "AND",
        "Criterias": [

        ],
        "Criterions": [
          {
            "Comment": "Oracle Linux 4 is installed"
          },
          {
            "Comment": "firefox is earlier than 0:1.5.0.12-0.1.el4"
          },
          {
            "Comment": "firefox is signed with Red Hat redhatrelease2 key"
          }
        ]
      },
      {
        "Operator": "AND",
        "Criterias": [
          {
            "Operator": "OR",
            "Criterias": [
              {
                "Operator": "AND",
                "Criterias": [

                ],
                "Criterions": [
                  {
                    "Comment": "devhelp is earlier than 0:0.12-11.el5"
                  },
                  {
                    "Comment": "devhelp is signed with Red Hat redhatrelease2 key"
                  }
                ]
              },
              {
                "Operator": "AND",
                "Criterias": [

                ],
                "Criterions": [
                  {
                    "Comment": "devhelp-devel is earlier than 0:0.12-11.el5"
                  },
                  {
                    "Comment": "devhelp-devel is signed with Red Hat redhatrelease2 key"
                  }
                ]
              },
              {
                "Operator": "AND",
                "Criterias": [

                ],
                "Criterions": [
                  {
                    "Comment": "firefox is earlier than 0:1.5.0.12-1.el5"
                  },
                  {
                    "Comment": "firefox is signed with Red Hat redhatrelease2 key"
                  }
                ]
              },
              {
                "Operator": "AND",
                "Criterias": [

                ],
                "Criterions": [
                  {
                    "Comment": "yelp is earlier than 0:2.16.0-15.el5"
                  },
                  {
                    "Comment": "yelp is signed with Red Hat redhatrelease2 key"
                  }
                ]
              }
            ],
            "Criterions": [

            ]
          }
        ],
        "Criterions": [
          {
            "Comment": "Oracle Linux 5 is installed"
          }
        ]
      }
    ],
    "Criterions": [
      {
        "Comment": "Oracle Linux 4 is installed"
      }
    ]
  },
  "Severity": "Critical",
  "Cves": [
    {
      "Impact": "",
      "Href": "",
      "ID": "CVE-2007-1362"
    },
    {
      "Impact": "",
      "Href": "",
      "ID": "CVE-2007-1562"
    },
    {
      "Impact": "",
      "Href": "",
      "ID": "CVE-2007-2867"
    },
    {
      "Impact": "",
      "Href": "",
      "ID": "CVE-2007-2868"
    },
    {
      "Impact": "",
      "Href": "",
      "ID": "CVE-2007-2869"
    },
    {
      "Impact": "",
      "Href": "",
      "ID": "CVE-2007-2870"
    },
    {
      "Impact": "",
      "Href": "",
      "ID": "CVE-2007-2871"
    }
  ],
  "Issued": {
    "Date": "2007-05-31"
  }
}