{
  "Title": "RHSA-2007:0008: dbus security update (Moderate)",
  "Description": "D-BUS is a system for sending messages between applications. It is used\nboth for the systemwide message bus service, and as a\nper-user-login-session messaging facility.\nKimmo Hämäläinen discovered a flaw in the way D-BUS processes certain\nmessages. It is possible for a local unprivileged D-BUS process to disrupt\nthe ability of another D-BUS process to receive messages. (CVE-2006-6107)\nUsers of dbus are advised to upgrade to these updated packages, which\ncontain backported patches to correct this issue.",
  "Platform": [
    "Red Hat Enterprise Linux 4"
  ],
  "References": [
    {
      "Source": "RHSA",
      "URI": "https://access.redhat.com/errata/RHSA-2007:0008",
      "ID": "RHSA-2007:0008"
    },
    {
      "Source": "CVE",
      "URI": "https://access.redhat.com/security/cve/CVE-2006-6107",
      "ID": "CVE-2006-6107"
    }
  ],
  "Criteria": {
    "Operator": "OR",
    "Criterias": [
      {
        "Operator": "AND",
        "Criterias": [
          {
            "Operator": "OR",
            "Criterias": [
              {
                "Operator": "AND",
                "Criterias": [

                ],
                "Criterions": [
                  {
                    "Comment": "dbus is earlier than 0:0.22-12.EL.8"
                  },
                  {
                    "Comment": "dbus is signed with Red Hat master key"
                  }
                ]
              },
              {
                "Operator": "AND",
                "Criterias": [

                ],
                "Criterions": [
                  {
                    "Comment": "dbus-devel is earlier than 0:0.22-12.EL.8"
                  },
                  {
                    "Comment": "dbus-devel is signed with Red Hat master key"
                  }
                ]
              },
              {
                "Operator": "AND",
                "Criterias": [

                ],
                "Criterions": [
                  {
                    "Comment": "dbus-glib is earlier than 0:0.22-12.EL.8"
                  },
                  {
                    "Comment": "dbus-glib is signed with Red Hat master key"
                  }
                ]
              },
              {
                "Operator": "AND",
                "Criterias": [

                ],
                "Criterions": [
                  {
                    "Comment": "dbus-python is earlier than 0:0.22-12.EL.8"
                  },
                  {
                    "Comment": "dbus-python is signed with Red Hat master key"
                  }
                ]
              },
              {
                "Operator": "AND",
                "Criterias": [

                ],
                "Criterions": [
                  {
                    "Comment": "dbus-x11 is earlier than 0:0.22-12.EL.8"
                  },
                  {
                    "Comment": "dbus-x11 is signed with Red Hat master key"
                  }
                ]
              }
            ],
            "Criterions": [

            ]
          }
        ],
        "Criterions": [
          {
            "Comment": "Oracle Linux 4 is installed"
          }
        ]
      }
    ],
    "Criterions": [
      {
        "Comment": "Oracle Linux 4 is installed"
      }
    ]
  },
  "Severity": "Moderate",
  "Cves": [
    {
      "Impact": "",
      "Href": "",
      "ID": "CVE-2006-6107"
    }
  ],
  "Issued": {
    "Date": "2007-02-08"
  }
}