{
  "Title": "RHSA-2007:0336: postgresql security update (Moderate)",
  "Description": "PostgreSQL is an advanced Object-Relational database management system\n(DBMS).\nA flaw was found in the way PostgreSQL allows authenticated users to\nexecute security-definer functions.  It was possible for an unprivileged\nuser to execute arbitrary code with the privileges of the security-definer\nfunction. (CVE-2007-2138)\nUsers of PostgreSQL should upgrade to these updated packages containing\nPostgreSQL version 8.1.9, 7.4.17, and 7.3.19 which corrects this issue.",
  "Platform": [
    "Red Hat Enterprise Linux 4",
    "Red Hat Enterprise Linux 5"
  ],
  "References": [
    {
      "Source": "RHSA",
      "URI": "https://access.redhat.com/errata/RHSA-2007:0336",
      "ID": "RHSA-2007:0336"
    },
    {
      "Source": "CVE",
      "URI": "https://access.redhat.com/security/cve/CVE-2007-2138",
      "ID": "CVE-2007-2138"
    }
  ],
  "Criteria": {
    "Operator": "OR",
    "Criterias": [
      {
        "Operator": "AND",
        "Criterias": [
          {
            "Operator": "OR",
            "Criterias": [
              {
                "Operator": "AND",
                "Criterias": [

                ],
                "Criterions": [
                  {
                    "Comment": "postgresql is earlier than 0:7.4.17-1.RHEL4.1"
                  },
                  {
                    "Comment": "postgresql is signed with Red Hat redhatrelease2 key"
                  }
                ]
              },
              {
                "Operator": "AND",
                "Criterias": [

                ],
                "Criterions": [
                  {
                    "Comment": "postgresql-contrib is earlier than 0:7.4.17-1.RHEL4.1"
                  },
                  {
                    "Comment": "postgresql-contrib is signed with Red Hat redhatrelease2 key"
                  }
                ]
              },
              {
                "Operator": "AND",
                "Criterias": [

                ],
                "Criterions": [
                  {
                    "Comment": "postgresql-devel is earlier than 0:7.4.17-1.RHEL4.1"
                  },
                  {
                    "Comment": "postgresql-devel is signed with Red Hat redhatrelease2 key"
                  }
                ]
              },
              {
                "Operator": "AND",
                "Criterias": [

                ],
                "Criterions": [
                  {
                    "Comment": "postgresql-docs is earlier than 0:7.4.17-1.RHEL4.1"
                  },
                  {
                    "Comment": "postgresql-docs is signed with Red Hat redhatrelease2 key"
                  }
                ]
              },
              {
                "Operator": "AND",
                "Criterias": [

                ],
                "Criterions": [
                  {
                    "Comment": "postgresql-jdbc is earlier than 0:7.4.17-1.RHEL4.1"
                  },
                  {
                    "Comment": "postgresql-jdbc is signed with Red Hat redhatrelease2 key"
                  }
                ]
              },
              {
                "Operator": "AND",
                "Criterias": [

                ],
                "Criterions": [
                  {
                    "Comment": "postgresql-libs is earlier than 0:7.4.17-1.RHEL4.1"
                  },
                  {
                    "Comment": "postgresql-libs is signed with Red Hat redhatrelease2 key"
                  }
                ]
              },
              {
                "Operator": "AND",
                "Criterias": [

                ],
                "Criterions": [
                  {
                    "Comment": "postgresql-pl is earlier than 0:7.4.17-1.RHEL4.1"
                  },
                  {
                    "Comment": "postgresql-pl is signed with Red Hat redhatrelease2 key"
                  }
                ]
              },
              {
                "Operator": "AND",
                "Criterias": [

                ],
                "Criterions": [
                  {
                    "Comment": "postgresql-python is earlier than 0:7.4.17-1.RHEL4.1"
                  },
                  {
                    "Comment": "postgresql-python is signed with Red Hat redhatrelease2 key"
                  }
                ]
              },
              {
                "Operator": "AND",
                "Criterias": [

                ],
                "Criterions": [
                  {
                    "Comment": "postgresql-server is earlier than 0:7.4.17-1.RHEL4.1"
                  },
                  {
                    "Comment": "postgresql-server is signed with Red Hat redhatrelease2 key"
                  }
                ]
              },
              {
                "Operator": "AND",
                "Criterias": [

                ],
                "Criterions": [
                  {
                    "Comment": "postgresql-tcl is earlier than 0:7.4.17-1.RHEL4.1"
                  },
                  {
                    "Comment": "postgresql-tcl is signed with Red Hat redhatrelease2 key"
                  }
                ]
              },
              {
                "Operator": "AND",
                "Criterias": [

                ],
                "Criterions": [
                  {
                    "Comment": "postgresql-test is earlier than 0:7.4.17-1.RHEL4.1"
                  },
                  {
                    "Comment": "postgresql-test is signed with Red Hat redhatrelease2 key"
                  }
                ]
              }
            ],
            "Criterions": [

            ]
          }
        ],
        "Criterions": [
          {
            "Comment": "Oracle Linux 4 is installed"
          }
        ]
      },
      {
        "Operator": "AND",
        "Criterias": [
          {
            "Operator": "OR",
            "Criterias": [
              {
                "Operator": "AND",
                "Criterias": [

                ],
                "Criterions": [
                  {
                    "Comment": "postgresql is earlier than 0:8.1.9-1.el5"
                  },
                  {
                    "Comment": "postgresql is signed with Red Hat redhatrelease2 key"
                  }
                ]
              },
              {
                "Operator": "AND",
                "Criterias": [

                ],
                "Criterions": [
                  {
                    "Comment": "postgresql-contrib is earlier than 0:8.1.9-1.el5"
                  },
                  {
                    "Comment": "postgresql-contrib is signed with Red Hat redhatrelease2 key"
                  }
                ]
              },
              {
                "Operator": "AND",
                "Criterias": [

                ],
                "Criterions": [
                  {
                    "Comment": "postgresql-devel is earlier than 0:8.1.9-1.el5"
                  },
                  {
                    "Comment": "postgresql-devel is signed with Red Hat redhatrelease2 key"
                  }
                ]
              },
              {
                "Operator": "AND",
                "Criterias": [

                ],
                "Criterions": [
                  {
                    "Comment": "postgresql-docs is earlier than 0:8.1.9-1.el5"
                  },
                  {
                    "Comment": "postgresql-docs is signed with Red Hat redhatrelease2 key"
                  }
                ]
              },
              {
                "Operator": "AND",
                "Criterias": [

                ],
                "Criterions": [
                  {
                    "Comment": "postgresql-libs is earlier than 0:8.1.9-1.el5"
                  },
                  {
                    "Comment": "postgresql-libs is signed with Red Hat redhatrelease2 key"
                  }
                ]
              },
              {
                "Operator": "AND",
                "Criterias": [

                ],
                "Criterions": [
                  {
                    "Comment": "postgresql-pl is earlier than 0:8.1.9-1.el5"
                  },
                  {
                    "Comment": "postgresql-pl is signed with Red Hat redhatrelease2 key"
                  }
                ]
              },
              {
                "Operator": "AND",
                "Criterias": [

                ],
                "Criterions": [
                  {
                    "Comment": "postgresql-python is earlier than 0:8.1.9-1.el5"
                  },
                  {
                    "Comment": "postgresql-python is signed with Red Hat redhatrelease2 key"
                  }
                ]
              },
              {
                "Operator": "AND",
                "Criterias": [

                ],
                "Criterions": [
                  {
                    "Comment": "postgresql-server is earlier than 0:8.1.9-1.el5"
                  },
                  {
                    "Comment": "postgresql-server is signed with Red Hat redhatrelease2 key"
                  }
                ]
              },
              {
                "Operator": "AND",
                "Criterias": [

                ],
                "Criterions": [
                  {
                    "Comment": "postgresql-tcl is earlier than 0:8.1.9-1.el5"
                  },
                  {
                    "Comment": "postgresql-tcl is signed with Red Hat redhatrelease2 key"
                  }
                ]
              },
              {
                "Operator": "AND",
                "Criterias": [

                ],
                "Criterions": [
                  {
                    "Comment": "postgresql-test is earlier than 0:8.1.9-1.el5"
                  },
                  {
                    "Comment": "postgresql-test is signed with Red Hat redhatrelease2 key"
                  }
                ]
              }
            ],
            "Criterions": [

            ]
          }
        ],
        "Criterions": [
          {
            "Comment": "Oracle Linux 5 is installed"
          }
        ]
      }
    ],
    "Criterions": [
      {
        "Comment": "Oracle Linux 4 is installed"
      }
    ]
  },
  "Severity": "Moderate",
  "Cves": [
    {
      "Impact": "",
      "Href": "",
      "ID": "CVE-2007-2138"
    }
  ],
  "Issued": {
    "Date": "2007-05-08"
  }
}