{
  "Title": "RHSA-2007:0774: kernel security and bugfix update (Moderate)",
  "Description": "The Linux kernel handles the basic functions of the operating system.\nThese new kernel packages contain fixes for the security issues described\nbelow:\n* a flaw in the ISDN CAPI subsystem that allowed a remote user to cause a\ndenial of service or potential remote access. Exploitation would require\nthe attacker to be able to send arbitrary frames over the ISDN network to\nthe victim's machine. (CVE-2007-1217, Moderate) \n* a flaw in the perfmon subsystem on ia64 platforms that allowed a local\nuser to cause a denial of service. (CVE-2006-0558, Moderate)\nIn addition, the following bugs were addressed:\n* a panic after reloading of the LSI Fusion driver.\n* a vm performance problem was corrected by balancing inactive page lists.\n* added a nodirplus option to address NFSv3 performance issues with large\ndirectories.\n* changed the personality handling to disallow personality changes of\nsetuid and setgid binaries. This ensures they keep any randomization and\nExec-shield protection.\nAll Red Hat Enterprise Linux 4 users are advised to upgrade their kernels\nto the packages associated with their machine architectures and\nconfigurations as listed in this erratum.",
  "Platform": [
    "Red Hat Enterprise Linux 4"
  ],
  "References": [
    {
      "Source": "RHSA",
      "URI": "https://access.redhat.com/errata/RHSA-2007:0774",
      "ID": "RHSA-2007:0774"
    },
    {
      "Source": "CVE",
      "URI": "https://access.redhat.com/security/cve/CVE-2006-0558",
      "ID": "CVE-2006-0558"
    },
    {
      "Source": "CVE",
      "URI": "https://access.redhat.com/security/cve/CVE-2007-1217",
      "ID": "CVE-2007-1217"
    }
  ],
  "Criteria": {
    "Operator": "OR",
    "Criterias": [
      {
        "Operator": "AND",
        "Criterias": [
          {
            "Operator": "OR",
            "Criterias": [

            ],
            "Criterions": [
              {
                "Comment": "kernel earlier than 0:2.6.9-55.0.6.EL is currently running"
              },
              {
                "Comment": "kernel earlier than 0:2.6.9-55.0.6.EL is set to boot up on next boot"
              }
            ]
          },
          {
            "Operator": "OR",
            "Criterias": [
              {
                "Operator": "AND",
                "Criterias": [

                ],
                "Criterions": [
                  {
                    "Comment": "kernel is earlier than 0:2.6.9-55.0.6.EL"
                  },
                  {
                    "Comment": "kernel is signed with Red Hat redhatrelease2 key"
                  }
                ]
              },
              {
                "Operator": "AND",
                "Criterias": [

                ],
                "Criterions": [
                  {
                    "Comment": "kernel-devel is earlier than 0:2.6.9-55.0.6.EL"
                  },
                  {
                    "Comment": "kernel-devel is signed with Red Hat redhatrelease2 key"
                  }
                ]
              },
              {
                "Operator": "AND",
                "Criterias": [

                ],
                "Criterions": [
                  {
                    "Comment": "kernel-doc is earlier than 0:2.6.9-55.0.6.EL"
                  },
                  {
                    "Comment": "kernel-doc is signed with Red Hat redhatrelease2 key"
                  }
                ]
              },
              {
                "Operator": "AND",
                "Criterias": [

                ],
                "Criterions": [
                  {
                    "Comment": "kernel-hugemem is earlier than 0:2.6.9-55.0.6.EL"
                  },
                  {
                    "Comment": "kernel-hugemem is signed with Red Hat redhatrelease2 key"
                  }
                ]
              },
              {
                "Operator": "AND",
                "Criterias": [

                ],
                "Criterions": [
                  {
                    "Comment": "kernel-hugemem-devel is earlier than 0:2.6.9-55.0.6.EL"
                  },
                  {
                    "Comment": "kernel-hugemem-devel is signed with Red Hat redhatrelease2 key"
                  }
                ]
              },
              {
                "Operator": "AND",
                "Criterias": [

                ],
                "Criterions": [
                  {
                    "Comment": "kernel-largesmp is earlier than 0:2.6.9-55.0.6.EL"
                  },
                  {
                    "Comment": "kernel-largesmp is signed with Red Hat redhatrelease2 key"
                  }
                ]
              },
              {
                "Operator": "AND",
                "Criterias": [

                ],
                "Criterions": [
                  {
                    "Comment": "kernel-largesmp-devel is earlier than 0:2.6.9-55.0.6.EL"
                  },
                  {
                    "Comment": "kernel-largesmp-devel is signed with Red Hat redhatrelease2 key"
                  }
                ]
              },
              {
                "Operator": "AND",
                "Criterias": [

                ],
                "Criterions": [
                  {
                    "Comment": "kernel-smp is earlier than 0:2.6.9-55.0.6.EL"
                  },
                  {
                    "Comment": "kernel-smp is signed with Red Hat redhatrelease2 key"
                  }
                ]
              },
              {
                "Operator": "AND",
                "Criterias": [

                ],
                "Criterions": [
                  {
                    "Comment": "kernel-smp-devel is earlier than 0:2.6.9-55.0.6.EL"
                  },
                  {
                    "Comment": "kernel-smp-devel is signed with Red Hat redhatrelease2 key"
                  }
                ]
              },
              {
                "Operator": "AND",
                "Criterias": [

                ],
                "Criterions": [
                  {
                    "Comment": "kernel-xenU is earlier than 0:2.6.9-55.0.6.EL"
                  },
                  {
                    "Comment": "kernel-xenU is signed with Red Hat redhatrelease2 key"
                  }
                ]
              },
              {
                "Operator": "AND",
                "Criterias": [

                ],
                "Criterions": [
                  {
                    "Comment": "kernel-xenU-devel is earlier than 0:2.6.9-55.0.6.EL"
                  },
                  {
                    "Comment": "kernel-xenU-devel is signed with Red Hat redhatrelease2 key"
                  }
                ]
              }
            ],
            "Criterions": [

            ]
          }
        ],
        "Criterions": [
          {
            "Comment": "Oracle Linux 4 is installed"
          }
        ]
      }
    ],
    "Criterions": [
      {
        "Comment": "Oracle Linux 4 is installed"
      }
    ]
  },
  "Severity": "Moderate",
  "Cves": [
    {
      "Impact": "",
      "Href": "",
      "ID": "CVE-2006-0558"
    },
    {
      "Impact": "",
      "Href": "",
      "ID": "CVE-2007-1217"
    }
  ],
  "Issued": {
    "Date": "2007-09-04"
  }
}