{
  "Title": "RHSA-2007:0640: conga security, bug fix, and enhancement update (Moderate)",
  "Description": "The Conga package is a web-based administration tool for remote cluster and\nstorage management.\nA flaw was found in ricci during a code audit.  A remote attacker who is\nable to connect to ricci could cause ricci to temporarily refuse additional\nconnections, a denial of service (CVE-2007-4136).\nFixes in this updated package include:\n* The nodename is now set for manual fencing.\n* The node log no longer displays in random order.\n* A bug that prevented a node from responding when a cluster was deleted is\nnow fixed.\n* A PAM configuration that incorrectly called the deprecated module\npam_stack was removed.\n* A bug that prevented some quorum disk configurations from being accepted\nis now fixed.\n* Setting multicast addresses now works properly.\n* rpm -V on luci no longer fails. \n* The user interface rendering time for storage interface is now faster.\n* An error message that incorrectly appeared when rebooting nodes during\ncluster creation was removed.\n* Cluster snaps configuration (an unsupported feature) has been removed\naltogether to prevent user confusion. \n* A user permission bug resulting from a luci code error is now fixed.\n* luci and ricci init script return codes are now LSB-compliant.\n* VG creation on cluster nodes now defaults to \"clustered\".\n* An SELinux AVC bug that prevented users from setting up shared storage on\nnodes is now fixed.\n* An access error that occurred when attempting to access a cluster node\nafter its cluster was deleted is now fixed.\n* IP addresses can now be used to create clusters. \n* Attempting to configure a fence device no longer results in an\nAttributeError.\n* Attempting to create a new fence device to a valid cluster no longer\nresults in a KeyError.\n* Several minor user interface validation errors have been fixed, such as\nenforcing cluster name length and fence port, etc.\n* A browser lock-up that could occur during storage configuration has been\nfixed.\n* Virtual service creation now works without error.\n* The fence_xvm tag is no longer misspelled in the cluster.conf file.\n* Luci failover forms are complete and working.\n* Rebooting a fresh cluster install no longer generates an error message.\n* A bug that prevented failed cluster services from being started is now\nfixed.\n* A bug that caused some cluster operations (e.g., node delete) to fail on\nclusters with mixed-cased cluster names is now fixed.\n* Global cluster resources can be reused when constructing cluster\nservices.\nEnhancements in this updated package include:\n* Users can now access Conga through Internet Explorer 6.\n* Dead nodes can now be evicted from a cluster.\n* Shared storage on new clusters is now enabled by default.\n* The fence user-interface flow is now simpler.\n* A port number is now shown in ricci error messages.\n* The kmod-gfs-xen kernel module is now installed when creating a cluster.\n* Cluster creation status is now shown visually.\n* User names are now sorted for display.\n* The fence_xvmd tag can now be added from the dom0 cluster nodes.\n* The ampersand character (&) can now be used in fence names.\n* All packaged files are now installed with proper owners and permissions.\n* New cluster node members are now properly initialized.\n* Storage operations can now be completed even if an LVM snapshot is present.\n* Users are now informed via dialog when nodes are rebooted as part of a\ncluster operation.\n* Failover domains are now properly listed for virtual services and\ntraditional clustered services.\n* Luci can now create and distribute keys for fence_xvmd.\nAll Conga users are advised to upgrade to this update, which applies these\nfixes and enhancements.",
  "Platform": [
    "Red Hat Enterprise Linux 5"
  ],
  "References": [
    {
      "Source": "RHSA",
      "URI": "https://access.redhat.com/errata/RHSA-2007:0640",
      "ID": "RHSA-2007:0640"
    },
    {
      "Source": "CVE",
      "URI": "https://access.redhat.com/security/cve/CVE-2007-4136",
      "ID": "CVE-2007-4136"
    }
  ],
  "Criteria": {
    "Operator": "OR",
    "Criterias": [
      {
        "Operator": "AND",
        "Criterias": [
          {
            "Operator": "OR",
            "Criterias": [
              {
                "Operator": "AND",
                "Criterias": [

                ],
                "Criterions": [
                  {
                    "Comment": "luci is earlier than 0:0.10.0-6.el5"
                  },
                  {
                    "Comment": "luci is signed with Red Hat redhatrelease2 key"
                  }
                ]
              },
              {
                "Operator": "AND",
                "Criterias": [

                ],
                "Criterions": [
                  {
                    "Comment": "ricci is earlier than 0:0.10.0-6.el5"
                  },
                  {
                    "Comment": "ricci is signed with Red Hat redhatrelease2 key"
                  }
                ]
              }
            ],
            "Criterions": [

            ]
          }
        ],
        "Criterions": [
          {
            "Comment": "Oracle Linux 5 is installed"
          }
        ]
      }
    ],
    "Criterions": [
      {
        "Comment": "Oracle Linux 5 is installed"
      }
    ]
  },
  "Severity": "Moderate",
  "Cves": [
    {
      "Impact": "",
      "Href": "",
      "ID": "CVE-2007-4136"
    }
  ],
  "Issued": {
    "Date": "2007-11-07"
  }
}