{
  "Title": "RHSA-2007:0963: java-1.5.0-sun security update (Important)",
  "Description": "The Java Runtime Environment (JRE) contains the software and tools\nthat users need to run applets and applications written using the Java\nprogramming language.\nA flaw in the applet caching mechanism of the Java Runtime Environment\n(JRE) did not correctly process the creation of network connections. A\nremote attacker could use this flaw to create connections to\nservices on machines other than the one that the applet was downloaded\nfrom. (CVE-2007-5232) \nMultiple vulnerabilities existed in Java Web Start allowing an untrusted\napplication to determine the location of the Java Web Start cache.\n(CVE-2007-5238)\nUntrusted Java Web Start Applications or Java Applets were able to drag and\ndrop a file to a Desktop Application. A user-assisted remote attacker could\nuse this flaw to move or copy arbitrary files. (CVE-2007-5239)\nThe Java Runtime Environment (JRE) allowed untrusted Java Applets or\napplications to display oversized Windows. This could be used by remote\nattackers to hide security warning banners. (CVE-2007-5240)\nUnsigned Java Applets communicating via a HTTP proxy could allow a remote\nattacker to violate the Java security model. A cached, malicious Applet \ncould create network connections to services on other machines. \n(CVE-2007-5273)\nUnsigned Applets loaded with Mozilla Firefox or Opera browsers allowed\nremote attackers to violate the Java security model. A cached, malicious \nApplet could create network connections to services on other machines. \n(CVE-2007-5274)\nIn Red Hat Enterprise Linux a Java Web Start application requesting\nelevated permissions is only started automatically when signed with a\ntrusted code signing certificate and otherwise requires user confirmation\nto access privileged resources. \nAll users of java-sun-1.5.0 should upgrade to these packages, which contain\nSun Java 1.5.0 Update 13 that corrects these issues.\nPlease note that during our quality testing we discovered that the Java\nbrowser plug-in may not function perfectly when visiting some sites that\nmake use of multiple applets on a single HTML page.  We have verified that\nthis issue is not due to our packaging and affects Sun Java 1.5.0 Update 13.",
  "Platform": [
    "Supplementary for Red Hat Enterprise Linux 5"
  ],
  "References": [
    {
      "Source": "RHSA",
      "URI": "https://rhn.redhat.com/errata/RHSA-2007-0963.html",
      "ID": "RHSA-2007:0963-01"
    },
    {
      "Source": "CVE",
      "URI": "https://access.redhat.com/security/cve/CVE-2007-5232",
      "ID": "CVE-2007-5232"
    },
    {
      "Source": "CVE",
      "URI": "https://access.redhat.com/security/cve/CVE-2007-5238",
      "ID": "CVE-2007-5238"
    },
    {
      "Source": "CVE",
      "URI": "https://access.redhat.com/security/cve/CVE-2007-5239",
      "ID": "CVE-2007-5239"
    },
    {
      "Source": "CVE",
      "URI": "https://access.redhat.com/security/cve/CVE-2007-5240",
      "ID": "CVE-2007-5240"
    },
    {
      "Source": "CVE",
      "URI": "https://access.redhat.com/security/cve/CVE-2007-5273",
      "ID": "CVE-2007-5273"
    },
    {
      "Source": "CVE",
      "URI": "https://access.redhat.com/security/cve/CVE-2007-5274",
      "ID": "CVE-2007-5274"
    },
    {
      "Source": "CVE",
      "URI": "https://access.redhat.com/security/cve/CVE-2007-5689",
      "ID": "CVE-2007-5689"
    }
  ],
  "Criteria": {
    "Operator": "AND",
    "Criterias": [
      {
        "Operator": "OR",
        "Criterias": [
          {
            "Operator": "AND",
            "Criterias": [

            ],
            "Criterions": [
              {
                "Comment": "java-1.5.0-sun is earlier than 0:1.5.0.13-1jpp.1.el5"
              },
              {
                "Comment": "java-1.5.0-sun is signed with Red Hat redhatrelease key"
              }
            ]
          },
          {
            "Operator": "AND",
            "Criterias": [

            ],
            "Criterions": [
              {
                "Comment": "java-1.5.0-sun-demo is earlier than 0:1.5.0.13-1jpp.1.el5"
              },
              {
                "Comment": "java-1.5.0-sun-demo is signed with Red Hat redhatrelease key"
              }
            ]
          },
          {
            "Operator": "AND",
            "Criterias": [

            ],
            "Criterions": [
              {
                "Comment": "java-1.5.0-sun-devel is earlier than 0:1.5.0.13-1jpp.1.el5"
              },
              {
                "Comment": "java-1.5.0-sun-devel is signed with Red Hat redhatrelease key"
              }
            ]
          },
          {
            "Operator": "AND",
            "Criterias": [

            ],
            "Criterions": [
              {
                "Comment": "java-1.5.0-sun-jdbc is earlier than 0:1.5.0.13-1jpp.1.el5"
              },
              {
                "Comment": "java-1.5.0-sun-jdbc is signed with Red Hat redhatrelease key"
              }
            ]
          },
          {
            "Operator": "AND",
            "Criterias": [

            ],
            "Criterions": [
              {
                "Comment": "java-1.5.0-sun-plugin is earlier than 0:1.5.0.13-1jpp.1.el5"
              },
              {
                "Comment": "java-1.5.0-sun-plugin is signed with Red Hat redhatrelease key"
              }
            ]
          },
          {
            "Operator": "AND",
            "Criterias": [

            ],
            "Criterions": [
              {
                "Comment": "java-1.5.0-sun-src is earlier than 0:1.5.0.13-1jpp.1.el5"
              },
              {
                "Comment": "java-1.5.0-sun-src is signed with Red Hat redhatrelease key"
              }
            ]
          }
        ],
        "Criterions": [

        ]
      }
    ],
    "Criterions": [
      {
        "Comment": "Oracle Linux 5 is installed"
      }
    ]
  },
  "Severity": "Important",
  "Cves": [
    {
      "Impact": "",
      "Href": "",
      "ID": "CVE-2007-5232"
    },
    {
      "Impact": "",
      "Href": "",
      "ID": "CVE-2007-5238"
    },
    {
      "Impact": "",
      "Href": "",
      "ID": "CVE-2007-5239"
    },
    {
      "Impact": "",
      "Href": "",
      "ID": "CVE-2007-5240"
    },
    {
      "Impact": "",
      "Href": "",
      "ID": "CVE-2007-5273"
    },
    {
      "Impact": "",
      "Href": "",
      "ID": "CVE-2007-5274"
    },
    {
      "Impact": "",
      "Href": "",
      "ID": "CVE-2007-5689"
    }
  ],
  "Issued": {
    "Date": "2007-10-12"
  }
}