{
  "Title": "RHSA-2007:1029: xpdf security update (Important)",
  "Description": "Xpdf is an X Window System-based viewer for Portable Document Format (PDF)\nfiles.\nAlin Rad Pop discovered several flaws in the handling of PDF files. An\nattacker could create a malicious PDF file that would cause Xpdf to crash,\nor potentially execute arbitrary code when opened.\n(CVE-2007-4352, CVE-2007-5392, CVE-2007-5393)\nUsers are advised to upgrade to these updated packages, which contain\nbackported patches to resolve these issues.",
  "Platform": [
    "Red Hat Enterprise Linux 4"
  ],
  "References": [
    {
      "Source": "RHSA",
      "URI": "https://access.redhat.com/errata/RHSA-2007:1029",
      "ID": "RHSA-2007:1029"
    },
    {
      "Source": "CVE",
      "URI": "https://access.redhat.com/security/cve/CVE-2007-4352",
      "ID": "CVE-2007-4352"
    },
    {
      "Source": "CVE",
      "URI": "https://access.redhat.com/security/cve/CVE-2007-5392",
      "ID": "CVE-2007-5392"
    },
    {
      "Source": "CVE",
      "URI": "https://access.redhat.com/security/cve/CVE-2007-5393",
      "ID": "CVE-2007-5393"
    }
  ],
  "Criteria": {
    "Operator": "OR",
    "Criterias": [
      {
        "Operator": "AND",
        "Criterias": [

        ],
        "Criterions": [
          {
            "Comment": "Oracle Linux 4 is installed"
          },
          {
            "Comment": "xpdf is earlier than 1:3.00-14.el4"
          },
          {
            "Comment": "xpdf is signed with Red Hat redhatrelease2 key"
          }
        ]
      }
    ],
    "Criterions": [
      {
        "Comment": "Oracle Linux 4 is installed"
      }
    ]
  },
  "Severity": "Important",
  "Cves": [
    {
      "Impact": "",
      "Href": "",
      "ID": "CVE-2007-4352"
    },
    {
      "Impact": "",
      "Href": "",
      "ID": "CVE-2007-5392"
    },
    {
      "Impact": "",
      "Href": "",
      "ID": "CVE-2007-5393"
    }
  ],
  "Issued": {
    "Date": "2007-11-07"
  }
}