{
  "Title": "RHSA-2007:0735: xpdf security update (Important)",
  "Description": "Xpdf is an X Window System-based viewer for Portable Document Format (PDF)\nfiles. \nMaurycy Prodeus discovered an integer overflow flaw in the processing\nof PDF files.  An attacker could create a malicious PDF file that would\ncause Xpdf to crash or potentially execute arbitrary code when opened. \n(CVE-2007-3387)\nAll users of Xpdf should upgrade to these updated packages, which\ncontain a backported patch to resolve this issue.",
  "Platform": [
    "Red Hat Enterprise Linux 4"
  ],
  "References": [
    {
      "Source": "RHSA",
      "URI": "https://access.redhat.com/errata/RHSA-2007:0735",
      "ID": "RHSA-2007:0735"
    },
    {
      "Source": "CVE",
      "URI": "https://access.redhat.com/security/cve/CVE-2007-3387",
      "ID": "CVE-2007-3387"
    }
  ],
  "Criteria": {
    "Operator": "OR",
    "Criterias": [
      {
        "Operator": "AND",
        "Criterias": [

        ],
        "Criterions": [
          {
            "Comment": "Oracle Linux 4 is installed"
          },
          {
            "Comment": "xpdf is earlier than 1:3.00-12.RHEL4"
          },
          {
            "Comment": "xpdf is signed with Red Hat redhatrelease2 key"
          }
        ]
      }
    ],
    "Criterions": [
      {
        "Comment": "Oracle Linux 4 is installed"
      }
    ]
  },
  "Severity": "Important",
  "Cves": [
    {
      "Impact": "",
      "Href": "",
      "ID": "CVE-2007-3387"
    }
  ],
  "Issued": {
    "Date": "2007-07-30"
  }
}