{
  "Title": "RHSA-2007:0401: thunderbird security update (Critical)",
  "Description": "Mozilla Thunderbird is a standalone mail and newsgroup client.\nSeveral flaws were found in the way Thunderbird processed certain malformed\nJavaScript code. A web page containing malicious JavaScript code could\ncause Thunderbird to crash or potentially execute arbitrary code\nas the user running Thunderbird. (CVE-2007-2867, CVE-2007-2868)\nSeveral denial of service flaws were found in the way Thunderbird handled\ncertain form and cookie data. A malicious web site that is able to set\narbitrary form and cookie data could prevent Thunderbird from\nfunctioning properly. (CVE-2007-1362, CVE-2007-2869)\nA flaw was found in the way Thunderbird processed certain APOP\nauthentication requests. By sending certain responses when Thunderbird\nattempted to authenticate against an APOP server, a remote attacker could\npotentially acquire certain portions of a user's authentication\ncredentials. (CVE-2007-1558)\nA flaw was found in the way Thunderbird displayed certain web content. A\nmalicious web page could generate content which could overlay user\ninterface elements such as the hostname and security indicators, tricking \nusers into thinking they are visiting a different site. (CVE-2007-2871)\nUsers of Thunderbird are advised to apply this update, which contains\nThunderbird version 1.5.0.12 that corrects these issues.",
  "Platform": [
    "Red Hat Enterprise Linux 4",
    "Red Hat Enterprise Linux 5"
  ],
  "References": [
    {
      "Source": "RHSA",
      "URI": "https://access.redhat.com/errata/RHSA-2007:0401",
      "ID": "RHSA-2007:0401"
    },
    {
      "Source": "CVE",
      "URI": "https://access.redhat.com/security/cve/CVE-2007-1362",
      "ID": "CVE-2007-1362"
    },
    {
      "Source": "CVE",
      "URI": "https://access.redhat.com/security/cve/CVE-2007-1558",
      "ID": "CVE-2007-1558"
    },
    {
      "Source": "CVE",
      "URI": "https://access.redhat.com/security/cve/CVE-2007-2867",
      "ID": "CVE-2007-2867"
    },
    {
      "Source": "CVE",
      "URI": "https://access.redhat.com/security/cve/CVE-2007-2868",
      "ID": "CVE-2007-2868"
    },
    {
      "Source": "CVE",
      "URI": "https://access.redhat.com/security/cve/CVE-2007-2869",
      "ID": "CVE-2007-2869"
    },
    {
      "Source": "CVE",
      "URI": "https://access.redhat.com/security/cve/CVE-2007-2871",
      "ID": "CVE-2007-2871"
    }
  ],
  "Criteria": {
    "Operator": "OR",
    "Criterias": [
      {
        "Operator": "AND",
        "Criterias": [

        ],
        "Criterions": [
          {
            "Comment": "Oracle Linux 4 is installed"
          },
          {
            "Comment": "thunderbird is earlier than 0:1.5.0.12-0.1.el4"
          },
          {
            "Comment": "thunderbird is signed with Red Hat redhatrelease2 key"
          }
        ]
      },
      {
        "Operator": "AND",
        "Criterias": [

        ],
        "Criterions": [
          {
            "Comment": "Oracle Linux 5 is installed"
          },
          {
            "Comment": "thunderbird is earlier than 0:1.5.0.12-1.el5"
          },
          {
            "Comment": "thunderbird is signed with Red Hat redhatrelease2 key"
          }
        ]
      }
    ],
    "Criterions": [
      {
        "Comment": "Oracle Linux 4 is installed"
      }
    ]
  },
  "Severity": "Critical",
  "Cves": [
    {
      "Impact": "",
      "Href": "",
      "ID": "CVE-2007-1362"
    },
    {
      "Impact": "",
      "Href": "",
      "ID": "CVE-2007-1558"
    },
    {
      "Impact": "",
      "Href": "",
      "ID": "CVE-2007-2867"
    },
    {
      "Impact": "",
      "Href": "",
      "ID": "CVE-2007-2868"
    },
    {
      "Impact": "",
      "Href": "",
      "ID": "CVE-2007-2869"
    },
    {
      "Impact": "",
      "Href": "",
      "ID": "CVE-2007-2871"
    }
  ],
  "Issued": {
    "Date": "2007-05-31"
  }
}