{
  "Title": "RHSA-2007:0345: vixie-cron security update (Moderate)",
  "Description": "The vixie-cron package contains the Vixie version of cron. Cron is a\nstandard UNIX daemon that runs specified programs at scheduled times.\nRaphael Marichez discovered a denial of service bug in the way vixie-cron\nverifies crontab file integrity. A local user with the ability to create a\nhardlink to /etc/crontab can prevent vixie-cron from executing certain\nsystem  cron jobs. (CVE-2007-1856)\nAll users of vixie-cron should upgrade to these updated packages, which\ncontain a backported patch to correct this issue.",
  "Platform": [
    "Red Hat Enterprise Linux 4",
    "Red Hat Enterprise Linux 5"
  ],
  "References": [
    {
      "Source": "RHSA",
      "URI": "https://access.redhat.com/errata/RHSA-2007:0345",
      "ID": "RHSA-2007:0345"
    },
    {
      "Source": "CVE",
      "URI": "https://access.redhat.com/security/cve/CVE-2007-1856",
      "ID": "CVE-2007-1856"
    }
  ],
  "Criteria": {
    "Operator": "OR",
    "Criterias": [
      {
        "Operator": "AND",
        "Criterias": [

        ],
        "Criterions": [
          {
            "Comment": "Oracle Linux 4 is installed"
          },
          {
            "Comment": "vixie-cron is earlier than 4:4.1-47.EL4"
          },
          {
            "Comment": "vixie-cron is signed with Red Hat master key"
          }
        ]
      },
      {
        "Operator": "AND",
        "Criterias": [

        ],
        "Criterions": [
          {
            "Comment": "Oracle Linux 5 is installed"
          },
          {
            "Comment": "vixie-cron is earlier than 4:4.1-70.el5"
          },
          {
            "Comment": "vixie-cron is signed with Red Hat redhatrelease key"
          }
        ]
      }
    ],
    "Criterions": [
      {
        "Comment": "Oracle Linux 4 is installed"
      }
    ]
  },
  "Severity": "Moderate",
  "Cves": [
    {
      "Impact": "",
      "Href": "",
      "ID": "CVE-2007-1856"
    }
  ],
  "Issued": {
    "Date": "2007-05-17"
  }
}