{
  "Title": "RHSA-2007:0387: tcpdump security and bug fix update (Moderate)",
  "Description": "Tcpdump is a command line tool for monitoring network traffic.\nMoritz Jodeit discovered a denial of service bug in the tcpdump IEEE\n802.11 processing code. An attacker could inject a carefully crafted frame\nonto the IEEE 802.11 network that could crash a running tcpdump session if\na certain link type was explicitly specified. (CVE-2007-1218)\nAn integer overflow flaw was found in tcpdump's BGP processing code. An\nattacker could execute arbitrary code with the privilege of the pcap user\nby injecting a crafted frame onto the network. (CVE-2007-3798)\nIn addition, the following bugs have been addressed: \n* if called with -C and -W switches, tcpdump would create the first\nsavefile with the privileges of the user that executed tcpdump (usually\nroot), rather than with ones of the pcap user.  This could result in the\ninability to save the complete traffic log file properly without the\nimmediate notice of the user running tcpdump.\n* the arpwatch service initialization script would exit prematurely,\nreturning a successful exit status incorrectly and preventing the status\ncommand from running in case networking is not available.\nUsers of tcpdump are advised to upgrade to these erratum packages, which\ncontain backported patches that correct these issues.",
  "Platform": [
    "Red Hat Enterprise Linux 4"
  ],
  "References": [
    {
      "Source": "RHSA",
      "URI": "https://access.redhat.com/errata/RHSA-2007:0387",
      "ID": "RHSA-2007:0387"
    },
    {
      "Source": "CVE",
      "URI": "https://access.redhat.com/security/cve/CVE-2007-1218",
      "ID": "CVE-2007-1218"
    },
    {
      "Source": "CVE",
      "URI": "https://access.redhat.com/security/cve/CVE-2007-3798",
      "ID": "CVE-2007-3798"
    }
  ],
  "Criteria": {
    "Operator": "OR",
    "Criterias": [
      {
        "Operator": "AND",
        "Criterias": [
          {
            "Operator": "OR",
            "Criterias": [
              {
                "Operator": "AND",
                "Criterias": [

                ],
                "Criterions": [
                  {
                    "Comment": "arpwatch is earlier than 14:2.1a13-12.el4"
                  },
                  {
                    "Comment": "arpwatch is signed with Red Hat master key"
                  }
                ]
              },
              {
                "Operator": "AND",
                "Criterias": [

                ],
                "Criterions": [
                  {
                    "Comment": "libpcap is earlier than 14:0.8.3-12.el4"
                  },
                  {
                    "Comment": "libpcap is signed with Red Hat master key"
                  }
                ]
              },
              {
                "Operator": "AND",
                "Criterias": [

                ],
                "Criterions": [
                  {
                    "Comment": "tcpdump is earlier than 14:3.8.2-12.el4"
                  },
                  {
                    "Comment": "tcpdump is signed with Red Hat master key"
                  }
                ]
              }
            ],
            "Criterions": [

            ]
          }
        ],
        "Criterions": [
          {
            "Comment": "Oracle Linux 4 is installed"
          }
        ]
      }
    ],
    "Criterions": [
      {
        "Comment": "Oracle Linux 4 is installed"
      }
    ]
  },
  "Severity": "Moderate",
  "Cves": [
    {
      "Impact": "",
      "Href": "",
      "ID": "CVE-2007-1218"
    },
    {
      "Impact": "",
      "Href": "",
      "ID": "CVE-2007-3798"
    }
  ],
  "Issued": {
    "Date": "2007-11-15"
  }
}