{
  "Title": "RHSA-2007:0338: freeradius security update (Moderate)",
  "Description": "FreeRADIUS is a high-performance and highly configurable free RADIUS server\ndesigned to allow centralized authentication and authorization for a network.\nA memory leak flaw was found in the way FreeRADIUS parses certain\nauthentication requests. A remote attacker could send a specially crafted\nauthentication request which could cause FreeRADIUS to leak a small amount\nof memory. If enough of these requests are sent, the FreeRADIUS daemon\nwould consume a vast quantity of system memory leading to a possible denial\nof service.   (CVE-2007-2028)\nUsers of FreeRADIUS should update to these erratum packages, which contain a\nbackported patch to correct this issue.",
  "Platform": [
    "Red Hat Enterprise Linux 4",
    "Red Hat Enterprise Linux 5"
  ],
  "References": [
    {
      "Source": "RHSA",
      "URI": "https://access.redhat.com/errata/RHSA-2007:0338",
      "ID": "RHSA-2007:0338"
    },
    {
      "Source": "CVE",
      "URI": "https://access.redhat.com/security/cve/CVE-2007-2028",
      "ID": "CVE-2007-2028"
    }
  ],
  "Criteria": {
    "Operator": "OR",
    "Criterias": [
      {
        "Operator": "AND",
        "Criterias": [
          {
            "Operator": "OR",
            "Criterias": [
              {
                "Operator": "AND",
                "Criterias": [

                ],
                "Criterions": [
                  {
                    "Comment": "freeradius is earlier than 0:1.0.1-3.RHEL4.5"
                  },
                  {
                    "Comment": "freeradius is signed with Red Hat redhatrelease2 key"
                  }
                ]
              },
              {
                "Operator": "AND",
                "Criterias": [

                ],
                "Criterions": [
                  {
                    "Comment": "freeradius-mysql is earlier than 0:1.0.1-3.RHEL4.5"
                  },
                  {
                    "Comment": "freeradius-mysql is signed with Red Hat redhatrelease2 key"
                  }
                ]
              },
              {
                "Operator": "AND",
                "Criterias": [

                ],
                "Criterions": [
                  {
                    "Comment": "freeradius-postgresql is earlier than 0:1.0.1-3.RHEL4.5"
                  },
                  {
                    "Comment": "freeradius-postgresql is signed with Red Hat redhatrelease2 key"
                  }
                ]
              },
              {
                "Operator": "AND",
                "Criterias": [

                ],
                "Criterions": [
                  {
                    "Comment": "freeradius-unixODBC is earlier than 0:1.0.1-3.RHEL4.5"
                  },
                  {
                    "Comment": "freeradius-unixODBC is signed with Red Hat redhatrelease2 key"
                  }
                ]
              }
            ],
            "Criterions": [

            ]
          }
        ],
        "Criterions": [
          {
            "Comment": "Oracle Linux 4 is installed"
          }
        ]
      },
      {
        "Operator": "AND",
        "Criterias": [
          {
            "Operator": "OR",
            "Criterias": [
              {
                "Operator": "AND",
                "Criterias": [

                ],
                "Criterions": [
                  {
                    "Comment": "freeradius is earlier than 0:1.1.3-1.2.el5"
                  },
                  {
                    "Comment": "freeradius is signed with Red Hat redhatrelease2 key"
                  }
                ]
              },
              {
                "Operator": "AND",
                "Criterias": [

                ],
                "Criterions": [
                  {
                    "Comment": "freeradius-mysql is earlier than 0:1.1.3-1.2.el5"
                  },
                  {
                    "Comment": "freeradius-mysql is signed with Red Hat redhatrelease2 key"
                  }
                ]
              },
              {
                "Operator": "AND",
                "Criterias": [

                ],
                "Criterions": [
                  {
                    "Comment": "freeradius-postgresql is earlier than 0:1.1.3-1.2.el5"
                  },
                  {
                    "Comment": "freeradius-postgresql is signed with Red Hat redhatrelease2 key"
                  }
                ]
              },
              {
                "Operator": "AND",
                "Criterias": [

                ],
                "Criterions": [
                  {
                    "Comment": "freeradius-unixODBC is earlier than 0:1.1.3-1.2.el5"
                  },
                  {
                    "Comment": "freeradius-unixODBC is signed with Red Hat redhatrelease2 key"
                  }
                ]
              }
            ],
            "Criterions": [

            ]
          }
        ],
        "Criterions": [
          {
            "Comment": "Oracle Linux 5 is installed"
          }
        ]
      }
    ],
    "Criterions": [
      {
        "Comment": "Oracle Linux 4 is installed"
      }
    ]
  },
  "Severity": "Moderate",
  "Cves": [
    {
      "Impact": "",
      "Href": "",
      "ID": "CVE-2007-2028"
    }
  ],
  "Issued": {
    "Date": "2007-05-10"
  }
}