{
  "Title": "RHSA-2007:0951: nfs-utils-lib security update (Important)",
  "Description": "The nfs-utils-lib package contains support libraries that are needed by the\ncommands and daemons of the nfs-utils package.\nThe updated nfs-utils package fixes the following vulnerabilities:\nTenable Network Security discovered a stack buffer overflow flaw in the RPC\nlibrary used by nfs-utils-lib. A remote unauthenticated attacker who can\naccess an application linked against nfs-utils-lib could trigger this flaw\nand cause the application to crash. On Red Hat Enterprise Linux 5 it is not\npossible to exploit this flaw to run arbitrary code as the overflow is\nblocked by FORTIFY_SOURCE. (CVE-2007-3999)\nTony Ernst from SGI has discovered a flaw in the way nfsidmap maps NFSv4\nunknown uids.  If an unknown user ID is encountered on an NFSv4 mounted\nfilesystem, the files will default to being owned by 'root' rather than\n'nobody'. (CVE-2007-4135)\nUsers of nfs-utils-lib are advised to upgrade to this updated package,\nwhich contains backported patches to resolve these issues.",
  "Platform": [
    "Red Hat Enterprise Linux 5"
  ],
  "References": [
    {
      "Source": "RHSA",
      "URI": "https://access.redhat.com/errata/RHSA-2007:0951",
      "ID": "RHSA-2007:0951"
    },
    {
      "Source": "CVE",
      "URI": "https://access.redhat.com/security/cve/CVE-2007-3999",
      "ID": "CVE-2007-3999"
    },
    {
      "Source": "CVE",
      "URI": "https://access.redhat.com/security/cve/CVE-2007-4135",
      "ID": "CVE-2007-4135"
    }
  ],
  "Criteria": {
    "Operator": "OR",
    "Criterias": [
      {
        "Operator": "AND",
        "Criterias": [
          {
            "Operator": "OR",
            "Criterias": [
              {
                "Operator": "AND",
                "Criterias": [

                ],
                "Criterions": [
                  {
                    "Comment": "nfs-utils-lib is earlier than 0:1.0.8-7.2.z2"
                  },
                  {
                    "Comment": "nfs-utils-lib is signed with Red Hat redhatrelease2 key"
                  }
                ]
              },
              {
                "Operator": "AND",
                "Criterias": [

                ],
                "Criterions": [
                  {
                    "Comment": "nfs-utils-lib-devel is earlier than 0:1.0.8-7.2.z2"
                  },
                  {
                    "Comment": "nfs-utils-lib-devel is signed with Red Hat redhatrelease2 key"
                  }
                ]
              }
            ],
            "Criterions": [

            ]
          }
        ],
        "Criterions": [
          {
            "Comment": "Oracle Linux 5 is installed"
          }
        ]
      }
    ],
    "Criterions": [
      {
        "Comment": "Oracle Linux 5 is installed"
      }
    ]
  },
  "Severity": "Important",
  "Cves": [
    {
      "Impact": "",
      "Href": "",
      "ID": "CVE-2007-3999"
    },
    {
      "Impact": "",
      "Href": "",
      "ID": "CVE-2007-4135"
    }
  ],
  "Issued": {
    "Date": "2007-10-02"
  }
}