{
  "Title": "RHSA-2007:0497: iscsi-initiator-utils security update (Moderate)",
  "Description": "The iscsi package provides the server daemon for the iSCSI protocol, as\nwell as the utility programs used to manage it. iSCSI is a protocol for\ndistributed disk access using SCSI commands sent over Internet Protocol\nnetworks.\nOlaf Kirch discovered two flaws in open-iscsi.  A local attacker could use\nthese flaws to cause the server daemon to stop responding, leading to a\ndenial of service.  (CVE-2007-3099, CVE-2007-3100).\nAll users of open-iscsi should upgrade to this updated package which\nresolves these issues.\nNote: This issue did not affect Red Hat Enterprise Linux 2.1, 3, or 4.\nopen-iscsi is available in Red Hat Enterprise Linux 5 as a Technology\nPreview.",
  "Platform": [
    "Red Hat Enterprise Linux 5"
  ],
  "References": [
    {
      "Source": "RHSA",
      "URI": "https://access.redhat.com/errata/RHSA-2007:0497",
      "ID": "RHSA-2007:0497"
    },
    {
      "Source": "CVE",
      "URI": "https://access.redhat.com/security/cve/CVE-2007-3099",
      "ID": "CVE-2007-3099"
    },
    {
      "Source": "CVE",
      "URI": "https://access.redhat.com/security/cve/CVE-2007-3100",
      "ID": "CVE-2007-3100"
    }
  ],
  "Criteria": {
    "Operator": "OR",
    "Criterias": [
      {
        "Operator": "AND",
        "Criterias": [

        ],
        "Criterions": [
          {
            "Comment": "Oracle Linux 5 is installed"
          },
          {
            "Comment": "iscsi-initiator-utils is earlier than 0:6.2.0.742-0.6.el5"
          },
          {
            "Comment": "iscsi-initiator-utils is signed with Red Hat redhatrelease2 key"
          }
        ]
      }
    ],
    "Criterions": [
      {
        "Comment": "Oracle Linux 5 is installed"
      }
    ]
  },
  "Severity": "Moderate",
  "Cves": [
    {
      "Impact": "",
      "Href": "",
      "ID": "CVE-2007-3099"
    },
    {
      "Impact": "",
      "Href": "",
      "ID": "CVE-2007-3100"
    }
  ],
  "Issued": {
    "Date": "2007-06-14"
  }
}