{
  "Title": "RHSA-2007:0344: evolution-data-server security update (Moderate)",
  "Description": "The evolution-data-server package provides a unified backend for programs\nthat work with contacts, tasks, and calendar information.\nA flaw was found in the way evolution-data-server processed certain APOP\nauthentication requests. By sending certain responses when\nevolution-data-server attempted to authenticate against an APOP server, a\nremote attacker could potentially acquire certain portions of a user's\nauthentication credentials. (CVE-2007-1558)\nAll users of evolution-data-server should upgrade to these updated\npackages, which contain a backported patch which resolves this issue.",
  "Platform": [
    "Red Hat Enterprise Linux 5"
  ],
  "References": [
    {
      "Source": "RHSA",
      "URI": "https://access.redhat.com/errata/RHSA-2007:0344",
      "ID": "RHSA-2007:0344"
    },
    {
      "Source": "CVE",
      "URI": "https://access.redhat.com/security/cve/CVE-2007-1558",
      "ID": "CVE-2007-1558"
    }
  ],
  "Criteria": {
    "Operator": "OR",
    "Criterias": [
      {
        "Operator": "AND",
        "Criterias": [
          {
            "Operator": "OR",
            "Criterias": [
              {
                "Operator": "AND",
                "Criterias": [

                ],
                "Criterions": [
                  {
                    "Comment": "evolution-data-server is earlier than 0:1.8.0-15.0.3.el5"
                  },
                  {
                    "Comment": "evolution-data-server is signed with Red Hat redhatrelease2 key"
                  }
                ]
              },
              {
                "Operator": "AND",
                "Criterias": [

                ],
                "Criterions": [
                  {
                    "Comment": "evolution-data-server-devel is earlier than 0:1.8.0-15.0.3.el5"
                  },
                  {
                    "Comment": "evolution-data-server-devel is signed with Red Hat redhatrelease2 key"
                  }
                ]
              }
            ],
            "Criterions": [

            ]
          }
        ],
        "Criterions": [
          {
            "Comment": "Oracle Linux 5 is installed"
          }
        ]
      }
    ],
    "Criterions": [
      {
        "Comment": "Oracle Linux 5 is installed"
      }
    ]
  },
  "Severity": "Moderate",
  "Cves": [
    {
      "Impact": "",
      "Href": "",
      "ID": "CVE-2007-1558"
    }
  ],
  "Issued": {
    "Date": "2007-05-30"
  }
}