{
  "Title": "RHSA-2007:0403: freetype security update (Moderate)",
  "Description": "FreeType is a free, high-quality,  portable font engine.\nAn integer overflow flaw was found in the way the FreeType font engine\nprocessed TTF font files. If a user loaded a carefully crafted font file\nwith a program linked against FreeType, it could cause the application to\ncrash or execute arbitrary code. While it is uncommon for a user to\nexplicitly load a font file, there are several application file formats\nwhich contain embedded fonts that are parsed by FreeType. (CVE-2007-2754)\nUsers of FreeType should upgrade to these updated packages, which contain\na backported patch to correct this issue.",
  "Platform": [
    "Red Hat Enterprise Linux 4",
    "Red Hat Enterprise Linux 5"
  ],
  "References": [
    {
      "Source": "RHSA",
      "URI": "https://access.redhat.com/errata/RHSA-2007:0403",
      "ID": "RHSA-2007:0403"
    },
    {
      "Source": "CVE",
      "URI": "https://access.redhat.com/security/cve/CVE-2007-2754",
      "ID": "CVE-2007-2754"
    }
  ],
  "Criteria": {
    "Operator": "OR",
    "Criterias": [
      {
        "Operator": "AND",
        "Criterias": [
          {
            "Operator": "OR",
            "Criterias": [
              {
                "Operator": "AND",
                "Criterias": [

                ],
                "Criterions": [
                  {
                    "Comment": "freetype is earlier than 0:2.1.9-6.el4"
                  },
                  {
                    "Comment": "freetype is signed with Red Hat master key"
                  }
                ]
              },
              {
                "Operator": "AND",
                "Criterias": [

                ],
                "Criterions": [
                  {
                    "Comment": "freetype-demos is earlier than 0:2.1.9-6.el4"
                  },
                  {
                    "Comment": "freetype-demos is signed with Red Hat master key"
                  }
                ]
              },
              {
                "Operator": "AND",
                "Criterias": [

                ],
                "Criterions": [
                  {
                    "Comment": "freetype-devel is earlier than 0:2.1.9-6.el4"
                  },
                  {
                    "Comment": "freetype-devel is signed with Red Hat master key"
                  }
                ]
              },
              {
                "Operator": "AND",
                "Criterias": [

                ],
                "Criterions": [
                  {
                    "Comment": "freetype-utils is earlier than 0:2.1.9-6.el4"
                  },
                  {
                    "Comment": "freetype-utils is signed with Red Hat master key"
                  }
                ]
              }
            ],
            "Criterions": [

            ]
          }
        ],
        "Criterions": [
          {
            "Comment": "Oracle Linux 4 is installed"
          }
        ]
      },
      {
        "Operator": "AND",
        "Criterias": [
          {
            "Operator": "OR",
            "Criterias": [
              {
                "Operator": "AND",
                "Criterias": [

                ],
                "Criterions": [
                  {
                    "Comment": "freetype is earlier than 0:2.2.1-19.el5"
                  },
                  {
                    "Comment": "freetype is signed with Red Hat redhatrelease key"
                  }
                ]
              },
              {
                "Operator": "AND",
                "Criterias": [

                ],
                "Criterions": [
                  {
                    "Comment": "freetype-demos is earlier than 0:2.2.1-19.el5"
                  },
                  {
                    "Comment": "freetype-demos is signed with Red Hat redhatrelease key"
                  }
                ]
              },
              {
                "Operator": "AND",
                "Criterias": [

                ],
                "Criterions": [
                  {
                    "Comment": "freetype-devel is earlier than 0:2.2.1-19.el5"
                  },
                  {
                    "Comment": "freetype-devel is signed with Red Hat redhatrelease key"
                  }
                ]
              }
            ],
            "Criterions": [

            ]
          }
        ],
        "Criterions": [
          {
            "Comment": "Oracle Linux 5 is installed"
          }
        ]
      }
    ],
    "Criterions": [
      {
        "Comment": "Oracle Linux 4 is installed"
      }
    ]
  },
  "Severity": "Moderate",
  "Cves": [
    {
      "Impact": "",
      "Href": "",
      "ID": "CVE-2007-2754"
    }
  ],
  "Issued": {
    "Date": "2007-06-11"
  }
}