{
  "Title": "RHSA-2007:0555: pam security, bug fix, and enhancement update (Moderate)",
  "Description": "Pluggable Authentication Modules (PAM) provide a system whereby\nadministrators can set up authentication policies without having to\nrecompile programs that handle authentication.\nA flaw was found in the way pam_console set console device permissions. It\nwas possible for various console devices to retain ownership of the console\nuser after logging out, possibly leaking information to another local user.\n(CVE-2007-1716)\nA flaw was found in the way the PAM library wrote account names to the\naudit subsystem. An attacker could inject strings containing parts of audit\nmessages which could possibly mislead or confuse audit log parsing tools.\n(CVE-2007-3102)\nAs well, these updated packages fix the following bugs:\n* truncated MD5-hashed passwords in \"/etc/shadow\" were treated as valid, \nresulting in insecure and invalid passwords.\n* the pam_namespace module did not convert context names to raw format and\ndid not unmount polyinstantiated directories in some cases. It also crashed\nwhen an unknown user name was used in \"/etc/security/namespace.conf\", the\npam_namespace configuration file.\n* the pam_selinux module was not relabeling the controlling tty correctly,\nand in some cases it did not send complete information about user role and\nlevel change to the audit subsystem.\nThese updated packages add the following enhancements:\n* pam_limits module now supports parsing additional config files placed\ninto the /etc/security/limits.d/ directory. These files are read after the\nmain configuration file.\n* the modules pam_limits, pam_access, and pam_time now send a message to\nthe audit subsystem when a user is denied access based on the number of\nlogin sessions, origin of user, and time of login.\n* pam_unix module security properties were improved. Functionality in the\nsetuid helper binary, unix_chkpwd, which was not required for user\nauthentication, was moved to a new non-setuid helper binary, unix_update.\nAll users of PAM should upgrade to these updated packages, which resolve\nthese issues and add these enhancements.",
  "Platform": [
    "Red Hat Enterprise Linux 5"
  ],
  "References": [
    {
      "Source": "RHSA",
      "URI": "https://access.redhat.com/errata/RHSA-2007:0555",
      "ID": "RHSA-2007:0555"
    },
    {
      "Source": "CVE",
      "URI": "https://access.redhat.com/security/cve/CVE-2007-1716",
      "ID": "CVE-2007-1716"
    },
    {
      "Source": "CVE",
      "URI": "https://access.redhat.com/security/cve/CVE-2007-3102",
      "ID": "CVE-2007-3102"
    }
  ],
  "Criteria": {
    "Operator": "OR",
    "Criterias": [
      {
        "Operator": "AND",
        "Criterias": [
          {
            "Operator": "OR",
            "Criterias": [
              {
                "Operator": "AND",
                "Criterias": [

                ],
                "Criterions": [
                  {
                    "Comment": "pam is earlier than 0:0.99.6.2-3.26.el5"
                  },
                  {
                    "Comment": "pam is signed with Red Hat redhatrelease2 key"
                  }
                ]
              },
              {
                "Operator": "AND",
                "Criterias": [

                ],
                "Criterions": [
                  {
                    "Comment": "pam-devel is earlier than 0:0.99.6.2-3.26.el5"
                  },
                  {
                    "Comment": "pam-devel is signed with Red Hat redhatrelease2 key"
                  }
                ]
              }
            ],
            "Criterions": [

            ]
          }
        ],
        "Criterions": [
          {
            "Comment": "Oracle Linux 5 is installed"
          }
        ]
      }
    ],
    "Criterions": [
      {
        "Comment": "Oracle Linux 5 is installed"
      }
    ]
  },
  "Severity": "Moderate",
  "Cves": [
    {
      "Impact": "",
      "Href": "",
      "ID": "CVE-2007-1716"
    },
    {
      "Impact": "",
      "Href": "",
      "ID": "CVE-2007-3102"
    }
  ],
  "Issued": {
    "Date": "2007-11-07"
  }
}