{
  "Title": "RHSA-2007:0386: mutt security update (Moderate)",
  "Description": "Mutt is a text-mode mail user agent.\nA flaw was found in the way Mutt used temporary files on NFS file systems.\nDue to an implementation issue in the NFS protocol, Mutt was not able to\nexclusively open a new file.  A local attacker could conduct a\ntime-dependent attack and possibly gain access to e-mail attachments opened\nby a victim. (CVE-2006-5297)\nA flaw was found in the way Mutt processed certain APOP authentication\nrequests. By sending certain responses when mutt attempted to authenticate\nagainst an APOP server, a remote attacker could potentially acquire certain\nportions of a user's authentication credentials. (CVE-2007-1558)\nA flaw was found in the way Mutt handled certain characters in gecos fields\nwhich could lead to a buffer overflow.  The gecos field is an entry in the\npassword database typically used to record general information about the\nuser.  A local attacker could give themselves a carefully crafted \"Real\nName\" which could execute arbitrary code if a victim uses Mutt and expands\nthe attackers alias.  (CVE-2007-2683)\nAll users of mutt should upgrade to this updated package, which\ncontains a backported patches to correct these issues.",
  "Platform": [
    "Red Hat Enterprise Linux 4",
    "Red Hat Enterprise Linux 5"
  ],
  "References": [
    {
      "Source": "RHSA",
      "URI": "https://access.redhat.com/errata/RHSA-2007:0386",
      "ID": "RHSA-2007:0386"
    },
    {
      "Source": "CVE",
      "URI": "https://access.redhat.com/security/cve/CVE-2006-5297",
      "ID": "CVE-2006-5297"
    },
    {
      "Source": "CVE",
      "URI": "https://access.redhat.com/security/cve/CVE-2007-1558",
      "ID": "CVE-2007-1558"
    },
    {
      "Source": "CVE",
      "URI": "https://access.redhat.com/security/cve/CVE-2007-2683",
      "ID": "CVE-2007-2683"
    }
  ],
  "Criteria": {
    "Operator": "OR",
    "Criterias": [
      {
        "Operator": "AND",
        "Criterias": [

        ],
        "Criterions": [
          {
            "Comment": "Oracle Linux 4 is installed"
          },
          {
            "Comment": "mutt is earlier than 5:1.4.1-12.0.3.el4"
          },
          {
            "Comment": "mutt is signed with Red Hat master key"
          }
        ]
      },
      {
        "Operator": "AND",
        "Criterias": [

        ],
        "Criterions": [
          {
            "Comment": "Oracle Linux 5 is installed"
          },
          {
            "Comment": "mutt is earlier than 5:1.4.2.2-3.0.2.el5"
          },
          {
            "Comment": "mutt is signed with Red Hat redhatrelease key"
          }
        ]
      }
    ],
    "Criterions": [
      {
        "Comment": "Oracle Linux 4 is installed"
      }
    ]
  },
  "Severity": "Moderate",
  "Cves": [
    {
      "Impact": "",
      "Href": "",
      "ID": "CVE-2006-5297"
    },
    {
      "Impact": "",
      "Href": "",
      "ID": "CVE-2007-1558"
    },
    {
      "Impact": "",
      "Href": "",
      "ID": "CVE-2007-2683"
    }
  ],
  "Issued": {
    "Date": "2007-06-04"
  }
}