{
  "Title": "RHSA-2007:0509: evolution security update (Important)",
  "Description": "Evolution is the GNOME collection of personal information management (PIM)\ntools.\nA flaw was found in the way Evolution processes certain IMAP server\nmessages. If a user can be tricked into connecting to a malicious IMAP\nserver it may be possible to execute arbitrary code as the user running\nevolution. (CVE-2007-3257)\nAll users of Evolution should upgrade to these updated packages, which\ncontain a backported patch which resolves this issue.",
  "Platform": [
    "Red Hat Enterprise Linux 4"
  ],
  "References": [
    {
      "Source": "RHSA",
      "URI": "https://access.redhat.com/errata/RHSA-2007:0509",
      "ID": "RHSA-2007:0509"
    },
    {
      "Source": "CVE",
      "URI": "https://access.redhat.com/security/cve/CVE-2007-3257",
      "ID": "CVE-2007-3257"
    }
  ],
  "Criteria": {
    "Operator": "OR",
    "Criterias": [
      {
        "Operator": "AND",
        "Criterias": [
          {
            "Operator": "OR",
            "Criterias": [
              {
                "Operator": "AND",
                "Criterias": [

                ],
                "Criterions": [
                  {
                    "Comment": "evolution is earlier than 0:2.0.2-35.0.4.el4"
                  },
                  {
                    "Comment": "evolution is signed with Red Hat redhatrelease2 key"
                  }
                ]
              },
              {
                "Operator": "AND",
                "Criterias": [

                ],
                "Criterions": [
                  {
                    "Comment": "evolution-devel is earlier than 0:2.0.2-35.0.4.el4"
                  },
                  {
                    "Comment": "evolution-devel is signed with Red Hat redhatrelease2 key"
                  }
                ]
              }
            ],
            "Criterions": [

            ]
          }
        ],
        "Criterions": [
          {
            "Comment": "Oracle Linux 4 is installed"
          }
        ]
      }
    ],
    "Criterions": [
      {
        "Comment": "Oracle Linux 4 is installed"
      }
    ]
  },
  "Severity": "Important",
  "Cves": [
    {
      "Impact": "",
      "Href": "",
      "ID": "CVE-2007-3257"
    }
  ],
  "Issued": {
    "Date": "2007-06-25"
  }
}