{
  "Title": "RHSA-2007:0075: spamassassin security update (Important)",
  "Description": "SpamAssassin provides a way to reduce unsolicited commercial email (spam)\nfrom incoming email.\nA flaw was found in the way SpamAssassin processes HTML email containing\nURIs. A carefully crafted mail message could cause SpamAssassin to consume\nsignificant resources. If a number of these messages are sent, this could\nlead to a denial of service, potentially delaying or preventing the\ndelivery  of email. (CVE-2007-0451)\nUsers of SpamAssassin should upgrade to these updated packages which\ncontain version 3.1.8 which is not vulnerable to these issues.",
  "Platform": [
    "Red Hat Enterprise Linux 5"
  ],
  "References": [
    {
      "Source": "RHSA",
      "URI": "https://access.redhat.com/errata/RHSA-2007:0075",
      "ID": "RHSA-2007:0075"
    },
    {
      "Source": "CVE",
      "URI": "https://access.redhat.com/security/cve/CVE-2007-0451",
      "ID": "CVE-2007-0451"
    }
  ],
  "Criteria": {
    "Operator": "OR",
    "Criterias": [
      {
        "Operator": "AND",
        "Criterias": [

        ],
        "Criterions": [
          {
            "Comment": "Oracle Linux 5 is installed"
          },
          {
            "Comment": "spamassassin is earlier than 0:3.1.8-2.el5"
          },
          {
            "Comment": "spamassassin is signed with Red Hat redhatrelease2 key"
          }
        ]
      }
    ],
    "Criterions": [
      {
        "Comment": "Oracle Linux 5 is installed"
      }
    ]
  },
  "Severity": "Important",
  "Cves": [
    {
      "Impact": "",
      "Href": "",
      "ID": "CVE-2007-0451"
    }
  ],
  "Issued": {
    "Date": "2007-03-13"
  }
}