{
  "Title": "RHSA-2007:1017: samba security update (Critical)",
  "Description": "Samba is a suite of programs used by machines to share files, printers, and\nother information.\nA buffer overflow flaw was found in the way Samba creates NetBIOS replies.\nIf a Samba server is configured to run as a WINS server, a remote\nunauthenticated user could cause the Samba server to crash or execute\narbitrary code. (CVE-2007-5398)\nA heap based buffer overflow flaw was found in the way Samba authenticates\nusers. A remote unauthenticated user could trigger this flaw to cause the\nSamba server to crash. Careful analysis of this flaw has determined that\narbitrary code execution is not possible, and under most circumstances will\nnot result in a crash of the Samba server. (CVE-2007-4572)\nA flaw was found in the way Samba assigned group IDs under certain\nconditions. If the \"winbind nss info\" parameter in smb.conf is set to\neither \"sfu\" or \"rfc2307\", Samba users are incorrectly assigned the group\nID of 0. (CVE-2007-4138)\nRed Hat would like to thank Alin Rad Pop of Secunia Research, Rick King,\nand the Samba developers for responsibly disclosing these issues.\nAll Samba users are advised to upgrade to these updated packages, which\ncontain a backported patch to correct these issues.",
  "Platform": [
    "Red Hat Enterprise Linux 5"
  ],
  "References": [
    {
      "Source": "RHSA",
      "URI": "https://access.redhat.com/errata/RHSA-2007:1017",
      "ID": "RHSA-2007:1017"
    },
    {
      "Source": "CVE",
      "URI": "https://access.redhat.com/security/cve/CVE-2007-4138",
      "ID": "CVE-2007-4138"
    },
    {
      "Source": "CVE",
      "URI": "https://access.redhat.com/security/cve/CVE-2007-4572",
      "ID": "CVE-2007-4572"
    },
    {
      "Source": "CVE",
      "URI": "https://access.redhat.com/security/cve/CVE-2007-5398",
      "ID": "CVE-2007-5398"
    }
  ],
  "Criteria": {
    "Operator": "OR",
    "Criterias": [
      {
        "Operator": "AND",
        "Criterias": [
          {
            "Operator": "OR",
            "Criterias": [
              {
                "Operator": "AND",
                "Criterias": [

                ],
                "Criterions": [
                  {
                    "Comment": "samba is earlier than 0:3.0.25b-1.el5_1.2"
                  },
                  {
                    "Comment": "samba is signed with Red Hat redhatrelease2 key"
                  }
                ]
              },
              {
                "Operator": "AND",
                "Criterias": [

                ],
                "Criterions": [
                  {
                    "Comment": "samba-client is earlier than 0:3.0.25b-1.el5_1.2"
                  },
                  {
                    "Comment": "samba-client is signed with Red Hat redhatrelease2 key"
                  }
                ]
              },
              {
                "Operator": "AND",
                "Criterias": [

                ],
                "Criterions": [
                  {
                    "Comment": "samba-common is earlier than 0:3.0.25b-1.el5_1.2"
                  },
                  {
                    "Comment": "samba-common is signed with Red Hat redhatrelease2 key"
                  }
                ]
              },
              {
                "Operator": "AND",
                "Criterias": [

                ],
                "Criterions": [
                  {
                    "Comment": "samba-swat is earlier than 0:3.0.25b-1.el5_1.2"
                  },
                  {
                    "Comment": "samba-swat is signed with Red Hat redhatrelease2 key"
                  }
                ]
              }
            ],
            "Criterions": [

            ]
          }
        ],
        "Criterions": [
          {
            "Comment": "Oracle Linux 5 is installed"
          }
        ]
      }
    ],
    "Criterions": [
      {
        "Comment": "Oracle Linux 5 is installed"
      }
    ]
  },
  "Severity": "Critical",
  "Cves": [
    {
      "Impact": "",
      "Href": "",
      "ID": "CVE-2007-4138"
    },
    {
      "Impact": "",
      "Href": "",
      "ID": "CVE-2007-4572"
    },
    {
      "Impact": "",
      "Href": "",
      "ID": "CVE-2007-5398"
    }
  ],
  "Issued": {
    "Date": "2007-11-15"
  }
}