{
  "Title": "RHSA-2007:1038: openldap security and enhancement update (Moderate)",
  "Description": "OpenLDAP is an open source suite of LDAP (Lightweight Directory Access\nProtocol) applications and development tools.\nA flaw was found in the way OpenLDAP's slapd daemon handled malformed\nobjectClasses LDAP attributes.  An authenticated local or remote attacker\ncould create an LDAP request which could cause a denial of service by\ncrashing slapd. (CVE-2007-5707)\nIn addition, the following feature was added:\n* OpenLDAP client tools now have new option to configure their bind timeout.\nAll users are advised to upgrade to these updated openldap packages, which\ncontain a backported patch to correct this issue and provide this security\nenhancement.",
  "Platform": [
    "Red Hat Enterprise Linux 4"
  ],
  "References": [
    {
      "Source": "RHSA",
      "URI": "https://access.redhat.com/errata/RHSA-2007:1038",
      "ID": "RHSA-2007:1038"
    },
    {
      "Source": "CVE",
      "URI": "https://access.redhat.com/security/cve/CVE-2007-5707",
      "ID": "CVE-2007-5707"
    }
  ],
  "Criteria": {
    "Operator": "OR",
    "Criterias": [
      {
        "Operator": "AND",
        "Criterias": [
          {
            "Operator": "OR",
            "Criterias": [
              {
                "Operator": "AND",
                "Criterias": [

                ],
                "Criterions": [
                  {
                    "Comment": "compat-openldap is earlier than 0:2.1.30-8.el4_6.1"
                  },
                  {
                    "Comment": "compat-openldap is signed with Red Hat redhatrelease2 key"
                  }
                ]
              },
              {
                "Operator": "AND",
                "Criterias": [

                ],
                "Criterions": [
                  {
                    "Comment": "openldap is earlier than 0:2.2.13-8.el4_6.1"
                  },
                  {
                    "Comment": "openldap is signed with Red Hat redhatrelease2 key"
                  }
                ]
              },
              {
                "Operator": "AND",
                "Criterias": [

                ],
                "Criterions": [
                  {
                    "Comment": "openldap-clients is earlier than 0:2.2.13-8.el4_6.1"
                  },
                  {
                    "Comment": "openldap-clients is signed with Red Hat redhatrelease2 key"
                  }
                ]
              },
              {
                "Operator": "AND",
                "Criterias": [

                ],
                "Criterions": [
                  {
                    "Comment": "openldap-devel is earlier than 0:2.2.13-8.el4_6.1"
                  },
                  {
                    "Comment": "openldap-devel is signed with Red Hat redhatrelease2 key"
                  }
                ]
              },
              {
                "Operator": "AND",
                "Criterias": [

                ],
                "Criterions": [
                  {
                    "Comment": "openldap-servers is earlier than 0:2.2.13-8.el4_6.1"
                  },
                  {
                    "Comment": "openldap-servers is signed with Red Hat redhatrelease2 key"
                  }
                ]
              },
              {
                "Operator": "AND",
                "Criterias": [

                ],
                "Criterions": [
                  {
                    "Comment": "openldap-servers-sql is earlier than 0:2.2.13-8.el4_6.1"
                  },
                  {
                    "Comment": "openldap-servers-sql is signed with Red Hat redhatrelease2 key"
                  }
                ]
              }
            ],
            "Criterions": [

            ]
          }
        ],
        "Criterions": [
          {
            "Comment": "Oracle Linux 4 is installed"
          }
        ]
      }
    ],
    "Criterions": [
      {
        "Comment": "Oracle Linux 4 is installed"
      }
    ]
  },
  "Severity": "Moderate",
  "Cves": [
    {
      "Impact": "",
      "Href": "",
      "ID": "CVE-2007-5707"
    }
  ],
  "Issued": {
    "Date": "2007-11-15"
  }
}