{
  "Title": "RHSA-2007:1082: firefox security update (Critical)",
  "Description": "Mozilla Firefox is an open source Web browser.\nA cross-site scripting flaw was found in the way Firefox handled the\njar: URI scheme. It was possible for a malicious website to leverage this\nflaw and conduct a cross-site scripting attack against a user running\nFirefox. (CVE-2007-5947)\nSeveral flaws were found in the way Firefox processed certain malformed web\ncontent. A webpage containing malicious content could cause Firefox to\ncrash, or potentially execute arbitrary code as the user running Firefox.\n(CVE-2007-5959)\nA race condition existed when Firefox set the \"window.location\" property\nfor a webpage. This flaw could allow a webpage to set an arbitrary Referer\nheader, which may lead to a Cross-site Request Forgery (CSRF) attack\nagainst websites that rely only on the Referer header for protection.\n(CVE-2007-5960)\nUsers of Firefox are advised to upgrade to these updated packages, which\ncontain backported patches to resolve these issues.",
  "Platform": [
    "Red Hat Enterprise Linux 4",
    "Red Hat Enterprise Linux 5"
  ],
  "References": [
    {
      "Source": "RHSA",
      "URI": "https://access.redhat.com/errata/RHSA-2007:1082",
      "ID": "RHSA-2007:1082"
    },
    {
      "Source": "CVE",
      "URI": "https://access.redhat.com/security/cve/CVE-2007-5947",
      "ID": "CVE-2007-5947"
    },
    {
      "Source": "CVE",
      "URI": "https://access.redhat.com/security/cve/CVE-2007-5959",
      "ID": "CVE-2007-5959"
    },
    {
      "Source": "CVE",
      "URI": "https://access.redhat.com/security/cve/CVE-2007-5960",
      "ID": "CVE-2007-5960"
    }
  ],
  "Criteria": {
    "Operator": "OR",
    "Criterias": [
      {
        "Operator": "AND",
        "Criterias": [

        ],
        "Criterions": [
          {
            "Comment": "Oracle Linux 4 is installed"
          },
          {
            "Comment": "firefox is earlier than 0:1.5.0.12-0.8.el4"
          },
          {
            "Comment": "firefox is signed with Red Hat master key"
          }
        ]
      },
      {
        "Operator": "AND",
        "Criterias": [

        ],
        "Criterions": [
          {
            "Comment": "Oracle Linux 5 is installed"
          },
          {
            "Comment": "firefox is earlier than 0:1.5.0.12-7.el5"
          },
          {
            "Comment": "firefox is signed with Red Hat redhatrelease key"
          }
        ]
      }
    ],
    "Criterions": [
      {
        "Comment": "Oracle Linux 4 is installed"
      }
    ]
  },
  "Severity": "Critical",
  "Cves": [
    {
      "Impact": "",
      "Href": "",
      "ID": "CVE-2007-5947"
    },
    {
      "Impact": "",
      "Href": "",
      "ID": "CVE-2007-5959"
    },
    {
      "Impact": "",
      "Href": "",
      "ID": "CVE-2007-5960"
    }
  ],
  "Issued": {
    "Date": "2007-11-26"
  }
}