{
  "Title": "RHSA-2007:0055: libwpd security update (Important)",
  "Description": "libwpd is a library for reading and converting Word Perfect documents.\niDefense reported several overflow bugs in libwpd.  An attacker could\ncreate a carefully crafted Word Perfect file that could cause an\napplication linked with libwpd, such as OpenOffice, to crash or possibly\nexecute arbitrary code if the file was opened by a victim. (CVE-2007-0002)\nAll users are advised to upgrade to these updated packages, which contain a\nbackported fix for this issue.\nRed Hat would like to thank Fridrich Štrba for alerting us to these issues\nand providing a patch.",
  "Platform": [
    "Red Hat Enterprise Linux 5"
  ],
  "References": [
    {
      "Source": "RHSA",
      "URI": "https://access.redhat.com/errata/RHSA-2007:0055",
      "ID": "RHSA-2007:0055"
    },
    {
      "Source": "CVE",
      "URI": "https://access.redhat.com/security/cve/CVE-2007-0002",
      "ID": "CVE-2007-0002"
    },
    {
      "Source": "CVE",
      "URI": "https://access.redhat.com/security/cve/CVE-2007-1466",
      "ID": "CVE-2007-1466"
    }
  ],
  "Criteria": {
    "Operator": "OR",
    "Criterias": [
      {
        "Operator": "AND",
        "Criterias": [
          {
            "Operator": "OR",
            "Criterias": [
              {
                "Operator": "AND",
                "Criterias": [

                ],
                "Criterions": [
                  {
                    "Comment": "libwpd is earlier than 0:0.8.7-3.el5"
                  },
                  {
                    "Comment": "libwpd is signed with Red Hat redhatrelease key"
                  }
                ]
              },
              {
                "Operator": "AND",
                "Criterias": [

                ],
                "Criterions": [
                  {
                    "Comment": "libwpd-devel is earlier than 0:0.8.7-3.el5"
                  },
                  {
                    "Comment": "libwpd-devel is signed with Red Hat redhatrelease key"
                  }
                ]
              },
              {
                "Operator": "AND",
                "Criterias": [

                ],
                "Criterions": [
                  {
                    "Comment": "libwpd-tools is earlier than 0:0.8.7-3.el5"
                  },
                  {
                    "Comment": "libwpd-tools is signed with Red Hat redhatrelease key"
                  }
                ]
              }
            ],
            "Criterions": [

            ]
          }
        ],
        "Criterions": [
          {
            "Comment": "Oracle Linux 5 is installed"
          }
        ]
      }
    ],
    "Criterions": [
      {
        "Comment": "Oracle Linux 5 is installed"
      }
    ]
  },
  "Severity": "Important",
  "Cves": [
    {
      "Impact": "",
      "Href": "",
      "ID": "CVE-2007-0002"
    },
    {
      "Impact": "",
      "Href": "",
      "ID": "CVE-2007-1466"
    }
  ],
  "Issued": {
    "Date": "2007-03-16"
  }
}