{
  "Title": "RHSA-2009:1122: icu security update (Moderate)",
  "Description": "The International Components for Unicode (ICU) library provides robust and\nfull-featured Unicode services.\nA flaw was found in the way ICU processed certain, invalid byte sequences\nduring Unicode conversion. If an application used ICU to decode malformed,\nmultibyte character data, it may have been possible to bypass certain\ncontent protection mechanisms, or display information in a manner\nmisleading to the user. (CVE-2009-0153)\nAll users of icu should upgrade to these updated packages, which contain\nbackported patches to resolve this issue.",
  "Platform": [
    "Red Hat Enterprise Linux 5"
  ],
  "References": [
    {
      "Source": "RHSA",
      "URI": "https://access.redhat.com/errata/RHSA-2009:1122",
      "ID": "RHSA-2009:1122"
    },
    {
      "Source": "CVE",
      "URI": "https://access.redhat.com/security/cve/CVE-2009-0153",
      "ID": "CVE-2009-0153"
    }
  ],
  "Criteria": {
    "Operator": "OR",
    "Criterias": [
      {
        "Operator": "AND",
        "Criterias": [
          {
            "Operator": "OR",
            "Criterias": [
              {
                "Operator": "AND",
                "Criterias": [

                ],
                "Criterions": [
                  {
                    "Comment": "icu is earlier than 0:3.6-5.11.4"
                  },
                  {
                    "Comment": "icu is signed with Red Hat redhatrelease2 key"
                  }
                ]
              },
              {
                "Operator": "AND",
                "Criterias": [

                ],
                "Criterions": [
                  {
                    "Comment": "libicu is earlier than 0:3.6-5.11.4"
                  },
                  {
                    "Comment": "libicu is signed with Red Hat redhatrelease2 key"
                  }
                ]
              },
              {
                "Operator": "AND",
                "Criterias": [

                ],
                "Criterions": [
                  {
                    "Comment": "libicu-devel is earlier than 0:3.6-5.11.4"
                  },
                  {
                    "Comment": "libicu-devel is signed with Red Hat redhatrelease2 key"
                  }
                ]
              },
              {
                "Operator": "AND",
                "Criterias": [

                ],
                "Criterions": [
                  {
                    "Comment": "libicu-doc is earlier than 0:3.6-5.11.4"
                  },
                  {
                    "Comment": "libicu-doc is signed with Red Hat redhatrelease2 key"
                  }
                ]
              }
            ],
            "Criterions": [

            ]
          }
        ],
        "Criterions": [
          {
            "Comment": "Oracle Linux 5 is installed"
          }
        ]
      }
    ],
    "Criterions": [
      {
        "Comment": "Oracle Linux 5 is installed"
      }
    ]
  },
  "Severity": "Moderate",
  "Cves": [
    {
      "Impact": "",
      "Href": "",
      "ID": "CVE-2009-0153"
    }
  ],
  "Issued": {
    "Date": "2009-06-25"
  }
}