{
  "Title": "RHSA-2009:1176: python security update (Moderate)",
  "Description": "Python is an interpreted, interactive, object-oriented programming\nlanguage.\nWhen the assert() system call was disabled, an input sanitization flaw was\nrevealed in the Python string object implementation that led to a buffer\noverflow. The missing check for negative size values meant the Python\nmemory allocator could allocate less memory than expected. This could\nresult in arbitrary code execution with the Python interpreter's\nprivileges. (CVE-2008-1887)\nMultiple buffer and integer overflow flaws were found in the Python Unicode\nstring processing and in the Python Unicode and string object\nimplementations. An attacker could use these flaws to cause a denial of\nservice (Python application crash). (CVE-2008-3142, CVE-2008-5031)\nMultiple integer overflow flaws were found in the Python imageop module. If\na Python application used the imageop module to process untrusted images,\nit could cause the application to disclose sensitive information, crash or,\npotentially, execute arbitrary code with the Python interpreter's\nprivileges. (CVE-2007-4965, CVE-2008-4864)\nMultiple integer underflow and overflow flaws were found in the Python\nsnprintf() wrapper implementation. An attacker could use these flaws to\ncause a denial of service (memory corruption). (CVE-2008-3144)\nMultiple integer overflow flaws were found in various Python modules. An\nattacker could use these flaws to cause a denial of service (Python\napplication crash). (CVE-2008-2315, CVE-2008-3143)\nAn integer signedness error, leading to a buffer overflow, was found\nin the Python zlib extension module. If a Python application requested\nthe negative byte count be flushed for a decompression stream, it could\ncause the application to crash or, potentially, execute arbitrary code\nwith the Python interpreter's privileges. (CVE-2008-1721)\nA flaw was discovered in the strxfrm() function of the Python locale\nmodule. Strings generated by this function were not properly\nNULL-terminated, which could possibly cause disclosure of data stored in\nthe memory of a Python application using this function. (CVE-2007-2052)\nRed Hat would like to thank David Remahl of the Apple Product Security team\nfor responsibly reporting the CVE-2008-2315 issue.\nAll Python users should upgrade to these updated packages, which contain\nbackported patches to correct these issues.",
  "Platform": [
    "Red Hat Enterprise Linux 5"
  ],
  "References": [
    {
      "Source": "RHSA",
      "URI": "https://access.redhat.com/errata/RHSA-2009:1176",
      "ID": "RHSA-2009:1176"
    },
    {
      "Source": "CVE",
      "URI": "https://access.redhat.com/security/cve/CVE-2007-2052",
      "ID": "CVE-2007-2052"
    },
    {
      "Source": "CVE",
      "URI": "https://access.redhat.com/security/cve/CVE-2007-4965",
      "ID": "CVE-2007-4965"
    },
    {
      "Source": "CVE",
      "URI": "https://access.redhat.com/security/cve/CVE-2008-1721",
      "ID": "CVE-2008-1721"
    },
    {
      "Source": "CVE",
      "URI": "https://access.redhat.com/security/cve/CVE-2008-1887",
      "ID": "CVE-2008-1887"
    },
    {
      "Source": "CVE",
      "URI": "https://access.redhat.com/security/cve/CVE-2008-2315",
      "ID": "CVE-2008-2315"
    },
    {
      "Source": "CVE",
      "URI": "https://access.redhat.com/security/cve/CVE-2008-3142",
      "ID": "CVE-2008-3142"
    },
    {
      "Source": "CVE",
      "URI": "https://access.redhat.com/security/cve/CVE-2008-3143",
      "ID": "CVE-2008-3143"
    },
    {
      "Source": "CVE",
      "URI": "https://access.redhat.com/security/cve/CVE-2008-3144",
      "ID": "CVE-2008-3144"
    },
    {
      "Source": "CVE",
      "URI": "https://access.redhat.com/security/cve/CVE-2008-4864",
      "ID": "CVE-2008-4864"
    },
    {
      "Source": "CVE",
      "URI": "https://access.redhat.com/security/cve/CVE-2008-5031",
      "ID": "CVE-2008-5031"
    }
  ],
  "Criteria": {
    "Operator": "OR",
    "Criterias": [
      {
        "Operator": "AND",
        "Criterias": [
          {
            "Operator": "OR",
            "Criterias": [
              {
                "Operator": "AND",
                "Criterias": [

                ],
                "Criterions": [
                  {
                    "Comment": "python is earlier than 0:2.4.3-24.el5_3.6"
                  },
                  {
                    "Comment": "python is signed with Red Hat redhatrelease2 key"
                  }
                ]
              },
              {
                "Operator": "AND",
                "Criterias": [

                ],
                "Criterions": [
                  {
                    "Comment": "python-devel is earlier than 0:2.4.3-24.el5_3.6"
                  },
                  {
                    "Comment": "python-devel is signed with Red Hat redhatrelease2 key"
                  }
                ]
              },
              {
                "Operator": "AND",
                "Criterias": [

                ],
                "Criterions": [
                  {
                    "Comment": "python-tools is earlier than 0:2.4.3-24.el5_3.6"
                  },
                  {
                    "Comment": "python-tools is signed with Red Hat redhatrelease2 key"
                  }
                ]
              },
              {
                "Operator": "AND",
                "Criterias": [

                ],
                "Criterions": [
                  {
                    "Comment": "tkinter is earlier than 0:2.4.3-24.el5_3.6"
                  },
                  {
                    "Comment": "tkinter is signed with Red Hat redhatrelease2 key"
                  }
                ]
              }
            ],
            "Criterions": [

            ]
          }
        ],
        "Criterions": [
          {
            "Comment": "Oracle Linux 5 is installed"
          }
        ]
      }
    ],
    "Criterions": [
      {
        "Comment": "Oracle Linux 5 is installed"
      }
    ]
  },
  "Severity": "Moderate",
  "Cves": [
    {
      "Impact": "",
      "Href": "",
      "ID": "CVE-2007-2052"
    },
    {
      "Impact": "",
      "Href": "",
      "ID": "CVE-2007-4965"
    },
    {
      "Impact": "",
      "Href": "",
      "ID": "CVE-2008-1721"
    },
    {
      "Impact": "",
      "Href": "",
      "ID": "CVE-2008-1887"
    },
    {
      "Impact": "",
      "Href": "",
      "ID": "CVE-2008-2315"
    },
    {
      "Impact": "",
      "Href": "",
      "ID": "CVE-2008-3142"
    },
    {
      "Impact": "",
      "Href": "",
      "ID": "CVE-2008-3143"
    },
    {
      "Impact": "",
      "Href": "",
      "ID": "CVE-2008-3144"
    },
    {
      "Impact": "",
      "Href": "",
      "ID": "CVE-2008-4864"
    },
    {
      "Impact": "",
      "Href": "",
      "ID": "CVE-2008-5031"
    }
  ],
  "Issued": {
    "Date": "2009-07-27"
  }
}