{
  "Title": "RHSA-2009:0476: pango security update (Important)",
  "Description": "Pango is a library used for the layout and rendering of internationalized\ntext.\nWill Drewry discovered an integer overflow flaw in Pango's\npango_glyph_string_set_size() function. If an attacker is able to pass an\narbitrarily long string to Pango, it may be possible to execute arbitrary\ncode with the permissions of the application calling Pango. (CVE-2009-1194)\npango and evolution28-pango users are advised to upgrade to these updated\npackages, which contain a backported patch to resolve this issue. After\ninstalling this update, you must restart your system or restart the X\nserver for the update to take effect. Note: Restarting the X server closes\nall open applications and logs you out of your session.",
  "Platform": [
    "Red Hat Enterprise Linux 4",
    "Red Hat Enterprise Linux 5"
  ],
  "References": [
    {
      "Source": "RHSA",
      "URI": "https://access.redhat.com/errata/RHSA-2009:0476",
      "ID": "RHSA-2009:0476"
    },
    {
      "Source": "CVE",
      "URI": "https://access.redhat.com/security/cve/CVE-2009-1194",
      "ID": "CVE-2009-1194"
    }
  ],
  "Criteria": {
    "Operator": "OR",
    "Criterias": [
      {
        "Operator": "AND",
        "Criterias": [
          {
            "Operator": "OR",
            "Criterias": [
              {
                "Operator": "AND",
                "Criterias": [

                ],
                "Criterions": [
                  {
                    "Comment": "pango is earlier than 0:1.6.0-14.4_7"
                  },
                  {
                    "Comment": "pango is signed with Red Hat redhatrelease2 key"
                  }
                ]
              },
              {
                "Operator": "AND",
                "Criterias": [

                ],
                "Criterions": [
                  {
                    "Comment": "pango-devel is earlier than 0:1.6.0-14.4_7"
                  },
                  {
                    "Comment": "pango-devel is signed with Red Hat redhatrelease2 key"
                  }
                ]
              },
              {
                "Operator": "AND",
                "Criterias": [

                ],
                "Criterions": [
                  {
                    "Comment": "evolution28-pango is earlier than 0:1.14.9-11.el4_7"
                  },
                  {
                    "Comment": "evolution28-pango is signed with Red Hat redhatrelease2 key"
                  }
                ]
              },
              {
                "Operator": "AND",
                "Criterias": [

                ],
                "Criterions": [
                  {
                    "Comment": "evolution28-pango-devel is earlier than 0:1.14.9-11.el4_7"
                  },
                  {
                    "Comment": "evolution28-pango-devel is signed with Red Hat redhatrelease2 key"
                  }
                ]
              }
            ],
            "Criterions": [

            ]
          }
        ],
        "Criterions": [
          {
            "Comment": "Oracle Linux 4 is installed"
          }
        ]
      },
      {
        "Operator": "AND",
        "Criterias": [
          {
            "Operator": "OR",
            "Criterias": [
              {
                "Operator": "AND",
                "Criterias": [

                ],
                "Criterions": [
                  {
                    "Comment": "pango is earlier than 0:1.14.9-5.el5_3"
                  },
                  {
                    "Comment": "pango is signed with Red Hat redhatrelease2 key"
                  }
                ]
              },
              {
                "Operator": "AND",
                "Criterias": [

                ],
                "Criterions": [
                  {
                    "Comment": "pango-devel is earlier than 0:1.14.9-5.el5_3"
                  },
                  {
                    "Comment": "pango-devel is signed with Red Hat redhatrelease2 key"
                  }
                ]
              }
            ],
            "Criterions": [

            ]
          }
        ],
        "Criterions": [
          {
            "Comment": "Oracle Linux 5 is installed"
          }
        ]
      }
    ],
    "Criterions": [
      {
        "Comment": "Oracle Linux 4 is installed"
      }
    ]
  },
  "Severity": "Important",
  "Cves": [
    {
      "Impact": "",
      "Href": "",
      "ID": "CVE-2009-1194"
    }
  ],
  "Issued": {
    "Date": "2009-05-08"
  }
}