{
  "Title": "RHSA-2009:1549: wget security update (Moderate)",
  "Description": "GNU Wget is a file retrieval utility that can use HTTP, HTTPS, and FTP.\nDaniel Stenberg reported that Wget is affected by the previously published\n\"null prefix attack\", caused by incorrect handling of NULL characters in\nX.509 certificates. If an attacker is able to get a carefully-crafted\ncertificate signed by a trusted Certificate Authority, the attacker could\nuse the certificate during a man-in-the-middle attack and potentially\nconfuse Wget into accepting it by mistake. (CVE-2009-3490)\nWget users should upgrade to this updated package, which contains a\nbackported patch to correct this issue.",
  "Platform": [
    "Red Hat Enterprise Linux 4",
    "Red Hat Enterprise Linux 5"
  ],
  "References": [
    {
      "Source": "RHSA",
      "URI": "https://access.redhat.com/errata/RHSA-2009:1549",
      "ID": "RHSA-2009:1549"
    },
    {
      "Source": "CVE",
      "URI": "https://access.redhat.com/security/cve/CVE-2009-3490",
      "ID": "CVE-2009-3490"
    }
  ],
  "Criteria": {
    "Operator": "OR",
    "Criterias": [
      {
        "Operator": "AND",
        "Criterias": [

        ],
        "Criterions": [
          {
            "Comment": "Oracle Linux 4 is installed"
          },
          {
            "Comment": "wget is earlier than 0:1.10.2-1.el4_8.1"
          },
          {
            "Comment": "wget is signed with Red Hat redhatrelease2 key"
          }
        ]
      },
      {
        "Operator": "AND",
        "Criterias": [

        ],
        "Criterions": [
          {
            "Comment": "Oracle Linux 5 is installed"
          },
          {
            "Comment": "wget is earlier than 0:1.11.4-2.el5_4.1"
          },
          {
            "Comment": "wget is signed with Red Hat redhatrelease2 key"
          }
        ]
      }
    ],
    "Criterions": [
      {
        "Comment": "Oracle Linux 4 is installed"
      }
    ]
  },
  "Severity": "Moderate",
  "Cves": [
    {
      "Impact": "",
      "Href": "",
      "ID": "CVE-2009-3490"
    }
  ],
  "Issued": {
    "Date": "2009-11-03"
  }
}