{
  "Title": "RHSA-2009:1579: httpd security update (Moderate)",
  "Description": "The Apache HTTP Server is a popular Web server.\nA flaw was found in the way the TLS/SSL (Transport Layer Security/Secure\nSockets Layer) protocols handle session renegotiation. A man-in-the-middle\nattacker could use this flaw to prefix arbitrary plain text to a client's\nsession (for example, an HTTPS connection to a website). This could force\nthe server to process an attacker's request as if authenticated using the\nvictim's credentials. This update partially mitigates this flaw for SSL\nsessions to HTTP servers using mod_ssl by rejecting client-requested\nrenegotiation. (CVE-2009-3555)\nNote: This update does not fully resolve the issue for HTTPS servers. An\nattack is still possible in configurations that require a server-initiated\nrenegotiation. Refer to the following Knowledgebase article for further\ninformation: http://kbase.redhat.com/faq/docs/DOC-20491\nA NULL pointer dereference flaw was found in the Apache mod_proxy_ftp\nmodule. A malicious FTP server to which requests are being proxied could\nuse this flaw to crash an httpd child process via a malformed reply to the\nEPSV or PASV commands, resulting in a limited denial of service.\n(CVE-2009-3094)\nA second flaw was found in the Apache mod_proxy_ftp module. In a reverse\nproxy configuration, a remote attacker could use this flaw to bypass\nintended access restrictions by creating a carefully-crafted HTTP\nAuthorization header, allowing the attacker to send arbitrary commands to\nthe FTP server. (CVE-2009-3095)\nAll httpd users should upgrade to these updated packages, which contain\nbackported patches to correct these issues. After installing the updated\npackages, the httpd daemon must be restarted for the update to take effect.",
  "Platform": [
    "Red Hat Enterprise Linux 5"
  ],
  "References": [
    {
      "Source": "RHSA",
      "URI": "https://access.redhat.com/errata/RHSA-2009:1579",
      "ID": "RHSA-2009:1579"
    },
    {
      "Source": "CVE",
      "URI": "https://access.redhat.com/security/cve/CVE-2009-3094",
      "ID": "CVE-2009-3094"
    },
    {
      "Source": "CVE",
      "URI": "https://access.redhat.com/security/cve/CVE-2009-3095",
      "ID": "CVE-2009-3095"
    },
    {
      "Source": "CVE",
      "URI": "https://access.redhat.com/security/cve/CVE-2009-3555",
      "ID": "CVE-2009-3555"
    }
  ],
  "Criteria": {
    "Operator": "OR",
    "Criterias": [
      {
        "Operator": "AND",
        "Criterias": [
          {
            "Operator": "OR",
            "Criterias": [
              {
                "Operator": "AND",
                "Criterias": [

                ],
                "Criterions": [
                  {
                    "Comment": "httpd is earlier than 0:2.2.3-31.el5_4.2"
                  },
                  {
                    "Comment": "httpd is signed with Red Hat redhatrelease2 key"
                  }
                ]
              },
              {
                "Operator": "AND",
                "Criterias": [

                ],
                "Criterions": [
                  {
                    "Comment": "httpd-devel is earlier than 0:2.2.3-31.el5_4.2"
                  },
                  {
                    "Comment": "httpd-devel is signed with Red Hat redhatrelease2 key"
                  }
                ]
              },
              {
                "Operator": "AND",
                "Criterias": [

                ],
                "Criterions": [
                  {
                    "Comment": "httpd-manual is earlier than 0:2.2.3-31.el5_4.2"
                  },
                  {
                    "Comment": "httpd-manual is signed with Red Hat redhatrelease2 key"
                  }
                ]
              },
              {
                "Operator": "AND",
                "Criterias": [

                ],
                "Criterions": [
                  {
                    "Comment": "mod_ssl is earlier than 1:2.2.3-31.el5_4.2"
                  },
                  {
                    "Comment": "mod_ssl is signed with Red Hat redhatrelease2 key"
                  }
                ]
              }
            ],
            "Criterions": [

            ]
          }
        ],
        "Criterions": [
          {
            "Comment": "Oracle Linux 5 is installed"
          }
        ]
      }
    ],
    "Criterions": [
      {
        "Comment": "Oracle Linux 5 is installed"
      }
    ]
  },
  "Severity": "Moderate",
  "Cves": [
    {
      "Impact": "",
      "Href": "",
      "ID": "CVE-2009-3094"
    },
    {
      "Impact": "",
      "Href": "",
      "ID": "CVE-2009-3095"
    },
    {
      "Impact": "",
      "Href": "",
      "ID": "CVE-2009-3555"
    }
  ],
  "Issued": {
    "Date": "2009-11-11"
  }
}