{
  "Title": "RHSA-2009:0259: mod_auth_mysql security update (Moderate)",
  "Description": "The mod_auth_mysql package includes an extension module for the Apache HTTP\nServer which can be used to implement web user authentication against a\nMySQL database.\nA flaw was found in the way mod_auth_mysql escaped certain\nmultibyte-encoded strings. If mod_auth_mysql was configured to use a\nmultibyte character set that allowed a backslash '\\' as part of the\ncharacter encodings, a remote attacker could inject arbitrary SQL commands\ninto a login request. (CVE-2008-2384)\nNote: This flaw only affected non-default installations where \nAuthMySQLCharacterSet is configured to use one of the affected multibyte\ncharacter sets. Installations that did not use the AuthMySQLCharacterSet\nconfiguration option were not vulnerable to this flaw.\nAll mod_auth_mysql users are advised to upgrade to the updated package,\nwhich contains a backported patch to resolve this issue. After installing\nthe update, the httpd daemon must be restarted for the fix to take effect.",
  "Platform": [
    "Red Hat Enterprise Linux 5"
  ],
  "References": [
    {
      "Source": "RHSA",
      "URI": "https://access.redhat.com/errata/RHSA-2009:0259",
      "ID": "RHSA-2009:0259"
    },
    {
      "Source": "CVE",
      "URI": "https://access.redhat.com/security/cve/CVE-2008-2384",
      "ID": "CVE-2008-2384"
    }
  ],
  "Criteria": {
    "Operator": "OR",
    "Criterias": [
      {
        "Operator": "AND",
        "Criterias": [

        ],
        "Criterions": [
          {
            "Comment": "Oracle Linux 5 is installed"
          },
          {
            "Comment": "mod_auth_mysql is earlier than 1:3.0.0-3.2.el5_3"
          },
          {
            "Comment": "mod_auth_mysql is signed with Red Hat redhatrelease key"
          }
        ]
      }
    ],
    "Criterions": [
      {
        "Comment": "Oracle Linux 5 is installed"
      }
    ]
  },
  "Severity": "Moderate",
  "Cves": [
    {
      "Impact": "",
      "Href": "",
      "ID": "CVE-2008-2384"
    }
  ],
  "Issued": {
    "Date": "2009-02-11"
  }
}