{
  "Title": "RHSA-2009:1139: pidgin security and bug fix update (Moderate)",
  "Description": "Pidgin is an instant messaging program which can log in to multiple\naccounts on multiple instant messaging networks simultaneously. The AOL\nOpen System for CommunicAtion in Realtime (OSCAR) protocol is used by the\nAOL ICQ and AIM instant messaging systems.\nA denial of service flaw was found in the Pidgin OSCAR protocol\nimplementation. If a remote ICQ user sent a web message to a local Pidgin\nuser using this protocol, it would cause excessive memory usage, leading to\na denial of service (Pidgin crash). (CVE-2009-1889)\nThese updated packages also fix the following bug:\n* the Yahoo! Messenger Protocol changed, making it incompatible (and\nunusable) with Pidgin versions prior to 2.5.7. This update provides Pidgin\n2.5.8, which implements version 16 of the Yahoo! Messenger Protocol, which\nresolves this issue.\nNote: These packages upgrade Pidgin to version 2.5.8. Refer to the Pidgin\nrelease notes for a full list of changes:\nhttp://developer.pidgin.im/wiki/ChangeLog\nAll Pidgin users should upgrade to these updated packages, which correct\nthese issues. Pidgin must be restarted for this update to take effect.",
  "Platform": [
    "Red Hat Enterprise Linux 4",
    "Red Hat Enterprise Linux 5"
  ],
  "References": [
    {
      "Source": "RHSA",
      "URI": "https://access.redhat.com/errata/RHSA-2009:1139",
      "ID": "RHSA-2009:1139"
    },
    {
      "Source": "CVE",
      "URI": "https://access.redhat.com/security/cve/CVE-2009-1889",
      "ID": "CVE-2009-1889"
    }
  ],
  "Criteria": {
    "Operator": "OR",
    "Criterias": [
      {
        "Operator": "AND",
        "Criterias": [
          {
            "Operator": "OR",
            "Criterias": [
              {
                "Operator": "AND",
                "Criterias": [

                ],
                "Criterions": [
                  {
                    "Comment": "finch is earlier than 0:2.5.8-1.el4"
                  },
                  {
                    "Comment": "finch is signed with Red Hat redhatrelease2 key"
                  }
                ]
              },
              {
                "Operator": "AND",
                "Criterias": [

                ],
                "Criterions": [
                  {
                    "Comment": "finch-devel is earlier than 0:2.5.8-1.el4"
                  },
                  {
                    "Comment": "finch-devel is signed with Red Hat redhatrelease2 key"
                  }
                ]
              },
              {
                "Operator": "AND",
                "Criterias": [

                ],
                "Criterions": [
                  {
                    "Comment": "libpurple is earlier than 0:2.5.8-1.el4"
                  },
                  {
                    "Comment": "libpurple is signed with Red Hat redhatrelease2 key"
                  }
                ]
              },
              {
                "Operator": "AND",
                "Criterias": [

                ],
                "Criterions": [
                  {
                    "Comment": "libpurple-devel is earlier than 0:2.5.8-1.el4"
                  },
                  {
                    "Comment": "libpurple-devel is signed with Red Hat redhatrelease2 key"
                  }
                ]
              },
              {
                "Operator": "AND",
                "Criterias": [

                ],
                "Criterions": [
                  {
                    "Comment": "libpurple-perl is earlier than 0:2.5.8-1.el4"
                  },
                  {
                    "Comment": "libpurple-perl is signed with Red Hat redhatrelease2 key"
                  }
                ]
              },
              {
                "Operator": "AND",
                "Criterias": [

                ],
                "Criterions": [
                  {
                    "Comment": "libpurple-tcl is earlier than 0:2.5.8-1.el4"
                  },
                  {
                    "Comment": "libpurple-tcl is signed with Red Hat redhatrelease2 key"
                  }
                ]
              },
              {
                "Operator": "AND",
                "Criterias": [

                ],
                "Criterions": [
                  {
                    "Comment": "pidgin is earlier than 0:2.5.8-1.el4"
                  },
                  {
                    "Comment": "pidgin is signed with Red Hat redhatrelease2 key"
                  }
                ]
              },
              {
                "Operator": "AND",
                "Criterias": [

                ],
                "Criterions": [
                  {
                    "Comment": "pidgin-devel is earlier than 0:2.5.8-1.el4"
                  },
                  {
                    "Comment": "pidgin-devel is signed with Red Hat redhatrelease2 key"
                  }
                ]
              },
              {
                "Operator": "AND",
                "Criterias": [

                ],
                "Criterions": [
                  {
                    "Comment": "pidgin-perl is earlier than 0:2.5.8-1.el4"
                  },
                  {
                    "Comment": "pidgin-perl is signed with Red Hat redhatrelease2 key"
                  }
                ]
              }
            ],
            "Criterions": [

            ]
          }
        ],
        "Criterions": [
          {
            "Comment": "Oracle Linux 4 is installed"
          }
        ]
      },
      {
        "Operator": "AND",
        "Criterias": [
          {
            "Operator": "OR",
            "Criterias": [
              {
                "Operator": "AND",
                "Criterias": [

                ],
                "Criterions": [
                  {
                    "Comment": "finch is earlier than 0:2.5.8-1.el5"
                  },
                  {
                    "Comment": "finch is signed with Red Hat redhatrelease2 key"
                  }
                ]
              },
              {
                "Operator": "AND",
                "Criterias": [

                ],
                "Criterions": [
                  {
                    "Comment": "finch-devel is earlier than 0:2.5.8-1.el5"
                  },
                  {
                    "Comment": "finch-devel is signed with Red Hat redhatrelease2 key"
                  }
                ]
              },
              {
                "Operator": "AND",
                "Criterias": [

                ],
                "Criterions": [
                  {
                    "Comment": "libpurple is earlier than 0:2.5.8-1.el5"
                  },
                  {
                    "Comment": "libpurple is signed with Red Hat redhatrelease2 key"
                  }
                ]
              },
              {
                "Operator": "AND",
                "Criterias": [

                ],
                "Criterions": [
                  {
                    "Comment": "libpurple-devel is earlier than 0:2.5.8-1.el5"
                  },
                  {
                    "Comment": "libpurple-devel is signed with Red Hat redhatrelease2 key"
                  }
                ]
              },
              {
                "Operator": "AND",
                "Criterias": [

                ],
                "Criterions": [
                  {
                    "Comment": "libpurple-perl is earlier than 0:2.5.8-1.el5"
                  },
                  {
                    "Comment": "libpurple-perl is signed with Red Hat redhatrelease2 key"
                  }
                ]
              },
              {
                "Operator": "AND",
                "Criterias": [

                ],
                "Criterions": [
                  {
                    "Comment": "libpurple-tcl is earlier than 0:2.5.8-1.el5"
                  },
                  {
                    "Comment": "libpurple-tcl is signed with Red Hat redhatrelease2 key"
                  }
                ]
              },
              {
                "Operator": "AND",
                "Criterias": [

                ],
                "Criterions": [
                  {
                    "Comment": "pidgin is earlier than 0:2.5.8-1.el5"
                  },
                  {
                    "Comment": "pidgin is signed with Red Hat redhatrelease2 key"
                  }
                ]
              },
              {
                "Operator": "AND",
                "Criterias": [

                ],
                "Criterions": [
                  {
                    "Comment": "pidgin-devel is earlier than 0:2.5.8-1.el5"
                  },
                  {
                    "Comment": "pidgin-devel is signed with Red Hat redhatrelease2 key"
                  }
                ]
              },
              {
                "Operator": "AND",
                "Criterias": [

                ],
                "Criterions": [
                  {
                    "Comment": "pidgin-perl is earlier than 0:2.5.8-1.el5"
                  },
                  {
                    "Comment": "pidgin-perl is signed with Red Hat redhatrelease2 key"
                  }
                ]
              }
            ],
            "Criterions": [

            ]
          }
        ],
        "Criterions": [
          {
            "Comment": "Oracle Linux 5 is installed"
          }
        ]
      }
    ],
    "Criterions": [
      {
        "Comment": "Oracle Linux 4 is installed"
      }
    ]
  },
  "Severity": "Moderate",
  "Cves": [
    {
      "Impact": "",
      "Href": "",
      "ID": "CVE-2009-1889"
    }
  ],
  "Issued": {
    "Date": "2009-07-02"
  }
}