{
  "Title": "RHSA-2009:1204: apr and apr-util security update (Moderate)",
  "Description": "The Apache Portable Runtime (APR) is a portability library used by the\nApache HTTP Server and other projects. It aims to provide a free library\nof C data structures and routines. apr-util is a utility library used with\nAPR. This library provides additional utility interfaces for APR; including\nsupport for XML parsing, LDAP, database interfaces, URI parsing, and more.\nMultiple integer overflow flaws, leading to heap-based buffer overflows,\nwere found in the way the Apache Portable Runtime (APR) manages memory pool\nand relocatable memory allocations. An attacker could use these flaws to\nissue a specially-crafted request for memory allocation, which would lead\nto a denial of service (application crash) or, potentially, execute\narbitrary code with the privileges of an application using the APR\nlibraries. (CVE-2009-2412)\nAll apr and apr-util users should upgrade to these updated packages, which\ncontain backported patches to correct these issues. Applications using the\nAPR libraries, such as httpd, must be restarted for this update to take\neffect.",
  "Platform": [
    "Red Hat Enterprise Linux 4",
    "Red Hat Enterprise Linux 5"
  ],
  "References": [
    {
      "Source": "RHSA",
      "URI": "https://access.redhat.com/errata/RHSA-2009:1204",
      "ID": "RHSA-2009:1204"
    },
    {
      "Source": "CVE",
      "URI": "https://access.redhat.com/security/cve/CVE-2009-2412",
      "ID": "CVE-2009-2412"
    }
  ],
  "Criteria": {
    "Operator": "OR",
    "Criterias": [
      {
        "Operator": "AND",
        "Criterias": [
          {
            "Operator": "OR",
            "Criterias": [
              {
                "Operator": "AND",
                "Criterias": [

                ],
                "Criterions": [
                  {
                    "Comment": "apr is earlier than 0:0.9.4-24.9.el4_8.2"
                  },
                  {
                    "Comment": "apr is signed with Red Hat redhatrelease2 key"
                  }
                ]
              },
              {
                "Operator": "AND",
                "Criterias": [

                ],
                "Criterions": [
                  {
                    "Comment": "apr-devel is earlier than 0:0.9.4-24.9.el4_8.2"
                  },
                  {
                    "Comment": "apr-devel is signed with Red Hat redhatrelease2 key"
                  }
                ]
              },
              {
                "Operator": "AND",
                "Criterias": [

                ],
                "Criterions": [
                  {
                    "Comment": "apr-util is earlier than 0:0.9.4-22.el4_8.2"
                  },
                  {
                    "Comment": "apr-util is signed with Red Hat redhatrelease2 key"
                  }
                ]
              },
              {
                "Operator": "AND",
                "Criterias": [

                ],
                "Criterions": [
                  {
                    "Comment": "apr-util-devel is earlier than 0:0.9.4-22.el4_8.2"
                  },
                  {
                    "Comment": "apr-util-devel is signed with Red Hat redhatrelease2 key"
                  }
                ]
              }
            ],
            "Criterions": [

            ]
          }
        ],
        "Criterions": [
          {
            "Comment": "Oracle Linux 4 is installed"
          }
        ]
      },
      {
        "Operator": "AND",
        "Criterias": [
          {
            "Operator": "OR",
            "Criterias": [
              {
                "Operator": "AND",
                "Criterias": [

                ],
                "Criterions": [
                  {
                    "Comment": "apr is earlier than 0:1.2.7-11.el5_3.1"
                  },
                  {
                    "Comment": "apr is signed with Red Hat redhatrelease2 key"
                  }
                ]
              },
              {
                "Operator": "AND",
                "Criterias": [

                ],
                "Criterions": [
                  {
                    "Comment": "apr-devel is earlier than 0:1.2.7-11.el5_3.1"
                  },
                  {
                    "Comment": "apr-devel is signed with Red Hat redhatrelease2 key"
                  }
                ]
              },
              {
                "Operator": "AND",
                "Criterias": [

                ],
                "Criterions": [
                  {
                    "Comment": "apr-docs is earlier than 0:1.2.7-11.el5_3.1"
                  },
                  {
                    "Comment": "apr-docs is signed with Red Hat redhatrelease2 key"
                  }
                ]
              },
              {
                "Operator": "AND",
                "Criterias": [

                ],
                "Criterions": [
                  {
                    "Comment": "apr-util is earlier than 0:1.2.7-7.el5_3.2"
                  },
                  {
                    "Comment": "apr-util is signed with Red Hat redhatrelease2 key"
                  }
                ]
              },
              {
                "Operator": "AND",
                "Criterias": [

                ],
                "Criterions": [
                  {
                    "Comment": "apr-util-devel is earlier than 0:1.2.7-7.el5_3.2"
                  },
                  {
                    "Comment": "apr-util-devel is signed with Red Hat redhatrelease2 key"
                  }
                ]
              },
              {
                "Operator": "AND",
                "Criterias": [

                ],
                "Criterions": [
                  {
                    "Comment": "apr-util-docs is earlier than 0:1.2.7-7.el5_3.2"
                  },
                  {
                    "Comment": "apr-util-docs is signed with Red Hat redhatrelease2 key"
                  }
                ]
              }
            ],
            "Criterions": [

            ]
          }
        ],
        "Criterions": [
          {
            "Comment": "Oracle Linux 5 is installed"
          }
        ]
      }
    ],
    "Criterions": [
      {
        "Comment": "Oracle Linux 4 is installed"
      }
    ]
  },
  "Severity": "Moderate",
  "Cves": [
    {
      "Impact": "",
      "Href": "",
      "ID": "CVE-2009-2412"
    }
  ],
  "Issued": {
    "Date": "2009-08-10"
  }
}