{
  "Title": "RHSA-2009:1287: openssh security, bug fix, and enhancement update (Low)",
  "Description": "OpenSSH is OpenBSD's SSH (Secure Shell) protocol implementation. These\npackages include the core files necessary for both the OpenSSH client and\nserver.\nA flaw was found in the SSH protocol. An attacker able to perform a\nman-in-the-middle attack may be able to obtain a portion of plain text from\nan arbitrary ciphertext block when a CBC mode cipher was used to encrypt\nSSH communication. This update helps mitigate this attack: OpenSSH clients\nand servers now prefer CTR mode ciphers to CBC mode, and the OpenSSH server\nnow reads SSH packets up to their full possible length when corruption is\ndetected, rather than reporting errors early, reducing the possibility of\nsuccessful plain text recovery. (CVE-2008-5161)\nThis update also fixes the following bug:\n* the ssh client hung when trying to close a session in which a background\nprocess still held tty file descriptors open. With this update, this\nso-called \"hang on exit\" error no longer occurs and the ssh client closes\nthe session immediately. (BZ#454812)\nIn addition, this update adds the following enhancements:\n* the SFTP server can now chroot users to various directories, including\na user's home directory, after log in. A new configuration option --\nChrootDirectory -- has been added to \"/etc/ssh/sshd_config\" for setting\nthis up (the default is not to chroot users). Details regarding configuring\nthis new option are in the sshd_config(5) manual page. (BZ#440240)\n* the executables which are part of the OpenSSH FIPS module which is being\nvalidated will check their integrity and report their FIPS mode status to\nthe system log or to the terminal. (BZ#467268, BZ#492363)\nAll OpenSSH users are advised to upgrade to these updated packages, which\ncontain backported patches to resolve these issues and add these\nenhancements. After installing this update, the OpenSSH server daemon\n(sshd) will be restarted automatically.",
  "Platform": [
    "Red Hat Enterprise Linux 5"
  ],
  "References": [
    {
      "Source": "RHSA",
      "URI": "https://access.redhat.com/errata/RHSA-2009:1287",
      "ID": "RHSA-2009:1287"
    },
    {
      "Source": "CVE",
      "URI": "https://access.redhat.com/security/cve/CVE-2008-5161",
      "ID": "CVE-2008-5161"
    }
  ],
  "Criteria": {
    "Operator": "OR",
    "Criterias": [
      {
        "Operator": "AND",
        "Criterias": [
          {
            "Operator": "OR",
            "Criterias": [
              {
                "Operator": "AND",
                "Criterias": [

                ],
                "Criterions": [
                  {
                    "Comment": "openssh is earlier than 0:4.3p2-36.el5"
                  },
                  {
                    "Comment": "openssh is signed with Red Hat redhatrelease2 key"
                  }
                ]
              },
              {
                "Operator": "AND",
                "Criterias": [

                ],
                "Criterions": [
                  {
                    "Comment": "openssh-askpass is earlier than 0:4.3p2-36.el5"
                  },
                  {
                    "Comment": "openssh-askpass is signed with Red Hat redhatrelease2 key"
                  }
                ]
              },
              {
                "Operator": "AND",
                "Criterias": [

                ],
                "Criterions": [
                  {
                    "Comment": "openssh-clients is earlier than 0:4.3p2-36.el5"
                  },
                  {
                    "Comment": "openssh-clients is signed with Red Hat redhatrelease2 key"
                  }
                ]
              },
              {
                "Operator": "AND",
                "Criterias": [

                ],
                "Criterions": [
                  {
                    "Comment": "openssh-server is earlier than 0:4.3p2-36.el5"
                  },
                  {
                    "Comment": "openssh-server is signed with Red Hat redhatrelease2 key"
                  }
                ]
              }
            ],
            "Criterions": [

            ]
          }
        ],
        "Criterions": [
          {
            "Comment": "Oracle Linux 5 is installed"
          }
        ]
      }
    ],
    "Criterions": [
      {
        "Comment": "Oracle Linux 5 is installed"
      }
    ]
  },
  "Severity": "Low",
  "Cves": [
    {
      "Impact": "",
      "Href": "",
      "ID": "CVE-2008-5161"
    }
  ],
  "Issued": {
    "Date": "2009-09-02"
  }
}