{
  "Title": "RHSA-2009:1512: kdegraphics security update (Important)",
  "Description": "The kdegraphics packages contain applications for the K Desktop\nEnvironment, including KPDF, a viewer for Portable Document Format (PDF)\nfiles.\nMultiple integer overflow flaws were found in KPDF. An attacker could\ncreate a malicious PDF file that would cause KPDF to crash or, potentially,\nexecute arbitrary code when opened. (CVE-2009-0791, CVE-2009-1188,\nCVE-2009-3604, CVE-2009-3608, CVE-2009-3609)\nRed Hat would like to thank Adam Zabrocki for reporting the CVE-2009-3604\nissue, and Chris Rohlf for reporting the CVE-2009-3608 issue.\nUsers are advised to upgrade to these updated packages, which contain a\nbackported patch to resolve these issues.",
  "Platform": [
    "Red Hat Enterprise Linux 4"
  ],
  "References": [
    {
      "Source": "RHSA",
      "URI": "https://access.redhat.com/errata/RHSA-2009:1512",
      "ID": "RHSA-2009:1512"
    },
    {
      "Source": "CVE",
      "URI": "https://access.redhat.com/security/cve/CVE-2009-0791",
      "ID": "CVE-2009-0791"
    },
    {
      "Source": "CVE",
      "URI": "https://access.redhat.com/security/cve/CVE-2009-1188",
      "ID": "CVE-2009-1188"
    },
    {
      "Source": "CVE",
      "URI": "https://access.redhat.com/security/cve/CVE-2009-3604",
      "ID": "CVE-2009-3604"
    },
    {
      "Source": "CVE",
      "URI": "https://access.redhat.com/security/cve/CVE-2009-3608",
      "ID": "CVE-2009-3608"
    },
    {
      "Source": "CVE",
      "URI": "https://access.redhat.com/security/cve/CVE-2009-3609",
      "ID": "CVE-2009-3609"
    }
  ],
  "Criteria": {
    "Operator": "OR",
    "Criterias": [
      {
        "Operator": "AND",
        "Criterias": [
          {
            "Operator": "OR",
            "Criterias": [
              {
                "Operator": "AND",
                "Criterias": [

                ],
                "Criterions": [
                  {
                    "Comment": "kdegraphics is earlier than 7:3.3.1-15.el4_8.2"
                  },
                  {
                    "Comment": "kdegraphics is signed with Red Hat redhatrelease2 key"
                  }
                ]
              },
              {
                "Operator": "AND",
                "Criterias": [

                ],
                "Criterions": [
                  {
                    "Comment": "kdegraphics-devel is earlier than 7:3.3.1-15.el4_8.2"
                  },
                  {
                    "Comment": "kdegraphics-devel is signed with Red Hat redhatrelease2 key"
                  }
                ]
              }
            ],
            "Criterions": [

            ]
          }
        ],
        "Criterions": [
          {
            "Comment": "Oracle Linux 4 is installed"
          }
        ]
      }
    ],
    "Criterions": [
      {
        "Comment": "Oracle Linux 4 is installed"
      }
    ]
  },
  "Severity": "Important",
  "Cves": [
    {
      "Impact": "",
      "Href": "",
      "ID": "CVE-2009-0791"
    },
    {
      "Impact": "",
      "Href": "",
      "ID": "CVE-2009-1188"
    },
    {
      "Impact": "",
      "Href": "",
      "ID": "CVE-2009-3604"
    },
    {
      "Impact": "",
      "Href": "",
      "ID": "CVE-2009-3608"
    },
    {
      "Impact": "",
      "Href": "",
      "ID": "CVE-2009-3609"
    }
  ],
  "Issued": {
    "Date": "2009-10-15"
  }
}