{
  "Title": "RHSA-2009:1430: firefox security update (Critical)",
  "Description": "Mozilla Firefox is an open source Web browser. XULRunner provides the XUL\nRuntime environment for Mozilla Firefox. nspr provides the Netscape\nPortable Runtime (NSPR).\nSeveral flaws were found in the processing of malformed web content. A web\npage containing malicious content could cause Firefox to crash or,\npotentially, execute arbitrary code with the privileges of the user running\nFirefox. (CVE-2009-3070, CVE-2009-3071, CVE-2009-3072, CVE-2009-3074,\nCVE-2009-3075)\nA use-after-free flaw was found in Firefox. An attacker could use this flaw\nto crash Firefox or, potentially, execute arbitrary code with the\nprivileges of the user running Firefox. (CVE-2009-3077)\nA flaw was found in the way Firefox handles malformed JavaScript. A website\nwith an object containing malicious JavaScript could execute that\nJavaScript with the privileges of the user running Firefox. (CVE-2009-3079)\nDescriptions in the dialogs when adding and removing PKCS #11 modules were\nnot informative. An attacker able to trick a user into installing a\nmalicious PKCS #11 module could use this flaw to install their own\nCertificate Authority certificates on a user's machine, making it possible\nto trick the user into believing they are viewing a trusted site or,\npotentially, execute arbitrary code with the privileges of the user running\nFirefox. (CVE-2009-3076)\nA flaw was found in the way Firefox displays the address bar when\nwindow.open() is called in a certain way. An attacker could use this flaw\nto conceal a malicious URL, possibly tricking a user into believing they\nare viewing a trusted site. (CVE-2009-2654)\nA flaw was found in the way Firefox displays certain Unicode characters. An\nattacker could use this flaw to conceal a malicious URL, possibly tricking\na user into believing they are viewing a trusted site. (CVE-2009-3078)\nFor technical details regarding these flaws, refer to the Mozilla security\nadvisories for Firefox 3.0.14. You can find a link to the Mozilla\nadvisories in the References section of this errata.\nAll Firefox users should upgrade to these updated packages, which contain\nFirefox version 3.0.14, which corrects these issues. After installing the\nupdate, Firefox must be restarted for the changes to take effect.",
  "Platform": [
    "Red Hat Enterprise Linux 4",
    "Red Hat Enterprise Linux 5"
  ],
  "References": [
    {
      "Source": "RHSA",
      "URI": "https://access.redhat.com/errata/RHSA-2009:1430",
      "ID": "RHSA-2009:1430"
    },
    {
      "Source": "CVE",
      "URI": "https://access.redhat.com/security/cve/CVE-2009-2654",
      "ID": "CVE-2009-2654"
    },
    {
      "Source": "CVE",
      "URI": "https://access.redhat.com/security/cve/CVE-2009-3070",
      "ID": "CVE-2009-3070"
    },
    {
      "Source": "CVE",
      "URI": "https://access.redhat.com/security/cve/CVE-2009-3071",
      "ID": "CVE-2009-3071"
    },
    {
      "Source": "CVE",
      "URI": "https://access.redhat.com/security/cve/CVE-2009-3072",
      "ID": "CVE-2009-3072"
    },
    {
      "Source": "CVE",
      "URI": "https://access.redhat.com/security/cve/CVE-2009-3074",
      "ID": "CVE-2009-3074"
    },
    {
      "Source": "CVE",
      "URI": "https://access.redhat.com/security/cve/CVE-2009-3075",
      "ID": "CVE-2009-3075"
    },
    {
      "Source": "CVE",
      "URI": "https://access.redhat.com/security/cve/CVE-2009-3076",
      "ID": "CVE-2009-3076"
    },
    {
      "Source": "CVE",
      "URI": "https://access.redhat.com/security/cve/CVE-2009-3077",
      "ID": "CVE-2009-3077"
    },
    {
      "Source": "CVE",
      "URI": "https://access.redhat.com/security/cve/CVE-2009-3078",
      "ID": "CVE-2009-3078"
    },
    {
      "Source": "CVE",
      "URI": "https://access.redhat.com/security/cve/CVE-2009-3079",
      "ID": "CVE-2009-3079"
    }
  ],
  "Criteria": {
    "Operator": "OR",
    "Criterias": [
      {
        "Operator": "AND",
        "Criterias": [
          {
            "Operator": "OR",
            "Criterias": [
              {
                "Operator": "AND",
                "Criterias": [

                ],
                "Criterions": [
                  {
                    "Comment": "firefox is earlier than 0:3.0.14-1.el4"
                  },
                  {
                    "Comment": "firefox is signed with Red Hat redhatrelease2 key"
                  }
                ]
              },
              {
                "Operator": "AND",
                "Criterias": [

                ],
                "Criterions": [
                  {
                    "Comment": "nspr is earlier than 0:4.7.5-1.el4_8"
                  },
                  {
                    "Comment": "nspr is signed with Red Hat redhatrelease2 key"
                  }
                ]
              },
              {
                "Operator": "AND",
                "Criterias": [

                ],
                "Criterions": [
                  {
                    "Comment": "nspr-devel is earlier than 0:4.7.5-1.el4_8"
                  },
                  {
                    "Comment": "nspr-devel is signed with Red Hat redhatrelease2 key"
                  }
                ]
              }
            ],
            "Criterions": [

            ]
          }
        ],
        "Criterions": [
          {
            "Comment": "Oracle Linux 4 is installed"
          }
        ]
      },
      {
        "Operator": "AND",
        "Criterias": [
          {
            "Operator": "OR",
            "Criterias": [
              {
                "Operator": "AND",
                "Criterias": [

                ],
                "Criterions": [
                  {
                    "Comment": "xulrunner is earlier than 0:1.9.0.14-1.el5_4"
                  },
                  {
                    "Comment": "xulrunner is signed with Red Hat redhatrelease2 key"
                  }
                ]
              },
              {
                "Operator": "AND",
                "Criterias": [

                ],
                "Criterions": [
                  {
                    "Comment": "xulrunner-devel is earlier than 0:1.9.0.14-1.el5_4"
                  },
                  {
                    "Comment": "xulrunner-devel is signed with Red Hat redhatrelease2 key"
                  }
                ]
              },
              {
                "Operator": "AND",
                "Criterias": [

                ],
                "Criterions": [
                  {
                    "Comment": "xulrunner-devel-unstable is earlier than 0:1.9.0.14-1.el5_4"
                  },
                  {
                    "Comment": "xulrunner-devel-unstable is signed with Red Hat redhatrelease2 key"
                  }
                ]
              },
              {
                "Operator": "AND",
                "Criterias": [

                ],
                "Criterions": [
                  {
                    "Comment": "firefox is earlier than 0:3.0.14-1.el5_4"
                  },
                  {
                    "Comment": "firefox is signed with Red Hat redhatrelease2 key"
                  }
                ]
              },
              {
                "Operator": "AND",
                "Criterias": [

                ],
                "Criterions": [
                  {
                    "Comment": "nspr is earlier than 0:4.7.5-1.el5_4"
                  },
                  {
                    "Comment": "nspr is signed with Red Hat redhatrelease2 key"
                  }
                ]
              },
              {
                "Operator": "AND",
                "Criterias": [

                ],
                "Criterions": [
                  {
                    "Comment": "nspr-devel is earlier than 0:4.7.5-1.el5_4"
                  },
                  {
                    "Comment": "nspr-devel is signed with Red Hat redhatrelease2 key"
                  }
                ]
              }
            ],
            "Criterions": [

            ]
          }
        ],
        "Criterions": [
          {
            "Comment": "Oracle Linux 5 is installed"
          }
        ]
      }
    ],
    "Criterions": [
      {
        "Comment": "Oracle Linux 4 is installed"
      }
    ]
  },
  "Severity": "Critical",
  "Cves": [
    {
      "Impact": "",
      "Href": "",
      "ID": "CVE-2009-2654"
    },
    {
      "Impact": "",
      "Href": "",
      "ID": "CVE-2009-3070"
    },
    {
      "Impact": "",
      "Href": "",
      "ID": "CVE-2009-3071"
    },
    {
      "Impact": "",
      "Href": "",
      "ID": "CVE-2009-3072"
    },
    {
      "Impact": "",
      "Href": "",
      "ID": "CVE-2009-3074"
    },
    {
      "Impact": "",
      "Href": "",
      "ID": "CVE-2009-3075"
    },
    {
      "Impact": "",
      "Href": "",
      "ID": "CVE-2009-3076"
    },
    {
      "Impact": "",
      "Href": "",
      "ID": "CVE-2009-3077"
    },
    {
      "Impact": "",
      "Href": "",
      "ID": "CVE-2009-3078"
    },
    {
      "Impact": "",
      "Href": "",
      "ID": "CVE-2009-3079"
    }
  ],
  "Issued": {
    "Date": "2009-09-09"
  }
}