{
  "Title": "RHSA-2009:0409: krb5 security update (Important)",
  "Description": "Kerberos is a network authentication system which allows clients and\nservers to authenticate to each other using symmetric encryption and a\ntrusted third party, the Key Distribution Center (KDC).\nAn input validation flaw was found in the ASN.1 (Abstract Syntax Notation\nOne) decoder used by MIT Kerberos. A remote attacker could use this flaw to\ncrash a network service using the MIT Kerberos library, such as kadmind or\nkrb5kdc, by causing it to dereference or free an uninitialized pointer.\n(CVE-2009-0846)\nAll krb5 users should upgrade to these updated packages, which contain a\nbackported patch to correct this issue. All running services using the MIT\nKerberos libraries must be restarted for the update to take effect.",
  "Platform": [
    "Red Hat Enterprise Linux 4"
  ],
  "References": [
    {
      "Source": "RHSA",
      "URI": "https://access.redhat.com/errata/RHSA-2009:0409",
      "ID": "RHSA-2009:0409"
    },
    {
      "Source": "CVE",
      "URI": "https://access.redhat.com/security/cve/CVE-2009-0846",
      "ID": "CVE-2009-0846"
    }
  ],
  "Criteria": {
    "Operator": "OR",
    "Criterias": [
      {
        "Operator": "AND",
        "Criterias": [
          {
            "Operator": "OR",
            "Criterias": [
              {
                "Operator": "AND",
                "Criterias": [

                ],
                "Criterions": [
                  {
                    "Comment": "krb5-devel is earlier than 0:1.3.4-60.el4_7.2"
                  },
                  {
                    "Comment": "krb5-devel is signed with Red Hat redhatrelease2 key"
                  }
                ]
              },
              {
                "Operator": "AND",
                "Criterias": [

                ],
                "Criterions": [
                  {
                    "Comment": "krb5-libs is earlier than 0:1.3.4-60.el4_7.2"
                  },
                  {
                    "Comment": "krb5-libs is signed with Red Hat redhatrelease2 key"
                  }
                ]
              },
              {
                "Operator": "AND",
                "Criterias": [

                ],
                "Criterions": [
                  {
                    "Comment": "krb5-server is earlier than 0:1.3.4-60.el4_7.2"
                  },
                  {
                    "Comment": "krb5-server is signed with Red Hat redhatrelease2 key"
                  }
                ]
              },
              {
                "Operator": "AND",
                "Criterias": [

                ],
                "Criterions": [
                  {
                    "Comment": "krb5-workstation is earlier than 0:1.3.4-60.el4_7.2"
                  },
                  {
                    "Comment": "krb5-workstation is signed with Red Hat redhatrelease2 key"
                  }
                ]
              }
            ],
            "Criterions": [

            ]
          }
        ],
        "Criterions": [
          {
            "Comment": "Oracle Linux 4 is installed"
          }
        ]
      }
    ],
    "Criterions": [
      {
        "Comment": "Oracle Linux 4 is installed"
      }
    ]
  },
  "Severity": "Important",
  "Cves": [
    {
      "Impact": "",
      "Href": "",
      "ID": "CVE-2009-0846"
    }
  ],
  "Issued": {
    "Date": "2009-04-07"
  }
}