{
  "Title": "RHSA-2009:0376: acroread security update (Critical)",
  "Description": "Adobe Reader allows users to view and print documents in Portable Document\nFormat (PDF).\nMultiple input validation flaws were discovered in the JBIG2 compressed\nimages decoder used by Adobe Reader. A malicious PDF file could cause Adobe\nReader to crash or, potentially, execute arbitrary code as the user running\nAdobe Reader. (CVE-2009-0193, CVE-2009-0658, CVE-2009-0928, CVE-2009-1061,\nCVE-2009-1062)\nAll Adobe Reader users should install these updated packages. They contain\nAdobe Reader version 8.1.4, which is not vulnerable to these issues. All\nrunning instances of Adobe Reader must be restarted for the update to take\neffect.",
  "Platform": [
    "Supplementary for Red Hat Enterprise Linux 5"
  ],
  "References": [
    {
      "Source": "RHSA",
      "URI": "https://rhn.redhat.com/errata/RHSA-2009-0376.html",
      "ID": "RHSA-2009:0376-01"
    },
    {
      "Source": "CVE",
      "URI": "https://access.redhat.com/security/cve/CVE-2009-0193",
      "ID": "CVE-2009-0193"
    },
    {
      "Source": "CVE",
      "URI": "https://access.redhat.com/security/cve/CVE-2009-0658",
      "ID": "CVE-2009-0658"
    },
    {
      "Source": "CVE",
      "URI": "https://access.redhat.com/security/cve/CVE-2009-0928",
      "ID": "CVE-2009-0928"
    },
    {
      "Source": "CVE",
      "URI": "https://access.redhat.com/security/cve/CVE-2009-1061",
      "ID": "CVE-2009-1061"
    },
    {
      "Source": "CVE",
      "URI": "https://access.redhat.com/security/cve/CVE-2009-1062",
      "ID": "CVE-2009-1062"
    }
  ],
  "Criteria": {
    "Operator": "AND",
    "Criterias": [
      {
        "Operator": "OR",
        "Criterias": [
          {
            "Operator": "AND",
            "Criterias": [

            ],
            "Criterions": [
              {
                "Comment": "acroread is earlier than 0:8.1.4-1.el5"
              },
              {
                "Comment": "acroread is signed with Red Hat redhatrelease key"
              }
            ]
          },
          {
            "Operator": "AND",
            "Criterias": [

            ],
            "Criterions": [
              {
                "Comment": "acroread-plugin is earlier than 0:8.1.4-1.el5"
              },
              {
                "Comment": "acroread-plugin is signed with Red Hat redhatrelease key"
              }
            ]
          }
        ],
        "Criterions": [

        ]
      }
    ],
    "Criterions": [
      {
        "Comment": "Oracle Linux 5 is installed"
      }
    ]
  },
  "Severity": "Critical",
  "Cves": [
    {
      "Impact": "",
      "Href": "",
      "ID": "CVE-2009-0193"
    },
    {
      "Impact": "",
      "Href": "",
      "ID": "CVE-2009-0658"
    },
    {
      "Impact": "",
      "Href": "",
      "ID": "CVE-2009-0928"
    },
    {
      "Impact": "",
      "Href": "",
      "ID": "CVE-2009-1061"
    },
    {
      "Impact": "",
      "Href": "",
      "ID": "CVE-2009-1062"
    }
  ],
  "Issued": {
    "Date": "2009-03-25"
  }
}