{
  "Title": "RHSA-2009:1673: seamonkey security update (Critical)",
  "Description": "SeaMonkey is an open source Web browser, email and newsgroup client, IRC\nchat client, and HTML editor.\nSeveral flaws were found in the processing of malformed web content. A web\npage containing malicious content could cause SeaMonkey to crash or,\npotentially, execute arbitrary code with the privileges of the user running\nSeaMonkey. (CVE-2009-3979)\nA flaw was found in the SeaMonkey NT Lan Manager (NTLM) authentication\nprotocol implementation. If an attacker could trick a local user that has\nNTLM credentials into visiting a specially-crafted web page, they could\nsend arbitrary requests, authenticated with the user's NTLM credentials, to\nother applications on the user's system. (CVE-2009-3983)\nA flaw was found in the way SeaMonkey displayed the SSL location bar\nindicator. An attacker could create an unencrypted web page that appears\nto be encrypted, possibly tricking the user into believing they are\nvisiting a secure page. (CVE-2009-3984)\nAll SeaMonkey users should upgrade to these updated packages, which correct\nthese issues. After installing the update, SeaMonkey must be restarted for\nthe changes to take effect.",
  "Platform": [
    "Red Hat Enterprise Linux 4"
  ],
  "References": [
    {
      "Source": "RHSA",
      "URI": "https://access.redhat.com/errata/RHSA-2009:1673",
      "ID": "RHSA-2009:1673"
    },
    {
      "Source": "CVE",
      "URI": "https://access.redhat.com/security/cve/CVE-2009-3979",
      "ID": "CVE-2009-3979"
    },
    {
      "Source": "CVE",
      "URI": "https://access.redhat.com/security/cve/CVE-2009-3983",
      "ID": "CVE-2009-3983"
    },
    {
      "Source": "CVE",
      "URI": "https://access.redhat.com/security/cve/CVE-2009-3984",
      "ID": "CVE-2009-3984"
    }
  ],
  "Criteria": {
    "Operator": "OR",
    "Criterias": [
      {
        "Operator": "AND",
        "Criterias": [
          {
            "Operator": "OR",
            "Criterias": [
              {
                "Operator": "AND",
                "Criterias": [

                ],
                "Criterions": [
                  {
                    "Comment": "seamonkey is earlier than 0:1.0.9-51.el4_8"
                  },
                  {
                    "Comment": "seamonkey is signed with Red Hat redhatrelease2 key"
                  }
                ]
              },
              {
                "Operator": "AND",
                "Criterias": [

                ],
                "Criterions": [
                  {
                    "Comment": "seamonkey-chat is earlier than 0:1.0.9-51.el4_8"
                  },
                  {
                    "Comment": "seamonkey-chat is signed with Red Hat redhatrelease2 key"
                  }
                ]
              },
              {
                "Operator": "AND",
                "Criterias": [

                ],
                "Criterions": [
                  {
                    "Comment": "seamonkey-devel is earlier than 0:1.0.9-51.el4_8"
                  },
                  {
                    "Comment": "seamonkey-devel is signed with Red Hat redhatrelease2 key"
                  }
                ]
              },
              {
                "Operator": "AND",
                "Criterias": [

                ],
                "Criterions": [
                  {
                    "Comment": "seamonkey-dom-inspector is earlier than 0:1.0.9-51.el4_8"
                  },
                  {
                    "Comment": "seamonkey-dom-inspector is signed with Red Hat redhatrelease2 key"
                  }
                ]
              },
              {
                "Operator": "AND",
                "Criterias": [

                ],
                "Criterions": [
                  {
                    "Comment": "seamonkey-js-debugger is earlier than 0:1.0.9-51.el4_8"
                  },
                  {
                    "Comment": "seamonkey-js-debugger is signed with Red Hat redhatrelease2 key"
                  }
                ]
              },
              {
                "Operator": "AND",
                "Criterias": [

                ],
                "Criterions": [
                  {
                    "Comment": "seamonkey-mail is earlier than 0:1.0.9-51.el4_8"
                  },
                  {
                    "Comment": "seamonkey-mail is signed with Red Hat redhatrelease2 key"
                  }
                ]
              }
            ],
            "Criterions": [

            ]
          }
        ],
        "Criterions": [
          {
            "Comment": "Oracle Linux 4 is installed"
          }
        ]
      }
    ],
    "Criterions": [
      {
        "Comment": "Oracle Linux 4 is installed"
      }
    ]
  },
  "Severity": "Critical",
  "Cves": [
    {
      "Impact": "",
      "Href": "",
      "ID": "CVE-2009-3979"
    },
    {
      "Impact": "",
      "Href": "",
      "ID": "CVE-2009-3983"
    },
    {
      "Impact": "",
      "Href": "",
      "ID": "CVE-2009-3984"
    }
  ],
  "Issued": {
    "Date": "2009-12-16"
  }
}