{
  "Title": "RHSA-2009:1236: java-1.5.0-ibm security update (Critical)",
  "Description": "The IBM 1.5.0 Java release includes the IBM Java 2 Runtime Environment and\nthe IBM Java 2 Software Development Kit.\nThis update fixes several vulnerabilities in the IBM Java 2 Runtime\nEnvironment and the IBM Java 2 Software Development Kit. These\nvulnerabilities are summarized on the IBM \"Security alerts\" page listed in\nthe References section. (CVE-2009-2625, CVE-2009-2670, CVE-2009-2671,\nCVE-2009-2672, CVE-2009-2673, CVE-2009-2675)\nAll users of java-1.5.0-ibm are advised to upgrade to these updated\npackages, containing the IBM 1.5.0 SR10 Java release. All running instances\nof IBM Java must be restarted for this update to take effect.\nNote: The packages included in this update are identical to the packages\nmade available by RHEA-2009:1208 and RHEA-2009:1210 on the 13th of\nAugust 2009. These packages are being reissued as a Red Hat Security\nAdvisory as they fixed a number of security issues that were not made\npublic until after those errata were released. Since the packages are\nidentical, there is no need to install this update if RHEA-2009:1208 or\nRHEA-2009:1210 has already been installed.",
  "Platform": [
    "Supplementary for Red Hat Enterprise Linux 5"
  ],
  "References": [
    {
      "Source": "RHSA",
      "URI": "https://rhn.redhat.com/errata/RHSA-2009-1236.html",
      "ID": "RHSA-2009:1236-01"
    },
    {
      "Source": "CVE",
      "URI": "https://access.redhat.com/security/cve/CVE-2009-2625",
      "ID": "CVE-2009-2625"
    },
    {
      "Source": "CVE",
      "URI": "https://access.redhat.com/security/cve/CVE-2009-2670",
      "ID": "CVE-2009-2670"
    },
    {
      "Source": "CVE",
      "URI": "https://access.redhat.com/security/cve/CVE-2009-2671",
      "ID": "CVE-2009-2671"
    },
    {
      "Source": "CVE",
      "URI": "https://access.redhat.com/security/cve/CVE-2009-2672",
      "ID": "CVE-2009-2672"
    },
    {
      "Source": "CVE",
      "URI": "https://access.redhat.com/security/cve/CVE-2009-2673",
      "ID": "CVE-2009-2673"
    },
    {
      "Source": "CVE",
      "URI": "https://access.redhat.com/security/cve/CVE-2009-2675",
      "ID": "CVE-2009-2675"
    }
  ],
  "Criteria": {
    "Operator": "AND",
    "Criterias": [
      {
        "Operator": "OR",
        "Criterias": [
          {
            "Operator": "AND",
            "Criterias": [

            ],
            "Criterions": [
              {
                "Comment": "java-1.5.0-ibm is earlier than 1:1.5.0.10-1jpp.4.el5"
              },
              {
                "Comment": "java-1.5.0-ibm is signed with Red Hat redhatrelease key"
              }
            ]
          },
          {
            "Operator": "AND",
            "Criterias": [

            ],
            "Criterions": [
              {
                "Comment": "java-1.5.0-ibm-accessibility is earlier than 1:1.5.0.10-1jpp.4.el5"
              },
              {
                "Comment": "java-1.5.0-ibm-accessibility is signed with Red Hat redhatrelease key"
              }
            ]
          },
          {
            "Operator": "AND",
            "Criterias": [

            ],
            "Criterions": [
              {
                "Comment": "java-1.5.0-ibm-demo is earlier than 1:1.5.0.10-1jpp.4.el5"
              },
              {
                "Comment": "java-1.5.0-ibm-demo is signed with Red Hat redhatrelease key"
              }
            ]
          },
          {
            "Operator": "AND",
            "Criterias": [

            ],
            "Criterions": [
              {
                "Comment": "java-1.5.0-ibm-devel is earlier than 1:1.5.0.10-1jpp.4.el5"
              },
              {
                "Comment": "java-1.5.0-ibm-devel is signed with Red Hat redhatrelease key"
              }
            ]
          },
          {
            "Operator": "AND",
            "Criterias": [

            ],
            "Criterions": [
              {
                "Comment": "java-1.5.0-ibm-javacomm is earlier than 1:1.5.0.10-1jpp.4.el5"
              },
              {
                "Comment": "java-1.5.0-ibm-javacomm is signed with Red Hat redhatrelease key"
              }
            ]
          },
          {
            "Operator": "AND",
            "Criterias": [

            ],
            "Criterions": [
              {
                "Comment": "java-1.5.0-ibm-jdbc is earlier than 1:1.5.0.10-1jpp.4.el5"
              },
              {
                "Comment": "java-1.5.0-ibm-jdbc is signed with Red Hat redhatrelease key"
              }
            ]
          },
          {
            "Operator": "AND",
            "Criterias": [

            ],
            "Criterions": [
              {
                "Comment": "java-1.5.0-ibm-plugin is earlier than 1:1.5.0.10-1jpp.4.el5"
              },
              {
                "Comment": "java-1.5.0-ibm-plugin is signed with Red Hat redhatrelease key"
              }
            ]
          },
          {
            "Operator": "AND",
            "Criterias": [

            ],
            "Criterions": [
              {
                "Comment": "java-1.5.0-ibm-src is earlier than 1:1.5.0.10-1jpp.4.el5"
              },
              {
                "Comment": "java-1.5.0-ibm-src is signed with Red Hat redhatrelease key"
              }
            ]
          }
        ],
        "Criterions": [

        ]
      }
    ],
    "Criterions": [
      {
        "Comment": "Oracle Linux 5 is installed"
      }
    ]
  },
  "Severity": "Critical",
  "Cves": [
    {
      "Impact": "",
      "Href": "",
      "ID": "CVE-2009-2625"
    },
    {
      "Impact": "",
      "Href": "",
      "ID": "CVE-2009-2670"
    },
    {
      "Impact": "",
      "Href": "",
      "ID": "CVE-2009-2671"
    },
    {
      "Impact": "",
      "Href": "",
      "ID": "CVE-2009-2672"
    },
    {
      "Impact": "",
      "Href": "",
      "ID": "CVE-2009-2673"
    },
    {
      "Impact": "",
      "Href": "",
      "ID": "CVE-2009-2675"
    }
  ],
  "Issued": {
    "Date": "2009-08-28"
  }
}