{
  "Title": "RHSA-2009:1130: kdegraphics security update (Critical)",
  "Description": "The kdegraphics packages contain applications for the K Desktop Environment\n(KDE). Scalable Vector Graphics (SVG) is an XML-based language to describe\nvector images. KSVG is a framework aimed at implementing the latest W3C SVG\nspecifications.\nA use-after-free flaw was found in the KDE KSVG animation element\nimplementation. A remote attacker could create a specially-crafted SVG\nimage, which once opened by an unsuspecting user, could cause a denial of\nservice (Konqueror crash) or, potentially, execute arbitrary code with the\nprivileges of the user running Konqueror. (CVE-2009-1709)\nA NULL pointer dereference flaw was found in the KDE, KSVG SVGList\ninterface implementation. A remote attacker could create a\nspecially-crafted SVG image, which once opened by an unsuspecting user,\nwould cause memory corruption, leading to a denial of service (Konqueror\ncrash). (CVE-2009-0945)\nAll users of kdegraphics should upgrade to these updated packages, which\ncontain backported patches to correct these issues. The desktop must be\nrestarted (log out, then log back in) for this update to take effect.",
  "Platform": [
    "Red Hat Enterprise Linux 5"
  ],
  "References": [
    {
      "Source": "RHSA",
      "URI": "https://access.redhat.com/errata/RHSA-2009:1130",
      "ID": "RHSA-2009:1130"
    },
    {
      "Source": "CVE",
      "URI": "https://access.redhat.com/security/cve/CVE-2009-0945",
      "ID": "CVE-2009-0945"
    },
    {
      "Source": "CVE",
      "URI": "https://access.redhat.com/security/cve/CVE-2009-1709",
      "ID": "CVE-2009-1709"
    }
  ],
  "Criteria": {
    "Operator": "OR",
    "Criterias": [
      {
        "Operator": "AND",
        "Criterias": [
          {
            "Operator": "OR",
            "Criterias": [
              {
                "Operator": "AND",
                "Criterias": [

                ],
                "Criterions": [
                  {
                    "Comment": "kdegraphics is earlier than 7:3.5.4-13.el5_3"
                  },
                  {
                    "Comment": "kdegraphics is signed with Red Hat redhatrelease2 key"
                  }
                ]
              },
              {
                "Operator": "AND",
                "Criterias": [

                ],
                "Criterions": [
                  {
                    "Comment": "kdegraphics-devel is earlier than 7:3.5.4-13.el5_3"
                  },
                  {
                    "Comment": "kdegraphics-devel is signed with Red Hat redhatrelease2 key"
                  }
                ]
              }
            ],
            "Criterions": [

            ]
          }
        ],
        "Criterions": [
          {
            "Comment": "Oracle Linux 5 is installed"
          }
        ]
      }
    ],
    "Criterions": [
      {
        "Comment": "Oracle Linux 5 is installed"
      }
    ]
  },
  "Severity": "Critical",
  "Cves": [
    {
      "Impact": "",
      "Href": "",
      "ID": "CVE-2009-0945"
    },
    {
      "Impact": "",
      "Href": "",
      "ID": "CVE-2009-1709"
    }
  ],
  "Issued": {
    "Date": "2009-06-25"
  }
}