{
  "Title": "RHSA-2009:0408: krb5 security update (Important)",
  "Description": "Kerberos is a network authentication system which allows clients and\nservers to authenticate to each other using symmetric encryption and a\ntrusted third party, the Key Distribution Center (KDC). The Generic\nSecurity Service Application Program Interface (GSS-API) definition\nprovides security services to callers (protocols) in a generic fashion. The\nSimple and Protected GSS-API Negotiation (SPNEGO) mechanism is used by\nGSS-API peers to choose from a common set of security mechanisms.\nAn input validation flaw was found in the ASN.1 (Abstract Syntax Notation\nOne) decoder used by MIT Kerberos. A remote attacker could use this flaw to\ncrash a network service using the MIT Kerberos library, such as kadmind or\nkrb5kdc, by causing it to dereference or free an uninitialized pointer.\n(CVE-2009-0846)\nMultiple input validation flaws were found in the MIT Kerberos GSS-API\nlibrary's implementation of the SPNEGO mechanism. A remote attacker could\nuse these flaws to crash any network service utilizing the MIT Kerberos\nGSS-API library to authenticate users or, possibly, leak portions of the\nservice's memory. (CVE-2009-0844, CVE-2009-0845)\nAll krb5 users should upgrade to these updated packages, which contain\nbackported patches to correct these issues. All running services using the\nMIT Kerberos libraries must be restarted for the update to take effect.",
  "Platform": [
    "Red Hat Enterprise Linux 5"
  ],
  "References": [
    {
      "Source": "RHSA",
      "URI": "https://access.redhat.com/errata/RHSA-2009:0408",
      "ID": "RHSA-2009:0408"
    },
    {
      "Source": "CVE",
      "URI": "https://access.redhat.com/security/cve/CVE-2009-0844",
      "ID": "CVE-2009-0844"
    },
    {
      "Source": "CVE",
      "URI": "https://access.redhat.com/security/cve/CVE-2009-0845",
      "ID": "CVE-2009-0845"
    },
    {
      "Source": "CVE",
      "URI": "https://access.redhat.com/security/cve/CVE-2009-0846",
      "ID": "CVE-2009-0846"
    }
  ],
  "Criteria": {
    "Operator": "OR",
    "Criterias": [
      {
        "Operator": "AND",
        "Criterias": [
          {
            "Operator": "OR",
            "Criterias": [
              {
                "Operator": "AND",
                "Criterias": [

                ],
                "Criterions": [
                  {
                    "Comment": "krb5-devel is earlier than 0:1.6.1-31.el5_3.3"
                  },
                  {
                    "Comment": "krb5-devel is signed with Red Hat redhatrelease2 key"
                  }
                ]
              },
              {
                "Operator": "AND",
                "Criterias": [

                ],
                "Criterions": [
                  {
                    "Comment": "krb5-libs is earlier than 0:1.6.1-31.el5_3.3"
                  },
                  {
                    "Comment": "krb5-libs is signed with Red Hat redhatrelease2 key"
                  }
                ]
              },
              {
                "Operator": "AND",
                "Criterias": [

                ],
                "Criterions": [
                  {
                    "Comment": "krb5-server is earlier than 0:1.6.1-31.el5_3.3"
                  },
                  {
                    "Comment": "krb5-server is signed with Red Hat redhatrelease2 key"
                  }
                ]
              },
              {
                "Operator": "AND",
                "Criterias": [

                ],
                "Criterions": [
                  {
                    "Comment": "krb5-workstation is earlier than 0:1.6.1-31.el5_3.3"
                  },
                  {
                    "Comment": "krb5-workstation is signed with Red Hat redhatrelease2 key"
                  }
                ]
              }
            ],
            "Criterions": [

            ]
          }
        ],
        "Criterions": [
          {
            "Comment": "Oracle Linux 5 is installed"
          }
        ]
      }
    ],
    "Criterions": [
      {
        "Comment": "Oracle Linux 5 is installed"
      }
    ]
  },
  "Severity": "Important",
  "Cves": [
    {
      "Impact": "",
      "Href": "",
      "ID": "CVE-2009-0844"
    },
    {
      "Impact": "",
      "Href": "",
      "ID": "CVE-2009-0845"
    },
    {
      "Impact": "",
      "Href": "",
      "ID": "CVE-2009-0846"
    }
  ],
  "Issued": {
    "Date": "2009-04-07"
  }
}