{
  "Title": "RHSA-2009:1648: ntp security update (Moderate)",
  "Description": "The Network Time Protocol (NTP) is used to synchronize a computer's time\nwith a referenced time source.\nRobin Park and Dmitri Vinokurov discovered a flaw in the way ntpd handled\ncertain malformed NTP packets. ntpd logged information about all such\npackets and replied with an NTP packet that was treated as malformed when\nreceived by another ntpd. A remote attacker could use this flaw to create\nan NTP packet reply loop between two ntpd servers via a malformed packet\nwith a spoofed source IP address and port, causing ntpd on those servers to\nuse excessive amounts of CPU time and fill disk space with log messages.\n(CVE-2009-3563)\nAll ntp users are advised to upgrade to this updated package, which\ncontains a backported patch to resolve this issue. After installing the\nupdate, the ntpd daemon will restart automatically.",
  "Platform": [
    "Red Hat Enterprise Linux 4",
    "Red Hat Enterprise Linux 5"
  ],
  "References": [
    {
      "Source": "RHSA",
      "URI": "https://access.redhat.com/errata/RHSA-2009:1648",
      "ID": "RHSA-2009:1648"
    },
    {
      "Source": "CVE",
      "URI": "https://access.redhat.com/security/cve/CVE-2009-3563",
      "ID": "CVE-2009-3563"
    }
  ],
  "Criteria": {
    "Operator": "OR",
    "Criterias": [
      {
        "Operator": "AND",
        "Criterias": [

        ],
        "Criterions": [
          {
            "Comment": "Oracle Linux 4 is installed"
          },
          {
            "Comment": "ntp is earlier than 0:4.2.0.a.20040617-8.el4_8.1"
          },
          {
            "Comment": "ntp is signed with Red Hat redhatrelease2 key"
          }
        ]
      },
      {
        "Operator": "AND",
        "Criterias": [

        ],
        "Criterions": [
          {
            "Comment": "Oracle Linux 5 is installed"
          },
          {
            "Comment": "ntp is earlier than 0:4.2.2p1-9.el5_4.1"
          },
          {
            "Comment": "ntp is signed with Red Hat redhatrelease2 key"
          }
        ]
      }
    ],
    "Criterions": [
      {
        "Comment": "Oracle Linux 4 is installed"
      }
    ]
  },
  "Severity": "Moderate",
  "Cves": [
    {
      "Impact": "",
      "Href": "",
      "ID": "CVE-2009-3563"
    }
  ],
  "Issued": {
    "Date": "2009-12-08"
  }
}