{
  "Title": "RHSA-2009:0267: sudo security update (Moderate)",
  "Description": "The sudo (superuser do) utility allows system administrators to give\ncertain users the ability to run commands as root with logging.\nA flaw was discovered in a way sudo handled group specifications in \"run\nas\" lists in the sudoers configuration file. If sudo configuration allowed\na user to run commands as any user of some group and the user was also a\nmember of that group, sudo incorrectly allowed them to run defined commands\nwith the privileges of any system user. This gave the user unintended\nprivileges. (CVE-2009-0034)\nUsers of sudo should update to this updated package, which contains a\nbackported patch to resolve this issue.",
  "Platform": [
    "Red Hat Enterprise Linux 5"
  ],
  "References": [
    {
      "Source": "RHSA",
      "URI": "https://access.redhat.com/errata/RHSA-2009:0267",
      "ID": "RHSA-2009:0267"
    },
    {
      "Source": "CVE",
      "URI": "https://access.redhat.com/security/cve/CVE-2009-0034",
      "ID": "CVE-2009-0034"
    }
  ],
  "Criteria": {
    "Operator": "OR",
    "Criterias": [
      {
        "Operator": "AND",
        "Criterias": [

        ],
        "Criterions": [
          {
            "Comment": "Oracle Linux 5 is installed"
          },
          {
            "Comment": "sudo is earlier than 0:1.6.9p17-3.el5_3.1"
          },
          {
            "Comment": "sudo is signed with Red Hat redhatrelease key"
          }
        ]
      }
    ],
    "Criterions": [
      {
        "Comment": "Oracle Linux 5 is installed"
      }
    ]
  },
  "Severity": "Moderate",
  "Cves": [
    {
      "Impact": "",
      "Href": "",
      "ID": "CVE-2009-0034"
    }
  ],
  "Issued": {
    "Date": "2009-02-05"
  }
}