{
  "Title": "RHSA-2009:1107: apr-util security update (Moderate)",
  "Description": "apr-util is a utility library used with the Apache Portable Runtime (APR).\nIt aims to provide a free library of C data structures and routines. This\nlibrary contains additional utility interfaces for APR; including support\nfor XML, LDAP, database interfaces, URI parsing, and more.\nAn off-by-one overflow flaw was found in the way apr-util processed a\nvariable list of arguments. An attacker could provide a specially-crafted\nstring as input for the formatted output conversion routine, which could,\non big-endian platforms, potentially lead to the disclosure of sensitive\ninformation or a denial of service (application crash). (CVE-2009-1956)\nNote: The CVE-2009-1956 flaw only affects big-endian platforms, such as the\nIBM S/390 and PowerPC. It does not affect users using the apr-util package\non little-endian platforms, due to their different organization of byte\nordering used to represent particular data.\nA denial of service flaw was found in the apr-util Extensible Markup\nLanguage (XML) parser. A remote attacker could create a specially-crafted\nXML document that would cause excessive memory consumption when processed\nby the XML decoding engine. (CVE-2009-1955)\nA heap-based underwrite flaw was found in the way apr-util created compiled\nforms of particular search patterns. An attacker could formulate a\nspecially-crafted search keyword, that would overwrite arbitrary heap\nmemory locations when processed by the pattern preparation engine.\n(CVE-2009-0023)\nAll apr-util users should upgrade to these updated packages, which contain\nbackported patches to correct these issues. Applications using the Apache\nPortable Runtime library, such as httpd, must be restarted for this update\nto take effect.",
  "Platform": [
    "Red Hat Enterprise Linux 4",
    "Red Hat Enterprise Linux 5"
  ],
  "References": [
    {
      "Source": "RHSA",
      "URI": "https://access.redhat.com/errata/RHSA-2009:1107",
      "ID": "RHSA-2009:1107"
    },
    {
      "Source": "CVE",
      "URI": "https://access.redhat.com/security/cve/CVE-2009-0023",
      "ID": "CVE-2009-0023"
    },
    {
      "Source": "CVE",
      "URI": "https://access.redhat.com/security/cve/CVE-2009-1955",
      "ID": "CVE-2009-1955"
    },
    {
      "Source": "CVE",
      "URI": "https://access.redhat.com/security/cve/CVE-2009-1956",
      "ID": "CVE-2009-1956"
    }
  ],
  "Criteria": {
    "Operator": "OR",
    "Criterias": [
      {
        "Operator": "AND",
        "Criterias": [
          {
            "Operator": "OR",
            "Criterias": [
              {
                "Operator": "AND",
                "Criterias": [

                ],
                "Criterions": [
                  {
                    "Comment": "apr-util is earlier than 0:0.9.4-22.el4_8.1"
                  },
                  {
                    "Comment": "apr-util is signed with Red Hat redhatrelease2 key"
                  }
                ]
              },
              {
                "Operator": "AND",
                "Criterias": [

                ],
                "Criterions": [
                  {
                    "Comment": "apr-util-devel is earlier than 0:0.9.4-22.el4_8.1"
                  },
                  {
                    "Comment": "apr-util-devel is signed with Red Hat redhatrelease2 key"
                  }
                ]
              }
            ],
            "Criterions": [

            ]
          }
        ],
        "Criterions": [
          {
            "Comment": "Oracle Linux 4 is installed"
          }
        ]
      },
      {
        "Operator": "AND",
        "Criterias": [
          {
            "Operator": "OR",
            "Criterias": [
              {
                "Operator": "AND",
                "Criterias": [

                ],
                "Criterions": [
                  {
                    "Comment": "apr-util is earlier than 0:1.2.7-7.el5_3.1"
                  },
                  {
                    "Comment": "apr-util is signed with Red Hat redhatrelease2 key"
                  }
                ]
              },
              {
                "Operator": "AND",
                "Criterias": [

                ],
                "Criterions": [
                  {
                    "Comment": "apr-util-devel is earlier than 0:1.2.7-7.el5_3.1"
                  },
                  {
                    "Comment": "apr-util-devel is signed with Red Hat redhatrelease2 key"
                  }
                ]
              },
              {
                "Operator": "AND",
                "Criterias": [

                ],
                "Criterions": [
                  {
                    "Comment": "apr-util-docs is earlier than 0:1.2.7-7.el5_3.1"
                  },
                  {
                    "Comment": "apr-util-docs is signed with Red Hat redhatrelease2 key"
                  }
                ]
              }
            ],
            "Criterions": [

            ]
          }
        ],
        "Criterions": [
          {
            "Comment": "Oracle Linux 5 is installed"
          }
        ]
      }
    ],
    "Criterions": [
      {
        "Comment": "Oracle Linux 4 is installed"
      }
    ]
  },
  "Severity": "Moderate",
  "Cves": [
    {
      "Impact": "",
      "Href": "",
      "ID": "CVE-2009-0023"
    },
    {
      "Impact": "",
      "Href": "",
      "ID": "CVE-2009-1955"
    },
    {
      "Impact": "",
      "Href": "",
      "ID": "CVE-2009-1956"
    }
  ],
  "Issued": {
    "Date": "2009-06-16"
  }
}