{
  "Title": "RHSA-2009:0352: gstreamer-plugins-base security update (Moderate)",
  "Description": "GStreamer is a streaming media framework based on graphs of filters which\noperate on media data. GStreamer Base Plug-ins is a collection of\nwell-maintained base plug-ins.\nAn integer overflow flaw which caused a heap-based buffer overflow was\ndiscovered in the Vorbis comment tags reader. An attacker could create a\ncarefully-crafted Vorbis file that would cause an application using\nGStreamer to crash or, potentially, execute arbitrary code if opened by a\nvictim. (CVE-2009-0586)\nAll users of gstreamer-plugins-base are advised to upgrade to these updated\npackages, which contain a backported patch to correct this issue. After\ninstalling this update, all applications using GStreamer (such as Totem or\nRhythmbox) must be restarted for the changes to take effect.",
  "Platform": [
    "Red Hat Enterprise Linux 5"
  ],
  "References": [
    {
      "Source": "RHSA",
      "URI": "https://access.redhat.com/errata/RHSA-2009:0352",
      "ID": "RHSA-2009:0352"
    },
    {
      "Source": "CVE",
      "URI": "https://access.redhat.com/security/cve/CVE-2009-0586",
      "ID": "CVE-2009-0586"
    }
  ],
  "Criteria": {
    "Operator": "OR",
    "Criterias": [
      {
        "Operator": "AND",
        "Criterias": [
          {
            "Operator": "OR",
            "Criterias": [
              {
                "Operator": "AND",
                "Criterias": [

                ],
                "Criterions": [
                  {
                    "Comment": "gstreamer-plugins-base is earlier than 0:0.10.20-3.0.1.el5_3"
                  },
                  {
                    "Comment": "gstreamer-plugins-base is signed with Red Hat redhatrelease2 key"
                  }
                ]
              },
              {
                "Operator": "AND",
                "Criterias": [

                ],
                "Criterions": [
                  {
                    "Comment": "gstreamer-plugins-base-devel is earlier than 0:0.10.20-3.0.1.el5_3"
                  },
                  {
                    "Comment": "gstreamer-plugins-base-devel is signed with Red Hat redhatrelease2 key"
                  }
                ]
              }
            ],
            "Criterions": [

            ]
          }
        ],
        "Criterions": [
          {
            "Comment": "Oracle Linux 5 is installed"
          }
        ]
      }
    ],
    "Criterions": [
      {
        "Comment": "Oracle Linux 5 is installed"
      }
    ]
  },
  "Severity": "Moderate",
  "Cves": [
    {
      "Impact": "",
      "Href": "",
      "ID": "CVE-2009-0586"
    }
  ],
  "Issued": {
    "Date": "2009-04-06"
  }
}