{
  "Title": "RHSA-2009:1163: seamonkey security update (Critical)",
  "Description": "SeaMonkey is an open source Web browser, email and newsgroup client, IRC\nchat client, and HTML editor.\nSeveral flaws were found in the processing of malformed web content. A web\npage containing malicious content could cause SeaMonkey to crash or,\npotentially, execute arbitrary code as the user running SeaMonkey.\n(CVE-2009-2462, CVE-2009-2463, CVE-2009-2466)\nAll SeaMonkey users should upgrade to these updated packages, which correct\nthese issues. After installing the update, SeaMonkey must be restarted for\nthe changes to take effect.",
  "Platform": [
    "Red Hat Enterprise Linux 4"
  ],
  "References": [
    {
      "Source": "RHSA",
      "URI": "https://access.redhat.com/errata/RHSA-2009:1163",
      "ID": "RHSA-2009:1163"
    },
    {
      "Source": "CVE",
      "URI": "https://access.redhat.com/security/cve/CVE-2009-2462",
      "ID": "CVE-2009-2462"
    },
    {
      "Source": "CVE",
      "URI": "https://access.redhat.com/security/cve/CVE-2009-2463",
      "ID": "CVE-2009-2463"
    },
    {
      "Source": "CVE",
      "URI": "https://access.redhat.com/security/cve/CVE-2009-2466",
      "ID": "CVE-2009-2466"
    },
    {
      "Source": "CVE",
      "URI": "https://access.redhat.com/security/cve/CVE-2009-2470",
      "ID": "CVE-2009-2470"
    }
  ],
  "Criteria": {
    "Operator": "OR",
    "Criterias": [
      {
        "Operator": "AND",
        "Criterias": [
          {
            "Operator": "OR",
            "Criterias": [
              {
                "Operator": "AND",
                "Criterias": [

                ],
                "Criterions": [
                  {
                    "Comment": "seamonkey is earlier than 0:1.0.9-45.el4_8"
                  },
                  {
                    "Comment": "seamonkey is signed with Red Hat redhatrelease2 key"
                  }
                ]
              },
              {
                "Operator": "AND",
                "Criterias": [

                ],
                "Criterions": [
                  {
                    "Comment": "seamonkey-chat is earlier than 0:1.0.9-45.el4_8"
                  },
                  {
                    "Comment": "seamonkey-chat is signed with Red Hat redhatrelease2 key"
                  }
                ]
              },
              {
                "Operator": "AND",
                "Criterias": [

                ],
                "Criterions": [
                  {
                    "Comment": "seamonkey-devel is earlier than 0:1.0.9-45.el4_8"
                  },
                  {
                    "Comment": "seamonkey-devel is signed with Red Hat redhatrelease2 key"
                  }
                ]
              },
              {
                "Operator": "AND",
                "Criterias": [

                ],
                "Criterions": [
                  {
                    "Comment": "seamonkey-dom-inspector is earlier than 0:1.0.9-45.el4_8"
                  },
                  {
                    "Comment": "seamonkey-dom-inspector is signed with Red Hat redhatrelease2 key"
                  }
                ]
              },
              {
                "Operator": "AND",
                "Criterias": [

                ],
                "Criterions": [
                  {
                    "Comment": "seamonkey-js-debugger is earlier than 0:1.0.9-45.el4_8"
                  },
                  {
                    "Comment": "seamonkey-js-debugger is signed with Red Hat redhatrelease2 key"
                  }
                ]
              },
              {
                "Operator": "AND",
                "Criterias": [

                ],
                "Criterions": [
                  {
                    "Comment": "seamonkey-mail is earlier than 0:1.0.9-45.el4_8"
                  },
                  {
                    "Comment": "seamonkey-mail is signed with Red Hat redhatrelease2 key"
                  }
                ]
              }
            ],
            "Criterions": [

            ]
          }
        ],
        "Criterions": [
          {
            "Comment": "Oracle Linux 4 is installed"
          }
        ]
      }
    ],
    "Criterions": [
      {
        "Comment": "Oracle Linux 4 is installed"
      }
    ]
  },
  "Severity": "Critical",
  "Cves": [
    {
      "Impact": "",
      "Href": "",
      "ID": "CVE-2009-2462"
    },
    {
      "Impact": "",
      "Href": "",
      "ID": "CVE-2009-2463"
    },
    {
      "Impact": "",
      "Href": "",
      "ID": "CVE-2009-2466"
    },
    {
      "Impact": "",
      "Href": "",
      "ID": "CVE-2009-2470"
    }
  ],
  "Issued": {
    "Date": "2009-07-22"
  }
}