{
  "Title": "RHSA-2009:1039: ntp security update (Important)",
  "Description": "The Network Time Protocol (NTP) is used to synchronize a computer's time\nwith a referenced time source.\nA buffer overflow flaw was discovered in the ntpd daemon's NTPv4\nauthentication code. If ntpd was configured to use public key cryptography\nfor NTP packet authentication, a remote attacker could use this flaw to\nsend a specially-crafted request packet that could crash ntpd.\n(CVE-2009-1252)\nNote: NTP authentication is not enabled by default.\nA buffer overflow flaw was found in the ntpq diagnostic command. A\nmalicious, remote server could send a specially-crafted reply to an ntpq\nrequest that could crash ntpq. (CVE-2009-0159)\nAll ntp users are advised to upgrade to this updated package, which\ncontains backported patches to resolve these issues. After installing the\nupdate, the ntpd daemon will be restarted automatically.",
  "Platform": [
    "Red Hat Enterprise Linux 5"
  ],
  "References": [
    {
      "Source": "RHSA",
      "URI": "https://access.redhat.com/errata/RHSA-2009:1039",
      "ID": "RHSA-2009:1039"
    },
    {
      "Source": "CVE",
      "URI": "https://access.redhat.com/security/cve/CVE-2009-0159",
      "ID": "CVE-2009-0159"
    },
    {
      "Source": "CVE",
      "URI": "https://access.redhat.com/security/cve/CVE-2009-1252",
      "ID": "CVE-2009-1252"
    }
  ],
  "Criteria": {
    "Operator": "OR",
    "Criterias": [
      {
        "Operator": "AND",
        "Criterias": [

        ],
        "Criterions": [
          {
            "Comment": "Oracle Linux 5 is installed"
          },
          {
            "Comment": "ntp is earlier than 0:4.2.2p1-9.el5_3.2"
          },
          {
            "Comment": "ntp is signed with Red Hat redhatrelease2 key"
          }
        ]
      }
    ],
    "Criterions": [
      {
        "Comment": "Oracle Linux 5 is installed"
      }
    ]
  },
  "Severity": "Important",
  "Cves": [
    {
      "Impact": "",
      "Href": "",
      "ID": "CVE-2009-0159"
    },
    {
      "Impact": "",
      "Href": "",
      "ID": "CVE-2009-1252"
    }
  ],
  "Issued": {
    "Date": "2009-05-18"
  }
}