{
  "Title": "RHSA-2009:0258: thunderbird security update (Moderate)",
  "Description": "Mozilla Thunderbird is a standalone mail and newsgroup client.\nSeveral flaws were found in the processing of malformed HTML mail content.\nAn HTML mail message containing malicious content could cause Thunderbird\nto crash or, potentially, execute arbitrary code as the user running\nThunderbird. (CVE-2009-0352, CVE-2009-0353, CVE-2009-0772, CVE-2009-0774,\nCVE-2009-0775)\nSeveral flaws were found in the way malformed content was processed. An\nHTML mail message containing specially-crafted content could potentially\ntrick a Thunderbird user into surrendering sensitive information.\n(CVE-2009-0355, CVE-2009-0776)\nNote: JavaScript support is disabled by default in Thunderbird. None of\nthe above issues are exploitable unless JavaScript is enabled.\nAll Thunderbird users should upgrade to this updated package, which\nresolves these issues. All running instances of Thunderbird must be\nrestarted for the update to take effect.",
  "Platform": [
    "Red Hat Enterprise Linux 4",
    "Red Hat Enterprise Linux 5"
  ],
  "References": [
    {
      "Source": "RHSA",
      "URI": "https://access.redhat.com/errata/RHSA-2009:0258",
      "ID": "RHSA-2009:0258"
    },
    {
      "Source": "CVE",
      "URI": "https://access.redhat.com/security/cve/CVE-2009-0352",
      "ID": "CVE-2009-0352"
    },
    {
      "Source": "CVE",
      "URI": "https://access.redhat.com/security/cve/CVE-2009-0353",
      "ID": "CVE-2009-0353"
    },
    {
      "Source": "CVE",
      "URI": "https://access.redhat.com/security/cve/CVE-2009-0355",
      "ID": "CVE-2009-0355"
    },
    {
      "Source": "CVE",
      "URI": "https://access.redhat.com/security/cve/CVE-2009-0772",
      "ID": "CVE-2009-0772"
    },
    {
      "Source": "CVE",
      "URI": "https://access.redhat.com/security/cve/CVE-2009-0774",
      "ID": "CVE-2009-0774"
    },
    {
      "Source": "CVE",
      "URI": "https://access.redhat.com/security/cve/CVE-2009-0775",
      "ID": "CVE-2009-0775"
    },
    {
      "Source": "CVE",
      "URI": "https://access.redhat.com/security/cve/CVE-2009-0776",
      "ID": "CVE-2009-0776"
    }
  ],
  "Criteria": {
    "Operator": "OR",
    "Criterias": [
      {
        "Operator": "AND",
        "Criterias": [

        ],
        "Criterions": [
          {
            "Comment": "Oracle Linux 4 is installed"
          },
          {
            "Comment": "thunderbird is earlier than 0:1.5.0.12-19.el4"
          },
          {
            "Comment": "thunderbird is signed with Red Hat master key"
          }
        ]
      },
      {
        "Operator": "AND",
        "Criterias": [

        ],
        "Criterions": [
          {
            "Comment": "Oracle Linux 5 is installed"
          },
          {
            "Comment": "thunderbird is earlier than 0:2.0.0.21-1.el5"
          },
          {
            "Comment": "thunderbird is signed with Red Hat redhatrelease key"
          }
        ]
      }
    ],
    "Criterions": [
      {
        "Comment": "Oracle Linux 4 is installed"
      }
    ]
  },
  "Severity": "Moderate",
  "Cves": [
    {
      "Impact": "",
      "Href": "",
      "ID": "CVE-2009-0352"
    },
    {
      "Impact": "",
      "Href": "",
      "ID": "CVE-2009-0353"
    },
    {
      "Impact": "",
      "Href": "",
      "ID": "CVE-2009-0355"
    },
    {
      "Impact": "",
      "Href": "",
      "ID": "CVE-2009-0772"
    },
    {
      "Impact": "",
      "Href": "",
      "ID": "CVE-2009-0774"
    },
    {
      "Impact": "",
      "Href": "",
      "ID": "CVE-2009-0775"
    },
    {
      "Impact": "",
      "Href": "",
      "ID": "CVE-2009-0776"
    }
  ],
  "Issued": {
    "Date": "2009-03-24"
  }
}