{
  "Title": "RHSA-2009:1038: java-1.5.0-ibm security update (Critical)",
  "Description": "The IBM 1.5.0 Java release includes the IBM Java 2 Runtime Environment and\nthe IBM Java 2 Software Development Kit.\nThis update fixes several vulnerabilities in the IBM Java 2 Runtime\nEnvironment and the IBM Java 2 Software Development Kit. These\nvulnerabilities are summarized on the IBM \"Security alerts\" page listed in\nthe References section. (CVE-2009-1093, CVE-2009-1094, CVE-2009-1095,\nCVE-2009-1096, CVE-2009-1097, CVE-2009-1098, CVE-2009-1099, CVE-2009-1100,\nCVE-2009-1101, CVE-2009-1103, CVE-2009-1104, CVE-2009-1105, CVE-2009-1106,\nCVE-2009-1107)\nAll users of java-1.5.0-ibm are advised to upgrade to these updated\npackages, containing the IBM 1.5.0 SR9-SSU Java release. All running\ninstances of IBM Java must be restarted for this update to take effect.",
  "Platform": [
    "Supplementary for Red Hat Enterprise Linux 5"
  ],
  "References": [
    {
      "Source": "RHSA",
      "URI": "https://rhn.redhat.com/errata/RHSA-2009-1038.html",
      "ID": "RHSA-2009:1038-01"
    },
    {
      "Source": "CVE",
      "URI": "https://access.redhat.com/security/cve/CVE-2009-1093",
      "ID": "CVE-2009-1093"
    },
    {
      "Source": "CVE",
      "URI": "https://access.redhat.com/security/cve/CVE-2009-1094",
      "ID": "CVE-2009-1094"
    },
    {
      "Source": "CVE",
      "URI": "https://access.redhat.com/security/cve/CVE-2009-1095",
      "ID": "CVE-2009-1095"
    },
    {
      "Source": "CVE",
      "URI": "https://access.redhat.com/security/cve/CVE-2009-1096",
      "ID": "CVE-2009-1096"
    },
    {
      "Source": "CVE",
      "URI": "https://access.redhat.com/security/cve/CVE-2009-1097",
      "ID": "CVE-2009-1097"
    },
    {
      "Source": "CVE",
      "URI": "https://access.redhat.com/security/cve/CVE-2009-1098",
      "ID": "CVE-2009-1098"
    },
    {
      "Source": "CVE",
      "URI": "https://access.redhat.com/security/cve/CVE-2009-1099",
      "ID": "CVE-2009-1099"
    },
    {
      "Source": "CVE",
      "URI": "https://access.redhat.com/security/cve/CVE-2009-1100",
      "ID": "CVE-2009-1100"
    },
    {
      "Source": "CVE",
      "URI": "https://access.redhat.com/security/cve/CVE-2009-1101",
      "ID": "CVE-2009-1101"
    },
    {
      "Source": "CVE",
      "URI": "https://access.redhat.com/security/cve/CVE-2009-1103",
      "ID": "CVE-2009-1103"
    },
    {
      "Source": "CVE",
      "URI": "https://access.redhat.com/security/cve/CVE-2009-1104",
      "ID": "CVE-2009-1104"
    },
    {
      "Source": "CVE",
      "URI": "https://access.redhat.com/security/cve/CVE-2009-1105",
      "ID": "CVE-2009-1105"
    },
    {
      "Source": "CVE",
      "URI": "https://access.redhat.com/security/cve/CVE-2009-1106",
      "ID": "CVE-2009-1106"
    },
    {
      "Source": "CVE",
      "URI": "https://access.redhat.com/security/cve/CVE-2009-1107",
      "ID": "CVE-2009-1107"
    }
  ],
  "Criteria": {
    "Operator": "AND",
    "Criterias": [
      {
        "Operator": "OR",
        "Criterias": [
          {
            "Operator": "AND",
            "Criterias": [

            ],
            "Criterions": [
              {
                "Comment": "java-1.5.0-ibm is earlier than 1:1.5.0.9-1jpp.3.el5"
              },
              {
                "Comment": "java-1.5.0-ibm is signed with Red Hat redhatrelease key"
              }
            ]
          },
          {
            "Operator": "AND",
            "Criterias": [

            ],
            "Criterions": [
              {
                "Comment": "java-1.5.0-ibm-accessibility is earlier than 1:1.5.0.9-1jpp.3.el5"
              },
              {
                "Comment": "java-1.5.0-ibm-accessibility is signed with Red Hat redhatrelease key"
              }
            ]
          },
          {
            "Operator": "AND",
            "Criterias": [

            ],
            "Criterions": [
              {
                "Comment": "java-1.5.0-ibm-demo is earlier than 1:1.5.0.9-1jpp.3.el5"
              },
              {
                "Comment": "java-1.5.0-ibm-demo is signed with Red Hat redhatrelease key"
              }
            ]
          },
          {
            "Operator": "AND",
            "Criterias": [

            ],
            "Criterions": [
              {
                "Comment": "java-1.5.0-ibm-devel is earlier than 1:1.5.0.9-1jpp.3.el5"
              },
              {
                "Comment": "java-1.5.0-ibm-devel is signed with Red Hat redhatrelease key"
              }
            ]
          },
          {
            "Operator": "AND",
            "Criterias": [

            ],
            "Criterions": [
              {
                "Comment": "java-1.5.0-ibm-javacomm is earlier than 1:1.5.0.9-1jpp.3.el5"
              },
              {
                "Comment": "java-1.5.0-ibm-javacomm is signed with Red Hat redhatrelease key"
              }
            ]
          },
          {
            "Operator": "AND",
            "Criterias": [

            ],
            "Criterions": [
              {
                "Comment": "java-1.5.0-ibm-jdbc is earlier than 1:1.5.0.9-1jpp.3.el5"
              },
              {
                "Comment": "java-1.5.0-ibm-jdbc is signed with Red Hat redhatrelease key"
              }
            ]
          },
          {
            "Operator": "AND",
            "Criterias": [

            ],
            "Criterions": [
              {
                "Comment": "java-1.5.0-ibm-plugin is earlier than 1:1.5.0.9-1jpp.3.el5"
              },
              {
                "Comment": "java-1.5.0-ibm-plugin is signed with Red Hat redhatrelease key"
              }
            ]
          },
          {
            "Operator": "AND",
            "Criterias": [

            ],
            "Criterions": [
              {
                "Comment": "java-1.5.0-ibm-src is earlier than 1:1.5.0.9-1jpp.3.el5"
              },
              {
                "Comment": "java-1.5.0-ibm-src is signed with Red Hat redhatrelease key"
              }
            ]
          }
        ],
        "Criterions": [

        ]
      }
    ],
    "Criterions": [
      {
        "Comment": "Oracle Linux 5 is installed"
      }
    ]
  },
  "Severity": "Critical",
  "Cves": [
    {
      "Impact": "",
      "Href": "",
      "ID": "CVE-2009-1093"
    },
    {
      "Impact": "",
      "Href": "",
      "ID": "CVE-2009-1094"
    },
    {
      "Impact": "",
      "Href": "",
      "ID": "CVE-2009-1095"
    },
    {
      "Impact": "",
      "Href": "",
      "ID": "CVE-2009-1096"
    },
    {
      "Impact": "",
      "Href": "",
      "ID": "CVE-2009-1097"
    },
    {
      "Impact": "",
      "Href": "",
      "ID": "CVE-2009-1098"
    },
    {
      "Impact": "",
      "Href": "",
      "ID": "CVE-2009-1099"
    },
    {
      "Impact": "",
      "Href": "",
      "ID": "CVE-2009-1100"
    },
    {
      "Impact": "",
      "Href": "",
      "ID": "CVE-2009-1101"
    },
    {
      "Impact": "",
      "Href": "",
      "ID": "CVE-2009-1103"
    },
    {
      "Impact": "",
      "Href": "",
      "ID": "CVE-2009-1104"
    },
    {
      "Impact": "",
      "Href": "",
      "ID": "CVE-2009-1105"
    },
    {
      "Impact": "",
      "Href": "",
      "ID": "CVE-2009-1106"
    },
    {
      "Impact": "",
      "Href": "",
      "ID": "CVE-2009-1107"
    }
  ],
  "Issued": {
    "Date": "2009-05-18"
  }
}