{
  "Title": "RHSA-2009:1459: cyrus-imapd security update (Important)",
  "Description": "The cyrus-imapd packages contain a high-performance mail server with IMAP,\nPOP3, NNTP, and Sieve support.\nMultiple buffer overflow flaws were found in the Cyrus IMAP Sieve\nimplementation. An authenticated user able to create Sieve mail filtering\nrules could use these flaws to execute arbitrary code with the privileges\nof the Cyrus IMAP server user. (CVE-2009-2632, CVE-2009-3235)\nUsers of cyrus-imapd are advised to upgrade to these updated packages,\nwhich contain backported patches to resolve these issues. After installing\nthe update, cyrus-imapd will be restarted automatically.",
  "Platform": [
    "Red Hat Enterprise Linux 4",
    "Red Hat Enterprise Linux 5"
  ],
  "References": [
    {
      "Source": "RHSA",
      "URI": "https://access.redhat.com/errata/RHSA-2009:1459",
      "ID": "RHSA-2009:1459"
    },
    {
      "Source": "CVE",
      "URI": "https://access.redhat.com/security/cve/CVE-2009-2632",
      "ID": "CVE-2009-2632"
    },
    {
      "Source": "CVE",
      "URI": "https://access.redhat.com/security/cve/CVE-2009-3235",
      "ID": "CVE-2009-3235"
    }
  ],
  "Criteria": {
    "Operator": "OR",
    "Criterias": [
      {
        "Operator": "AND",
        "Criterias": [
          {
            "Operator": "OR",
            "Criterias": [
              {
                "Operator": "AND",
                "Criterias": [

                ],
                "Criterions": [
                  {
                    "Comment": "cyrus-imapd is earlier than 0:2.2.12-10.el4_8.4"
                  },
                  {
                    "Comment": "cyrus-imapd is signed with Red Hat redhatrelease2 key"
                  }
                ]
              },
              {
                "Operator": "AND",
                "Criterias": [

                ],
                "Criterions": [
                  {
                    "Comment": "cyrus-imapd-devel is earlier than 0:2.2.12-10.el4_8.4"
                  },
                  {
                    "Comment": "cyrus-imapd-devel is signed with Red Hat redhatrelease2 key"
                  }
                ]
              },
              {
                "Operator": "AND",
                "Criterias": [

                ],
                "Criterions": [
                  {
                    "Comment": "cyrus-imapd-murder is earlier than 0:2.2.12-10.el4_8.4"
                  },
                  {
                    "Comment": "cyrus-imapd-murder is signed with Red Hat redhatrelease2 key"
                  }
                ]
              },
              {
                "Operator": "AND",
                "Criterias": [

                ],
                "Criterions": [
                  {
                    "Comment": "cyrus-imapd-nntp is earlier than 0:2.2.12-10.el4_8.4"
                  },
                  {
                    "Comment": "cyrus-imapd-nntp is signed with Red Hat redhatrelease2 key"
                  }
                ]
              },
              {
                "Operator": "AND",
                "Criterias": [

                ],
                "Criterions": [
                  {
                    "Comment": "cyrus-imapd-utils is earlier than 0:2.2.12-10.el4_8.4"
                  },
                  {
                    "Comment": "cyrus-imapd-utils is signed with Red Hat redhatrelease2 key"
                  }
                ]
              },
              {
                "Operator": "AND",
                "Criterias": [

                ],
                "Criterions": [
                  {
                    "Comment": "perl-Cyrus is earlier than 0:2.2.12-10.el4_8.4"
                  },
                  {
                    "Comment": "perl-Cyrus is signed with Red Hat redhatrelease2 key"
                  }
                ]
              }
            ],
            "Criterions": [

            ]
          }
        ],
        "Criterions": [
          {
            "Comment": "Oracle Linux 4 is installed"
          }
        ]
      },
      {
        "Operator": "AND",
        "Criterias": [
          {
            "Operator": "OR",
            "Criterias": [
              {
                "Operator": "AND",
                "Criterias": [

                ],
                "Criterions": [
                  {
                    "Comment": "cyrus-imapd is earlier than 0:2.3.7-7.el5_4.3"
                  },
                  {
                    "Comment": "cyrus-imapd is signed with Red Hat redhatrelease2 key"
                  }
                ]
              },
              {
                "Operator": "AND",
                "Criterias": [

                ],
                "Criterions": [
                  {
                    "Comment": "cyrus-imapd-devel is earlier than 0:2.3.7-7.el5_4.3"
                  },
                  {
                    "Comment": "cyrus-imapd-devel is signed with Red Hat redhatrelease2 key"
                  }
                ]
              },
              {
                "Operator": "AND",
                "Criterias": [

                ],
                "Criterions": [
                  {
                    "Comment": "cyrus-imapd-perl is earlier than 0:2.3.7-7.el5_4.3"
                  },
                  {
                    "Comment": "cyrus-imapd-perl is signed with Red Hat redhatrelease2 key"
                  }
                ]
              },
              {
                "Operator": "AND",
                "Criterias": [

                ],
                "Criterions": [
                  {
                    "Comment": "cyrus-imapd-utils is earlier than 0:2.3.7-7.el5_4.3"
                  },
                  {
                    "Comment": "cyrus-imapd-utils is signed with Red Hat redhatrelease2 key"
                  }
                ]
              }
            ],
            "Criterions": [

            ]
          }
        ],
        "Criterions": [
          {
            "Comment": "Oracle Linux 5 is installed"
          }
        ]
      }
    ],
    "Criterions": [
      {
        "Comment": "Oracle Linux 4 is installed"
      }
    ]
  },
  "Severity": "Important",
  "Cves": [
    {
      "Impact": "",
      "Href": "",
      "ID": "CVE-2009-2632"
    },
    {
      "Impact": "",
      "Href": "",
      "ID": "CVE-2009-3235"
    }
  ],
  "Issued": {
    "Date": "2009-09-23"
  }
}