{
  "Title": "RHBA-2013:1150: net-snmp bug fix update (Moderate)",
  "Description": "The net-snmp packages provide various libraries and tools for the Simple Network Management Protocol (SNMP), including an SNMP library, an extensible agent, tools for requesting or setting information from SNMP agents, tools for generating and handling SNMP traps, a version of the netstat command which uses SNMP, and a Tk/Perl Management Information Base (MIB) browser.\nThis update fixes the following bug:\n* When an AgentX subagent disconnected from the SNMP daemon (snmpd), the daemon did not properly check that there were no active requests queued in the subagent and destroyed the session. Consequently, the session was referenced by snmpd later when processing queued requests and because it was already destroyed, snmpd terminated unexpectedly with a segmentation fault or looped indefinitely. This update adds several checks to prevent the destruction of sessions with active requests, and snmpd no longer crashes in the described scenario. (BZ#993579)\nUsers of net-snmp are advised to upgrade to these updated packages, which fix this bug.",
  "Platform": [
    "Red Hat Enterprise Linux 6"
  ],
  "References": [
    {
      "Source": "RHSA",
      "URI": "https://access.redhat.com/errata/RHBA-2013:1150",
      "ID": "RHBA-2013:1150"
    },
    {
      "Source": "CVE",
      "URI": "https://access.redhat.com/security/cve/CVE-2012-6151",
      "ID": "CVE-2012-6151"
    }
  ],
  "Criteria": {
    "Operator": "OR",
    "Criterias": [
      {
        "Operator": "AND",
        "Criterias": [
          {
            "Operator": "OR",
            "Criterias": [
              {
                "Operator": "AND",
                "Criterias": [

                ],
                "Criterions": [
                  {
                    "Comment": "net-snmp is earlier than 1:5.5-44.el6_4.4"
                  },
                  {
                    "Comment": "net-snmp is signed with Red Hat redhatrelease2 key"
                  }
                ]
              },
              {
                "Operator": "AND",
                "Criterias": [

                ],
                "Criterions": [
                  {
                    "Comment": "net-snmp-devel is earlier than 1:5.5-44.el6_4.4"
                  },
                  {
                    "Comment": "net-snmp-devel is signed with Red Hat redhatrelease2 key"
                  }
                ]
              },
              {
                "Operator": "AND",
                "Criterias": [

                ],
                "Criterions": [
                  {
                    "Comment": "net-snmp-libs is earlier than 1:5.5-44.el6_4.4"
                  },
                  {
                    "Comment": "net-snmp-libs is signed with Red Hat redhatrelease2 key"
                  }
                ]
              },
              {
                "Operator": "AND",
                "Criterias": [

                ],
                "Criterions": [
                  {
                    "Comment": "net-snmp-perl is earlier than 1:5.5-44.el6_4.4"
                  },
                  {
                    "Comment": "net-snmp-perl is signed with Red Hat redhatrelease2 key"
                  }
                ]
              },
              {
                "Operator": "AND",
                "Criterias": [

                ],
                "Criterions": [
                  {
                    "Comment": "net-snmp-python is earlier than 1:5.5-44.el6_4.4"
                  },
                  {
                    "Comment": "net-snmp-python is signed with Red Hat redhatrelease2 key"
                  }
                ]
              },
              {
                "Operator": "AND",
                "Criterias": [

                ],
                "Criterions": [
                  {
                    "Comment": "net-snmp-utils is earlier than 1:5.5-44.el6_4.4"
                  },
                  {
                    "Comment": "net-snmp-utils is signed with Red Hat redhatrelease2 key"
                  }
                ]
              }
            ],
            "Criterions": [

            ]
          }
        ],
        "Criterions": [
          {
            "Comment": "Oracle Linux 6 is installed"
          }
        ]
      }
    ],
    "Criterions": [
      {
        "Comment": "Oracle Linux 6 is installed"
      }
    ]
  },
  "Severity": "Moderate",
  "Cves": [
    {
      "Impact": "",
      "Href": "",
      "ID": "CVE-2012-6151"
    }
  ],
  "Issued": {
    "Date": "2013-08-12"
  }
}