{
  "Title": "RHBA-2013:0363: sudo bug fix and enhancement update (Low)",
  "Description": "The sudo (super user do) utility allows system administrators to give certain users the ability to run commands as root.\nThe updated sudo packages include numerous bug fixes and enhancements. Space precludes documenting all of these changes in this advisory. Users are directed to the Red Hat Enterprise Linux 6.4 Technical Notes for information on the most significant of these changes:\nhttps://access.redhat.com/knowledge/docs/en-US/Red_Hat_Enterprise_Linux/6/html/6.4_Technical_Notes/sudo.html\nUsers of sudo are advised to upgrade to these updated packages, which fix these bugs and add these enhancements.",
  "Platform": [
    "Red Hat Enterprise Linux 6"
  ],
  "References": [
    {
      "Source": "RHSA",
      "URI": "https://access.redhat.com/errata/RHBA-2013:0363",
      "ID": "RHBA-2013:0363"
    },
    {
      "Source": "CVE",
      "URI": "https://access.redhat.com/security/cve/CVE-2013-1776",
      "ID": "CVE-2013-1776"
    }
  ],
  "Criteria": {
    "Operator": "OR",
    "Criterias": [
      {
        "Operator": "AND",
        "Criterias": [
          {
            "Operator": "OR",
            "Criterias": [
              {
                "Operator": "AND",
                "Criterias": [

                ],
                "Criterions": [
                  {
                    "Comment": "sudo is earlier than 0:1.8.6p3-7.el6"
                  },
                  {
                    "Comment": "sudo is signed with Red Hat redhatrelease2 key"
                  }
                ]
              },
              {
                "Operator": "AND",
                "Criterias": [

                ],
                "Criterions": [
                  {
                    "Comment": "sudo-devel is earlier than 0:1.8.6p3-7.el6"
                  },
                  {
                    "Comment": "sudo-devel is signed with Red Hat redhatrelease2 key"
                  }
                ]
              }
            ],
            "Criterions": [

            ]
          }
        ],
        "Criterions": [
          {
            "Comment": "Oracle Linux 6 is installed"
          }
        ]
      }
    ],
    "Criterions": [
      {
        "Comment": "Oracle Linux 6 is installed"
      }
    ]
  },
  "Severity": "Low",
  "Cves": [
    {
      "Impact": "",
      "Href": "",
      "ID": "CVE-2013-1776"
    }
  ],
  "Issued": {
    "Date": "2013-02-20"
  }
}