{
  "Title": "RHBA-2013:1647: mysql bug fix update (Low)",
  "Description": "MySQL is a multi-user, multi-threaded SQL database server. It consists of the MySQL server daemon (mysqld) and many client programs and libraries.\nThis update fixes the following bugs:\n* Prior to this update, the mysqld daemon worked with uninitialized memory when accessing non-nullable GEOMETRY types. Cosequenutly, mysqld could terminate unexpectedly when the mysqldump utility was running. With this update, mysqld initializes memory properly and thus no longer crashes in this scenario (BZ#842052)\n* Previously, the mysqldump utility expected log tables to be created on the MySQL 5.0.x server, from which it retrieved data. Consequently, mysqldump could not dump the MySQL system table. With this update, mysqldump no longer expects log tables to be created, and it is now able to dump the system table in the described scenario as expected. (BZ#877557) \n* Prior to this update, the mysqld init script did not correctly verify the status of the mysqld daemon. Consequently, the script could return an error message even when the daemon had successfully started. The mysqld init script has been fixed, and it now checks the daemon status properly. (BZ#884651) \n* Previously, the mysql-server sub-packages did not contain the logrotate script. Consequently, the log rotation had to be configured manually. With this update, the logrotate script has been provided by the mysql-server sub-packages, and users can use the script to log into the mysqld.log file by uncommenting appropriate lines in the script. (BZ#904061)\nUsers of mysql are advised to upgrade to these updated packages, which fix these bugs. After installing this update, the MySQL server daemon (mysqld) will be restarted automatically.",
  "Platform": [
    "Red Hat Enterprise Linux 6"
  ],
  "References": [
    {
      "Source": "RHSA",
      "URI": "https://access.redhat.com/errata/RHBA-2013:1647",
      "ID": "RHBA-2013:1647"
    },
    {
      "Source": "CVE",
      "URI": "https://access.redhat.com/security/cve/CVE-2013-1861",
      "ID": "CVE-2013-1861"
    },
    {
      "Source": "CVE",
      "URI": "https://access.redhat.com/security/cve/CVE-2013-3802",
      "ID": "CVE-2013-3802"
    },
    {
      "Source": "CVE",
      "URI": "https://access.redhat.com/security/cve/CVE-2013-3804",
      "ID": "CVE-2013-3804"
    },
    {
      "Source": "CVE",
      "URI": "https://access.redhat.com/security/cve/CVE-2013-3839",
      "ID": "CVE-2013-3839"
    }
  ],
  "Criteria": {
    "Operator": "OR",
    "Criterias": [
      {
        "Operator": "AND",
        "Criterias": [
          {
            "Operator": "OR",
            "Criterias": [
              {
                "Operator": "AND",
                "Criterias": [

                ],
                "Criterions": [
                  {
                    "Comment": "mysql is earlier than 0:5.1.71-1.el6"
                  },
                  {
                    "Comment": "mysql is signed with Red Hat redhatrelease2 key"
                  }
                ]
              },
              {
                "Operator": "AND",
                "Criterias": [

                ],
                "Criterions": [
                  {
                    "Comment": "mysql-bench is earlier than 0:5.1.71-1.el6"
                  },
                  {
                    "Comment": "mysql-bench is signed with Red Hat redhatrelease2 key"
                  }
                ]
              },
              {
                "Operator": "AND",
                "Criterias": [

                ],
                "Criterions": [
                  {
                    "Comment": "mysql-devel is earlier than 0:5.1.71-1.el6"
                  },
                  {
                    "Comment": "mysql-devel is signed with Red Hat redhatrelease2 key"
                  }
                ]
              },
              {
                "Operator": "AND",
                "Criterias": [

                ],
                "Criterions": [
                  {
                    "Comment": "mysql-embedded is earlier than 0:5.1.71-1.el6"
                  },
                  {
                    "Comment": "mysql-embedded is signed with Red Hat redhatrelease2 key"
                  }
                ]
              },
              {
                "Operator": "AND",
                "Criterias": [

                ],
                "Criterions": [
                  {
                    "Comment": "mysql-embedded-devel is earlier than 0:5.1.71-1.el6"
                  },
                  {
                    "Comment": "mysql-embedded-devel is signed with Red Hat redhatrelease2 key"
                  }
                ]
              },
              {
                "Operator": "AND",
                "Criterias": [

                ],
                "Criterions": [
                  {
                    "Comment": "mysql-libs is earlier than 0:5.1.71-1.el6"
                  },
                  {
                    "Comment": "mysql-libs is signed with Red Hat redhatrelease2 key"
                  }
                ]
              },
              {
                "Operator": "AND",
                "Criterias": [

                ],
                "Criterions": [
                  {
                    "Comment": "mysql-server is earlier than 0:5.1.71-1.el6"
                  },
                  {
                    "Comment": "mysql-server is signed with Red Hat redhatrelease2 key"
                  }
                ]
              },
              {
                "Operator": "AND",
                "Criterias": [

                ],
                "Criterions": [
                  {
                    "Comment": "mysql-test is earlier than 0:5.1.71-1.el6"
                  },
                  {
                    "Comment": "mysql-test is signed with Red Hat redhatrelease2 key"
                  }
                ]
              }
            ],
            "Criterions": [

            ]
          }
        ],
        "Criterions": [
          {
            "Comment": "Oracle Linux 6 is installed"
          }
        ]
      }
    ],
    "Criterions": [
      {
        "Comment": "Oracle Linux 6 is installed"
      }
    ]
  },
  "Severity": "Low",
  "Cves": [
    {
      "Impact": "",
      "Href": "",
      "ID": "CVE-2013-1861"
    },
    {
      "Impact": "",
      "Href": "",
      "ID": "CVE-2013-3802"
    },
    {
      "Impact": "",
      "Href": "",
      "ID": "CVE-2013-3804"
    },
    {
      "Impact": "",
      "Href": "",
      "ID": "CVE-2013-3839"
    }
  ],
  "Issued": {
    "Date": "2013-11-20"
  }
}