{
  "Title": "RHSA-2013:1812: firefox security update (Critical)",
  "Description": "Mozilla Firefox is an open source web browser. XULRunner provides the XUL\nRuntime environment for Mozilla Firefox.\nSeveral flaws were found in the processing of malformed web content. A web\npage containing malicious content could cause Firefox to terminate\nunexpectedly or, potentially, execute arbitrary code with the privileges of\nthe user running Firefox. (CVE-2013-5609, CVE-2013-5616, CVE-2013-5618,\nCVE-2013-6671, CVE-2013-5613)\nA flaw was found in the way Firefox rendered web content with missing\ncharacter encoding information. An attacker could use this flaw to possibly\nbypass same-origin inheritance and perform cross-site scripting (XSS)\nattacks. (CVE-2013-5612)\nIt was found that certain malicious web content could bypass restrictions\napplied by sandboxed iframes. An attacker could combine this flaw with\nother vulnerabilities to execute arbitrary code with the privileges of the\nuser running Firefox. (CVE-2013-5614)\nRed Hat would like to thank the Mozilla project for reporting these issues.\nUpstream acknowledges Ben Turner, Bobby Holley, Jesse Ruderman, Christian\nHoller, Masato Kinugawa, Daniel Veditz, Jesse Schwartzentruber, Nils, Tyson\nSmith, and Atte Kettunen as the original reporters of these issues.\nFor technical details regarding these flaws, refer to the Mozilla security\nadvisories for Firefox 24.2.0 ESR. You can find a link to the Mozilla\nadvisories in the References section of this erratum.\nAll Firefox users should upgrade to these updated packages, which contain\nFirefox version 24.2.0 ESR, which corrects these issues. After installing\nthe update, Firefox must be restarted for the changes to take effect.",
  "Platform": [
    "Red Hat Enterprise Linux 5",
    "Red Hat Enterprise Linux 6"
  ],
  "References": [
    {
      "Source": "RHSA",
      "URI": "https://access.redhat.com/errata/RHSA-2013:1812",
      "ID": "RHSA-2013:1812"
    },
    {
      "Source": "CVE",
      "URI": "https://access.redhat.com/security/cve/CVE-2013-0772",
      "ID": "CVE-2013-0772"
    },
    {
      "Source": "CVE",
      "URI": "https://access.redhat.com/security/cve/CVE-2013-5609",
      "ID": "CVE-2013-5609"
    },
    {
      "Source": "CVE",
      "URI": "https://access.redhat.com/security/cve/CVE-2013-5612",
      "ID": "CVE-2013-5612"
    },
    {
      "Source": "CVE",
      "URI": "https://access.redhat.com/security/cve/CVE-2013-5613",
      "ID": "CVE-2013-5613"
    },
    {
      "Source": "CVE",
      "URI": "https://access.redhat.com/security/cve/CVE-2013-5614",
      "ID": "CVE-2013-5614"
    },
    {
      "Source": "CVE",
      "URI": "https://access.redhat.com/security/cve/CVE-2013-5616",
      "ID": "CVE-2013-5616"
    },
    {
      "Source": "CVE",
      "URI": "https://access.redhat.com/security/cve/CVE-2013-5618",
      "ID": "CVE-2013-5618"
    },
    {
      "Source": "CVE",
      "URI": "https://access.redhat.com/security/cve/CVE-2013-6671",
      "ID": "CVE-2013-6671"
    }
  ],
  "Criteria": {
    "Operator": "OR",
    "Criterias": [
      {
        "Operator": "AND",
        "Criterias": [

        ],
        "Criterions": [
          {
            "Comment": "Oracle Linux 5 is installed"
          },
          {
            "Comment": "firefox is earlier than 0:24.2.0-1.el5_10"
          },
          {
            "Comment": "firefox is signed with Red Hat redhatrelease2 key"
          }
        ]
      },
      {
        "Operator": "AND",
        "Criterias": [

        ],
        "Criterions": [
          {
            "Comment": "Oracle Linux 6 is installed"
          },
          {
            "Comment": "firefox is earlier than 0:24.2.0-1.el6_5"
          },
          {
            "Comment": "firefox is signed with Red Hat redhatrelease2 key"
          }
        ]
      }
    ],
    "Criterions": [
      {
        "Comment": "Oracle Linux 5 is installed"
      }
    ]
  },
  "Severity": "Critical",
  "Cves": [
    {
      "Impact": "",
      "Href": "",
      "ID": "CVE-2013-0772"
    },
    {
      "Impact": "",
      "Href": "",
      "ID": "CVE-2013-5609"
    },
    {
      "Impact": "",
      "Href": "",
      "ID": "CVE-2013-5612"
    },
    {
      "Impact": "",
      "Href": "",
      "ID": "CVE-2013-5613"
    },
    {
      "Impact": "",
      "Href": "",
      "ID": "CVE-2013-5614"
    },
    {
      "Impact": "",
      "Href": "",
      "ID": "CVE-2013-5616"
    },
    {
      "Impact": "",
      "Href": "",
      "ID": "CVE-2013-5618"
    },
    {
      "Impact": "",
      "Href": "",
      "ID": "CVE-2013-6671"
    }
  ],
  "Issued": {
    "Date": "2013-12-11"
  }
}