{
  "Title": "RHSA-2013:0590: nss-pam-ldapd security update (Important)",
  "Description": "The nss-pam-ldapd packages provide the nss-pam-ldapd daemon (nslcd), which\nuses a directory server to lookup name service information on behalf of a\nlightweight nsswitch module.\nAn array index error, leading to a stack-based buffer overflow flaw, was\nfound in the way nss-pam-ldapd managed open file descriptors. An attacker\nable to make a process have a large number of open file descriptors and\nperform name lookups could use this flaw to cause the process to crash or,\npotentially, execute arbitrary code with the privileges of the user running\nthe process. (CVE-2013-0288)\nRed Hat would like to thank Garth Mollett for reporting this issue.\nAll users of nss-pam-ldapd are advised to upgrade to these updated\npackages, which contain a backported patch to fix this issue.",
  "Platform": [
    "Red Hat Enterprise Linux 6"
  ],
  "References": [
    {
      "Source": "RHSA",
      "URI": "https://access.redhat.com/errata/RHSA-2013:0590",
      "ID": "RHSA-2013:0590"
    },
    {
      "Source": "CVE",
      "URI": "https://access.redhat.com/security/cve/CVE-2013-0288",
      "ID": "CVE-2013-0288"
    }
  ],
  "Criteria": {
    "Operator": "OR",
    "Criterias": [
      {
        "Operator": "AND",
        "Criterias": [

        ],
        "Criterions": [
          {
            "Comment": "Oracle Linux 6 is installed"
          },
          {
            "Comment": "nss-pam-ldapd is earlier than 0:0.7.5-18.1.el6_4"
          },
          {
            "Comment": "nss-pam-ldapd is signed with Red Hat redhatrelease2 key"
          }
        ]
      }
    ],
    "Criterions": [
      {
        "Comment": "Oracle Linux 6 is installed"
      }
    ]
  },
  "Severity": "Important",
  "Cves": [
    {
      "Impact": "",
      "Href": "",
      "ID": "CVE-2013-0288"
    }
  ],
  "Issued": {
    "Date": "2013-03-04"
  }
}