{
  "Title": "RHSA-2013:1353: sudo security and bug fix update (Low)",
  "Description": "The sudo (superuser do) utility allows system administrators to give\ncertain users the ability to run commands as root.\nA flaw was found in the way sudo handled time stamp files. An attacker able\nto run code as a local user and with the ability to control the system\nclock could possibly gain additional privileges by running commands that\nthe victim user was allowed to run via sudo, without knowing the victim's\npassword. (CVE-2013-1775)\nIt was found that sudo did not properly validate the controlling terminal\ndevice when the tty_tickets option was enabled in the /etc/sudoers file. An\nattacker able to run code as a local user could possibly gain additional\nprivileges by running commands that the victim user was allowed to run via\nsudo, without knowing the victim's password. (CVE-2013-1776, CVE-2013-2776)\nThis update also fixes the following bugs:\n* Due to a bug in the cycle detection algorithm of the visudo utility,\nvisudo incorrectly evaluated certain alias definitions in the /etc/sudoers\nfile as cycles. Consequently, a warning message about undefined aliases\nappeared. This bug has been fixed, /etc/sudoers is now parsed correctly by\nvisudo and the warning message no longer appears. (BZ#849679)\n* Previously, the 'sudo -l' command did not parse the /etc/sudoers file\ncorrectly if it contained an Active Directory (AD) group. The file was\nparsed only up to the first AD group information and then the parsing\nfailed with the following message:\nsudo: unable to cache group ADDOM\\admingroup, already exists\nWith this update, the underlying code has been modified and 'sudo -l' now\nparses /etc/sudoers containing AD groups correctly. (BZ#855836)\n* Previously, the sudo utility did not escape the backslash characters\ncontained in user names properly. Consequently, if a system used sudo\nintegrated with LDAP or Active Directory (AD) as the primary authentication\nmechanism, users were not able to authenticate on that system. With this\nupdate, sudo has been modified to process LDAP and AD names correctly and\nthe authentication process now works as expected. (BZ#869287)\n* Prior to this update, the 'visudo -s (strict)' command incorrectly parsed\ncertain alias definitions. Consequently, an error message was issued. The\nbug has been fixed, and parsing errors no longer occur when using 'visudo\n-s'. (BZ#905624)\nAll sudo users are advised to upgrade to this updated package, which\ncontains backported patches to correct these issues.",
  "Platform": [
    "Red Hat Enterprise Linux 5"
  ],
  "References": [
    {
      "Source": "RHSA",
      "URI": "https://access.redhat.com/errata/RHSA-2013:1353",
      "ID": "RHSA-2013:1353"
    },
    {
      "Source": "CVE",
      "URI": "https://access.redhat.com/security/cve/CVE-2013-1775",
      "ID": "CVE-2013-1775"
    },
    {
      "Source": "CVE",
      "URI": "https://access.redhat.com/security/cve/CVE-2013-1776",
      "ID": "CVE-2013-1776"
    },
    {
      "Source": "CVE",
      "URI": "https://access.redhat.com/security/cve/CVE-2013-2776",
      "ID": "CVE-2013-2776"
    }
  ],
  "Criteria": {
    "Operator": "OR",
    "Criterias": [
      {
        "Operator": "AND",
        "Criterias": [

        ],
        "Criterions": [
          {
            "Comment": "Oracle Linux 5 is installed"
          },
          {
            "Comment": "sudo is earlier than 0:1.7.2p1-28.el5"
          },
          {
            "Comment": "sudo is signed with Red Hat redhatrelease2 key"
          }
        ]
      }
    ],
    "Criterions": [
      {
        "Comment": "Oracle Linux 5 is installed"
      }
    ]
  },
  "Severity": "Low",
  "Cves": [
    {
      "Impact": "",
      "Href": "",
      "ID": "CVE-2013-1775"
    },
    {
      "Impact": "",
      "Href": "",
      "ID": "CVE-2013-1776"
    },
    {
      "Impact": "",
      "Href": "",
      "ID": "CVE-2013-2776"
    }
  ],
  "Issued": {
    "Date": "2013-09-30"
  }
}