{
  "Title": "RHSA-2013:0504: dhcp security and bug fix update (Low)",
  "Description": "The dhcp packages provide the Dynamic Host Configuration Protocol (DHCP)\nthat allows individual devices on an IP network to get their own network\nconfiguration information, including an IP address, a subnet mask, and a\nbroadcast address.\nA flaw was found in the way the dhcpd daemon handled the expiration time of\nIPv6 leases. If dhcpd's configuration was changed to reduce the default\nIPv6 lease time, lease renewal requests for previously assigned leases\ncould cause dhcpd to crash. (CVE-2012-3955)\nThis update also fixes the following bugs:\n* Prior to this update, the DHCP server discovered only the first IP\naddress of a network interface if the network interface had more than one\nconfigured IP address. As a consequence, the DHCP server failed to\nrestart if the server was configured to serve only a subnet of the\nfollowing IP addresses. This update modifies network interface addresses\ndiscovery code to find all addresses of a network interface. The DHCP\nserver can also serve subnets of other addresses. (BZ#803540)\n* Prior to this update, the dhclient rewrote the /etc/resolv.conf file\nwith backup data after it was stopped even when the PEERDNS flag was set\nto \"no\" before shut down if the configuration file was changed while the\ndhclient ran with PEERDNS=yes. This update removes the backing up and\nrestoring functions for this configuration file from the dhclient-script.\nNow, the dhclient no longer rewrites the /etc/resolv.conf file when\nstopped. (BZ#824622)\nAll users of DHCP are advised to upgrade to these updated packages, which\nfix these issues. After installing this update, all DHCP servers will be\nrestarted automatically.",
  "Platform": [
    "Red Hat Enterprise Linux 6"
  ],
  "References": [
    {
      "Source": "RHSA",
      "URI": "https://access.redhat.com/errata/RHSA-2013:0504",
      "ID": "RHSA-2013:0504"
    },
    {
      "Source": "CVE",
      "URI": "https://access.redhat.com/security/cve/CVE-2012-3955",
      "ID": "CVE-2012-3955"
    }
  ],
  "Criteria": {
    "Operator": "OR",
    "Criterias": [
      {
        "Operator": "AND",
        "Criterias": [
          {
            "Operator": "OR",
            "Criterias": [
              {
                "Operator": "AND",
                "Criterias": [

                ],
                "Criterions": [
                  {
                    "Comment": "dhclient is earlier than 12:4.1.1-34.P1.el6"
                  },
                  {
                    "Comment": "dhclient is signed with Red Hat redhatrelease2 key"
                  }
                ]
              },
              {
                "Operator": "AND",
                "Criterias": [

                ],
                "Criterions": [
                  {
                    "Comment": "dhcp is earlier than 12:4.1.1-34.P1.el6"
                  },
                  {
                    "Comment": "dhcp is signed with Red Hat redhatrelease2 key"
                  }
                ]
              },
              {
                "Operator": "AND",
                "Criterias": [

                ],
                "Criterions": [
                  {
                    "Comment": "dhcp-common is earlier than 12:4.1.1-34.P1.el6"
                  },
                  {
                    "Comment": "dhcp-common is signed with Red Hat redhatrelease2 key"
                  }
                ]
              },
              {
                "Operator": "AND",
                "Criterias": [

                ],
                "Criterions": [
                  {
                    "Comment": "dhcp-devel is earlier than 12:4.1.1-34.P1.el6"
                  },
                  {
                    "Comment": "dhcp-devel is signed with Red Hat redhatrelease2 key"
                  }
                ]
              }
            ],
            "Criterions": [

            ]
          }
        ],
        "Criterions": [
          {
            "Comment": "Oracle Linux 6 is installed"
          }
        ]
      }
    ],
    "Criterions": [
      {
        "Comment": "Oracle Linux 6 is installed"
      }
    ]
  },
  "Severity": "Low",
  "Cves": [
    {
      "Impact": "",
      "Href": "",
      "ID": "CVE-2012-3955"
    }
  ],
  "Issued": {
    "Date": "2013-02-20"
  }
}