{
  "Title": "RHSA-2013:0941: flash-plugin security update (Critical)",
  "Description": "The flash-plugin package contains a Mozilla Firefox compatible Adobe Flash\nPlayer web browser plug-in.\nThis update fixes one vulnerability in Adobe Flash Player. This\nvulnerability is detailed in the Adobe Security bulletin APSB13-16,\nlisted in the References section. Specially-crafted SWF content could cause\nflash-plugin to crash or, potentially, execute arbitrary code when a victim\nloads a page containing the malicious SWF content. (CVE-2013-3343)\nAll users of Adobe Flash Player should install this updated package, which\nupgrades Flash Player to version 11.2.202.291.",
  "Platform": [
    "Supplementary for Red Hat Enterprise Linux 6"
  ],
  "References": [
    {
      "Source": "RHSA",
      "URI": "https://rhn.redhat.com/errata/RHSA-2013-0941.html",
      "ID": "RHSA-2013:0941-01"
    },
    {
      "Source": "CVE",
      "URI": "https://www.redhat.com/security/data/cve/CVE-2013-3343.html",
      "ID": "CVE-2013-3343"
    }
  ],
  "Criteria": {
    "Operator": "AND",
    "Criterias": [
      {
        "Operator": "OR",
        "Criterias": [

        ],
        "Criterions": [
          {
            "Comment": "Oracle Linux 6 Client is installed"
          },
          {
            "Comment": "Oracle Linux 6 Server is installed"
          },
          {
            "Comment": "Oracle Linux 6 Workstation is installed"
          },
          {
            "Comment": "Oracle Linux 6 ComputeNode is installed"
          }
        ]
      }
    ],
    "Criterions": [
      {
        "Comment": "flash-plugin is earlier than 0:11.2.202.291-1.el6"
      },
      {
        "Comment": "flash-plugin is signed with Red Hat redhatrelease2 key"
      }
    ]
  },
  "Severity": "Critical",
  "Cves": [
    {
      "Impact": "",
      "Href": "",
      "ID": "CVE-2013-3343"
    }
  ],
  "Issued": {
    "Date": "2013-06-12"
  }
}