{
  "Title": "RHSA-2013:1861: nss security update (Moderate)",
  "Description": "Network Security Services (NSS) is a set of libraries designed to support\nthe cross-platform development of security-enabled client and server\napplications.\nIt was found that a subordinate Certificate Authority (CA) mis-issued an\nintermediate certificate, which could be used to conduct man-in-the-middle\nattacks. This update renders that particular intermediate certificate as\nuntrusted. (BZ#1038894)\nNote: This fix only applies to applications using the NSS Builtin Object\nToken. It does not render the certificates untrusted for applications that\nuse the NSS library, but do not use the NSS Builtin Object Token.\nAll NSS users should upgrade to these updated packages, which correct this\nissue. After installing the update, applications using NSS must be\nrestarted for the changes to take effect.",
  "Platform": [
    "Red Hat Enterprise Linux 5",
    "Red Hat Enterprise Linux 6"
  ],
  "References": [
    {
      "Source": "RHSA",
      "URI": "https://access.redhat.com/errata/RHSA-2013:1861",
      "ID": "RHSA-2013:1861"
    }
  ],
  "Criteria": {
    "Operator": "OR",
    "Criterias": [
      {
        "Operator": "AND",
        "Criterias": [
          {
            "Operator": "OR",
            "Criterias": [
              {
                "Operator": "AND",
                "Criterias": [

                ],
                "Criterions": [
                  {
                    "Comment": "nss is earlier than 0:3.15.3-4.el5_10"
                  },
                  {
                    "Comment": "nss is signed with Red Hat redhatrelease key"
                  }
                ]
              },
              {
                "Operator": "AND",
                "Criterias": [

                ],
                "Criterions": [
                  {
                    "Comment": "nss-devel is earlier than 0:3.15.3-4.el5_10"
                  },
                  {
                    "Comment": "nss-devel is signed with Red Hat redhatrelease key"
                  }
                ]
              },
              {
                "Operator": "AND",
                "Criterias": [

                ],
                "Criterions": [
                  {
                    "Comment": "nss-pkcs11-devel is earlier than 0:3.15.3-4.el5_10"
                  },
                  {
                    "Comment": "nss-pkcs11-devel is signed with Red Hat redhatrelease key"
                  }
                ]
              },
              {
                "Operator": "AND",
                "Criterias": [

                ],
                "Criterions": [
                  {
                    "Comment": "nss-tools is earlier than 0:3.15.3-4.el5_10"
                  },
                  {
                    "Comment": "nss-tools is signed with Red Hat redhatrelease key"
                  }
                ]
              }
            ],
            "Criterions": [

            ]
          }
        ],
        "Criterions": [
          {
            "Comment": "Oracle Linux 5 is installed"
          }
        ]
      },
      {
        "Operator": "AND",
        "Criterias": [
          {
            "Operator": "OR",
            "Criterias": [
              {
                "Operator": "AND",
                "Criterias": [

                ],
                "Criterions": [
                  {
                    "Comment": "nss is earlier than 0:3.15.3-3.el6_5"
                  },
                  {
                    "Comment": "nss is signed with Red Hat redhatrelease2 key"
                  }
                ]
              },
              {
                "Operator": "AND",
                "Criterias": [

                ],
                "Criterions": [
                  {
                    "Comment": "nss-devel is earlier than 0:3.15.3-3.el6_5"
                  },
                  {
                    "Comment": "nss-devel is signed with Red Hat redhatrelease2 key"
                  }
                ]
              },
              {
                "Operator": "AND",
                "Criterias": [

                ],
                "Criterions": [
                  {
                    "Comment": "nss-pkcs11-devel is earlier than 0:3.15.3-3.el6_5"
                  },
                  {
                    "Comment": "nss-pkcs11-devel is signed with Red Hat redhatrelease2 key"
                  }
                ]
              },
              {
                "Operator": "AND",
                "Criterias": [

                ],
                "Criterions": [
                  {
                    "Comment": "nss-sysinit is earlier than 0:3.15.3-3.el6_5"
                  },
                  {
                    "Comment": "nss-sysinit is signed with Red Hat redhatrelease2 key"
                  }
                ]
              },
              {
                "Operator": "AND",
                "Criterias": [

                ],
                "Criterions": [
                  {
                    "Comment": "nss-tools is earlier than 0:3.15.3-3.el6_5"
                  },
                  {
                    "Comment": "nss-tools is signed with Red Hat redhatrelease2 key"
                  }
                ]
              }
            ],
            "Criterions": [

            ]
          }
        ],
        "Criterions": [
          {
            "Comment": "Oracle Linux 6 is installed"
          }
        ]
      }
    ],
    "Criterions": [
      {
        "Comment": "Oracle Linux 5 is installed"
      }
    ]
  },
  "Severity": "Moderate",
  "Cves": [

  ],
  "Issued": {
    "Date": "2013-12-19"
  }
}