{
  "Title": "RHSA-2013:0821: thunderbird security update (Important)",
  "Description": "Mozilla Thunderbird is a standalone mail and newsgroup client.\nSeveral flaws were found in the processing of malformed content. Malicious\ncontent could cause Thunderbird to crash or, potentially, execute arbitrary\ncode with the privileges of the user running Thunderbird. (CVE-2013-0801,\nCVE-2013-1674, CVE-2013-1675, CVE-2013-1676, CVE-2013-1677, CVE-2013-1678,\nCVE-2013-1679, CVE-2013-1680, CVE-2013-1681)\nA flaw was found in the way Thunderbird handled Content Level Constructors.\nMalicious content could use this flaw to perform cross-site scripting (XSS)\nattacks. (CVE-2013-1670)\nRed Hat would like to thank the Mozilla project for reporting these issues.\nUpstream acknowledges Christoph Diehl, Christian Holler, Jesse Ruderman,\nTimothy Nikkel, Jeff Walden, Nils, Ms2ger, Abhishek Arya, and Cody Crews as\nthe original reporters of these issues.\nNote: All of the above issues cannot be exploited by a specially-crafted\nHTML mail message as JavaScript is disabled by default for mail messages.\nThey could be exploited another way in Thunderbird, for example, when\nviewing the full remote content of an RSS feed.\nAll Thunderbird users should upgrade to this updated package, which\ncontains Thunderbird version 17.0.6 ESR, which corrects these issues. After\ninstalling the update, Thunderbird must be restarted for the changes to\ntake effect.",
  "Platform": [
    "Red Hat Enterprise Linux 5",
    "Red Hat Enterprise Linux 6"
  ],
  "References": [
    {
      "Source": "RHSA",
      "URI": "https://access.redhat.com/errata/RHSA-2013:0821",
      "ID": "RHSA-2013:0821"
    },
    {
      "Source": "CVE",
      "URI": "https://access.redhat.com/security/cve/CVE-2013-0801",
      "ID": "CVE-2013-0801"
    },
    {
      "Source": "CVE",
      "URI": "https://access.redhat.com/security/cve/CVE-2013-1670",
      "ID": "CVE-2013-1670"
    },
    {
      "Source": "CVE",
      "URI": "https://access.redhat.com/security/cve/CVE-2013-1674",
      "ID": "CVE-2013-1674"
    },
    {
      "Source": "CVE",
      "URI": "https://access.redhat.com/security/cve/CVE-2013-1675",
      "ID": "CVE-2013-1675"
    },
    {
      "Source": "CVE",
      "URI": "https://access.redhat.com/security/cve/CVE-2013-1676",
      "ID": "CVE-2013-1676"
    },
    {
      "Source": "CVE",
      "URI": "https://access.redhat.com/security/cve/CVE-2013-1677",
      "ID": "CVE-2013-1677"
    },
    {
      "Source": "CVE",
      "URI": "https://access.redhat.com/security/cve/CVE-2013-1678",
      "ID": "CVE-2013-1678"
    },
    {
      "Source": "CVE",
      "URI": "https://access.redhat.com/security/cve/CVE-2013-1679",
      "ID": "CVE-2013-1679"
    },
    {
      "Source": "CVE",
      "URI": "https://access.redhat.com/security/cve/CVE-2013-1680",
      "ID": "CVE-2013-1680"
    },
    {
      "Source": "CVE",
      "URI": "https://access.redhat.com/security/cve/CVE-2013-1681",
      "ID": "CVE-2013-1681"
    }
  ],
  "Criteria": {
    "Operator": "OR",
    "Criterias": [
      {
        "Operator": "AND",
        "Criterias": [

        ],
        "Criterions": [
          {
            "Comment": "Oracle Linux 5 is installed"
          },
          {
            "Comment": "thunderbird is earlier than 0:17.0.6-1.el5_9"
          },
          {
            "Comment": "thunderbird is signed with Red Hat redhatrelease2 key"
          }
        ]
      },
      {
        "Operator": "AND",
        "Criterias": [

        ],
        "Criterions": [
          {
            "Comment": "Oracle Linux 6 is installed"
          },
          {
            "Comment": "thunderbird is earlier than 0:17.0.6-2.el6_4"
          },
          {
            "Comment": "thunderbird is signed with Red Hat redhatrelease2 key"
          }
        ]
      }
    ],
    "Criterions": [
      {
        "Comment": "Oracle Linux 5 is installed"
      }
    ]
  },
  "Severity": "Important",
  "Cves": [
    {
      "Impact": "",
      "Href": "",
      "ID": "CVE-2013-0801"
    },
    {
      "Impact": "",
      "Href": "",
      "ID": "CVE-2013-1670"
    },
    {
      "Impact": "",
      "Href": "",
      "ID": "CVE-2013-1674"
    },
    {
      "Impact": "",
      "Href": "",
      "ID": "CVE-2013-1675"
    },
    {
      "Impact": "",
      "Href": "",
      "ID": "CVE-2013-1676"
    },
    {
      "Impact": "",
      "Href": "",
      "ID": "CVE-2013-1677"
    },
    {
      "Impact": "",
      "Href": "",
      "ID": "CVE-2013-1678"
    },
    {
      "Impact": "",
      "Href": "",
      "ID": "CVE-2013-1679"
    },
    {
      "Impact": "",
      "Href": "",
      "ID": "CVE-2013-1680"
    },
    {
      "Impact": "",
      "Href": "",
      "ID": "CVE-2013-1681"
    }
  ],
  "Issued": {
    "Date": "2013-05-14"
  }
}