{
  "Title": "RHSA-2013:1050: php53 security update (Critical)",
  "Description": "PHP is an HTML-embedded scripting language commonly used with the Apache\nHTTP Server.\nA buffer overflow flaw was found in the way PHP parsed deeply nested XML\ndocuments. If a PHP application used the xml_parse_into_struct() function\nto parse untrusted XML content, an attacker able to supply\nspecially-crafted XML could use this flaw to crash the application or,\npossibly, execute arbitrary code with the privileges of the user running\nthe PHP interpreter. (CVE-2013-4113)\nAll php53 users should upgrade to these updated packages, which contain a\nbackported patch to resolve this issue. After installing the updated\npackages, the httpd daemon must be restarted for the update to take effect.",
  "Platform": [
    "Red Hat Enterprise Linux 5"
  ],
  "References": [
    {
      "Source": "RHSA",
      "URI": "https://access.redhat.com/errata/RHSA-2013:1050",
      "ID": "RHSA-2013:1050"
    },
    {
      "Source": "CVE",
      "URI": "https://access.redhat.com/security/cve/CVE-2013-4113",
      "ID": "CVE-2013-4113"
    }
  ],
  "Criteria": {
    "Operator": "OR",
    "Criterias": [
      {
        "Operator": "AND",
        "Criterias": [
          {
            "Operator": "OR",
            "Criterias": [
              {
                "Operator": "AND",
                "Criterias": [

                ],
                "Criterions": [
                  {
                    "Comment": "php53 is earlier than 0:5.3.3-13.el5_9.1"
                  },
                  {
                    "Comment": "php53 is signed with Red Hat redhatrelease2 key"
                  }
                ]
              },
              {
                "Operator": "AND",
                "Criterias": [

                ],
                "Criterions": [
                  {
                    "Comment": "php53-bcmath is earlier than 0:5.3.3-13.el5_9.1"
                  },
                  {
                    "Comment": "php53-bcmath is signed with Red Hat redhatrelease2 key"
                  }
                ]
              },
              {
                "Operator": "AND",
                "Criterias": [

                ],
                "Criterions": [
                  {
                    "Comment": "php53-cli is earlier than 0:5.3.3-13.el5_9.1"
                  },
                  {
                    "Comment": "php53-cli is signed with Red Hat redhatrelease2 key"
                  }
                ]
              },
              {
                "Operator": "AND",
                "Criterias": [

                ],
                "Criterions": [
                  {
                    "Comment": "php53-common is earlier than 0:5.3.3-13.el5_9.1"
                  },
                  {
                    "Comment": "php53-common is signed with Red Hat redhatrelease2 key"
                  }
                ]
              },
              {
                "Operator": "AND",
                "Criterias": [

                ],
                "Criterions": [
                  {
                    "Comment": "php53-dba is earlier than 0:5.3.3-13.el5_9.1"
                  },
                  {
                    "Comment": "php53-dba is signed with Red Hat redhatrelease2 key"
                  }
                ]
              },
              {
                "Operator": "AND",
                "Criterias": [

                ],
                "Criterions": [
                  {
                    "Comment": "php53-devel is earlier than 0:5.3.3-13.el5_9.1"
                  },
                  {
                    "Comment": "php53-devel is signed with Red Hat redhatrelease2 key"
                  }
                ]
              },
              {
                "Operator": "AND",
                "Criterias": [

                ],
                "Criterions": [
                  {
                    "Comment": "php53-gd is earlier than 0:5.3.3-13.el5_9.1"
                  },
                  {
                    "Comment": "php53-gd is signed with Red Hat redhatrelease2 key"
                  }
                ]
              },
              {
                "Operator": "AND",
                "Criterias": [

                ],
                "Criterions": [
                  {
                    "Comment": "php53-imap is earlier than 0:5.3.3-13.el5_9.1"
                  },
                  {
                    "Comment": "php53-imap is signed with Red Hat redhatrelease2 key"
                  }
                ]
              },
              {
                "Operator": "AND",
                "Criterias": [

                ],
                "Criterions": [
                  {
                    "Comment": "php53-intl is earlier than 0:5.3.3-13.el5_9.1"
                  },
                  {
                    "Comment": "php53-intl is signed with Red Hat redhatrelease2 key"
                  }
                ]
              },
              {
                "Operator": "AND",
                "Criterias": [

                ],
                "Criterions": [
                  {
                    "Comment": "php53-ldap is earlier than 0:5.3.3-13.el5_9.1"
                  },
                  {
                    "Comment": "php53-ldap is signed with Red Hat redhatrelease2 key"
                  }
                ]
              },
              {
                "Operator": "AND",
                "Criterias": [

                ],
                "Criterions": [
                  {
                    "Comment": "php53-mbstring is earlier than 0:5.3.3-13.el5_9.1"
                  },
                  {
                    "Comment": "php53-mbstring is signed with Red Hat redhatrelease2 key"
                  }
                ]
              },
              {
                "Operator": "AND",
                "Criterias": [

                ],
                "Criterions": [
                  {
                    "Comment": "php53-mysql is earlier than 0:5.3.3-13.el5_9.1"
                  },
                  {
                    "Comment": "php53-mysql is signed with Red Hat redhatrelease2 key"
                  }
                ]
              },
              {
                "Operator": "AND",
                "Criterias": [

                ],
                "Criterions": [
                  {
                    "Comment": "php53-odbc is earlier than 0:5.3.3-13.el5_9.1"
                  },
                  {
                    "Comment": "php53-odbc is signed with Red Hat redhatrelease2 key"
                  }
                ]
              },
              {
                "Operator": "AND",
                "Criterias": [

                ],
                "Criterions": [
                  {
                    "Comment": "php53-pdo is earlier than 0:5.3.3-13.el5_9.1"
                  },
                  {
                    "Comment": "php53-pdo is signed with Red Hat redhatrelease2 key"
                  }
                ]
              },
              {
                "Operator": "AND",
                "Criterias": [

                ],
                "Criterions": [
                  {
                    "Comment": "php53-pgsql is earlier than 0:5.3.3-13.el5_9.1"
                  },
                  {
                    "Comment": "php53-pgsql is signed with Red Hat redhatrelease2 key"
                  }
                ]
              },
              {
                "Operator": "AND",
                "Criterias": [

                ],
                "Criterions": [
                  {
                    "Comment": "php53-process is earlier than 0:5.3.3-13.el5_9.1"
                  },
                  {
                    "Comment": "php53-process is signed with Red Hat redhatrelease2 key"
                  }
                ]
              },
              {
                "Operator": "AND",
                "Criterias": [

                ],
                "Criterions": [
                  {
                    "Comment": "php53-pspell is earlier than 0:5.3.3-13.el5_9.1"
                  },
                  {
                    "Comment": "php53-pspell is signed with Red Hat redhatrelease2 key"
                  }
                ]
              },
              {
                "Operator": "AND",
                "Criterias": [

                ],
                "Criterions": [
                  {
                    "Comment": "php53-snmp is earlier than 0:5.3.3-13.el5_9.1"
                  },
                  {
                    "Comment": "php53-snmp is signed with Red Hat redhatrelease2 key"
                  }
                ]
              },
              {
                "Operator": "AND",
                "Criterias": [

                ],
                "Criterions": [
                  {
                    "Comment": "php53-soap is earlier than 0:5.3.3-13.el5_9.1"
                  },
                  {
                    "Comment": "php53-soap is signed with Red Hat redhatrelease2 key"
                  }
                ]
              },
              {
                "Operator": "AND",
                "Criterias": [

                ],
                "Criterions": [
                  {
                    "Comment": "php53-xml is earlier than 0:5.3.3-13.el5_9.1"
                  },
                  {
                    "Comment": "php53-xml is signed with Red Hat redhatrelease2 key"
                  }
                ]
              },
              {
                "Operator": "AND",
                "Criterias": [

                ],
                "Criterions": [
                  {
                    "Comment": "php53-xmlrpc is earlier than 0:5.3.3-13.el5_9.1"
                  },
                  {
                    "Comment": "php53-xmlrpc is signed with Red Hat redhatrelease2 key"
                  }
                ]
              }
            ],
            "Criterions": [

            ]
          }
        ],
        "Criterions": [
          {
            "Comment": "Oracle Linux 5 is installed"
          }
        ]
      }
    ],
    "Criterions": [
      {
        "Comment": "Oracle Linux 5 is installed"
      }
    ]
  },
  "Severity": "Critical",
  "Cves": [
    {
      "Impact": "",
      "Href": "",
      "ID": "CVE-2013-4113"
    }
  ],
  "Issued": {
    "Date": "2013-07-12"
  }
}