{
  "Title": "RHSA-2013:1814: php security update (Critical)",
  "Description": "PHP is an HTML-embedded scripting language commonly used with the Apache\nHTTP Server.\nA memory corruption flaw was found in the way the openssl_x509_parse()\nfunction of the PHP openssl extension parsed X.509 certificates. A remote\nattacker could use this flaw to provide a malicious self-signed certificate\nor a certificate signed by a trusted authority to a PHP application using\nthe aforementioned function, causing the application to crash or, possibly,\nallow the attacker to execute arbitrary code with the privileges of the\nuser running the PHP interpreter. (CVE-2013-6420)\nIt was found that PHP did not check for carriage returns in HTTP headers,\nallowing intended HTTP response splitting protections to be bypassed.\nDepending on the web browser the victim is using, a remote attacker could\nuse this flaw to perform HTTP response splitting attacks. (CVE-2011-1398)\nAn integer signedness issue, leading to a heap-based buffer underflow, was\nfound in the PHP scandir() function. If a remote attacker could upload an\nexcessively large number of files to a directory the scandir() function\nruns on, it could cause the PHP interpreter to crash or, possibly, execute\narbitrary code. (CVE-2012-2688)\nIt was found that the PHP SOAP parser allowed the expansion of external XML\nentities during SOAP message parsing. A remote attacker could possibly use\nthis flaw to read arbitrary files that are accessible to a PHP application\nusing a SOAP extension. (CVE-2013-1643)\nRed Hat would like to thank the PHP project for reporting CVE-2013-6420.\nUpstream acknowledges Stefan Esser as the original reporter.\nAll php users are advised to upgrade to these updated packages, which\ncontain backported patches to correct these issues. After installing the\nupdated packages, the httpd daemon must be restarted for the update to\ntake effect.",
  "Platform": [
    "Red Hat Enterprise Linux 5"
  ],
  "References": [
    {
      "Source": "RHSA",
      "URI": "https://access.redhat.com/errata/RHSA-2013:1814",
      "ID": "RHSA-2013:1814"
    },
    {
      "Source": "CVE",
      "URI": "https://access.redhat.com/security/cve/CVE-2011-1398",
      "ID": "CVE-2011-1398"
    },
    {
      "Source": "CVE",
      "URI": "https://access.redhat.com/security/cve/CVE-2012-2688",
      "ID": "CVE-2012-2688"
    },
    {
      "Source": "CVE",
      "URI": "https://access.redhat.com/security/cve/CVE-2013-1643",
      "ID": "CVE-2013-1643"
    },
    {
      "Source": "CVE",
      "URI": "https://access.redhat.com/security/cve/CVE-2013-6420",
      "ID": "CVE-2013-6420"
    }
  ],
  "Criteria": {
    "Operator": "OR",
    "Criterias": [
      {
        "Operator": "AND",
        "Criterias": [
          {
            "Operator": "OR",
            "Criterias": [
              {
                "Operator": "AND",
                "Criterias": [

                ],
                "Criterions": [
                  {
                    "Comment": "php is earlier than 0:5.1.6-43.el5_10"
                  },
                  {
                    "Comment": "php is signed with Red Hat redhatrelease2 key"
                  }
                ]
              },
              {
                "Operator": "AND",
                "Criterias": [

                ],
                "Criterions": [
                  {
                    "Comment": "php-bcmath is earlier than 0:5.1.6-43.el5_10"
                  },
                  {
                    "Comment": "php-bcmath is signed with Red Hat redhatrelease2 key"
                  }
                ]
              },
              {
                "Operator": "AND",
                "Criterias": [

                ],
                "Criterions": [
                  {
                    "Comment": "php-cli is earlier than 0:5.1.6-43.el5_10"
                  },
                  {
                    "Comment": "php-cli is signed with Red Hat redhatrelease2 key"
                  }
                ]
              },
              {
                "Operator": "AND",
                "Criterias": [

                ],
                "Criterions": [
                  {
                    "Comment": "php-common is earlier than 0:5.1.6-43.el5_10"
                  },
                  {
                    "Comment": "php-common is signed with Red Hat redhatrelease2 key"
                  }
                ]
              },
              {
                "Operator": "AND",
                "Criterias": [

                ],
                "Criterions": [
                  {
                    "Comment": "php-dba is earlier than 0:5.1.6-43.el5_10"
                  },
                  {
                    "Comment": "php-dba is signed with Red Hat redhatrelease2 key"
                  }
                ]
              },
              {
                "Operator": "AND",
                "Criterias": [

                ],
                "Criterions": [
                  {
                    "Comment": "php-devel is earlier than 0:5.1.6-43.el5_10"
                  },
                  {
                    "Comment": "php-devel is signed with Red Hat redhatrelease2 key"
                  }
                ]
              },
              {
                "Operator": "AND",
                "Criterias": [

                ],
                "Criterions": [
                  {
                    "Comment": "php-gd is earlier than 0:5.1.6-43.el5_10"
                  },
                  {
                    "Comment": "php-gd is signed with Red Hat redhatrelease2 key"
                  }
                ]
              },
              {
                "Operator": "AND",
                "Criterias": [

                ],
                "Criterions": [
                  {
                    "Comment": "php-imap is earlier than 0:5.1.6-43.el5_10"
                  },
                  {
                    "Comment": "php-imap is signed with Red Hat redhatrelease2 key"
                  }
                ]
              },
              {
                "Operator": "AND",
                "Criterias": [

                ],
                "Criterions": [
                  {
                    "Comment": "php-ldap is earlier than 0:5.1.6-43.el5_10"
                  },
                  {
                    "Comment": "php-ldap is signed with Red Hat redhatrelease2 key"
                  }
                ]
              },
              {
                "Operator": "AND",
                "Criterias": [

                ],
                "Criterions": [
                  {
                    "Comment": "php-mbstring is earlier than 0:5.1.6-43.el5_10"
                  },
                  {
                    "Comment": "php-mbstring is signed with Red Hat redhatrelease2 key"
                  }
                ]
              },
              {
                "Operator": "AND",
                "Criterias": [

                ],
                "Criterions": [
                  {
                    "Comment": "php-mysql is earlier than 0:5.1.6-43.el5_10"
                  },
                  {
                    "Comment": "php-mysql is signed with Red Hat redhatrelease2 key"
                  }
                ]
              },
              {
                "Operator": "AND",
                "Criterias": [

                ],
                "Criterions": [
                  {
                    "Comment": "php-ncurses is earlier than 0:5.1.6-43.el5_10"
                  },
                  {
                    "Comment": "php-ncurses is signed with Red Hat redhatrelease2 key"
                  }
                ]
              },
              {
                "Operator": "AND",
                "Criterias": [

                ],
                "Criterions": [
                  {
                    "Comment": "php-odbc is earlier than 0:5.1.6-43.el5_10"
                  },
                  {
                    "Comment": "php-odbc is signed with Red Hat redhatrelease2 key"
                  }
                ]
              },
              {
                "Operator": "AND",
                "Criterias": [

                ],
                "Criterions": [
                  {
                    "Comment": "php-pdo is earlier than 0:5.1.6-43.el5_10"
                  },
                  {
                    "Comment": "php-pdo is signed with Red Hat redhatrelease2 key"
                  }
                ]
              },
              {
                "Operator": "AND",
                "Criterias": [

                ],
                "Criterions": [
                  {
                    "Comment": "php-pgsql is earlier than 0:5.1.6-43.el5_10"
                  },
                  {
                    "Comment": "php-pgsql is signed with Red Hat redhatrelease2 key"
                  }
                ]
              },
              {
                "Operator": "AND",
                "Criterias": [

                ],
                "Criterions": [
                  {
                    "Comment": "php-snmp is earlier than 0:5.1.6-43.el5_10"
                  },
                  {
                    "Comment": "php-snmp is signed with Red Hat redhatrelease2 key"
                  }
                ]
              },
              {
                "Operator": "AND",
                "Criterias": [

                ],
                "Criterions": [
                  {
                    "Comment": "php-soap is earlier than 0:5.1.6-43.el5_10"
                  },
                  {
                    "Comment": "php-soap is signed with Red Hat redhatrelease2 key"
                  }
                ]
              },
              {
                "Operator": "AND",
                "Criterias": [

                ],
                "Criterions": [
                  {
                    "Comment": "php-xml is earlier than 0:5.1.6-43.el5_10"
                  },
                  {
                    "Comment": "php-xml is signed with Red Hat redhatrelease2 key"
                  }
                ]
              },
              {
                "Operator": "AND",
                "Criterias": [

                ],
                "Criterions": [
                  {
                    "Comment": "php-xmlrpc is earlier than 0:5.1.6-43.el5_10"
                  },
                  {
                    "Comment": "php-xmlrpc is signed with Red Hat redhatrelease2 key"
                  }
                ]
              }
            ],
            "Criterions": [

            ]
          }
        ],
        "Criterions": [
          {
            "Comment": "Oracle Linux 5 is installed"
          }
        ]
      }
    ],
    "Criterions": [
      {
        "Comment": "Oracle Linux 5 is installed"
      }
    ]
  },
  "Severity": "Critical",
  "Cves": [
    {
      "Impact": "",
      "Href": "",
      "ID": "CVE-2011-1398"
    },
    {
      "Impact": "",
      "Href": "",
      "ID": "CVE-2012-2688"
    },
    {
      "Impact": "",
      "Href": "",
      "ID": "CVE-2013-1643"
    },
    {
      "Impact": "",
      "Href": "",
      "ID": "CVE-2013-6420"
    }
  ],
  "Issued": {
    "Date": "2013-12-11"
  }
}