{
  "Title": "RHSA-2013:0753: icedtea-web security update (Moderate)",
  "Description": "The IcedTea-Web project provides a Java web browser plug-in and an\nimplementation of Java Web Start, which is based on the Netx project. It\nalso contains a configuration tool for managing deployment settings for the\nplug-in and Web Start implementations.\nIt was discovered that the IcedTea-Web plug-in incorrectly used the same\nclass loader instance for applets with the same value of the codebase\nattribute, even when they originated from different domains. A malicious\napplet could use this flaw to gain information about and possibly\nmanipulate applets from different domains currently running in the browser.\n(CVE-2013-1926)\nThe IcedTea-Web plug-in did not properly check the format of the downloaded\nJava Archive (JAR) files. This could cause the plug-in to execute code\nhidden in a file in a different format, possibly allowing attackers to\nexecute code in the context of web sites that allow uploads of specific\nfile types, known as a GIFAR attack. (CVE-2013-1927)\nThe CVE-2013-1926 issue was discovered by Jiri Vanek of the Red Hat OpenJDK\nTeam, and CVE-2013-1927 was discovered by the Red Hat Security Response\nTeam.\nThis erratum also upgrades IcedTea-Web to version 1.2.3. Refer to the NEWS\nfile, linked to in the References, for further information.\nAll IcedTea-Web users should upgrade to these updated packages, which\nresolve these issues. Web browsers using the IcedTea-Web browser plug-in\nmust be restarted for this update to take effect.",
  "Platform": [
    "Red Hat Enterprise Linux 6"
  ],
  "References": [
    {
      "Source": "RHSA",
      "URI": "https://access.redhat.com/errata/RHSA-2013:0753",
      "ID": "RHSA-2013:0753"
    },
    {
      "Source": "CVE",
      "URI": "https://access.redhat.com/security/cve/CVE-2013-1926",
      "ID": "CVE-2013-1926"
    },
    {
      "Source": "CVE",
      "URI": "https://access.redhat.com/security/cve/CVE-2013-1927",
      "ID": "CVE-2013-1927"
    }
  ],
  "Criteria": {
    "Operator": "OR",
    "Criterias": [
      {
        "Operator": "AND",
        "Criterias": [
          {
            "Operator": "OR",
            "Criterias": [
              {
                "Operator": "AND",
                "Criterias": [

                ],
                "Criterions": [
                  {
                    "Comment": "icedtea-web is earlier than 0:1.2.3-2.el6_4"
                  },
                  {
                    "Comment": "icedtea-web is signed with Red Hat redhatrelease2 key"
                  }
                ]
              },
              {
                "Operator": "AND",
                "Criterias": [

                ],
                "Criterions": [
                  {
                    "Comment": "icedtea-web-javadoc is earlier than 0:1.2.3-2.el6_4"
                  },
                  {
                    "Comment": "icedtea-web-javadoc is signed with Red Hat redhatrelease2 key"
                  }
                ]
              }
            ],
            "Criterions": [

            ]
          }
        ],
        "Criterions": [
          {
            "Comment": "Oracle Linux 6 is installed"
          }
        ]
      }
    ],
    "Criterions": [
      {
        "Comment": "Oracle Linux 6 is installed"
      }
    ]
  },
  "Severity": "Moderate",
  "Cves": [
    {
      "Impact": "",
      "Href": "",
      "ID": "CVE-2013-1926"
    },
    {
      "Impact": "",
      "Href": "",
      "ID": "CVE-2013-1927"
    }
  ],
  "Issued": {
    "Date": "2013-04-17"
  }
}