{
  "Title": "RHSA-2013:1764: ruby security update (Critical)",
  "Description": "Ruby is an extensible, interpreted, object-oriented, scripting language.\nIt has features to process text files and to perform system management\ntasks.\nA buffer overflow flaw was found in the way Ruby parsed floating point\nnumbers from their text representation. If an application using Ruby\naccepted untrusted input strings and converted them to floating point\nnumbers, an attacker able to provide such input could cause the application\nto crash or, possibly, execute arbitrary code with the privileges of the\napplication. (CVE-2013-4164)\nAll ruby users are advised to upgrade to these updated packages, which\ncontain a backported patch to correct this issue.",
  "Platform": [
    "Red Hat Enterprise Linux 6"
  ],
  "References": [
    {
      "Source": "RHSA",
      "URI": "https://access.redhat.com/errata/RHSA-2013:1764",
      "ID": "RHSA-2013:1764"
    },
    {
      "Source": "CVE",
      "URI": "https://access.redhat.com/security/cve/CVE-2013-4164",
      "ID": "CVE-2013-4164"
    }
  ],
  "Criteria": {
    "Operator": "OR",
    "Criterias": [
      {
        "Operator": "AND",
        "Criterias": [
          {
            "Operator": "OR",
            "Criterias": [
              {
                "Operator": "AND",
                "Criterias": [

                ],
                "Criterions": [
                  {
                    "Comment": "ruby is earlier than 0:1.8.7.352-13.el6"
                  },
                  {
                    "Comment": "ruby is signed with Red Hat redhatrelease2 key"
                  }
                ]
              },
              {
                "Operator": "AND",
                "Criterias": [

                ],
                "Criterions": [
                  {
                    "Comment": "ruby-devel is earlier than 0:1.8.7.352-13.el6"
                  },
                  {
                    "Comment": "ruby-devel is signed with Red Hat redhatrelease2 key"
                  }
                ]
              },
              {
                "Operator": "AND",
                "Criterias": [

                ],
                "Criterions": [
                  {
                    "Comment": "ruby-docs is earlier than 0:1.8.7.352-13.el6"
                  },
                  {
                    "Comment": "ruby-docs is signed with Red Hat redhatrelease2 key"
                  }
                ]
              },
              {
                "Operator": "AND",
                "Criterias": [

                ],
                "Criterions": [
                  {
                    "Comment": "ruby-irb is earlier than 0:1.8.7.352-13.el6"
                  },
                  {
                    "Comment": "ruby-irb is signed with Red Hat redhatrelease2 key"
                  }
                ]
              },
              {
                "Operator": "AND",
                "Criterias": [

                ],
                "Criterions": [
                  {
                    "Comment": "ruby-libs is earlier than 0:1.8.7.352-13.el6"
                  },
                  {
                    "Comment": "ruby-libs is signed with Red Hat redhatrelease2 key"
                  }
                ]
              },
              {
                "Operator": "AND",
                "Criterias": [

                ],
                "Criterions": [
                  {
                    "Comment": "ruby-rdoc is earlier than 0:1.8.7.352-13.el6"
                  },
                  {
                    "Comment": "ruby-rdoc is signed with Red Hat redhatrelease2 key"
                  }
                ]
              },
              {
                "Operator": "AND",
                "Criterias": [

                ],
                "Criterions": [
                  {
                    "Comment": "ruby-ri is earlier than 0:1.8.7.352-13.el6"
                  },
                  {
                    "Comment": "ruby-ri is signed with Red Hat redhatrelease2 key"
                  }
                ]
              },
              {
                "Operator": "AND",
                "Criterias": [

                ],
                "Criterions": [
                  {
                    "Comment": "ruby-static is earlier than 0:1.8.7.352-13.el6"
                  },
                  {
                    "Comment": "ruby-static is signed with Red Hat redhatrelease2 key"
                  }
                ]
              },
              {
                "Operator": "AND",
                "Criterias": [

                ],
                "Criterions": [
                  {
                    "Comment": "ruby-tcltk is earlier than 0:1.8.7.352-13.el6"
                  },
                  {
                    "Comment": "ruby-tcltk is signed with Red Hat redhatrelease2 key"
                  }
                ]
              }
            ],
            "Criterions": [

            ]
          }
        ],
        "Criterions": [
          {
            "Comment": "Oracle Linux 6 is installed"
          }
        ]
      }
    ],
    "Criterions": [
      {
        "Comment": "Oracle Linux 6 is installed"
      }
    ]
  },
  "Severity": "Critical",
  "Cves": [
    {
      "Impact": "",
      "Href": "",
      "ID": "CVE-2013-4164"
    }
  ],
  "Issued": {
    "Date": "2013-11-25"
  }
}