{
  "Title": "RHSA-2013:1451: java-1.7.0-openjdk security update (Critical)",
  "Description": "The java-1.7.0-openjdk packages provide the OpenJDK 7 Java Runtime\nEnvironment and the OpenJDK 7 Java Software Development Kit.\nMultiple input checking flaws were found in the 2D component native image\nparsing code. A specially crafted image file could trigger a Java Virtual\nMachine memory corruption and, possibly, lead to arbitrary code execution\nwith the privileges of the user running the Java Virtual Machine.\n(CVE-2013-5782)\nThe class loader did not properly check the package access for non-public\nproxy classes. A remote attacker could possibly use this flaw to execute\narbitrary code with the privileges of the user running the Java Virtual\nMachine. (CVE-2013-5830)\nMultiple improper permission check issues were discovered in the 2D, CORBA,\nJNDI, and Libraries components in OpenJDK. An untrusted Java application or\napplet could use these flaws to bypass Java sandbox restrictions.\n(CVE-2013-5829, CVE-2013-5814, CVE-2013-5817, CVE-2013-5842, CVE-2013-5850,\nCVE-2013-5838)\nMultiple input checking flaws were discovered in the JPEG image reading and\nwriting code in the 2D component. An untrusted Java application or applet\ncould use these flaws to corrupt the Java Virtual Machine memory and bypass\nJava sandbox restrictions. (CVE-2013-5809)\nThe FEATURE_SECURE_PROCESSING setting was not properly honored by the\njavax.xml.transform package transformers. A remote attacker could use this\nflaw to supply a crafted XML that would be processed without the intended\nsecurity restrictions. (CVE-2013-5802)\nMultiple errors were discovered in the way the JAXP and Security components\nprocesses XML inputs. A remote attacker could create a crafted XML that\nwould cause a Java application to use an excessive amount of CPU and memory\nwhen processed. (CVE-2013-5825, CVE-2013-4002, CVE-2013-5823)\nMultiple improper permission check issues were discovered in the Libraries,\nSwing, JAX-WS, JAXP, JGSS, AWT, Beans, and Scripting components in OpenJDK.\nAn untrusted Java application or applet could use these flaws to bypass\ncertain Java sandbox restrictions. (CVE-2013-3829, CVE-2013-5840,\nCVE-2013-5774, CVE-2013-5783, CVE-2013-5820, CVE-2013-5851, CVE-2013-5800,\nCVE-2013-5849, CVE-2013-5790, CVE-2013-5784)\nIt was discovered that the 2D component image library did not properly\ncheck bounds when performing image conversions. An untrusted Java\napplication or applet could use this flaw to disclose portions of the Java\nVirtual Machine memory. (CVE-2013-5778)\nMultiple input sanitization flaws were discovered in javadoc. When javadoc\ndocumentation was generated from an untrusted Java source code and hosted\non a domain not controlled by the code author, these issues could make it\neasier to perform cross-site scripting attacks. (CVE-2013-5804,\nCVE-2013-5797)\nVarious OpenJDK classes that represent cryptographic keys could leak\nprivate key information by including sensitive data in strings returned by\ntoString() methods. These flaws could possibly lead to an unexpected\nexposure of sensitive key data. (CVE-2013-5780)\nThe Java Heap Analysis Tool (jhat) failed to properly escape all data added\ninto the HTML pages it generated. Crafted content in the memory of a Java\nprogram analyzed using jhat could possibly be used to conduct cross-site\nscripting attacks. (CVE-2013-5772)\nThe Kerberos implementation in OpenJDK did not properly parse KDC\nresponses. A malformed packet could cause a Java application using JGSS to\nexit. (CVE-2013-5803)\nNote: If the web browser plug-in provided by the icedtea-web package was\ninstalled, the issues exposed via Java applets could have been exploited\nwithout user interaction if a user visited a malicious website.\nAll users of java-1.7.0-openjdk are advised to upgrade to these updated\npackages, which resolve these issues. All running instances of OpenJDK Java\nmust be restarted for the update to take effect.",
  "Platform": [
    "Red Hat Enterprise Linux 6"
  ],
  "References": [
    {
      "Source": "RHSA",
      "URI": "https://access.redhat.com/errata/RHSA-2013:1451",
      "ID": "RHSA-2013:1451"
    },
    {
      "Source": "CVE",
      "URI": "https://access.redhat.com/security/cve/CVE-2013-3829",
      "ID": "CVE-2013-3829"
    },
    {
      "Source": "CVE",
      "URI": "https://access.redhat.com/security/cve/CVE-2013-4002",
      "ID": "CVE-2013-4002"
    },
    {
      "Source": "CVE",
      "URI": "https://access.redhat.com/security/cve/CVE-2013-5772",
      "ID": "CVE-2013-5772"
    },
    {
      "Source": "CVE",
      "URI": "https://access.redhat.com/security/cve/CVE-2013-5774",
      "ID": "CVE-2013-5774"
    },
    {
      "Source": "CVE",
      "URI": "https://access.redhat.com/security/cve/CVE-2013-5778",
      "ID": "CVE-2013-5778"
    },
    {
      "Source": "CVE",
      "URI": "https://access.redhat.com/security/cve/CVE-2013-5780",
      "ID": "CVE-2013-5780"
    },
    {
      "Source": "CVE",
      "URI": "https://access.redhat.com/security/cve/CVE-2013-5782",
      "ID": "CVE-2013-5782"
    },
    {
      "Source": "CVE",
      "URI": "https://access.redhat.com/security/cve/CVE-2013-5783",
      "ID": "CVE-2013-5783"
    },
    {
      "Source": "CVE",
      "URI": "https://access.redhat.com/security/cve/CVE-2013-5784",
      "ID": "CVE-2013-5784"
    },
    {
      "Source": "CVE",
      "URI": "https://access.redhat.com/security/cve/CVE-2013-5790",
      "ID": "CVE-2013-5790"
    },
    {
      "Source": "CVE",
      "URI": "https://access.redhat.com/security/cve/CVE-2013-5797",
      "ID": "CVE-2013-5797"
    },
    {
      "Source": "CVE",
      "URI": "https://access.redhat.com/security/cve/CVE-2013-5800",
      "ID": "CVE-2013-5800"
    },
    {
      "Source": "CVE",
      "URI": "https://access.redhat.com/security/cve/CVE-2013-5802",
      "ID": "CVE-2013-5802"
    },
    {
      "Source": "CVE",
      "URI": "https://access.redhat.com/security/cve/CVE-2013-5803",
      "ID": "CVE-2013-5803"
    },
    {
      "Source": "CVE",
      "URI": "https://access.redhat.com/security/cve/CVE-2013-5804",
      "ID": "CVE-2013-5804"
    },
    {
      "Source": "CVE",
      "URI": "https://access.redhat.com/security/cve/CVE-2013-5809",
      "ID": "CVE-2013-5809"
    },
    {
      "Source": "CVE",
      "URI": "https://access.redhat.com/security/cve/CVE-2013-5814",
      "ID": "CVE-2013-5814"
    },
    {
      "Source": "CVE",
      "URI": "https://access.redhat.com/security/cve/CVE-2013-5817",
      "ID": "CVE-2013-5817"
    },
    {
      "Source": "CVE",
      "URI": "https://access.redhat.com/security/cve/CVE-2013-5820",
      "ID": "CVE-2013-5820"
    },
    {
      "Source": "CVE",
      "URI": "https://access.redhat.com/security/cve/CVE-2013-5823",
      "ID": "CVE-2013-5823"
    },
    {
      "Source": "CVE",
      "URI": "https://access.redhat.com/security/cve/CVE-2013-5825",
      "ID": "CVE-2013-5825"
    },
    {
      "Source": "CVE",
      "URI": "https://access.redhat.com/security/cve/CVE-2013-5829",
      "ID": "CVE-2013-5829"
    },
    {
      "Source": "CVE",
      "URI": "https://access.redhat.com/security/cve/CVE-2013-5830",
      "ID": "CVE-2013-5830"
    },
    {
      "Source": "CVE",
      "URI": "https://access.redhat.com/security/cve/CVE-2013-5838",
      "ID": "CVE-2013-5838"
    },
    {
      "Source": "CVE",
      "URI": "https://access.redhat.com/security/cve/CVE-2013-5840",
      "ID": "CVE-2013-5840"
    },
    {
      "Source": "CVE",
      "URI": "https://access.redhat.com/security/cve/CVE-2013-5842",
      "ID": "CVE-2013-5842"
    },
    {
      "Source": "CVE",
      "URI": "https://access.redhat.com/security/cve/CVE-2013-5849",
      "ID": "CVE-2013-5849"
    },
    {
      "Source": "CVE",
      "URI": "https://access.redhat.com/security/cve/CVE-2013-5850",
      "ID": "CVE-2013-5850"
    },
    {
      "Source": "CVE",
      "URI": "https://access.redhat.com/security/cve/CVE-2013-5851",
      "ID": "CVE-2013-5851"
    }
  ],
  "Criteria": {
    "Operator": "OR",
    "Criterias": [
      {
        "Operator": "AND",
        "Criterias": [
          {
            "Operator": "OR",
            "Criterias": [
              {
                "Operator": "AND",
                "Criterias": [

                ],
                "Criterions": [
                  {
                    "Comment": "java-1.7.0-openjdk is earlier than 1:1.7.0.45-2.4.3.2.el6_4"
                  },
                  {
                    "Comment": "java-1.7.0-openjdk is signed with Red Hat redhatrelease2 key"
                  }
                ]
              },
              {
                "Operator": "AND",
                "Criterias": [

                ],
                "Criterions": [
                  {
                    "Comment": "java-1.7.0-openjdk-demo is earlier than 1:1.7.0.45-2.4.3.2.el6_4"
                  },
                  {
                    "Comment": "java-1.7.0-openjdk-demo is signed with Red Hat redhatrelease2 key"
                  }
                ]
              },
              {
                "Operator": "AND",
                "Criterias": [

                ],
                "Criterions": [
                  {
                    "Comment": "java-1.7.0-openjdk-devel is earlier than 1:1.7.0.45-2.4.3.2.el6_4"
                  },
                  {
                    "Comment": "java-1.7.0-openjdk-devel is signed with Red Hat redhatrelease2 key"
                  }
                ]
              },
              {
                "Operator": "AND",
                "Criterias": [

                ],
                "Criterions": [
                  {
                    "Comment": "java-1.7.0-openjdk-javadoc is earlier than 1:1.7.0.45-2.4.3.2.el6_4"
                  },
                  {
                    "Comment": "java-1.7.0-openjdk-javadoc is signed with Red Hat redhatrelease2 key"
                  }
                ]
              },
              {
                "Operator": "AND",
                "Criterias": [

                ],
                "Criterions": [
                  {
                    "Comment": "java-1.7.0-openjdk-src is earlier than 1:1.7.0.45-2.4.3.2.el6_4"
                  },
                  {
                    "Comment": "java-1.7.0-openjdk-src is signed with Red Hat redhatrelease2 key"
                  }
                ]
              }
            ],
            "Criterions": [

            ]
          }
        ],
        "Criterions": [
          {
            "Comment": "Oracle Linux 6 is installed"
          }
        ]
      }
    ],
    "Criterions": [
      {
        "Comment": "Oracle Linux 6 is installed"
      }
    ]
  },
  "Severity": "Critical",
  "Cves": [
    {
      "Impact": "",
      "Href": "",
      "ID": "CVE-2013-3829"
    },
    {
      "Impact": "",
      "Href": "",
      "ID": "CVE-2013-4002"
    },
    {
      "Impact": "",
      "Href": "",
      "ID": "CVE-2013-5772"
    },
    {
      "Impact": "",
      "Href": "",
      "ID": "CVE-2013-5774"
    },
    {
      "Impact": "",
      "Href": "",
      "ID": "CVE-2013-5778"
    },
    {
      "Impact": "",
      "Href": "",
      "ID": "CVE-2013-5780"
    },
    {
      "Impact": "",
      "Href": "",
      "ID": "CVE-2013-5782"
    },
    {
      "Impact": "",
      "Href": "",
      "ID": "CVE-2013-5783"
    },
    {
      "Impact": "",
      "Href": "",
      "ID": "CVE-2013-5784"
    },
    {
      "Impact": "",
      "Href": "",
      "ID": "CVE-2013-5790"
    },
    {
      "Impact": "",
      "Href": "",
      "ID": "CVE-2013-5797"
    },
    {
      "Impact": "",
      "Href": "",
      "ID": "CVE-2013-5800"
    },
    {
      "Impact": "",
      "Href": "",
      "ID": "CVE-2013-5802"
    },
    {
      "Impact": "",
      "Href": "",
      "ID": "CVE-2013-5803"
    },
    {
      "Impact": "",
      "Href": "",
      "ID": "CVE-2013-5804"
    },
    {
      "Impact": "",
      "Href": "",
      "ID": "CVE-2013-5809"
    },
    {
      "Impact": "",
      "Href": "",
      "ID": "CVE-2013-5814"
    },
    {
      "Impact": "",
      "Href": "",
      "ID": "CVE-2013-5817"
    },
    {
      "Impact": "",
      "Href": "",
      "ID": "CVE-2013-5820"
    },
    {
      "Impact": "",
      "Href": "",
      "ID": "CVE-2013-5823"
    },
    {
      "Impact": "",
      "Href": "",
      "ID": "CVE-2013-5825"
    },
    {
      "Impact": "",
      "Href": "",
      "ID": "CVE-2013-5829"
    },
    {
      "Impact": "",
      "Href": "",
      "ID": "CVE-2013-5830"
    },
    {
      "Impact": "",
      "Href": "",
      "ID": "CVE-2013-5838"
    },
    {
      "Impact": "",
      "Href": "",
      "ID": "CVE-2013-5840"
    },
    {
      "Impact": "",
      "Href": "",
      "ID": "CVE-2013-5842"
    },
    {
      "Impact": "",
      "Href": "",
      "ID": "CVE-2013-5849"
    },
    {
      "Impact": "",
      "Href": "",
      "ID": "CVE-2013-5850"
    },
    {
      "Impact": "",
      "Href": "",
      "ID": "CVE-2013-5851"
    }
  ],
  "Issued": {
    "Date": "2013-10-22"
  }
}