{
  "Title": "RHSA-2013:0827: openswan security update (Important)",
  "Description": "Openswan is a free implementation of Internet Protocol Security (IPsec)\nand Internet Key Exchange (IKE). IPsec uses strong cryptography to provide\nboth authentication and encryption services. These services allow you to\nbuild secure tunnels through untrusted networks. When using Opportunistic\nEncryption, Openswan's pluto IKE daemon requests DNS TXT records to obtain\npublic RSA keys of itself and its peers.\nA buffer overflow flaw was found in Openswan. If Opportunistic Encryption\nwere enabled (\"oe=yes\" in \"/etc/ipsec.conf\") and an RSA key configured, an\nattacker able to cause a system to perform a DNS lookup for an\nattacker-controlled domain containing malicious records (such as by sending\nan email that triggers a DKIM or SPF DNS record lookup) could cause\nOpenswan's pluto IKE daemon to crash or, potentially, execute arbitrary\ncode with root privileges. With \"oe=yes\" but no RSA key configured, the\nissue can only be triggered by attackers on the local network who can\ncontrol the reverse DNS entry of the target system. Opportunistic\nEncryption is disabled by default. (CVE-2013-2053)\nThis issue was discovered by Florian Weimer of the Red Hat Product Security\nTeam.\nAll users of openswan are advised to upgrade to these updated packages,\nwhich contain backported patches to correct this issue. After installing\nthis update, the ipsec service will be restarted automatically.",
  "Platform": [
    "Red Hat Enterprise Linux 5",
    "Red Hat Enterprise Linux 6"
  ],
  "References": [
    {
      "Source": "RHSA",
      "URI": "https://access.redhat.com/errata/RHSA-2013:0827",
      "ID": "RHSA-2013:0827"
    },
    {
      "Source": "CVE",
      "URI": "https://access.redhat.com/security/cve/CVE-2013-2053",
      "ID": "CVE-2013-2053"
    }
  ],
  "Criteria": {
    "Operator": "OR",
    "Criterias": [
      {
        "Operator": "AND",
        "Criterias": [
          {
            "Operator": "OR",
            "Criterias": [
              {
                "Operator": "AND",
                "Criterias": [

                ],
                "Criterions": [
                  {
                    "Comment": "openswan is earlier than 0:2.6.32-5.el5_9"
                  },
                  {
                    "Comment": "openswan is signed with Red Hat redhatrelease2 key"
                  }
                ]
              },
              {
                "Operator": "AND",
                "Criterias": [

                ],
                "Criterions": [
                  {
                    "Comment": "openswan-doc is earlier than 0:2.6.32-5.el5_9"
                  },
                  {
                    "Comment": "openswan-doc is signed with Red Hat redhatrelease2 key"
                  }
                ]
              }
            ],
            "Criterions": [

            ]
          }
        ],
        "Criterions": [
          {
            "Comment": "Oracle Linux 5 is installed"
          }
        ]
      },
      {
        "Operator": "AND",
        "Criterias": [
          {
            "Operator": "OR",
            "Criterias": [
              {
                "Operator": "AND",
                "Criterias": [

                ],
                "Criterions": [
                  {
                    "Comment": "openswan is earlier than 0:2.6.32-20.el6_4"
                  },
                  {
                    "Comment": "openswan is signed with Red Hat redhatrelease2 key"
                  }
                ]
              },
              {
                "Operator": "AND",
                "Criterias": [

                ],
                "Criterions": [
                  {
                    "Comment": "openswan-doc is earlier than 0:2.6.32-20.el6_4"
                  },
                  {
                    "Comment": "openswan-doc is signed with Red Hat redhatrelease2 key"
                  }
                ]
              }
            ],
            "Criterions": [

            ]
          }
        ],
        "Criterions": [
          {
            "Comment": "Oracle Linux 6 is installed"
          }
        ]
      }
    ],
    "Criterions": [
      {
        "Comment": "Oracle Linux 5 is installed"
      }
    ]
  },
  "Severity": "Important",
  "Cves": [
    {
      "Impact": "",
      "Href": "",
      "ID": "CVE-2013-2053"
    }
  ],
  "Issued": {
    "Date": "2013-05-15"
  }
}