{
  "Title": "RHSA-2013:0625: java-1.6.0-ibm security update (Critical)",
  "Description": "IBM Java SE version 6 includes the IBM Java Runtime Environment and the IBM\nJava Software Development Kit.\nThis update fixes several vulnerabilities in the IBM Java Runtime\nEnvironment and the IBM Java Software Development Kit. Detailed\nvulnerability descriptions are linked from the IBM Security alerts page,\nlisted in the References section. (CVE-2012-1541, CVE-2012-3213,\nCVE-2012-3342, CVE-2013-0351, CVE-2013-0409, CVE-2013-0419, CVE-2013-0423,\nCVE-2013-0424, CVE-2013-0425, CVE-2013-0426, CVE-2013-0427, CVE-2013-0428,\nCVE-2013-0432, CVE-2013-0433, CVE-2013-0434, CVE-2013-0435, CVE-2013-0438,\nCVE-2013-0440, CVE-2013-0441, CVE-2013-0442, CVE-2013-0443, CVE-2013-0445,\nCVE-2013-0446, CVE-2013-0450, CVE-2013-0809, CVE-2013-1473, CVE-2013-1476,\nCVE-2013-1478, CVE-2013-1480, CVE-2013-1481, CVE-2013-1486, CVE-2013-1487,\nCVE-2013-1493)\nAll users of java-1.6.0-ibm are advised to upgrade to these updated\npackages, containing the IBM Java SE 6 SR13 release. All running instances\nof IBM Java must be restarted for the update to take effect.",
  "Platform": [
    "Supplementary for Red Hat Enterprise Linux 6"
  ],
  "References": [
    {
      "Source": "RHSA",
      "URI": "https://rhn.redhat.com/errata/RHSA-2013-0625.html",
      "ID": "RHSA-2013:0625-02"
    },
    {
      "Source": "CVE",
      "URI": "https://www.redhat.com/security/data/cve/CVE-2012-1541.html",
      "ID": "CVE-2012-1541"
    },
    {
      "Source": "CVE",
      "URI": "https://www.redhat.com/security/data/cve/CVE-2012-3213.html",
      "ID": "CVE-2012-3213"
    },
    {
      "Source": "CVE",
      "URI": "https://www.redhat.com/security/data/cve/CVE-2012-3342.html",
      "ID": "CVE-2012-3342"
    },
    {
      "Source": "CVE",
      "URI": "https://www.redhat.com/security/data/cve/CVE-2012-5085.html",
      "ID": "CVE-2012-5085"
    },
    {
      "Source": "CVE",
      "URI": "https://www.redhat.com/security/data/cve/CVE-2013-0351.html",
      "ID": "CVE-2013-0351"
    },
    {
      "Source": "CVE",
      "URI": "https://www.redhat.com/security/data/cve/CVE-2013-0409.html",
      "ID": "CVE-2013-0409"
    },
    {
      "Source": "CVE",
      "URI": "https://www.redhat.com/security/data/cve/CVE-2013-0419.html",
      "ID": "CVE-2013-0419"
    },
    {
      "Source": "CVE",
      "URI": "https://www.redhat.com/security/data/cve/CVE-2013-0423.html",
      "ID": "CVE-2013-0423"
    },
    {
      "Source": "CVE",
      "URI": "https://www.redhat.com/security/data/cve/CVE-2013-0424.html",
      "ID": "CVE-2013-0424"
    },
    {
      "Source": "CVE",
      "URI": "https://www.redhat.com/security/data/cve/CVE-2013-0425.html",
      "ID": "CVE-2013-0425"
    },
    {
      "Source": "CVE",
      "URI": "https://www.redhat.com/security/data/cve/CVE-2013-0426.html",
      "ID": "CVE-2013-0426"
    },
    {
      "Source": "CVE",
      "URI": "https://www.redhat.com/security/data/cve/CVE-2013-0427.html",
      "ID": "CVE-2013-0427"
    },
    {
      "Source": "CVE",
      "URI": "https://www.redhat.com/security/data/cve/CVE-2013-0428.html",
      "ID": "CVE-2013-0428"
    },
    {
      "Source": "CVE",
      "URI": "https://www.redhat.com/security/data/cve/CVE-2013-0432.html",
      "ID": "CVE-2013-0432"
    },
    {
      "Source": "CVE",
      "URI": "https://www.redhat.com/security/data/cve/CVE-2013-0433.html",
      "ID": "CVE-2013-0433"
    },
    {
      "Source": "CVE",
      "URI": "https://www.redhat.com/security/data/cve/CVE-2013-0434.html",
      "ID": "CVE-2013-0434"
    },
    {
      "Source": "CVE",
      "URI": "https://www.redhat.com/security/data/cve/CVE-2013-0435.html",
      "ID": "CVE-2013-0435"
    },
    {
      "Source": "CVE",
      "URI": "https://www.redhat.com/security/data/cve/CVE-2013-0438.html",
      "ID": "CVE-2013-0438"
    },
    {
      "Source": "CVE",
      "URI": "https://www.redhat.com/security/data/cve/CVE-2013-0440.html",
      "ID": "CVE-2013-0440"
    },
    {
      "Source": "CVE",
      "URI": "https://www.redhat.com/security/data/cve/CVE-2013-0441.html",
      "ID": "CVE-2013-0441"
    },
    {
      "Source": "CVE",
      "URI": "https://www.redhat.com/security/data/cve/CVE-2013-0442.html",
      "ID": "CVE-2013-0442"
    },
    {
      "Source": "CVE",
      "URI": "https://www.redhat.com/security/data/cve/CVE-2013-0443.html",
      "ID": "CVE-2013-0443"
    },
    {
      "Source": "CVE",
      "URI": "https://www.redhat.com/security/data/cve/CVE-2013-0445.html",
      "ID": "CVE-2013-0445"
    },
    {
      "Source": "CVE",
      "URI": "https://www.redhat.com/security/data/cve/CVE-2013-0446.html",
      "ID": "CVE-2013-0446"
    },
    {
      "Source": "CVE",
      "URI": "https://www.redhat.com/security/data/cve/CVE-2013-0450.html",
      "ID": "CVE-2013-0450"
    },
    {
      "Source": "CVE",
      "URI": "https://www.redhat.com/security/data/cve/CVE-2013-0809.html",
      "ID": "CVE-2013-0809"
    },
    {
      "Source": "CVE",
      "URI": "https://www.redhat.com/security/data/cve/CVE-2013-1473.html",
      "ID": "CVE-2013-1473"
    },
    {
      "Source": "CVE",
      "URI": "https://www.redhat.com/security/data/cve/CVE-2013-1476.html",
      "ID": "CVE-2013-1476"
    },
    {
      "Source": "CVE",
      "URI": "https://www.redhat.com/security/data/cve/CVE-2013-1478.html",
      "ID": "CVE-2013-1478"
    },
    {
      "Source": "CVE",
      "URI": "https://www.redhat.com/security/data/cve/CVE-2013-1480.html",
      "ID": "CVE-2013-1480"
    },
    {
      "Source": "CVE",
      "URI": "https://www.redhat.com/security/data/cve/CVE-2013-1481.html",
      "ID": "CVE-2013-1481"
    },
    {
      "Source": "CVE",
      "URI": "https://www.redhat.com/security/data/cve/CVE-2013-1486.html",
      "ID": "CVE-2013-1486"
    },
    {
      "Source": "CVE",
      "URI": "https://www.redhat.com/security/data/cve/CVE-2013-1487.html",
      "ID": "CVE-2013-1487"
    },
    {
      "Source": "CVE",
      "URI": "https://www.redhat.com/security/data/cve/CVE-2013-1493.html",
      "ID": "CVE-2013-1493"
    }
  ],
  "Criteria": {
    "Operator": "AND",
    "Criterias": [
      {
        "Operator": "OR",
        "Criterias": [

        ],
        "Criterions": [
          {
            "Comment": "Oracle Linux 6 Client is installed"
          },
          {
            "Comment": "Oracle Linux 6 Server is installed"
          },
          {
            "Comment": "Oracle Linux 6 Workstation is installed"
          },
          {
            "Comment": "Oracle Linux 6 ComputeNode is installed"
          }
        ]
      },
      {
        "Operator": "OR",
        "Criterias": [
          {
            "Operator": "AND",
            "Criterias": [

            ],
            "Criterions": [
              {
                "Comment": "java-1.6.0-ibm-devel is earlier than 1:1.6.0.13.0-1jpp.3.el6_4"
              },
              {
                "Comment": "java-1.6.0-ibm-devel is signed with Red Hat redhatrelease2 key"
              }
            ]
          },
          {
            "Operator": "AND",
            "Criterias": [

            ],
            "Criterions": [
              {
                "Comment": "java-1.6.0-ibm-src is earlier than 1:1.6.0.13.0-1jpp.3.el6_4"
              },
              {
                "Comment": "java-1.6.0-ibm-src is signed with Red Hat redhatrelease2 key"
              }
            ]
          },
          {
            "Operator": "AND",
            "Criterias": [

            ],
            "Criterions": [
              {
                "Comment": "java-1.6.0-ibm-javacomm is earlier than 1:1.6.0.13.0-1jpp.3.el6_4"
              },
              {
                "Comment": "java-1.6.0-ibm-javacomm is signed with Red Hat redhatrelease2 key"
              }
            ]
          },
          {
            "Operator": "AND",
            "Criterias": [

            ],
            "Criterions": [
              {
                "Comment": "java-1.6.0-ibm-plugin is earlier than 1:1.6.0.13.0-1jpp.3.el6_4"
              },
              {
                "Comment": "java-1.6.0-ibm-plugin is signed with Red Hat redhatrelease2 key"
              }
            ]
          },
          {
            "Operator": "AND",
            "Criterias": [

            ],
            "Criterions": [
              {
                "Comment": "java-1.6.0-ibm-jdbc is earlier than 1:1.6.0.13.0-1jpp.3.el6_4"
              },
              {
                "Comment": "java-1.6.0-ibm-jdbc is signed with Red Hat redhatrelease2 key"
              }
            ]
          },
          {
            "Operator": "AND",
            "Criterias": [

            ],
            "Criterions": [
              {
                "Comment": "java-1.6.0-ibm is earlier than 1:1.6.0.13.0-1jpp.3.el6_4"
              },
              {
                "Comment": "java-1.6.0-ibm is signed with Red Hat redhatrelease2 key"
              }
            ]
          },
          {
            "Operator": "AND",
            "Criterias": [

            ],
            "Criterions": [
              {
                "Comment": "java-1.6.0-ibm-demo is earlier than 1:1.6.0.13.0-1jpp.3.el6_4"
              },
              {
                "Comment": "java-1.6.0-ibm-demo is signed with Red Hat redhatrelease2 key"
              }
            ]
          }
        ],
        "Criterions": [

        ]
      }
    ],
    "Criterions": [

    ]
  },
  "Severity": "Critical",
  "Cves": [
    {
      "Impact": "",
      "Href": "",
      "ID": "CVE-2012-1541"
    },
    {
      "Impact": "",
      "Href": "",
      "ID": "CVE-2012-3213"
    },
    {
      "Impact": "",
      "Href": "",
      "ID": "CVE-2012-3342"
    },
    {
      "Impact": "",
      "Href": "",
      "ID": "CVE-2012-5085"
    },
    {
      "Impact": "",
      "Href": "",
      "ID": "CVE-2013-0351"
    },
    {
      "Impact": "",
      "Href": "",
      "ID": "CVE-2013-0409"
    },
    {
      "Impact": "",
      "Href": "",
      "ID": "CVE-2013-0419"
    },
    {
      "Impact": "",
      "Href": "",
      "ID": "CVE-2013-0423"
    },
    {
      "Impact": "",
      "Href": "",
      "ID": "CVE-2013-0424"
    },
    {
      "Impact": "",
      "Href": "",
      "ID": "CVE-2013-0425"
    },
    {
      "Impact": "",
      "Href": "",
      "ID": "CVE-2013-0426"
    },
    {
      "Impact": "",
      "Href": "",
      "ID": "CVE-2013-0427"
    },
    {
      "Impact": "",
      "Href": "",
      "ID": "CVE-2013-0428"
    },
    {
      "Impact": "",
      "Href": "",
      "ID": "CVE-2013-0432"
    },
    {
      "Impact": "",
      "Href": "",
      "ID": "CVE-2013-0433"
    },
    {
      "Impact": "",
      "Href": "",
      "ID": "CVE-2013-0434"
    },
    {
      "Impact": "",
      "Href": "",
      "ID": "CVE-2013-0435"
    },
    {
      "Impact": "",
      "Href": "",
      "ID": "CVE-2013-0438"
    },
    {
      "Impact": "",
      "Href": "",
      "ID": "CVE-2013-0440"
    },
    {
      "Impact": "",
      "Href": "",
      "ID": "CVE-2013-0441"
    },
    {
      "Impact": "",
      "Href": "",
      "ID": "CVE-2013-0442"
    },
    {
      "Impact": "",
      "Href": "",
      "ID": "CVE-2013-0443"
    },
    {
      "Impact": "",
      "Href": "",
      "ID": "CVE-2013-0445"
    },
    {
      "Impact": "",
      "Href": "",
      "ID": "CVE-2013-0446"
    },
    {
      "Impact": "",
      "Href": "",
      "ID": "CVE-2013-0450"
    },
    {
      "Impact": "",
      "Href": "",
      "ID": "CVE-2013-0809"
    },
    {
      "Impact": "",
      "Href": "",
      "ID": "CVE-2013-1473"
    },
    {
      "Impact": "",
      "Href": "",
      "ID": "CVE-2013-1476"
    },
    {
      "Impact": "",
      "Href": "",
      "ID": "CVE-2013-1478"
    },
    {
      "Impact": "",
      "Href": "",
      "ID": "CVE-2013-1480"
    },
    {
      "Impact": "",
      "Href": "",
      "ID": "CVE-2013-1481"
    },
    {
      "Impact": "",
      "Href": "",
      "ID": "CVE-2013-1486"
    },
    {
      "Impact": "",
      "Href": "",
      "ID": "CVE-2013-1487"
    },
    {
      "Impact": "",
      "Href": "",
      "ID": "CVE-2013-1493"
    }
  ],
  "Issued": {
    "Date": "2013-03-11"
  }
}