{
  "Title": "RHSA-2013:1507: java-1.7.0-ibm security update (Critical)",
  "Description": "IBM Java SE version 7 includes the IBM Java Runtime Environment and the IBM\nJava Software Development Kit.\nThis update fixes several vulnerabilities in the IBM Java Runtime\nEnvironment and the IBM Java Software Development Kit. Detailed\nvulnerability descriptions are linked from the IBM Security alerts page,\nlisted in the References section. (CVE-2013-3829, CVE-2013-4041,\nCVE-2013-5372, CVE-2013-5375, CVE-2013-5456, CVE-2013-5457, CVE-2013-5458,\nCVE-2013-5772, CVE-2013-5774, CVE-2013-5776, CVE-2013-5778, CVE-2013-5780,\nCVE-2013-5782, CVE-2013-5783, CVE-2013-5784, CVE-2013-5787, CVE-2013-5788,\nCVE-2013-5789, CVE-2013-5790, CVE-2013-5797, CVE-2013-5800, CVE-2013-5801,\nCVE-2013-5802, CVE-2013-5803, CVE-2013-5804, CVE-2013-5809, CVE-2013-5812,\nCVE-2013-5814, CVE-2013-5817, CVE-2013-5818, CVE-2013-5819, CVE-2013-5820,\nCVE-2013-5823, CVE-2013-5824, CVE-2013-5825, CVE-2013-5829, CVE-2013-5830,\nCVE-2013-5831, CVE-2013-5832, CVE-2013-5838, CVE-2013-5840, CVE-2013-5842,\nCVE-2013-5843, CVE-2013-5848, CVE-2013-5849, CVE-2013-5850, CVE-2013-5851)\nAll users of java-1.7.0-ibm are advised to upgrade to these updated\npackages, containing the IBM Java SE 7 SR6 release. All running\ninstances of IBM Java must be restarted for the update to take effect.",
  "Platform": [
    "Supplementary for Red Hat Enterprise Linux 6"
  ],
  "References": [
    {
      "Source": "RHSA",
      "URI": "https://rhn.redhat.com/errata/RHSA-2013-1507.html",
      "ID": "RHSA-2013:1507-01"
    },
    {
      "Source": "CVE",
      "URI": "https://www.redhat.com/security/data/cve/CVE-2013-3829.html",
      "ID": "CVE-2013-3829"
    },
    {
      "Source": "CVE",
      "URI": "https://www.redhat.com/security/data/cve/CVE-2013-4041.html",
      "ID": "CVE-2013-4041"
    },
    {
      "Source": "CVE",
      "URI": "https://www.redhat.com/security/data/cve/CVE-2013-5372.html",
      "ID": "CVE-2013-5372"
    },
    {
      "Source": "CVE",
      "URI": "https://www.redhat.com/security/data/cve/CVE-2013-5375.html",
      "ID": "CVE-2013-5375"
    },
    {
      "Source": "CVE",
      "URI": "https://www.redhat.com/security/data/cve/CVE-2013-5456.html",
      "ID": "CVE-2013-5456"
    },
    {
      "Source": "CVE",
      "URI": "https://www.redhat.com/security/data/cve/CVE-2013-5457.html",
      "ID": "CVE-2013-5457"
    },
    {
      "Source": "CVE",
      "URI": "https://www.redhat.com/security/data/cve/CVE-2013-5458.html",
      "ID": "CVE-2013-5458"
    },
    {
      "Source": "CVE",
      "URI": "https://www.redhat.com/security/data/cve/CVE-2013-5772.html",
      "ID": "CVE-2013-5772"
    },
    {
      "Source": "CVE",
      "URI": "https://www.redhat.com/security/data/cve/CVE-2013-5774.html",
      "ID": "CVE-2013-5774"
    },
    {
      "Source": "CVE",
      "URI": "https://www.redhat.com/security/data/cve/CVE-2013-5776.html",
      "ID": "CVE-2013-5776"
    },
    {
      "Source": "CVE",
      "URI": "https://www.redhat.com/security/data/cve/CVE-2013-5778.html",
      "ID": "CVE-2013-5778"
    },
    {
      "Source": "CVE",
      "URI": "https://www.redhat.com/security/data/cve/CVE-2013-5780.html",
      "ID": "CVE-2013-5780"
    },
    {
      "Source": "CVE",
      "URI": "https://www.redhat.com/security/data/cve/CVE-2013-5782.html",
      "ID": "CVE-2013-5782"
    },
    {
      "Source": "CVE",
      "URI": "https://www.redhat.com/security/data/cve/CVE-2013-5783.html",
      "ID": "CVE-2013-5783"
    },
    {
      "Source": "CVE",
      "URI": "https://www.redhat.com/security/data/cve/CVE-2013-5784.html",
      "ID": "CVE-2013-5784"
    },
    {
      "Source": "CVE",
      "URI": "https://www.redhat.com/security/data/cve/CVE-2013-5787.html",
      "ID": "CVE-2013-5787"
    },
    {
      "Source": "CVE",
      "URI": "https://www.redhat.com/security/data/cve/CVE-2013-5788.html",
      "ID": "CVE-2013-5788"
    },
    {
      "Source": "CVE",
      "URI": "https://www.redhat.com/security/data/cve/CVE-2013-5789.html",
      "ID": "CVE-2013-5789"
    },
    {
      "Source": "CVE",
      "URI": "https://www.redhat.com/security/data/cve/CVE-2013-5790.html",
      "ID": "CVE-2013-5790"
    },
    {
      "Source": "CVE",
      "URI": "https://www.redhat.com/security/data/cve/CVE-2013-5797.html",
      "ID": "CVE-2013-5797"
    },
    {
      "Source": "CVE",
      "URI": "https://www.redhat.com/security/data/cve/CVE-2013-5800.html",
      "ID": "CVE-2013-5800"
    },
    {
      "Source": "CVE",
      "URI": "https://www.redhat.com/security/data/cve/CVE-2013-5801.html",
      "ID": "CVE-2013-5801"
    },
    {
      "Source": "CVE",
      "URI": "https://www.redhat.com/security/data/cve/CVE-2013-5802.html",
      "ID": "CVE-2013-5802"
    },
    {
      "Source": "CVE",
      "URI": "https://www.redhat.com/security/data/cve/CVE-2013-5803.html",
      "ID": "CVE-2013-5803"
    },
    {
      "Source": "CVE",
      "URI": "https://www.redhat.com/security/data/cve/CVE-2013-5804.html",
      "ID": "CVE-2013-5804"
    },
    {
      "Source": "CVE",
      "URI": "https://www.redhat.com/security/data/cve/CVE-2013-5809.html",
      "ID": "CVE-2013-5809"
    },
    {
      "Source": "CVE",
      "URI": "https://www.redhat.com/security/data/cve/CVE-2013-5812.html",
      "ID": "CVE-2013-5812"
    },
    {
      "Source": "CVE",
      "URI": "https://www.redhat.com/security/data/cve/CVE-2013-5814.html",
      "ID": "CVE-2013-5814"
    },
    {
      "Source": "CVE",
      "URI": "https://www.redhat.com/security/data/cve/CVE-2013-5817.html",
      "ID": "CVE-2013-5817"
    },
    {
      "Source": "CVE",
      "URI": "https://www.redhat.com/security/data/cve/CVE-2013-5818.html",
      "ID": "CVE-2013-5818"
    },
    {
      "Source": "CVE",
      "URI": "https://www.redhat.com/security/data/cve/CVE-2013-5819.html",
      "ID": "CVE-2013-5819"
    },
    {
      "Source": "CVE",
      "URI": "https://www.redhat.com/security/data/cve/CVE-2013-5820.html",
      "ID": "CVE-2013-5820"
    },
    {
      "Source": "CVE",
      "URI": "https://www.redhat.com/security/data/cve/CVE-2013-5823.html",
      "ID": "CVE-2013-5823"
    },
    {
      "Source": "CVE",
      "URI": "https://www.redhat.com/security/data/cve/CVE-2013-5824.html",
      "ID": "CVE-2013-5824"
    },
    {
      "Source": "CVE",
      "URI": "https://www.redhat.com/security/data/cve/CVE-2013-5825.html",
      "ID": "CVE-2013-5825"
    },
    {
      "Source": "CVE",
      "URI": "https://www.redhat.com/security/data/cve/CVE-2013-5829.html",
      "ID": "CVE-2013-5829"
    },
    {
      "Source": "CVE",
      "URI": "https://www.redhat.com/security/data/cve/CVE-2013-5830.html",
      "ID": "CVE-2013-5830"
    },
    {
      "Source": "CVE",
      "URI": "https://www.redhat.com/security/data/cve/CVE-2013-5831.html",
      "ID": "CVE-2013-5831"
    },
    {
      "Source": "CVE",
      "URI": "https://www.redhat.com/security/data/cve/CVE-2013-5832.html",
      "ID": "CVE-2013-5832"
    },
    {
      "Source": "CVE",
      "URI": "https://www.redhat.com/security/data/cve/CVE-2013-5838.html",
      "ID": "CVE-2013-5838"
    },
    {
      "Source": "CVE",
      "URI": "https://www.redhat.com/security/data/cve/CVE-2013-5840.html",
      "ID": "CVE-2013-5840"
    },
    {
      "Source": "CVE",
      "URI": "https://www.redhat.com/security/data/cve/CVE-2013-5842.html",
      "ID": "CVE-2013-5842"
    },
    {
      "Source": "CVE",
      "URI": "https://www.redhat.com/security/data/cve/CVE-2013-5843.html",
      "ID": "CVE-2013-5843"
    },
    {
      "Source": "CVE",
      "URI": "https://www.redhat.com/security/data/cve/CVE-2013-5848.html",
      "ID": "CVE-2013-5848"
    },
    {
      "Source": "CVE",
      "URI": "https://www.redhat.com/security/data/cve/CVE-2013-5849.html",
      "ID": "CVE-2013-5849"
    },
    {
      "Source": "CVE",
      "URI": "https://www.redhat.com/security/data/cve/CVE-2013-5850.html",
      "ID": "CVE-2013-5850"
    },
    {
      "Source": "CVE",
      "URI": "https://www.redhat.com/security/data/cve/CVE-2013-5851.html",
      "ID": "CVE-2013-5851"
    }
  ],
  "Criteria": {
    "Operator": "AND",
    "Criterias": [
      {
        "Operator": "OR",
        "Criterias": [

        ],
        "Criterions": [
          {
            "Comment": "Oracle Linux 6 Client is installed"
          },
          {
            "Comment": "Oracle Linux 6 Server is installed"
          },
          {
            "Comment": "Oracle Linux 6 Workstation is installed"
          },
          {
            "Comment": "Oracle Linux 6 ComputeNode is installed"
          }
        ]
      },
      {
        "Operator": "OR",
        "Criterias": [
          {
            "Operator": "AND",
            "Criterias": [

            ],
            "Criterions": [
              {
                "Comment": "java-1.7.0-ibm-devel is earlier than 1:1.7.0.6.0-1jpp.1.el6_4"
              },
              {
                "Comment": "java-1.7.0-ibm-devel is signed with Red Hat redhatrelease2 key"
              }
            ]
          },
          {
            "Operator": "AND",
            "Criterias": [

            ],
            "Criterions": [
              {
                "Comment": "java-1.7.0-ibm is earlier than 1:1.7.0.6.0-1jpp.1.el6_4"
              },
              {
                "Comment": "java-1.7.0-ibm is signed with Red Hat redhatrelease2 key"
              }
            ]
          },
          {
            "Operator": "AND",
            "Criterias": [

            ],
            "Criterions": [
              {
                "Comment": "java-1.7.0-ibm-demo is earlier than 1:1.7.0.6.0-1jpp.1.el6_4"
              },
              {
                "Comment": "java-1.7.0-ibm-demo is signed with Red Hat redhatrelease2 key"
              }
            ]
          },
          {
            "Operator": "AND",
            "Criterias": [

            ],
            "Criterions": [
              {
                "Comment": "java-1.7.0-ibm-plugin is earlier than 1:1.7.0.6.0-1jpp.1.el6_4"
              },
              {
                "Comment": "java-1.7.0-ibm-plugin is signed with Red Hat redhatrelease2 key"
              }
            ]
          },
          {
            "Operator": "AND",
            "Criterias": [

            ],
            "Criterions": [
              {
                "Comment": "java-1.7.0-ibm-jdbc is earlier than 1:1.7.0.6.0-1jpp.1.el6_4"
              },
              {
                "Comment": "java-1.7.0-ibm-jdbc is signed with Red Hat redhatrelease2 key"
              }
            ]
          },
          {
            "Operator": "AND",
            "Criterias": [

            ],
            "Criterions": [
              {
                "Comment": "java-1.7.0-ibm-src is earlier than 1:1.7.0.6.0-1jpp.1.el6_4"
              },
              {
                "Comment": "java-1.7.0-ibm-src is signed with Red Hat redhatrelease2 key"
              }
            ]
          }
        ],
        "Criterions": [

        ]
      }
    ],
    "Criterions": [

    ]
  },
  "Severity": "Critical",
  "Cves": [
    {
      "Impact": "",
      "Href": "",
      "ID": "CVE-2013-3829"
    },
    {
      "Impact": "",
      "Href": "",
      "ID": "CVE-2013-4041"
    },
    {
      "Impact": "",
      "Href": "",
      "ID": "CVE-2013-5372"
    },
    {
      "Impact": "",
      "Href": "",
      "ID": "CVE-2013-5375"
    },
    {
      "Impact": "",
      "Href": "",
      "ID": "CVE-2013-5456"
    },
    {
      "Impact": "",
      "Href": "",
      "ID": "CVE-2013-5457"
    },
    {
      "Impact": "",
      "Href": "",
      "ID": "CVE-2013-5458"
    },
    {
      "Impact": "",
      "Href": "",
      "ID": "CVE-2013-5772"
    },
    {
      "Impact": "",
      "Href": "",
      "ID": "CVE-2013-5774"
    },
    {
      "Impact": "",
      "Href": "",
      "ID": "CVE-2013-5776"
    },
    {
      "Impact": "",
      "Href": "",
      "ID": "CVE-2013-5778"
    },
    {
      "Impact": "",
      "Href": "",
      "ID": "CVE-2013-5780"
    },
    {
      "Impact": "",
      "Href": "",
      "ID": "CVE-2013-5782"
    },
    {
      "Impact": "",
      "Href": "",
      "ID": "CVE-2013-5783"
    },
    {
      "Impact": "",
      "Href": "",
      "ID": "CVE-2013-5784"
    },
    {
      "Impact": "",
      "Href": "",
      "ID": "CVE-2013-5787"
    },
    {
      "Impact": "",
      "Href": "",
      "ID": "CVE-2013-5788"
    },
    {
      "Impact": "",
      "Href": "",
      "ID": "CVE-2013-5789"
    },
    {
      "Impact": "",
      "Href": "",
      "ID": "CVE-2013-5790"
    },
    {
      "Impact": "",
      "Href": "",
      "ID": "CVE-2013-5797"
    },
    {
      "Impact": "",
      "Href": "",
      "ID": "CVE-2013-5800"
    },
    {
      "Impact": "",
      "Href": "",
      "ID": "CVE-2013-5801"
    },
    {
      "Impact": "",
      "Href": "",
      "ID": "CVE-2013-5802"
    },
    {
      "Impact": "",
      "Href": "",
      "ID": "CVE-2013-5803"
    },
    {
      "Impact": "",
      "Href": "",
      "ID": "CVE-2013-5804"
    },
    {
      "Impact": "",
      "Href": "",
      "ID": "CVE-2013-5809"
    },
    {
      "Impact": "",
      "Href": "",
      "ID": "CVE-2013-5812"
    },
    {
      "Impact": "",
      "Href": "",
      "ID": "CVE-2013-5814"
    },
    {
      "Impact": "",
      "Href": "",
      "ID": "CVE-2013-5817"
    },
    {
      "Impact": "",
      "Href": "",
      "ID": "CVE-2013-5818"
    },
    {
      "Impact": "",
      "Href": "",
      "ID": "CVE-2013-5819"
    },
    {
      "Impact": "",
      "Href": "",
      "ID": "CVE-2013-5820"
    },
    {
      "Impact": "",
      "Href": "",
      "ID": "CVE-2013-5823"
    },
    {
      "Impact": "",
      "Href": "",
      "ID": "CVE-2013-5824"
    },
    {
      "Impact": "",
      "Href": "",
      "ID": "CVE-2013-5825"
    },
    {
      "Impact": "",
      "Href": "",
      "ID": "CVE-2013-5829"
    },
    {
      "Impact": "",
      "Href": "",
      "ID": "CVE-2013-5830"
    },
    {
      "Impact": "",
      "Href": "",
      "ID": "CVE-2013-5831"
    },
    {
      "Impact": "",
      "Href": "",
      "ID": "CVE-2013-5832"
    },
    {
      "Impact": "",
      "Href": "",
      "ID": "CVE-2013-5838"
    },
    {
      "Impact": "",
      "Href": "",
      "ID": "CVE-2013-5840"
    },
    {
      "Impact": "",
      "Href": "",
      "ID": "CVE-2013-5842"
    },
    {
      "Impact": "",
      "Href": "",
      "ID": "CVE-2013-5843"
    },
    {
      "Impact": "",
      "Href": "",
      "ID": "CVE-2013-5848"
    },
    {
      "Impact": "",
      "Href": "",
      "ID": "CVE-2013-5849"
    },
    {
      "Impact": "",
      "Href": "",
      "ID": "CVE-2013-5850"
    },
    {
      "Impact": "",
      "Href": "",
      "ID": "CVE-2013-5851"
    }
  ],
  "Issued": {
    "Date": "2013-11-07"
  }
}