{
  "Title": "RHSA-2013:0599: xen security update (Important)",
  "Description": "The xen packages contain administration tools and the xend service for\nmanaging the kernel-xen kernel for virtualization on Red Hat Enterprise\nLinux.\nA flaw was found in the way QEMU emulated the e1000 network interface card\nwhen the host was configured to accept jumbo network frames, and a\nfully-virtualized guest using the e1000 emulated driver was not. A remote\nattacker could use this flaw to crash the guest or, potentially, execute\narbitrary code with root privileges in the guest. (CVE-2012-6075)\nAll users of xen are advised to upgrade to these updated packages, which\ncorrect this issue. After installing the updated packages, all running\nfully-virtualized guests must be restarted for this update to take effect.",
  "Platform": [
    "Red Hat Enterprise Linux 5"
  ],
  "References": [
    {
      "Source": "RHSA",
      "URI": "https://access.redhat.com/errata/RHSA-2013:0599",
      "ID": "RHSA-2013:0599"
    },
    {
      "Source": "CVE",
      "URI": "https://access.redhat.com/security/cve/CVE-2012-6075",
      "ID": "CVE-2012-6075"
    }
  ],
  "Criteria": {
    "Operator": "OR",
    "Criterias": [
      {
        "Operator": "AND",
        "Criterias": [
          {
            "Operator": "OR",
            "Criterias": [
              {
                "Operator": "AND",
                "Criterias": [

                ],
                "Criterions": [
                  {
                    "Comment": "xen is earlier than 0:3.0.3-142.el5_9.2"
                  },
                  {
                    "Comment": "xen is signed with Red Hat redhatrelease2 key"
                  }
                ]
              },
              {
                "Operator": "AND",
                "Criterias": [

                ],
                "Criterions": [
                  {
                    "Comment": "xen-devel is earlier than 0:3.0.3-142.el5_9.2"
                  },
                  {
                    "Comment": "xen-devel is signed with Red Hat redhatrelease2 key"
                  }
                ]
              },
              {
                "Operator": "AND",
                "Criterias": [

                ],
                "Criterions": [
                  {
                    "Comment": "xen-libs is earlier than 0:3.0.3-142.el5_9.2"
                  },
                  {
                    "Comment": "xen-libs is signed with Red Hat redhatrelease2 key"
                  }
                ]
              }
            ],
            "Criterions": [

            ]
          }
        ],
        "Criterions": [
          {
            "Comment": "Oracle Linux 5 is installed"
          }
        ]
      }
    ],
    "Criterions": [
      {
        "Comment": "Oracle Linux 5 is installed"
      }
    ]
  },
  "Severity": "Important",
  "Cves": [
    {
      "Impact": "",
      "Href": "",
      "ID": "CVE-2012-6075"
    }
  ],
  "Issued": {
    "Date": "2013-03-06"
  }
}