{
  "Title": "RHSA-2013:0612: ruby security update (Moderate)",
  "Description": "Ruby is an extensible, interpreted, object-oriented, scripting language. It\nhas features to process text files and to do system management tasks.\nIt was discovered that Ruby's REXML library did not properly restrict XML\nentity expansion. An attacker could use this flaw to cause a denial of\nservice by tricking a Ruby application using REXML to read text nodes from\nspecially-crafted XML content, which will result in REXML consuming large\namounts of system memory. (CVE-2013-1821)\nIt was found that the RHSA-2011:0910 update did not correctly fix the\nCVE-2011-1005 issue, a flaw in the method for translating an exception\nmessage into a string in the Exception class. A remote attacker could use\nthis flaw to bypass safe level 4 restrictions, allowing untrusted (tainted)\ncode to modify arbitrary, trusted (untainted) strings, which safe level 4\nrestrictions would otherwise prevent. (CVE-2012-4481)\nThe CVE-2012-4481 issue was discovered by Vit Ondruch of Red Hat.\nAll users of Ruby are advised to upgrade to these updated packages, which\ncontain backported patches to resolve these issues.",
  "Platform": [
    "Red Hat Enterprise Linux 6"
  ],
  "References": [
    {
      "Source": "RHSA",
      "URI": "https://access.redhat.com/errata/RHSA-2013:0612",
      "ID": "RHSA-2013:0612"
    },
    {
      "Source": "CVE",
      "URI": "https://access.redhat.com/security/cve/CVE-2012-4481",
      "ID": "CVE-2012-4481"
    },
    {
      "Source": "CVE",
      "URI": "https://access.redhat.com/security/cve/CVE-2013-1821",
      "ID": "CVE-2013-1821"
    }
  ],
  "Criteria": {
    "Operator": "OR",
    "Criterias": [
      {
        "Operator": "AND",
        "Criterias": [
          {
            "Operator": "OR",
            "Criterias": [
              {
                "Operator": "AND",
                "Criterias": [

                ],
                "Criterions": [
                  {
                    "Comment": "ruby is earlier than 0:1.8.7.352-10.el6_4"
                  },
                  {
                    "Comment": "ruby is signed with Red Hat redhatrelease2 key"
                  }
                ]
              },
              {
                "Operator": "AND",
                "Criterias": [

                ],
                "Criterions": [
                  {
                    "Comment": "ruby-devel is earlier than 0:1.8.7.352-10.el6_4"
                  },
                  {
                    "Comment": "ruby-devel is signed with Red Hat redhatrelease2 key"
                  }
                ]
              },
              {
                "Operator": "AND",
                "Criterias": [

                ],
                "Criterions": [
                  {
                    "Comment": "ruby-docs is earlier than 0:1.8.7.352-10.el6_4"
                  },
                  {
                    "Comment": "ruby-docs is signed with Red Hat redhatrelease2 key"
                  }
                ]
              },
              {
                "Operator": "AND",
                "Criterias": [

                ],
                "Criterions": [
                  {
                    "Comment": "ruby-irb is earlier than 0:1.8.7.352-10.el6_4"
                  },
                  {
                    "Comment": "ruby-irb is signed with Red Hat redhatrelease2 key"
                  }
                ]
              },
              {
                "Operator": "AND",
                "Criterias": [

                ],
                "Criterions": [
                  {
                    "Comment": "ruby-libs is earlier than 0:1.8.7.352-10.el6_4"
                  },
                  {
                    "Comment": "ruby-libs is signed with Red Hat redhatrelease2 key"
                  }
                ]
              },
              {
                "Operator": "AND",
                "Criterias": [

                ],
                "Criterions": [
                  {
                    "Comment": "ruby-rdoc is earlier than 0:1.8.7.352-10.el6_4"
                  },
                  {
                    "Comment": "ruby-rdoc is signed with Red Hat redhatrelease2 key"
                  }
                ]
              },
              {
                "Operator": "AND",
                "Criterias": [

                ],
                "Criterions": [
                  {
                    "Comment": "ruby-ri is earlier than 0:1.8.7.352-10.el6_4"
                  },
                  {
                    "Comment": "ruby-ri is signed with Red Hat redhatrelease2 key"
                  }
                ]
              },
              {
                "Operator": "AND",
                "Criterias": [

                ],
                "Criterions": [
                  {
                    "Comment": "ruby-static is earlier than 0:1.8.7.352-10.el6_4"
                  },
                  {
                    "Comment": "ruby-static is signed with Red Hat redhatrelease2 key"
                  }
                ]
              },
              {
                "Operator": "AND",
                "Criterias": [

                ],
                "Criterions": [
                  {
                    "Comment": "ruby-tcltk is earlier than 0:1.8.7.352-10.el6_4"
                  },
                  {
                    "Comment": "ruby-tcltk is signed with Red Hat redhatrelease2 key"
                  }
                ]
              }
            ],
            "Criterions": [

            ]
          }
        ],
        "Criterions": [
          {
            "Comment": "Oracle Linux 6 is installed"
          }
        ]
      }
    ],
    "Criterions": [
      {
        "Comment": "Oracle Linux 6 is installed"
      }
    ]
  },
  "Severity": "Moderate",
  "Cves": [
    {
      "Impact": "",
      "Href": "",
      "ID": "CVE-2012-4481"
    },
    {
      "Impact": "",
      "Href": "",
      "ID": "CVE-2013-1821"
    }
  ],
  "Issued": {
    "Date": "2013-03-07"
  }
}