{
  "Title": "RHSA-2013:1804: libjpeg security update (Moderate)",
  "Description": "The libjpeg package contains a library of functions for manipulating JPEG\nimages. It also contains simple client programs for accessing the\nlibjpeg functions.\nAn uninitialized memory read issue was found in the way libjpeg decoded\nimages with missing Start Of Scan (SOS) JPEG markers. A remote attacker\ncould create a specially crafted JPEG image that, when decoded, could\npossibly lead to a disclosure of potentially sensitive information.\n(CVE-2013-6629)\nAll libjpeg users are advised to upgrade to this updated package, which\ncontains a backported patch to correct this issue.",
  "Platform": [
    "Red Hat Enterprise Linux 5"
  ],
  "References": [
    {
      "Source": "RHSA",
      "URI": "https://access.redhat.com/errata/RHSA-2013:1804",
      "ID": "RHSA-2013:1804"
    },
    {
      "Source": "CVE",
      "URI": "https://access.redhat.com/security/cve/CVE-2013-6629",
      "ID": "CVE-2013-6629"
    }
  ],
  "Criteria": {
    "Operator": "OR",
    "Criterias": [
      {
        "Operator": "AND",
        "Criterias": [
          {
            "Operator": "OR",
            "Criterias": [
              {
                "Operator": "AND",
                "Criterias": [

                ],
                "Criterions": [
                  {
                    "Comment": "libjpeg is earlier than 0:6b-38"
                  },
                  {
                    "Comment": "libjpeg is signed with Red Hat redhatrelease2 key"
                  }
                ]
              },
              {
                "Operator": "AND",
                "Criterias": [

                ],
                "Criterions": [
                  {
                    "Comment": "libjpeg-devel is earlier than 0:6b-38"
                  },
                  {
                    "Comment": "libjpeg-devel is signed with Red Hat redhatrelease2 key"
                  }
                ]
              }
            ],
            "Criterions": [

            ]
          }
        ],
        "Criterions": [
          {
            "Comment": "Oracle Linux 5 is installed"
          }
        ]
      }
    ],
    "Criterions": [
      {
        "Comment": "Oracle Linux 5 is installed"
      }
    ]
  },
  "Severity": "Moderate",
  "Cves": [
    {
      "Impact": "",
      "Href": "",
      "ID": "CVE-2013-6629"
    }
  ],
  "Issued": {
    "Date": "2013-12-09"
  }
}