{
  "Title": "RHSA-2013:1268: firefox security update (Critical)",
  "Description": "Mozilla Firefox is an open source web browser. XULRunner provides the XUL\nRuntime environment for Mozilla Firefox.\nSeveral flaws were found in the processing of malformed web content. A\nweb page containing malicious content could cause Firefox to crash or,\npotentially, execute arbitrary code with the privileges of the user running\nFirefox. (CVE-2013-1718, CVE-2013-1722, CVE-2013-1725, CVE-2013-1730,\nCVE-2013-1732, CVE-2013-1735, CVE-2013-1736)\nA flaw was found in the way Firefox handled certain DOM JavaScript objects.\nAn attacker could use this flaw to make JavaScript client or add-on code\nmake incorrect, security sensitive decisions. (CVE-2013-1737)\nRed Hat would like to thank the Mozilla project for reporting these\nissues. Upstream acknowledges André Bargull, Scoobidiver, Bobby Holley,\nReuben Morais, Abhishek Arya, Ms2ger, Sachin Shinde, Aki Helin, Nils, and\nBoris Zbarsky as the original reporters of these issues.\nFor technical details regarding these flaws, refer to the Mozilla security\nadvisories for Firefox 17.0.9 ESR. You can find a link to the Mozilla\nadvisories in the References section of this erratum.\nAll Firefox users should upgrade to these updated packages, which contain\nFirefox version 17.0.9 ESR, which corrects these issues. After installing\nthe update, Firefox must be restarted for the changes to take effect.",
  "Platform": [
    "Red Hat Enterprise Linux 5",
    "Red Hat Enterprise Linux 6"
  ],
  "References": [
    {
      "Source": "RHSA",
      "URI": "https://access.redhat.com/errata/RHSA-2013:1268",
      "ID": "RHSA-2013:1268"
    },
    {
      "Source": "CVE",
      "URI": "https://access.redhat.com/security/cve/CVE-2013-1718",
      "ID": "CVE-2013-1718"
    },
    {
      "Source": "CVE",
      "URI": "https://access.redhat.com/security/cve/CVE-2013-1722",
      "ID": "CVE-2013-1722"
    },
    {
      "Source": "CVE",
      "URI": "https://access.redhat.com/security/cve/CVE-2013-1725",
      "ID": "CVE-2013-1725"
    },
    {
      "Source": "CVE",
      "URI": "https://access.redhat.com/security/cve/CVE-2013-1730",
      "ID": "CVE-2013-1730"
    },
    {
      "Source": "CVE",
      "URI": "https://access.redhat.com/security/cve/CVE-2013-1732",
      "ID": "CVE-2013-1732"
    },
    {
      "Source": "CVE",
      "URI": "https://access.redhat.com/security/cve/CVE-2013-1735",
      "ID": "CVE-2013-1735"
    },
    {
      "Source": "CVE",
      "URI": "https://access.redhat.com/security/cve/CVE-2013-1736",
      "ID": "CVE-2013-1736"
    },
    {
      "Source": "CVE",
      "URI": "https://access.redhat.com/security/cve/CVE-2013-1737",
      "ID": "CVE-2013-1737"
    }
  ],
  "Criteria": {
    "Operator": "OR",
    "Criterias": [
      {
        "Operator": "AND",
        "Criterias": [
          {
            "Operator": "OR",
            "Criterias": [
              {
                "Operator": "AND",
                "Criterias": [

                ],
                "Criterions": [
                  {
                    "Comment": "xulrunner is earlier than 0:17.0.9-1.el5_9"
                  },
                  {
                    "Comment": "xulrunner is signed with Red Hat redhatrelease2 key"
                  }
                ]
              },
              {
                "Operator": "AND",
                "Criterias": [

                ],
                "Criterions": [
                  {
                    "Comment": "xulrunner-devel is earlier than 0:17.0.9-1.el5_9"
                  },
                  {
                    "Comment": "xulrunner-devel is signed with Red Hat redhatrelease2 key"
                  }
                ]
              },
              {
                "Operator": "AND",
                "Criterias": [

                ],
                "Criterions": [
                  {
                    "Comment": "firefox is earlier than 0:17.0.9-1.el5_9"
                  },
                  {
                    "Comment": "firefox is signed with Red Hat redhatrelease2 key"
                  }
                ]
              }
            ],
            "Criterions": [

            ]
          }
        ],
        "Criterions": [
          {
            "Comment": "Oracle Linux 5 is installed"
          }
        ]
      },
      {
        "Operator": "AND",
        "Criterias": [
          {
            "Operator": "OR",
            "Criterias": [
              {
                "Operator": "AND",
                "Criterias": [

                ],
                "Criterions": [
                  {
                    "Comment": "xulrunner is earlier than 0:17.0.9-1.el6_4"
                  },
                  {
                    "Comment": "xulrunner is signed with Red Hat redhatrelease2 key"
                  }
                ]
              },
              {
                "Operator": "AND",
                "Criterias": [

                ],
                "Criterions": [
                  {
                    "Comment": "xulrunner-devel is earlier than 0:17.0.9-1.el6_4"
                  },
                  {
                    "Comment": "xulrunner-devel is signed with Red Hat redhatrelease2 key"
                  }
                ]
              },
              {
                "Operator": "AND",
                "Criterias": [

                ],
                "Criterions": [
                  {
                    "Comment": "firefox is earlier than 0:17.0.9-1.el6_4"
                  },
                  {
                    "Comment": "firefox is signed with Red Hat redhatrelease2 key"
                  }
                ]
              }
            ],
            "Criterions": [

            ]
          }
        ],
        "Criterions": [
          {
            "Comment": "Oracle Linux 6 is installed"
          }
        ]
      }
    ],
    "Criterions": [
      {
        "Comment": "Oracle Linux 5 is installed"
      }
    ]
  },
  "Severity": "Critical",
  "Cves": [
    {
      "Impact": "",
      "Href": "",
      "ID": "CVE-2013-1718"
    },
    {
      "Impact": "",
      "Href": "",
      "ID": "CVE-2013-1722"
    },
    {
      "Impact": "",
      "Href": "",
      "ID": "CVE-2013-1725"
    },
    {
      "Impact": "",
      "Href": "",
      "ID": "CVE-2013-1730"
    },
    {
      "Impact": "",
      "Href": "",
      "ID": "CVE-2013-1732"
    },
    {
      "Impact": "",
      "Href": "",
      "ID": "CVE-2013-1735"
    },
    {
      "Impact": "",
      "Href": "",
      "ID": "CVE-2013-1736"
    },
    {
      "Impact": "",
      "Href": "",
      "ID": "CVE-2013-1737"
    }
  ],
  "Issued": {
    "Date": "2013-09-17"
  }
}