{
  "Title": "RHSA-2013:1182: 389-ds-base security update (Important)",
  "Description": "The 389 Directory Server is an LDAPv3 compliant server. The base packages\ninclude the Lightweight Directory Access Protocol (LDAP) server and\ncommand-line utilities for server administration.\nIt was discovered that the 389 Directory Server did not properly handle the\nreceipt of certain MOD operations with a bogus Distinguished Name (DN). A\nremote, unauthenticated attacker could use this flaw to cause the 389\nDirectory Server to crash. (CVE-2013-4283)\nAll 389-ds-base users are advised to upgrade to these updated packages,\nwhich contain a backported patch to correct this issue. After installing\nthis update, the 389 server service will be restarted automatically.",
  "Platform": [
    "Red Hat Enterprise Linux 6"
  ],
  "References": [
    {
      "Source": "RHSA",
      "URI": "https://access.redhat.com/errata/RHSA-2013:1182",
      "ID": "RHSA-2013:1182"
    },
    {
      "Source": "CVE",
      "URI": "https://access.redhat.com/security/cve/CVE-2013-4283",
      "ID": "CVE-2013-4283"
    }
  ],
  "Criteria": {
    "Operator": "OR",
    "Criterias": [
      {
        "Operator": "AND",
        "Criterias": [
          {
            "Operator": "OR",
            "Criterias": [
              {
                "Operator": "AND",
                "Criterias": [

                ],
                "Criterions": [
                  {
                    "Comment": "389-ds-base is earlier than 0:1.2.11.15-22.el6_4"
                  },
                  {
                    "Comment": "389-ds-base is signed with Red Hat redhatrelease2 key"
                  }
                ]
              },
              {
                "Operator": "AND",
                "Criterias": [

                ],
                "Criterions": [
                  {
                    "Comment": "389-ds-base-devel is earlier than 0:1.2.11.15-22.el6_4"
                  },
                  {
                    "Comment": "389-ds-base-devel is signed with Red Hat redhatrelease2 key"
                  }
                ]
              },
              {
                "Operator": "AND",
                "Criterias": [

                ],
                "Criterions": [
                  {
                    "Comment": "389-ds-base-libs is earlier than 0:1.2.11.15-22.el6_4"
                  },
                  {
                    "Comment": "389-ds-base-libs is signed with Red Hat redhatrelease2 key"
                  }
                ]
              }
            ],
            "Criterions": [

            ]
          }
        ],
        "Criterions": [
          {
            "Comment": "Oracle Linux 6 is installed"
          }
        ]
      }
    ],
    "Criterions": [
      {
        "Comment": "Oracle Linux 6 is installed"
      }
    ]
  },
  "Severity": "Important",
  "Cves": [
    {
      "Impact": "",
      "Href": "",
      "ID": "CVE-2013-4283"
    }
  ],
  "Issued": {
    "Date": "2013-08-28"
  }
}