{
  "Title": "RHSA-2013:0687: pixman security update (Moderate)",
  "Description": "Pixman is a pixel manipulation library for the X Window System and Cairo.\nAn integer overflow flaw was discovered in one of pixman's manipulation\nroutines. If a remote attacker could trick an application using pixman into\nperforming a certain manipulation, it could cause the application to crash\nor, possibly, execute arbitrary code with the privileges of the user\nrunning the application. (CVE-2013-1591)\nUsers are advised to upgrade to these updated packages, which contain\na backported patch to correct this issue. All applications using\npixman must be restarted for this update to take effect.",
  "Platform": [
    "Red Hat Enterprise Linux 6"
  ],
  "References": [
    {
      "Source": "RHSA",
      "URI": "https://access.redhat.com/errata/RHSA-2013:0687",
      "ID": "RHSA-2013:0687"
    },
    {
      "Source": "CVE",
      "URI": "https://access.redhat.com/security/cve/CVE-2013-1591",
      "ID": "CVE-2013-1591"
    }
  ],
  "Criteria": {
    "Operator": "OR",
    "Criterias": [
      {
        "Operator": "AND",
        "Criterias": [
          {
            "Operator": "OR",
            "Criterias": [
              {
                "Operator": "AND",
                "Criterias": [

                ],
                "Criterions": [
                  {
                    "Comment": "pixman is earlier than 0:0.26.2-5.el6_4"
                  },
                  {
                    "Comment": "pixman is signed with Red Hat redhatrelease2 key"
                  }
                ]
              },
              {
                "Operator": "AND",
                "Criterias": [

                ],
                "Criterions": [
                  {
                    "Comment": "pixman-devel is earlier than 0:0.26.2-5.el6_4"
                  },
                  {
                    "Comment": "pixman-devel is signed with Red Hat redhatrelease2 key"
                  }
                ]
              }
            ],
            "Criterions": [

            ]
          }
        ],
        "Criterions": [
          {
            "Comment": "Oracle Linux 6 is installed"
          }
        ]
      }
    ],
    "Criterions": [
      {
        "Comment": "Oracle Linux 6 is installed"
      }
    ]
  },
  "Severity": "Moderate",
  "Cves": [
    {
      "Impact": "",
      "Href": "",
      "ID": "CVE-2013-1591"
    }
  ],
  "Issued": {
    "Date": "2013-03-27"
  }
}