{
  "Title": "RHSA-2013:0574: flash-plugin security update (Critical)",
  "Description": "The flash-plugin package contains a Mozilla Firefox compatible Adobe Flash\nPlayer web browser plug-in.\nThis update fixes two vulnerabilities in Adobe Flash Player. These\nvulnerabilities are detailed in the Adobe Security bulletin APSB13-08,\nlisted in the References section. Specially-crafted SWF content could cause\nflash-plugin to crash or, potentially, execute arbitrary code when a victim\nloads a page containing the malicious SWF content. (CVE-2013-0504,\nCVE-2013-0648)\nThis update also fixes a permissions issue with the Adobe Flash Player\nFirefox sandbox. (CVE-2013-0643)\nAll users of Adobe Flash Player should install this updated package, which\nupgrades Flash Player to version 11.2.202.273.",
  "Platform": [
    "Supplementary for Red Hat Enterprise Linux 6"
  ],
  "References": [
    {
      "Source": "RHSA",
      "URI": "https://rhn.redhat.com/errata/RHSA-2013-0574.html",
      "ID": "RHSA-2013:0574-02"
    },
    {
      "Source": "CVE",
      "URI": "https://www.redhat.com/security/data/cve/CVE-2013-0504.html",
      "ID": "CVE-2013-0504"
    },
    {
      "Source": "CVE",
      "URI": "https://www.redhat.com/security/data/cve/CVE-2013-0643.html",
      "ID": "CVE-2013-0643"
    },
    {
      "Source": "CVE",
      "URI": "https://www.redhat.com/security/data/cve/CVE-2013-0648.html",
      "ID": "CVE-2013-0648"
    }
  ],
  "Criteria": {
    "Operator": "AND",
    "Criterias": [
      {
        "Operator": "OR",
        "Criterias": [

        ],
        "Criterions": [
          {
            "Comment": "Oracle Linux 6 Client is installed"
          },
          {
            "Comment": "Oracle Linux 6 Server is installed"
          },
          {
            "Comment": "Oracle Linux 6 Workstation is installed"
          },
          {
            "Comment": "Oracle Linux 6 ComputeNode is installed"
          }
        ]
      }
    ],
    "Criterions": [
      {
        "Comment": "flash-plugin is earlier than 0:11.2.202.273-1.el6"
      },
      {
        "Comment": "flash-plugin is signed with Red Hat redhatrelease2 key"
      }
    ]
  },
  "Severity": "Critical",
  "Cves": [
    {
      "Impact": "",
      "Href": "",
      "ID": "CVE-2013-0504"
    },
    {
      "Impact": "",
      "Href": "",
      "ID": "CVE-2013-0643"
    },
    {
      "Impact": "",
      "Href": "",
      "ID": "CVE-2013-0648"
    }
  ],
  "Issued": {
    "Date": "2013-02-27"
  }
}