{
  "Title": "RHSA-2013:0823: java-1.6.0-ibm security update (Critical)",
  "Description": "IBM Java SE version 6 includes the IBM Java Runtime Environment and the IBM\nJava Software Development Kit.\nThis update fixes several vulnerabilities in the IBM Java Runtime\nEnvironment and the IBM Java Software Development Kit. Detailed\nvulnerability descriptions are linked from the IBM Security alerts page,\nlisted in the References section. (CVE-2013-0169, CVE-2013-0401,\nCVE-2013-1491, CVE-2013-1537, CVE-2013-1540, CVE-2013-1557, CVE-2013-1563,\nCVE-2013-1569, CVE-2013-2383, CVE-2013-2384, CVE-2013-2394, CVE-2013-2417,\nCVE-2013-2418, CVE-2013-2419, CVE-2013-2420, CVE-2013-2422, CVE-2013-2424,\nCVE-2013-2429, CVE-2013-2430, CVE-2013-2432, CVE-2013-2433, CVE-2013-2435,\nCVE-2013-2440)\nAll users of java-1.6.0-ibm are advised to upgrade to these updated\npackages, containing the IBM Java SE 6 SR13-FP2 release. All running\ninstances of IBM Java must be restarted for the update to take effect.",
  "Platform": [
    "Supplementary for Red Hat Enterprise Linux 6"
  ],
  "References": [
    {
      "Source": "RHSA",
      "URI": "https://rhn.redhat.com/errata/RHSA-2013-0823.html",
      "ID": "RHSA-2013:0823-01"
    },
    {
      "Source": "CVE",
      "URI": "https://www.redhat.com/security/data/cve/CVE-2013-0169.html",
      "ID": "CVE-2013-0169"
    },
    {
      "Source": "CVE",
      "URI": "https://www.redhat.com/security/data/cve/CVE-2013-0401.html",
      "ID": "CVE-2013-0401"
    },
    {
      "Source": "CVE",
      "URI": "https://www.redhat.com/security/data/cve/CVE-2013-1491.html",
      "ID": "CVE-2013-1491"
    },
    {
      "Source": "CVE",
      "URI": "https://www.redhat.com/security/data/cve/CVE-2013-1537.html",
      "ID": "CVE-2013-1537"
    },
    {
      "Source": "CVE",
      "URI": "https://www.redhat.com/security/data/cve/CVE-2013-1540.html",
      "ID": "CVE-2013-1540"
    },
    {
      "Source": "CVE",
      "URI": "https://www.redhat.com/security/data/cve/CVE-2013-1557.html",
      "ID": "CVE-2013-1557"
    },
    {
      "Source": "CVE",
      "URI": "https://www.redhat.com/security/data/cve/CVE-2013-1563.html",
      "ID": "CVE-2013-1563"
    },
    {
      "Source": "CVE",
      "URI": "https://www.redhat.com/security/data/cve/CVE-2013-1569.html",
      "ID": "CVE-2013-1569"
    },
    {
      "Source": "CVE",
      "URI": "https://www.redhat.com/security/data/cve/CVE-2013-2383.html",
      "ID": "CVE-2013-2383"
    },
    {
      "Source": "CVE",
      "URI": "https://www.redhat.com/security/data/cve/CVE-2013-2384.html",
      "ID": "CVE-2013-2384"
    },
    {
      "Source": "CVE",
      "URI": "https://www.redhat.com/security/data/cve/CVE-2013-2394.html",
      "ID": "CVE-2013-2394"
    },
    {
      "Source": "CVE",
      "URI": "https://www.redhat.com/security/data/cve/CVE-2013-2417.html",
      "ID": "CVE-2013-2417"
    },
    {
      "Source": "CVE",
      "URI": "https://www.redhat.com/security/data/cve/CVE-2013-2418.html",
      "ID": "CVE-2013-2418"
    },
    {
      "Source": "CVE",
      "URI": "https://www.redhat.com/security/data/cve/CVE-2013-2419.html",
      "ID": "CVE-2013-2419"
    },
    {
      "Source": "CVE",
      "URI": "https://www.redhat.com/security/data/cve/CVE-2013-2420.html",
      "ID": "CVE-2013-2420"
    },
    {
      "Source": "CVE",
      "URI": "https://www.redhat.com/security/data/cve/CVE-2013-2422.html",
      "ID": "CVE-2013-2422"
    },
    {
      "Source": "CVE",
      "URI": "https://www.redhat.com/security/data/cve/CVE-2013-2424.html",
      "ID": "CVE-2013-2424"
    },
    {
      "Source": "CVE",
      "URI": "https://www.redhat.com/security/data/cve/CVE-2013-2429.html",
      "ID": "CVE-2013-2429"
    },
    {
      "Source": "CVE",
      "URI": "https://www.redhat.com/security/data/cve/CVE-2013-2430.html",
      "ID": "CVE-2013-2430"
    },
    {
      "Source": "CVE",
      "URI": "https://www.redhat.com/security/data/cve/CVE-2013-2432.html",
      "ID": "CVE-2013-2432"
    },
    {
      "Source": "CVE",
      "URI": "https://www.redhat.com/security/data/cve/CVE-2013-2433.html",
      "ID": "CVE-2013-2433"
    },
    {
      "Source": "CVE",
      "URI": "https://www.redhat.com/security/data/cve/CVE-2013-2435.html",
      "ID": "CVE-2013-2435"
    },
    {
      "Source": "CVE",
      "URI": "https://www.redhat.com/security/data/cve/CVE-2013-2440.html",
      "ID": "CVE-2013-2440"
    }
  ],
  "Criteria": {
    "Operator": "AND",
    "Criterias": [
      {
        "Operator": "OR",
        "Criterias": [

        ],
        "Criterions": [
          {
            "Comment": "Oracle Linux 6 Client is installed"
          },
          {
            "Comment": "Oracle Linux 6 Server is installed"
          },
          {
            "Comment": "Oracle Linux 6 Workstation is installed"
          },
          {
            "Comment": "Oracle Linux 6 ComputeNode is installed"
          }
        ]
      },
      {
        "Operator": "OR",
        "Criterias": [
          {
            "Operator": "AND",
            "Criterias": [

            ],
            "Criterions": [
              {
                "Comment": "java-1.6.0-ibm is earlier than 1:1.6.0.13.2-1jpp.1.el6_4"
              },
              {
                "Comment": "java-1.6.0-ibm is signed with Red Hat redhatrelease2 key"
              }
            ]
          },
          {
            "Operator": "AND",
            "Criterias": [

            ],
            "Criterions": [
              {
                "Comment": "java-1.6.0-ibm-devel is earlier than 1:1.6.0.13.2-1jpp.1.el6_4"
              },
              {
                "Comment": "java-1.6.0-ibm-devel is signed with Red Hat redhatrelease2 key"
              }
            ]
          },
          {
            "Operator": "AND",
            "Criterias": [

            ],
            "Criterions": [
              {
                "Comment": "java-1.6.0-ibm-plugin is earlier than 1:1.6.0.13.2-1jpp.1.el6_4"
              },
              {
                "Comment": "java-1.6.0-ibm-plugin is signed with Red Hat redhatrelease2 key"
              }
            ]
          },
          {
            "Operator": "AND",
            "Criterias": [

            ],
            "Criterions": [
              {
                "Comment": "java-1.6.0-ibm-src is earlier than 1:1.6.0.13.2-1jpp.1.el6_4"
              },
              {
                "Comment": "java-1.6.0-ibm-src is signed with Red Hat redhatrelease2 key"
              }
            ]
          },
          {
            "Operator": "AND",
            "Criterias": [

            ],
            "Criterions": [
              {
                "Comment": "java-1.6.0-ibm-javacomm is earlier than 1:1.6.0.13.2-1jpp.1.el6_4"
              },
              {
                "Comment": "java-1.6.0-ibm-javacomm is signed with Red Hat redhatrelease2 key"
              }
            ]
          },
          {
            "Operator": "AND",
            "Criterias": [

            ],
            "Criterions": [
              {
                "Comment": "java-1.6.0-ibm-demo is earlier than 1:1.6.0.13.2-1jpp.1.el6_4"
              },
              {
                "Comment": "java-1.6.0-ibm-demo is signed with Red Hat redhatrelease2 key"
              }
            ]
          },
          {
            "Operator": "AND",
            "Criterias": [

            ],
            "Criterions": [
              {
                "Comment": "java-1.6.0-ibm-jdbc is earlier than 1:1.6.0.13.2-1jpp.1.el6_4"
              },
              {
                "Comment": "java-1.6.0-ibm-jdbc is signed with Red Hat redhatrelease2 key"
              }
            ]
          }
        ],
        "Criterions": [

        ]
      }
    ],
    "Criterions": [

    ]
  },
  "Severity": "Critical",
  "Cves": [
    {
      "Impact": "",
      "Href": "",
      "ID": "CVE-2013-0169"
    },
    {
      "Impact": "",
      "Href": "",
      "ID": "CVE-2013-0401"
    },
    {
      "Impact": "",
      "Href": "",
      "ID": "CVE-2013-1491"
    },
    {
      "Impact": "",
      "Href": "",
      "ID": "CVE-2013-1537"
    },
    {
      "Impact": "",
      "Href": "",
      "ID": "CVE-2013-1540"
    },
    {
      "Impact": "",
      "Href": "",
      "ID": "CVE-2013-1557"
    },
    {
      "Impact": "",
      "Href": "",
      "ID": "CVE-2013-1563"
    },
    {
      "Impact": "",
      "Href": "",
      "ID": "CVE-2013-1569"
    },
    {
      "Impact": "",
      "Href": "",
      "ID": "CVE-2013-2383"
    },
    {
      "Impact": "",
      "Href": "",
      "ID": "CVE-2013-2384"
    },
    {
      "Impact": "",
      "Href": "",
      "ID": "CVE-2013-2394"
    },
    {
      "Impact": "",
      "Href": "",
      "ID": "CVE-2013-2417"
    },
    {
      "Impact": "",
      "Href": "",
      "ID": "CVE-2013-2418"
    },
    {
      "Impact": "",
      "Href": "",
      "ID": "CVE-2013-2419"
    },
    {
      "Impact": "",
      "Href": "",
      "ID": "CVE-2013-2420"
    },
    {
      "Impact": "",
      "Href": "",
      "ID": "CVE-2013-2422"
    },
    {
      "Impact": "",
      "Href": "",
      "ID": "CVE-2013-2424"
    },
    {
      "Impact": "",
      "Href": "",
      "ID": "CVE-2013-2429"
    },
    {
      "Impact": "",
      "Href": "",
      "ID": "CVE-2013-2430"
    },
    {
      "Impact": "",
      "Href": "",
      "ID": "CVE-2013-2432"
    },
    {
      "Impact": "",
      "Href": "",
      "ID": "CVE-2013-2433"
    },
    {
      "Impact": "",
      "Href": "",
      "ID": "CVE-2013-2435"
    },
    {
      "Impact": "",
      "Href": "",
      "ID": "CVE-2013-2440"
    }
  ],
  "Issued": {
    "Date": "2013-05-14"
  }
}