{
  "Title": "RHSA-2013:0604: java-1.6.0-openjdk security update (Important)",
  "Description": "These packages provide the OpenJDK 6 Java Runtime Environment and the\nOpenJDK 6 Software Development Kit.\nAn integer overflow flaw was found in the way the 2D component handled\ncertain sample model instances. A specially-crafted sample model instance\ncould cause Java Virtual Machine memory corruption and, possibly, lead to\narbitrary code execution with virtual machine privileges. (CVE-2013-0809)\nIt was discovered that the 2D component did not properly reject certain\nmalformed images. Specially-crafted raster parameters could cause Java\nVirtual Machine memory corruption and, possibly, lead to arbitrary code\nexecution with virtual machine privileges. (CVE-2013-1493)\nThis erratum also upgrades the OpenJDK package to IcedTea6 1.11.9. Refer to\nthe NEWS file, linked to in the References, for further information.\nAll users of java-1.6.0-openjdk are advised to upgrade to these updated\npackages, which resolve these issues. All running instances of OpenJDK Java\nmust be restarted for the update to take effect.",
  "Platform": [
    "Red Hat Enterprise Linux 5"
  ],
  "References": [
    {
      "Source": "RHSA",
      "URI": "https://access.redhat.com/errata/RHSA-2013:0604",
      "ID": "RHSA-2013:0604"
    },
    {
      "Source": "CVE",
      "URI": "https://access.redhat.com/security/cve/CVE-2013-0809",
      "ID": "CVE-2013-0809"
    },
    {
      "Source": "CVE",
      "URI": "https://access.redhat.com/security/cve/CVE-2013-1493",
      "ID": "CVE-2013-1493"
    }
  ],
  "Criteria": {
    "Operator": "OR",
    "Criterias": [
      {
        "Operator": "AND",
        "Criterias": [
          {
            "Operator": "OR",
            "Criterias": [
              {
                "Operator": "AND",
                "Criterias": [

                ],
                "Criterions": [
                  {
                    "Comment": "java-1.6.0-openjdk is earlier than 1:1.6.0.0-1.36.1.11.9.el5_9"
                  },
                  {
                    "Comment": "java-1.6.0-openjdk is signed with Red Hat redhatrelease2 key"
                  }
                ]
              },
              {
                "Operator": "AND",
                "Criterias": [

                ],
                "Criterions": [
                  {
                    "Comment": "java-1.6.0-openjdk-demo is earlier than 1:1.6.0.0-1.36.1.11.9.el5_9"
                  },
                  {
                    "Comment": "java-1.6.0-openjdk-demo is signed with Red Hat redhatrelease2 key"
                  }
                ]
              },
              {
                "Operator": "AND",
                "Criterias": [

                ],
                "Criterions": [
                  {
                    "Comment": "java-1.6.0-openjdk-devel is earlier than 1:1.6.0.0-1.36.1.11.9.el5_9"
                  },
                  {
                    "Comment": "java-1.6.0-openjdk-devel is signed with Red Hat redhatrelease2 key"
                  }
                ]
              },
              {
                "Operator": "AND",
                "Criterias": [

                ],
                "Criterions": [
                  {
                    "Comment": "java-1.6.0-openjdk-javadoc is earlier than 1:1.6.0.0-1.36.1.11.9.el5_9"
                  },
                  {
                    "Comment": "java-1.6.0-openjdk-javadoc is signed with Red Hat redhatrelease2 key"
                  }
                ]
              },
              {
                "Operator": "AND",
                "Criterias": [

                ],
                "Criterions": [
                  {
                    "Comment": "java-1.6.0-openjdk-src is earlier than 1:1.6.0.0-1.36.1.11.9.el5_9"
                  },
                  {
                    "Comment": "java-1.6.0-openjdk-src is signed with Red Hat redhatrelease2 key"
                  }
                ]
              }
            ],
            "Criterions": [

            ]
          }
        ],
        "Criterions": [
          {
            "Comment": "Oracle Linux 5 is installed"
          }
        ]
      }
    ],
    "Criterions": [
      {
        "Comment": "Oracle Linux 5 is installed"
      }
    ]
  },
  "Severity": "Important",
  "Cves": [
    {
      "Impact": "",
      "Href": "",
      "ID": "CVE-2013-0809"
    },
    {
      "Impact": "",
      "Href": "",
      "ID": "CVE-2013-1493"
    }
  ],
  "Issued": {
    "Date": "2013-03-06"
  }
}