{
  "Title": "RHSA-2013:1674: dracut security, bug fix, and enhancement update (Moderate)",
  "Description": "The dracut packages include an event-driven initramfs generator\ninfrastructure based on the udev device manager. The virtual file system,\ninitramfs, is loaded together with the kernel at boot time and initializes\nthe system, so it can read and boot from the root partition.\nIt was discovered that dracut created initramfs images as world readable.\nA local user could possibly use this flaw to obtain sensitive information\nfrom these files, such as iSCSI authentication passwords, encrypted root\nfile system crypttab passwords, or other information. (CVE-2012-4453)\nThis issue was discovered by Peter Jones of the Red Hat Installer Team.\nThese updated dracut packages include numerous bug fixes and two\nenhancements. Space precludes documenting all of these changes in this\nadvisory. Users are directed to the Red Hat Enterprise Linux 6.5 Technical\nNotes, linked to in the References, for information on the most significant\nof these changes.\nAll dracut users are advised to upgrade to these updated packages, which\ncontain backported patches to correct these issues and add these\nenhancements.",
  "Platform": [
    "Red Hat Enterprise Linux 6"
  ],
  "References": [
    {
      "Source": "RHSA",
      "URI": "https://access.redhat.com/errata/RHSA-2013:1674",
      "ID": "RHSA-2013:1674"
    },
    {
      "Source": "CVE",
      "URI": "https://access.redhat.com/security/cve/CVE-2012-4453",
      "ID": "CVE-2012-4453"
    }
  ],
  "Criteria": {
    "Operator": "OR",
    "Criterias": [
      {
        "Operator": "AND",
        "Criterias": [
          {
            "Operator": "OR",
            "Criterias": [
              {
                "Operator": "AND",
                "Criterias": [

                ],
                "Criterions": [
                  {
                    "Comment": "dracut is earlier than 0:004-336.el6"
                  },
                  {
                    "Comment": "dracut is signed with Red Hat redhatrelease2 key"
                  }
                ]
              },
              {
                "Operator": "AND",
                "Criterias": [

                ],
                "Criterions": [
                  {
                    "Comment": "dracut-caps is earlier than 0:004-336.el6"
                  },
                  {
                    "Comment": "dracut-caps is signed with Red Hat redhatrelease2 key"
                  }
                ]
              },
              {
                "Operator": "AND",
                "Criterias": [

                ],
                "Criterions": [
                  {
                    "Comment": "dracut-fips is earlier than 0:004-336.el6"
                  },
                  {
                    "Comment": "dracut-fips is signed with Red Hat redhatrelease2 key"
                  }
                ]
              },
              {
                "Operator": "AND",
                "Criterias": [

                ],
                "Criterions": [
                  {
                    "Comment": "dracut-fips-aesni is earlier than 0:004-336.el6"
                  },
                  {
                    "Comment": "dracut-fips-aesni is signed with Red Hat redhatrelease2 key"
                  }
                ]
              },
              {
                "Operator": "AND",
                "Criterias": [

                ],
                "Criterions": [
                  {
                    "Comment": "dracut-generic is earlier than 0:004-336.el6"
                  },
                  {
                    "Comment": "dracut-generic is signed with Red Hat redhatrelease2 key"
                  }
                ]
              },
              {
                "Operator": "AND",
                "Criterias": [

                ],
                "Criterions": [
                  {
                    "Comment": "dracut-kernel is earlier than 0:004-336.el6"
                  },
                  {
                    "Comment": "dracut-kernel is signed with Red Hat redhatrelease2 key"
                  }
                ]
              },
              {
                "Operator": "AND",
                "Criterias": [

                ],
                "Criterions": [
                  {
                    "Comment": "dracut-network is earlier than 0:004-336.el6"
                  },
                  {
                    "Comment": "dracut-network is signed with Red Hat redhatrelease2 key"
                  }
                ]
              },
              {
                "Operator": "AND",
                "Criterias": [

                ],
                "Criterions": [
                  {
                    "Comment": "dracut-tools is earlier than 0:004-336.el6"
                  },
                  {
                    "Comment": "dracut-tools is signed with Red Hat redhatrelease2 key"
                  }
                ]
              }
            ],
            "Criterions": [

            ]
          }
        ],
        "Criterions": [
          {
            "Comment": "Oracle Linux 6 is installed"
          }
        ]
      }
    ],
    "Criterions": [
      {
        "Comment": "Oracle Linux 6 is installed"
      }
    ]
  },
  "Severity": "Moderate",
  "Cves": [
    {
      "Impact": "",
      "Href": "",
      "ID": "CVE-2012-4453"
    }
  ],
  "Issued": {
    "Date": "2013-11-20"
  }
}