{
  "Title": "RHSA-2013:1270: polkit security update (Important)",
  "Description": "PolicyKit is a toolkit for defining and handling authorizations.\nA race condition was found in the way the PolicyKit pkcheck utility\nchecked process authorization when the process was specified by its process\nID via the --process option. A local user could use this flaw to bypass\nintended PolicyKit authorizations and escalate their privileges.\n(CVE-2013-4288)\nNote: Applications that invoke pkcheck with the --process option need to be\nmodified to use the pid,pid-start-time,uid argument for that option, to\nallow pkcheck to check process authorization correctly.\nRed Hat would like to thank Sebastian Krahmer of the SUSE Security Team for\nreporting this issue.\nAll polkit users should upgrade to these updated packages, which contain a\nbackported patch to correct this issue. The system must be rebooted for\nthis update to take effect.",
  "Platform": [
    "Red Hat Enterprise Linux 6"
  ],
  "References": [
    {
      "Source": "RHSA",
      "URI": "https://access.redhat.com/errata/RHSA-2013:1270",
      "ID": "RHSA-2013:1270"
    },
    {
      "Source": "CVE",
      "URI": "https://access.redhat.com/security/cve/CVE-2013-4288",
      "ID": "CVE-2013-4288"
    }
  ],
  "Criteria": {
    "Operator": "OR",
    "Criterias": [
      {
        "Operator": "AND",
        "Criterias": [
          {
            "Operator": "OR",
            "Criterias": [
              {
                "Operator": "AND",
                "Criterias": [

                ],
                "Criterions": [
                  {
                    "Comment": "polkit is earlier than 0:0.96-5.el6_4"
                  },
                  {
                    "Comment": "polkit is signed with Red Hat redhatrelease2 key"
                  }
                ]
              },
              {
                "Operator": "AND",
                "Criterias": [

                ],
                "Criterions": [
                  {
                    "Comment": "polkit-desktop-policy is earlier than 0:0.96-5.el6_4"
                  },
                  {
                    "Comment": "polkit-desktop-policy is signed with Red Hat redhatrelease2 key"
                  }
                ]
              },
              {
                "Operator": "AND",
                "Criterias": [

                ],
                "Criterions": [
                  {
                    "Comment": "polkit-devel is earlier than 0:0.96-5.el6_4"
                  },
                  {
                    "Comment": "polkit-devel is signed with Red Hat redhatrelease2 key"
                  }
                ]
              },
              {
                "Operator": "AND",
                "Criterias": [

                ],
                "Criterions": [
                  {
                    "Comment": "polkit-docs is earlier than 0:0.96-5.el6_4"
                  },
                  {
                    "Comment": "polkit-docs is signed with Red Hat redhatrelease2 key"
                  }
                ]
              }
            ],
            "Criterions": [

            ]
          }
        ],
        "Criterions": [
          {
            "Comment": "Oracle Linux 6 is installed"
          }
        ]
      }
    ],
    "Criterions": [
      {
        "Comment": "Oracle Linux 6 is installed"
      }
    ]
  },
  "Severity": "Important",
  "Cves": [
    {
      "Impact": "",
      "Href": "",
      "ID": "CVE-2013-4288"
    }
  ],
  "Issued": {
    "Date": "2013-09-19"
  }
}