{
  "Title": "RHSA-2013:1273: spice-gtk security update (Important)",
  "Description": "The spice-gtk packages provide a GIMP Toolkit (GTK+) widget for SPICE\n(Simple Protocol for Independent Computing Environments) clients. Both\nVirtual Machine Manager and Virtual Machine Viewer can make use of this\nwidget to access virtual machines using the SPICE protocol.\nspice-gtk communicated with PolicyKit for authorization via an API that is\nvulnerable to a race condition. This could lead to intended PolicyKit\nauthorizations being bypassed. This update modifies spice-gtk to\ncommunicate with PolicyKit via a different API that is not vulnerable to\nthe race condition. (CVE-2013-4324)\nAll users of spice-gtk are advised to upgrade to these updated packages,\nwhich contain a backported patch to correct this issue.",
  "Platform": [
    "Red Hat Enterprise Linux 6"
  ],
  "References": [
    {
      "Source": "RHSA",
      "URI": "https://access.redhat.com/errata/RHSA-2013:1273",
      "ID": "RHSA-2013:1273"
    },
    {
      "Source": "CVE",
      "URI": "https://access.redhat.com/security/cve/CVE-2013-4324",
      "ID": "CVE-2013-4324"
    }
  ],
  "Criteria": {
    "Operator": "OR",
    "Criterias": [
      {
        "Operator": "AND",
        "Criterias": [
          {
            "Operator": "OR",
            "Criterias": [
              {
                "Operator": "AND",
                "Criterias": [

                ],
                "Criterions": [
                  {
                    "Comment": "spice-glib is earlier than 0:0.14-7.el6_4.3"
                  },
                  {
                    "Comment": "spice-glib is signed with Red Hat redhatrelease2 key"
                  }
                ]
              },
              {
                "Operator": "AND",
                "Criterias": [

                ],
                "Criterions": [
                  {
                    "Comment": "spice-glib-devel is earlier than 0:0.14-7.el6_4.3"
                  },
                  {
                    "Comment": "spice-glib-devel is signed with Red Hat redhatrelease2 key"
                  }
                ]
              },
              {
                "Operator": "AND",
                "Criterias": [

                ],
                "Criterions": [
                  {
                    "Comment": "spice-gtk is earlier than 0:0.14-7.el6_4.3"
                  },
                  {
                    "Comment": "spice-gtk is signed with Red Hat redhatrelease2 key"
                  }
                ]
              },
              {
                "Operator": "AND",
                "Criterias": [

                ],
                "Criterions": [
                  {
                    "Comment": "spice-gtk-devel is earlier than 0:0.14-7.el6_4.3"
                  },
                  {
                    "Comment": "spice-gtk-devel is signed with Red Hat redhatrelease2 key"
                  }
                ]
              },
              {
                "Operator": "AND",
                "Criterias": [

                ],
                "Criterions": [
                  {
                    "Comment": "spice-gtk-python is earlier than 0:0.14-7.el6_4.3"
                  },
                  {
                    "Comment": "spice-gtk-python is signed with Red Hat redhatrelease2 key"
                  }
                ]
              },
              {
                "Operator": "AND",
                "Criterias": [

                ],
                "Criterions": [
                  {
                    "Comment": "spice-gtk-tools is earlier than 0:0.14-7.el6_4.3"
                  },
                  {
                    "Comment": "spice-gtk-tools is signed with Red Hat redhatrelease2 key"
                  }
                ]
              }
            ],
            "Criterions": [

            ]
          }
        ],
        "Criterions": [
          {
            "Comment": "Oracle Linux 6 is installed"
          }
        ]
      }
    ],
    "Criterions": [
      {
        "Comment": "Oracle Linux 6 is installed"
      }
    ]
  },
  "Severity": "Important",
  "Cves": [
    {
      "Impact": "",
      "Href": "",
      "ID": "CVE-2013-4324"
    }
  ],
  "Issued": {
    "Date": "2013-09-19"
  }
}