{
  "Title": "RHSA-2013:0236: java-1.6.0-sun security update (Critical)",
  "Description": "Oracle Java SE version 6 includes the Oracle Java Runtime Environment and\nthe Oracle Java Software Development Kit.\nThis update fixes several vulnerabilities in the Oracle Java Runtime\nEnvironment and the Oracle Java Software Development Kit. Further\ninformation about these flaws can be found on the Oracle Java SE Critical\nPatch Update Advisory page, listed in the References section.\n(CVE-2012-1541, CVE-2012-3213, CVE-2012-3342, CVE-2013-0351, CVE-2013-0409,\nCVE-2013-0419, CVE-2013-0423, CVE-2013-0424, CVE-2013-0425, CVE-2013-0426,\nCVE-2013-0427, CVE-2013-0428, CVE-2013-0429, CVE-2013-0430, CVE-2013-0432,\nCVE-2013-0433, CVE-2013-0434, CVE-2013-0435, CVE-2013-0438, CVE-2013-0440,\nCVE-2013-0441, CVE-2013-0442, CVE-2013-0443, CVE-2013-0445, CVE-2013-0446,\nCVE-2013-0450, CVE-2013-1473, CVE-2013-1475, CVE-2013-1476, CVE-2013-1478,\nCVE-2013-1480, CVE-2013-1481)\nAll users of java-1.6.0-sun are advised to upgrade to these updated\npackages, which provide Oracle Java 6 Update 39. All running instances of\nOracle Java must be restarted for the update to take effect.",
  "Platform": [
    "Supplementary for Red Hat Enterprise Linux 6"
  ],
  "References": [
    {
      "Source": "RHSA",
      "URI": "https://rhn.redhat.com/errata/RHSA-2013-0236.html",
      "ID": "RHSA-2013:0236-01"
    },
    {
      "Source": "CVE",
      "URI": "https://www.redhat.com/security/data/cve/CVE-2012-1541.html",
      "ID": "CVE-2012-1541"
    },
    {
      "Source": "CVE",
      "URI": "https://www.redhat.com/security/data/cve/CVE-2012-3213.html",
      "ID": "CVE-2012-3213"
    },
    {
      "Source": "CVE",
      "URI": "https://www.redhat.com/security/data/cve/CVE-2012-3342.html",
      "ID": "CVE-2012-3342"
    },
    {
      "Source": "CVE",
      "URI": "https://www.redhat.com/security/data/cve/CVE-2013-0351.html",
      "ID": "CVE-2013-0351"
    },
    {
      "Source": "CVE",
      "URI": "https://www.redhat.com/security/data/cve/CVE-2013-0409.html",
      "ID": "CVE-2013-0409"
    },
    {
      "Source": "CVE",
      "URI": "https://www.redhat.com/security/data/cve/CVE-2013-0419.html",
      "ID": "CVE-2013-0419"
    },
    {
      "Source": "CVE",
      "URI": "https://www.redhat.com/security/data/cve/CVE-2013-0423.html",
      "ID": "CVE-2013-0423"
    },
    {
      "Source": "CVE",
      "URI": "https://www.redhat.com/security/data/cve/CVE-2013-0424.html",
      "ID": "CVE-2013-0424"
    },
    {
      "Source": "CVE",
      "URI": "https://www.redhat.com/security/data/cve/CVE-2013-0425.html",
      "ID": "CVE-2013-0425"
    },
    {
      "Source": "CVE",
      "URI": "https://www.redhat.com/security/data/cve/CVE-2013-0426.html",
      "ID": "CVE-2013-0426"
    },
    {
      "Source": "CVE",
      "URI": "https://www.redhat.com/security/data/cve/CVE-2013-0427.html",
      "ID": "CVE-2013-0427"
    },
    {
      "Source": "CVE",
      "URI": "https://www.redhat.com/security/data/cve/CVE-2013-0428.html",
      "ID": "CVE-2013-0428"
    },
    {
      "Source": "CVE",
      "URI": "https://www.redhat.com/security/data/cve/CVE-2013-0429.html",
      "ID": "CVE-2013-0429"
    },
    {
      "Source": "CVE",
      "URI": "https://www.redhat.com/security/data/cve/CVE-2013-0430.html",
      "ID": "CVE-2013-0430"
    },
    {
      "Source": "CVE",
      "URI": "https://www.redhat.com/security/data/cve/CVE-2013-0432.html",
      "ID": "CVE-2013-0432"
    },
    {
      "Source": "CVE",
      "URI": "https://www.redhat.com/security/data/cve/CVE-2013-0433.html",
      "ID": "CVE-2013-0433"
    },
    {
      "Source": "CVE",
      "URI": "https://www.redhat.com/security/data/cve/CVE-2013-0434.html",
      "ID": "CVE-2013-0434"
    },
    {
      "Source": "CVE",
      "URI": "https://www.redhat.com/security/data/cve/CVE-2013-0435.html",
      "ID": "CVE-2013-0435"
    },
    {
      "Source": "CVE",
      "URI": "https://www.redhat.com/security/data/cve/CVE-2013-0438.html",
      "ID": "CVE-2013-0438"
    },
    {
      "Source": "CVE",
      "URI": "https://www.redhat.com/security/data/cve/CVE-2013-0440.html",
      "ID": "CVE-2013-0440"
    },
    {
      "Source": "CVE",
      "URI": "https://www.redhat.com/security/data/cve/CVE-2013-0441.html",
      "ID": "CVE-2013-0441"
    },
    {
      "Source": "CVE",
      "URI": "https://www.redhat.com/security/data/cve/CVE-2013-0442.html",
      "ID": "CVE-2013-0442"
    },
    {
      "Source": "CVE",
      "URI": "https://www.redhat.com/security/data/cve/CVE-2013-0443.html",
      "ID": "CVE-2013-0443"
    },
    {
      "Source": "CVE",
      "URI": "https://www.redhat.com/security/data/cve/CVE-2013-0445.html",
      "ID": "CVE-2013-0445"
    },
    {
      "Source": "CVE",
      "URI": "https://www.redhat.com/security/data/cve/CVE-2013-0446.html",
      "ID": "CVE-2013-0446"
    },
    {
      "Source": "CVE",
      "URI": "https://www.redhat.com/security/data/cve/CVE-2013-0450.html",
      "ID": "CVE-2013-0450"
    },
    {
      "Source": "CVE",
      "URI": "https://www.redhat.com/security/data/cve/CVE-2013-1473.html",
      "ID": "CVE-2013-1473"
    },
    {
      "Source": "CVE",
      "URI": "https://www.redhat.com/security/data/cve/CVE-2013-1475.html",
      "ID": "CVE-2013-1475"
    },
    {
      "Source": "CVE",
      "URI": "https://www.redhat.com/security/data/cve/CVE-2013-1476.html",
      "ID": "CVE-2013-1476"
    },
    {
      "Source": "CVE",
      "URI": "https://www.redhat.com/security/data/cve/CVE-2013-1478.html",
      "ID": "CVE-2013-1478"
    },
    {
      "Source": "CVE",
      "URI": "https://www.redhat.com/security/data/cve/CVE-2013-1480.html",
      "ID": "CVE-2013-1480"
    },
    {
      "Source": "CVE",
      "URI": "https://www.redhat.com/security/data/cve/CVE-2013-1481.html",
      "ID": "CVE-2013-1481"
    }
  ],
  "Criteria": {
    "Operator": "AND",
    "Criterias": [
      {
        "Operator": "OR",
        "Criterias": [

        ],
        "Criterions": [
          {
            "Comment": "Oracle Linux 6 Client is installed"
          },
          {
            "Comment": "Oracle Linux 6 Server is installed"
          },
          {
            "Comment": "Oracle Linux 6 Workstation is installed"
          },
          {
            "Comment": "Oracle Linux 6 ComputeNode is installed"
          }
        ]
      },
      {
        "Operator": "OR",
        "Criterias": [
          {
            "Operator": "AND",
            "Criterias": [

            ],
            "Criterions": [
              {
                "Comment": "java-1.6.0-sun-jdbc is earlier than 1:1.6.0.39-1jpp.1.el6_3"
              },
              {
                "Comment": "java-1.6.0-sun-jdbc is signed with Red Hat redhatrelease2 key"
              }
            ]
          },
          {
            "Operator": "AND",
            "Criterias": [

            ],
            "Criterions": [
              {
                "Comment": "java-1.6.0-sun is earlier than 1:1.6.0.39-1jpp.1.el6_3"
              },
              {
                "Comment": "java-1.6.0-sun is signed with Red Hat redhatrelease2 key"
              }
            ]
          },
          {
            "Operator": "AND",
            "Criterias": [

            ],
            "Criterions": [
              {
                "Comment": "java-1.6.0-sun-plugin is earlier than 1:1.6.0.39-1jpp.1.el6_3"
              },
              {
                "Comment": "java-1.6.0-sun-plugin is signed with Red Hat redhatrelease2 key"
              }
            ]
          },
          {
            "Operator": "AND",
            "Criterias": [

            ],
            "Criterions": [
              {
                "Comment": "java-1.6.0-sun-devel is earlier than 1:1.6.0.39-1jpp.1.el6_3"
              },
              {
                "Comment": "java-1.6.0-sun-devel is signed with Red Hat redhatrelease2 key"
              }
            ]
          },
          {
            "Operator": "AND",
            "Criterias": [

            ],
            "Criterions": [
              {
                "Comment": "java-1.6.0-sun-demo is earlier than 1:1.6.0.39-1jpp.1.el6_3"
              },
              {
                "Comment": "java-1.6.0-sun-demo is signed with Red Hat redhatrelease2 key"
              }
            ]
          },
          {
            "Operator": "AND",
            "Criterias": [

            ],
            "Criterions": [
              {
                "Comment": "java-1.6.0-sun-src is earlier than 1:1.6.0.39-1jpp.1.el6_3"
              },
              {
                "Comment": "java-1.6.0-sun-src is signed with Red Hat redhatrelease2 key"
              }
            ]
          }
        ],
        "Criterions": [

        ]
      }
    ],
    "Criterions": [

    ]
  },
  "Severity": "Critical",
  "Cves": [
    {
      "Impact": "",
      "Href": "",
      "ID": "CVE-2012-1541"
    },
    {
      "Impact": "",
      "Href": "",
      "ID": "CVE-2012-3213"
    },
    {
      "Impact": "",
      "Href": "",
      "ID": "CVE-2012-3342"
    },
    {
      "Impact": "",
      "Href": "",
      "ID": "CVE-2013-0351"
    },
    {
      "Impact": "",
      "Href": "",
      "ID": "CVE-2013-0409"
    },
    {
      "Impact": "",
      "Href": "",
      "ID": "CVE-2013-0419"
    },
    {
      "Impact": "",
      "Href": "",
      "ID": "CVE-2013-0423"
    },
    {
      "Impact": "",
      "Href": "",
      "ID": "CVE-2013-0424"
    },
    {
      "Impact": "",
      "Href": "",
      "ID": "CVE-2013-0425"
    },
    {
      "Impact": "",
      "Href": "",
      "ID": "CVE-2013-0426"
    },
    {
      "Impact": "",
      "Href": "",
      "ID": "CVE-2013-0427"
    },
    {
      "Impact": "",
      "Href": "",
      "ID": "CVE-2013-0428"
    },
    {
      "Impact": "",
      "Href": "",
      "ID": "CVE-2013-0429"
    },
    {
      "Impact": "",
      "Href": "",
      "ID": "CVE-2013-0430"
    },
    {
      "Impact": "",
      "Href": "",
      "ID": "CVE-2013-0432"
    },
    {
      "Impact": "",
      "Href": "",
      "ID": "CVE-2013-0433"
    },
    {
      "Impact": "",
      "Href": "",
      "ID": "CVE-2013-0434"
    },
    {
      "Impact": "",
      "Href": "",
      "ID": "CVE-2013-0435"
    },
    {
      "Impact": "",
      "Href": "",
      "ID": "CVE-2013-0438"
    },
    {
      "Impact": "",
      "Href": "",
      "ID": "CVE-2013-0440"
    },
    {
      "Impact": "",
      "Href": "",
      "ID": "CVE-2013-0441"
    },
    {
      "Impact": "",
      "Href": "",
      "ID": "CVE-2013-0442"
    },
    {
      "Impact": "",
      "Href": "",
      "ID": "CVE-2013-0443"
    },
    {
      "Impact": "",
      "Href": "",
      "ID": "CVE-2013-0445"
    },
    {
      "Impact": "",
      "Href": "",
      "ID": "CVE-2013-0446"
    },
    {
      "Impact": "",
      "Href": "",
      "ID": "CVE-2013-0450"
    },
    {
      "Impact": "",
      "Href": "",
      "ID": "CVE-2013-1473"
    },
    {
      "Impact": "",
      "Href": "",
      "ID": "CVE-2013-1475"
    },
    {
      "Impact": "",
      "Href": "",
      "ID": "CVE-2013-1476"
    },
    {
      "Impact": "",
      "Href": "",
      "ID": "CVE-2013-1478"
    },
    {
      "Impact": "",
      "Href": "",
      "ID": "CVE-2013-1480"
    },
    {
      "Impact": "",
      "Href": "",
      "ID": "CVE-2013-1481"
    }
  ],
  "Issued": {
    "Date": "2013-02-04"
  }
}