{
  "Title": "RHSA-2013:0788: subscription-manager security update (Moderate)",
  "Description": "The subscription-manager packages provide programs and libraries to allow\nusers to manage subscriptions and yum repositories from the Red Hat\nEntitlement platform.\nIt was discovered that the rhn-migrate-classic-to-rhsm tool did not verify\nthe Red Hat Network Classic server's X.509 certificate when migrating\nsystem profiles registered with Red Hat Network Classic to\nCertificate-based Red Hat Network. An attacker could use this flaw to\nconduct man-in-the-middle attacks, allowing them to obtain the user's Red\nHat Network credentials. (CVE-2012-6137)\nThis issue was discovered by Florian Weimer of the Red Hat Product Security\nTeam.\nAll users of subscription-manager are advised to upgrade to these updated\npackages, which contain a backported patch to fix this issue.",
  "Platform": [
    "Red Hat Enterprise Linux 5",
    "Red Hat Enterprise Linux 6"
  ],
  "References": [
    {
      "Source": "RHSA",
      "URI": "https://access.redhat.com/errata/RHSA-2013:0788",
      "ID": "RHSA-2013:0788"
    },
    {
      "Source": "CVE",
      "URI": "https://access.redhat.com/security/cve/CVE-2012-6137",
      "ID": "CVE-2012-6137"
    }
  ],
  "Criteria": {
    "Operator": "OR",
    "Criterias": [
      {
        "Operator": "AND",
        "Criterias": [
          {
            "Operator": "OR",
            "Criterias": [
              {
                "Operator": "AND",
                "Criterias": [

                ],
                "Criterions": [
                  {
                    "Comment": "subscription-manager is earlier than 0:1.0.24.1-1.el5_9"
                  },
                  {
                    "Comment": "subscription-manager is signed with Red Hat redhatrelease2 key"
                  }
                ]
              },
              {
                "Operator": "AND",
                "Criterias": [

                ],
                "Criterions": [
                  {
                    "Comment": "subscription-manager-firstboot is earlier than 0:1.0.24.1-1.el5_9"
                  },
                  {
                    "Comment": "subscription-manager-firstboot is signed with Red Hat redhatrelease2 key"
                  }
                ]
              },
              {
                "Operator": "AND",
                "Criterias": [

                ],
                "Criterions": [
                  {
                    "Comment": "subscription-manager-gui is earlier than 0:1.0.24.1-1.el5_9"
                  },
                  {
                    "Comment": "subscription-manager-gui is signed with Red Hat redhatrelease2 key"
                  }
                ]
              },
              {
                "Operator": "AND",
                "Criterias": [

                ],
                "Criterions": [
                  {
                    "Comment": "subscription-manager-migration is earlier than 0:1.0.24.1-1.el5_9"
                  },
                  {
                    "Comment": "subscription-manager-migration is signed with Red Hat redhatrelease2 key"
                  }
                ]
              }
            ],
            "Criterions": [

            ]
          }
        ],
        "Criterions": [
          {
            "Comment": "Oracle Linux 5 is installed"
          }
        ]
      },
      {
        "Operator": "AND",
        "Criterias": [
          {
            "Operator": "OR",
            "Criterias": [
              {
                "Operator": "AND",
                "Criterias": [

                ],
                "Criterions": [
                  {
                    "Comment": "subscription-manager is earlier than 0:1.1.23.1-1.el6_4"
                  },
                  {
                    "Comment": "subscription-manager is signed with Red Hat redhatrelease2 key"
                  }
                ]
              },
              {
                "Operator": "AND",
                "Criterias": [

                ],
                "Criterions": [
                  {
                    "Comment": "subscription-manager-firstboot is earlier than 0:1.1.23.1-1.el6_4"
                  },
                  {
                    "Comment": "subscription-manager-firstboot is signed with Red Hat redhatrelease2 key"
                  }
                ]
              },
              {
                "Operator": "AND",
                "Criterias": [

                ],
                "Criterions": [
                  {
                    "Comment": "subscription-manager-gui is earlier than 0:1.1.23.1-1.el6_4"
                  },
                  {
                    "Comment": "subscription-manager-gui is signed with Red Hat redhatrelease2 key"
                  }
                ]
              },
              {
                "Operator": "AND",
                "Criterias": [

                ],
                "Criterions": [
                  {
                    "Comment": "subscription-manager-migration is earlier than 0:1.1.23.1-1.el6_4"
                  },
                  {
                    "Comment": "subscription-manager-migration is signed with Red Hat redhatrelease2 key"
                  }
                ]
              }
            ],
            "Criterions": [

            ]
          }
        ],
        "Criterions": [
          {
            "Comment": "Oracle Linux 6 is installed"
          }
        ]
      }
    ],
    "Criterions": [
      {
        "Comment": "Oracle Linux 5 is installed"
      }
    ]
  },
  "Severity": "Moderate",
  "Cves": [
    {
      "Impact": "",
      "Href": "",
      "ID": "CVE-2012-6137"
    }
  ],
  "Issued": {
    "Date": "2013-05-06"
  }
}