{
  "Title": "RHSA-2013:1452: vino security update (Moderate)",
  "Description": "Vino is a Virtual Network Computing (VNC) server for GNOME. It allows\nremote users to connect to a running GNOME session using VNC.\nA denial of service flaw was found in the way Vino handled certain\nauthenticated requests from clients that were in the deferred state. A\nremote attacker could use this flaw to make the vino-server process enter\nan infinite loop when processing those incoming requests. (CVE-2013-5745)\nAll vino users are advised to upgrade to these updated packages, which\ncontain a backported patch to correct this issue. The GNOME session must be\nrestarted (log out, then log back in) for this update to take effect.",
  "Platform": [
    "Red Hat Enterprise Linux 5",
    "Red Hat Enterprise Linux 6"
  ],
  "References": [
    {
      "Source": "RHSA",
      "URI": "https://access.redhat.com/errata/RHSA-2013:1452",
      "ID": "RHSA-2013:1452"
    },
    {
      "Source": "CVE",
      "URI": "https://access.redhat.com/security/cve/CVE-2013-5745",
      "ID": "CVE-2013-5745"
    }
  ],
  "Criteria": {
    "Operator": "OR",
    "Criterias": [
      {
        "Operator": "AND",
        "Criterias": [

        ],
        "Criterions": [
          {
            "Comment": "Oracle Linux 6 is installed"
          },
          {
            "Comment": "vino is earlier than 0:2.28.1-9.el6_4"
          },
          {
            "Comment": "vino is signed with Red Hat redhatrelease2 key"
          }
        ]
      },
      {
        "Operator": "AND",
        "Criterias": [

        ],
        "Criterions": [
          {
            "Comment": "Oracle Linux 5 is installed"
          },
          {
            "Comment": "vino is earlier than 0:2.13.5-10.el5_10"
          },
          {
            "Comment": "vino is signed with Red Hat redhatrelease2 key"
          }
        ]
      }
    ],
    "Criterions": [
      {
        "Comment": "Oracle Linux 5 is installed"
      }
    ]
  },
  "Severity": "Moderate",
  "Cves": [
    {
      "Impact": "",
      "Href": "",
      "ID": "CVE-2013-5745"
    }
  ],
  "Issued": {
    "Date": "2013-10-22"
  }
}