{
  "Title": "RHSA-2013:0772: mysql security update (Important)",
  "Description": "MySQL is a multi-user, multi-threaded SQL database server. It consists of\nthe MySQL server daemon (mysqld) and many client programs and libraries.\nThis update fixes several vulnerabilities in the MySQL database server.\nInformation about these flaws can be found on the Oracle Critical Patch\nUpdate Advisory page, listed in the References section. (CVE-2012-5614,\nCVE-2013-1506, CVE-2013-1521, CVE-2013-1531, CVE-2013-1532, CVE-2013-1544,\nCVE-2013-1548, CVE-2013-1552, CVE-2013-1555, CVE-2013-2375, CVE-2013-2378,\nCVE-2013-2389, CVE-2013-2391, CVE-2013-2392)\nThese updated packages upgrade MySQL to version 5.1.69. Refer to the MySQL\nrelease notes listed in the References section for a full list of changes.\nAll MySQL users should upgrade to these updated packages, which correct\nthese issues. After installing this update, the MySQL server daemon\n(mysqld) will be restarted automatically.",
  "Platform": [
    "Red Hat Enterprise Linux 6"
  ],
  "References": [
    {
      "Source": "RHSA",
      "URI": "https://access.redhat.com/errata/RHSA-2013:0772",
      "ID": "RHSA-2013:0772"
    },
    {
      "Source": "CVE",
      "URI": "https://access.redhat.com/security/cve/CVE-2012-5614",
      "ID": "CVE-2012-5614"
    },
    {
      "Source": "CVE",
      "URI": "https://access.redhat.com/security/cve/CVE-2013-1506",
      "ID": "CVE-2013-1506"
    },
    {
      "Source": "CVE",
      "URI": "https://access.redhat.com/security/cve/CVE-2013-1521",
      "ID": "CVE-2013-1521"
    },
    {
      "Source": "CVE",
      "URI": "https://access.redhat.com/security/cve/CVE-2013-1531",
      "ID": "CVE-2013-1531"
    },
    {
      "Source": "CVE",
      "URI": "https://access.redhat.com/security/cve/CVE-2013-1532",
      "ID": "CVE-2013-1532"
    },
    {
      "Source": "CVE",
      "URI": "https://access.redhat.com/security/cve/CVE-2013-1544",
      "ID": "CVE-2013-1544"
    },
    {
      "Source": "CVE",
      "URI": "https://access.redhat.com/security/cve/CVE-2013-1548",
      "ID": "CVE-2013-1548"
    },
    {
      "Source": "CVE",
      "URI": "https://access.redhat.com/security/cve/CVE-2013-1552",
      "ID": "CVE-2013-1552"
    },
    {
      "Source": "CVE",
      "URI": "https://access.redhat.com/security/cve/CVE-2013-1555",
      "ID": "CVE-2013-1555"
    },
    {
      "Source": "CVE",
      "URI": "https://access.redhat.com/security/cve/CVE-2013-2375",
      "ID": "CVE-2013-2375"
    },
    {
      "Source": "CVE",
      "URI": "https://access.redhat.com/security/cve/CVE-2013-2378",
      "ID": "CVE-2013-2378"
    },
    {
      "Source": "CVE",
      "URI": "https://access.redhat.com/security/cve/CVE-2013-2389",
      "ID": "CVE-2013-2389"
    },
    {
      "Source": "CVE",
      "URI": "https://access.redhat.com/security/cve/CVE-2013-2391",
      "ID": "CVE-2013-2391"
    },
    {
      "Source": "CVE",
      "URI": "https://access.redhat.com/security/cve/CVE-2013-2392",
      "ID": "CVE-2013-2392"
    },
    {
      "Source": "CVE",
      "URI": "https://access.redhat.com/security/cve/CVE-2013-3808",
      "ID": "CVE-2013-3808"
    }
  ],
  "Criteria": {
    "Operator": "OR",
    "Criterias": [
      {
        "Operator": "AND",
        "Criterias": [
          {
            "Operator": "OR",
            "Criterias": [
              {
                "Operator": "AND",
                "Criterias": [

                ],
                "Criterions": [
                  {
                    "Comment": "mysql is earlier than 0:5.1.69-1.el6_4"
                  },
                  {
                    "Comment": "mysql is signed with Red Hat redhatrelease2 key"
                  }
                ]
              },
              {
                "Operator": "AND",
                "Criterias": [

                ],
                "Criterions": [
                  {
                    "Comment": "mysql-bench is earlier than 0:5.1.69-1.el6_4"
                  },
                  {
                    "Comment": "mysql-bench is signed with Red Hat redhatrelease2 key"
                  }
                ]
              },
              {
                "Operator": "AND",
                "Criterias": [

                ],
                "Criterions": [
                  {
                    "Comment": "mysql-devel is earlier than 0:5.1.69-1.el6_4"
                  },
                  {
                    "Comment": "mysql-devel is signed with Red Hat redhatrelease2 key"
                  }
                ]
              },
              {
                "Operator": "AND",
                "Criterias": [

                ],
                "Criterions": [
                  {
                    "Comment": "mysql-embedded is earlier than 0:5.1.69-1.el6_4"
                  },
                  {
                    "Comment": "mysql-embedded is signed with Red Hat redhatrelease2 key"
                  }
                ]
              },
              {
                "Operator": "AND",
                "Criterias": [

                ],
                "Criterions": [
                  {
                    "Comment": "mysql-embedded-devel is earlier than 0:5.1.69-1.el6_4"
                  },
                  {
                    "Comment": "mysql-embedded-devel is signed with Red Hat redhatrelease2 key"
                  }
                ]
              },
              {
                "Operator": "AND",
                "Criterias": [

                ],
                "Criterions": [
                  {
                    "Comment": "mysql-libs is earlier than 0:5.1.69-1.el6_4"
                  },
                  {
                    "Comment": "mysql-libs is signed with Red Hat redhatrelease2 key"
                  }
                ]
              },
              {
                "Operator": "AND",
                "Criterias": [

                ],
                "Criterions": [
                  {
                    "Comment": "mysql-server is earlier than 0:5.1.69-1.el6_4"
                  },
                  {
                    "Comment": "mysql-server is signed with Red Hat redhatrelease2 key"
                  }
                ]
              },
              {
                "Operator": "AND",
                "Criterias": [

                ],
                "Criterions": [
                  {
                    "Comment": "mysql-test is earlier than 0:5.1.69-1.el6_4"
                  },
                  {
                    "Comment": "mysql-test is signed with Red Hat redhatrelease2 key"
                  }
                ]
              }
            ],
            "Criterions": [

            ]
          }
        ],
        "Criterions": [
          {
            "Comment": "Oracle Linux 6 is installed"
          }
        ]
      }
    ],
    "Criterions": [
      {
        "Comment": "Oracle Linux 6 is installed"
      }
    ]
  },
  "Severity": "Important",
  "Cves": [
    {
      "Impact": "",
      "Href": "",
      "ID": "CVE-2012-5614"
    },
    {
      "Impact": "",
      "Href": "",
      "ID": "CVE-2013-1506"
    },
    {
      "Impact": "",
      "Href": "",
      "ID": "CVE-2013-1521"
    },
    {
      "Impact": "",
      "Href": "",
      "ID": "CVE-2013-1531"
    },
    {
      "Impact": "",
      "Href": "",
      "ID": "CVE-2013-1532"
    },
    {
      "Impact": "",
      "Href": "",
      "ID": "CVE-2013-1544"
    },
    {
      "Impact": "",
      "Href": "",
      "ID": "CVE-2013-1548"
    },
    {
      "Impact": "",
      "Href": "",
      "ID": "CVE-2013-1552"
    },
    {
      "Impact": "",
      "Href": "",
      "ID": "CVE-2013-1555"
    },
    {
      "Impact": "",
      "Href": "",
      "ID": "CVE-2013-2375"
    },
    {
      "Impact": "",
      "Href": "",
      "ID": "CVE-2013-2378"
    },
    {
      "Impact": "",
      "Href": "",
      "ID": "CVE-2013-2389"
    },
    {
      "Impact": "",
      "Href": "",
      "ID": "CVE-2013-2391"
    },
    {
      "Impact": "",
      "Href": "",
      "ID": "CVE-2013-2392"
    },
    {
      "Impact": "",
      "Href": "",
      "ID": "CVE-2013-3808"
    }
  ],
  "Issued": {
    "Date": "2013-04-25"
  }
}