{
  "Title": "RHSA-2013:0981: firefox security update (Critical)",
  "Description": "Mozilla Firefox is an open source web browser. XULRunner provides the XUL\nRuntime environment for Mozilla Firefox.\nSeveral flaws were found in the processing of malformed web content. A web\npage containing malicious content could cause Firefox to crash or,\npotentially, execute arbitrary code with the privileges of the user running\nFirefox. (CVE-2013-1682, CVE-2013-1684, CVE-2013-1685, CVE-2013-1686,\nCVE-2013-1687, CVE-2013-1690)\nIt was found that Firefox allowed data to be sent in the body of\nXMLHttpRequest (XHR) HEAD requests. In some cases this could allow\nattackers to conduct Cross-Site Request Forgery (CSRF) attacks.\n(CVE-2013-1692)\nTiming differences in the way Firefox processed SVG image files could\nallow an attacker to read data across domains, potentially leading to\ninformation disclosure. (CVE-2013-1693)\nTwo flaws were found in the way Firefox implemented some of its internal\nstructures (called wrappers). An attacker could use these flaws to bypass\nsome restrictions placed on them. This could lead to unexpected behavior or\na potentially exploitable crash. (CVE-2013-1694, CVE-2013-1697)\nRed Hat would like to thank the Mozilla project for reporting these issues.\nUpstream acknowledges Gary Kwong, Jesse Ruderman, Andrew McCreight,\nAbhishek Arya, Mariusz Mlynski, Nils, Johnathan Kuskos, Paul Stone, Boris\nZbarsky, and moz_bug_r_a4 as the original reporters of these issues.\nFor technical details regarding these flaws, refer to the Mozilla\nsecurity advisories for Firefox 17.0.7 ESR. You can find a link to the\nMozilla advisories in the References section of this erratum.\nAll Firefox users should upgrade to these updated packages, which contain\nFirefox version 17.0.7 ESR, which corrects these issues. After installing\nthe update, Firefox must be restarted for the changes to take effect.",
  "Platform": [
    "Red Hat Enterprise Linux 5",
    "Red Hat Enterprise Linux 6"
  ],
  "References": [
    {
      "Source": "RHSA",
      "URI": "https://access.redhat.com/errata/RHSA-2013:0981",
      "ID": "RHSA-2013:0981"
    },
    {
      "Source": "CVE",
      "URI": "https://access.redhat.com/security/cve/CVE-2013-1682",
      "ID": "CVE-2013-1682"
    },
    {
      "Source": "CVE",
      "URI": "https://access.redhat.com/security/cve/CVE-2013-1684",
      "ID": "CVE-2013-1684"
    },
    {
      "Source": "CVE",
      "URI": "https://access.redhat.com/security/cve/CVE-2013-1685",
      "ID": "CVE-2013-1685"
    },
    {
      "Source": "CVE",
      "URI": "https://access.redhat.com/security/cve/CVE-2013-1686",
      "ID": "CVE-2013-1686"
    },
    {
      "Source": "CVE",
      "URI": "https://access.redhat.com/security/cve/CVE-2013-1687",
      "ID": "CVE-2013-1687"
    },
    {
      "Source": "CVE",
      "URI": "https://access.redhat.com/security/cve/CVE-2013-1690",
      "ID": "CVE-2013-1690"
    },
    {
      "Source": "CVE",
      "URI": "https://access.redhat.com/security/cve/CVE-2013-1692",
      "ID": "CVE-2013-1692"
    },
    {
      "Source": "CVE",
      "URI": "https://access.redhat.com/security/cve/CVE-2013-1693",
      "ID": "CVE-2013-1693"
    },
    {
      "Source": "CVE",
      "URI": "https://access.redhat.com/security/cve/CVE-2013-1694",
      "ID": "CVE-2013-1694"
    },
    {
      "Source": "CVE",
      "URI": "https://access.redhat.com/security/cve/CVE-2013-1697",
      "ID": "CVE-2013-1697"
    }
  ],
  "Criteria": {
    "Operator": "OR",
    "Criterias": [
      {
        "Operator": "AND",
        "Criterias": [
          {
            "Operator": "OR",
            "Criterias": [
              {
                "Operator": "AND",
                "Criterias": [

                ],
                "Criterions": [
                  {
                    "Comment": "xulrunner is earlier than 0:17.0.7-1.el5_9"
                  },
                  {
                    "Comment": "xulrunner is signed with Red Hat redhatrelease2 key"
                  }
                ]
              },
              {
                "Operator": "AND",
                "Criterias": [

                ],
                "Criterions": [
                  {
                    "Comment": "xulrunner-devel is earlier than 0:17.0.7-1.el5_9"
                  },
                  {
                    "Comment": "xulrunner-devel is signed with Red Hat redhatrelease2 key"
                  }
                ]
              },
              {
                "Operator": "AND",
                "Criterias": [

                ],
                "Criterions": [
                  {
                    "Comment": "firefox is earlier than 0:17.0.7-1.el5_9"
                  },
                  {
                    "Comment": "firefox is signed with Red Hat redhatrelease2 key"
                  }
                ]
              }
            ],
            "Criterions": [

            ]
          }
        ],
        "Criterions": [
          {
            "Comment": "Oracle Linux 5 is installed"
          }
        ]
      },
      {
        "Operator": "AND",
        "Criterias": [
          {
            "Operator": "OR",
            "Criterias": [
              {
                "Operator": "AND",
                "Criterias": [

                ],
                "Criterions": [
                  {
                    "Comment": "xulrunner is earlier than 0:17.0.7-1.el6_4"
                  },
                  {
                    "Comment": "xulrunner is signed with Red Hat redhatrelease2 key"
                  }
                ]
              },
              {
                "Operator": "AND",
                "Criterias": [

                ],
                "Criterions": [
                  {
                    "Comment": "xulrunner-devel is earlier than 0:17.0.7-1.el6_4"
                  },
                  {
                    "Comment": "xulrunner-devel is signed with Red Hat redhatrelease2 key"
                  }
                ]
              },
              {
                "Operator": "AND",
                "Criterias": [

                ],
                "Criterions": [
                  {
                    "Comment": "firefox is earlier than 0:17.0.7-1.el6_4"
                  },
                  {
                    "Comment": "firefox is signed with Red Hat redhatrelease2 key"
                  }
                ]
              }
            ],
            "Criterions": [

            ]
          }
        ],
        "Criterions": [
          {
            "Comment": "Oracle Linux 6 is installed"
          }
        ]
      }
    ],
    "Criterions": [
      {
        "Comment": "Oracle Linux 5 is installed"
      }
    ]
  },
  "Severity": "Critical",
  "Cves": [
    {
      "Impact": "",
      "Href": "",
      "ID": "CVE-2013-1682"
    },
    {
      "Impact": "",
      "Href": "",
      "ID": "CVE-2013-1684"
    },
    {
      "Impact": "",
      "Href": "",
      "ID": "CVE-2013-1685"
    },
    {
      "Impact": "",
      "Href": "",
      "ID": "CVE-2013-1686"
    },
    {
      "Impact": "",
      "Href": "",
      "ID": "CVE-2013-1687"
    },
    {
      "Impact": "",
      "Href": "",
      "ID": "CVE-2013-1690"
    },
    {
      "Impact": "",
      "Href": "",
      "ID": "CVE-2013-1692"
    },
    {
      "Impact": "",
      "Href": "",
      "ID": "CVE-2013-1693"
    },
    {
      "Impact": "",
      "Href": "",
      "ID": "CVE-2013-1694"
    },
    {
      "Impact": "",
      "Href": "",
      "ID": "CVE-2013-1697"
    }
  ],
  "Issued": {
    "Date": "2013-06-25"
  }
}