{
  "Title": "RHSA-2013:0525: pcsc-lite security and bug fix update (Moderate)",
  "Description": "PC/SC Lite provides a Windows SCard compatible interface for communicating\nwith smart cards, smart card readers, and other security tokens.\nA stack-based buffer overflow flaw was found in the way pcsc-lite decoded\ncertain attribute values of Answer-to-Reset (ATR) messages. A local\nattacker could use this flaw to execute arbitrary code with the privileges\nof the user running the pcscd daemon (root, by default), by inserting a\nspecially-crafted smart card. (CVE-2010-4531)\nThis update also fixes the following bugs:\n* Due to an error in the init script, the chkconfig utility did not\nautomatically place the pcscd init script after the start of the HAL\ndaemon. Consequently, the pcscd service did not start automatically at boot\ntime. With this update, the pcscd init script has been changed to\nexplicitly start only after HAL is up, thus fixing this bug. (BZ#788474,\nBZ#814549)\n* Because the chkconfig settings and the startup files in the /etc/rc.d/\ndirectory were not changed during the update described in the\nRHBA-2012:0990 advisory, the user had to update the chkconfig settings\nmanually to fix the problem. Now, the chkconfig settings and the startup\nfiles in the /etc/rc.d/ directory are automatically updated as expected.\n(BZ#834803)\n* Previously, the SCardGetAttrib() function did not work properly and\nalways returned the \"SCARD_E_INSUFFICIENT_BUFFER\" error regardless of the\nactual buffer size. This update applies a patch to fix this bug and the\nSCardGetAttrib() function now works as expected. (BZ#891852)\nAll users of pcsc-lite are advised to upgrade to these updated packages,\nwhich fix these issues. After installing this update, the pcscd daemon will\nbe restarted automatically.",
  "Platform": [
    "Red Hat Enterprise Linux 6"
  ],
  "References": [
    {
      "Source": "RHSA",
      "URI": "https://access.redhat.com/errata/RHSA-2013:0525",
      "ID": "RHSA-2013:0525"
    },
    {
      "Source": "CVE",
      "URI": "https://access.redhat.com/security/cve/CVE-2010-4531",
      "ID": "CVE-2010-4531"
    }
  ],
  "Criteria": {
    "Operator": "OR",
    "Criterias": [
      {
        "Operator": "AND",
        "Criterias": [
          {
            "Operator": "OR",
            "Criterias": [
              {
                "Operator": "AND",
                "Criterias": [

                ],
                "Criterions": [
                  {
                    "Comment": "pcsc-lite is earlier than 0:1.5.2-11.el6"
                  },
                  {
                    "Comment": "pcsc-lite is signed with Red Hat redhatrelease2 key"
                  }
                ]
              },
              {
                "Operator": "AND",
                "Criterias": [

                ],
                "Criterions": [
                  {
                    "Comment": "pcsc-lite-devel is earlier than 0:1.5.2-11.el6"
                  },
                  {
                    "Comment": "pcsc-lite-devel is signed with Red Hat redhatrelease2 key"
                  }
                ]
              },
              {
                "Operator": "AND",
                "Criterias": [

                ],
                "Criterions": [
                  {
                    "Comment": "pcsc-lite-doc is earlier than 0:1.5.2-11.el6"
                  },
                  {
                    "Comment": "pcsc-lite-doc is signed with Red Hat redhatrelease2 key"
                  }
                ]
              },
              {
                "Operator": "AND",
                "Criterias": [

                ],
                "Criterions": [
                  {
                    "Comment": "pcsc-lite-libs is earlier than 0:1.5.2-11.el6"
                  },
                  {
                    "Comment": "pcsc-lite-libs is signed with Red Hat redhatrelease2 key"
                  }
                ]
              }
            ],
            "Criterions": [

            ]
          }
        ],
        "Criterions": [
          {
            "Comment": "Oracle Linux 6 is installed"
          }
        ]
      }
    ],
    "Criterions": [
      {
        "Comment": "Oracle Linux 6 is installed"
      }
    ]
  },
  "Severity": "Moderate",
  "Cves": [
    {
      "Impact": "",
      "Href": "",
      "ID": "CVE-2010-4531"
    }
  ],
  "Issued": {
    "Date": "2013-02-20"
  }
}