{
  "Title": "RHSA-2013:0656: krb5 security update (Moderate)",
  "Description": "Kerberos is a network authentication system which allows clients and\nservers to authenticate to each other using symmetric encryption and a\ntrusted third-party, the Key Distribution Center (KDC).\nWhen a client attempts to use PKINIT to obtain credentials from the KDC,\nthe client can specify, using an issuer and serial number, which of the\nKDC's possibly-many certificates the client has in its possession, as a\nhint to the KDC that it should use the corresponding key to sign its\nresponse. If that specification was malformed, the KDC could attempt to\ndereference a NULL pointer and crash. (CVE-2013-1415)\nWhen a client attempts to use PKINIT to obtain credentials from the KDC,\nthe client will typically format its request to conform to the\nspecification published in RFC 4556. For interoperability reasons, clients\nand servers also provide support for an older, draft version of that\nspecification. If a client formatted its request to conform to this older\nversion of the specification, with a non-default key agreement option, it\ncould cause the KDC to attempt to dereference a NULL pointer and crash.\n(CVE-2012-1016)\nAll krb5 users should upgrade to these updated packages, which contain\nbackported patches to correct these issues. After installing the updated\npackages, the krb5kdc daemon will be restarted automatically.",
  "Platform": [
    "Red Hat Enterprise Linux 6"
  ],
  "References": [
    {
      "Source": "RHSA",
      "URI": "https://access.redhat.com/errata/RHSA-2013:0656",
      "ID": "RHSA-2013:0656"
    },
    {
      "Source": "CVE",
      "URI": "https://access.redhat.com/security/cve/CVE-2012-1016",
      "ID": "CVE-2012-1016"
    },
    {
      "Source": "CVE",
      "URI": "https://access.redhat.com/security/cve/CVE-2013-1415",
      "ID": "CVE-2013-1415"
    }
  ],
  "Criteria": {
    "Operator": "OR",
    "Criterias": [
      {
        "Operator": "AND",
        "Criterias": [
          {
            "Operator": "OR",
            "Criterias": [
              {
                "Operator": "AND",
                "Criterias": [

                ],
                "Criterions": [
                  {
                    "Comment": "krb5-devel is earlier than 0:1.10.3-10.el6_4.1"
                  },
                  {
                    "Comment": "krb5-devel is signed with Red Hat redhatrelease2 key"
                  }
                ]
              },
              {
                "Operator": "AND",
                "Criterias": [

                ],
                "Criterions": [
                  {
                    "Comment": "krb5-libs is earlier than 0:1.10.3-10.el6_4.1"
                  },
                  {
                    "Comment": "krb5-libs is signed with Red Hat redhatrelease2 key"
                  }
                ]
              },
              {
                "Operator": "AND",
                "Criterias": [

                ],
                "Criterions": [
                  {
                    "Comment": "krb5-pkinit-openssl is earlier than 0:1.10.3-10.el6_4.1"
                  },
                  {
                    "Comment": "krb5-pkinit-openssl is signed with Red Hat redhatrelease2 key"
                  }
                ]
              },
              {
                "Operator": "AND",
                "Criterias": [

                ],
                "Criterions": [
                  {
                    "Comment": "krb5-server is earlier than 0:1.10.3-10.el6_4.1"
                  },
                  {
                    "Comment": "krb5-server is signed with Red Hat redhatrelease2 key"
                  }
                ]
              },
              {
                "Operator": "AND",
                "Criterias": [

                ],
                "Criterions": [
                  {
                    "Comment": "krb5-server-ldap is earlier than 0:1.10.3-10.el6_4.1"
                  },
                  {
                    "Comment": "krb5-server-ldap is signed with Red Hat redhatrelease2 key"
                  }
                ]
              },
              {
                "Operator": "AND",
                "Criterias": [

                ],
                "Criterions": [
                  {
                    "Comment": "krb5-workstation is earlier than 0:1.10.3-10.el6_4.1"
                  },
                  {
                    "Comment": "krb5-workstation is signed with Red Hat redhatrelease2 key"
                  }
                ]
              }
            ],
            "Criterions": [

            ]
          }
        ],
        "Criterions": [
          {
            "Comment": "Oracle Linux 6 is installed"
          }
        ]
      }
    ],
    "Criterions": [
      {
        "Comment": "Oracle Linux 6 is installed"
      }
    ]
  },
  "Severity": "Moderate",
  "Cves": [
    {
      "Impact": "",
      "Href": "",
      "ID": "CVE-2012-1016"
    },
    {
      "Impact": "",
      "Href": "",
      "ID": "CVE-2013-1415"
    }
  ],
  "Issued": {
    "Date": "2013-03-18"
  }
}