{
  "Title": "RHSA-2013:0581: libxml2 security update (Moderate)",
  "Description": "The libxml2 library is a development toolbox providing the implementation\nof various XML standards.\nA denial of service flaw was found in the way libxml2 performed string\nsubstitutions when entity values for entity references replacement was\nenabled. A remote attacker could provide a specially-crafted XML file that,\nwhen processed by an application linked against libxml2, would lead to\nexcessive CPU consumption. (CVE-2013-0338)\nAll users of libxml2 are advised to upgrade to these updated packages,\nwhich contain a backported patch to correct this issue. The desktop must\nbe restarted (log out, then log back in) for this update to take effect.",
  "Platform": [
    "Red Hat Enterprise Linux 5",
    "Red Hat Enterprise Linux 6"
  ],
  "References": [
    {
      "Source": "RHSA",
      "URI": "https://access.redhat.com/errata/RHSA-2013:0581",
      "ID": "RHSA-2013:0581"
    },
    {
      "Source": "CVE",
      "URI": "https://access.redhat.com/security/cve/CVE-2013-0338",
      "ID": "CVE-2013-0338"
    }
  ],
  "Criteria": {
    "Operator": "OR",
    "Criterias": [
      {
        "Operator": "AND",
        "Criterias": [
          {
            "Operator": "OR",
            "Criterias": [
              {
                "Operator": "AND",
                "Criterias": [

                ],
                "Criterions": [
                  {
                    "Comment": "libxml2 is earlier than 0:2.6.26-2.1.21.el5_9.1"
                  },
                  {
                    "Comment": "libxml2 is signed with Red Hat redhatrelease2 key"
                  }
                ]
              },
              {
                "Operator": "AND",
                "Criterias": [

                ],
                "Criterions": [
                  {
                    "Comment": "libxml2-devel is earlier than 0:2.6.26-2.1.21.el5_9.1"
                  },
                  {
                    "Comment": "libxml2-devel is signed with Red Hat redhatrelease2 key"
                  }
                ]
              },
              {
                "Operator": "AND",
                "Criterias": [

                ],
                "Criterions": [
                  {
                    "Comment": "libxml2-python is earlier than 0:2.6.26-2.1.21.el5_9.1"
                  },
                  {
                    "Comment": "libxml2-python is signed with Red Hat redhatrelease2 key"
                  }
                ]
              }
            ],
            "Criterions": [

            ]
          }
        ],
        "Criterions": [
          {
            "Comment": "Oracle Linux 5 is installed"
          }
        ]
      },
      {
        "Operator": "AND",
        "Criterias": [
          {
            "Operator": "OR",
            "Criterias": [
              {
                "Operator": "AND",
                "Criterias": [

                ],
                "Criterions": [
                  {
                    "Comment": "libxml2 is earlier than 0:2.7.6-12.el6_4.1"
                  },
                  {
                    "Comment": "libxml2 is signed with Red Hat redhatrelease2 key"
                  }
                ]
              },
              {
                "Operator": "AND",
                "Criterias": [

                ],
                "Criterions": [
                  {
                    "Comment": "libxml2-devel is earlier than 0:2.7.6-12.el6_4.1"
                  },
                  {
                    "Comment": "libxml2-devel is signed with Red Hat redhatrelease2 key"
                  }
                ]
              },
              {
                "Operator": "AND",
                "Criterias": [

                ],
                "Criterions": [
                  {
                    "Comment": "libxml2-python is earlier than 0:2.7.6-12.el6_4.1"
                  },
                  {
                    "Comment": "libxml2-python is signed with Red Hat redhatrelease2 key"
                  }
                ]
              },
              {
                "Operator": "AND",
                "Criterias": [

                ],
                "Criterions": [
                  {
                    "Comment": "libxml2-static is earlier than 0:2.7.6-12.el6_4.1"
                  },
                  {
                    "Comment": "libxml2-static is signed with Red Hat redhatrelease2 key"
                  }
                ]
              }
            ],
            "Criterions": [

            ]
          }
        ],
        "Criterions": [
          {
            "Comment": "Oracle Linux 6 is installed"
          }
        ]
      }
    ],
    "Criterions": [
      {
        "Comment": "Oracle Linux 5 is installed"
      }
    ]
  },
  "Severity": "Moderate",
  "Cves": [
    {
      "Impact": "",
      "Href": "",
      "ID": "CVE-2013-0338"
    }
  ],
  "Issued": {
    "Date": "2013-02-28"
  }
}