{
  "Title": "RHSA-2008:0768: mysql security, bug fix, and enhancement update (Moderate)",
  "Description": "MySQL is a multi-user, multi-threaded SQL database server. MySQL is a\nclient/server implementation consisting of a server daemon (mysqld), and\nmany different client programs and libraries.\nMySQL did not correctly check directories used as arguments for the DATA\nDIRECTORY and INDEX DIRECTORY directives. Using this flaw, an authenticated\nattacker could elevate their access privileges to tables created by other\ndatabase users. Note: this attack does not work on existing tables. An\nattacker can only elevate their access to another user's tables as the\ntables are created. As well, the names of these created tables need to be\npredicted correctly for this attack to succeed. (CVE-2008-2079)\nMySQL did not require the \"DROP\" privilege for \"RENAME TABLE\" statements.\nAn authenticated user could use this flaw to rename arbitrary tables.\n(CVE-2007-2691)\nMySQL allowed an authenticated user to access a table through a previously\ncreated MERGE table, even after the user's privileges were revoked from the\noriginal table, which might violate intended security policy. This is\naddressed by allowing the MERGE storage engine to be disabled, which can be\ndone by running mysqld with the \"--skip-merge\" option. (CVE-2006-4031)\nA flaw in MySQL allowed an authenticated user to cause the MySQL daemon to\ncrash via crafted SQL queries. This only caused a temporary denial of\nservice, as the MySQL daemon is automatically restarted after the crash.\n(CVE-2006-3469)\nAs well, these updated packages fix the following bugs:\n* in the previous mysql packages, if a column name was referenced more\nthan once in an \"ORDER BY\" section of a query, a segmentation fault\noccurred.\n* when MySQL failed to start, the init script returned a successful (0)\nexit code. When using the Red Hat Cluster Suite, this may have caused\ncluster services to report a successful start, even when MySQL failed to\nstart. In these updated packages, the init script returns the correct exit\ncodes, which resolves this issue.\n* it was possible to use the mysqld_safe command to specify invalid port\nnumbers (higher than 65536), causing invalid ports to be created, and, in\nsome cases, a \"port number definition: unsigned short\" error. In these\nupdated packages, when an invalid port number is specified, the default\nport number is used.\n* when setting \"myisam_repair_threads > 1\", any repair set the index\ncardinality to \"1\", regardless of the table size.\n* the MySQL init script no longer runs \"chmod -R\" on the entire database\ndirectory tree during every startup.\n* when running \"mysqldump\" with the MySQL 4.0 compatibility mode option,\n\"--compatible=mysql40\", mysqldump created dumps that omitted the\n\"auto_increment\" field.\nAs well, the MySQL init script now uses more reliable methods for\ndetermining parameters, such as the data directory location.\nNote: these updated packages upgrade MySQL to version 4.1.22. For a full\nlist of bug fixes and enhancements, refer to the MySQL release notes:\nhttp://dev.mysql.com/doc/refman/4.1/en/news-4-1-22.html\nAll mysql users are advised to upgrade to these updated packages, which\nresolve these issues and add this enhancement.",
  "Platform": [
    "Red Hat Enterprise Linux 4"
  ],
  "References": [
    {
      "Source": "RHSA",
      "URI": "https://access.redhat.com/errata/RHSA-2008:0768",
      "ID": "RHSA-2008:0768"
    },
    {
      "Source": "CVE",
      "URI": "https://access.redhat.com/security/cve/CVE-2006-3469",
      "ID": "CVE-2006-3469"
    },
    {
      "Source": "CVE",
      "URI": "https://access.redhat.com/security/cve/CVE-2006-4031",
      "ID": "CVE-2006-4031"
    },
    {
      "Source": "CVE",
      "URI": "https://access.redhat.com/security/cve/CVE-2007-2691",
      "ID": "CVE-2007-2691"
    },
    {
      "Source": "CVE",
      "URI": "https://access.redhat.com/security/cve/CVE-2008-2079",
      "ID": "CVE-2008-2079"
    }
  ],
  "Criteria": {
    "Operator": "OR",
    "Criterias": [
      {
        "Operator": "AND",
        "Criterias": [
          {
            "Operator": "OR",
            "Criterias": [
              {
                "Operator": "AND",
                "Criterias": [

                ],
                "Criterions": [
                  {
                    "Comment": "mysql is earlier than 0:4.1.22-2.el4"
                  },
                  {
                    "Comment": "mysql is signed with Red Hat redhatrelease2 key"
                  }
                ]
              },
              {
                "Operator": "AND",
                "Criterias": [

                ],
                "Criterions": [
                  {
                    "Comment": "mysql-bench is earlier than 0:4.1.22-2.el4"
                  },
                  {
                    "Comment": "mysql-bench is signed with Red Hat redhatrelease2 key"
                  }
                ]
              },
              {
                "Operator": "AND",
                "Criterias": [

                ],
                "Criterions": [
                  {
                    "Comment": "mysql-devel is earlier than 0:4.1.22-2.el4"
                  },
                  {
                    "Comment": "mysql-devel is signed with Red Hat redhatrelease2 key"
                  }
                ]
              },
              {
                "Operator": "AND",
                "Criterias": [

                ],
                "Criterions": [
                  {
                    "Comment": "mysql-server is earlier than 0:4.1.22-2.el4"
                  },
                  {
                    "Comment": "mysql-server is signed with Red Hat redhatrelease2 key"
                  }
                ]
              }
            ],
            "Criterions": [

            ]
          }
        ],
        "Criterions": [
          {
            "Comment": "Oracle Linux 4 is installed"
          }
        ]
      }
    ],
    "Criterions": [
      {
        "Comment": "Oracle Linux 4 is installed"
      }
    ]
  },
  "Severity": "Moderate",
  "Cves": [
    {
      "Impact": "",
      "Href": "",
      "ID": "CVE-2006-3469"
    },
    {
      "Impact": "",
      "Href": "",
      "ID": "CVE-2006-4031"
    },
    {
      "Impact": "",
      "Href": "",
      "ID": "CVE-2007-2691"
    },
    {
      "Impact": "",
      "Href": "",
      "ID": "CVE-2008-2079"
    }
  ],
  "Issued": {
    "Date": "2008-07-24"
  }
}