{
  "Title": "RHSA-2008:0238: kdegraphics security update (Important)",
  "Description": "The kdegraphics packages contain applications for the K Desktop\nEnvironment, including kpdf, a PDF file viewer.\nKees Cook discovered a flaw in the way kpdf displayed malformed fonts\nembedded in PDF files. An attacker could create a malicious PDF file that\nwould cause kpdf to crash, or, potentially, execute arbitrary code when\nopened. (CVE-2008-1693)\nAll kdegraphics users are advised to upgrade to these updated packages,\nwhich contain backported patches to resolve this issue.",
  "Platform": [
    "Red Hat Enterprise Linux 4"
  ],
  "References": [
    {
      "Source": "RHSA",
      "URI": "https://access.redhat.com/errata/RHSA-2008:0238",
      "ID": "RHSA-2008:0238"
    },
    {
      "Source": "CVE",
      "URI": "https://access.redhat.com/security/cve/CVE-2008-1693",
      "ID": "CVE-2008-1693"
    }
  ],
  "Criteria": {
    "Operator": "OR",
    "Criterias": [
      {
        "Operator": "AND",
        "Criterias": [
          {
            "Operator": "OR",
            "Criterias": [
              {
                "Operator": "AND",
                "Criterias": [

                ],
                "Criterions": [
                  {
                    "Comment": "kdegraphics is earlier than 7:3.3.1-9.el4_6"
                  },
                  {
                    "Comment": "kdegraphics is signed with Red Hat master key"
                  }
                ]
              },
              {
                "Operator": "AND",
                "Criterias": [

                ],
                "Criterions": [
                  {
                    "Comment": "kdegraphics-devel is earlier than 7:3.3.1-9.el4_6"
                  },
                  {
                    "Comment": "kdegraphics-devel is signed with Red Hat master key"
                  }
                ]
              }
            ],
            "Criterions": [

            ]
          }
        ],
        "Criterions": [
          {
            "Comment": "Oracle Linux 4 is installed"
          }
        ]
      }
    ],
    "Criterions": [
      {
        "Comment": "Oracle Linux 4 is installed"
      }
    ]
  },
  "Severity": "Important",
  "Cves": [
    {
      "Impact": "",
      "Href": "",
      "ID": "CVE-2008-1693"
    }
  ],
  "Issued": {
    "Date": "2008-04-17"
  }
}