{
  "Title": "RHSA-2008:0192: cups security update (Moderate)",
  "Description": "The Common UNIX Printing System (CUPS) provides a portable printing layer\nfor UNIX(R) operating systems.\nA heap buffer overflow flaw was found in a CUPS administration interface\nCGI script. A local attacker able to connect to the IPP port (TCP port 631)\ncould send a malicious request causing the script to crash or, potentially,\nexecute arbitrary code as the \"lp\" user. Please note: the default CUPS\nconfiguration in Red Hat Enterprise Linux 5 does not allow remote\nconnections to the IPP TCP port. (CVE-2008-0047)\nRed Hat would like to thank \"regenrecht\" for reporting this issue.\nThis issue did not affect the versions of CUPS as shipped with Red Hat\nEnterprise Linux 3 or 4.\nTwo overflows were discovered in the HP-GL/2-to-PostScript filter. An\nattacker could create a malicious HP-GL/2 file that could possibly execute\narbitrary code as the \"lp\" user if the file is printed. (CVE-2008-0053)\nA buffer overflow flaw was discovered in the GIF decoding routines used by\nCUPS image converting filters \"imagetops\" and \"imagetoraster\". An attacker\ncould create a malicious GIF file that could possibly execute arbitrary\ncode as the \"lp\" user if the file was printed. (CVE-2008-1373)\nAll cups users are advised to upgrade to these updated packages, which\ncontain backported patches to resolve these issues.",
  "Platform": [
    "Red Hat Enterprise Linux 5"
  ],
  "References": [
    {
      "Source": "RHSA",
      "URI": "https://access.redhat.com/errata/RHSA-2008:0192",
      "ID": "RHSA-2008:0192"
    },
    {
      "Source": "CVE",
      "URI": "https://access.redhat.com/security/cve/CVE-2008-0047",
      "ID": "CVE-2008-0047"
    },
    {
      "Source": "CVE",
      "URI": "https://access.redhat.com/security/cve/CVE-2008-0053",
      "ID": "CVE-2008-0053"
    },
    {
      "Source": "CVE",
      "URI": "https://access.redhat.com/security/cve/CVE-2008-1373",
      "ID": "CVE-2008-1373"
    }
  ],
  "Criteria": {
    "Operator": "OR",
    "Criterias": [
      {
        "Operator": "AND",
        "Criterias": [
          {
            "Operator": "OR",
            "Criterias": [
              {
                "Operator": "AND",
                "Criterias": [

                ],
                "Criterions": [
                  {
                    "Comment": "cups is earlier than 1:1.2.4-11.14.el5_1.6"
                  },
                  {
                    "Comment": "cups is signed with Red Hat redhatrelease2 key"
                  }
                ]
              },
              {
                "Operator": "AND",
                "Criterias": [

                ],
                "Criterions": [
                  {
                    "Comment": "cups-devel is earlier than 1:1.2.4-11.14.el5_1.6"
                  },
                  {
                    "Comment": "cups-devel is signed with Red Hat redhatrelease2 key"
                  }
                ]
              },
              {
                "Operator": "AND",
                "Criterias": [

                ],
                "Criterions": [
                  {
                    "Comment": "cups-libs is earlier than 1:1.2.4-11.14.el5_1.6"
                  },
                  {
                    "Comment": "cups-libs is signed with Red Hat redhatrelease2 key"
                  }
                ]
              },
              {
                "Operator": "AND",
                "Criterias": [

                ],
                "Criterions": [
                  {
                    "Comment": "cups-lpd is earlier than 1:1.2.4-11.14.el5_1.6"
                  },
                  {
                    "Comment": "cups-lpd is signed with Red Hat redhatrelease2 key"
                  }
                ]
              }
            ],
            "Criterions": [

            ]
          }
        ],
        "Criterions": [
          {
            "Comment": "Oracle Linux 5 is installed"
          }
        ]
      }
    ],
    "Criterions": [
      {
        "Comment": "Oracle Linux 5 is installed"
      }
    ]
  },
  "Severity": "Moderate",
  "Cves": [
    {
      "Impact": "",
      "Href": "",
      "ID": "CVE-2008-0047"
    },
    {
      "Impact": "",
      "Href": "",
      "ID": "CVE-2008-0053"
    },
    {
      "Impact": "",
      "Href": "",
      "ID": "CVE-2008-1373"
    }
  ],
  "Issued": {
    "Date": "2008-04-01"
  }
}