{
  "Title": "RHSA-2008:0123: java-1.5.0-sun security update (Critical)",
  "Description": "The Java Runtime Environment (JRE) contains the software and tools that\nusers need to run applets and applications written using the Java\nprogramming language.\nThese updated java-1.5.0-sun packages resolve the following security issues:\nTwo vulnerabilities in the Java Runtime Environment allowed an untrusted\napplication or applet to elevate the assigned privileges. This could be\nmisused by a malicious website to read and write local files or execute\nlocal applications in the context of the user running the Java process.\n(CVE-2008-0657) \nUsers of java-1.5.0-sun should upgrade to these updated packages, which\ncontain backported patches to correct these issues.",
  "Platform": [
    "Supplementary for Red Hat Enterprise Linux 5"
  ],
  "References": [
    {
      "Source": "RHSA",
      "URI": "https://rhn.redhat.com/errata/RHSA-2008-0123.html",
      "ID": "RHSA-2008:0123-01"
    },
    {
      "Source": "CVE",
      "URI": "https://access.redhat.com/security/cve/CVE-2008-0657",
      "ID": "CVE-2008-0657"
    }
  ],
  "Criteria": {
    "Operator": "AND",
    "Criterias": [
      {
        "Operator": "OR",
        "Criterias": [
          {
            "Operator": "AND",
            "Criterias": [

            ],
            "Criterions": [
              {
                "Comment": "java-1.5.0-sun is earlier than 0:1.5.0.14-1jpp.2.el5"
              },
              {
                "Comment": "java-1.5.0-sun is signed with Red Hat redhatrelease key"
              }
            ]
          },
          {
            "Operator": "AND",
            "Criterias": [

            ],
            "Criterions": [
              {
                "Comment": "java-1.5.0-sun-demo is earlier than 0:1.5.0.14-1jpp.2.el5"
              },
              {
                "Comment": "java-1.5.0-sun-demo is signed with Red Hat redhatrelease key"
              }
            ]
          },
          {
            "Operator": "AND",
            "Criterias": [

            ],
            "Criterions": [
              {
                "Comment": "java-1.5.0-sun-devel is earlier than 0:1.5.0.14-1jpp.2.el5"
              },
              {
                "Comment": "java-1.5.0-sun-devel is signed with Red Hat redhatrelease key"
              }
            ]
          },
          {
            "Operator": "AND",
            "Criterias": [

            ],
            "Criterions": [
              {
                "Comment": "java-1.5.0-sun-jdbc is earlier than 0:1.5.0.14-1jpp.2.el5"
              },
              {
                "Comment": "java-1.5.0-sun-jdbc is signed with Red Hat redhatrelease key"
              }
            ]
          },
          {
            "Operator": "AND",
            "Criterias": [

            ],
            "Criterions": [
              {
                "Comment": "java-1.5.0-sun-plugin is earlier than 0:1.5.0.14-1jpp.2.el5"
              },
              {
                "Comment": "java-1.5.0-sun-plugin is signed with Red Hat redhatrelease key"
              }
            ]
          },
          {
            "Operator": "AND",
            "Criterias": [

            ],
            "Criterions": [
              {
                "Comment": "java-1.5.0-sun-src is earlier than 0:1.5.0.14-1jpp.2.el5"
              },
              {
                "Comment": "java-1.5.0-sun-src is signed with Red Hat redhatrelease key"
              }
            ]
          }
        ],
        "Criterions": [

        ]
      }
    ],
    "Criterions": [
      {
        "Comment": "Oracle Linux 5 is installed"
      }
    ]
  },
  "Severity": "Critical",
  "Cves": [
    {
      "Impact": "",
      "Href": "",
      "ID": "CVE-2008-0657"
    }
  ],
  "Issued": {
    "Date": "2008-02-12"
  }
}