{
  "Title": "RHSA-2008:0648: tomcat security update (Important)",
  "Description": "Apache Tomcat is a servlet container for the Java Servlet and JavaServer\nPages (JSP) technologies.\nA cross-site scripting vulnerability was discovered in the\nHttpServletResponse.sendError() method. A remote attacker could inject\narbitrary web script or HTML via forged HTTP headers. (CVE-2008-1232)\nAn additional cross-site scripting vulnerability was discovered in the host\nmanager application. A remote attacker could inject arbitrary web script or\nHTML via the hostname parameter. (CVE-2008-1947)\nA traversal vulnerability was discovered when using a RequestDispatcher\nin combination with a servlet or JSP. A remote attacker could utilize a\nspecially-crafted request parameter to access protected web resources.\n(CVE-2008-2370)\nAn additional traversal vulnerability was discovered when the\n\"allowLinking\" and \"URIencoding\" settings were activated. A remote attacker\ncould use a UTF-8-encoded request to extend their privileges and obtain\nlocal files accessible to the Tomcat process. (CVE-2008-2938)\nUsers of tomcat should upgrade to these updated packages, which contain\nbackported patches to resolve these issues.",
  "Platform": [
    "Red Hat Enterprise Linux 5"
  ],
  "References": [
    {
      "Source": "RHSA",
      "URI": "https://access.redhat.com/errata/RHSA-2008:0648",
      "ID": "RHSA-2008:0648"
    },
    {
      "Source": "CVE",
      "URI": "https://access.redhat.com/security/cve/CVE-2008-1232",
      "ID": "CVE-2008-1232"
    },
    {
      "Source": "CVE",
      "URI": "https://access.redhat.com/security/cve/CVE-2008-1947",
      "ID": "CVE-2008-1947"
    },
    {
      "Source": "CVE",
      "URI": "https://access.redhat.com/security/cve/CVE-2008-2370",
      "ID": "CVE-2008-2370"
    },
    {
      "Source": "CVE",
      "URI": "https://access.redhat.com/security/cve/CVE-2008-2938",
      "ID": "CVE-2008-2938"
    }
  ],
  "Criteria": {
    "Operator": "OR",
    "Criterias": [
      {
        "Operator": "AND",
        "Criterias": [
          {
            "Operator": "OR",
            "Criterias": [
              {
                "Operator": "AND",
                "Criterias": [

                ],
                "Criterions": [
                  {
                    "Comment": "tomcat5 is earlier than 0:5.5.23-0jpp.7.el5_2.1"
                  },
                  {
                    "Comment": "tomcat5 is signed with Red Hat redhatrelease2 key"
                  }
                ]
              },
              {
                "Operator": "AND",
                "Criterias": [

                ],
                "Criterions": [
                  {
                    "Comment": "tomcat5-admin-webapps is earlier than 0:5.5.23-0jpp.7.el5_2.1"
                  },
                  {
                    "Comment": "tomcat5-admin-webapps is signed with Red Hat redhatrelease2 key"
                  }
                ]
              },
              {
                "Operator": "AND",
                "Criterias": [

                ],
                "Criterions": [
                  {
                    "Comment": "tomcat5-common-lib is earlier than 0:5.5.23-0jpp.7.el5_2.1"
                  },
                  {
                    "Comment": "tomcat5-common-lib is signed with Red Hat redhatrelease2 key"
                  }
                ]
              },
              {
                "Operator": "AND",
                "Criterias": [

                ],
                "Criterions": [
                  {
                    "Comment": "tomcat5-jasper is earlier than 0:5.5.23-0jpp.7.el5_2.1"
                  },
                  {
                    "Comment": "tomcat5-jasper is signed with Red Hat redhatrelease2 key"
                  }
                ]
              },
              {
                "Operator": "AND",
                "Criterias": [

                ],
                "Criterions": [
                  {
                    "Comment": "tomcat5-jasper-javadoc is earlier than 0:5.5.23-0jpp.7.el5_2.1"
                  },
                  {
                    "Comment": "tomcat5-jasper-javadoc is signed with Red Hat redhatrelease2 key"
                  }
                ]
              },
              {
                "Operator": "AND",
                "Criterias": [

                ],
                "Criterions": [
                  {
                    "Comment": "tomcat5-jsp-2.0-api is earlier than 0:5.5.23-0jpp.7.el5_2.1"
                  },
                  {
                    "Comment": "tomcat5-jsp-2.0-api is signed with Red Hat redhatrelease2 key"
                  }
                ]
              },
              {
                "Operator": "AND",
                "Criterias": [

                ],
                "Criterions": [
                  {
                    "Comment": "tomcat5-jsp-2.0-api-javadoc is earlier than 0:5.5.23-0jpp.7.el5_2.1"
                  },
                  {
                    "Comment": "tomcat5-jsp-2.0-api-javadoc is signed with Red Hat redhatrelease2 key"
                  }
                ]
              },
              {
                "Operator": "AND",
                "Criterias": [

                ],
                "Criterions": [
                  {
                    "Comment": "tomcat5-server-lib is earlier than 0:5.5.23-0jpp.7.el5_2.1"
                  },
                  {
                    "Comment": "tomcat5-server-lib is signed with Red Hat redhatrelease2 key"
                  }
                ]
              },
              {
                "Operator": "AND",
                "Criterias": [

                ],
                "Criterions": [
                  {
                    "Comment": "tomcat5-servlet-2.4-api is earlier than 0:5.5.23-0jpp.7.el5_2.1"
                  },
                  {
                    "Comment": "tomcat5-servlet-2.4-api is signed with Red Hat redhatrelease2 key"
                  }
                ]
              },
              {
                "Operator": "AND",
                "Criterias": [

                ],
                "Criterions": [
                  {
                    "Comment": "tomcat5-servlet-2.4-api-javadoc is earlier than 0:5.5.23-0jpp.7.el5_2.1"
                  },
                  {
                    "Comment": "tomcat5-servlet-2.4-api-javadoc is signed with Red Hat redhatrelease2 key"
                  }
                ]
              },
              {
                "Operator": "AND",
                "Criterias": [

                ],
                "Criterions": [
                  {
                    "Comment": "tomcat5-webapps is earlier than 0:5.5.23-0jpp.7.el5_2.1"
                  },
                  {
                    "Comment": "tomcat5-webapps is signed with Red Hat redhatrelease2 key"
                  }
                ]
              }
            ],
            "Criterions": [

            ]
          }
        ],
        "Criterions": [
          {
            "Comment": "Oracle Linux 5 is installed"
          }
        ]
      }
    ],
    "Criterions": [
      {
        "Comment": "Oracle Linux 5 is installed"
      }
    ]
  },
  "Severity": "Important",
  "Cves": [
    {
      "Impact": "",
      "Href": "",
      "ID": "CVE-2008-1232"
    },
    {
      "Impact": "",
      "Href": "",
      "ID": "CVE-2008-1947"
    },
    {
      "Impact": "",
      "Href": "",
      "ID": "CVE-2008-2370"
    },
    {
      "Impact": "",
      "Href": "",
      "ID": "CVE-2008-2938"
    }
  ],
  "Issued": {
    "Date": "2008-08-27"
  }
}