{
  "Title": "RHSA-2008:0981: ruby security update (Moderate)",
  "Description": "Ruby is an extensible, interpreted, object-oriented, scripting language. It\nhas features to process text files and to do system management tasks.\nVincent Danen reported, that Red Hat Security Advisory RHSA-2008:0897\ndid not properly address a denial of service flaw in the WEBrick (Ruby\nHTTP server toolkit), known as CVE-2008-3656. This flaw allowed a\nremote attacker to send a specially-crafted HTTP request to a WEBrick\nserver that would cause the server to use excessive CPU time. This\nupdate properly addresses this flaw. (CVE-2008-4310)\nAll Ruby users should upgrade to these updated packages, which contain a\ncorrect patch that resolves this issue.",
  "Platform": [
    "Red Hat Enterprise Linux 4",
    "Red Hat Enterprise Linux 5"
  ],
  "References": [
    {
      "Source": "RHSA",
      "URI": "https://access.redhat.com/errata/RHSA-2008:0981",
      "ID": "RHSA-2008:0981"
    },
    {
      "Source": "CVE",
      "URI": "https://access.redhat.com/security/cve/CVE-2008-4310",
      "ID": "CVE-2008-4310"
    }
  ],
  "Criteria": {
    "Operator": "OR",
    "Criterias": [
      {
        "Operator": "AND",
        "Criterias": [
          {
            "Operator": "OR",
            "Criterias": [
              {
                "Operator": "AND",
                "Criterias": [

                ],
                "Criterions": [
                  {
                    "Comment": "irb is earlier than 0:1.8.1-7.el4_7.2"
                  },
                  {
                    "Comment": "irb is signed with Red Hat redhatrelease2 key"
                  }
                ]
              },
              {
                "Operator": "AND",
                "Criterias": [

                ],
                "Criterions": [
                  {
                    "Comment": "ruby is earlier than 0:1.8.1-7.el4_7.2"
                  },
                  {
                    "Comment": "ruby is signed with Red Hat redhatrelease2 key"
                  }
                ]
              },
              {
                "Operator": "AND",
                "Criterias": [

                ],
                "Criterions": [
                  {
                    "Comment": "ruby-devel is earlier than 0:1.8.1-7.el4_7.2"
                  },
                  {
                    "Comment": "ruby-devel is signed with Red Hat redhatrelease2 key"
                  }
                ]
              },
              {
                "Operator": "AND",
                "Criterias": [

                ],
                "Criterions": [
                  {
                    "Comment": "ruby-docs is earlier than 0:1.8.1-7.el4_7.2"
                  },
                  {
                    "Comment": "ruby-docs is signed with Red Hat redhatrelease2 key"
                  }
                ]
              },
              {
                "Operator": "AND",
                "Criterias": [

                ],
                "Criterions": [
                  {
                    "Comment": "ruby-libs is earlier than 0:1.8.1-7.el4_7.2"
                  },
                  {
                    "Comment": "ruby-libs is signed with Red Hat redhatrelease2 key"
                  }
                ]
              },
              {
                "Operator": "AND",
                "Criterias": [

                ],
                "Criterions": [
                  {
                    "Comment": "ruby-mode is earlier than 0:1.8.1-7.el4_7.2"
                  },
                  {
                    "Comment": "ruby-mode is signed with Red Hat redhatrelease2 key"
                  }
                ]
              },
              {
                "Operator": "AND",
                "Criterias": [

                ],
                "Criterions": [
                  {
                    "Comment": "ruby-tcltk is earlier than 0:1.8.1-7.el4_7.2"
                  },
                  {
                    "Comment": "ruby-tcltk is signed with Red Hat redhatrelease2 key"
                  }
                ]
              }
            ],
            "Criterions": [

            ]
          }
        ],
        "Criterions": [
          {
            "Comment": "Oracle Linux 4 is installed"
          }
        ]
      },
      {
        "Operator": "AND",
        "Criterias": [
          {
            "Operator": "OR",
            "Criterias": [
              {
                "Operator": "AND",
                "Criterias": [

                ],
                "Criterions": [
                  {
                    "Comment": "ruby is earlier than 0:1.8.5-5.el5_2.6"
                  },
                  {
                    "Comment": "ruby is signed with Red Hat redhatrelease2 key"
                  }
                ]
              },
              {
                "Operator": "AND",
                "Criterias": [

                ],
                "Criterions": [
                  {
                    "Comment": "ruby-devel is earlier than 0:1.8.5-5.el5_2.6"
                  },
                  {
                    "Comment": "ruby-devel is signed with Red Hat redhatrelease2 key"
                  }
                ]
              },
              {
                "Operator": "AND",
                "Criterias": [

                ],
                "Criterions": [
                  {
                    "Comment": "ruby-docs is earlier than 0:1.8.5-5.el5_2.6"
                  },
                  {
                    "Comment": "ruby-docs is signed with Red Hat redhatrelease2 key"
                  }
                ]
              },
              {
                "Operator": "AND",
                "Criterias": [

                ],
                "Criterions": [
                  {
                    "Comment": "ruby-irb is earlier than 0:1.8.5-5.el5_2.6"
                  },
                  {
                    "Comment": "ruby-irb is signed with Red Hat redhatrelease2 key"
                  }
                ]
              },
              {
                "Operator": "AND",
                "Criterias": [

                ],
                "Criterions": [
                  {
                    "Comment": "ruby-libs is earlier than 0:1.8.5-5.el5_2.6"
                  },
                  {
                    "Comment": "ruby-libs is signed with Red Hat redhatrelease2 key"
                  }
                ]
              },
              {
                "Operator": "AND",
                "Criterias": [

                ],
                "Criterions": [
                  {
                    "Comment": "ruby-mode is earlier than 0:1.8.5-5.el5_2.6"
                  },
                  {
                    "Comment": "ruby-mode is signed with Red Hat redhatrelease2 key"
                  }
                ]
              },
              {
                "Operator": "AND",
                "Criterias": [

                ],
                "Criterions": [
                  {
                    "Comment": "ruby-rdoc is earlier than 0:1.8.5-5.el5_2.6"
                  },
                  {
                    "Comment": "ruby-rdoc is signed with Red Hat redhatrelease2 key"
                  }
                ]
              },
              {
                "Operator": "AND",
                "Criterias": [

                ],
                "Criterions": [
                  {
                    "Comment": "ruby-ri is earlier than 0:1.8.5-5.el5_2.6"
                  },
                  {
                    "Comment": "ruby-ri is signed with Red Hat redhatrelease2 key"
                  }
                ]
              },
              {
                "Operator": "AND",
                "Criterias": [

                ],
                "Criterions": [
                  {
                    "Comment": "ruby-tcltk is earlier than 0:1.8.5-5.el5_2.6"
                  },
                  {
                    "Comment": "ruby-tcltk is signed with Red Hat redhatrelease2 key"
                  }
                ]
              }
            ],
            "Criterions": [

            ]
          }
        ],
        "Criterions": [
          {
            "Comment": "Oracle Linux 5 is installed"
          }
        ]
      }
    ],
    "Criterions": [
      {
        "Comment": "Oracle Linux 4 is installed"
      }
    ]
  },
  "Severity": "Moderate",
  "Cves": [
    {
      "Impact": "",
      "Href": "",
      "ID": "CVE-2008-4310"
    }
  ],
  "Issued": {
    "Date": "2008-12-04"
  }
}