{
  "Title": "RHSA-2008:0538: openoffice.org security update (Important)",
  "Description": "OpenOffice.org is an office productivity suite that includes desktop\napplications such as a word processor, spreadsheet, presentation manager,\nformula editor, and drawing program.\nSean Larsson found a heap overflow flaw in the OpenOffice memory allocator.\nIf a carefully crafted file was opened by a victim, an attacker could use\nthe flaw to crash OpenOffice.org or, possibly, execute arbitrary code.\n(CVE-2008-2152)\nIt was discovered that certain libraries in the Red Hat Enterprise Linux 3\nand 4 openoffice.org packages had an insecure relative RPATH (runtime\nlibrary search path) set in the ELF (Executable and Linking Format) header.\nA local user able to convince another user to run OpenOffice in an\nattacker-controlled directory, could run arbitrary code with the privileges\nof the victim. (CVE-2008-2366)\nAll users of openoffice.org are advised to upgrade to these updated\npackages, which contain backported fixes which correct these issues.",
  "Platform": [
    "Red Hat Enterprise Linux 4"
  ],
  "References": [
    {
      "Source": "RHSA",
      "URI": "https://access.redhat.com/errata/RHSA-2008:0538",
      "ID": "RHSA-2008:0538"
    },
    {
      "Source": "CVE",
      "URI": "https://access.redhat.com/security/cve/CVE-2008-2152",
      "ID": "CVE-2008-2152"
    },
    {
      "Source": "CVE",
      "URI": "https://access.redhat.com/security/cve/CVE-2008-2366",
      "ID": "CVE-2008-2366"
    }
  ],
  "Criteria": {
    "Operator": "OR",
    "Criterias": [
      {
        "Operator": "AND",
        "Criterias": [
          {
            "Operator": "OR",
            "Criterias": [
              {
                "Operator": "AND",
                "Criterias": [

                ],
                "Criterions": [
                  {
                    "Comment": "openoffice.org is earlier than 0:1.1.5-10.6.0.5.EL4"
                  },
                  {
                    "Comment": "openoffice.org is signed with Red Hat redhatrelease2 key"
                  }
                ]
              },
              {
                "Operator": "AND",
                "Criterias": [

                ],
                "Criterions": [
                  {
                    "Comment": "openoffice.org-i18n is earlier than 0:1.1.5-10.6.0.5.EL4"
                  },
                  {
                    "Comment": "openoffice.org-i18n is signed with Red Hat redhatrelease2 key"
                  }
                ]
              },
              {
                "Operator": "AND",
                "Criterias": [

                ],
                "Criterions": [
                  {
                    "Comment": "openoffice.org-kde is earlier than 0:1.1.5-10.6.0.5.EL4"
                  },
                  {
                    "Comment": "openoffice.org-kde is signed with Red Hat redhatrelease2 key"
                  }
                ]
              },
              {
                "Operator": "AND",
                "Criterias": [

                ],
                "Criterions": [
                  {
                    "Comment": "openoffice.org-libs is earlier than 0:1.1.5-10.6.0.5.EL4"
                  },
                  {
                    "Comment": "openoffice.org-libs is signed with Red Hat redhatrelease2 key"
                  }
                ]
              }
            ],
            "Criterions": [

            ]
          }
        ],
        "Criterions": [
          {
            "Comment": "Oracle Linux 4 is installed"
          }
        ]
      }
    ],
    "Criterions": [
      {
        "Comment": "Oracle Linux 4 is installed"
      }
    ]
  },
  "Severity": "Important",
  "Cves": [
    {
      "Impact": "",
      "Href": "",
      "ID": "CVE-2008-2152"
    },
    {
      "Impact": "",
      "Href": "",
      "ID": "CVE-2008-2366"
    }
  ],
  "Issued": {
    "Date": "2008-06-13"
  }
}