{
  "Title": "RHSA-2008:0978: firefox security update (Critical)",
  "Description": "Mozilla Firefox is an open source Web browser.\nSeveral flaws were found in the processing of malformed web content. A web\npage containing malicious content could cause Firefox to crash or,\npotentially, execute arbitrary code as the user running Firefox.\n(CVE-2008-0017, CVE-2008-5014, CVE-2008-5016, CVE-2008-5017,\nCVE-2008-5018, CVE-2008-5019, CVE-2008-5021)\nSeveral flaws were found in the way malformed content was processed. A web\nsite containing specially-crafted content could potentially trick a Firefox\nuser into surrendering sensitive information. (CVE-2008-5022,\nCVE-2008-5023, CVE-2008-5024)\nA flaw was found in the way Firefox opened \"file:\" URIs. If a file: URI was\nloaded in the same tab as a chrome or privileged \"about:\" page, the file:\nURI could execute arbitrary code with the permissions of the user running\nFirefox. (CVE-2008-5015)\nFor technical details regarding these flaws, please see the Mozilla\nsecurity advisories for Firefox 3.0.4. You can find a link to the Mozilla\nadvisories in the References section.\nAll firefox users should upgrade to these updated packages, which contain\nbackported patches that correct these issues.",
  "Platform": [
    "Red Hat Enterprise Linux 4",
    "Red Hat Enterprise Linux 5"
  ],
  "References": [
    {
      "Source": "RHSA",
      "URI": "https://access.redhat.com/errata/RHSA-2008:0978",
      "ID": "RHSA-2008:0978"
    },
    {
      "Source": "CVE",
      "URI": "https://access.redhat.com/security/cve/CVE-2008-0017",
      "ID": "CVE-2008-0017"
    },
    {
      "Source": "CVE",
      "URI": "https://access.redhat.com/security/cve/CVE-2008-5014",
      "ID": "CVE-2008-5014"
    },
    {
      "Source": "CVE",
      "URI": "https://access.redhat.com/security/cve/CVE-2008-5015",
      "ID": "CVE-2008-5015"
    },
    {
      "Source": "CVE",
      "URI": "https://access.redhat.com/security/cve/CVE-2008-5016",
      "ID": "CVE-2008-5016"
    },
    {
      "Source": "CVE",
      "URI": "https://access.redhat.com/security/cve/CVE-2008-5017",
      "ID": "CVE-2008-5017"
    },
    {
      "Source": "CVE",
      "URI": "https://access.redhat.com/security/cve/CVE-2008-5018",
      "ID": "CVE-2008-5018"
    },
    {
      "Source": "CVE",
      "URI": "https://access.redhat.com/security/cve/CVE-2008-5019",
      "ID": "CVE-2008-5019"
    },
    {
      "Source": "CVE",
      "URI": "https://access.redhat.com/security/cve/CVE-2008-5021",
      "ID": "CVE-2008-5021"
    },
    {
      "Source": "CVE",
      "URI": "https://access.redhat.com/security/cve/CVE-2008-5022",
      "ID": "CVE-2008-5022"
    },
    {
      "Source": "CVE",
      "URI": "https://access.redhat.com/security/cve/CVE-2008-5023",
      "ID": "CVE-2008-5023"
    },
    {
      "Source": "CVE",
      "URI": "https://access.redhat.com/security/cve/CVE-2008-5024",
      "ID": "CVE-2008-5024"
    },
    {
      "Source": "CVE",
      "URI": "https://access.redhat.com/security/cve/CVE-2008-5052",
      "ID": "CVE-2008-5052"
    }
  ],
  "Criteria": {
    "Operator": "OR",
    "Criterias": [
      {
        "Operator": "AND",
        "Criterias": [
          {
            "Operator": "OR",
            "Criterias": [
              {
                "Operator": "AND",
                "Criterias": [

                ],
                "Criterions": [
                  {
                    "Comment": "firefox is earlier than 0:3.0.4-1.el4"
                  },
                  {
                    "Comment": "firefox is signed with Red Hat master key"
                  }
                ]
              },
              {
                "Operator": "AND",
                "Criterias": [

                ],
                "Criterions": [
                  {
                    "Comment": "nss is earlier than 0:3.12.1.1-3.el4"
                  },
                  {
                    "Comment": "nss is signed with Red Hat master key"
                  }
                ]
              },
              {
                "Operator": "AND",
                "Criterias": [

                ],
                "Criterions": [
                  {
                    "Comment": "nss-devel is earlier than 0:3.12.1.1-3.el4"
                  },
                  {
                    "Comment": "nss-devel is signed with Red Hat master key"
                  }
                ]
              }
            ],
            "Criterions": [

            ]
          }
        ],
        "Criterions": [
          {
            "Comment": "Oracle Linux 4 is installed"
          }
        ]
      },
      {
        "Operator": "AND",
        "Criterias": [
          {
            "Operator": "OR",
            "Criterias": [
              {
                "Operator": "AND",
                "Criterias": [

                ],
                "Criterions": [
                  {
                    "Comment": "firefox is earlier than 0:3.0.4-1.el5"
                  },
                  {
                    "Comment": "firefox is signed with Red Hat redhatrelease key"
                  }
                ]
              },
              {
                "Operator": "AND",
                "Criterias": [

                ],
                "Criterions": [
                  {
                    "Comment": "xulrunner is earlier than 0:1.9.0.4-1.el5"
                  },
                  {
                    "Comment": "xulrunner is signed with Red Hat redhatrelease key"
                  }
                ]
              },
              {
                "Operator": "AND",
                "Criterias": [

                ],
                "Criterions": [
                  {
                    "Comment": "xulrunner-devel is earlier than 0:1.9.0.4-1.el5"
                  },
                  {
                    "Comment": "xulrunner-devel is signed with Red Hat redhatrelease key"
                  }
                ]
              },
              {
                "Operator": "AND",
                "Criterias": [

                ],
                "Criterions": [
                  {
                    "Comment": "xulrunner-devel-unstable is earlier than 0:1.9.0.4-1.el5"
                  },
                  {
                    "Comment": "xulrunner-devel-unstable is signed with Red Hat redhatrelease key"
                  }
                ]
              },
              {
                "Operator": "AND",
                "Criterias": [

                ],
                "Criterions": [
                  {
                    "Comment": "nss is earlier than 0:3.12.1.1-3.el5"
                  },
                  {
                    "Comment": "nss is signed with Red Hat redhatrelease key"
                  }
                ]
              },
              {
                "Operator": "AND",
                "Criterias": [

                ],
                "Criterions": [
                  {
                    "Comment": "nss-devel is earlier than 0:3.12.1.1-3.el5"
                  },
                  {
                    "Comment": "nss-devel is signed with Red Hat redhatrelease key"
                  }
                ]
              },
              {
                "Operator": "AND",
                "Criterias": [

                ],
                "Criterions": [
                  {
                    "Comment": "nss-pkcs11-devel is earlier than 0:3.12.1.1-3.el5"
                  },
                  {
                    "Comment": "nss-pkcs11-devel is signed with Red Hat redhatrelease key"
                  }
                ]
              },
              {
                "Operator": "AND",
                "Criterias": [

                ],
                "Criterions": [
                  {
                    "Comment": "nss-tools is earlier than 0:3.12.1.1-3.el5"
                  },
                  {
                    "Comment": "nss-tools is signed with Red Hat redhatrelease key"
                  }
                ]
              },
              {
                "Operator": "AND",
                "Criterias": [

                ],
                "Criterions": [
                  {
                    "Comment": "devhelp is earlier than 0:0.12-20.el5"
                  },
                  {
                    "Comment": "devhelp is signed with Red Hat redhatrelease key"
                  }
                ]
              },
              {
                "Operator": "AND",
                "Criterias": [

                ],
                "Criterions": [
                  {
                    "Comment": "devhelp-devel is earlier than 0:0.12-20.el5"
                  },
                  {
                    "Comment": "devhelp-devel is signed with Red Hat redhatrelease key"
                  }
                ]
              },
              {
                "Operator": "AND",
                "Criterias": [

                ],
                "Criterions": [
                  {
                    "Comment": "yelp is earlier than 0:2.16.0-22.el5"
                  },
                  {
                    "Comment": "yelp is signed with Red Hat redhatrelease key"
                  }
                ]
              }
            ],
            "Criterions": [

            ]
          }
        ],
        "Criterions": [
          {
            "Comment": "Oracle Linux 5 is installed"
          }
        ]
      }
    ],
    "Criterions": [
      {
        "Comment": "Oracle Linux 4 is installed"
      }
    ]
  },
  "Severity": "Critical",
  "Cves": [
    {
      "Impact": "",
      "Href": "",
      "ID": "CVE-2008-0017"
    },
    {
      "Impact": "",
      "Href": "",
      "ID": "CVE-2008-5014"
    },
    {
      "Impact": "",
      "Href": "",
      "ID": "CVE-2008-5015"
    },
    {
      "Impact": "",
      "Href": "",
      "ID": "CVE-2008-5016"
    },
    {
      "Impact": "",
      "Href": "",
      "ID": "CVE-2008-5017"
    },
    {
      "Impact": "",
      "Href": "",
      "ID": "CVE-2008-5018"
    },
    {
      "Impact": "",
      "Href": "",
      "ID": "CVE-2008-5019"
    },
    {
      "Impact": "",
      "Href": "",
      "ID": "CVE-2008-5021"
    },
    {
      "Impact": "",
      "Href": "",
      "ID": "CVE-2008-5022"
    },
    {
      "Impact": "",
      "Href": "",
      "ID": "CVE-2008-5023"
    },
    {
      "Impact": "",
      "Href": "",
      "ID": "CVE-2008-5024"
    },
    {
      "Impact": "",
      "Href": "",
      "ID": "CVE-2008-5052"
    }
  ],
  "Issued": {
    "Date": "2008-11-13"
  }
}