{
  "Title": "RHSA-2008:0131: netpbm security update (Moderate)",
  "Description": "The netpbm package contains a library of functions for editing and\nconverting between various graphics file formats, including .pbm (portable\nbitmaps), .pgm (portable graymaps), .pnm (portable anymaps), .ppm (portable\npixmaps) and others. The package includes no interactive tools and is\nprimarily used by other programs (eg CGI scripts that manage web-site\nimages).\nAn input validation flaw was discovered in the GIF-to-PNM converter\n(giftopnm) shipped with the netpbm package. An attacker could create a\ncarefully crafted GIF file which could cause giftopnm to crash or possibly\nexecute arbitrary code as the user running giftopnm. (CVE-2008-0554)\nAll users are advised to upgrade to these updated packages which contain a\nbackported patch which resolves this issue.",
  "Platform": [
    "Red Hat Enterprise Linux 4"
  ],
  "References": [
    {
      "Source": "RHSA",
      "URI": "https://access.redhat.com/errata/RHSA-2008:0131",
      "ID": "RHSA-2008:0131"
    },
    {
      "Source": "CVE",
      "URI": "https://access.redhat.com/security/cve/CVE-2008-0554",
      "ID": "CVE-2008-0554"
    }
  ],
  "Criteria": {
    "Operator": "OR",
    "Criterias": [
      {
        "Operator": "AND",
        "Criterias": [
          {
            "Operator": "OR",
            "Criterias": [
              {
                "Operator": "AND",
                "Criterias": [

                ],
                "Criterions": [
                  {
                    "Comment": "netpbm is earlier than 0:10.25-2.EL4.6.el4_6.1"
                  },
                  {
                    "Comment": "netpbm is signed with Red Hat redhatrelease2 key"
                  }
                ]
              },
              {
                "Operator": "AND",
                "Criterias": [

                ],
                "Criterions": [
                  {
                    "Comment": "netpbm-devel is earlier than 0:10.25-2.EL4.6.el4_6.1"
                  },
                  {
                    "Comment": "netpbm-devel is signed with Red Hat redhatrelease2 key"
                  }
                ]
              },
              {
                "Operator": "AND",
                "Criterias": [

                ],
                "Criterions": [
                  {
                    "Comment": "netpbm-progs is earlier than 0:10.25-2.EL4.6.el4_6.1"
                  },
                  {
                    "Comment": "netpbm-progs is signed with Red Hat redhatrelease2 key"
                  }
                ]
              }
            ],
            "Criterions": [

            ]
          }
        ],
        "Criterions": [
          {
            "Comment": "Oracle Linux 4 is installed"
          }
        ]
      }
    ],
    "Criterions": [
      {
        "Comment": "Oracle Linux 4 is installed"
      }
    ]
  },
  "Severity": "Moderate",
  "Cves": [
    {
      "Impact": "",
      "Href": "",
      "ID": "CVE-2008-0554"
    }
  ],
  "Issued": {
    "Date": "2008-02-28"
  }
}