{
  "Title": "RHSA-2008:0267: java-1.6.0-ibm security update (Critical)",
  "Description": "IBM's 1.6.0 Java release includes the IBM Java 2 Runtime Environment, and\nthe IBM Java 2 Software Development Kit.\nA flaw was found in the Java XSLT processing classes. An untrusted\napplication or applet could cause a denial of service, or execute arbitrary\ncode with the permissions of the user running the JRE. (CVE-2008-1187) \nSeveral buffer overflow flaws were found in Java Web Start (JWS). An\nuntrusted JNLP application could access local files, or execute local\napplications accessible to the user running the JRE. (CVE-2008-1188,\nCVE-2008-1189, CVE-2008-1190, CVE-2008-1191, CVE-2008-1196)\nA flaw was found in the Java plug-in. A remote attacker could bypass the\nsame origin policy, executing arbitrary code with the permissions of the\nuser running the JRE. (CVE-2008-1192)\nA flaw was found in the JRE image parsing libraries. An untrusted\napplication or applet could cause a denial of service, or possibly execute\narbitrary code with the permissions of the user running the JRE.\n(CVE-2008-1193)\nA flaw was found in the JRE color management library. An untrusted\napplication or applet could trigger a denial of service (JVM crash).\n(CVE-2008-1194)\nThe JRE allowed untrusted JavaScript code to create local network\nconnections by the use of Java APIs. A remote attacker could use these\nflaws to access local network services. (CVE-2008-1195)\nAll users of java-1.6.0-ibm are advised to upgrade to these updated\npackages, that contain IBM's 1.6.0 SR1 Java release, which resolves these\nissues.",
  "Platform": [
    "Supplementary for Red Hat Enterprise Linux 5"
  ],
  "References": [
    {
      "Source": "RHSA",
      "URI": "https://rhn.redhat.com/errata/RHSA-2008-0267.html",
      "ID": "RHSA-2008:0267-01"
    },
    {
      "Source": "CVE",
      "URI": "https://access.redhat.com/security/cve/CVE-2008-1187",
      "ID": "CVE-2008-1187"
    },
    {
      "Source": "CVE",
      "URI": "https://access.redhat.com/security/cve/CVE-2008-1188",
      "ID": "CVE-2008-1188"
    },
    {
      "Source": "CVE",
      "URI": "https://access.redhat.com/security/cve/CVE-2008-1189",
      "ID": "CVE-2008-1189"
    },
    {
      "Source": "CVE",
      "URI": "https://access.redhat.com/security/cve/CVE-2008-1190",
      "ID": "CVE-2008-1190"
    },
    {
      "Source": "CVE",
      "URI": "https://access.redhat.com/security/cve/CVE-2008-1191",
      "ID": "CVE-2008-1191"
    },
    {
      "Source": "CVE",
      "URI": "https://access.redhat.com/security/cve/CVE-2008-1192",
      "ID": "CVE-2008-1192"
    },
    {
      "Source": "CVE",
      "URI": "https://access.redhat.com/security/cve/CVE-2008-1193",
      "ID": "CVE-2008-1193"
    },
    {
      "Source": "CVE",
      "URI": "https://access.redhat.com/security/cve/CVE-2008-1194",
      "ID": "CVE-2008-1194"
    },
    {
      "Source": "CVE",
      "URI": "https://access.redhat.com/security/cve/CVE-2008-1195",
      "ID": "CVE-2008-1195"
    },
    {
      "Source": "CVE",
      "URI": "https://access.redhat.com/security/cve/CVE-2008-1196",
      "ID": "CVE-2008-1196"
    }
  ],
  "Criteria": {
    "Operator": "AND",
    "Criterias": [
      {
        "Operator": "OR",
        "Criterias": [
          {
            "Operator": "AND",
            "Criterias": [

            ],
            "Criterions": [
              {
                "Comment": "java-1.6.0-ibm is earlier than 1:1.6.0.1-1jpp.2.el5"
              },
              {
                "Comment": "java-1.6.0-ibm is signed with Red Hat redhatrelease key"
              }
            ]
          },
          {
            "Operator": "AND",
            "Criterias": [

            ],
            "Criterions": [
              {
                "Comment": "java-1.6.0-ibm-accessibility is earlier than 1:1.6.0.1-1jpp.2.el5"
              },
              {
                "Comment": "java-1.6.0-ibm-accessibility is signed with Red Hat redhatrelease key"
              }
            ]
          },
          {
            "Operator": "AND",
            "Criterias": [

            ],
            "Criterions": [
              {
                "Comment": "java-1.6.0-ibm-demo is earlier than 1:1.6.0.1-1jpp.2.el5"
              },
              {
                "Comment": "java-1.6.0-ibm-demo is signed with Red Hat redhatrelease key"
              }
            ]
          },
          {
            "Operator": "AND",
            "Criterias": [

            ],
            "Criterions": [
              {
                "Comment": "java-1.6.0-ibm-devel is earlier than 1:1.6.0.1-1jpp.2.el5"
              },
              {
                "Comment": "java-1.6.0-ibm-devel is signed with Red Hat redhatrelease key"
              }
            ]
          },
          {
            "Operator": "AND",
            "Criterias": [

            ],
            "Criterions": [
              {
                "Comment": "java-1.6.0-ibm-javacomm is earlier than 1:1.6.0.1-1jpp.2.el5"
              },
              {
                "Comment": "java-1.6.0-ibm-javacomm is signed with Red Hat redhatrelease key"
              }
            ]
          },
          {
            "Operator": "AND",
            "Criterias": [

            ],
            "Criterions": [
              {
                "Comment": "java-1.6.0-ibm-jdbc is earlier than 1:1.6.0.1-1jpp.2.el5"
              },
              {
                "Comment": "java-1.6.0-ibm-jdbc is signed with Red Hat redhatrelease key"
              }
            ]
          },
          {
            "Operator": "AND",
            "Criterias": [

            ],
            "Criterions": [
              {
                "Comment": "java-1.6.0-ibm-plugin is earlier than 1:1.6.0.1-1jpp.2.el5"
              },
              {
                "Comment": "java-1.6.0-ibm-plugin is signed with Red Hat redhatrelease key"
              }
            ]
          },
          {
            "Operator": "AND",
            "Criterias": [

            ],
            "Criterions": [
              {
                "Comment": "java-1.6.0-ibm-src is earlier than 1:1.6.0.1-1jpp.2.el5"
              },
              {
                "Comment": "java-1.6.0-ibm-src is signed with Red Hat redhatrelease key"
              }
            ]
          }
        ],
        "Criterions": [

        ]
      }
    ],
    "Criterions": [
      {
        "Comment": "Oracle Linux 5 is installed"
      }
    ]
  },
  "Severity": "Critical",
  "Cves": [
    {
      "Impact": "",
      "Href": "",
      "ID": "CVE-2008-1187"
    },
    {
      "Impact": "",
      "Href": "",
      "ID": "CVE-2008-1188"
    },
    {
      "Impact": "",
      "Href": "",
      "ID": "CVE-2008-1189"
    },
    {
      "Impact": "",
      "Href": "",
      "ID": "CVE-2008-1190"
    },
    {
      "Impact": "",
      "Href": "",
      "ID": "CVE-2008-1191"
    },
    {
      "Impact": "",
      "Href": "",
      "ID": "CVE-2008-1192"
    },
    {
      "Impact": "",
      "Href": "",
      "ID": "CVE-2008-1193"
    },
    {
      "Impact": "",
      "Href": "",
      "ID": "CVE-2008-1194"
    },
    {
      "Impact": "",
      "Href": "",
      "ID": "CVE-2008-1195"
    },
    {
      "Impact": "",
      "Href": "",
      "ID": "CVE-2008-1196"
    }
  ],
  "Issued": {
    "Date": "2008-05-19"
  }
}