{
  "Title": "RHSA-2008:0893: bzip2 security update (Moderate)",
  "Description": "Bzip2 is a freely available, high-quality data compressor. It provides both\nstand-alone compression and decompression utilities, as well as a shared\nlibrary for use with other programs.\nA buffer over-read flaw was discovered in the bzip2 decompression routine.\nThis issue could cause an application linked against the libbz2 library to\ncrash when decompressing malformed archives. (CVE-2008-1372)\nUsers of bzip2 should upgrade to these updated packages, which contain a\nbackported patch to resolve this issue.",
  "Platform": [
    "Red Hat Enterprise Linux 4",
    "Red Hat Enterprise Linux 5"
  ],
  "References": [
    {
      "Source": "RHSA",
      "URI": "https://access.redhat.com/errata/RHSA-2008:0893",
      "ID": "RHSA-2008:0893"
    },
    {
      "Source": "CVE",
      "URI": "https://access.redhat.com/security/cve/CVE-2008-1372",
      "ID": "CVE-2008-1372"
    }
  ],
  "Criteria": {
    "Operator": "OR",
    "Criterias": [
      {
        "Operator": "AND",
        "Criterias": [
          {
            "Operator": "OR",
            "Criterias": [
              {
                "Operator": "AND",
                "Criterias": [

                ],
                "Criterions": [
                  {
                    "Comment": "bzip2 is earlier than 0:1.0.2-14.el4_7"
                  },
                  {
                    "Comment": "bzip2 is signed with Red Hat redhatrelease2 key"
                  }
                ]
              },
              {
                "Operator": "AND",
                "Criterias": [

                ],
                "Criterions": [
                  {
                    "Comment": "bzip2-devel is earlier than 0:1.0.2-14.el4_7"
                  },
                  {
                    "Comment": "bzip2-devel is signed with Red Hat redhatrelease2 key"
                  }
                ]
              },
              {
                "Operator": "AND",
                "Criterias": [

                ],
                "Criterions": [
                  {
                    "Comment": "bzip2-libs is earlier than 0:1.0.2-14.el4_7"
                  },
                  {
                    "Comment": "bzip2-libs is signed with Red Hat redhatrelease2 key"
                  }
                ]
              }
            ],
            "Criterions": [

            ]
          }
        ],
        "Criterions": [
          {
            "Comment": "Oracle Linux 4 is installed"
          }
        ]
      },
      {
        "Operator": "AND",
        "Criterias": [
          {
            "Operator": "OR",
            "Criterias": [
              {
                "Operator": "AND",
                "Criterias": [

                ],
                "Criterions": [
                  {
                    "Comment": "bzip2 is earlier than 0:1.0.3-4.el5_2"
                  },
                  {
                    "Comment": "bzip2 is signed with Red Hat redhatrelease2 key"
                  }
                ]
              },
              {
                "Operator": "AND",
                "Criterias": [

                ],
                "Criterions": [
                  {
                    "Comment": "bzip2-devel is earlier than 0:1.0.3-4.el5_2"
                  },
                  {
                    "Comment": "bzip2-devel is signed with Red Hat redhatrelease2 key"
                  }
                ]
              },
              {
                "Operator": "AND",
                "Criterias": [

                ],
                "Criterions": [
                  {
                    "Comment": "bzip2-libs is earlier than 0:1.0.3-4.el5_2"
                  },
                  {
                    "Comment": "bzip2-libs is signed with Red Hat redhatrelease2 key"
                  }
                ]
              }
            ],
            "Criterions": [

            ]
          }
        ],
        "Criterions": [
          {
            "Comment": "Oracle Linux 5 is installed"
          }
        ]
      }
    ],
    "Criterions": [
      {
        "Comment": "Oracle Linux 4 is installed"
      }
    ]
  },
  "Severity": "Moderate",
  "Cves": [
    {
      "Impact": "",
      "Href": "",
      "ID": "CVE-2008-1372"
    }
  ],
  "Issued": {
    "Date": "2008-09-16"
  }
}