{
  "Title": "RHSA-2008:0197: gnome-screensaver security update (Moderate)",
  "Description": "gnome-screensaver is the GNOME project's official screen saver program.\nA flaw was found in the way gnome-screensaver verified user passwords. When\na system used a remote directory service for login credentials, a local\nattacker able to cause a network outage could cause gnome-screensaver to\ncrash, unlocking the screen. (CVE-2008-0887)\nUsers of gnome-screensaver should upgrade to this updated package, which\ncontains a backported patch to correct this issue.",
  "Platform": [
    "Red Hat Enterprise Linux 5"
  ],
  "References": [
    {
      "Source": "RHSA",
      "URI": "https://access.redhat.com/errata/RHSA-2008:0197",
      "ID": "RHSA-2008:0197"
    },
    {
      "Source": "CVE",
      "URI": "https://access.redhat.com/security/cve/CVE-2008-0887",
      "ID": "CVE-2008-0887"
    }
  ],
  "Criteria": {
    "Operator": "OR",
    "Criterias": [
      {
        "Operator": "AND",
        "Criterias": [

        ],
        "Criterions": [
          {
            "Comment": "Oracle Linux 5 is installed"
          },
          {
            "Comment": "gnome-screensaver is earlier than 0:2.16.1-5.el5_1.1"
          },
          {
            "Comment": "gnome-screensaver is signed with Red Hat redhatrelease2 key"
          }
        ]
      }
    ],
    "Criterions": [
      {
        "Comment": "Oracle Linux 5 is installed"
      }
    ]
  },
  "Severity": "Moderate",
  "Cves": [
    {
      "Impact": "",
      "Href": "",
      "ID": "CVE-2008-0887"
    }
  ],
  "Issued": {
    "Date": "2008-04-02"
  }
}