{
  "Title": "RHSA-2008:0907: pam_krb5 security update (Moderate)",
  "Description": "The pam_krb5 module allows Pluggable Authentication Modules (PAM) aware\napplications to use Kerberos to verify user identities by obtaining user\ncredentials at log in time.\nA flaw was found in the pam_krb5 \"existing_ticket\" configuration option. If\na system is configured to use an existing credential cache via the\n\"existing_ticket\" option, it may be possible for a local user to gain\nelevated privileges by using a different, local user's credential cache.\n(CVE-2008-3825)\nRed Hat would like to thank Stéphane Bertin for responsibly disclosing this\nissue.\nUsers of pam_krb5 should upgrade to this updated package, which contains a\nbackported patch to resolve this issue.",
  "Platform": [
    "Red Hat Enterprise Linux 5"
  ],
  "References": [
    {
      "Source": "RHSA",
      "URI": "https://access.redhat.com/errata/RHSA-2008:0907",
      "ID": "RHSA-2008:0907"
    },
    {
      "Source": "CVE",
      "URI": "https://access.redhat.com/security/cve/CVE-2008-3825",
      "ID": "CVE-2008-3825"
    }
  ],
  "Criteria": {
    "Operator": "OR",
    "Criterias": [
      {
        "Operator": "AND",
        "Criterias": [

        ],
        "Criterions": [
          {
            "Comment": "Oracle Linux 5 is installed"
          },
          {
            "Comment": "pam_krb5 is earlier than 0:2.2.14-1.el5_2.1"
          },
          {
            "Comment": "pam_krb5 is signed with Red Hat redhatrelease2 key"
          }
        ]
      }
    ],
    "Criterions": [
      {
        "Comment": "Oracle Linux 5 is installed"
      }
    ]
  },
  "Severity": "Moderate",
  "Cves": [
    {
      "Impact": "",
      "Href": "",
      "ID": "CVE-2008-3825"
    }
  ],
  "Issued": {
    "Date": "2008-10-02"
  }
}