{
  "Title": "RHSA-2008:0836: libxml2 security update (Moderate)",
  "Description": "The libxml2 packages provide a library that allows you to manipulate XML\nfiles. It includes support to read, modify, and write XML and HTML files.\nA denial of service flaw was found in the way libxml2 processes certain\ncontent. If an application linked against libxml2 processes malformed XML\ncontent, it could cause the application to stop responding. (CVE-2008-3281)\nRed Hat would like to thank Andreas Solberg for responsibly disclosing this\nissue.\nAll users of libxml2 are advised to upgrade to these updated packages,\nwhich contain a backported patch to resolve this issue.",
  "Platform": [
    "Red Hat Enterprise Linux 4",
    "Red Hat Enterprise Linux 5"
  ],
  "References": [
    {
      "Source": "RHSA",
      "URI": "https://access.redhat.com/errata/RHSA-2008:0836",
      "ID": "RHSA-2008:0836"
    },
    {
      "Source": "CVE",
      "URI": "https://access.redhat.com/security/cve/CVE-2008-3281",
      "ID": "CVE-2008-3281"
    }
  ],
  "Criteria": {
    "Operator": "OR",
    "Criterias": [
      {
        "Operator": "AND",
        "Criterias": [
          {
            "Operator": "OR",
            "Criterias": [
              {
                "Operator": "AND",
                "Criterias": [

                ],
                "Criterions": [
                  {
                    "Comment": "libxml2 is earlier than 0:2.6.16-12.3"
                  },
                  {
                    "Comment": "libxml2 is signed with Red Hat redhatrelease2 key"
                  }
                ]
              },
              {
                "Operator": "AND",
                "Criterias": [

                ],
                "Criterions": [
                  {
                    "Comment": "libxml2-devel is earlier than 0:2.6.16-12.3"
                  },
                  {
                    "Comment": "libxml2-devel is signed with Red Hat redhatrelease2 key"
                  }
                ]
              },
              {
                "Operator": "AND",
                "Criterias": [

                ],
                "Criterions": [
                  {
                    "Comment": "libxml2-python is earlier than 0:2.6.16-12.3"
                  },
                  {
                    "Comment": "libxml2-python is signed with Red Hat redhatrelease2 key"
                  }
                ]
              }
            ],
            "Criterions": [

            ]
          }
        ],
        "Criterions": [
          {
            "Comment": "Oracle Linux 4 is installed"
          }
        ]
      },
      {
        "Operator": "AND",
        "Criterias": [
          {
            "Operator": "OR",
            "Criterias": [
              {
                "Operator": "AND",
                "Criterias": [

                ],
                "Criterions": [
                  {
                    "Comment": "libxml2 is earlier than 0:2.6.26-2.1.2.4"
                  },
                  {
                    "Comment": "libxml2 is signed with Red Hat redhatrelease2 key"
                  }
                ]
              },
              {
                "Operator": "AND",
                "Criterias": [

                ],
                "Criterions": [
                  {
                    "Comment": "libxml2-devel is earlier than 0:2.6.26-2.1.2.4"
                  },
                  {
                    "Comment": "libxml2-devel is signed with Red Hat redhatrelease2 key"
                  }
                ]
              },
              {
                "Operator": "AND",
                "Criterias": [

                ],
                "Criterions": [
                  {
                    "Comment": "libxml2-python is earlier than 0:2.6.26-2.1.2.4"
                  },
                  {
                    "Comment": "libxml2-python is signed with Red Hat redhatrelease2 key"
                  }
                ]
              }
            ],
            "Criterions": [

            ]
          }
        ],
        "Criterions": [
          {
            "Comment": "Oracle Linux 5 is installed"
          }
        ]
      }
    ],
    "Criterions": [
      {
        "Comment": "Oracle Linux 4 is installed"
      }
    ]
  },
  "Severity": "Moderate",
  "Cves": [
    {
      "Impact": "",
      "Href": "",
      "ID": "CVE-2008-3281"
    }
  ],
  "Issued": {
    "Date": "2008-08-21"
  }
}