{
  "Title": "RHSA-2008:1023: pidgin security and bug fix update (Moderate)",
  "Description": "Pidgin is a multi-protocol Internet Messaging client.\nA denial-of-service flaw was found in Pidgin's MSN protocol handler. If a\nremote user was able to send, and the Pidgin user accepted, a\ncarefully-crafted file request, it could result in Pidgin crashing.\n(CVE-2008-2955)\nA denial-of-service flaw was found in Pidgin's Universal Plug and Play\n(UPnP) request handling. A malicious UPnP server could send a request to\nPidgin, causing it to download an excessive amount of data, consuming all\navailable memory or disk space. (CVE-2008-2957)\nA flaw was found in the way Pidgin handled SSL certificates. The NSS SSL\nimplementation in Pidgin did not properly verify the authenticity of SSL\ncertificates. This could have resulted in users unknowingly connecting to a\nmalicious SSL service. (CVE-2008-3532)\nIn addition, this update upgrades pidgin from version 2.3.1 to version\n2.5.2, with many additional stability and functionality fixes from the\nPidgin Project.\nNote: the Secure Internet Live Conferencing (SILC) chat network protocol\nhas recently changed, affecting all versions of pidgin shipped with Red Hat\nEnterprise Linux.\nPidgin cannot currently connect to the latest version of the SILC server\n(1.1.14): it fails to properly exchange keys during initial login. This\nupdate does not correct this. Red Hat Bugzilla #474212 (linked to in the\nReferences section) has more information.\nNote: after the errata packages are installed, Pidgin must be restarted for\nthe update to take effect.\nAll Pidgin users should upgrade to these updated packages, which contains\nPidgin version 2.5.2 and resolves these issues.",
  "Platform": [
    "Red Hat Enterprise Linux 4",
    "Red Hat Enterprise Linux 5"
  ],
  "References": [
    {
      "Source": "RHSA",
      "URI": "https://access.redhat.com/errata/RHSA-2008:1023",
      "ID": "RHSA-2008:1023"
    },
    {
      "Source": "CVE",
      "URI": "https://access.redhat.com/security/cve/CVE-2008-2955",
      "ID": "CVE-2008-2955"
    },
    {
      "Source": "CVE",
      "URI": "https://access.redhat.com/security/cve/CVE-2008-2957",
      "ID": "CVE-2008-2957"
    },
    {
      "Source": "CVE",
      "URI": "https://access.redhat.com/security/cve/CVE-2008-3532",
      "ID": "CVE-2008-3532"
    }
  ],
  "Criteria": {
    "Operator": "OR",
    "Criterias": [
      {
        "Operator": "AND",
        "Criterias": [
          {
            "Operator": "OR",
            "Criterias": [
              {
                "Operator": "AND",
                "Criterias": [

                ],
                "Criterions": [
                  {
                    "Comment": "finch is earlier than 0:2.5.2-6.el4"
                  },
                  {
                    "Comment": "finch is signed with Red Hat master key"
                  }
                ]
              },
              {
                "Operator": "AND",
                "Criterias": [

                ],
                "Criterions": [
                  {
                    "Comment": "finch-devel is earlier than 0:2.5.2-6.el4"
                  },
                  {
                    "Comment": "finch-devel is signed with Red Hat master key"
                  }
                ]
              },
              {
                "Operator": "AND",
                "Criterias": [

                ],
                "Criterions": [
                  {
                    "Comment": "libpurple is earlier than 0:2.5.2-6.el4"
                  },
                  {
                    "Comment": "libpurple is signed with Red Hat master key"
                  }
                ]
              },
              {
                "Operator": "AND",
                "Criterias": [

                ],
                "Criterions": [
                  {
                    "Comment": "libpurple-devel is earlier than 0:2.5.2-6.el4"
                  },
                  {
                    "Comment": "libpurple-devel is signed with Red Hat master key"
                  }
                ]
              },
              {
                "Operator": "AND",
                "Criterias": [

                ],
                "Criterions": [
                  {
                    "Comment": "libpurple-perl is earlier than 0:2.5.2-6.el4"
                  },
                  {
                    "Comment": "libpurple-perl is signed with Red Hat master key"
                  }
                ]
              },
              {
                "Operator": "AND",
                "Criterias": [

                ],
                "Criterions": [
                  {
                    "Comment": "libpurple-tcl is earlier than 0:2.5.2-6.el4"
                  },
                  {
                    "Comment": "libpurple-tcl is signed with Red Hat master key"
                  }
                ]
              },
              {
                "Operator": "AND",
                "Criterias": [

                ],
                "Criterions": [
                  {
                    "Comment": "pidgin is earlier than 0:2.5.2-6.el4"
                  },
                  {
                    "Comment": "pidgin is signed with Red Hat master key"
                  }
                ]
              },
              {
                "Operator": "AND",
                "Criterias": [

                ],
                "Criterions": [
                  {
                    "Comment": "pidgin-devel is earlier than 0:2.5.2-6.el4"
                  },
                  {
                    "Comment": "pidgin-devel is signed with Red Hat master key"
                  }
                ]
              },
              {
                "Operator": "AND",
                "Criterias": [

                ],
                "Criterions": [
                  {
                    "Comment": "pidgin-perl is earlier than 0:2.5.2-6.el4"
                  },
                  {
                    "Comment": "pidgin-perl is signed with Red Hat master key"
                  }
                ]
              }
            ],
            "Criterions": [

            ]
          }
        ],
        "Criterions": [
          {
            "Comment": "Oracle Linux 4 is installed"
          }
        ]
      },
      {
        "Operator": "AND",
        "Criterias": [
          {
            "Operator": "OR",
            "Criterias": [
              {
                "Operator": "AND",
                "Criterias": [

                ],
                "Criterions": [
                  {
                    "Comment": "finch is earlier than 0:2.5.2-6.el5"
                  },
                  {
                    "Comment": "finch is signed with Red Hat redhatrelease key"
                  }
                ]
              },
              {
                "Operator": "AND",
                "Criterias": [

                ],
                "Criterions": [
                  {
                    "Comment": "finch-devel is earlier than 0:2.5.2-6.el5"
                  },
                  {
                    "Comment": "finch-devel is signed with Red Hat redhatrelease key"
                  }
                ]
              },
              {
                "Operator": "AND",
                "Criterias": [

                ],
                "Criterions": [
                  {
                    "Comment": "libpurple is earlier than 0:2.5.2-6.el5"
                  },
                  {
                    "Comment": "libpurple is signed with Red Hat redhatrelease key"
                  }
                ]
              },
              {
                "Operator": "AND",
                "Criterias": [

                ],
                "Criterions": [
                  {
                    "Comment": "libpurple-devel is earlier than 0:2.5.2-6.el5"
                  },
                  {
                    "Comment": "libpurple-devel is signed with Red Hat redhatrelease key"
                  }
                ]
              },
              {
                "Operator": "AND",
                "Criterias": [

                ],
                "Criterions": [
                  {
                    "Comment": "libpurple-perl is earlier than 0:2.5.2-6.el5"
                  },
                  {
                    "Comment": "libpurple-perl is signed with Red Hat redhatrelease key"
                  }
                ]
              },
              {
                "Operator": "AND",
                "Criterias": [

                ],
                "Criterions": [
                  {
                    "Comment": "libpurple-tcl is earlier than 0:2.5.2-6.el5"
                  },
                  {
                    "Comment": "libpurple-tcl is signed with Red Hat redhatrelease key"
                  }
                ]
              },
              {
                "Operator": "AND",
                "Criterias": [

                ],
                "Criterions": [
                  {
                    "Comment": "pidgin is earlier than 0:2.5.2-6.el5"
                  },
                  {
                    "Comment": "pidgin is signed with Red Hat redhatrelease key"
                  }
                ]
              },
              {
                "Operator": "AND",
                "Criterias": [

                ],
                "Criterions": [
                  {
                    "Comment": "pidgin-devel is earlier than 0:2.5.2-6.el5"
                  },
                  {
                    "Comment": "pidgin-devel is signed with Red Hat redhatrelease key"
                  }
                ]
              },
              {
                "Operator": "AND",
                "Criterias": [

                ],
                "Criterions": [
                  {
                    "Comment": "pidgin-perl is earlier than 0:2.5.2-6.el5"
                  },
                  {
                    "Comment": "pidgin-perl is signed with Red Hat redhatrelease key"
                  }
                ]
              }
            ],
            "Criterions": [

            ]
          }
        ],
        "Criterions": [
          {
            "Comment": "Oracle Linux 5 is installed"
          }
        ]
      }
    ],
    "Criterions": [
      {
        "Comment": "Oracle Linux 4 is installed"
      }
    ]
  },
  "Severity": "Moderate",
  "Cves": [
    {
      "Impact": "",
      "Href": "",
      "ID": "CVE-2008-2955"
    },
    {
      "Impact": "",
      "Href": "",
      "ID": "CVE-2008-2957"
    },
    {
      "Impact": "",
      "Href": "",
      "ID": "CVE-2008-3532"
    }
  ],
  "Issued": {
    "Date": "2008-12-15"
  }
}