{
  "Title": "RHSA-2008:1001: tog-pegasus security update (Important)",
  "Description": "The tog-pegasus packages provide OpenPegasus Web-Based Enterprise\nManagement (WBEM) services. WBEM is a platform and resource independent\nDistributed Management Task Force (DMTF) standard that defines a common\ninformation model and communication protocol for monitoring and controlling\nresources.\nRed Hat defines additional security enhancements for OpenGroup Pegasus WBEM\nservices in addition to those defined by the upstream OpenGroup Pegasus\nrelease. For details regarding these enhancements, refer to the file\n\"README.RedHat.Security\", included in the Red Hat tog-pegasus package.\nAfter re-basing to version 2.7.0 of the OpenGroup Pegasus code, these\nadditional security enhancements were no longer being applied. As a\nconsequence, access to OpenPegasus WBEM services was not restricted to the\ndedicated users as described in README.RedHat.Security. An attacker able to\nauthenticate using a valid user account could use this flaw to send\nrequests to WBEM services. (CVE-2008-4313)\nNote: default SELinux policy prevents tog-pegasus from modifying system\nfiles. This flaw's impact depends on whether or not tog-pegasus is confined\nby SELinux, and on any additional CMPI providers installed and enabled on a\nparticular system.\nFailed authentication attempts against the OpenPegasus CIM server were not\nlogged to the system log as documented in README.RedHat.Security. An\nattacker could use this flaw to perform password guessing attacks against a\nuser account without leaving traces in the system log. (CVE-2008-4315)\nAll tog-pegasus users are advised to upgrade to these updated packages,\nwhich contain patches to correct these issues.",
  "Platform": [
    "Red Hat Enterprise Linux 5"
  ],
  "References": [
    {
      "Source": "RHSA",
      "URI": "https://access.redhat.com/errata/RHSA-2008:1001",
      "ID": "RHSA-2008:1001"
    },
    {
      "Source": "CVE",
      "URI": "https://access.redhat.com/security/cve/CVE-2008-4313",
      "ID": "CVE-2008-4313"
    },
    {
      "Source": "CVE",
      "URI": "https://access.redhat.com/security/cve/CVE-2008-4315",
      "ID": "CVE-2008-4315"
    }
  ],
  "Criteria": {
    "Operator": "OR",
    "Criterias": [
      {
        "Operator": "AND",
        "Criterias": [
          {
            "Operator": "OR",
            "Criterias": [
              {
                "Operator": "AND",
                "Criterias": [

                ],
                "Criterions": [
                  {
                    "Comment": "tog-pegasus is earlier than 2:2.7.0-2.el5_2.1"
                  },
                  {
                    "Comment": "tog-pegasus is signed with Red Hat redhatrelease2 key"
                  }
                ]
              },
              {
                "Operator": "AND",
                "Criterias": [

                ],
                "Criterions": [
                  {
                    "Comment": "tog-pegasus-devel is earlier than 2:2.7.0-2.el5_2.1"
                  },
                  {
                    "Comment": "tog-pegasus-devel is signed with Red Hat redhatrelease2 key"
                  }
                ]
              }
            ],
            "Criterions": [

            ]
          }
        ],
        "Criterions": [
          {
            "Comment": "Oracle Linux 5 is installed"
          }
        ]
      }
    ],
    "Criterions": [
      {
        "Comment": "Oracle Linux 5 is installed"
      }
    ]
  },
  "Severity": "Important",
  "Cves": [
    {
      "Impact": "",
      "Href": "",
      "ID": "CVE-2008-4313"
    },
    {
      "Impact": "",
      "Href": "",
      "ID": "CVE-2008-4315"
    }
  ],
  "Issued": {
    "Date": "2008-11-25"
  }
}