{
  "Title": "RHSA-2008:0575: rdesktop security update (Moderate)",
  "Description": "rdesktop is an open source client for Microsoft Windows NT Terminal Server\nand Microsoft Windows 2000 and 2003 Terminal Services, capable of natively\nusing the Remote Desktop Protocol (RDP) to present the user's NT desktop.\nNo additional server extensions are required.\nAn integer underflow and integer signedness issue were discovered in the\nrdesktop. If an attacker could convince a victim to connect to a malicious\nRDP server, the attacker could cause the victim's rdesktop to crash or,\npossibly, execute an arbitrary code. (CVE-2008-1801, CVE-2008-1803)\nUsers of rdesktop should upgrade to these updated packages, which contain a\nbackported patches to resolve these issues.",
  "Platform": [
    "Red Hat Enterprise Linux 5"
  ],
  "References": [
    {
      "Source": "RHSA",
      "URI": "https://access.redhat.com/errata/RHSA-2008:0575",
      "ID": "RHSA-2008:0575"
    },
    {
      "Source": "CVE",
      "URI": "https://access.redhat.com/security/cve/CVE-2008-1801",
      "ID": "CVE-2008-1801"
    },
    {
      "Source": "CVE",
      "URI": "https://access.redhat.com/security/cve/CVE-2008-1803",
      "ID": "CVE-2008-1803"
    }
  ],
  "Criteria": {
    "Operator": "OR",
    "Criterias": [
      {
        "Operator": "AND",
        "Criterias": [

        ],
        "Criterions": [
          {
            "Comment": "Oracle Linux 5 is installed"
          },
          {
            "Comment": "rdesktop is earlier than 0:1.4.1-6"
          },
          {
            "Comment": "rdesktop is signed with Red Hat redhatrelease2 key"
          }
        ]
      }
    ],
    "Criterions": [
      {
        "Comment": "Oracle Linux 5 is installed"
      }
    ]
  },
  "Severity": "Moderate",
  "Cves": [
    {
      "Impact": "",
      "Href": "",
      "ID": "CVE-2008-1801"
    },
    {
      "Impact": "",
      "Href": "",
      "ID": "CVE-2008-1803"
    }
  ],
  "Issued": {
    "Date": "2008-07-24"
  }
}