{
  "Title": "RHSA-2008:0519: kernel security and bug fix update (Important)",
  "Description": "The kernel packages contain the Linux kernel, the core of any Linux\noperating system.\nThese updated packages fix the following security issues:\n* A security flaw was found in the Linux kernel memory copy routines, when\nrunning on certain AMD64 systems. If an unsuccessful attempt to copy kernel\nmemory from source to destination memory locations occurred, the copy\nroutines did not zero the content at the destination memory location. This\ncould allow a local unprivileged user to view potentially sensitive data.\n(CVE-2008-2729, Important)\n* Tavis Ormandy discovered a deficiency in the Linux kernel 32-bit and\n64-bit emulation. This could allow a local unprivileged user to prepare and\nrun a specially crafted binary, which would use this deficiency to leak\nuninitialized and potentially sensitive data. (CVE-2008-0598, Important)\n* Brandon Edwards discovered a missing length validation check in the Linux\nkernel DCCP module reconciliation feature. This could allow a local\nunprivileged user to cause a heap overflow, gaining privileges for\narbitrary code execution. (CVE-2008-2358, Moderate)\nAs well, these updated packages fix the following bug:\n* Due to a regression, \"gettimeofday\" may have gone backwards on certain\nx86 hardware. This issue was quite dangerous for time-sensitive systems,\nsuch as those used for transaction systems and databases, and may have\ncaused applications to produce incorrect results, or even crash.\nRed Hat Enterprise Linux 5 users are advised to upgrade to these updated\npackages, which contain backported patches to resolve these issues.",
  "Platform": [
    "Red Hat Enterprise Linux 5"
  ],
  "References": [
    {
      "Source": "RHSA",
      "URI": "https://access.redhat.com/errata/RHSA-2008:0519",
      "ID": "RHSA-2008:0519"
    },
    {
      "Source": "CVE",
      "URI": "https://access.redhat.com/security/cve/CVE-2008-0598",
      "ID": "CVE-2008-0598"
    },
    {
      "Source": "CVE",
      "URI": "https://access.redhat.com/security/cve/CVE-2008-2358",
      "ID": "CVE-2008-2358"
    },
    {
      "Source": "CVE",
      "URI": "https://access.redhat.com/security/cve/CVE-2008-2729",
      "ID": "CVE-2008-2729"
    }
  ],
  "Criteria": {
    "Operator": "OR",
    "Criterias": [
      {
        "Operator": "AND",
        "Criterias": [
          {
            "Operator": "OR",
            "Criterias": [

            ],
            "Criterions": [
              {
                "Comment": "kernel earlier than 0:2.6.18-92.1.6.el5 is currently running"
              },
              {
                "Comment": "kernel earlier than 0:2.6.18-92.1.6.el5 is set to boot up on next boot"
              }
            ]
          },
          {
            "Operator": "OR",
            "Criterias": [
              {
                "Operator": "AND",
                "Criterias": [

                ],
                "Criterions": [
                  {
                    "Comment": "kernel is earlier than 0:2.6.18-92.1.6.el5"
                  },
                  {
                    "Comment": "kernel is signed with Red Hat redhatrelease2 key"
                  }
                ]
              },
              {
                "Operator": "AND",
                "Criterias": [

                ],
                "Criterions": [
                  {
                    "Comment": "kernel-PAE is earlier than 0:2.6.18-92.1.6.el5"
                  },
                  {
                    "Comment": "kernel-PAE is signed with Red Hat redhatrelease2 key"
                  }
                ]
              },
              {
                "Operator": "AND",
                "Criterias": [

                ],
                "Criterions": [
                  {
                    "Comment": "kernel-PAE-devel is earlier than 0:2.6.18-92.1.6.el5"
                  },
                  {
                    "Comment": "kernel-PAE-devel is signed with Red Hat redhatrelease2 key"
                  }
                ]
              },
              {
                "Operator": "AND",
                "Criterias": [

                ],
                "Criterions": [
                  {
                    "Comment": "kernel-debug is earlier than 0:2.6.18-92.1.6.el5"
                  },
                  {
                    "Comment": "kernel-debug is signed with Red Hat redhatrelease2 key"
                  }
                ]
              },
              {
                "Operator": "AND",
                "Criterias": [

                ],
                "Criterions": [
                  {
                    "Comment": "kernel-debug-devel is earlier than 0:2.6.18-92.1.6.el5"
                  },
                  {
                    "Comment": "kernel-debug-devel is signed with Red Hat redhatrelease2 key"
                  }
                ]
              },
              {
                "Operator": "AND",
                "Criterias": [

                ],
                "Criterions": [
                  {
                    "Comment": "kernel-devel is earlier than 0:2.6.18-92.1.6.el5"
                  },
                  {
                    "Comment": "kernel-devel is signed with Red Hat redhatrelease2 key"
                  }
                ]
              },
              {
                "Operator": "AND",
                "Criterias": [

                ],
                "Criterions": [
                  {
                    "Comment": "kernel-doc is earlier than 0:2.6.18-92.1.6.el5"
                  },
                  {
                    "Comment": "kernel-doc is signed with Red Hat redhatrelease2 key"
                  }
                ]
              },
              {
                "Operator": "AND",
                "Criterias": [

                ],
                "Criterions": [
                  {
                    "Comment": "kernel-headers is earlier than 0:2.6.18-92.1.6.el5"
                  },
                  {
                    "Comment": "kernel-headers is signed with Red Hat redhatrelease2 key"
                  }
                ]
              },
              {
                "Operator": "AND",
                "Criterias": [

                ],
                "Criterions": [
                  {
                    "Comment": "kernel-kdump is earlier than 0:2.6.18-92.1.6.el5"
                  },
                  {
                    "Comment": "kernel-kdump is signed with Red Hat redhatrelease2 key"
                  }
                ]
              },
              {
                "Operator": "AND",
                "Criterias": [

                ],
                "Criterions": [
                  {
                    "Comment": "kernel-kdump-devel is earlier than 0:2.6.18-92.1.6.el5"
                  },
                  {
                    "Comment": "kernel-kdump-devel is signed with Red Hat redhatrelease2 key"
                  }
                ]
              },
              {
                "Operator": "AND",
                "Criterias": [

                ],
                "Criterions": [
                  {
                    "Comment": "kernel-xen is earlier than 0:2.6.18-92.1.6.el5"
                  },
                  {
                    "Comment": "kernel-xen is signed with Red Hat redhatrelease2 key"
                  }
                ]
              },
              {
                "Operator": "AND",
                "Criterias": [

                ],
                "Criterions": [
                  {
                    "Comment": "kernel-xen-devel is earlier than 0:2.6.18-92.1.6.el5"
                  },
                  {
                    "Comment": "kernel-xen-devel is signed with Red Hat redhatrelease2 key"
                  }
                ]
              }
            ],
            "Criterions": [

            ]
          }
        ],
        "Criterions": [
          {
            "Comment": "Oracle Linux 5 is installed"
          }
        ]
      }
    ],
    "Criterions": [
      {
        "Comment": "Oracle Linux 5 is installed"
      }
    ]
  },
  "Severity": "Important",
  "Cves": [
    {
      "Impact": "",
      "Href": "",
      "ID": "CVE-2008-0598"
    },
    {
      "Impact": "",
      "Href": "",
      "ID": "CVE-2008-2358"
    },
    {
      "Impact": "",
      "Href": "",
      "ID": "CVE-2008-2729"
    }
  ],
  "Issued": {
    "Date": "2008-06-25"
  }
}