{
  "Title": "RHSA-2008:0180: krb5 security update (Critical)",
  "Description": "Kerberos is a network authentication system which allows clients and\nservers to authenticate to each other through use of symmetric encryption\nand a trusted third party, the KDC.\nA flaw was found in the way the MIT Kerberos Authentication Service and Key\nDistribution Center server (krb5kdc) handled Kerberos v4 protocol packets.\nAn unauthenticated remote attacker could use this flaw to crash the\nkrb5kdc daemon, disclose portions of its memory, or possibly execute\narbitrary code using malformed or truncated Kerberos v4 protocol\nrequests. (CVE-2008-0062, CVE-2008-0063)\nThis issue only affected krb5kdc with Kerberos v4 protocol compatibility\nenabled, which is the default setting on Red Hat Enterprise Linux 4.\nKerberos v4 protocol support can be disabled by adding \"v4_mode=none\"\n(without the quotes) to the \"[kdcdefaults]\" section of\n/var/kerberos/krb5kdc/kdc.conf.\nRed Hat would like to thank MIT for reporting these issues.\nA double-free flaw was discovered in the GSSAPI library used by MIT\nKerberos. This flaw could possibly cause a crash of the application using\nthe GSSAPI library. (CVE-2007-5971)\nAll krb5 users are advised to update to these erratum packages which\ncontain backported fixes to correct these issues.",
  "Platform": [
    "Red Hat Enterprise Linux 4"
  ],
  "References": [
    {
      "Source": "RHSA",
      "URI": "https://access.redhat.com/errata/RHSA-2008:0180",
      "ID": "RHSA-2008:0180"
    },
    {
      "Source": "CVE",
      "URI": "https://access.redhat.com/security/cve/CVE-2007-5971",
      "ID": "CVE-2007-5971"
    },
    {
      "Source": "CVE",
      "URI": "https://access.redhat.com/security/cve/CVE-2008-0062",
      "ID": "CVE-2008-0062"
    },
    {
      "Source": "CVE",
      "URI": "https://access.redhat.com/security/cve/CVE-2008-0063",
      "ID": "CVE-2008-0063"
    }
  ],
  "Criteria": {
    "Operator": "OR",
    "Criterias": [
      {
        "Operator": "AND",
        "Criterias": [
          {
            "Operator": "OR",
            "Criterias": [
              {
                "Operator": "AND",
                "Criterias": [

                ],
                "Criterions": [
                  {
                    "Comment": "krb5-devel is earlier than 0:1.3.4-54.el4_6.1"
                  },
                  {
                    "Comment": "krb5-devel is signed with Red Hat redhatrelease2 key"
                  }
                ]
              },
              {
                "Operator": "AND",
                "Criterias": [

                ],
                "Criterions": [
                  {
                    "Comment": "krb5-libs is earlier than 0:1.3.4-54.el4_6.1"
                  },
                  {
                    "Comment": "krb5-libs is signed with Red Hat redhatrelease2 key"
                  }
                ]
              },
              {
                "Operator": "AND",
                "Criterias": [

                ],
                "Criterions": [
                  {
                    "Comment": "krb5-server is earlier than 0:1.3.4-54.el4_6.1"
                  },
                  {
                    "Comment": "krb5-server is signed with Red Hat redhatrelease2 key"
                  }
                ]
              },
              {
                "Operator": "AND",
                "Criterias": [

                ],
                "Criterions": [
                  {
                    "Comment": "krb5-workstation is earlier than 0:1.3.4-54.el4_6.1"
                  },
                  {
                    "Comment": "krb5-workstation is signed with Red Hat redhatrelease2 key"
                  }
                ]
              }
            ],
            "Criterions": [

            ]
          }
        ],
        "Criterions": [
          {
            "Comment": "Oracle Linux 4 is installed"
          }
        ]
      }
    ],
    "Criterions": [
      {
        "Comment": "Oracle Linux 4 is installed"
      }
    ]
  },
  "Severity": "Critical",
  "Cves": [
    {
      "Impact": "",
      "Href": "",
      "ID": "CVE-2007-5971"
    },
    {
      "Impact": "",
      "Href": "",
      "ID": "CVE-2008-0062"
    },
    {
      "Impact": "",
      "Href": "",
      "ID": "CVE-2008-0063"
    }
  ],
  "Issued": {
    "Date": "2008-03-18"
  }
}