{
  "Title": "RHSA-2008:0599: seamonkey security update (Critical)",
  "Description": "SeaMonkey is an open source Web browser, advanced email and newsgroup\nclient, IRC chat client, and HTML editor.\nAn integer overflow flaw was found in the way SeaMonkey displayed certain\nweb content. A malicious web site could cause SeaMonkey to crash or execute\narbitrary code with the permissions of the user running SeaMonkey.\n(CVE-2008-2785)\nAll seamonkey users should upgrade to these updated packages, which contain\na backported patch to resolve this issue.",
  "Platform": [
    "Red Hat Enterprise Linux 4"
  ],
  "References": [
    {
      "Source": "RHSA",
      "URI": "https://access.redhat.com/errata/RHSA-2008:0599",
      "ID": "RHSA-2008:0599"
    },
    {
      "Source": "CVE",
      "URI": "https://access.redhat.com/security/cve/CVE-2008-2785",
      "ID": "CVE-2008-2785"
    }
  ],
  "Criteria": {
    "Operator": "OR",
    "Criterias": [
      {
        "Operator": "AND",
        "Criterias": [
          {
            "Operator": "OR",
            "Criterias": [
              {
                "Operator": "AND",
                "Criterias": [

                ],
                "Criterions": [
                  {
                    "Comment": "seamonkey is earlier than 0:1.0.9-16.4.el4_6"
                  },
                  {
                    "Comment": "seamonkey is signed with Red Hat redhatrelease2 key"
                  }
                ]
              },
              {
                "Operator": "AND",
                "Criterias": [

                ],
                "Criterions": [
                  {
                    "Comment": "seamonkey-chat is earlier than 0:1.0.9-16.4.el4_6"
                  },
                  {
                    "Comment": "seamonkey-chat is signed with Red Hat redhatrelease2 key"
                  }
                ]
              },
              {
                "Operator": "AND",
                "Criterias": [

                ],
                "Criterions": [
                  {
                    "Comment": "seamonkey-devel is earlier than 0:1.0.9-16.4.el4_6"
                  },
                  {
                    "Comment": "seamonkey-devel is signed with Red Hat redhatrelease2 key"
                  }
                ]
              },
              {
                "Operator": "AND",
                "Criterias": [

                ],
                "Criterions": [
                  {
                    "Comment": "seamonkey-dom-inspector is earlier than 0:1.0.9-16.4.el4_6"
                  },
                  {
                    "Comment": "seamonkey-dom-inspector is signed with Red Hat redhatrelease2 key"
                  }
                ]
              },
              {
                "Operator": "AND",
                "Criterias": [

                ],
                "Criterions": [
                  {
                    "Comment": "seamonkey-js-debugger is earlier than 0:1.0.9-16.4.el4_6"
                  },
                  {
                    "Comment": "seamonkey-js-debugger is signed with Red Hat redhatrelease2 key"
                  }
                ]
              },
              {
                "Operator": "AND",
                "Criterias": [

                ],
                "Criterions": [
                  {
                    "Comment": "seamonkey-mail is earlier than 0:1.0.9-16.4.el4_6"
                  },
                  {
                    "Comment": "seamonkey-mail is signed with Red Hat redhatrelease2 key"
                  }
                ]
              },
              {
                "Operator": "AND",
                "Criterias": [

                ],
                "Criterions": [
                  {
                    "Comment": "devhelp is earlier than 0:0.10-0.8.1.el4"
                  },
                  {
                    "Comment": "devhelp is signed with Red Hat redhatrelease2 key"
                  }
                ]
              },
              {
                "Operator": "AND",
                "Criterias": [

                ],
                "Criterions": [
                  {
                    "Comment": "devhelp-devel is earlier than 0:0.10-0.8.1.el4"
                  },
                  {
                    "Comment": "devhelp-devel is signed with Red Hat redhatrelease2 key"
                  }
                ]
              }
            ],
            "Criterions": [

            ]
          }
        ],
        "Criterions": [
          {
            "Comment": "Oracle Linux 4 is installed"
          }
        ]
      }
    ],
    "Criterions": [
      {
        "Comment": "Oracle Linux 4 is installed"
      }
    ]
  },
  "Severity": "Critical",
  "Cves": [
    {
      "Impact": "",
      "Href": "",
      "ID": "CVE-2008-2785"
    }
  ],
  "Issued": {
    "Date": "2008-07-16"
  }
}