{
  "Title": "RHSA-2008:0161: cups security update (Important)",
  "Description": "The Common UNIX Printing System (CUPS) provides a portable printing layer\nfor UNIX(R) operating systems.\nA flaw was found in the way CUPS handled the addition and removal of remote\nshared printers via IPP.  A remote attacker could send malicious UDP IPP\npackets causing the CUPS daemon to attempt to dereference already freed\nmemory and crash. (CVE-2008-0597)\nA memory management flaw was found in the way CUPS handled the addition and\nremoval of remote shared printers via IPP.  When shared printer was\nremoved, allocated memory was not properly freed, leading to a memory leak\npossibly causing CUPS daemon crash after exhausting available memory.\n(CVE-2008-0596)\nThese issues were found during the investigation of CVE-2008-0882, which\ndid not affect Red Hat Enterprise Linux 4.\nNote that the default configuration of CUPS on Red Hat Enterprise Linux\n4 allow requests of this type only from the local subnet.\nAll CUPS users are advised to upgrade to these updated packages, which\ncontain backported patches to resolve these issues.",
  "Platform": [
    "Red Hat Enterprise Linux 4"
  ],
  "References": [
    {
      "Source": "RHSA",
      "URI": "https://access.redhat.com/errata/RHSA-2008:0161",
      "ID": "RHSA-2008:0161"
    },
    {
      "Source": "CVE",
      "URI": "https://access.redhat.com/security/cve/CVE-2008-0596",
      "ID": "CVE-2008-0596"
    },
    {
      "Source": "CVE",
      "URI": "https://access.redhat.com/security/cve/CVE-2008-0597",
      "ID": "CVE-2008-0597"
    }
  ],
  "Criteria": {
    "Operator": "OR",
    "Criterias": [
      {
        "Operator": "AND",
        "Criterias": [
          {
            "Operator": "OR",
            "Criterias": [
              {
                "Operator": "AND",
                "Criterias": [

                ],
                "Criterions": [
                  {
                    "Comment": "cups is earlier than 1:1.1.22-0.rc1.9.20.2.el4_6.5"
                  },
                  {
                    "Comment": "cups is signed with Red Hat redhatrelease2 key"
                  }
                ]
              },
              {
                "Operator": "AND",
                "Criterias": [

                ],
                "Criterions": [
                  {
                    "Comment": "cups-devel is earlier than 1:1.1.22-0.rc1.9.20.2.el4_6.5"
                  },
                  {
                    "Comment": "cups-devel is signed with Red Hat redhatrelease2 key"
                  }
                ]
              },
              {
                "Operator": "AND",
                "Criterias": [

                ],
                "Criterions": [
                  {
                    "Comment": "cups-libs is earlier than 1:1.1.22-0.rc1.9.20.2.el4_6.5"
                  },
                  {
                    "Comment": "cups-libs is signed with Red Hat redhatrelease2 key"
                  }
                ]
              }
            ],
            "Criterions": [

            ]
          }
        ],
        "Criterions": [
          {
            "Comment": "Oracle Linux 4 is installed"
          }
        ]
      }
    ],
    "Criterions": [
      {
        "Comment": "Oracle Linux 4 is installed"
      }
    ]
  },
  "Severity": "Important",
  "Cves": [
    {
      "Impact": "",
      "Href": "",
      "ID": "CVE-2008-0596"
    },
    {
      "Impact": "",
      "Href": "",
      "ID": "CVE-2008-0597"
    }
  ],
  "Issued": {
    "Date": "2008-02-25"
  }
}