{
  "Title": "RHSA-2008:1016: enscript security update (Moderate)",
  "Description": "GNU enscript converts ASCII files to PostScript(R) language files and\nspools the generated output to a specified printer or saves it to a file.\nEnscript can be extended to handle different output media and includes\noptions for customizing printouts.\nTwo buffer overflow flaws were found in GNU enscript. An attacker could\ncraft an ASCII file in such a way that it could execute arbitrary commands\nif the file was opened with enscript with the \"special escapes\" option (-e\nor --escapes) enabled. (CVE-2008-3863, CVE-2008-4306)\nAll users of enscript should upgrade to these updated packages, which\ncontain backported patches to correct these issues.",
  "Platform": [
    "Red Hat Enterprise Linux 5"
  ],
  "References": [
    {
      "Source": "RHSA",
      "URI": "https://access.redhat.com/errata/RHSA-2008:1016",
      "ID": "RHSA-2008:1016"
    },
    {
      "Source": "CVE",
      "URI": "https://access.redhat.com/security/cve/CVE-2008-3863",
      "ID": "CVE-2008-3863"
    },
    {
      "Source": "CVE",
      "URI": "https://access.redhat.com/security/cve/CVE-2008-4306",
      "ID": "CVE-2008-4306"
    }
  ],
  "Criteria": {
    "Operator": "OR",
    "Criterias": [
      {
        "Operator": "AND",
        "Criterias": [

        ],
        "Criterions": [
          {
            "Comment": "Oracle Linux 5 is installed"
          },
          {
            "Comment": "enscript is earlier than 0:1.6.4-4.1.1.el5_2"
          },
          {
            "Comment": "enscript is signed with Red Hat redhatrelease2 key"
          }
        ]
      }
    ],
    "Criterions": [
      {
        "Comment": "Oracle Linux 5 is installed"
      }
    ]
  },
  "Severity": "Moderate",
  "Cves": [
    {
      "Impact": "",
      "Href": "",
      "ID": "CVE-2008-3863"
    },
    {
      "Impact": "",
      "Href": "",
      "ID": "CVE-2008-4306"
    }
  ],
  "Issued": {
    "Date": "2008-12-15"
  }
}