{
  "Title": "RHSA-2008:1025: java-1.5.0-sun security update (Critical)",
  "Description": "The Java Runtime Environment (JRE) contains the software and tools that\nusers need to run applets and applications written using the Java\nprogramming language. \nA vulnerability was found in in Java Web Start. If a user visits a\nmalicious website, an attacker could misuse this flaw to execute arbitrary\ncode. (CVE-2008-2086)\nAdditionally, these packages fix several other vulnerabilities. These are\nsummarized in the \"Advance notification of Security Updates for Java SE\"\nfrom Sun Microsystems. \nUsers of java-1.5.0-sun should upgrade to these updated packages, which\ncorrect these issues.",
  "Platform": [
    "Supplementary for Red Hat Enterprise Linux 5"
  ],
  "References": [
    {
      "Source": "RHSA",
      "URI": "https://rhn.redhat.com/errata/RHSA-2008-1025.html",
      "ID": "RHSA-2008:1025-01"
    },
    {
      "Source": "CVE",
      "URI": "https://access.redhat.com/security/cve/CVE-2008-2086",
      "ID": "CVE-2008-2086"
    },
    {
      "Source": "CVE",
      "URI": "https://access.redhat.com/security/cve/CVE-2008-5339",
      "ID": "CVE-2008-5339"
    },
    {
      "Source": "CVE",
      "URI": "https://access.redhat.com/security/cve/CVE-2008-5340",
      "ID": "CVE-2008-5340"
    },
    {
      "Source": "CVE",
      "URI": "https://access.redhat.com/security/cve/CVE-2008-5341",
      "ID": "CVE-2008-5341"
    },
    {
      "Source": "CVE",
      "URI": "https://access.redhat.com/security/cve/CVE-2008-5342",
      "ID": "CVE-2008-5342"
    },
    {
      "Source": "CVE",
      "URI": "https://access.redhat.com/security/cve/CVE-2008-5343",
      "ID": "CVE-2008-5343"
    },
    {
      "Source": "CVE",
      "URI": "https://access.redhat.com/security/cve/CVE-2008-5344",
      "ID": "CVE-2008-5344"
    },
    {
      "Source": "CVE",
      "URI": "https://access.redhat.com/security/cve/CVE-2008-5345",
      "ID": "CVE-2008-5345"
    },
    {
      "Source": "CVE",
      "URI": "https://access.redhat.com/security/cve/CVE-2008-5346",
      "ID": "CVE-2008-5346"
    },
    {
      "Source": "CVE",
      "URI": "https://access.redhat.com/security/cve/CVE-2008-5348",
      "ID": "CVE-2008-5348"
    },
    {
      "Source": "CVE",
      "URI": "https://access.redhat.com/security/cve/CVE-2008-5349",
      "ID": "CVE-2008-5349"
    },
    {
      "Source": "CVE",
      "URI": "https://access.redhat.com/security/cve/CVE-2008-5350",
      "ID": "CVE-2008-5350"
    },
    {
      "Source": "CVE",
      "URI": "https://access.redhat.com/security/cve/CVE-2008-5351",
      "ID": "CVE-2008-5351"
    },
    {
      "Source": "CVE",
      "URI": "https://access.redhat.com/security/cve/CVE-2008-5352",
      "ID": "CVE-2008-5352"
    },
    {
      "Source": "CVE",
      "URI": "https://access.redhat.com/security/cve/CVE-2008-5353",
      "ID": "CVE-2008-5353"
    },
    {
      "Source": "CVE",
      "URI": "https://access.redhat.com/security/cve/CVE-2008-5354",
      "ID": "CVE-2008-5354"
    },
    {
      "Source": "CVE",
      "URI": "https://access.redhat.com/security/cve/CVE-2008-5356",
      "ID": "CVE-2008-5356"
    },
    {
      "Source": "CVE",
      "URI": "https://access.redhat.com/security/cve/CVE-2008-5357",
      "ID": "CVE-2008-5357"
    },
    {
      "Source": "CVE",
      "URI": "https://access.redhat.com/security/cve/CVE-2008-5359",
      "ID": "CVE-2008-5359"
    },
    {
      "Source": "CVE",
      "URI": "https://access.redhat.com/security/cve/CVE-2008-5360",
      "ID": "CVE-2008-5360"
    }
  ],
  "Criteria": {
    "Operator": "AND",
    "Criterias": [
      {
        "Operator": "OR",
        "Criterias": [
          {
            "Operator": "AND",
            "Criterias": [

            ],
            "Criterions": [
              {
                "Comment": "java-1.5.0-sun is earlier than 0:1.5.0.17-1jpp.2.el5"
              },
              {
                "Comment": "java-1.5.0-sun is signed with Red Hat redhatrelease key"
              }
            ]
          },
          {
            "Operator": "AND",
            "Criterias": [

            ],
            "Criterions": [
              {
                "Comment": "java-1.5.0-sun-demo is earlier than 0:1.5.0.17-1jpp.2.el5"
              },
              {
                "Comment": "java-1.5.0-sun-demo is signed with Red Hat redhatrelease key"
              }
            ]
          },
          {
            "Operator": "AND",
            "Criterias": [

            ],
            "Criterions": [
              {
                "Comment": "java-1.5.0-sun-devel is earlier than 0:1.5.0.17-1jpp.2.el5"
              },
              {
                "Comment": "java-1.5.0-sun-devel is signed with Red Hat redhatrelease key"
              }
            ]
          },
          {
            "Operator": "AND",
            "Criterias": [

            ],
            "Criterions": [
              {
                "Comment": "java-1.5.0-sun-jdbc is earlier than 0:1.5.0.17-1jpp.2.el5"
              },
              {
                "Comment": "java-1.5.0-sun-jdbc is signed with Red Hat redhatrelease key"
              }
            ]
          },
          {
            "Operator": "AND",
            "Criterias": [

            ],
            "Criterions": [
              {
                "Comment": "java-1.5.0-sun-plugin is earlier than 0:1.5.0.17-1jpp.2.el5"
              },
              {
                "Comment": "java-1.5.0-sun-plugin is signed with Red Hat redhatrelease key"
              }
            ]
          },
          {
            "Operator": "AND",
            "Criterias": [

            ],
            "Criterions": [
              {
                "Comment": "java-1.5.0-sun-src is earlier than 0:1.5.0.17-1jpp.2.el5"
              },
              {
                "Comment": "java-1.5.0-sun-src is signed with Red Hat redhatrelease key"
              }
            ]
          }
        ],
        "Criterions": [

        ]
      }
    ],
    "Criterions": [
      {
        "Comment": "Oracle Linux 5 is installed"
      }
    ]
  },
  "Severity": "Critical",
  "Cves": [
    {
      "Impact": "",
      "Href": "",
      "ID": "CVE-2008-2086"
    },
    {
      "Impact": "",
      "Href": "",
      "ID": "CVE-2008-5339"
    },
    {
      "Impact": "",
      "Href": "",
      "ID": "CVE-2008-5340"
    },
    {
      "Impact": "",
      "Href": "",
      "ID": "CVE-2008-5341"
    },
    {
      "Impact": "",
      "Href": "",
      "ID": "CVE-2008-5342"
    },
    {
      "Impact": "",
      "Href": "",
      "ID": "CVE-2008-5343"
    },
    {
      "Impact": "",
      "Href": "",
      "ID": "CVE-2008-5344"
    },
    {
      "Impact": "",
      "Href": "",
      "ID": "CVE-2008-5345"
    },
    {
      "Impact": "",
      "Href": "",
      "ID": "CVE-2008-5346"
    },
    {
      "Impact": "",
      "Href": "",
      "ID": "CVE-2008-5348"
    },
    {
      "Impact": "",
      "Href": "",
      "ID": "CVE-2008-5349"
    },
    {
      "Impact": "",
      "Href": "",
      "ID": "CVE-2008-5350"
    },
    {
      "Impact": "",
      "Href": "",
      "ID": "CVE-2008-5351"
    },
    {
      "Impact": "",
      "Href": "",
      "ID": "CVE-2008-5352"
    },
    {
      "Impact": "",
      "Href": "",
      "ID": "CVE-2008-5353"
    },
    {
      "Impact": "",
      "Href": "",
      "ID": "CVE-2008-5354"
    },
    {
      "Impact": "",
      "Href": "",
      "ID": "CVE-2008-5356"
    },
    {
      "Impact": "",
      "Href": "",
      "ID": "CVE-2008-5357"
    },
    {
      "Impact": "",
      "Href": "",
      "ID": "CVE-2008-5359"
    },
    {
      "Impact": "",
      "Href": "",
      "ID": "CVE-2008-5360"
    }
  ],
  "Issued": {
    "Date": "2008-12-04"
  }
}