{
  "Title": "RHSA-2008:0492: gnutls security update (Important)",
  "Description": "The GnuTLS Library provides support for cryptographic algorithms and\nprotocols such as TLS. GnuTLS includes libtasn1, a library developed for\nASN.1 structures management that includes DER encoding and decoding.\nFlaws were found in the way GnuTLS handles malicious client connections. A\nmalicious remote client could send a specially crafted request to a service\nusing GnuTLS that could cause the service to crash. (CVE-2008-1948,\nCVE-2008-1949, CVE-2008-1950)\nWe believe it is possible to leverage the flaw CVE-2008-1948 to execute\narbitrary code but have been unable to prove this at the time of releasing\nthis advisory. Red Hat Enterprise Linux 4 does not ship with any\napplications directly affected by this flaw. Third-party software which\nruns on Red Hat Enterprise Linux 4 could, however, be affected by this\nvulnerability. Consequently, we have assigned it important severity.\nUsers of GnuTLS are advised to upgrade to these updated packages, which\ncontain a backported patch that corrects these issues.",
  "Platform": [
    "Red Hat Enterprise Linux 4"
  ],
  "References": [
    {
      "Source": "RHSA",
      "URI": "https://access.redhat.com/errata/RHSA-2008:0492",
      "ID": "RHSA-2008:0492"
    },
    {
      "Source": "CVE",
      "URI": "https://access.redhat.com/security/cve/CVE-2008-1948",
      "ID": "CVE-2008-1948"
    },
    {
      "Source": "CVE",
      "URI": "https://access.redhat.com/security/cve/CVE-2008-1949",
      "ID": "CVE-2008-1949"
    },
    {
      "Source": "CVE",
      "URI": "https://access.redhat.com/security/cve/CVE-2008-1950",
      "ID": "CVE-2008-1950"
    }
  ],
  "Criteria": {
    "Operator": "OR",
    "Criterias": [
      {
        "Operator": "AND",
        "Criterias": [
          {
            "Operator": "OR",
            "Criterias": [
              {
                "Operator": "AND",
                "Criterias": [

                ],
                "Criterions": [
                  {
                    "Comment": "gnutls is earlier than 0:1.0.20-4.el4_6"
                  },
                  {
                    "Comment": "gnutls is signed with Red Hat redhatrelease2 key"
                  }
                ]
              },
              {
                "Operator": "AND",
                "Criterias": [

                ],
                "Criterions": [
                  {
                    "Comment": "gnutls-devel is earlier than 0:1.0.20-4.el4_6"
                  },
                  {
                    "Comment": "gnutls-devel is signed with Red Hat redhatrelease2 key"
                  }
                ]
              }
            ],
            "Criterions": [

            ]
          }
        ],
        "Criterions": [
          {
            "Comment": "Oracle Linux 4 is installed"
          }
        ]
      }
    ],
    "Criterions": [
      {
        "Comment": "Oracle Linux 4 is installed"
      }
    ]
  },
  "Severity": "Important",
  "Cves": [
    {
      "Impact": "",
      "Href": "",
      "ID": "CVE-2008-1948"
    },
    {
      "Impact": "",
      "Href": "",
      "ID": "CVE-2008-1949"
    },
    {
      "Impact": "",
      "Href": "",
      "ID": "CVE-2008-1950"
    }
  ],
  "Issued": {
    "Date": "2008-05-20"
  }
}