{
  "Title": "RHSA-2008:0514: evolution security update (Important)",
  "Description": "Evolution is the integrated collection of e-mail, calendaring, contact\nmanagement, communications and personal information management (PIM) tools\nfor the GNOME desktop environment.\nA flaw was found in the way Evolution parsed iCalendar timezone attachment\ndata. If the Itip Formatter plug-in was disabled and a user opened a mail\nwith a carefully crafted iCalendar attachment, arbitrary code could be\nexecuted as the user running Evolution. (CVE-2008-1108)\nNote: the Itip Formatter plug-in, which allows calendar information\n(attachments with a MIME type of \"text/calendar\") to be displayed as part\nof the e-mail message, is enabled by default.\nA heap-based buffer overflow flaw was found in the way Evolution parsed\niCalendar attachments with an overly long \"DESCRIPTION\" property string. If\na user responded to a carefully crafted iCalendar attachment in a\nparticular way, arbitrary code could be executed as the user running\nEvolution. (CVE-2008-1109).\nThe particular response required to trigger this vulnerability was as\nfollows:\n1. Receive the carefully crafted iCalendar attachment.\n2. Accept the associated meeting.\n3. Open the calender the meeting was in.\n4. Reply to the sender.\nRed Hat would like to thank Alin Rad Pop of Secunia Research for\nresponsibly disclosing these issues.\nAll Evolution users should upgrade to these updated packages, which contain\nbackported patches which resolves these issues.",
  "Platform": [
    "Red Hat Enterprise Linux 5"
  ],
  "References": [
    {
      "Source": "RHSA",
      "URI": "https://access.redhat.com/errata/RHSA-2008:0514",
      "ID": "RHSA-2008:0514"
    },
    {
      "Source": "CVE",
      "URI": "https://access.redhat.com/security/cve/CVE-2008-1108",
      "ID": "CVE-2008-1108"
    },
    {
      "Source": "CVE",
      "URI": "https://access.redhat.com/security/cve/CVE-2008-1109",
      "ID": "CVE-2008-1109"
    }
  ],
  "Criteria": {
    "Operator": "OR",
    "Criterias": [
      {
        "Operator": "AND",
        "Criterias": [
          {
            "Operator": "OR",
            "Criterias": [
              {
                "Operator": "AND",
                "Criterias": [

                ],
                "Criterions": [
                  {
                    "Comment": "evolution is earlier than 0:2.12.3-8.el5_2.2"
                  },
                  {
                    "Comment": "evolution is signed with Red Hat redhatrelease key"
                  }
                ]
              },
              {
                "Operator": "AND",
                "Criterias": [

                ],
                "Criterions": [
                  {
                    "Comment": "evolution-devel is earlier than 0:2.12.3-8.el5_2.2"
                  },
                  {
                    "Comment": "evolution-devel is signed with Red Hat redhatrelease key"
                  }
                ]
              },
              {
                "Operator": "AND",
                "Criterias": [

                ],
                "Criterions": [
                  {
                    "Comment": "evolution-help is earlier than 0:2.12.3-8.el5_2.2"
                  },
                  {
                    "Comment": "evolution-help is signed with Red Hat redhatrelease key"
                  }
                ]
              }
            ],
            "Criterions": [

            ]
          }
        ],
        "Criterions": [
          {
            "Comment": "Oracle Linux 5 is installed"
          }
        ]
      }
    ],
    "Criterions": [
      {
        "Comment": "Oracle Linux 5 is installed"
      }
    ]
  },
  "Severity": "Important",
  "Cves": [
    {
      "Impact": "",
      "Href": "",
      "ID": "CVE-2008-1108"
    },
    {
      "Impact": "",
      "Href": "",
      "ID": "CVE-2008-1109"
    }
  ],
  "Issued": {
    "Date": "2008-06-04"
  }
}