{
  "Title": "RHSA-2008:0167: kernel security and bug fix update (Moderate)",
  "Description": "The kernel packages contain the Linux kernel, the core of any Linux\noperating system.\nA buffer overflow flaw was found in the CIFS virtual file system. A\nremote authenticated user could issue a request that could lead to\na denial of service. (CVE-2007-5904, Moderate)\nAs well, these updated packages fix the following bugs:\n* a bug was found in the Linux kernel audit subsystem. When the audit\ndaemon was setup to log the execve system call with a large number\nof arguments, the kernel could run out out memory while attempting to\ncreate audit log messages. This could cause a kernel panic. In these\nupdated packages, large audit messages are split into acceptable sizes,\nwhich resolves this issue.\n* on certain Intel chipsets, it was not possible to load the acpiphp\nmodule using the \"modprobe acpiphp\" command. Because the acpiphp module\ndid not recurse across PCI bridges, hardware detection for PCI hot plug\nslots failed. In these updated packages, hardware detection works\ncorrectly.\n* on IBM System z architectures that run the IBM z/VM hypervisor, the IBM\neServer zSeries HiperSockets network interface (layer 3) allowed ARP\npackets to be sent and received, even when the \"NOARP\" flag was set. These\nARP packets caused problems for virtual machines.\n* it was possible for the iounmap function to sleep while holding a lock.\nThis may have caused a deadlock for drivers and other code that uses the\niounmap function. In these updated packages, the lock is dropped before\nthe sleep code is called, which resolves this issue.\nRed Hat Enterprise Linux 4 users are advised to upgrade to these updated\npackages, which contain backported patches to resolve these issues.",
  "Platform": [
    "Red Hat Enterprise Linux 4"
  ],
  "References": [
    {
      "Source": "RHSA",
      "URI": "https://access.redhat.com/errata/RHSA-2008:0167",
      "ID": "RHSA-2008:0167"
    },
    {
      "Source": "CVE",
      "URI": "https://access.redhat.com/security/cve/CVE-2007-5904",
      "ID": "CVE-2007-5904"
    }
  ],
  "Criteria": {
    "Operator": "OR",
    "Criterias": [
      {
        "Operator": "AND",
        "Criterias": [
          {
            "Operator": "OR",
            "Criterias": [

            ],
            "Criterions": [
              {
                "Comment": "kernel earlier than 0:2.6.9-67.0.7.EL is currently running"
              },
              {
                "Comment": "kernel earlier than 0:2.6.9-67.0.7.EL is set to boot up on next boot"
              }
            ]
          },
          {
            "Operator": "OR",
            "Criterias": [
              {
                "Operator": "AND",
                "Criterias": [

                ],
                "Criterions": [
                  {
                    "Comment": "kernel is earlier than 0:2.6.9-67.0.7.EL"
                  },
                  {
                    "Comment": "kernel is signed with Red Hat master key"
                  }
                ]
              },
              {
                "Operator": "AND",
                "Criterias": [

                ],
                "Criterions": [
                  {
                    "Comment": "kernel-devel is earlier than 0:2.6.9-67.0.7.EL"
                  },
                  {
                    "Comment": "kernel-devel is signed with Red Hat master key"
                  }
                ]
              },
              {
                "Operator": "AND",
                "Criterias": [

                ],
                "Criterions": [
                  {
                    "Comment": "kernel-doc is earlier than 0:2.6.9-67.0.7.EL"
                  },
                  {
                    "Comment": "kernel-doc is signed with Red Hat master key"
                  }
                ]
              },
              {
                "Operator": "AND",
                "Criterias": [

                ],
                "Criterions": [
                  {
                    "Comment": "kernel-hugemem is earlier than 0:2.6.9-67.0.7.EL"
                  },
                  {
                    "Comment": "kernel-hugemem is signed with Red Hat master key"
                  }
                ]
              },
              {
                "Operator": "AND",
                "Criterias": [

                ],
                "Criterions": [
                  {
                    "Comment": "kernel-hugemem-devel is earlier than 0:2.6.9-67.0.7.EL"
                  },
                  {
                    "Comment": "kernel-hugemem-devel is signed with Red Hat master key"
                  }
                ]
              },
              {
                "Operator": "AND",
                "Criterias": [

                ],
                "Criterions": [
                  {
                    "Comment": "kernel-largesmp is earlier than 0:2.6.9-67.0.7.EL"
                  },
                  {
                    "Comment": "kernel-largesmp is signed with Red Hat master key"
                  }
                ]
              },
              {
                "Operator": "AND",
                "Criterias": [

                ],
                "Criterions": [
                  {
                    "Comment": "kernel-largesmp-devel is earlier than 0:2.6.9-67.0.7.EL"
                  },
                  {
                    "Comment": "kernel-largesmp-devel is signed with Red Hat master key"
                  }
                ]
              },
              {
                "Operator": "AND",
                "Criterias": [

                ],
                "Criterions": [
                  {
                    "Comment": "kernel-smp is earlier than 0:2.6.9-67.0.7.EL"
                  },
                  {
                    "Comment": "kernel-smp is signed with Red Hat master key"
                  }
                ]
              },
              {
                "Operator": "AND",
                "Criterias": [

                ],
                "Criterions": [
                  {
                    "Comment": "kernel-smp-devel is earlier than 0:2.6.9-67.0.7.EL"
                  },
                  {
                    "Comment": "kernel-smp-devel is signed with Red Hat master key"
                  }
                ]
              },
              {
                "Operator": "AND",
                "Criterias": [

                ],
                "Criterions": [
                  {
                    "Comment": "kernel-xenU is earlier than 0:2.6.9-67.0.7.EL"
                  },
                  {
                    "Comment": "kernel-xenU is signed with Red Hat master key"
                  }
                ]
              },
              {
                "Operator": "AND",
                "Criterias": [

                ],
                "Criterions": [
                  {
                    "Comment": "kernel-xenU-devel is earlier than 0:2.6.9-67.0.7.EL"
                  },
                  {
                    "Comment": "kernel-xenU-devel is signed with Red Hat master key"
                  }
                ]
              }
            ],
            "Criterions": [

            ]
          }
        ],
        "Criterions": [
          {
            "Comment": "Oracle Linux 4 is installed"
          }
        ]
      }
    ],
    "Criterions": [
      {
        "Comment": "Oracle Linux 4 is installed"
      }
    ]
  },
  "Severity": "Moderate",
  "Cves": [
    {
      "Impact": "",
      "Href": "",
      "ID": "CVE-2007-5904"
    }
  ],
  "Issued": {
    "Date": "2008-03-14"
  }
}