{
  "Title": "RHSA-2011:1326: pango security update (Moderate)",
  "Description": "Pango is a library used for the layout and rendering of internationalized\ntext.\nA buffer overflow flaw was found in HarfBuzz, an OpenType text shaping\nengine used in Pango. If a user loaded a specially-crafted font file with\nan application that uses Pango, it could cause the application to crash or,\npossibly, execute arbitrary code with the privileges of the user running\nthe application. (CVE-2011-3193)\nUsers of pango are advised to upgrade to these updated packages, which\ncontain a backported patch to resolve this issue. After installing this\nupdate, you must restart your system or restart the X server for the update\nto take effect.",
  "Platform": [
    "Red Hat Enterprise Linux 5"
  ],
  "References": [
    {
      "Source": "RHSA",
      "URI": "https://access.redhat.com/errata/RHSA-2011:1326",
      "ID": "RHSA-2011:1326"
    },
    {
      "Source": "CVE",
      "URI": "https://access.redhat.com/security/cve/CVE-2011-3193",
      "ID": "CVE-2011-3193"
    }
  ],
  "Criteria": {
    "Operator": "OR",
    "Criterias": [
      {
        "Operator": "AND",
        "Criterias": [
          {
            "Operator": "OR",
            "Criterias": [
              {
                "Operator": "AND",
                "Criterias": [

                ],
                "Criterions": [
                  {
                    "Comment": "pango is earlier than 0:1.14.9-8.el5_7.3"
                  },
                  {
                    "Comment": "pango is signed with Red Hat redhatrelease2 key"
                  }
                ]
              },
              {
                "Operator": "AND",
                "Criterias": [

                ],
                "Criterions": [
                  {
                    "Comment": "pango-devel is earlier than 0:1.14.9-8.el5_7.3"
                  },
                  {
                    "Comment": "pango-devel is signed with Red Hat redhatrelease2 key"
                  }
                ]
              }
            ],
            "Criterions": [

            ]
          }
        ],
        "Criterions": [
          {
            "Comment": "Oracle Linux 5 is installed"
          }
        ]
      }
    ],
    "Criterions": [
      {
        "Comment": "Oracle Linux 5 is installed"
      }
    ]
  },
  "Severity": "Moderate",
  "Cves": [
    {
      "Impact": "",
      "Href": "",
      "ID": "CVE-2011-3193"
    }
  ],
  "Issued": {
    "Date": "2011-09-21"
  }
}