{
  "Title": "RHSA-2011:0586: libguestfs security, bug fix, and enhancement update (Low)",
  "Description": "libguestfs is a library for accessing and modifying guest disk images.\nlibguestfs relied on the format auto-detection in QEMU rather than\nallowing the guest image file format to be specified. A privileged guest\nuser could potentially use this flaw to read arbitrary files on the host\nthat were accessible to a user on that host who was running a program that\nutilized the libguestfs library. (CVE-2010-3851)\nThis erratum upgrades libguestfs to upstream version 1.7.17, which includes\na number of bug fixes and one enhancement. Documentation for these bug\nfixes and this enhancement is provided in the Technical Notes document,\nlinked to in the References section.\nAll libguestfs users are advised to upgrade to these updated packages,\nwhich correct this issue, and fix the bugs and add the enhancement noted\nin the Technical Notes.",
  "Platform": [
    "Red Hat Enterprise Linux 6"
  ],
  "References": [
    {
      "Source": "RHSA",
      "URI": "https://access.redhat.com/errata/RHSA-2011:0586",
      "ID": "RHSA-2011:0586"
    },
    {
      "Source": "CVE",
      "URI": "https://access.redhat.com/security/cve/CVE-2010-3851",
      "ID": "CVE-2010-3851"
    }
  ],
  "Criteria": {
    "Operator": "OR",
    "Criterias": [
      {
        "Operator": "AND",
        "Criterias": [
          {
            "Operator": "OR",
            "Criterias": [
              {
                "Operator": "AND",
                "Criterias": [

                ],
                "Criterions": [
                  {
                    "Comment": "guestfish is earlier than 1:1.7.17-17.el6"
                  },
                  {
                    "Comment": "guestfish is signed with Red Hat redhatrelease2 key"
                  }
                ]
              },
              {
                "Operator": "AND",
                "Criterias": [

                ],
                "Criterions": [
                  {
                    "Comment": "libguestfs is earlier than 1:1.7.17-17.el6"
                  },
                  {
                    "Comment": "libguestfs is signed with Red Hat redhatrelease2 key"
                  }
                ]
              },
              {
                "Operator": "AND",
                "Criterias": [

                ],
                "Criterions": [
                  {
                    "Comment": "libguestfs-devel is earlier than 1:1.7.17-17.el6"
                  },
                  {
                    "Comment": "libguestfs-devel is signed with Red Hat redhatrelease2 key"
                  }
                ]
              },
              {
                "Operator": "AND",
                "Criterias": [

                ],
                "Criterions": [
                  {
                    "Comment": "libguestfs-java is earlier than 1:1.7.17-17.el6"
                  },
                  {
                    "Comment": "libguestfs-java is signed with Red Hat redhatrelease2 key"
                  }
                ]
              },
              {
                "Operator": "AND",
                "Criterias": [

                ],
                "Criterions": [
                  {
                    "Comment": "libguestfs-java-devel is earlier than 1:1.7.17-17.el6"
                  },
                  {
                    "Comment": "libguestfs-java-devel is signed with Red Hat redhatrelease2 key"
                  }
                ]
              },
              {
                "Operator": "AND",
                "Criterias": [

                ],
                "Criterions": [
                  {
                    "Comment": "libguestfs-javadoc is earlier than 1:1.7.17-17.el6"
                  },
                  {
                    "Comment": "libguestfs-javadoc is signed with Red Hat redhatrelease2 key"
                  }
                ]
              },
              {
                "Operator": "AND",
                "Criterias": [

                ],
                "Criterions": [
                  {
                    "Comment": "libguestfs-mount is earlier than 1:1.7.17-17.el6"
                  },
                  {
                    "Comment": "libguestfs-mount is signed with Red Hat redhatrelease2 key"
                  }
                ]
              },
              {
                "Operator": "AND",
                "Criterias": [

                ],
                "Criterions": [
                  {
                    "Comment": "libguestfs-tools is earlier than 1:1.7.17-17.el6"
                  },
                  {
                    "Comment": "libguestfs-tools is signed with Red Hat redhatrelease2 key"
                  }
                ]
              },
              {
                "Operator": "AND",
                "Criterias": [

                ],
                "Criterions": [
                  {
                    "Comment": "libguestfs-tools-c is earlier than 1:1.7.17-17.el6"
                  },
                  {
                    "Comment": "libguestfs-tools-c is signed with Red Hat redhatrelease2 key"
                  }
                ]
              },
              {
                "Operator": "AND",
                "Criterias": [

                ],
                "Criterions": [
                  {
                    "Comment": "ocaml-libguestfs is earlier than 1:1.7.17-17.el6"
                  },
                  {
                    "Comment": "ocaml-libguestfs is signed with Red Hat redhatrelease2 key"
                  }
                ]
              },
              {
                "Operator": "AND",
                "Criterias": [

                ],
                "Criterions": [
                  {
                    "Comment": "ocaml-libguestfs-devel is earlier than 1:1.7.17-17.el6"
                  },
                  {
                    "Comment": "ocaml-libguestfs-devel is signed with Red Hat redhatrelease2 key"
                  }
                ]
              },
              {
                "Operator": "AND",
                "Criterias": [

                ],
                "Criterions": [
                  {
                    "Comment": "perl-Sys-Guestfs is earlier than 1:1.7.17-17.el6"
                  },
                  {
                    "Comment": "perl-Sys-Guestfs is signed with Red Hat redhatrelease2 key"
                  }
                ]
              },
              {
                "Operator": "AND",
                "Criterias": [

                ],
                "Criterions": [
                  {
                    "Comment": "python-libguestfs is earlier than 1:1.7.17-17.el6"
                  },
                  {
                    "Comment": "python-libguestfs is signed with Red Hat redhatrelease2 key"
                  }
                ]
              },
              {
                "Operator": "AND",
                "Criterias": [

                ],
                "Criterions": [
                  {
                    "Comment": "ruby-libguestfs is earlier than 1:1.7.17-17.el6"
                  },
                  {
                    "Comment": "ruby-libguestfs is signed with Red Hat redhatrelease2 key"
                  }
                ]
              }
            ],
            "Criterions": [

            ]
          }
        ],
        "Criterions": [
          {
            "Comment": "Oracle Linux 6 is installed"
          }
        ]
      }
    ],
    "Criterions": [
      {
        "Comment": "Oracle Linux 6 is installed"
      }
    ]
  },
  "Severity": "Low",
  "Cves": [
    {
      "Impact": "",
      "Href": "",
      "ID": "CVE-2010-3851"
    }
  ],
  "Issued": {
    "Date": "2011-05-19"
  }
}