{
  "Title": "RHSA-2011:1293: squid security update (Moderate)",
  "Description": "Squid is a high-performance proxy caching server for web clients,\nsupporting FTP, Gopher, and HTTP data objects.\nA buffer overflow flaw was found in the way Squid parsed replies from\nremote Gopher servers. A remote user allowed to send Gopher requests to a\nSquid proxy could possibly use this flaw to cause the squid child process\nto crash or execute arbitrary code with the privileges of the squid user,\nby making Squid perform a request to an attacker-controlled Gopher server.\n(CVE-2011-3205)\nUsers of squid should upgrade to this updated package, which contains a\nbackported patch to correct this issue. After installing this update, the\nsquid service will be restarted automatically.",
  "Platform": [
    "Red Hat Enterprise Linux 6"
  ],
  "References": [
    {
      "Source": "RHSA",
      "URI": "https://access.redhat.com/errata/RHSA-2011:1293",
      "ID": "RHSA-2011:1293"
    },
    {
      "Source": "CVE",
      "URI": "https://access.redhat.com/security/cve/CVE-2011-3205",
      "ID": "CVE-2011-3205"
    }
  ],
  "Criteria": {
    "Operator": "OR",
    "Criterias": [
      {
        "Operator": "AND",
        "Criterias": [

        ],
        "Criterions": [
          {
            "Comment": "Oracle Linux 6 is installed"
          },
          {
            "Comment": "squid is earlier than 7:3.1.10-1.el6_1.1"
          },
          {
            "Comment": "squid is signed with Red Hat redhatrelease2 key"
          }
        ]
      }
    ],
    "Criterions": [
      {
        "Comment": "Oracle Linux 6 is installed"
      }
    ]
  },
  "Severity": "Moderate",
  "Cves": [
    {
      "Impact": "",
      "Href": "",
      "ID": "CVE-2011-3205"
    }
  ],
  "Issued": {
    "Date": "2011-09-14"
  }
}