{
  "Title": "RHSA-2011:0886: thunderbird security update (Critical)",
  "Description": "Mozilla Thunderbird is a standalone mail and newsgroup client.\nA flaw was found in the way Thunderbird handled malformed JPEG images. An\nHTML mail message containing a malicious JPEG image could cause Thunderbird\nto crash or, potentially, execute arbitrary code with the privileges of the\nuser running Thunderbird. (CVE-2011-2377)\nMultiple dangling pointer flaws were found in Thunderbird. Malicious HTML\ncontent could cause Thunderbird to crash or, potentially, execute arbitrary\ncode with the privileges of the user running Thunderbird. (CVE-2011-0083,\nCVE-2011-0085, CVE-2011-2363)\nSeveral flaws were found in the processing of malformed HTML content.\nMalicious HTML content could cause Thunderbird to crash or, potentially,\nexecute arbitrary code with the privileges of the user running Thunderbird.\n(CVE-2011-2364, CVE-2011-2365, CVE-2011-2374, CVE-2011-2375, CVE-2011-2376)\nIt was found that Thunderbird could treat two separate cookies (for web\ncontent) as interchangeable if both were for the same domain name but one\nof those domain names had a trailing \".\" character. This violates the\nsame-origin policy and could possibly lead to data being leaked to the\nwrong domain. (CVE-2011-2362)\nAll Thunderbird users should upgrade to this updated package, which\nresolves these issues. All running instances of Thunderbird must be\nrestarted for the update to take effect.",
  "Platform": [
    "Red Hat Enterprise Linux 6"
  ],
  "References": [
    {
      "Source": "RHSA",
      "URI": "https://access.redhat.com/errata/RHSA-2011:0886",
      "ID": "RHSA-2011:0886"
    },
    {
      "Source": "CVE",
      "URI": "https://access.redhat.com/security/cve/CVE-2011-0083",
      "ID": "CVE-2011-0083"
    },
    {
      "Source": "CVE",
      "URI": "https://access.redhat.com/security/cve/CVE-2011-0085",
      "ID": "CVE-2011-0085"
    },
    {
      "Source": "CVE",
      "URI": "https://access.redhat.com/security/cve/CVE-2011-2362",
      "ID": "CVE-2011-2362"
    },
    {
      "Source": "CVE",
      "URI": "https://access.redhat.com/security/cve/CVE-2011-2363",
      "ID": "CVE-2011-2363"
    },
    {
      "Source": "CVE",
      "URI": "https://access.redhat.com/security/cve/CVE-2011-2364",
      "ID": "CVE-2011-2364"
    },
    {
      "Source": "CVE",
      "URI": "https://access.redhat.com/security/cve/CVE-2011-2365",
      "ID": "CVE-2011-2365"
    },
    {
      "Source": "CVE",
      "URI": "https://access.redhat.com/security/cve/CVE-2011-2374",
      "ID": "CVE-2011-2374"
    },
    {
      "Source": "CVE",
      "URI": "https://access.redhat.com/security/cve/CVE-2011-2375",
      "ID": "CVE-2011-2375"
    },
    {
      "Source": "CVE",
      "URI": "https://access.redhat.com/security/cve/CVE-2011-2376",
      "ID": "CVE-2011-2376"
    },
    {
      "Source": "CVE",
      "URI": "https://access.redhat.com/security/cve/CVE-2011-2377",
      "ID": "CVE-2011-2377"
    },
    {
      "Source": "CVE",
      "URI": "https://access.redhat.com/security/cve/CVE-2011-2605",
      "ID": "CVE-2011-2605"
    }
  ],
  "Criteria": {
    "Operator": "OR",
    "Criterias": [
      {
        "Operator": "AND",
        "Criterias": [

        ],
        "Criterions": [
          {
            "Comment": "Oracle Linux 6 is installed"
          },
          {
            "Comment": "thunderbird is earlier than 0:3.1.11-2.el6_1"
          },
          {
            "Comment": "thunderbird is signed with Red Hat redhatrelease2 key"
          }
        ]
      }
    ],
    "Criterions": [
      {
        "Comment": "Oracle Linux 6 is installed"
      }
    ]
  },
  "Severity": "Critical",
  "Cves": [
    {
      "Impact": "",
      "Href": "",
      "ID": "CVE-2011-0083"
    },
    {
      "Impact": "",
      "Href": "",
      "ID": "CVE-2011-0085"
    },
    {
      "Impact": "",
      "Href": "",
      "ID": "CVE-2011-2362"
    },
    {
      "Impact": "",
      "Href": "",
      "ID": "CVE-2011-2363"
    },
    {
      "Impact": "",
      "Href": "",
      "ID": "CVE-2011-2364"
    },
    {
      "Impact": "",
      "Href": "",
      "ID": "CVE-2011-2365"
    },
    {
      "Impact": "",
      "Href": "",
      "ID": "CVE-2011-2374"
    },
    {
      "Impact": "",
      "Href": "",
      "ID": "CVE-2011-2375"
    },
    {
      "Impact": "",
      "Href": "",
      "ID": "CVE-2011-2376"
    },
    {
      "Impact": "",
      "Href": "",
      "ID": "CVE-2011-2377"
    },
    {
      "Impact": "",
      "Href": "",
      "ID": "CVE-2011-2605"
    }
  ],
  "Issued": {
    "Date": "2011-06-21"
  }
}