{
  "Title": "RHSA-2011:1459: bind97 security update (Important)",
  "Description": "The Berkeley Internet Name Domain (BIND) is an implementation of the Domain\nName System (DNS) protocols. BIND includes a DNS server (named); a resolver\nlibrary (routines for applications to use when interfacing with DNS); and\ntools for verifying that the DNS server is operating correctly.\nA flaw was discovered in the way BIND handled certain DNS queries, which\ncaused it to cache an invalid record. A remote attacker could use this\nflaw to send repeated queries for this invalid record, causing the\nresolvers to exit unexpectedly due to a failed assertion. (CVE-2011-4313)\nUsers of bind97 are advised to upgrade to these updated packages, which\nresolve this issue. After installing the update, the BIND daemon (named)\nwill be restarted automatically.",
  "Platform": [
    "Red Hat Enterprise Linux 5"
  ],
  "References": [
    {
      "Source": "RHSA",
      "URI": "https://access.redhat.com/errata/RHSA-2011:1459",
      "ID": "RHSA-2011:1459"
    },
    {
      "Source": "CVE",
      "URI": "https://access.redhat.com/security/cve/CVE-2011-4313",
      "ID": "CVE-2011-4313"
    }
  ],
  "Criteria": {
    "Operator": "OR",
    "Criterias": [
      {
        "Operator": "AND",
        "Criterias": [
          {
            "Operator": "OR",
            "Criterias": [
              {
                "Operator": "AND",
                "Criterias": [

                ],
                "Criterions": [
                  {
                    "Comment": "bind97 is earlier than 32:9.7.0-6.P2.el5_7.4"
                  },
                  {
                    "Comment": "bind97 is signed with Red Hat redhatrelease2 key"
                  }
                ]
              },
              {
                "Operator": "AND",
                "Criterias": [

                ],
                "Criterions": [
                  {
                    "Comment": "bind97-chroot is earlier than 32:9.7.0-6.P2.el5_7.4"
                  },
                  {
                    "Comment": "bind97-chroot is signed with Red Hat redhatrelease2 key"
                  }
                ]
              },
              {
                "Operator": "AND",
                "Criterias": [

                ],
                "Criterions": [
                  {
                    "Comment": "bind97-devel is earlier than 32:9.7.0-6.P2.el5_7.4"
                  },
                  {
                    "Comment": "bind97-devel is signed with Red Hat redhatrelease2 key"
                  }
                ]
              },
              {
                "Operator": "AND",
                "Criterias": [

                ],
                "Criterions": [
                  {
                    "Comment": "bind97-libs is earlier than 32:9.7.0-6.P2.el5_7.4"
                  },
                  {
                    "Comment": "bind97-libs is signed with Red Hat redhatrelease2 key"
                  }
                ]
              },
              {
                "Operator": "AND",
                "Criterias": [

                ],
                "Criterions": [
                  {
                    "Comment": "bind97-utils is earlier than 32:9.7.0-6.P2.el5_7.4"
                  },
                  {
                    "Comment": "bind97-utils is signed with Red Hat redhatrelease2 key"
                  }
                ]
              }
            ],
            "Criterions": [

            ]
          }
        ],
        "Criterions": [
          {
            "Comment": "Oracle Linux 5 is installed"
          }
        ]
      }
    ],
    "Criterions": [
      {
        "Comment": "Oracle Linux 5 is installed"
      }
    ]
  },
  "Severity": "Important",
  "Cves": [
    {
      "Impact": "",
      "Href": "",
      "ID": "CVE-2011-4313"
    }
  ],
  "Issued": {
    "Date": "2011-11-17"
  }
}