{
  "Title": "RHSA-2011:1166: thunderbird security update (Critical)",
  "Description": "Mozilla Thunderbird is a standalone mail and newsgroup client.\nSeveral flaws were found in the processing of malformed HTML content.\nMalicious HTML content could cause Thunderbird to crash or, potentially,\nexecute arbitrary code with the privileges of the user running Thunderbird.\n(CVE-2011-2982)\nA dangling pointer flaw was found in the Thunderbird Scalable Vector\nGraphics (SVG) text manipulation routine. An HTML mail message containing a\nmalicious SVG image could cause Thunderbird to crash or, potentially,\nexecute arbitrary code with the privileges of the user running Thunderbird.\n(CVE-2011-0084)\nA dangling pointer flaw was found in the way Thunderbird handled a certain\nDocument Object Model (DOM) element. An HTML mail message containing\nmalicious content could cause Thunderbird to crash or, potentially, execute\narbitrary code with the privileges of the user running Thunderbird.\n(CVE-2011-2378)\nAll Thunderbird users should upgrade to this updated package, which\nresolves these issues. All running instances of Thunderbird must be\nrestarted for the update to take effect.",
  "Platform": [
    "Red Hat Enterprise Linux 6"
  ],
  "References": [
    {
      "Source": "RHSA",
      "URI": "https://access.redhat.com/errata/RHSA-2011:1166",
      "ID": "RHSA-2011:1166"
    },
    {
      "Source": "CVE",
      "URI": "https://access.redhat.com/security/cve/CVE-2011-0084",
      "ID": "CVE-2011-0084"
    },
    {
      "Source": "CVE",
      "URI": "https://access.redhat.com/security/cve/CVE-2011-2378",
      "ID": "CVE-2011-2378"
    },
    {
      "Source": "CVE",
      "URI": "https://access.redhat.com/security/cve/CVE-2011-2982",
      "ID": "CVE-2011-2982"
    }
  ],
  "Criteria": {
    "Operator": "OR",
    "Criterias": [
      {
        "Operator": "AND",
        "Criterias": [

        ],
        "Criterions": [
          {
            "Comment": "Oracle Linux 6 is installed"
          },
          {
            "Comment": "thunderbird is earlier than 0:3.1.12-1.el6_1"
          },
          {
            "Comment": "thunderbird is signed with Red Hat redhatrelease2 key"
          }
        ]
      }
    ],
    "Criterions": [
      {
        "Comment": "Oracle Linux 6 is installed"
      }
    ]
  },
  "Severity": "Critical",
  "Cves": [
    {
      "Impact": "",
      "Href": "",
      "ID": "CVE-2011-0084"
    },
    {
      "Impact": "",
      "Href": "",
      "ID": "CVE-2011-2378"
    },
    {
      "Impact": "",
      "Href": "",
      "ID": "CVE-2011-2982"
    }
  ],
  "Issued": {
    "Date": "2011-08-16"
  }
}