{
  "Title": "RHSA-2011:1359: xorg-x11-server security update (Moderate)",
  "Description": "X.Org is an open source implementation of the X Window System. It provides\nthe basic low-level functionality that full-fledged graphical user\ninterfaces are designed upon.\nMultiple input sanitization flaws were found in the X.Org GLX (OpenGL\nextension to the X Window System) extension. A malicious, authorized client\ncould use these flaws to crash the X.Org server or, potentially, execute\narbitrary code with root privileges. (CVE-2010-4818)\nAn input sanitization flaw was found in the X.Org Render extension. A\nmalicious, authorized client could use this flaw to leak arbitrary memory\nfrom the X.Org server process, or possibly crash the X.Org server.\n(CVE-2010-4819)\nUsers of xorg-x11-server should upgrade to these updated packages, which\ncontain backported patches to resolve these issues. All running X.Org\nserver instances must be restarted for this update to take effect.",
  "Platform": [
    "Red Hat Enterprise Linux 5",
    "Red Hat Enterprise Linux 6"
  ],
  "References": [
    {
      "Source": "RHSA",
      "URI": "https://access.redhat.com/errata/RHSA-2011:1359",
      "ID": "RHSA-2011:1359"
    },
    {
      "Source": "CVE",
      "URI": "https://access.redhat.com/security/cve/CVE-2010-4818",
      "ID": "CVE-2010-4818"
    },
    {
      "Source": "CVE",
      "URI": "https://access.redhat.com/security/cve/CVE-2010-4819",
      "ID": "CVE-2010-4819"
    }
  ],
  "Criteria": {
    "Operator": "OR",
    "Criterias": [
      {
        "Operator": "AND",
        "Criterias": [
          {
            "Operator": "OR",
            "Criterias": [
              {
                "Operator": "AND",
                "Criterias": [

                ],
                "Criterions": [
                  {
                    "Comment": "xorg-x11-server-Xdmx is earlier than 0:1.7.7-29.el6_1.2"
                  },
                  {
                    "Comment": "xorg-x11-server-Xdmx is signed with Red Hat redhatrelease2 key"
                  }
                ]
              },
              {
                "Operator": "AND",
                "Criterias": [

                ],
                "Criterions": [
                  {
                    "Comment": "xorg-x11-server-Xephyr is earlier than 0:1.7.7-29.el6_1.2"
                  },
                  {
                    "Comment": "xorg-x11-server-Xephyr is signed with Red Hat redhatrelease2 key"
                  }
                ]
              },
              {
                "Operator": "AND",
                "Criterias": [

                ],
                "Criterions": [
                  {
                    "Comment": "xorg-x11-server-Xnest is earlier than 0:1.7.7-29.el6_1.2"
                  },
                  {
                    "Comment": "xorg-x11-server-Xnest is signed with Red Hat redhatrelease2 key"
                  }
                ]
              },
              {
                "Operator": "AND",
                "Criterias": [

                ],
                "Criterions": [
                  {
                    "Comment": "xorg-x11-server-Xorg is earlier than 0:1.7.7-29.el6_1.2"
                  },
                  {
                    "Comment": "xorg-x11-server-Xorg is signed with Red Hat redhatrelease2 key"
                  }
                ]
              },
              {
                "Operator": "AND",
                "Criterias": [

                ],
                "Criterions": [
                  {
                    "Comment": "xorg-x11-server-Xvfb is earlier than 0:1.7.7-29.el6_1.2"
                  },
                  {
                    "Comment": "xorg-x11-server-Xvfb is signed with Red Hat redhatrelease2 key"
                  }
                ]
              },
              {
                "Operator": "AND",
                "Criterias": [

                ],
                "Criterions": [
                  {
                    "Comment": "xorg-x11-server-common is earlier than 0:1.7.7-29.el6_1.2"
                  },
                  {
                    "Comment": "xorg-x11-server-common is signed with Red Hat redhatrelease2 key"
                  }
                ]
              },
              {
                "Operator": "AND",
                "Criterias": [

                ],
                "Criterions": [
                  {
                    "Comment": "xorg-x11-server-devel is earlier than 0:1.7.7-29.el6_1.2"
                  },
                  {
                    "Comment": "xorg-x11-server-devel is signed with Red Hat redhatrelease2 key"
                  }
                ]
              },
              {
                "Operator": "AND",
                "Criterias": [

                ],
                "Criterions": [
                  {
                    "Comment": "xorg-x11-server-source is earlier than 0:1.7.7-29.el6_1.2"
                  },
                  {
                    "Comment": "xorg-x11-server-source is signed with Red Hat redhatrelease2 key"
                  }
                ]
              }
            ],
            "Criterions": [

            ]
          }
        ],
        "Criterions": [
          {
            "Comment": "Oracle Linux 6 is installed"
          }
        ]
      },
      {
        "Operator": "AND",
        "Criterias": [
          {
            "Operator": "OR",
            "Criterias": [
              {
                "Operator": "AND",
                "Criterias": [

                ],
                "Criterions": [
                  {
                    "Comment": "xorg-x11-server-Xdmx is earlier than 0:1.1.1-48.76.el5_7.5"
                  },
                  {
                    "Comment": "xorg-x11-server-Xdmx is signed with Red Hat redhatrelease2 key"
                  }
                ]
              },
              {
                "Operator": "AND",
                "Criterias": [

                ],
                "Criterions": [
                  {
                    "Comment": "xorg-x11-server-Xephyr is earlier than 0:1.1.1-48.76.el5_7.5"
                  },
                  {
                    "Comment": "xorg-x11-server-Xephyr is signed with Red Hat redhatrelease2 key"
                  }
                ]
              },
              {
                "Operator": "AND",
                "Criterias": [

                ],
                "Criterions": [
                  {
                    "Comment": "xorg-x11-server-Xnest is earlier than 0:1.1.1-48.76.el5_7.5"
                  },
                  {
                    "Comment": "xorg-x11-server-Xnest is signed with Red Hat redhatrelease2 key"
                  }
                ]
              },
              {
                "Operator": "AND",
                "Criterias": [

                ],
                "Criterions": [
                  {
                    "Comment": "xorg-x11-server-Xorg is earlier than 0:1.1.1-48.76.el5_7.5"
                  },
                  {
                    "Comment": "xorg-x11-server-Xorg is signed with Red Hat redhatrelease2 key"
                  }
                ]
              },
              {
                "Operator": "AND",
                "Criterias": [

                ],
                "Criterions": [
                  {
                    "Comment": "xorg-x11-server-Xvfb is earlier than 0:1.1.1-48.76.el5_7.5"
                  },
                  {
                    "Comment": "xorg-x11-server-Xvfb is signed with Red Hat redhatrelease2 key"
                  }
                ]
              },
              {
                "Operator": "AND",
                "Criterias": [

                ],
                "Criterions": [
                  {
                    "Comment": "xorg-x11-server-Xvnc-source is earlier than 0:1.1.1-48.76.el5_7.5"
                  },
                  {
                    "Comment": "xorg-x11-server-Xvnc-source is signed with Red Hat redhatrelease2 key"
                  }
                ]
              },
              {
                "Operator": "AND",
                "Criterias": [

                ],
                "Criterions": [
                  {
                    "Comment": "xorg-x11-server-sdk is earlier than 0:1.1.1-48.76.el5_7.5"
                  },
                  {
                    "Comment": "xorg-x11-server-sdk is signed with Red Hat redhatrelease2 key"
                  }
                ]
              }
            ],
            "Criterions": [

            ]
          }
        ],
        "Criterions": [
          {
            "Comment": "Oracle Linux 5 is installed"
          }
        ]
      }
    ],
    "Criterions": [
      {
        "Comment": "Oracle Linux 5 is installed"
      }
    ]
  },
  "Severity": "Moderate",
  "Cves": [
    {
      "Impact": "",
      "Href": "",
      "ID": "CVE-2010-4818"
    },
    {
      "Impact": "",
      "Href": "",
      "ID": "CVE-2010-4819"
    }
  ],
  "Issued": {
    "Date": "2011-10-06"
  }
}