{
  "Title": "RHSA-2011:0478: libvirt security update (Moderate)",
  "Description": "The libvirt library is a C API for managing and interacting with the\nvirtualization capabilities of Linux and other operating systems. In\naddition, libvirt provides tools for remotely managing virtualized systems.\nA flaw was found in the way libvirtd handled error reporting for concurrent\nconnections. A remote attacker able to establish read-only connections to\nlibvirtd on a server could use this flaw to crash libvirtd. (CVE-2011-1486)\nAll libvirt users are advised to upgrade to these updated packages, which\ncontain backported patches to resolve this issue. After installing the\nupdated packages, libvirtd must be restarted (\"service libvirtd restart\")\nfor this update to take effect.",
  "Platform": [
    "Red Hat Enterprise Linux 5"
  ],
  "References": [
    {
      "Source": "RHSA",
      "URI": "https://access.redhat.com/errata/RHSA-2011:0478",
      "ID": "RHSA-2011:0478"
    },
    {
      "Source": "CVE",
      "URI": "https://access.redhat.com/security/cve/CVE-2011-1486",
      "ID": "CVE-2011-1486"
    }
  ],
  "Criteria": {
    "Operator": "OR",
    "Criterias": [
      {
        "Operator": "AND",
        "Criterias": [
          {
            "Operator": "OR",
            "Criterias": [
              {
                "Operator": "AND",
                "Criterias": [

                ],
                "Criterions": [
                  {
                    "Comment": "libvirt is earlier than 0:0.8.2-15.el5_6.4"
                  },
                  {
                    "Comment": "libvirt is signed with Red Hat redhatrelease2 key"
                  }
                ]
              },
              {
                "Operator": "AND",
                "Criterias": [

                ],
                "Criterions": [
                  {
                    "Comment": "libvirt-devel is earlier than 0:0.8.2-15.el5_6.4"
                  },
                  {
                    "Comment": "libvirt-devel is signed with Red Hat redhatrelease2 key"
                  }
                ]
              },
              {
                "Operator": "AND",
                "Criterias": [

                ],
                "Criterions": [
                  {
                    "Comment": "libvirt-python is earlier than 0:0.8.2-15.el5_6.4"
                  },
                  {
                    "Comment": "libvirt-python is signed with Red Hat redhatrelease2 key"
                  }
                ]
              }
            ],
            "Criterions": [

            ]
          }
        ],
        "Criterions": [
          {
            "Comment": "Oracle Linux 5 is installed"
          }
        ]
      }
    ],
    "Criterions": [
      {
        "Comment": "Oracle Linux 5 is installed"
      }
    ]
  },
  "Severity": "Moderate",
  "Cves": [
    {
      "Impact": "",
      "Href": "",
      "ID": "CVE-2011-1486"
    }
  ],
  "Issued": {
    "Date": "2011-05-02"
  }
}