{
  "Title": "RHSA-2011:0861: subversion security update (Moderate)",
  "Description": "Subversion (SVN) is a concurrent version control system which enables one\nor more users to collaborate in developing and maintaining a hierarchy of\nfiles and directories while keeping a history of all changes. The\nmod_dav_svn module is used with the Apache HTTP Server to allow access to\nSubversion repositories via HTTP.\nA NULL pointer dereference flaw was found in the way the mod_dav_svn module\nprocessed requests submitted against the URL of a baselined resource. A\nmalicious, remote user could use this flaw to cause the httpd process\nserving the request to crash. (CVE-2011-1752)\nRed Hat would like to thank the Apache Subversion project for reporting\nthis issue. Upstream acknowledges Joe Schaefer of the Apache Software\nFoundation as the original reporter.\nAll Subversion users should upgrade to these updated packages, which\ncontain a backported patch to correct this issue. After installing the\nupdated packages, you must restart the httpd daemon, if you are using\nmod_dav_svn, for the update to take effect.",
  "Platform": [
    "Red Hat Enterprise Linux 4"
  ],
  "References": [
    {
      "Source": "RHSA",
      "URI": "https://access.redhat.com/errata/RHSA-2011:0861",
      "ID": "RHSA-2011:0861"
    },
    {
      "Source": "CVE",
      "URI": "https://access.redhat.com/security/cve/CVE-2011-1752",
      "ID": "CVE-2011-1752"
    }
  ],
  "Criteria": {
    "Operator": "OR",
    "Criterias": [
      {
        "Operator": "AND",
        "Criterias": [
          {
            "Operator": "OR",
            "Criterias": [
              {
                "Operator": "AND",
                "Criterias": [

                ],
                "Criterions": [
                  {
                    "Comment": "mod_dav_svn is earlier than 0:1.1.4-4.el4"
                  },
                  {
                    "Comment": "mod_dav_svn is signed with Red Hat redhatrelease2 key"
                  }
                ]
              },
              {
                "Operator": "AND",
                "Criterias": [

                ],
                "Criterions": [
                  {
                    "Comment": "subversion is earlier than 0:1.1.4-4.el4"
                  },
                  {
                    "Comment": "subversion is signed with Red Hat redhatrelease2 key"
                  }
                ]
              },
              {
                "Operator": "AND",
                "Criterias": [

                ],
                "Criterions": [
                  {
                    "Comment": "subversion-devel is earlier than 0:1.1.4-4.el4"
                  },
                  {
                    "Comment": "subversion-devel is signed with Red Hat redhatrelease2 key"
                  }
                ]
              },
              {
                "Operator": "AND",
                "Criterias": [

                ],
                "Criterions": [
                  {
                    "Comment": "subversion-perl is earlier than 0:1.1.4-4.el4"
                  },
                  {
                    "Comment": "subversion-perl is signed with Red Hat redhatrelease2 key"
                  }
                ]
              }
            ],
            "Criterions": [

            ]
          }
        ],
        "Criterions": [
          {
            "Comment": "Oracle Linux 4 is installed"
          }
        ]
      }
    ],
    "Criterions": [
      {
        "Comment": "Oracle Linux 4 is installed"
      }
    ]
  },
  "Severity": "Moderate",
  "Cves": [
    {
      "Impact": "",
      "Href": "",
      "ID": "CVE-2011-1752"
    }
  ],
  "Issued": {
    "Date": "2011-06-08"
  }
}