{
  "Title": "RHSA-2011:0197: postgresql security update (Moderate)",
  "Description": "PostgreSQL is an advanced object-relational database management system\n(DBMS).\nA stack-based buffer overflow flaw was found in the way PostgreSQL\nprocessed certain tokens from an SQL query when the intarray module was\nenabled on a particular database. An authenticated database user running a\nspecially-crafted SQL query could use this flaw to cause a temporary denial\nof service (postgres daemon crash) or, potentially, execute arbitrary code\nwith the privileges of the database server. (CVE-2010-4015)\nRed Hat would like to thank Geoff Keating of the Apple Product Security\nteam for reporting this issue.\nFor Red Hat Enterprise Linux 4, the updated postgresql packages contain a\nbackported patch for this issue; there are no other changes.\nFor Red Hat Enterprise Linux 5, the updated postgresql packages upgrade\nPostgreSQL to version 8.1.23, and contain a backported patch for this\nissue. Refer to the PostgreSQL Release Notes for a full list of changes:\nhttp://www.postgresql.org/docs/8.1/static/release.html\nFor Red Hat Enterprise Linux 6, the updated postgresql packages upgrade\nPostgreSQL to version 8.4.7, which includes a fix for this issue. Refer to\nthe PostgreSQL Release Notes for a full list of changes:\nhttp://www.postgresql.org/docs/8.4/static/release.html\nAll PostgreSQL users are advised to upgrade to these updated packages,\nwhich correct this issue. If the postgresql service is running, it will be\nautomatically restarted after installing this update.",
  "Platform": [
    "Red Hat Enterprise Linux 4",
    "Red Hat Enterprise Linux 5",
    "Red Hat Enterprise Linux 6"
  ],
  "References": [
    {
      "Source": "RHSA",
      "URI": "https://access.redhat.com/errata/RHSA-2011:0197",
      "ID": "RHSA-2011:0197"
    },
    {
      "Source": "CVE",
      "URI": "https://access.redhat.com/security/cve/CVE-2010-4015",
      "ID": "CVE-2010-4015"
    }
  ],
  "Criteria": {
    "Operator": "OR",
    "Criterias": [
      {
        "Operator": "AND",
        "Criterias": [
          {
            "Operator": "OR",
            "Criterias": [
              {
                "Operator": "AND",
                "Criterias": [

                ],
                "Criterions": [
                  {
                    "Comment": "postgresql is earlier than 0:7.4.30-1.el4_8.2"
                  },
                  {
                    "Comment": "postgresql is signed with Red Hat redhatrelease2 key"
                  }
                ]
              },
              {
                "Operator": "AND",
                "Criterias": [

                ],
                "Criterions": [
                  {
                    "Comment": "postgresql-contrib is earlier than 0:7.4.30-1.el4_8.2"
                  },
                  {
                    "Comment": "postgresql-contrib is signed with Red Hat redhatrelease2 key"
                  }
                ]
              },
              {
                "Operator": "AND",
                "Criterias": [

                ],
                "Criterions": [
                  {
                    "Comment": "postgresql-devel is earlier than 0:7.4.30-1.el4_8.2"
                  },
                  {
                    "Comment": "postgresql-devel is signed with Red Hat redhatrelease2 key"
                  }
                ]
              },
              {
                "Operator": "AND",
                "Criterias": [

                ],
                "Criterions": [
                  {
                    "Comment": "postgresql-docs is earlier than 0:7.4.30-1.el4_8.2"
                  },
                  {
                    "Comment": "postgresql-docs is signed with Red Hat redhatrelease2 key"
                  }
                ]
              },
              {
                "Operator": "AND",
                "Criterias": [

                ],
                "Criterions": [
                  {
                    "Comment": "postgresql-jdbc is earlier than 0:7.4.30-1.el4_8.2"
                  },
                  {
                    "Comment": "postgresql-jdbc is signed with Red Hat redhatrelease2 key"
                  }
                ]
              },
              {
                "Operator": "AND",
                "Criterias": [

                ],
                "Criterions": [
                  {
                    "Comment": "postgresql-libs is earlier than 0:7.4.30-1.el4_8.2"
                  },
                  {
                    "Comment": "postgresql-libs is signed with Red Hat redhatrelease2 key"
                  }
                ]
              },
              {
                "Operator": "AND",
                "Criterias": [

                ],
                "Criterions": [
                  {
                    "Comment": "postgresql-pl is earlier than 0:7.4.30-1.el4_8.2"
                  },
                  {
                    "Comment": "postgresql-pl is signed with Red Hat redhatrelease2 key"
                  }
                ]
              },
              {
                "Operator": "AND",
                "Criterias": [

                ],
                "Criterions": [
                  {
                    "Comment": "postgresql-python is earlier than 0:7.4.30-1.el4_8.2"
                  },
                  {
                    "Comment": "postgresql-python is signed with Red Hat redhatrelease2 key"
                  }
                ]
              },
              {
                "Operator": "AND",
                "Criterias": [

                ],
                "Criterions": [
                  {
                    "Comment": "postgresql-server is earlier than 0:7.4.30-1.el4_8.2"
                  },
                  {
                    "Comment": "postgresql-server is signed with Red Hat redhatrelease2 key"
                  }
                ]
              },
              {
                "Operator": "AND",
                "Criterias": [

                ],
                "Criterions": [
                  {
                    "Comment": "postgresql-tcl is earlier than 0:7.4.30-1.el4_8.2"
                  },
                  {
                    "Comment": "postgresql-tcl is signed with Red Hat redhatrelease2 key"
                  }
                ]
              },
              {
                "Operator": "AND",
                "Criterias": [

                ],
                "Criterions": [
                  {
                    "Comment": "postgresql-test is earlier than 0:7.4.30-1.el4_8.2"
                  },
                  {
                    "Comment": "postgresql-test is signed with Red Hat redhatrelease2 key"
                  }
                ]
              }
            ],
            "Criterions": [

            ]
          }
        ],
        "Criterions": [
          {
            "Comment": "Oracle Linux 4 is installed"
          }
        ]
      },
      {
        "Operator": "AND",
        "Criterias": [
          {
            "Operator": "OR",
            "Criterias": [
              {
                "Operator": "AND",
                "Criterias": [

                ],
                "Criterions": [
                  {
                    "Comment": "postgresql is earlier than 0:8.4.7-1.el6_0.1"
                  },
                  {
                    "Comment": "postgresql is signed with Red Hat redhatrelease2 key"
                  }
                ]
              },
              {
                "Operator": "AND",
                "Criterias": [

                ],
                "Criterions": [
                  {
                    "Comment": "postgresql-contrib is earlier than 0:8.4.7-1.el6_0.1"
                  },
                  {
                    "Comment": "postgresql-contrib is signed with Red Hat redhatrelease2 key"
                  }
                ]
              },
              {
                "Operator": "AND",
                "Criterias": [

                ],
                "Criterions": [
                  {
                    "Comment": "postgresql-devel is earlier than 0:8.4.7-1.el6_0.1"
                  },
                  {
                    "Comment": "postgresql-devel is signed with Red Hat redhatrelease2 key"
                  }
                ]
              },
              {
                "Operator": "AND",
                "Criterias": [

                ],
                "Criterions": [
                  {
                    "Comment": "postgresql-docs is earlier than 0:8.4.7-1.el6_0.1"
                  },
                  {
                    "Comment": "postgresql-docs is signed with Red Hat redhatrelease2 key"
                  }
                ]
              },
              {
                "Operator": "AND",
                "Criterias": [

                ],
                "Criterions": [
                  {
                    "Comment": "postgresql-libs is earlier than 0:8.4.7-1.el6_0.1"
                  },
                  {
                    "Comment": "postgresql-libs is signed with Red Hat redhatrelease2 key"
                  }
                ]
              },
              {
                "Operator": "AND",
                "Criterias": [

                ],
                "Criterions": [
                  {
                    "Comment": "postgresql-plperl is earlier than 0:8.4.7-1.el6_0.1"
                  },
                  {
                    "Comment": "postgresql-plperl is signed with Red Hat redhatrelease2 key"
                  }
                ]
              },
              {
                "Operator": "AND",
                "Criterias": [

                ],
                "Criterions": [
                  {
                    "Comment": "postgresql-plpython is earlier than 0:8.4.7-1.el6_0.1"
                  },
                  {
                    "Comment": "postgresql-plpython is signed with Red Hat redhatrelease2 key"
                  }
                ]
              },
              {
                "Operator": "AND",
                "Criterias": [

                ],
                "Criterions": [
                  {
                    "Comment": "postgresql-pltcl is earlier than 0:8.4.7-1.el6_0.1"
                  },
                  {
                    "Comment": "postgresql-pltcl is signed with Red Hat redhatrelease2 key"
                  }
                ]
              },
              {
                "Operator": "AND",
                "Criterias": [

                ],
                "Criterions": [
                  {
                    "Comment": "postgresql-server is earlier than 0:8.4.7-1.el6_0.1"
                  },
                  {
                    "Comment": "postgresql-server is signed with Red Hat redhatrelease2 key"
                  }
                ]
              },
              {
                "Operator": "AND",
                "Criterias": [

                ],
                "Criterions": [
                  {
                    "Comment": "postgresql-test is earlier than 0:8.4.7-1.el6_0.1"
                  },
                  {
                    "Comment": "postgresql-test is signed with Red Hat redhatrelease2 key"
                  }
                ]
              }
            ],
            "Criterions": [

            ]
          }
        ],
        "Criterions": [
          {
            "Comment": "Oracle Linux 6 is installed"
          }
        ]
      },
      {
        "Operator": "AND",
        "Criterias": [
          {
            "Operator": "OR",
            "Criterias": [
              {
                "Operator": "AND",
                "Criterias": [

                ],
                "Criterions": [
                  {
                    "Comment": "postgresql is earlier than 0:8.1.23-1.el5_6.1"
                  },
                  {
                    "Comment": "postgresql is signed with Red Hat redhatrelease2 key"
                  }
                ]
              },
              {
                "Operator": "AND",
                "Criterias": [

                ],
                "Criterions": [
                  {
                    "Comment": "postgresql-contrib is earlier than 0:8.1.23-1.el5_6.1"
                  },
                  {
                    "Comment": "postgresql-contrib is signed with Red Hat redhatrelease2 key"
                  }
                ]
              },
              {
                "Operator": "AND",
                "Criterias": [

                ],
                "Criterions": [
                  {
                    "Comment": "postgresql-devel is earlier than 0:8.1.23-1.el5_6.1"
                  },
                  {
                    "Comment": "postgresql-devel is signed with Red Hat redhatrelease2 key"
                  }
                ]
              },
              {
                "Operator": "AND",
                "Criterias": [

                ],
                "Criterions": [
                  {
                    "Comment": "postgresql-docs is earlier than 0:8.1.23-1.el5_6.1"
                  },
                  {
                    "Comment": "postgresql-docs is signed with Red Hat redhatrelease2 key"
                  }
                ]
              },
              {
                "Operator": "AND",
                "Criterias": [

                ],
                "Criterions": [
                  {
                    "Comment": "postgresql-libs is earlier than 0:8.1.23-1.el5_6.1"
                  },
                  {
                    "Comment": "postgresql-libs is signed with Red Hat redhatrelease2 key"
                  }
                ]
              },
              {
                "Operator": "AND",
                "Criterias": [

                ],
                "Criterions": [
                  {
                    "Comment": "postgresql-pl is earlier than 0:8.1.23-1.el5_6.1"
                  },
                  {
                    "Comment": "postgresql-pl is signed with Red Hat redhatrelease2 key"
                  }
                ]
              },
              {
                "Operator": "AND",
                "Criterias": [

                ],
                "Criterions": [
                  {
                    "Comment": "postgresql-python is earlier than 0:8.1.23-1.el5_6.1"
                  },
                  {
                    "Comment": "postgresql-python is signed with Red Hat redhatrelease2 key"
                  }
                ]
              },
              {
                "Operator": "AND",
                "Criterias": [

                ],
                "Criterions": [
                  {
                    "Comment": "postgresql-server is earlier than 0:8.1.23-1.el5_6.1"
                  },
                  {
                    "Comment": "postgresql-server is signed with Red Hat redhatrelease2 key"
                  }
                ]
              },
              {
                "Operator": "AND",
                "Criterias": [

                ],
                "Criterions": [
                  {
                    "Comment": "postgresql-tcl is earlier than 0:8.1.23-1.el5_6.1"
                  },
                  {
                    "Comment": "postgresql-tcl is signed with Red Hat redhatrelease2 key"
                  }
                ]
              },
              {
                "Operator": "AND",
                "Criterias": [

                ],
                "Criterions": [
                  {
                    "Comment": "postgresql-test is earlier than 0:8.1.23-1.el5_6.1"
                  },
                  {
                    "Comment": "postgresql-test is signed with Red Hat redhatrelease2 key"
                  }
                ]
              }
            ],
            "Criterions": [

            ]
          }
        ],
        "Criterions": [
          {
            "Comment": "Oracle Linux 5 is installed"
          }
        ]
      }
    ],
    "Criterions": [
      {
        "Comment": "Oracle Linux 4 is installed"
      }
    ]
  },
  "Severity": "Moderate",
  "Cves": [
    {
      "Impact": "",
      "Href": "",
      "ID": "CVE-2010-4015"
    }
  ],
  "Issued": {
    "Date": "2011-02-03"
  }
}