{
  "Title": "RHSA-2011:0436: avahi security update (Moderate)",
  "Description": "Avahi is an implementation of the DNS Service Discovery and Multicast DNS\nspecifications for Zero Configuration Networking. It facilitates service\ndiscovery on a local network. Avahi and Avahi-aware applications allow you\nto plug your computer into a network and, with no configuration, view other\npeople to chat with, view printers to print to, and find shared files on\nother computers.\nA flaw was found in the way the Avahi daemon (avahi-daemon) processed\nMulticast DNS (mDNS) packets with an empty payload. An attacker on the\nlocal network could use this flaw to cause avahi-daemon on a target system\nto enter an infinite loop via an empty mDNS UDP packet. (CVE-2011-1002)\nAll users are advised to upgrade to these updated packages, which contain\na backported patch to correct this issue. After installing the update,\navahi-daemon will be restarted automatically.",
  "Platform": [
    "Red Hat Enterprise Linux 5"
  ],
  "References": [
    {
      "Source": "RHSA",
      "URI": "https://access.redhat.com/errata/RHSA-2011:0436",
      "ID": "RHSA-2011:0436"
    },
    {
      "Source": "CVE",
      "URI": "https://access.redhat.com/security/cve/CVE-2011-1002",
      "ID": "CVE-2011-1002"
    }
  ],
  "Criteria": {
    "Operator": "OR",
    "Criterias": [
      {
        "Operator": "AND",
        "Criterias": [
          {
            "Operator": "OR",
            "Criterias": [
              {
                "Operator": "AND",
                "Criterias": [

                ],
                "Criterions": [
                  {
                    "Comment": "avahi is earlier than 0:0.6.16-10.el5_6"
                  },
                  {
                    "Comment": "avahi is signed with Red Hat redhatrelease2 key"
                  }
                ]
              },
              {
                "Operator": "AND",
                "Criterias": [

                ],
                "Criterions": [
                  {
                    "Comment": "avahi-compat-howl is earlier than 0:0.6.16-10.el5_6"
                  },
                  {
                    "Comment": "avahi-compat-howl is signed with Red Hat redhatrelease2 key"
                  }
                ]
              },
              {
                "Operator": "AND",
                "Criterias": [

                ],
                "Criterions": [
                  {
                    "Comment": "avahi-compat-howl-devel is earlier than 0:0.6.16-10.el5_6"
                  },
                  {
                    "Comment": "avahi-compat-howl-devel is signed with Red Hat redhatrelease2 key"
                  }
                ]
              },
              {
                "Operator": "AND",
                "Criterias": [

                ],
                "Criterions": [
                  {
                    "Comment": "avahi-compat-libdns_sd is earlier than 0:0.6.16-10.el5_6"
                  },
                  {
                    "Comment": "avahi-compat-libdns_sd is signed with Red Hat redhatrelease2 key"
                  }
                ]
              },
              {
                "Operator": "AND",
                "Criterias": [

                ],
                "Criterions": [
                  {
                    "Comment": "avahi-compat-libdns_sd-devel is earlier than 0:0.6.16-10.el5_6"
                  },
                  {
                    "Comment": "avahi-compat-libdns_sd-devel is signed with Red Hat redhatrelease2 key"
                  }
                ]
              },
              {
                "Operator": "AND",
                "Criterias": [

                ],
                "Criterions": [
                  {
                    "Comment": "avahi-devel is earlier than 0:0.6.16-10.el5_6"
                  },
                  {
                    "Comment": "avahi-devel is signed with Red Hat redhatrelease2 key"
                  }
                ]
              },
              {
                "Operator": "AND",
                "Criterias": [

                ],
                "Criterions": [
                  {
                    "Comment": "avahi-glib is earlier than 0:0.6.16-10.el5_6"
                  },
                  {
                    "Comment": "avahi-glib is signed with Red Hat redhatrelease2 key"
                  }
                ]
              },
              {
                "Operator": "AND",
                "Criterias": [

                ],
                "Criterions": [
                  {
                    "Comment": "avahi-glib-devel is earlier than 0:0.6.16-10.el5_6"
                  },
                  {
                    "Comment": "avahi-glib-devel is signed with Red Hat redhatrelease2 key"
                  }
                ]
              },
              {
                "Operator": "AND",
                "Criterias": [

                ],
                "Criterions": [
                  {
                    "Comment": "avahi-qt3 is earlier than 0:0.6.16-10.el5_6"
                  },
                  {
                    "Comment": "avahi-qt3 is signed with Red Hat redhatrelease2 key"
                  }
                ]
              },
              {
                "Operator": "AND",
                "Criterias": [

                ],
                "Criterions": [
                  {
                    "Comment": "avahi-qt3-devel is earlier than 0:0.6.16-10.el5_6"
                  },
                  {
                    "Comment": "avahi-qt3-devel is signed with Red Hat redhatrelease2 key"
                  }
                ]
              },
              {
                "Operator": "AND",
                "Criterias": [

                ],
                "Criterions": [
                  {
                    "Comment": "avahi-tools is earlier than 0:0.6.16-10.el5_6"
                  },
                  {
                    "Comment": "avahi-tools is signed with Red Hat redhatrelease2 key"
                  }
                ]
              }
            ],
            "Criterions": [

            ]
          }
        ],
        "Criterions": [
          {
            "Comment": "Oracle Linux 5 is installed"
          }
        ]
      }
    ],
    "Criterions": [
      {
        "Comment": "Oracle Linux 5 is installed"
      }
    ]
  },
  "Severity": "Moderate",
  "Cves": [
    {
      "Impact": "",
      "Href": "",
      "ID": "CVE-2011-1002"
    }
  ],
  "Issued": {
    "Date": "2011-04-12"
  }
}