{
  "Title": "RHSA-2011:0432: xorg-x11 security update (Moderate)",
  "Description": "X.Org is an open source implementation of the X Window System. It provides\nthe basic low-level functionality that full-fledged graphical user\ninterfaces are designed upon.\nA flaw was found in the X.Org X server resource database utility, xrdb.\nCertain variables were not properly sanitized during the launch of a user's\ngraphical session, which could possibly allow a remote attacker to execute\narbitrary code with root privileges, if they were able to make the display\nmanager execute xrdb with a specially-crafted X client hostname. For\nexample, by configuring the hostname on the target system via a crafted\nDHCP reply, or by using the X Display Manager Control Protocol (XDMCP) to\nconnect to that system from a host that has a special DNS name.\n(CVE-2011-0465)\nRed Hat would like to thank Matthieu Herrb for reporting this issue.\nUpstream acknowledges Sebastian Krahmer of the SuSE Security Team as the\noriginal reporter.\nUsers of xorg-x11 should upgrade to these updated packages, which contain a\nbackported patch to resolve this issue. All running X.Org server instances\nmust be restarted for this update to take effect.",
  "Platform": [
    "Red Hat Enterprise Linux 4"
  ],
  "References": [
    {
      "Source": "RHSA",
      "URI": "https://access.redhat.com/errata/RHSA-2011:0432",
      "ID": "RHSA-2011:0432"
    },
    {
      "Source": "CVE",
      "URI": "https://access.redhat.com/security/cve/CVE-2011-0465",
      "ID": "CVE-2011-0465"
    }
  ],
  "Criteria": {
    "Operator": "OR",
    "Criterias": [
      {
        "Operator": "AND",
        "Criterias": [
          {
            "Operator": "OR",
            "Criterias": [
              {
                "Operator": "AND",
                "Criterias": [

                ],
                "Criterions": [
                  {
                    "Comment": "xorg-x11 is earlier than 0:6.8.2-1.EL.67"
                  },
                  {
                    "Comment": "xorg-x11 is signed with Red Hat redhatrelease2 key"
                  }
                ]
              },
              {
                "Operator": "AND",
                "Criterias": [

                ],
                "Criterions": [
                  {
                    "Comment": "xorg-x11-Mesa-libGL is earlier than 0:6.8.2-1.EL.67"
                  },
                  {
                    "Comment": "xorg-x11-Mesa-libGL is signed with Red Hat redhatrelease2 key"
                  }
                ]
              },
              {
                "Operator": "AND",
                "Criterias": [

                ],
                "Criterions": [
                  {
                    "Comment": "xorg-x11-Mesa-libGLU is earlier than 0:6.8.2-1.EL.67"
                  },
                  {
                    "Comment": "xorg-x11-Mesa-libGLU is signed with Red Hat redhatrelease2 key"
                  }
                ]
              },
              {
                "Operator": "AND",
                "Criterias": [

                ],
                "Criterions": [
                  {
                    "Comment": "xorg-x11-Xdmx is earlier than 0:6.8.2-1.EL.67"
                  },
                  {
                    "Comment": "xorg-x11-Xdmx is signed with Red Hat redhatrelease2 key"
                  }
                ]
              },
              {
                "Operator": "AND",
                "Criterias": [

                ],
                "Criterions": [
                  {
                    "Comment": "xorg-x11-Xnest is earlier than 0:6.8.2-1.EL.67"
                  },
                  {
                    "Comment": "xorg-x11-Xnest is signed with Red Hat redhatrelease2 key"
                  }
                ]
              },
              {
                "Operator": "AND",
                "Criterias": [

                ],
                "Criterions": [
                  {
                    "Comment": "xorg-x11-Xvfb is earlier than 0:6.8.2-1.EL.67"
                  },
                  {
                    "Comment": "xorg-x11-Xvfb is signed with Red Hat redhatrelease2 key"
                  }
                ]
              },
              {
                "Operator": "AND",
                "Criterias": [

                ],
                "Criterions": [
                  {
                    "Comment": "xorg-x11-deprecated-libs is earlier than 0:6.8.2-1.EL.67"
                  },
                  {
                    "Comment": "xorg-x11-deprecated-libs is signed with Red Hat redhatrelease2 key"
                  }
                ]
              },
              {
                "Operator": "AND",
                "Criterias": [

                ],
                "Criterions": [
                  {
                    "Comment": "xorg-x11-deprecated-libs-devel is earlier than 0:6.8.2-1.EL.67"
                  },
                  {
                    "Comment": "xorg-x11-deprecated-libs-devel is signed with Red Hat redhatrelease2 key"
                  }
                ]
              },
              {
                "Operator": "AND",
                "Criterias": [

                ],
                "Criterions": [
                  {
                    "Comment": "xorg-x11-devel is earlier than 0:6.8.2-1.EL.67"
                  },
                  {
                    "Comment": "xorg-x11-devel is signed with Red Hat redhatrelease2 key"
                  }
                ]
              },
              {
                "Operator": "AND",
                "Criterias": [

                ],
                "Criterions": [
                  {
                    "Comment": "xorg-x11-doc is earlier than 0:6.8.2-1.EL.67"
                  },
                  {
                    "Comment": "xorg-x11-doc is signed with Red Hat redhatrelease2 key"
                  }
                ]
              },
              {
                "Operator": "AND",
                "Criterias": [

                ],
                "Criterions": [
                  {
                    "Comment": "xorg-x11-font-utils is earlier than 0:6.8.2-1.EL.67"
                  },
                  {
                    "Comment": "xorg-x11-font-utils is signed with Red Hat redhatrelease2 key"
                  }
                ]
              },
              {
                "Operator": "AND",
                "Criterias": [

                ],
                "Criterions": [
                  {
                    "Comment": "xorg-x11-libs is earlier than 0:6.8.2-1.EL.67"
                  },
                  {
                    "Comment": "xorg-x11-libs is signed with Red Hat redhatrelease2 key"
                  }
                ]
              },
              {
                "Operator": "AND",
                "Criterias": [

                ],
                "Criterions": [
                  {
                    "Comment": "xorg-x11-sdk is earlier than 0:6.8.2-1.EL.67"
                  },
                  {
                    "Comment": "xorg-x11-sdk is signed with Red Hat redhatrelease2 key"
                  }
                ]
              },
              {
                "Operator": "AND",
                "Criterias": [

                ],
                "Criterions": [
                  {
                    "Comment": "xorg-x11-tools is earlier than 0:6.8.2-1.EL.67"
                  },
                  {
                    "Comment": "xorg-x11-tools is signed with Red Hat redhatrelease2 key"
                  }
                ]
              },
              {
                "Operator": "AND",
                "Criterias": [

                ],
                "Criterions": [
                  {
                    "Comment": "xorg-x11-twm is earlier than 0:6.8.2-1.EL.67"
                  },
                  {
                    "Comment": "xorg-x11-twm is signed with Red Hat redhatrelease2 key"
                  }
                ]
              },
              {
                "Operator": "AND",
                "Criterias": [

                ],
                "Criterions": [
                  {
                    "Comment": "xorg-x11-xauth is earlier than 0:6.8.2-1.EL.67"
                  },
                  {
                    "Comment": "xorg-x11-xauth is signed with Red Hat redhatrelease2 key"
                  }
                ]
              },
              {
                "Operator": "AND",
                "Criterias": [

                ],
                "Criterions": [
                  {
                    "Comment": "xorg-x11-xdm is earlier than 0:6.8.2-1.EL.67"
                  },
                  {
                    "Comment": "xorg-x11-xdm is signed with Red Hat redhatrelease2 key"
                  }
                ]
              },
              {
                "Operator": "AND",
                "Criterias": [

                ],
                "Criterions": [
                  {
                    "Comment": "xorg-x11-xfs is earlier than 0:6.8.2-1.EL.67"
                  },
                  {
                    "Comment": "xorg-x11-xfs is signed with Red Hat redhatrelease2 key"
                  }
                ]
              }
            ],
            "Criterions": [

            ]
          }
        ],
        "Criterions": [
          {
            "Comment": "Oracle Linux 4 is installed"
          }
        ]
      }
    ],
    "Criterions": [
      {
        "Comment": "Oracle Linux 4 is installed"
      }
    ]
  },
  "Severity": "Moderate",
  "Cves": [
    {
      "Impact": "",
      "Href": "",
      "ID": "CVE-2011-0465"
    }
  ],
  "Issued": {
    "Date": "2011-04-11"
  }
}