{
  "Title": "RHSA-2011:0554: python security, bug fix, and enhancement update (Moderate)",
  "Description": "Python is an interpreted, interactive, object-oriented programming\nlanguage.\nA flaw was found in the Python urllib and urllib2 libraries where they\nwould not differentiate between different target URLs when handling\nautomatic redirects. This caused Python applications using these modules to\nfollow any new URL that they understood, including the \"file://\" URL type.\nThis could allow a remote server to force a local Python application to\nread a local file instead of the remote one, possibly exposing local files\nthat were not meant to be exposed. (CVE-2011-1521)\nA race condition was found in the way the Python smtpd module handled new\nconnections. A remote user could use this flaw to cause a Python script\nusing the smtpd module to terminate. (CVE-2010-3493)\nAn information disclosure flaw was found in the way the Python\nCGIHTTPServer module processed certain HTTP GET requests. A remote attacker\ncould use a specially-crafted request to obtain the CGI script's source\ncode. (CVE-2011-1015)\nThis erratum also upgrades Python to upstream version 2.6.6, and includes a\nnumber of bug fixes and enhancements. Documentation for these bug fixes\nand enhancements is available from the Technical Notes document, linked to\nin the References section.\nAll users of Python are advised to upgrade to these updated packages, which\ncorrect these issues, and fix the bugs and add the enhancements noted in\nthe Technical Notes.",
  "Platform": [
    "Red Hat Enterprise Linux 6"
  ],
  "References": [
    {
      "Source": "RHSA",
      "URI": "https://access.redhat.com/errata/RHSA-2011:0554",
      "ID": "RHSA-2011:0554"
    },
    {
      "Source": "CVE",
      "URI": "https://access.redhat.com/security/cve/CVE-2010-3493",
      "ID": "CVE-2010-3493"
    },
    {
      "Source": "CVE",
      "URI": "https://access.redhat.com/security/cve/CVE-2011-1015",
      "ID": "CVE-2011-1015"
    },
    {
      "Source": "CVE",
      "URI": "https://access.redhat.com/security/cve/CVE-2011-1521",
      "ID": "CVE-2011-1521"
    }
  ],
  "Criteria": {
    "Operator": "OR",
    "Criterias": [
      {
        "Operator": "AND",
        "Criterias": [
          {
            "Operator": "OR",
            "Criterias": [
              {
                "Operator": "AND",
                "Criterias": [

                ],
                "Criterions": [
                  {
                    "Comment": "python-docs is earlier than 0:2.6.6-2.el6"
                  },
                  {
                    "Comment": "python-docs is signed with Red Hat redhatrelease2 key"
                  }
                ]
              },
              {
                "Operator": "AND",
                "Criterias": [

                ],
                "Criterions": [
                  {
                    "Comment": "python is earlier than 0:2.6.6-20.el6"
                  },
                  {
                    "Comment": "python is signed with Red Hat redhatrelease2 key"
                  }
                ]
              },
              {
                "Operator": "AND",
                "Criterias": [

                ],
                "Criterions": [
                  {
                    "Comment": "python-devel is earlier than 0:2.6.6-20.el6"
                  },
                  {
                    "Comment": "python-devel is signed with Red Hat redhatrelease2 key"
                  }
                ]
              },
              {
                "Operator": "AND",
                "Criterias": [

                ],
                "Criterions": [
                  {
                    "Comment": "python-libs is earlier than 0:2.6.6-20.el6"
                  },
                  {
                    "Comment": "python-libs is signed with Red Hat redhatrelease2 key"
                  }
                ]
              },
              {
                "Operator": "AND",
                "Criterias": [

                ],
                "Criterions": [
                  {
                    "Comment": "python-test is earlier than 0:2.6.6-20.el6"
                  },
                  {
                    "Comment": "python-test is signed with Red Hat redhatrelease2 key"
                  }
                ]
              },
              {
                "Operator": "AND",
                "Criterias": [

                ],
                "Criterions": [
                  {
                    "Comment": "python-tools is earlier than 0:2.6.6-20.el6"
                  },
                  {
                    "Comment": "python-tools is signed with Red Hat redhatrelease2 key"
                  }
                ]
              },
              {
                "Operator": "AND",
                "Criterias": [

                ],
                "Criterions": [
                  {
                    "Comment": "tkinter is earlier than 0:2.6.6-20.el6"
                  },
                  {
                    "Comment": "tkinter is signed with Red Hat redhatrelease2 key"
                  }
                ]
              }
            ],
            "Criterions": [

            ]
          }
        ],
        "Criterions": [
          {
            "Comment": "Oracle Linux 6 is installed"
          }
        ]
      }
    ],
    "Criterions": [
      {
        "Comment": "Oracle Linux 6 is installed"
      }
    ]
  },
  "Severity": "Moderate",
  "Cves": [
    {
      "Impact": "",
      "Href": "",
      "ID": "CVE-2010-3493"
    },
    {
      "Impact": "",
      "Href": "",
      "ID": "CVE-2011-1015"
    },
    {
      "Impact": "",
      "Href": "",
      "ID": "CVE-2011-1521"
    }
  ],
  "Issued": {
    "Date": "2011-05-19"
  }
}