{
  "Title": "RHSA-2011:0263: Red Hat Enterprise Linux 4.9 kernel security and bug fix update (Important)",
  "Description": "The kernel packages contain the Linux kernel, the core of any Linux\noperating system.\nThis update fixes the following security issues:\n* A buffer overflow flaw was found in the load_mixer_volumes() function in\nthe Linux kernel's Open Sound System (OSS) sound driver. On 64-bit PowerPC\nsystems, a local, unprivileged user could use this flaw to cause a denial\nof service or escalate their privileges. (CVE-2010-4527, Important)\n* A missing boundary check was found in the dvb_ca_ioctl() function in the\nLinux kernel's av7110 module. On systems that use old DVB cards that\nrequire the av7110 module, a local, unprivileged user could use this flaw\nto cause a denial of service or escalate their privileges. (CVE-2011-0521,\nImportant)\n* A missing initialization flaw was found in the ethtool_get_regs()\nfunction in the Linux kernel's ethtool IOCTL handler. A local user who has\nthe CAP_NET_ADMIN capability could use this flaw to cause an information\nleak. (CVE-2010-4655, Low)\nRed Hat would like to thank Dan Rosenberg for reporting CVE-2010-4527, and\nKees Cook for reporting CVE-2010-4655.\nThese updated kernel packages also fix hundreds of bugs and add numerous\nenhancements. For details on individual bug fixes and enhancements included\nin this update, refer to the Red Hat Enterprise Linux 4.9 Release Notes,\nlinked to in the References section.\nUsers should upgrade to these updated packages, which contain backported\npatches to correct these issues and add these enhancements. The system must\nbe rebooted for this update to take effect.",
  "Platform": [
    "Red Hat Enterprise Linux 4"
  ],
  "References": [
    {
      "Source": "RHSA",
      "URI": "https://access.redhat.com/errata/RHSA-2011:0263",
      "ID": "RHSA-2011:0263"
    },
    {
      "Source": "CVE",
      "URI": "https://access.redhat.com/security/cve/CVE-2010-4527",
      "ID": "CVE-2010-4527"
    },
    {
      "Source": "CVE",
      "URI": "https://access.redhat.com/security/cve/CVE-2010-4655",
      "ID": "CVE-2010-4655"
    },
    {
      "Source": "CVE",
      "URI": "https://access.redhat.com/security/cve/CVE-2011-0521",
      "ID": "CVE-2011-0521"
    }
  ],
  "Criteria": {
    "Operator": "OR",
    "Criterias": [
      {
        "Operator": "AND",
        "Criterias": [
          {
            "Operator": "OR",
            "Criterias": [

            ],
            "Criterions": [
              {
                "Comment": "kernel earlier than 0:2.6.9-100.EL is currently running"
              },
              {
                "Comment": "kernel earlier than 0:2.6.9-100.EL is set to boot up on next boot"
              }
            ]
          },
          {
            "Operator": "OR",
            "Criterias": [
              {
                "Operator": "AND",
                "Criterias": [

                ],
                "Criterions": [
                  {
                    "Comment": "kernel is earlier than 0:2.6.9-100.EL"
                  },
                  {
                    "Comment": "kernel is signed with Red Hat redhatrelease2 key"
                  }
                ]
              },
              {
                "Operator": "AND",
                "Criterias": [

                ],
                "Criterions": [
                  {
                    "Comment": "kernel-devel is earlier than 0:2.6.9-100.EL"
                  },
                  {
                    "Comment": "kernel-devel is signed with Red Hat redhatrelease2 key"
                  }
                ]
              },
              {
                "Operator": "AND",
                "Criterias": [

                ],
                "Criterions": [
                  {
                    "Comment": "kernel-doc is earlier than 0:2.6.9-100.EL"
                  },
                  {
                    "Comment": "kernel-doc is signed with Red Hat redhatrelease2 key"
                  }
                ]
              },
              {
                "Operator": "AND",
                "Criterias": [

                ],
                "Criterions": [
                  {
                    "Comment": "kernel-hugemem is earlier than 0:2.6.9-100.EL"
                  },
                  {
                    "Comment": "kernel-hugemem is signed with Red Hat redhatrelease2 key"
                  }
                ]
              },
              {
                "Operator": "AND",
                "Criterias": [

                ],
                "Criterions": [
                  {
                    "Comment": "kernel-hugemem-devel is earlier than 0:2.6.9-100.EL"
                  },
                  {
                    "Comment": "kernel-hugemem-devel is signed with Red Hat redhatrelease2 key"
                  }
                ]
              },
              {
                "Operator": "AND",
                "Criterias": [

                ],
                "Criterions": [
                  {
                    "Comment": "kernel-largesmp is earlier than 0:2.6.9-100.EL"
                  },
                  {
                    "Comment": "kernel-largesmp is signed with Red Hat redhatrelease2 key"
                  }
                ]
              },
              {
                "Operator": "AND",
                "Criterias": [

                ],
                "Criterions": [
                  {
                    "Comment": "kernel-largesmp-devel is earlier than 0:2.6.9-100.EL"
                  },
                  {
                    "Comment": "kernel-largesmp-devel is signed with Red Hat redhatrelease2 key"
                  }
                ]
              },
              {
                "Operator": "AND",
                "Criterias": [

                ],
                "Criterions": [
                  {
                    "Comment": "kernel-smp is earlier than 0:2.6.9-100.EL"
                  },
                  {
                    "Comment": "kernel-smp is signed with Red Hat redhatrelease2 key"
                  }
                ]
              },
              {
                "Operator": "AND",
                "Criterias": [

                ],
                "Criterions": [
                  {
                    "Comment": "kernel-smp-devel is earlier than 0:2.6.9-100.EL"
                  },
                  {
                    "Comment": "kernel-smp-devel is signed with Red Hat redhatrelease2 key"
                  }
                ]
              },
              {
                "Operator": "AND",
                "Criterias": [

                ],
                "Criterions": [
                  {
                    "Comment": "kernel-xenU is earlier than 0:2.6.9-100.EL"
                  },
                  {
                    "Comment": "kernel-xenU is signed with Red Hat redhatrelease2 key"
                  }
                ]
              },
              {
                "Operator": "AND",
                "Criterias": [

                ],
                "Criterions": [
                  {
                    "Comment": "kernel-xenU-devel is earlier than 0:2.6.9-100.EL"
                  },
                  {
                    "Comment": "kernel-xenU-devel is signed with Red Hat redhatrelease2 key"
                  }
                ]
              }
            ],
            "Criterions": [

            ]
          }
        ],
        "Criterions": [
          {
            "Comment": "Oracle Linux 4 is installed"
          }
        ]
      }
    ],
    "Criterions": [
      {
        "Comment": "Oracle Linux 4 is installed"
      }
    ]
  },
  "Severity": "Important",
  "Cves": [
    {
      "Impact": "",
      "Href": "",
      "ID": "CVE-2010-4527"
    },
    {
      "Impact": "",
      "Href": "",
      "ID": "CVE-2010-4655"
    },
    {
      "Impact": "",
      "Href": "",
      "ID": "CVE-2011-0521"
    }
  ],
  "Issued": {
    "Date": "2011-02-16"
  }
}