{
  "Title": "RHSA-2011:1266: seamonkey security update (Important)",
  "Description": "SeaMonkey is an open source web browser, email and newsgroup client, IRC\nchat client, and HTML editor.\nThe RHSA-2011:1244 SeaMonkey update rendered HTTPS certificates signed by a\ncertain Certificate Authority (CA) as untrusted, but made an exception for\na select few. This update removes that exception, rendering every HTTPS\ncertificate signed by that CA as untrusted. (BZ#735483)\nAll SeaMonkey users should upgrade to these updated packages, which correct\nthis issue. After installing the update, SeaMonkey must be restarted for\nthe changes to take effect.",
  "Platform": [
    "Red Hat Enterprise Linux 4"
  ],
  "References": [
    {
      "Source": "RHSA",
      "URI": "https://access.redhat.com/errata/RHSA-2011:1266",
      "ID": "RHSA-2011:1266"
    }
  ],
  "Criteria": {
    "Operator": "OR",
    "Criterias": [
      {
        "Operator": "AND",
        "Criterias": [
          {
            "Operator": "OR",
            "Criterias": [
              {
                "Operator": "AND",
                "Criterias": [

                ],
                "Criterions": [
                  {
                    "Comment": "seamonkey is earlier than 0:1.0.9-75.el4"
                  },
                  {
                    "Comment": "seamonkey is signed with Red Hat master key"
                  }
                ]
              },
              {
                "Operator": "AND",
                "Criterias": [

                ],
                "Criterions": [
                  {
                    "Comment": "seamonkey-chat is earlier than 0:1.0.9-75.el4"
                  },
                  {
                    "Comment": "seamonkey-chat is signed with Red Hat master key"
                  }
                ]
              },
              {
                "Operator": "AND",
                "Criterias": [

                ],
                "Criterions": [
                  {
                    "Comment": "seamonkey-devel is earlier than 0:1.0.9-75.el4"
                  },
                  {
                    "Comment": "seamonkey-devel is signed with Red Hat master key"
                  }
                ]
              },
              {
                "Operator": "AND",
                "Criterias": [

                ],
                "Criterions": [
                  {
                    "Comment": "seamonkey-dom-inspector is earlier than 0:1.0.9-75.el4"
                  },
                  {
                    "Comment": "seamonkey-dom-inspector is signed with Red Hat master key"
                  }
                ]
              },
              {
                "Operator": "AND",
                "Criterias": [

                ],
                "Criterions": [
                  {
                    "Comment": "seamonkey-js-debugger is earlier than 0:1.0.9-75.el4"
                  },
                  {
                    "Comment": "seamonkey-js-debugger is signed with Red Hat master key"
                  }
                ]
              },
              {
                "Operator": "AND",
                "Criterias": [

                ],
                "Criterions": [
                  {
                    "Comment": "seamonkey-mail is earlier than 0:1.0.9-75.el4"
                  },
                  {
                    "Comment": "seamonkey-mail is signed with Red Hat master key"
                  }
                ]
              }
            ],
            "Criterions": [

            ]
          }
        ],
        "Criterions": [
          {
            "Comment": "Oracle Linux 4 is installed"
          }
        ]
      }
    ],
    "Criterions": [
      {
        "Comment": "Oracle Linux 4 is installed"
      }
    ]
  },
  "Severity": "Important",
  "Cves": [

  ],
  "Issued": {
    "Date": "2011-09-06"
  }
}