{
  "Title": "RHSA-2011:1159: java-1.4.2-ibm security update (Critical)",
  "Description": "The IBM 1.4.2 SR13-FP10 Java release includes the IBM Java 2 Runtime\nEnvironment and the IBM Java 2 Software Development Kit.\nThis update fixes several vulnerabilities in the IBM Java 2 Runtime\nEnvironment and the IBM Java 2 Software Development Kit. Detailed\nvulnerability descriptions are linked from the IBM \"Security alerts\" page,\nlisted in the References section. (CVE-2011-0311, CVE-2011-0802,\nCVE-2011-0814, CVE-2011-0862, CVE-2011-0865, CVE-2011-0867, CVE-2011-0871)\nNote: The RHSA-2011:0490 java-1.4.2-ibm update did not, unlike the erratum\ntext stated, provide a complete fix for the CVE-2011-0311 issue.\nAll users of java-1.4.2-ibm are advised to upgrade to these updated\npackages, which contain the IBM 1.4.2 SR13-FP10 Java release. All running\ninstances of IBM Java must be restarted for this update to take effect.",
  "Platform": [
    "Supplementary for Red Hat Enterprise Linux 5"
  ],
  "References": [
    {
      "Source": "RHSA",
      "URI": "https://rhn.redhat.com/errata/RHSA-2011-1159.html",
      "ID": "RHSA-2011:1159-01"
    },
    {
      "Source": "CVE",
      "URI": "https://access.redhat.com/security/cve/CVE-2011-0311",
      "ID": "CVE-2011-0311"
    },
    {
      "Source": "CVE",
      "URI": "https://access.redhat.com/security/cve/CVE-2011-0802",
      "ID": "CVE-2011-0802"
    },
    {
      "Source": "CVE",
      "URI": "https://access.redhat.com/security/cve/CVE-2011-0814",
      "ID": "CVE-2011-0814"
    },
    {
      "Source": "CVE",
      "URI": "https://access.redhat.com/security/cve/CVE-2011-0862",
      "ID": "CVE-2011-0862"
    },
    {
      "Source": "CVE",
      "URI": "https://access.redhat.com/security/cve/CVE-2011-0865",
      "ID": "CVE-2011-0865"
    },
    {
      "Source": "CVE",
      "URI": "https://access.redhat.com/security/cve/CVE-2011-0867",
      "ID": "CVE-2011-0867"
    },
    {
      "Source": "CVE",
      "URI": "https://access.redhat.com/security/cve/CVE-2011-0871",
      "ID": "CVE-2011-0871"
    },
    {
      "Source": "CVE",
      "URI": "https://access.redhat.com/security/cve/CVE-2011-3387",
      "ID": "CVE-2011-3387"
    }
  ],
  "Criteria": {
    "Operator": "AND",
    "Criterias": [
      {
        "Operator": "OR",
        "Criterias": [
          {
            "Operator": "AND",
            "Criterias": [

            ],
            "Criterions": [
              {
                "Comment": "java-1.4.2-ibm is earlier than 0:1.4.2.13.10-1jpp.1.el5"
              },
              {
                "Comment": "java-1.4.2-ibm is signed with Red Hat redhatrelease key"
              }
            ]
          },
          {
            "Operator": "AND",
            "Criterias": [

            ],
            "Criterions": [
              {
                "Comment": "java-1.4.2-ibm-demo is earlier than 0:1.4.2.13.10-1jpp.1.el5"
              },
              {
                "Comment": "java-1.4.2-ibm-demo is signed with Red Hat redhatrelease key"
              }
            ]
          },
          {
            "Operator": "AND",
            "Criterias": [

            ],
            "Criterions": [
              {
                "Comment": "java-1.4.2-ibm-devel is earlier than 0:1.4.2.13.10-1jpp.1.el5"
              },
              {
                "Comment": "java-1.4.2-ibm-devel is signed with Red Hat redhatrelease key"
              }
            ]
          },
          {
            "Operator": "AND",
            "Criterias": [

            ],
            "Criterions": [
              {
                "Comment": "java-1.4.2-ibm-javacomm is earlier than 0:1.4.2.13.10-1jpp.1.el5"
              },
              {
                "Comment": "java-1.4.2-ibm-javacomm is signed with Red Hat redhatrelease key"
              }
            ]
          },
          {
            "Operator": "AND",
            "Criterias": [

            ],
            "Criterions": [
              {
                "Comment": "java-1.4.2-ibm-jdbc is earlier than 0:1.4.2.13.10-1jpp.1.el5"
              },
              {
                "Comment": "java-1.4.2-ibm-jdbc is signed with Red Hat redhatrelease key"
              }
            ]
          },
          {
            "Operator": "AND",
            "Criterias": [

            ],
            "Criterions": [
              {
                "Comment": "java-1.4.2-ibm-plugin is earlier than 0:1.4.2.13.10-1jpp.1.el5"
              },
              {
                "Comment": "java-1.4.2-ibm-plugin is signed with Red Hat redhatrelease key"
              }
            ]
          },
          {
            "Operator": "AND",
            "Criterias": [

            ],
            "Criterions": [
              {
                "Comment": "java-1.4.2-ibm-src is earlier than 0:1.4.2.13.10-1jpp.1.el5"
              },
              {
                "Comment": "java-1.4.2-ibm-src is signed with Red Hat redhatrelease key"
              }
            ]
          }
        ],
        "Criterions": [

        ]
      }
    ],
    "Criterions": [
      {
        "Comment": "Oracle Linux 5 is installed"
      }
    ]
  },
  "Severity": "Critical",
  "Cves": [
    {
      "Impact": "",
      "Href": "",
      "ID": "CVE-2011-0311"
    },
    {
      "Impact": "",
      "Href": "",
      "ID": "CVE-2011-0802"
    },
    {
      "Impact": "",
      "Href": "",
      "ID": "CVE-2011-0814"
    },
    {
      "Impact": "",
      "Href": "",
      "ID": "CVE-2011-0862"
    },
    {
      "Impact": "",
      "Href": "",
      "ID": "CVE-2011-0865"
    },
    {
      "Impact": "",
      "Href": "",
      "ID": "CVE-2011-0867"
    },
    {
      "Impact": "",
      "Href": "",
      "ID": "CVE-2011-0871"
    },
    {
      "Impact": "",
      "Href": "",
      "ID": "CVE-2011-3387"
    }
  ],
  "Issued": {
    "Date": "2011-08-15"
  }
}