{
  "Title": "RHSA-2011:1144: flash-plugin security update (Critical)",
  "Description": "The flash-plugin package contains a Mozilla Firefox compatible Adobe Flash\nPlayer web browser plug-in.\nThis update fixes multiple vulnerabilities in Adobe Flash Player. These\nvulnerabilities are detailed on the Adobe security page APSB11-21, listed\nin the References section.\nMultiple security flaws were found in the way flash-plugin displayed\ncertain SWF content. An attacker could use these flaws to create a\nspecially-crafted SWF file that would cause flash-plugin to crash or,\npotentially, execute arbitrary code when the victim loaded a page\ncontaining the specially-crafted SWF content. (CVE-2011-2130,\nCVE-2011-2134, CVE-2011-2135, CVE-2011-2136, CVE-2011-2137, CVE-2011-2138,\nCVE-2011-2139, CVE-2011-2140, CVE-2011-2414, CVE-2011-2415, CVE-2011-2416,\nCVE-2011-2417, CVE-2011-2425)\nAll users of Adobe Flash Player should install this updated package, which\nupgrades Flash Player to version 10.3.183.5.",
  "Platform": [
    "Supplementary for Red Hat Enterprise Linux 5",
    "Supplementary for Red Hat Enterprise Linux 6"
  ],
  "References": [
    {
      "Source": "RHSA",
      "URI": "https://rhn.redhat.com/errata/RHSA-2011-1144.html",
      "ID": "RHSA-2011:1144-01"
    },
    {
      "Source": "CVE",
      "URI": "https://www.redhat.com/security/data/cve/CVE-2011-2130.html",
      "ID": "CVE-2011-2130"
    },
    {
      "Source": "CVE",
      "URI": "https://www.redhat.com/security/data/cve/CVE-2011-2134.html",
      "ID": "CVE-2011-2134"
    },
    {
      "Source": "CVE",
      "URI": "https://www.redhat.com/security/data/cve/CVE-2011-2135.html",
      "ID": "CVE-2011-2135"
    },
    {
      "Source": "CVE",
      "URI": "https://www.redhat.com/security/data/cve/CVE-2011-2136.html",
      "ID": "CVE-2011-2136"
    },
    {
      "Source": "CVE",
      "URI": "https://www.redhat.com/security/data/cve/CVE-2011-2137.html",
      "ID": "CVE-2011-2137"
    },
    {
      "Source": "CVE",
      "URI": "https://www.redhat.com/security/data/cve/CVE-2011-2138.html",
      "ID": "CVE-2011-2138"
    },
    {
      "Source": "CVE",
      "URI": "https://www.redhat.com/security/data/cve/CVE-2011-2139.html",
      "ID": "CVE-2011-2139"
    },
    {
      "Source": "CVE",
      "URI": "https://www.redhat.com/security/data/cve/CVE-2011-2140.html",
      "ID": "CVE-2011-2140"
    },
    {
      "Source": "CVE",
      "URI": "https://www.redhat.com/security/data/cve/CVE-2011-2414.html",
      "ID": "CVE-2011-2414"
    },
    {
      "Source": "CVE",
      "URI": "https://www.redhat.com/security/data/cve/CVE-2011-2415.html",
      "ID": "CVE-2011-2415"
    },
    {
      "Source": "CVE",
      "URI": "https://www.redhat.com/security/data/cve/CVE-2011-2416.html",
      "ID": "CVE-2011-2416"
    },
    {
      "Source": "CVE",
      "URI": "https://www.redhat.com/security/data/cve/CVE-2011-2417.html",
      "ID": "CVE-2011-2417"
    },
    {
      "Source": "CVE",
      "URI": "https://www.redhat.com/security/data/cve/CVE-2011-2424.html",
      "ID": "CVE-2011-2424"
    },
    {
      "Source": "CVE",
      "URI": "https://www.redhat.com/security/data/cve/CVE-2011-2425.html",
      "ID": "CVE-2011-2425"
    }
  ],
  "Criteria": {
    "Operator": "OR",
    "Criterias": [
      {
        "Operator": "AND",
        "Criterias": [

        ],
        "Criterions": [
          {
            "Comment": "Oracle Linux 5 is installed"
          },
          {
            "Comment": "flash-plugin is earlier than 0:10.3.183.5-1.el5"
          },
          {
            "Comment": "flash-plugin is signed with Red Hat redhatrelease key"
          }
        ]
      },
      {
        "Operator": "AND",
        "Criterias": [
          {
            "Operator": "OR",
            "Criterias": [

            ],
            "Criterions": [
              {
                "Comment": "Oracle Linux 6 Client is installed"
              },
              {
                "Comment": "Oracle Linux 6 Server is installed"
              },
              {
                "Comment": "Oracle Linux 6 Workstation is installed"
              },
              {
                "Comment": "Oracle Linux 6 ComputeNode is installed"
              }
            ]
          }
        ],
        "Criterions": [
          {
            "Comment": "flash-plugin is earlier than 0:10.3.183.5-1.el6"
          },
          {
            "Comment": "flash-plugin is signed with Red Hat redhatrelease2 key"
          }
        ]
      }
    ],
    "Criterions": [

    ]
  },
  "Severity": "Critical",
  "Cves": [
    {
      "Impact": "",
      "Href": "",
      "ID": "CVE-2011-2130"
    },
    {
      "Impact": "",
      "Href": "",
      "ID": "CVE-2011-2134"
    },
    {
      "Impact": "",
      "Href": "",
      "ID": "CVE-2011-2135"
    },
    {
      "Impact": "",
      "Href": "",
      "ID": "CVE-2011-2136"
    },
    {
      "Impact": "",
      "Href": "",
      "ID": "CVE-2011-2137"
    },
    {
      "Impact": "",
      "Href": "",
      "ID": "CVE-2011-2138"
    },
    {
      "Impact": "",
      "Href": "",
      "ID": "CVE-2011-2139"
    },
    {
      "Impact": "",
      "Href": "",
      "ID": "CVE-2011-2140"
    },
    {
      "Impact": "",
      "Href": "",
      "ID": "CVE-2011-2414"
    },
    {
      "Impact": "",
      "Href": "",
      "ID": "CVE-2011-2415"
    },
    {
      "Impact": "",
      "Href": "",
      "ID": "CVE-2011-2416"
    },
    {
      "Impact": "",
      "Href": "",
      "ID": "CVE-2011-2417"
    },
    {
      "Impact": "",
      "Href": "",
      "ID": "CVE-2011-2424"
    },
    {
      "Impact": "",
      "Href": "",
      "ID": "CVE-2011-2425"
    }
  ],
  "Issued": {
    "Date": "2011-08-10"
  }
}