{
  "Title": "RHSA-2011:1100: icedtea-web security update (Moderate)",
  "Description": "The IcedTea-Web project provides a Java web browser plug-in and an\nimplementation of Java Web Start, which is based on the Netx project. It\nalso contains a configuration tool for managing deployment settings for the\nplug-in and Web Start implementations.\nA flaw was discovered in the JNLP (Java Network Launching Protocol)\nimplementation in IcedTea-Web. An unsigned Java Web Start application\ncould use this flaw to manipulate the content of a Security Warning\ndialog box, to trick a user into granting the application unintended access\npermissions to local files. (CVE-2011-2514)\nAn information disclosure flaw was discovered in the JNLP implementation in\nIcedTea-Web. An unsigned Java Web Start application or Java applet could\nuse this flaw to determine the path to the cache directory used to store\ndownloaded Java class and archive files, and therefore determine the user's\nlogin name. (CVE-2011-2513)\nAll icedtea-web users should upgrade to these updated packages, which\ncontain backported patches to correct these issues.",
  "Platform": [
    "Red Hat Enterprise Linux 6"
  ],
  "References": [
    {
      "Source": "RHSA",
      "URI": "https://access.redhat.com/errata/RHSA-2011:1100",
      "ID": "RHSA-2011:1100"
    },
    {
      "Source": "CVE",
      "URI": "https://access.redhat.com/security/cve/CVE-2011-2513",
      "ID": "CVE-2011-2513"
    },
    {
      "Source": "CVE",
      "URI": "https://access.redhat.com/security/cve/CVE-2011-2514",
      "ID": "CVE-2011-2514"
    }
  ],
  "Criteria": {
    "Operator": "OR",
    "Criterias": [
      {
        "Operator": "AND",
        "Criterias": [
          {
            "Operator": "OR",
            "Criterias": [
              {
                "Operator": "AND",
                "Criterias": [

                ],
                "Criterions": [
                  {
                    "Comment": "icedtea-web is earlier than 0:1.0.4-2.el6_1"
                  },
                  {
                    "Comment": "icedtea-web is signed with Red Hat redhatrelease2 key"
                  }
                ]
              },
              {
                "Operator": "AND",
                "Criterias": [

                ],
                "Criterions": [
                  {
                    "Comment": "icedtea-web-javadoc is earlier than 0:1.0.4-2.el6_1"
                  },
                  {
                    "Comment": "icedtea-web-javadoc is signed with Red Hat redhatrelease2 key"
                  }
                ]
              }
            ],
            "Criterions": [

            ]
          }
        ],
        "Criterions": [
          {
            "Comment": "Oracle Linux 6 is installed"
          }
        ]
      }
    ],
    "Criterions": [
      {
        "Comment": "Oracle Linux 6 is installed"
      }
    ]
  },
  "Severity": "Moderate",
  "Cves": [
    {
      "Impact": "",
      "Href": "",
      "ID": "CVE-2011-2513"
    },
    {
      "Impact": "",
      "Href": "",
      "ID": "CVE-2011-2514"
    }
  ],
  "Issued": {
    "Date": "2011-07-27"
  }
}