{
  "Title": "RHSA-2011:1801: qemu-kvm security update (Important)",
  "Description": "KVM (Kernel-based Virtual Machine) is a full virtualization solution for\nLinux on AMD64 and Intel 64 systems. qemu-kvm is the user-space component\nfor running virtual machines using KVM.\nA flaw was found in the way qemu-kvm handled VSC_ATR messages when a guest\nwas configured for a CCID (Chip/Smart Card Interface Devices) USB smart\ncard reader in passthrough mode. An attacker able to connect to the port on\nthe host being used for such a device could use this flaw to crash the\nqemu-kvm process on the host or, possibly, escalate their privileges on the\nhost. (CVE-2011-4111)\nAll users of qemu-kvm should upgrade to these updated packages, which\ncontain a backported patch to resolve this issue. After installing this\nupdate, shut down all running virtual machines. Once all virtual machines\nhave shut down, start them again for this update to take effect.",
  "Platform": [
    "Red Hat Enterprise Linux 6"
  ],
  "References": [
    {
      "Source": "RHSA",
      "URI": "https://access.redhat.com/errata/RHSA-2011:1801",
      "ID": "RHSA-2011:1801"
    },
    {
      "Source": "CVE",
      "URI": "https://access.redhat.com/security/cve/CVE-2011-4111",
      "ID": "CVE-2011-4111"
    }
  ],
  "Criteria": {
    "Operator": "OR",
    "Criterias": [
      {
        "Operator": "AND",
        "Criterias": [
          {
            "Operator": "OR",
            "Criterias": [
              {
                "Operator": "AND",
                "Criterias": [

                ],
                "Criterions": [
                  {
                    "Comment": "qemu-img is earlier than 2:0.12.1.2-2.160.el6_1.9"
                  },
                  {
                    "Comment": "qemu-img is signed with Red Hat redhatrelease2 key"
                  }
                ]
              },
              {
                "Operator": "AND",
                "Criterias": [

                ],
                "Criterions": [
                  {
                    "Comment": "qemu-kvm is earlier than 2:0.12.1.2-2.160.el6_1.9"
                  },
                  {
                    "Comment": "qemu-kvm is signed with Red Hat redhatrelease2 key"
                  }
                ]
              },
              {
                "Operator": "AND",
                "Criterias": [

                ],
                "Criterions": [
                  {
                    "Comment": "qemu-kvm-tools is earlier than 2:0.12.1.2-2.160.el6_1.9"
                  },
                  {
                    "Comment": "qemu-kvm-tools is signed with Red Hat redhatrelease2 key"
                  }
                ]
              }
            ],
            "Criterions": [

            ]
          }
        ],
        "Criterions": [
          {
            "Comment": "Oracle Linux 6 is installed"
          }
        ]
      }
    ],
    "Criterions": [
      {
        "Comment": "Oracle Linux 6 is installed"
      }
    ]
  },
  "Severity": "Important",
  "Cves": [
    {
      "Impact": "",
      "Href": "",
      "ID": "CVE-2011-4111"
    }
  ],
  "Issued": {
    "Date": "2011-12-08"
  }
}