{
  "Title": "RHSA-2011:1244: seamonkey security update (Important)",
  "Description": "SeaMonkey is an open source web browser, email and newsgroup client, IRC\nchat client, and HTML editor.\nIt was found that a Certificate Authority (CA) issued a fraudulent HTTPS\ncertificate. This update renders any HTTPS certificates signed by that\nCA as untrusted, except for a select few. The now untrusted certificates\nthat were issued before July 1, 2011 can be manually re-enabled and used\nagain at your own risk in SeaMonkey; however, affected certificates issued\nafter this date cannot be re-enabled or used. (BZ#734316)\nAll SeaMonkey users should upgrade to these updated packages, which correct\nthis issue. After installing the update, SeaMonkey must be restarted for\nthe changes to take effect.",
  "Platform": [
    "Red Hat Enterprise Linux 4"
  ],
  "References": [
    {
      "Source": "RHSA",
      "URI": "https://access.redhat.com/errata/RHSA-2011:1244",
      "ID": "RHSA-2011:1244"
    }
  ],
  "Criteria": {
    "Operator": "OR",
    "Criterias": [
      {
        "Operator": "AND",
        "Criterias": [
          {
            "Operator": "OR",
            "Criterias": [
              {
                "Operator": "AND",
                "Criterias": [

                ],
                "Criterions": [
                  {
                    "Comment": "seamonkey is earlier than 0:1.0.9-74.el4"
                  },
                  {
                    "Comment": "seamonkey is signed with Red Hat master key"
                  }
                ]
              },
              {
                "Operator": "AND",
                "Criterias": [

                ],
                "Criterions": [
                  {
                    "Comment": "seamonkey-chat is earlier than 0:1.0.9-74.el4"
                  },
                  {
                    "Comment": "seamonkey-chat is signed with Red Hat master key"
                  }
                ]
              },
              {
                "Operator": "AND",
                "Criterias": [

                ],
                "Criterions": [
                  {
                    "Comment": "seamonkey-devel is earlier than 0:1.0.9-74.el4"
                  },
                  {
                    "Comment": "seamonkey-devel is signed with Red Hat master key"
                  }
                ]
              },
              {
                "Operator": "AND",
                "Criterias": [

                ],
                "Criterions": [
                  {
                    "Comment": "seamonkey-dom-inspector is earlier than 0:1.0.9-74.el4"
                  },
                  {
                    "Comment": "seamonkey-dom-inspector is signed with Red Hat master key"
                  }
                ]
              },
              {
                "Operator": "AND",
                "Criterias": [

                ],
                "Criterions": [
                  {
                    "Comment": "seamonkey-js-debugger is earlier than 0:1.0.9-74.el4"
                  },
                  {
                    "Comment": "seamonkey-js-debugger is signed with Red Hat master key"
                  }
                ]
              },
              {
                "Operator": "AND",
                "Criterias": [

                ],
                "Criterions": [
                  {
                    "Comment": "seamonkey-mail is earlier than 0:1.0.9-74.el4"
                  },
                  {
                    "Comment": "seamonkey-mail is signed with Red Hat master key"
                  }
                ]
              }
            ],
            "Criterions": [

            ]
          }
        ],
        "Criterions": [
          {
            "Comment": "Oracle Linux 4 is installed"
          }
        ]
      }
    ],
    "Criterions": [
      {
        "Comment": "Oracle Linux 4 is installed"
      }
    ]
  },
  "Severity": "Important",
  "Cves": [

  ],
  "Issued": {
    "Date": "2011-08-31"
  }
}