{
  "Title": "RHSA-2011:0600: dovecot security and enhancement update (Moderate)",
  "Description": "Dovecot is an IMAP server for Linux, UNIX, and similar operating systems,\nprimarily written with security in mind.\nA flaw was found in the way Dovecot handled SIGCHLD signals. If a large\namount of IMAP or POP3 session disconnects caused the Dovecot master\nprocess to receive these signals rapidly, it could cause the master process\nto crash. (CVE-2010-3780)\nA flaw was found in the way Dovecot processed multiple Access Control Lists\n(ACL) defined for a mailbox. In some cases, Dovecot could fail to apply the\nmore specific ACL entry, possibly resulting in more access being granted to\nthe user than intended. (CVE-2010-3707)\nThis update also adds the following enhancement:\n* This erratum upgrades Dovecot to upstream version 2.0.9, providing\nmultiple fixes for the \"dsync\" utility and improving overall performance.\nRefer to the \"/usr/share/doc/dovecot-2.0.9/ChangeLog\" file after installing\nthis update for further information about the changes. (BZ#637056)\nUsers of dovecot are advised to upgrade to these updated packages, which\nresolve these issues and add this enhancement. After installing the updated\npackages, the dovecot service will be restarted automatically.",
  "Platform": [
    "Red Hat Enterprise Linux 6"
  ],
  "References": [
    {
      "Source": "RHSA",
      "URI": "https://access.redhat.com/errata/RHSA-2011:0600",
      "ID": "RHSA-2011:0600"
    },
    {
      "Source": "CVE",
      "URI": "https://access.redhat.com/security/cve/CVE-2010-3707",
      "ID": "CVE-2010-3707"
    },
    {
      "Source": "CVE",
      "URI": "https://access.redhat.com/security/cve/CVE-2010-3780",
      "ID": "CVE-2010-3780"
    }
  ],
  "Criteria": {
    "Operator": "OR",
    "Criterias": [
      {
        "Operator": "AND",
        "Criterias": [
          {
            "Operator": "OR",
            "Criterias": [
              {
                "Operator": "AND",
                "Criterias": [

                ],
                "Criterions": [
                  {
                    "Comment": "dovecot is earlier than 1:2.0.9-2.el6"
                  },
                  {
                    "Comment": "dovecot is signed with Red Hat redhatrelease2 key"
                  }
                ]
              },
              {
                "Operator": "AND",
                "Criterias": [

                ],
                "Criterions": [
                  {
                    "Comment": "dovecot-devel is earlier than 1:2.0.9-2.el6"
                  },
                  {
                    "Comment": "dovecot-devel is signed with Red Hat redhatrelease2 key"
                  }
                ]
              },
              {
                "Operator": "AND",
                "Criterias": [

                ],
                "Criterions": [
                  {
                    "Comment": "dovecot-mysql is earlier than 1:2.0.9-2.el6"
                  },
                  {
                    "Comment": "dovecot-mysql is signed with Red Hat redhatrelease2 key"
                  }
                ]
              },
              {
                "Operator": "AND",
                "Criterias": [

                ],
                "Criterions": [
                  {
                    "Comment": "dovecot-pgsql is earlier than 1:2.0.9-2.el6"
                  },
                  {
                    "Comment": "dovecot-pgsql is signed with Red Hat redhatrelease2 key"
                  }
                ]
              },
              {
                "Operator": "AND",
                "Criterias": [

                ],
                "Criterions": [
                  {
                    "Comment": "dovecot-pigeonhole is earlier than 1:2.0.9-2.el6"
                  },
                  {
                    "Comment": "dovecot-pigeonhole is signed with Red Hat redhatrelease2 key"
                  }
                ]
              }
            ],
            "Criterions": [

            ]
          }
        ],
        "Criterions": [
          {
            "Comment": "Oracle Linux 6 is installed"
          }
        ]
      }
    ],
    "Criterions": [
      {
        "Comment": "Oracle Linux 6 is installed"
      }
    ]
  },
  "Severity": "Moderate",
  "Cves": [
    {
      "Impact": "",
      "Href": "",
      "ID": "CVE-2010-3707"
    },
    {
      "Impact": "",
      "Href": "",
      "ID": "CVE-2010-3780"
    }
  ],
  "Issued": {
    "Date": "2011-05-19"
  }
}