{
  "Title": "RHSA-2011:0328: subversion security update (Moderate)",
  "Description": "Subversion (SVN) is a concurrent version control system which enables one\nor more users to collaborate in developing and maintaining a hierarchy of\nfiles and directories while keeping a history of all changes. The\nmod_dav_svn module is used with the Apache HTTP Server to allow access to\nSubversion repositories via HTTP.\nA NULL pointer dereference flaw was found in the way the mod_dav_svn module\nprocessed certain requests to lock working copy paths in a repository. A\nremote attacker could issue a lock request that could cause the httpd\nprocess serving the request to crash. (CVE-2011-0715)\nRed Hat would like to thank Hyrum Wright of the Apache Subversion project\nfor reporting this issue. Upstream acknowledges Philip Martin, WANdisco,\nInc. as the original reporter.\nAll Subversion users should upgrade to these updated packages, which\ncontain a backported patch to correct this issue. After installing the\nupdated packages, you must restart the httpd daemon, if you are using\nmod_dav_svn, for the update to take effect.",
  "Platform": [
    "Red Hat Enterprise Linux 6"
  ],
  "References": [
    {
      "Source": "RHSA",
      "URI": "https://access.redhat.com/errata/RHSA-2011:0328",
      "ID": "RHSA-2011:0328"
    },
    {
      "Source": "CVE",
      "URI": "https://access.redhat.com/security/cve/CVE-2011-0715",
      "ID": "CVE-2011-0715"
    }
  ],
  "Criteria": {
    "Operator": "OR",
    "Criterias": [
      {
        "Operator": "AND",
        "Criterias": [
          {
            "Operator": "OR",
            "Criterias": [
              {
                "Operator": "AND",
                "Criterias": [

                ],
                "Criterions": [
                  {
                    "Comment": "mod_dav_svn is earlier than 0:1.6.11-2.el6_0.3"
                  },
                  {
                    "Comment": "mod_dav_svn is signed with Red Hat redhatrelease2 key"
                  }
                ]
              },
              {
                "Operator": "AND",
                "Criterias": [

                ],
                "Criterions": [
                  {
                    "Comment": "subversion is earlier than 0:1.6.11-2.el6_0.3"
                  },
                  {
                    "Comment": "subversion is signed with Red Hat redhatrelease2 key"
                  }
                ]
              },
              {
                "Operator": "AND",
                "Criterias": [

                ],
                "Criterions": [
                  {
                    "Comment": "subversion-devel is earlier than 0:1.6.11-2.el6_0.3"
                  },
                  {
                    "Comment": "subversion-devel is signed with Red Hat redhatrelease2 key"
                  }
                ]
              },
              {
                "Operator": "AND",
                "Criterias": [

                ],
                "Criterions": [
                  {
                    "Comment": "subversion-gnome is earlier than 0:1.6.11-2.el6_0.3"
                  },
                  {
                    "Comment": "subversion-gnome is signed with Red Hat redhatrelease2 key"
                  }
                ]
              },
              {
                "Operator": "AND",
                "Criterias": [

                ],
                "Criterions": [
                  {
                    "Comment": "subversion-javahl is earlier than 0:1.6.11-2.el6_0.3"
                  },
                  {
                    "Comment": "subversion-javahl is signed with Red Hat redhatrelease2 key"
                  }
                ]
              },
              {
                "Operator": "AND",
                "Criterias": [

                ],
                "Criterions": [
                  {
                    "Comment": "subversion-kde is earlier than 0:1.6.11-2.el6_0.3"
                  },
                  {
                    "Comment": "subversion-kde is signed with Red Hat redhatrelease2 key"
                  }
                ]
              },
              {
                "Operator": "AND",
                "Criterias": [

                ],
                "Criterions": [
                  {
                    "Comment": "subversion-perl is earlier than 0:1.6.11-2.el6_0.3"
                  },
                  {
                    "Comment": "subversion-perl is signed with Red Hat redhatrelease2 key"
                  }
                ]
              },
              {
                "Operator": "AND",
                "Criterias": [

                ],
                "Criterions": [
                  {
                    "Comment": "subversion-ruby is earlier than 0:1.6.11-2.el6_0.3"
                  },
                  {
                    "Comment": "subversion-ruby is signed with Red Hat redhatrelease2 key"
                  }
                ]
              },
              {
                "Operator": "AND",
                "Criterias": [

                ],
                "Criterions": [
                  {
                    "Comment": "subversion-svn2cl is earlier than 0:1.6.11-2.el6_0.3"
                  },
                  {
                    "Comment": "subversion-svn2cl is signed with Red Hat redhatrelease2 key"
                  }
                ]
              }
            ],
            "Criterions": [

            ]
          }
        ],
        "Criterions": [
          {
            "Comment": "Oracle Linux 6 is installed"
          }
        ]
      }
    ],
    "Criterions": [
      {
        "Comment": "Oracle Linux 6 is installed"
      }
    ]
  },
  "Severity": "Moderate",
  "Cves": [
    {
      "Impact": "",
      "Href": "",
      "ID": "CVE-2011-0715"
    }
  ],
  "Issued": {
    "Date": "2011-03-08"
  }
}