{
  "Title": "RHSA-2011:1187: dovecot security update (Moderate)",
  "Description": "Dovecot is an IMAP server for Linux, UNIX, and similar operating systems,\nprimarily written with security in mind.\nA denial of service flaw was found in the way Dovecot handled NULL\ncharacters in certain header names. A mail message with specially-crafted\nheaders could cause the Dovecot child process handling the target user's\nconnection to crash, blocking them from downloading the message\nsuccessfully and possibly leading to the corruption of their mailbox.\n(CVE-2011-1929)\nUsers of dovecot are advised to upgrade to these updated packages, which\ncontain a backported patch to resolve this issue. After installing the\nupdated packages, the dovecot service will be restarted automatically.",
  "Platform": [
    "Red Hat Enterprise Linux 4",
    "Red Hat Enterprise Linux 5",
    "Red Hat Enterprise Linux 6"
  ],
  "References": [
    {
      "Source": "RHSA",
      "URI": "https://access.redhat.com/errata/RHSA-2011:1187",
      "ID": "RHSA-2011:1187"
    },
    {
      "Source": "CVE",
      "URI": "https://access.redhat.com/security/cve/CVE-2011-1929",
      "ID": "CVE-2011-1929"
    }
  ],
  "Criteria": {
    "Operator": "OR",
    "Criterias": [
      {
        "Operator": "AND",
        "Criterias": [

        ],
        "Criterions": [
          {
            "Comment": "Oracle Linux 4 is installed"
          },
          {
            "Comment": "dovecot is earlier than 0:0.99.11-10.EL4"
          },
          {
            "Comment": "dovecot is signed with Red Hat redhatrelease2 key"
          }
        ]
      },
      {
        "Operator": "AND",
        "Criterias": [
          {
            "Operator": "OR",
            "Criterias": [
              {
                "Operator": "AND",
                "Criterias": [

                ],
                "Criterions": [
                  {
                    "Comment": "dovecot is earlier than 1:2.0.9-2.el6_1.1"
                  },
                  {
                    "Comment": "dovecot is signed with Red Hat redhatrelease2 key"
                  }
                ]
              },
              {
                "Operator": "AND",
                "Criterias": [

                ],
                "Criterions": [
                  {
                    "Comment": "dovecot-devel is earlier than 1:2.0.9-2.el6_1.1"
                  },
                  {
                    "Comment": "dovecot-devel is signed with Red Hat redhatrelease2 key"
                  }
                ]
              },
              {
                "Operator": "AND",
                "Criterias": [

                ],
                "Criterions": [
                  {
                    "Comment": "dovecot-mysql is earlier than 1:2.0.9-2.el6_1.1"
                  },
                  {
                    "Comment": "dovecot-mysql is signed with Red Hat redhatrelease2 key"
                  }
                ]
              },
              {
                "Operator": "AND",
                "Criterias": [

                ],
                "Criterions": [
                  {
                    "Comment": "dovecot-pgsql is earlier than 1:2.0.9-2.el6_1.1"
                  },
                  {
                    "Comment": "dovecot-pgsql is signed with Red Hat redhatrelease2 key"
                  }
                ]
              },
              {
                "Operator": "AND",
                "Criterias": [

                ],
                "Criterions": [
                  {
                    "Comment": "dovecot-pigeonhole is earlier than 1:2.0.9-2.el6_1.1"
                  },
                  {
                    "Comment": "dovecot-pigeonhole is signed with Red Hat redhatrelease2 key"
                  }
                ]
              }
            ],
            "Criterions": [

            ]
          }
        ],
        "Criterions": [
          {
            "Comment": "Oracle Linux 6 is installed"
          }
        ]
      },
      {
        "Operator": "AND",
        "Criterias": [

        ],
        "Criterions": [
          {
            "Comment": "Oracle Linux 5 is installed"
          },
          {
            "Comment": "dovecot is earlier than 0:1.0.7-7.el5_7.1"
          },
          {
            "Comment": "dovecot is signed with Red Hat redhatrelease2 key"
          }
        ]
      }
    ],
    "Criterions": [
      {
        "Comment": "Oracle Linux 4 is installed"
      }
    ]
  },
  "Severity": "Moderate",
  "Cves": [
    {
      "Impact": "",
      "Href": "",
      "ID": "CVE-2011-1929"
    }
  ],
  "Issued": {
    "Date": "2011-08-18"
  }
}