{
  "Title": "RHSA-2011:1109: foomatic security update (Moderate)",
  "Description": "Foomatic is a comprehensive, spooler-independent database of printers,\nprinter drivers, and driver descriptions. The package also includes\nspooler-independent command line interfaces to manipulate queues and to\nprint files and manipulate print jobs. foomatic-rip is a print filter\nwritten in Perl.\nAn input sanitization flaw was found in the foomatic-rip print filter. An\nattacker could submit a print job with the username, title, or job options\nset to appear as a command line option that caused the filter to use a\nspecified PostScript printer description (PPD) file, rather than the\nadministrator-set one. This could lead to arbitrary code execution with the\nprivileges of the \"lp\" user. (CVE-2011-2697)\nAll foomatic users should upgrade to this updated package, which contains\na backported patch to resolve this issue.",
  "Platform": [
    "Red Hat Enterprise Linux 4",
    "Red Hat Enterprise Linux 5"
  ],
  "References": [
    {
      "Source": "RHSA",
      "URI": "https://access.redhat.com/errata/RHSA-2011:1109",
      "ID": "RHSA-2011:1109"
    },
    {
      "Source": "CVE",
      "URI": "https://access.redhat.com/security/cve/CVE-2011-2697",
      "ID": "CVE-2011-2697"
    }
  ],
  "Criteria": {
    "Operator": "OR",
    "Criterias": [
      {
        "Operator": "AND",
        "Criterias": [

        ],
        "Criterions": [
          {
            "Comment": "Oracle Linux 4 is installed"
          },
          {
            "Comment": "foomatic is earlier than 0:3.0.2-3.2.el4"
          },
          {
            "Comment": "foomatic is signed with Red Hat redhatrelease2 key"
          }
        ]
      },
      {
        "Operator": "AND",
        "Criterias": [

        ],
        "Criterions": [
          {
            "Comment": "Oracle Linux 5 is installed"
          },
          {
            "Comment": "foomatic is earlier than 0:3.0.2-38.3.el5_7.1"
          },
          {
            "Comment": "foomatic is signed with Red Hat redhatrelease2 key"
          }
        ]
      }
    ],
    "Criterions": [
      {
        "Comment": "Oracle Linux 4 is installed"
      }
    ]
  },
  "Severity": "Moderate",
  "Cves": [
    {
      "Impact": "",
      "Href": "",
      "ID": "CVE-2011-2697"
    }
  ],
  "Issued": {
    "Date": "2011-08-01"
  }
}