{
  "Title": "RHSA-2011:0599: sudo security and bug fix update (Low)",
  "Description": "The sudo (superuser do) utility allows system administrators to give\ncertain users the ability to run commands as root.\nA flaw was found in the sudo password checking logic. In configurations\nwhere the sudoers settings allowed a user to run a command using sudo with\nonly the group ID changed, sudo failed to prompt for the user's password\nbefore running the specified command with the elevated group privileges.\n(CVE-2011-0010)\nThis update also fixes the following bugs:\n* When the \"/etc/sudoers\" file contained entries with multiple hosts,\nrunning the \"sudo -l\" command incorrectly reported that a certain user does\nnot have permissions to use sudo on the system. With this update, running\nthe \"sudo -l\" command now produces the correct output. (BZ#603823)\n* Prior to this update, the manual page for sudoers.ldap was not installed,\neven though it contains important information on how to set up an LDAP\n(Lightweight Directory Access Protocol) sudoers source, and other documents\nrefer to it. With this update, the manual page is now properly included in\nthe package. Additionally, various POD files have been removed from the\npackage, as they are required for build purposes only. (BZ#634159)\n* The previous version of sudo did not use the same location for the LDAP\nconfiguration files as the nss_ldap package. This has been fixed and sudo\nnow looks for these files in the same location as the nss_ldap package.\n(BZ#652726)\n* When a file was edited using the \"sudo -e file\" or the \"sudoedit file\"\ncommand, the editor being executed for this task was logged only as\n\"sudoedit\". With this update, the full path to the executable being used as\nan editor is now logged (instead of \"sudoedit\"). (BZ#665131)\n* A comment regarding the \"visiblepw\" option of the \"Defaults\" directive\nhas been added to the default \"/etc/sudoers\" file to clarify its usage.\n(BZ#688640)\n* This erratum upgrades sudo to upstream version 1.7.4p5, which provides a\nnumber of bug fixes and enhancements over the previous version. (BZ#615087)\nAll users of sudo are advised to upgrade to this updated package, which\nresolves these issues.",
  "Platform": [
    "Red Hat Enterprise Linux 6"
  ],
  "References": [
    {
      "Source": "RHSA",
      "URI": "https://access.redhat.com/errata/RHSA-2011:0599",
      "ID": "RHSA-2011:0599"
    },
    {
      "Source": "CVE",
      "URI": "https://access.redhat.com/security/cve/CVE-2011-0010",
      "ID": "CVE-2011-0010"
    }
  ],
  "Criteria": {
    "Operator": "OR",
    "Criterias": [
      {
        "Operator": "AND",
        "Criterias": [

        ],
        "Criterions": [
          {
            "Comment": "Oracle Linux 6 is installed"
          },
          {
            "Comment": "sudo is earlier than 0:1.7.4p5-5.el6"
          },
          {
            "Comment": "sudo is signed with Red Hat redhatrelease2 key"
          }
        ]
      }
    ],
    "Criterions": [
      {
        "Comment": "Oracle Linux 6 is installed"
      }
    ]
  },
  "Severity": "Low",
  "Cves": [
    {
      "Impact": "",
      "Href": "",
      "ID": "CVE-2011-0010"
    }
  ],
  "Issued": {
    "Date": "2011-05-19"
  }
}