{
  "Title": "RHSA-2011:1155: xorg-x11 security update (Important)",
  "Description": "X.Org is an open source implementation of the X Window System. It provides\nthe basic low-level functionality that full-fledged graphical user\ninterfaces are designed upon. These xorg-x11 packages also provide the\nX.Org libXfont runtime library.\nA buffer overflow flaw was found in the way the libXfont library, used by\nthe X.Org server, handled malformed font files compressed using UNIX\ncompress. A malicious, local user could exploit this issue to potentially\nexecute arbitrary code with the privileges of the X.Org server.\n(CVE-2011-2895)\nUsers of xorg-x11 should upgrade to these updated packages, which contain\na backported patch to resolve this issue. All running X.Org server\ninstances must be restarted for the update to take effect.",
  "Platform": [
    "Red Hat Enterprise Linux 4"
  ],
  "References": [
    {
      "Source": "RHSA",
      "URI": "https://access.redhat.com/errata/RHSA-2011:1155",
      "ID": "RHSA-2011:1155"
    },
    {
      "Source": "CVE",
      "URI": "https://access.redhat.com/security/cve/CVE-2011-2895",
      "ID": "CVE-2011-2895"
    }
  ],
  "Criteria": {
    "Operator": "OR",
    "Criterias": [
      {
        "Operator": "AND",
        "Criterias": [
          {
            "Operator": "OR",
            "Criterias": [
              {
                "Operator": "AND",
                "Criterias": [

                ],
                "Criterions": [
                  {
                    "Comment": "xorg-x11 is earlier than 0:6.8.2-1.EL.69"
                  },
                  {
                    "Comment": "xorg-x11 is signed with Red Hat redhatrelease2 key"
                  }
                ]
              },
              {
                "Operator": "AND",
                "Criterias": [

                ],
                "Criterions": [
                  {
                    "Comment": "xorg-x11-Mesa-libGL is earlier than 0:6.8.2-1.EL.69"
                  },
                  {
                    "Comment": "xorg-x11-Mesa-libGL is signed with Red Hat redhatrelease2 key"
                  }
                ]
              },
              {
                "Operator": "AND",
                "Criterias": [

                ],
                "Criterions": [
                  {
                    "Comment": "xorg-x11-Mesa-libGLU is earlier than 0:6.8.2-1.EL.69"
                  },
                  {
                    "Comment": "xorg-x11-Mesa-libGLU is signed with Red Hat redhatrelease2 key"
                  }
                ]
              },
              {
                "Operator": "AND",
                "Criterias": [

                ],
                "Criterions": [
                  {
                    "Comment": "xorg-x11-Xdmx is earlier than 0:6.8.2-1.EL.69"
                  },
                  {
                    "Comment": "xorg-x11-Xdmx is signed with Red Hat redhatrelease2 key"
                  }
                ]
              },
              {
                "Operator": "AND",
                "Criterias": [

                ],
                "Criterions": [
                  {
                    "Comment": "xorg-x11-Xnest is earlier than 0:6.8.2-1.EL.69"
                  },
                  {
                    "Comment": "xorg-x11-Xnest is signed with Red Hat redhatrelease2 key"
                  }
                ]
              },
              {
                "Operator": "AND",
                "Criterias": [

                ],
                "Criterions": [
                  {
                    "Comment": "xorg-x11-Xvfb is earlier than 0:6.8.2-1.EL.69"
                  },
                  {
                    "Comment": "xorg-x11-Xvfb is signed with Red Hat redhatrelease2 key"
                  }
                ]
              },
              {
                "Operator": "AND",
                "Criterias": [

                ],
                "Criterions": [
                  {
                    "Comment": "xorg-x11-deprecated-libs is earlier than 0:6.8.2-1.EL.69"
                  },
                  {
                    "Comment": "xorg-x11-deprecated-libs is signed with Red Hat redhatrelease2 key"
                  }
                ]
              },
              {
                "Operator": "AND",
                "Criterias": [

                ],
                "Criterions": [
                  {
                    "Comment": "xorg-x11-deprecated-libs-devel is earlier than 0:6.8.2-1.EL.69"
                  },
                  {
                    "Comment": "xorg-x11-deprecated-libs-devel is signed with Red Hat redhatrelease2 key"
                  }
                ]
              },
              {
                "Operator": "AND",
                "Criterias": [

                ],
                "Criterions": [
                  {
                    "Comment": "xorg-x11-devel is earlier than 0:6.8.2-1.EL.69"
                  },
                  {
                    "Comment": "xorg-x11-devel is signed with Red Hat redhatrelease2 key"
                  }
                ]
              },
              {
                "Operator": "AND",
                "Criterias": [

                ],
                "Criterions": [
                  {
                    "Comment": "xorg-x11-doc is earlier than 0:6.8.2-1.EL.69"
                  },
                  {
                    "Comment": "xorg-x11-doc is signed with Red Hat redhatrelease2 key"
                  }
                ]
              },
              {
                "Operator": "AND",
                "Criterias": [

                ],
                "Criterions": [
                  {
                    "Comment": "xorg-x11-font-utils is earlier than 0:6.8.2-1.EL.69"
                  },
                  {
                    "Comment": "xorg-x11-font-utils is signed with Red Hat redhatrelease2 key"
                  }
                ]
              },
              {
                "Operator": "AND",
                "Criterias": [

                ],
                "Criterions": [
                  {
                    "Comment": "xorg-x11-libs is earlier than 0:6.8.2-1.EL.69"
                  },
                  {
                    "Comment": "xorg-x11-libs is signed with Red Hat redhatrelease2 key"
                  }
                ]
              },
              {
                "Operator": "AND",
                "Criterias": [

                ],
                "Criterions": [
                  {
                    "Comment": "xorg-x11-sdk is earlier than 0:6.8.2-1.EL.69"
                  },
                  {
                    "Comment": "xorg-x11-sdk is signed with Red Hat redhatrelease2 key"
                  }
                ]
              },
              {
                "Operator": "AND",
                "Criterias": [

                ],
                "Criterions": [
                  {
                    "Comment": "xorg-x11-tools is earlier than 0:6.8.2-1.EL.69"
                  },
                  {
                    "Comment": "xorg-x11-tools is signed with Red Hat redhatrelease2 key"
                  }
                ]
              },
              {
                "Operator": "AND",
                "Criterias": [

                ],
                "Criterions": [
                  {
                    "Comment": "xorg-x11-twm is earlier than 0:6.8.2-1.EL.69"
                  },
                  {
                    "Comment": "xorg-x11-twm is signed with Red Hat redhatrelease2 key"
                  }
                ]
              },
              {
                "Operator": "AND",
                "Criterias": [

                ],
                "Criterions": [
                  {
                    "Comment": "xorg-x11-xauth is earlier than 0:6.8.2-1.EL.69"
                  },
                  {
                    "Comment": "xorg-x11-xauth is signed with Red Hat redhatrelease2 key"
                  }
                ]
              },
              {
                "Operator": "AND",
                "Criterias": [

                ],
                "Criterions": [
                  {
                    "Comment": "xorg-x11-xdm is earlier than 0:6.8.2-1.EL.69"
                  },
                  {
                    "Comment": "xorg-x11-xdm is signed with Red Hat redhatrelease2 key"
                  }
                ]
              },
              {
                "Operator": "AND",
                "Criterias": [

                ],
                "Criterions": [
                  {
                    "Comment": "xorg-x11-xfs is earlier than 0:6.8.2-1.EL.69"
                  },
                  {
                    "Comment": "xorg-x11-xfs is signed with Red Hat redhatrelease2 key"
                  }
                ]
              }
            ],
            "Criterions": [

            ]
          }
        ],
        "Criterions": [
          {
            "Comment": "Oracle Linux 4 is installed"
          }
        ]
      }
    ],
    "Criterions": [
      {
        "Comment": "Oracle Linux 4 is installed"
      }
    ]
  },
  "Severity": "Important",
  "Cves": [
    {
      "Impact": "",
      "Href": "",
      "ID": "CVE-2011-2895"
    }
  ],
  "Issued": {
    "Date": "2011-08-11"
  }
}