{
  "Title": "RHSA-2011:0375: seamonkey security update (Important)",
  "Description": "SeaMonkey is an open source web browser, email and newsgroup client, IRC\nchat client, and HTML editor.\nThis erratum blacklists a small number of HTTPS certificates. (BZ#689430)\nAll SeaMonkey users should upgrade to these updated packages, which correct\nthis issue. After installing the update, SeaMonkey must be restarted for\nthe changes to take effect.",
  "Platform": [
    "Red Hat Enterprise Linux 4"
  ],
  "References": [
    {
      "Source": "RHSA",
      "URI": "https://access.redhat.com/errata/RHSA-2011:0375",
      "ID": "RHSA-2011:0375"
    }
  ],
  "Criteria": {
    "Operator": "OR",
    "Criterias": [
      {
        "Operator": "AND",
        "Criterias": [
          {
            "Operator": "OR",
            "Criterias": [
              {
                "Operator": "AND",
                "Criterias": [

                ],
                "Criterions": [
                  {
                    "Comment": "seamonkey is earlier than 0:1.0.9-68.el4_8"
                  },
                  {
                    "Comment": "seamonkey is signed with Red Hat master key"
                  }
                ]
              },
              {
                "Operator": "AND",
                "Criterias": [

                ],
                "Criterions": [
                  {
                    "Comment": "seamonkey-chat is earlier than 0:1.0.9-68.el4_8"
                  },
                  {
                    "Comment": "seamonkey-chat is signed with Red Hat master key"
                  }
                ]
              },
              {
                "Operator": "AND",
                "Criterias": [

                ],
                "Criterions": [
                  {
                    "Comment": "seamonkey-devel is earlier than 0:1.0.9-68.el4_8"
                  },
                  {
                    "Comment": "seamonkey-devel is signed with Red Hat master key"
                  }
                ]
              },
              {
                "Operator": "AND",
                "Criterias": [

                ],
                "Criterions": [
                  {
                    "Comment": "seamonkey-dom-inspector is earlier than 0:1.0.9-68.el4_8"
                  },
                  {
                    "Comment": "seamonkey-dom-inspector is signed with Red Hat master key"
                  }
                ]
              },
              {
                "Operator": "AND",
                "Criterias": [

                ],
                "Criterions": [
                  {
                    "Comment": "seamonkey-js-debugger is earlier than 0:1.0.9-68.el4_8"
                  },
                  {
                    "Comment": "seamonkey-js-debugger is signed with Red Hat master key"
                  }
                ]
              },
              {
                "Operator": "AND",
                "Criterias": [

                ],
                "Criterions": [
                  {
                    "Comment": "seamonkey-mail is earlier than 0:1.0.9-68.el4_8"
                  },
                  {
                    "Comment": "seamonkey-mail is signed with Red Hat master key"
                  }
                ]
              }
            ],
            "Criterions": [

            ]
          }
        ],
        "Criterions": [
          {
            "Comment": "Oracle Linux 4 is installed"
          }
        ]
      }
    ],
    "Criterions": [
      {
        "Comment": "Oracle Linux 4 is installed"
      }
    ]
  },
  "Severity": "Important",
  "Cves": [

  ],
  "Issued": {
    "Date": "2011-03-22"
  }
}