{
  "Title": "RHSA-2011:1821: pidgin security update (Moderate)",
  "Description": "Pidgin is an instant messaging program which can log in to multiple\naccounts on multiple instant messaging networks simultaneously.\nAn input sanitization flaw was found in the way the AOL Open System for\nCommunication in Realtime (OSCAR) protocol plug-in in Pidgin, used by the\nAOL ICQ and AIM instant messaging systems, escaped certain UTF-8\ncharacters. A remote attacker could use this flaw to crash Pidgin via a\nspecially-crafted OSCAR message. (CVE-2011-4601)\nMultiple NULL pointer dereference flaws were found in the Jingle extension\nof the Extensible Messaging and Presence Protocol (XMPP) protocol plug-in\nin Pidgin. A remote attacker could use these flaws to crash Pidgin via a\nspecially-crafted Jingle multimedia message. (CVE-2011-4602)\nRed Hat would like to thank the Pidgin project for reporting these issues.\nUpstream acknowledges Evgeny Boger as the original reporter of\nCVE-2011-4601, and Thijs Alkemade as the original reporter of\nCVE-2011-4602.\nAll Pidgin users should upgrade to these updated packages, which contain\nbackported patches to resolve these issues. Pidgin must be restarted for\nthis update to take effect.",
  "Platform": [
    "Red Hat Enterprise Linux 6"
  ],
  "References": [
    {
      "Source": "RHSA",
      "URI": "https://access.redhat.com/errata/RHSA-2011:1821",
      "ID": "RHSA-2011:1821"
    },
    {
      "Source": "CVE",
      "URI": "https://access.redhat.com/security/cve/CVE-2011-4601",
      "ID": "CVE-2011-4601"
    },
    {
      "Source": "CVE",
      "URI": "https://access.redhat.com/security/cve/CVE-2011-4602",
      "ID": "CVE-2011-4602"
    }
  ],
  "Criteria": {
    "Operator": "OR",
    "Criterias": [
      {
        "Operator": "AND",
        "Criterias": [
          {
            "Operator": "OR",
            "Criterias": [
              {
                "Operator": "AND",
                "Criterias": [

                ],
                "Criterions": [
                  {
                    "Comment": "finch is earlier than 0:2.7.9-3.el6.2"
                  },
                  {
                    "Comment": "finch is signed with Red Hat redhatrelease2 key"
                  }
                ]
              },
              {
                "Operator": "AND",
                "Criterias": [

                ],
                "Criterions": [
                  {
                    "Comment": "finch-devel is earlier than 0:2.7.9-3.el6.2"
                  },
                  {
                    "Comment": "finch-devel is signed with Red Hat redhatrelease2 key"
                  }
                ]
              },
              {
                "Operator": "AND",
                "Criterias": [

                ],
                "Criterions": [
                  {
                    "Comment": "libpurple is earlier than 0:2.7.9-3.el6.2"
                  },
                  {
                    "Comment": "libpurple is signed with Red Hat redhatrelease2 key"
                  }
                ]
              },
              {
                "Operator": "AND",
                "Criterias": [

                ],
                "Criterions": [
                  {
                    "Comment": "libpurple-devel is earlier than 0:2.7.9-3.el6.2"
                  },
                  {
                    "Comment": "libpurple-devel is signed with Red Hat redhatrelease2 key"
                  }
                ]
              },
              {
                "Operator": "AND",
                "Criterias": [

                ],
                "Criterions": [
                  {
                    "Comment": "libpurple-perl is earlier than 0:2.7.9-3.el6.2"
                  },
                  {
                    "Comment": "libpurple-perl is signed with Red Hat redhatrelease2 key"
                  }
                ]
              },
              {
                "Operator": "AND",
                "Criterias": [

                ],
                "Criterions": [
                  {
                    "Comment": "libpurple-tcl is earlier than 0:2.7.9-3.el6.2"
                  },
                  {
                    "Comment": "libpurple-tcl is signed with Red Hat redhatrelease2 key"
                  }
                ]
              },
              {
                "Operator": "AND",
                "Criterias": [

                ],
                "Criterions": [
                  {
                    "Comment": "pidgin is earlier than 0:2.7.9-3.el6.2"
                  },
                  {
                    "Comment": "pidgin is signed with Red Hat redhatrelease2 key"
                  }
                ]
              },
              {
                "Operator": "AND",
                "Criterias": [

                ],
                "Criterions": [
                  {
                    "Comment": "pidgin-devel is earlier than 0:2.7.9-3.el6.2"
                  },
                  {
                    "Comment": "pidgin-devel is signed with Red Hat redhatrelease2 key"
                  }
                ]
              },
              {
                "Operator": "AND",
                "Criterias": [

                ],
                "Criterions": [
                  {
                    "Comment": "pidgin-docs is earlier than 0:2.7.9-3.el6.2"
                  },
                  {
                    "Comment": "pidgin-docs is signed with Red Hat redhatrelease2 key"
                  }
                ]
              },
              {
                "Operator": "AND",
                "Criterias": [

                ],
                "Criterions": [
                  {
                    "Comment": "pidgin-perl is earlier than 0:2.7.9-3.el6.2"
                  },
                  {
                    "Comment": "pidgin-perl is signed with Red Hat redhatrelease2 key"
                  }
                ]
              }
            ],
            "Criterions": [

            ]
          }
        ],
        "Criterions": [
          {
            "Comment": "Oracle Linux 6 is installed"
          }
        ]
      }
    ],
    "Criterions": [
      {
        "Comment": "Oracle Linux 6 is installed"
      }
    ]
  },
  "Severity": "Moderate",
  "Cves": [
    {
      "Impact": "",
      "Href": "",
      "ID": "CVE-2011-4601"
    },
    {
      "Impact": "",
      "Href": "",
      "ID": "CVE-2011-4602"
    }
  ],
  "Issued": {
    "Date": "2011-12-14"
  }
}