{
  "Title": "RHSA-2011:0395: gdm security update (Moderate)",
  "Description": "The GNOME Display Manager (GDM) provides the graphical login screen, shown\nshortly after boot up, log out, and when user-switching.\nA race condition flaw was found in the way GDM handled the cache\ndirectories used to store users' dmrc and face icon files. A local attacker\ncould use this flaw to trick GDM into changing the ownership of an\narbitrary file via a symbolic link attack, allowing them to escalate their\nprivileges. (CVE-2011-0727)\nRed Hat would like to thank Sebastian Krahmer of the SuSE Security Team for\nreporting this issue.\nAll users should upgrade to these updated packages, which contain a\nbackported patch to correct this issue. GDM must be restarted for this\nupdate to take effect. Rebooting achieves this, but changing the runlevel\nfrom 5 to 3 and back to 5 also restarts GDM.",
  "Platform": [
    "Red Hat Enterprise Linux 6"
  ],
  "References": [
    {
      "Source": "RHSA",
      "URI": "https://access.redhat.com/errata/RHSA-2011:0395",
      "ID": "RHSA-2011:0395"
    },
    {
      "Source": "CVE",
      "URI": "https://access.redhat.com/security/cve/CVE-2011-0727",
      "ID": "CVE-2011-0727"
    }
  ],
  "Criteria": {
    "Operator": "OR",
    "Criterias": [
      {
        "Operator": "AND",
        "Criterias": [
          {
            "Operator": "OR",
            "Criterias": [
              {
                "Operator": "AND",
                "Criterias": [

                ],
                "Criterions": [
                  {
                    "Comment": "gdm is earlier than 1:2.30.4-21.el6_0.1"
                  },
                  {
                    "Comment": "gdm is signed with Red Hat redhatrelease2 key"
                  }
                ]
              },
              {
                "Operator": "AND",
                "Criterias": [

                ],
                "Criterions": [
                  {
                    "Comment": "gdm-libs is earlier than 1:2.30.4-21.el6_0.1"
                  },
                  {
                    "Comment": "gdm-libs is signed with Red Hat redhatrelease2 key"
                  }
                ]
              },
              {
                "Operator": "AND",
                "Criterias": [

                ],
                "Criterions": [
                  {
                    "Comment": "gdm-plugin-fingerprint is earlier than 1:2.30.4-21.el6_0.1"
                  },
                  {
                    "Comment": "gdm-plugin-fingerprint is signed with Red Hat redhatrelease2 key"
                  }
                ]
              },
              {
                "Operator": "AND",
                "Criterias": [

                ],
                "Criterions": [
                  {
                    "Comment": "gdm-plugin-smartcard is earlier than 1:2.30.4-21.el6_0.1"
                  },
                  {
                    "Comment": "gdm-plugin-smartcard is signed with Red Hat redhatrelease2 key"
                  }
                ]
              },
              {
                "Operator": "AND",
                "Criterias": [

                ],
                "Criterions": [
                  {
                    "Comment": "gdm-user-switch-applet is earlier than 1:2.30.4-21.el6_0.1"
                  },
                  {
                    "Comment": "gdm-user-switch-applet is signed with Red Hat redhatrelease2 key"
                  }
                ]
              }
            ],
            "Criterions": [

            ]
          }
        ],
        "Criterions": [
          {
            "Comment": "Oracle Linux 6 is installed"
          }
        ]
      }
    ],
    "Criterions": [
      {
        "Comment": "Oracle Linux 6 is installed"
      }
    ]
  },
  "Severity": "Moderate",
  "Cves": [
    {
      "Impact": "",
      "Href": "",
      "ID": "CVE-2011-0727"
    }
  ],
  "Issued": {
    "Date": "2011-03-28"
  }
}