{
  "Title": "RHSA-2011:1356: openswan security update (Moderate)",
  "Description": "Openswan is a free implementation of Internet Protocol Security (IPsec)\nand Internet Key Exchange (IKE). IPsec uses strong cryptography to provide\nboth authentication and encryption services. These services allow you to\nbuild secure tunnels through untrusted networks.\nA NULL pointer dereference flaw was found in the way Openswan's pluto IKE\ndaemon handled certain error conditions. A remote, unauthenticated attacker\ncould send a specially-crafted IKE packet that would crash the pluto\ndaemon. (CVE-2011-3380)\nRed Hat would like to thank the Openswan project for reporting this issue.\nUpstream acknowledges Paul Wouters as the original reporter.\nAll users of openswan are advised to upgrade to these updated packages,\nwhich contain a backported patch to correct this issue. After installing\nthis update, the ipsec service will be restarted automatically.",
  "Platform": [
    "Red Hat Enterprise Linux 6"
  ],
  "References": [
    {
      "Source": "RHSA",
      "URI": "https://access.redhat.com/errata/RHSA-2011:1356",
      "ID": "RHSA-2011:1356"
    },
    {
      "Source": "CVE",
      "URI": "https://access.redhat.com/security/cve/CVE-2011-3380",
      "ID": "CVE-2011-3380"
    }
  ],
  "Criteria": {
    "Operator": "OR",
    "Criterias": [
      {
        "Operator": "AND",
        "Criterias": [
          {
            "Operator": "OR",
            "Criterias": [
              {
                "Operator": "AND",
                "Criterias": [

                ],
                "Criterions": [
                  {
                    "Comment": "openswan is earlier than 0:2.6.32-4.el6_1.2"
                  },
                  {
                    "Comment": "openswan is signed with Red Hat redhatrelease2 key"
                  }
                ]
              },
              {
                "Operator": "AND",
                "Criterias": [

                ],
                "Criterions": [
                  {
                    "Comment": "openswan-doc is earlier than 0:2.6.32-4.el6_1.2"
                  },
                  {
                    "Comment": "openswan-doc is signed with Red Hat redhatrelease2 key"
                  }
                ]
              }
            ],
            "Criterions": [

            ]
          }
        ],
        "Criterions": [
          {
            "Comment": "Oracle Linux 6 is installed"
          }
        ]
      }
    ],
    "Criterions": [
      {
        "Comment": "Oracle Linux 6 is installed"
      }
    ]
  },
  "Severity": "Moderate",
  "Cves": [
    {
      "Impact": "",
      "Href": "",
      "ID": "CVE-2011-3380"
    }
  ],
  "Issued": {
    "Date": "2011-10-05"
  }
}