{
  "Title": "RHSA-2011:1391: httpd security and bug fix update (Moderate)",
  "Description": "The Apache HTTP Server is a popular web server.\nIt was discovered that the Apache HTTP Server did not properly validate the\nrequest URI for proxied requests. In certain configurations, if a reverse\nproxy used the ProxyPassMatch directive, or if it used the RewriteRule\ndirective with the proxy flag, a remote attacker could make the proxy\nconnect to an arbitrary server, possibly disclosing sensitive information\nfrom internal web servers not directly accessible to the attacker.\n(CVE-2011-3368)\nIt was discovered that mod_proxy_ajp incorrectly returned an \"Internal\nServer Error\" response when processing certain malformed HTTP requests,\nwhich caused the back-end server to be marked as failed in configurations\nwhere mod_proxy was used in load balancer mode. A remote attacker could\ncause mod_proxy to not send requests to back-end AJP (Apache JServ\nProtocol) servers for the retry timeout period or until all back-end\nservers were marked as failed. (CVE-2011-3348)\nRed Hat would like to thank Context Information Security for reporting the\nCVE-2011-3368 issue.\nThis update also fixes the following bug:\n* The fix for CVE-2011-3192 provided by the RHSA-2011:1245 update\nintroduced regressions in the way httpd handled certain Range HTTP header\nvalues. This update corrects those regressions. (BZ#736592)\nAll httpd users should upgrade to these updated packages, which contain\nbackported patches to correct these issues. After installing the updated\npackages, the httpd daemon must be restarted for the update to take effect.",
  "Platform": [
    "Red Hat Enterprise Linux 6"
  ],
  "References": [
    {
      "Source": "RHSA",
      "URI": "https://access.redhat.com/errata/RHSA-2011:1391",
      "ID": "RHSA-2011:1391"
    },
    {
      "Source": "CVE",
      "URI": "https://access.redhat.com/security/cve/CVE-2011-3348",
      "ID": "CVE-2011-3348"
    },
    {
      "Source": "CVE",
      "URI": "https://access.redhat.com/security/cve/CVE-2011-3368",
      "ID": "CVE-2011-3368"
    }
  ],
  "Criteria": {
    "Operator": "OR",
    "Criterias": [
      {
        "Operator": "AND",
        "Criterias": [
          {
            "Operator": "OR",
            "Criterias": [
              {
                "Operator": "AND",
                "Criterias": [

                ],
                "Criterions": [
                  {
                    "Comment": "httpd is earlier than 0:2.2.15-9.el6_1.3"
                  },
                  {
                    "Comment": "httpd is signed with Red Hat redhatrelease2 key"
                  }
                ]
              },
              {
                "Operator": "AND",
                "Criterias": [

                ],
                "Criterions": [
                  {
                    "Comment": "httpd-devel is earlier than 0:2.2.15-9.el6_1.3"
                  },
                  {
                    "Comment": "httpd-devel is signed with Red Hat redhatrelease2 key"
                  }
                ]
              },
              {
                "Operator": "AND",
                "Criterias": [

                ],
                "Criterions": [
                  {
                    "Comment": "httpd-manual is earlier than 0:2.2.15-9.el6_1.3"
                  },
                  {
                    "Comment": "httpd-manual is signed with Red Hat redhatrelease2 key"
                  }
                ]
              },
              {
                "Operator": "AND",
                "Criterias": [

                ],
                "Criterions": [
                  {
                    "Comment": "httpd-tools is earlier than 0:2.2.15-9.el6_1.3"
                  },
                  {
                    "Comment": "httpd-tools is signed with Red Hat redhatrelease2 key"
                  }
                ]
              },
              {
                "Operator": "AND",
                "Criterias": [

                ],
                "Criterions": [
                  {
                    "Comment": "mod_ssl is earlier than 1:2.2.15-9.el6_1.3"
                  },
                  {
                    "Comment": "mod_ssl is signed with Red Hat redhatrelease2 key"
                  }
                ]
              }
            ],
            "Criterions": [

            ]
          }
        ],
        "Criterions": [
          {
            "Comment": "Oracle Linux 6 is installed"
          }
        ]
      }
    ],
    "Criterions": [
      {
        "Comment": "Oracle Linux 6 is installed"
      }
    ]
  },
  "Severity": "Moderate",
  "Cves": [
    {
      "Impact": "",
      "Href": "",
      "ID": "CVE-2011-3348"
    },
    {
      "Impact": "",
      "Href": "",
      "ID": "CVE-2011-3368"
    }
  ],
  "Issued": {
    "Date": "2011-10-20"
  }
}