{
  "Title": "RHSA-2011:0374: thunderbird security and bug fix update (Important)",
  "Description": "Mozilla Thunderbird is a standalone mail and newsgroup client.\nThis erratum blacklists a small number of HTTPS certificates. (BZ#689430)\nThis update also fixes the following bug:\n* The RHSA-2011:0312 and RHSA-2011:0311 updates introduced a regression,\npreventing some Java content and plug-ins written in Java from loading.\nWith this update, the Java content and plug-ins work as expected.\n(BZ#683076)\nAll Thunderbird users should upgrade to this updated package, which\nresolves these issues. All running instances of Thunderbird must be\nrestarted for the update to take effect.",
  "Platform": [
    "Red Hat Enterprise Linux 4",
    "Red Hat Enterprise Linux 5",
    "Red Hat Enterprise Linux 6"
  ],
  "References": [
    {
      "Source": "RHSA",
      "URI": "https://access.redhat.com/errata/RHSA-2011:0374",
      "ID": "RHSA-2011:0374"
    }
  ],
  "Criteria": {
    "Operator": "OR",
    "Criterias": [
      {
        "Operator": "AND",
        "Criterias": [

        ],
        "Criterions": [
          {
            "Comment": "Oracle Linux 4 is installed"
          },
          {
            "Comment": "thunderbird is earlier than 0:1.5.0.12-36.el4"
          },
          {
            "Comment": "thunderbird is signed with Red Hat master key"
          }
        ]
      },
      {
        "Operator": "AND",
        "Criterias": [

        ],
        "Criterions": [
          {
            "Comment": "Oracle Linux 5 is installed"
          },
          {
            "Comment": "thunderbird is earlier than 0:2.0.0.24-15.el5_6"
          },
          {
            "Comment": "thunderbird is signed with Red Hat redhatrelease key"
          }
        ]
      },
      {
        "Operator": "AND",
        "Criterias": [

        ],
        "Criterions": [
          {
            "Comment": "Oracle Linux 6 is installed"
          },
          {
            "Comment": "thunderbird is earlier than 0:3.1.9-3.el6_0"
          },
          {
            "Comment": "thunderbird is signed with Red Hat redhatrelease2 key"
          }
        ]
      }
    ],
    "Criterions": [
      {
        "Comment": "Oracle Linux 4 is installed"
      }
    ]
  },
  "Severity": "Important",
  "Cves": [

  ],
  "Issued": {
    "Date": "2011-03-22"
  }
}