{
  "Title": "RHSA-2011:1196: system-config-printer security update (Moderate)",
  "Description": "system-config-printer is a print queue configuration tool with a graphical\nuser interface.\nIt was found that system-config-printer did not properly sanitize NetBIOS\nand workgroup names when searching for network printers. A remote attacker\ncould use this flaw to execute arbitrary code with the privileges of the\nuser running system-config-printer. (CVE-2011-2899)\nAll users of system-config-printer are advised to upgrade to these updated\npackages, which contain a backported patch to resolve this issue. Running\ninstances of system-config-printer must be restarted for this update to\ntake effect.",
  "Platform": [
    "Red Hat Enterprise Linux 4",
    "Red Hat Enterprise Linux 5"
  ],
  "References": [
    {
      "Source": "RHSA",
      "URI": "https://access.redhat.com/errata/RHSA-2011:1196",
      "ID": "RHSA-2011:1196"
    },
    {
      "Source": "CVE",
      "URI": "https://access.redhat.com/security/cve/CVE-2011-2899",
      "ID": "CVE-2011-2899"
    }
  ],
  "Criteria": {
    "Operator": "OR",
    "Criterias": [
      {
        "Operator": "AND",
        "Criterias": [
          {
            "Operator": "OR",
            "Criterias": [
              {
                "Operator": "AND",
                "Criterias": [

                ],
                "Criterions": [
                  {
                    "Comment": "system-config-printer is earlier than 0:0.6.116.10-1.6.el4"
                  },
                  {
                    "Comment": "system-config-printer is signed with Red Hat redhatrelease2 key"
                  }
                ]
              },
              {
                "Operator": "AND",
                "Criterias": [

                ],
                "Criterions": [
                  {
                    "Comment": "system-config-printer-gui is earlier than 0:0.6.116.10-1.6.el4"
                  },
                  {
                    "Comment": "system-config-printer-gui is signed with Red Hat redhatrelease2 key"
                  }
                ]
              }
            ],
            "Criterions": [

            ]
          }
        ],
        "Criterions": [
          {
            "Comment": "Oracle Linux 4 is installed"
          }
        ]
      },
      {
        "Operator": "AND",
        "Criterias": [
          {
            "Operator": "OR",
            "Criterias": [
              {
                "Operator": "AND",
                "Criterias": [

                ],
                "Criterions": [
                  {
                    "Comment": "system-config-printer is earlier than 0:0.7.32.10-1.el5_7.1"
                  },
                  {
                    "Comment": "system-config-printer is signed with Red Hat redhatrelease2 key"
                  }
                ]
              },
              {
                "Operator": "AND",
                "Criterias": [

                ],
                "Criterions": [
                  {
                    "Comment": "system-config-printer-libs is earlier than 0:0.7.32.10-1.el5_7.1"
                  },
                  {
                    "Comment": "system-config-printer-libs is signed with Red Hat redhatrelease2 key"
                  }
                ]
              }
            ],
            "Criterions": [

            ]
          }
        ],
        "Criterions": [
          {
            "Comment": "Oracle Linux 5 is installed"
          }
        ]
      }
    ],
    "Criterions": [
      {
        "Comment": "Oracle Linux 4 is installed"
      }
    ]
  },
  "Severity": "Moderate",
  "Cves": [
    {
      "Impact": "",
      "Href": "",
      "ID": "CVE-2011-2899"
    }
  ],
  "Issued": {
    "Date": "2011-08-23"
  }
}