{
  "Title": "RHSA-2011:0412: glibc security update (Important)",
  "Description": "The glibc packages contain the standard C libraries used by multiple\nprograms on the system. These packages contain the standard C and the\nstandard math libraries. Without these two libraries, a Linux system cannot\nfunction properly.\nThe fix for CVE-2010-3847 introduced a regression in the way the dynamic\nloader expanded the $ORIGIN dynamic string token specified in the RPATH and\nRUNPATH entries in the ELF library header. A local attacker could use this\nflaw to escalate their privileges via a setuid or setgid program using\nsuch a library. (CVE-2011-0536)\nIt was discovered that the glibc addmntent() function did not sanitize its\ninput properly. A local attacker could possibly use this flaw to inject\nmalformed lines into /etc/mtab via certain setuid mount helpers, if the\nattacker were allowed to mount to an arbitrary directory under their\ncontrol. (CVE-2010-0296)\nIt was discovered that the glibc fnmatch() function did not properly\nrestrict the use of alloca(). If the function was called on sufficiently\nlarge inputs, it could cause an application using fnmatch() to crash or,\npossibly, execute arbitrary code with the privileges of the application.\n(CVE-2011-1071)\nIt was discovered that the locale command did not produce properly escaped\noutput as required by the POSIX specification. If an attacker were able to\nset the locale environment variables in the environment of a script that\nperformed shell evaluation on the output of the locale command, and that\nscript were run with different privileges than the attacker's, it could\nexecute arbitrary code with the privileges of the script. (CVE-2011-1095)\nAll users should upgrade to these updated packages, which contain\nbackported patches to correct these issues.",
  "Platform": [
    "Red Hat Enterprise Linux 5"
  ],
  "References": [
    {
      "Source": "RHSA",
      "URI": "https://access.redhat.com/errata/RHSA-2011:0412",
      "ID": "RHSA-2011:0412"
    },
    {
      "Source": "CVE",
      "URI": "https://access.redhat.com/security/cve/CVE-2010-0296",
      "ID": "CVE-2010-0296"
    },
    {
      "Source": "CVE",
      "URI": "https://access.redhat.com/security/cve/CVE-2011-0536",
      "ID": "CVE-2011-0536"
    },
    {
      "Source": "CVE",
      "URI": "https://access.redhat.com/security/cve/CVE-2011-1071",
      "ID": "CVE-2011-1071"
    },
    {
      "Source": "CVE",
      "URI": "https://access.redhat.com/security/cve/CVE-2011-1095",
      "ID": "CVE-2011-1095"
    },
    {
      "Source": "CVE",
      "URI": "https://access.redhat.com/security/cve/CVE-2011-1658",
      "ID": "CVE-2011-1658"
    },
    {
      "Source": "CVE",
      "URI": "https://access.redhat.com/security/cve/CVE-2011-1659",
      "ID": "CVE-2011-1659"
    }
  ],
  "Criteria": {
    "Operator": "OR",
    "Criterias": [
      {
        "Operator": "AND",
        "Criterias": [
          {
            "Operator": "OR",
            "Criterias": [
              {
                "Operator": "AND",
                "Criterias": [

                ],
                "Criterions": [
                  {
                    "Comment": "glibc is earlier than 0:2.5-58.el5_6.2"
                  },
                  {
                    "Comment": "glibc is signed with Red Hat redhatrelease2 key"
                  }
                ]
              },
              {
                "Operator": "AND",
                "Criterias": [

                ],
                "Criterions": [
                  {
                    "Comment": "glibc-common is earlier than 0:2.5-58.el5_6.2"
                  },
                  {
                    "Comment": "glibc-common is signed with Red Hat redhatrelease2 key"
                  }
                ]
              },
              {
                "Operator": "AND",
                "Criterias": [

                ],
                "Criterions": [
                  {
                    "Comment": "glibc-devel is earlier than 0:2.5-58.el5_6.2"
                  },
                  {
                    "Comment": "glibc-devel is signed with Red Hat redhatrelease2 key"
                  }
                ]
              },
              {
                "Operator": "AND",
                "Criterias": [

                ],
                "Criterions": [
                  {
                    "Comment": "glibc-headers is earlier than 0:2.5-58.el5_6.2"
                  },
                  {
                    "Comment": "glibc-headers is signed with Red Hat redhatrelease2 key"
                  }
                ]
              },
              {
                "Operator": "AND",
                "Criterias": [

                ],
                "Criterions": [
                  {
                    "Comment": "glibc-utils is earlier than 0:2.5-58.el5_6.2"
                  },
                  {
                    "Comment": "glibc-utils is signed with Red Hat redhatrelease2 key"
                  }
                ]
              },
              {
                "Operator": "AND",
                "Criterias": [

                ],
                "Criterions": [
                  {
                    "Comment": "nscd is earlier than 0:2.5-58.el5_6.2"
                  },
                  {
                    "Comment": "nscd is signed with Red Hat redhatrelease2 key"
                  }
                ]
              }
            ],
            "Criterions": [

            ]
          }
        ],
        "Criterions": [
          {
            "Comment": "Oracle Linux 5 is installed"
          }
        ]
      }
    ],
    "Criterions": [
      {
        "Comment": "Oracle Linux 5 is installed"
      }
    ]
  },
  "Severity": "Important",
  "Cves": [
    {
      "Impact": "",
      "Href": "",
      "ID": "CVE-2010-0296"
    },
    {
      "Impact": "",
      "Href": "",
      "ID": "CVE-2011-0536"
    },
    {
      "Impact": "",
      "Href": "",
      "ID": "CVE-2011-1071"
    },
    {
      "Impact": "",
      "Href": "",
      "ID": "CVE-2011-1095"
    },
    {
      "Impact": "",
      "Href": "",
      "ID": "CVE-2011-1658"
    },
    {
      "Impact": "",
      "Href": "",
      "ID": "CVE-2011-1659"
    }
  ],
  "Issued": {
    "Date": "2011-04-04"
  }
}