{
  "Title": "RHSA-2011:0260: python security and bug fix update (Low)",
  "Description": "Python is an interpreted, interactive, object-oriented programming\nlanguage.\nMultiple flaws were found in the Python rgbimg module. If an application\nwritten in Python was using the rgbimg module and loaded a\nspecially-crafted SGI image file, it could cause the application to crash\nor, possibly, execute arbitrary code with the privileges of the user\nrunning the application. (CVE-2009-4134, CVE-2010-1449, CVE-2010-1450)\nThis update also fixes the following bugs:\n* Python 2.3.4's time.strptime() function did not correctly handle the \"%W\"\nweek number format string. This update backports the _strptime\nimplementation from Python 2.3.6, fixing this issue. (BZ#436001)\n* Python 2.3.4's socket.htons() function returned partially-uninitialized\ndata on IBM System z, generally leading to incorrect results. (BZ#513341)\n* Python 2.3.4's pwd.getpwuid() and grp.getgrgid() functions did not\nsupport the full range of user and group IDs on 64-bit architectures,\nleading to \"OverflowError\" exceptions for large input values. This update\nadds support for the full range of user and group IDs on 64-bit\narchitectures. (BZ#497540)\nUsers of Python should upgrade to these updated packages, which contain\nbackported patches to correct these issues.",
  "Platform": [
    "Red Hat Enterprise Linux 4"
  ],
  "References": [
    {
      "Source": "RHSA",
      "URI": "https://access.redhat.com/errata/RHSA-2011:0260",
      "ID": "RHSA-2011:0260"
    },
    {
      "Source": "CVE",
      "URI": "https://access.redhat.com/security/cve/CVE-2009-4134",
      "ID": "CVE-2009-4134"
    },
    {
      "Source": "CVE",
      "URI": "https://access.redhat.com/security/cve/CVE-2010-1449",
      "ID": "CVE-2010-1449"
    },
    {
      "Source": "CVE",
      "URI": "https://access.redhat.com/security/cve/CVE-2010-1450",
      "ID": "CVE-2010-1450"
    }
  ],
  "Criteria": {
    "Operator": "OR",
    "Criterias": [
      {
        "Operator": "AND",
        "Criterias": [
          {
            "Operator": "OR",
            "Criterias": [
              {
                "Operator": "AND",
                "Criterias": [

                ],
                "Criterions": [
                  {
                    "Comment": "python is earlier than 0:2.3.4-14.9.el4"
                  },
                  {
                    "Comment": "python is signed with Red Hat redhatrelease2 key"
                  }
                ]
              },
              {
                "Operator": "AND",
                "Criterias": [

                ],
                "Criterions": [
                  {
                    "Comment": "python-devel is earlier than 0:2.3.4-14.9.el4"
                  },
                  {
                    "Comment": "python-devel is signed with Red Hat redhatrelease2 key"
                  }
                ]
              },
              {
                "Operator": "AND",
                "Criterias": [

                ],
                "Criterions": [
                  {
                    "Comment": "python-docs is earlier than 0:2.3.4-14.9.el4"
                  },
                  {
                    "Comment": "python-docs is signed with Red Hat redhatrelease2 key"
                  }
                ]
              },
              {
                "Operator": "AND",
                "Criterias": [

                ],
                "Criterions": [
                  {
                    "Comment": "python-tools is earlier than 0:2.3.4-14.9.el4"
                  },
                  {
                    "Comment": "python-tools is signed with Red Hat redhatrelease2 key"
                  }
                ]
              },
              {
                "Operator": "AND",
                "Criterias": [

                ],
                "Criterions": [
                  {
                    "Comment": "tkinter is earlier than 0:2.3.4-14.9.el4"
                  },
                  {
                    "Comment": "tkinter is signed with Red Hat redhatrelease2 key"
                  }
                ]
              }
            ],
            "Criterions": [

            ]
          }
        ],
        "Criterions": [
          {
            "Comment": "Oracle Linux 4 is installed"
          }
        ]
      }
    ],
    "Criterions": [
      {
        "Comment": "Oracle Linux 4 is installed"
      }
    ]
  },
  "Severity": "Low",
  "Cves": [
    {
      "Impact": "",
      "Href": "",
      "ID": "CVE-2009-4134"
    },
    {
      "Impact": "",
      "Href": "",
      "ID": "CVE-2010-1449"
    },
    {
      "Impact": "",
      "Href": "",
      "ID": "CVE-2010-1450"
    }
  ],
  "Issued": {
    "Date": "2011-02-16"
  }
}