{
  "Title": "RHSA-2011:0199: krb5 security update (Important)",
  "Description": "Kerberos is a network authentication system which allows clients and\nservers to authenticate to each other using symmetric encryption and a\ntrusted third-party, the Key Distribution Center (KDC).\nA NULL pointer dereference flaw was found in the way the MIT Kerberos KDC\nprocessed principal names that were not null terminated, when the KDC was\nconfigured to use an LDAP back end. A remote attacker could use this flaw\nto crash the KDC via a specially-crafted request. (CVE-2011-0282)\nA denial of service flaw was found in the way the MIT Kerberos KDC\nprocessed certain principal names when the KDC was configured to use an\nLDAP back end. A remote attacker could use this flaw to cause the KDC to\nhang via a specially-crafted request. (CVE-2011-0281)\nRed Hat would like to thank the MIT Kerberos Team for reporting these\nissues. Upstream acknowledges Kevin Longfellow of Oracle Corporation as the\noriginal reporter of the CVE-2011-0281 issue.\nAll krb5 users should upgrade to these updated packages, which contain a\nbackported patch to correct these issues. After installing the updated\npackages, the krb5kdc daemon will be restarted automatically.",
  "Platform": [
    "Red Hat Enterprise Linux 5"
  ],
  "References": [
    {
      "Source": "RHSA",
      "URI": "https://access.redhat.com/errata/RHSA-2011:0199",
      "ID": "RHSA-2011:0199"
    },
    {
      "Source": "CVE",
      "URI": "https://access.redhat.com/security/cve/CVE-2011-0281",
      "ID": "CVE-2011-0281"
    },
    {
      "Source": "CVE",
      "URI": "https://access.redhat.com/security/cve/CVE-2011-0282",
      "ID": "CVE-2011-0282"
    }
  ],
  "Criteria": {
    "Operator": "OR",
    "Criterias": [
      {
        "Operator": "AND",
        "Criterias": [
          {
            "Operator": "OR",
            "Criterias": [
              {
                "Operator": "AND",
                "Criterias": [

                ],
                "Criterions": [
                  {
                    "Comment": "krb5-devel is earlier than 0:1.6.1-55.el5_6.1"
                  },
                  {
                    "Comment": "krb5-devel is signed with Red Hat redhatrelease2 key"
                  }
                ]
              },
              {
                "Operator": "AND",
                "Criterias": [

                ],
                "Criterions": [
                  {
                    "Comment": "krb5-libs is earlier than 0:1.6.1-55.el5_6.1"
                  },
                  {
                    "Comment": "krb5-libs is signed with Red Hat redhatrelease2 key"
                  }
                ]
              },
              {
                "Operator": "AND",
                "Criterias": [

                ],
                "Criterions": [
                  {
                    "Comment": "krb5-server is earlier than 0:1.6.1-55.el5_6.1"
                  },
                  {
                    "Comment": "krb5-server is signed with Red Hat redhatrelease2 key"
                  }
                ]
              },
              {
                "Operator": "AND",
                "Criterias": [

                ],
                "Criterions": [
                  {
                    "Comment": "krb5-server-ldap is earlier than 0:1.6.1-55.el5_6.1"
                  },
                  {
                    "Comment": "krb5-server-ldap is signed with Red Hat redhatrelease2 key"
                  }
                ]
              },
              {
                "Operator": "AND",
                "Criterias": [

                ],
                "Criterions": [
                  {
                    "Comment": "krb5-workstation is earlier than 0:1.6.1-55.el5_6.1"
                  },
                  {
                    "Comment": "krb5-workstation is signed with Red Hat redhatrelease2 key"
                  }
                ]
              }
            ],
            "Criterions": [

            ]
          }
        ],
        "Criterions": [
          {
            "Comment": "Oracle Linux 5 is installed"
          }
        ]
      }
    ],
    "Criterions": [
      {
        "Comment": "Oracle Linux 5 is installed"
      }
    ]
  },
  "Severity": "Important",
  "Cves": [
    {
      "Impact": "",
      "Href": "",
      "ID": "CVE-2011-0281"
    },
    {
      "Impact": "",
      "Href": "",
      "ID": "CVE-2011-0282"
    }
  ],
  "Issued": {
    "Date": "2011-02-08"
  }
}