{
  "Title": "RHSA-2011:0837: gimp security update (Moderate)",
  "Description": "The GIMP (GNU Image Manipulation Program) is an image composition and\nediting program.\nAn integer overflow flaw, leading to a heap-based buffer overflow, was\nfound in the GIMP's Microsoft Windows Bitmap (BMP) and Personal Computer\neXchange (PCX) image file plug-ins. An attacker could create a\nspecially-crafted BMP or PCX image file that, when opened, could cause the\nrelevant plug-in to crash or, potentially, execute arbitrary code with the\nprivileges of the user running the GIMP. (CVE-2009-1570, CVE-2011-1178)\nA heap-based buffer overflow flaw was found in the GIMP's Paint Shop Pro\n(PSP) image file plug-in. An attacker could create a specially-crafted PSP\nimage file that, when opened, could cause the PSP plug-in to crash or,\npotentially, execute arbitrary code with the privileges of the user running\nthe GIMP. (CVE-2010-4543)\nA stack-based buffer overflow flaw was found in the GIMP's Sphere Designer\nimage filter. An attacker could create a specially-crafted Sphere Designer\nfilter configuration file that, when opened, could cause the Sphere\nDesigner plug-in to crash or, potentially, execute arbitrary code with the\nprivileges of the user running the GIMP. (CVE-2010-4541)\nRed Hat would like to thank Stefan Cornelius of Secunia Research for\nresponsibly reporting the CVE-2009-1570 flaw.\nUsers of the GIMP are advised to upgrade to these updated packages, which\ncontain backported patches to correct these issues. The GIMP must be\nrestarted for the update to take effect.",
  "Platform": [
    "Red Hat Enterprise Linux 4"
  ],
  "References": [
    {
      "Source": "RHSA",
      "URI": "https://access.redhat.com/errata/RHSA-2011:0837",
      "ID": "RHSA-2011:0837"
    },
    {
      "Source": "CVE",
      "URI": "https://access.redhat.com/security/cve/CVE-2009-1570",
      "ID": "CVE-2009-1570"
    },
    {
      "Source": "CVE",
      "URI": "https://access.redhat.com/security/cve/CVE-2010-4541",
      "ID": "CVE-2010-4541"
    },
    {
      "Source": "CVE",
      "URI": "https://access.redhat.com/security/cve/CVE-2010-4543",
      "ID": "CVE-2010-4543"
    },
    {
      "Source": "CVE",
      "URI": "https://access.redhat.com/security/cve/CVE-2011-1178",
      "ID": "CVE-2011-1178"
    }
  ],
  "Criteria": {
    "Operator": "OR",
    "Criterias": [
      {
        "Operator": "AND",
        "Criterias": [
          {
            "Operator": "OR",
            "Criterias": [
              {
                "Operator": "AND",
                "Criterias": [

                ],
                "Criterions": [
                  {
                    "Comment": "gimp is earlier than 1:2.0.5-7.0.7.el4.1"
                  },
                  {
                    "Comment": "gimp is signed with Red Hat redhatrelease2 key"
                  }
                ]
              },
              {
                "Operator": "AND",
                "Criterias": [

                ],
                "Criterions": [
                  {
                    "Comment": "gimp-devel is earlier than 1:2.0.5-7.0.7.el4.1"
                  },
                  {
                    "Comment": "gimp-devel is signed with Red Hat redhatrelease2 key"
                  }
                ]
              }
            ],
            "Criterions": [

            ]
          }
        ],
        "Criterions": [
          {
            "Comment": "Oracle Linux 4 is installed"
          }
        ]
      }
    ],
    "Criterions": [
      {
        "Comment": "Oracle Linux 4 is installed"
      }
    ]
  },
  "Severity": "Moderate",
  "Cves": [
    {
      "Impact": "",
      "Href": "",
      "ID": "CVE-2009-1570"
    },
    {
      "Impact": "",
      "Href": "",
      "ID": "CVE-2010-4541"
    },
    {
      "Impact": "",
      "Href": "",
      "ID": "CVE-2010-4543"
    },
    {
      "Impact": "",
      "Href": "",
      "ID": "CVE-2011-1178"
    }
  ],
  "Issued": {
    "Date": "2011-05-31"
  }
}