{
  "Title": "RHSA-2011:0195: php security update (Moderate)",
  "Description": "PHP is an HTML-embedded scripting language commonly used with the Apache\nHTTP Server.\nA flaw was found in the way PHP converted certain floating point values\nfrom string representation to a number. If a PHP script evaluated an\nattacker's input in a numeric context, the PHP interpreter could cause high\nCPU usage until the script execution time limit is reached. This issue only\naffected i386 systems. (CVE-2010-4645)\nA numeric truncation error and an input validation flaw were found in the\nway the PHP utf8_decode() function decoded partial multi-byte sequences\nfor some multi-byte encodings, sending them to output without them being\nescaped. An attacker could use these flaws to perform a cross-site\nscripting attack. (CVE-2009-5016, CVE-2010-3870)\nA NULL pointer dereference flaw was found in the PHP\nZipArchive::getArchiveComment function. If a script used this function to\ninspect a specially-crafted ZIP archive file, it could cause the PHP\ninterpreter to crash. (CVE-2010-3709)\nAll php users should upgrade to these updated packages, which contain\nbackported patches to resolve these issues. After installing the updated\npackages, the httpd daemon must be restarted for the update to take effect.",
  "Platform": [
    "Red Hat Enterprise Linux 6"
  ],
  "References": [
    {
      "Source": "RHSA",
      "URI": "https://access.redhat.com/errata/RHSA-2011:0195",
      "ID": "RHSA-2011:0195"
    },
    {
      "Source": "CVE",
      "URI": "https://access.redhat.com/security/cve/CVE-2009-5016",
      "ID": "CVE-2009-5016"
    },
    {
      "Source": "CVE",
      "URI": "https://access.redhat.com/security/cve/CVE-2010-3709",
      "ID": "CVE-2010-3709"
    },
    {
      "Source": "CVE",
      "URI": "https://access.redhat.com/security/cve/CVE-2010-3870",
      "ID": "CVE-2010-3870"
    },
    {
      "Source": "CVE",
      "URI": "https://access.redhat.com/security/cve/CVE-2010-4645",
      "ID": "CVE-2010-4645"
    }
  ],
  "Criteria": {
    "Operator": "OR",
    "Criterias": [
      {
        "Operator": "AND",
        "Criterias": [
          {
            "Operator": "OR",
            "Criterias": [
              {
                "Operator": "AND",
                "Criterias": [

                ],
                "Criterions": [
                  {
                    "Comment": "php is earlier than 0:5.3.2-6.el6_0.1"
                  },
                  {
                    "Comment": "php is signed with Red Hat redhatrelease2 key"
                  }
                ]
              },
              {
                "Operator": "AND",
                "Criterias": [

                ],
                "Criterions": [
                  {
                    "Comment": "php-bcmath is earlier than 0:5.3.2-6.el6_0.1"
                  },
                  {
                    "Comment": "php-bcmath is signed with Red Hat redhatrelease2 key"
                  }
                ]
              },
              {
                "Operator": "AND",
                "Criterias": [

                ],
                "Criterions": [
                  {
                    "Comment": "php-cli is earlier than 0:5.3.2-6.el6_0.1"
                  },
                  {
                    "Comment": "php-cli is signed with Red Hat redhatrelease2 key"
                  }
                ]
              },
              {
                "Operator": "AND",
                "Criterias": [

                ],
                "Criterions": [
                  {
                    "Comment": "php-common is earlier than 0:5.3.2-6.el6_0.1"
                  },
                  {
                    "Comment": "php-common is signed with Red Hat redhatrelease2 key"
                  }
                ]
              },
              {
                "Operator": "AND",
                "Criterias": [

                ],
                "Criterions": [
                  {
                    "Comment": "php-dba is earlier than 0:5.3.2-6.el6_0.1"
                  },
                  {
                    "Comment": "php-dba is signed with Red Hat redhatrelease2 key"
                  }
                ]
              },
              {
                "Operator": "AND",
                "Criterias": [

                ],
                "Criterions": [
                  {
                    "Comment": "php-devel is earlier than 0:5.3.2-6.el6_0.1"
                  },
                  {
                    "Comment": "php-devel is signed with Red Hat redhatrelease2 key"
                  }
                ]
              },
              {
                "Operator": "AND",
                "Criterias": [

                ],
                "Criterions": [
                  {
                    "Comment": "php-embedded is earlier than 0:5.3.2-6.el6_0.1"
                  },
                  {
                    "Comment": "php-embedded is signed with Red Hat redhatrelease2 key"
                  }
                ]
              },
              {
                "Operator": "AND",
                "Criterias": [

                ],
                "Criterions": [
                  {
                    "Comment": "php-enchant is earlier than 0:5.3.2-6.el6_0.1"
                  },
                  {
                    "Comment": "php-enchant is signed with Red Hat redhatrelease2 key"
                  }
                ]
              },
              {
                "Operator": "AND",
                "Criterias": [

                ],
                "Criterions": [
                  {
                    "Comment": "php-gd is earlier than 0:5.3.2-6.el6_0.1"
                  },
                  {
                    "Comment": "php-gd is signed with Red Hat redhatrelease2 key"
                  }
                ]
              },
              {
                "Operator": "AND",
                "Criterias": [

                ],
                "Criterions": [
                  {
                    "Comment": "php-imap is earlier than 0:5.3.2-6.el6_0.1"
                  },
                  {
                    "Comment": "php-imap is signed with Red Hat redhatrelease2 key"
                  }
                ]
              },
              {
                "Operator": "AND",
                "Criterias": [

                ],
                "Criterions": [
                  {
                    "Comment": "php-intl is earlier than 0:5.3.2-6.el6_0.1"
                  },
                  {
                    "Comment": "php-intl is signed with Red Hat redhatrelease2 key"
                  }
                ]
              },
              {
                "Operator": "AND",
                "Criterias": [

                ],
                "Criterions": [
                  {
                    "Comment": "php-ldap is earlier than 0:5.3.2-6.el6_0.1"
                  },
                  {
                    "Comment": "php-ldap is signed with Red Hat redhatrelease2 key"
                  }
                ]
              },
              {
                "Operator": "AND",
                "Criterias": [

                ],
                "Criterions": [
                  {
                    "Comment": "php-mbstring is earlier than 0:5.3.2-6.el6_0.1"
                  },
                  {
                    "Comment": "php-mbstring is signed with Red Hat redhatrelease2 key"
                  }
                ]
              },
              {
                "Operator": "AND",
                "Criterias": [

                ],
                "Criterions": [
                  {
                    "Comment": "php-mysql is earlier than 0:5.3.2-6.el6_0.1"
                  },
                  {
                    "Comment": "php-mysql is signed with Red Hat redhatrelease2 key"
                  }
                ]
              },
              {
                "Operator": "AND",
                "Criterias": [

                ],
                "Criterions": [
                  {
                    "Comment": "php-odbc is earlier than 0:5.3.2-6.el6_0.1"
                  },
                  {
                    "Comment": "php-odbc is signed with Red Hat redhatrelease2 key"
                  }
                ]
              },
              {
                "Operator": "AND",
                "Criterias": [

                ],
                "Criterions": [
                  {
                    "Comment": "php-pdo is earlier than 0:5.3.2-6.el6_0.1"
                  },
                  {
                    "Comment": "php-pdo is signed with Red Hat redhatrelease2 key"
                  }
                ]
              },
              {
                "Operator": "AND",
                "Criterias": [

                ],
                "Criterions": [
                  {
                    "Comment": "php-pgsql is earlier than 0:5.3.2-6.el6_0.1"
                  },
                  {
                    "Comment": "php-pgsql is signed with Red Hat redhatrelease2 key"
                  }
                ]
              },
              {
                "Operator": "AND",
                "Criterias": [

                ],
                "Criterions": [
                  {
                    "Comment": "php-process is earlier than 0:5.3.2-6.el6_0.1"
                  },
                  {
                    "Comment": "php-process is signed with Red Hat redhatrelease2 key"
                  }
                ]
              },
              {
                "Operator": "AND",
                "Criterias": [

                ],
                "Criterions": [
                  {
                    "Comment": "php-pspell is earlier than 0:5.3.2-6.el6_0.1"
                  },
                  {
                    "Comment": "php-pspell is signed with Red Hat redhatrelease2 key"
                  }
                ]
              },
              {
                "Operator": "AND",
                "Criterias": [

                ],
                "Criterions": [
                  {
                    "Comment": "php-recode is earlier than 0:5.3.2-6.el6_0.1"
                  },
                  {
                    "Comment": "php-recode is signed with Red Hat redhatrelease2 key"
                  }
                ]
              },
              {
                "Operator": "AND",
                "Criterias": [

                ],
                "Criterions": [
                  {
                    "Comment": "php-snmp is earlier than 0:5.3.2-6.el6_0.1"
                  },
                  {
                    "Comment": "php-snmp is signed with Red Hat redhatrelease2 key"
                  }
                ]
              },
              {
                "Operator": "AND",
                "Criterias": [

                ],
                "Criterions": [
                  {
                    "Comment": "php-soap is earlier than 0:5.3.2-6.el6_0.1"
                  },
                  {
                    "Comment": "php-soap is signed with Red Hat redhatrelease2 key"
                  }
                ]
              },
              {
                "Operator": "AND",
                "Criterias": [

                ],
                "Criterions": [
                  {
                    "Comment": "php-tidy is earlier than 0:5.3.2-6.el6_0.1"
                  },
                  {
                    "Comment": "php-tidy is signed with Red Hat redhatrelease2 key"
                  }
                ]
              },
              {
                "Operator": "AND",
                "Criterias": [

                ],
                "Criterions": [
                  {
                    "Comment": "php-xml is earlier than 0:5.3.2-6.el6_0.1"
                  },
                  {
                    "Comment": "php-xml is signed with Red Hat redhatrelease2 key"
                  }
                ]
              },
              {
                "Operator": "AND",
                "Criterias": [

                ],
                "Criterions": [
                  {
                    "Comment": "php-xmlrpc is earlier than 0:5.3.2-6.el6_0.1"
                  },
                  {
                    "Comment": "php-xmlrpc is signed with Red Hat redhatrelease2 key"
                  }
                ]
              },
              {
                "Operator": "AND",
                "Criterias": [

                ],
                "Criterions": [
                  {
                    "Comment": "php-zts is earlier than 0:5.3.2-6.el6_0.1"
                  },
                  {
                    "Comment": "php-zts is signed with Red Hat redhatrelease2 key"
                  }
                ]
              }
            ],
            "Criterions": [

            ]
          }
        ],
        "Criterions": [
          {
            "Comment": "Oracle Linux 6 is installed"
          }
        ]
      }
    ],
    "Criterions": [
      {
        "Comment": "Oracle Linux 6 is installed"
      }
    ]
  },
  "Severity": "Moderate",
  "Cves": [
    {
      "Impact": "",
      "Href": "",
      "ID": "CVE-2009-5016"
    },
    {
      "Impact": "",
      "Href": "",
      "ID": "CVE-2010-3709"
    },
    {
      "Impact": "",
      "Href": "",
      "ID": "CVE-2010-3870"
    },
    {
      "Impact": "",
      "Href": "",
      "ID": "CVE-2010-4645"
    }
  ],
  "Issued": {
    "Date": "2011-02-03"
  }
}