{
  "Title": "RHSA-2011:1807: jasper security update (Important)",
  "Description": "JasPer is an implementation of Part 1 of the JPEG 2000 image compression\nstandard.\nTwo heap-based buffer overflow flaws were found in the way JasPer decoded\nJPEG 2000 compressed image files. An attacker could create a malicious JPEG\n2000 compressed image file that, when opened, would cause applications that\nuse JasPer (such as Nautilus) to crash or, potentially, execute arbitrary\ncode. (CVE-2011-4516, CVE-2011-4517)\nRed Hat would like to thank Jonathan Foote of the CERT Coordination Center\nfor reporting these issues.\nUsers are advised to upgrade to these updated packages, which contain a\nbackported patch to correct these issues. All applications using the JasPer\nlibraries (such as Nautilus) must be restarted for the update to take\neffect.",
  "Platform": [
    "Red Hat Enterprise Linux 6"
  ],
  "References": [
    {
      "Source": "RHSA",
      "URI": "https://access.redhat.com/errata/RHSA-2011:1807",
      "ID": "RHSA-2011:1807"
    },
    {
      "Source": "CVE",
      "URI": "https://access.redhat.com/security/cve/CVE-2011-4516",
      "ID": "CVE-2011-4516"
    },
    {
      "Source": "CVE",
      "URI": "https://access.redhat.com/security/cve/CVE-2011-4517",
      "ID": "CVE-2011-4517"
    }
  ],
  "Criteria": {
    "Operator": "OR",
    "Criterias": [
      {
        "Operator": "AND",
        "Criterias": [
          {
            "Operator": "OR",
            "Criterias": [
              {
                "Operator": "AND",
                "Criterias": [

                ],
                "Criterions": [
                  {
                    "Comment": "jasper is earlier than 0:1.900.1-15.el6_1.1"
                  },
                  {
                    "Comment": "jasper is signed with Red Hat redhatrelease2 key"
                  }
                ]
              },
              {
                "Operator": "AND",
                "Criterias": [

                ],
                "Criterions": [
                  {
                    "Comment": "jasper-devel is earlier than 0:1.900.1-15.el6_1.1"
                  },
                  {
                    "Comment": "jasper-devel is signed with Red Hat redhatrelease2 key"
                  }
                ]
              },
              {
                "Operator": "AND",
                "Criterias": [

                ],
                "Criterions": [
                  {
                    "Comment": "jasper-libs is earlier than 0:1.900.1-15.el6_1.1"
                  },
                  {
                    "Comment": "jasper-libs is signed with Red Hat redhatrelease2 key"
                  }
                ]
              },
              {
                "Operator": "AND",
                "Criterias": [

                ],
                "Criterions": [
                  {
                    "Comment": "jasper-utils is earlier than 0:1.900.1-15.el6_1.1"
                  },
                  {
                    "Comment": "jasper-utils is signed with Red Hat redhatrelease2 key"
                  }
                ]
              }
            ],
            "Criterions": [

            ]
          }
        ],
        "Criterions": [
          {
            "Comment": "Oracle Linux 6 is installed"
          }
        ]
      }
    ],
    "Criterions": [
      {
        "Comment": "Oracle Linux 6 is installed"
      }
    ]
  },
  "Severity": "Important",
  "Cves": [
    {
      "Impact": "",
      "Href": "",
      "ID": "CVE-2011-4516"
    },
    {
      "Impact": "",
      "Href": "",
      "ID": "CVE-2011-4517"
    }
  ],
  "Issued": {
    "Date": "2011-12-09"
  }
}