{
  "Title": "RHSA-2011:0320: libcgroup security update (Important)",
  "Description": "The libcgroup packages provide tools and libraries to control and monitor\ncontrol groups.\nA heap-based buffer overflow flaw was found in the way libcgroup converted\na list of user-provided controllers for a particular task into an array of\nstrings. A local attacker could use this flaw to escalate their privileges\nvia a specially-crafted list of controllers. (CVE-2011-1006)\nIt was discovered that libcgroup did not properly check the origin of\nNetlink messages. A local attacker could use this flaw to send crafted\nNetlink messages to the cgrulesengd daemon, causing it to put processes\ninto one or more existing control groups, based on the attacker's choosing,\npossibly allowing the particular tasks to run with more resources (memory,\nCPU, etc.) than originally intended. (CVE-2011-1022)\nRed Hat would like to thank Nelson Elhage for reporting the CVE-2011-1006\nissue.\nAll libcgroup users should upgrade to these updated packages, which contain\nbackported patches to correct these issues.",
  "Platform": [
    "Red Hat Enterprise Linux 6"
  ],
  "References": [
    {
      "Source": "RHSA",
      "URI": "https://access.redhat.com/errata/RHSA-2011:0320",
      "ID": "RHSA-2011:0320"
    },
    {
      "Source": "CVE",
      "URI": "https://access.redhat.com/security/cve/CVE-2011-1006",
      "ID": "CVE-2011-1006"
    },
    {
      "Source": "CVE",
      "URI": "https://access.redhat.com/security/cve/CVE-2011-1022",
      "ID": "CVE-2011-1022"
    }
  ],
  "Criteria": {
    "Operator": "OR",
    "Criterias": [
      {
        "Operator": "AND",
        "Criterias": [
          {
            "Operator": "OR",
            "Criterias": [
              {
                "Operator": "AND",
                "Criterias": [

                ],
                "Criterions": [
                  {
                    "Comment": "libcgroup is earlier than 0:0.36.1-6.el6_0.1"
                  },
                  {
                    "Comment": "libcgroup is signed with Red Hat redhatrelease2 key"
                  }
                ]
              },
              {
                "Operator": "AND",
                "Criterias": [

                ],
                "Criterions": [
                  {
                    "Comment": "libcgroup-devel is earlier than 0:0.36.1-6.el6_0.1"
                  },
                  {
                    "Comment": "libcgroup-devel is signed with Red Hat redhatrelease2 key"
                  }
                ]
              },
              {
                "Operator": "AND",
                "Criterias": [

                ],
                "Criterions": [
                  {
                    "Comment": "libcgroup-pam is earlier than 0:0.36.1-6.el6_0.1"
                  },
                  {
                    "Comment": "libcgroup-pam is signed with Red Hat redhatrelease2 key"
                  }
                ]
              }
            ],
            "Criterions": [

            ]
          }
        ],
        "Criterions": [
          {
            "Comment": "Oracle Linux 6 is installed"
          }
        ]
      }
    ],
    "Criterions": [
      {
        "Comment": "Oracle Linux 6 is installed"
      }
    ]
  },
  "Severity": "Important",
  "Cves": [
    {
      "Impact": "",
      "Href": "",
      "ID": "CVE-2011-1006"
    },
    {
      "Impact": "",
      "Href": "",
      "ID": "CVE-2011-1022"
    }
  ],
  "Issued": {
    "Date": "2011-03-03"
  }
}