{
  "Title": "RHSA-2011:0257: subversion security update (Moderate)",
  "Description": "Subversion (SVN) is a concurrent version control system which enables one\nor more users to collaborate in developing and maintaining a hierarchy of\nfiles and directories while keeping a history of all changes.\nA server-side memory leak was found in the Subversion server. If a\nmalicious, remote user performed \"svn blame\" or \"svn log\" operations on\ncertain repository files, it could cause the Subversion server to consume\na large amount of system memory. (CVE-2010-4644)\nA NULL pointer dereference flaw was found in the way the mod_dav_svn module\n(for use with the Apache HTTP Server) processed certain requests. If a\nmalicious, remote user issued a certain type of request to display a\ncollection of Subversion repositories on a host that has the\nSVNListParentPath directive enabled, it could cause the httpd process\nserving the request to crash. Note that SVNListParentPath is not enabled by\ndefault. (CVE-2010-4539)\nAll Subversion users should upgrade to these updated packages, which\ncontain backported patches to correct these issues. After installing the\nupdated packages, the Subversion server must be restarted for the update\nto take effect: restart httpd if you are using mod_dav_svn, or restart\nsvnserve if it is used.",
  "Platform": [
    "Red Hat Enterprise Linux 5"
  ],
  "References": [
    {
      "Source": "RHSA",
      "URI": "https://access.redhat.com/errata/RHSA-2011:0257",
      "ID": "RHSA-2011:0257"
    },
    {
      "Source": "CVE",
      "URI": "https://access.redhat.com/security/cve/CVE-2010-4539",
      "ID": "CVE-2010-4539"
    },
    {
      "Source": "CVE",
      "URI": "https://access.redhat.com/security/cve/CVE-2010-4644",
      "ID": "CVE-2010-4644"
    }
  ],
  "Criteria": {
    "Operator": "OR",
    "Criterias": [
      {
        "Operator": "AND",
        "Criterias": [
          {
            "Operator": "OR",
            "Criterias": [
              {
                "Operator": "AND",
                "Criterias": [

                ],
                "Criterions": [
                  {
                    "Comment": "mod_dav_svn is earlier than 0:1.6.11-7.el5_6.1"
                  },
                  {
                    "Comment": "mod_dav_svn is signed with Red Hat redhatrelease2 key"
                  }
                ]
              },
              {
                "Operator": "AND",
                "Criterias": [

                ],
                "Criterions": [
                  {
                    "Comment": "subversion is earlier than 0:1.6.11-7.el5_6.1"
                  },
                  {
                    "Comment": "subversion is signed with Red Hat redhatrelease2 key"
                  }
                ]
              },
              {
                "Operator": "AND",
                "Criterias": [

                ],
                "Criterions": [
                  {
                    "Comment": "subversion-devel is earlier than 0:1.6.11-7.el5_6.1"
                  },
                  {
                    "Comment": "subversion-devel is signed with Red Hat redhatrelease2 key"
                  }
                ]
              },
              {
                "Operator": "AND",
                "Criterias": [

                ],
                "Criterions": [
                  {
                    "Comment": "subversion-javahl is earlier than 0:1.6.11-7.el5_6.1"
                  },
                  {
                    "Comment": "subversion-javahl is signed with Red Hat redhatrelease2 key"
                  }
                ]
              },
              {
                "Operator": "AND",
                "Criterias": [

                ],
                "Criterions": [
                  {
                    "Comment": "subversion-perl is earlier than 0:1.6.11-7.el5_6.1"
                  },
                  {
                    "Comment": "subversion-perl is signed with Red Hat redhatrelease2 key"
                  }
                ]
              },
              {
                "Operator": "AND",
                "Criterias": [

                ],
                "Criterions": [
                  {
                    "Comment": "subversion-ruby is earlier than 0:1.6.11-7.el5_6.1"
                  },
                  {
                    "Comment": "subversion-ruby is signed with Red Hat redhatrelease2 key"
                  }
                ]
              }
            ],
            "Criterions": [

            ]
          }
        ],
        "Criterions": [
          {
            "Comment": "Oracle Linux 5 is installed"
          }
        ]
      }
    ],
    "Criterions": [
      {
        "Comment": "Oracle Linux 5 is installed"
      }
    ]
  },
  "Severity": "Moderate",
  "Cves": [
    {
      "Impact": "",
      "Href": "",
      "ID": "CVE-2010-4539"
    },
    {
      "Impact": "",
      "Href": "",
      "ID": "CVE-2010-4644"
    }
  ],
  "Issued": {
    "Date": "2011-02-15"
  }
}