{
  "Title": "RHSA-2011:0465: kdenetwork security update (Important)",
  "Description": "The kdenetwork packages contain networking applications for the K Desktop\nEnvironment (KDE).\nA directory traversal flaw was found in the way KGet, a download manager,\nhandled the \"file\" element in Metalink files. An attacker could use this\nflaw to create a specially-crafted Metalink file that, when opened, would\ncause KGet to overwrite arbitrary files accessible to the user running\nKGet. (CVE-2011-1586)\nUsers of kdenetwork should upgrade to these updated packages, which contain\na backported patch to resolve this issue. The desktop must be restarted\n(log out, then log back in) for this update to take effect.",
  "Platform": [
    "Red Hat Enterprise Linux 6"
  ],
  "References": [
    {
      "Source": "RHSA",
      "URI": "https://access.redhat.com/errata/RHSA-2011:0465",
      "ID": "RHSA-2011:0465"
    },
    {
      "Source": "CVE",
      "URI": "https://access.redhat.com/security/cve/CVE-2011-1586",
      "ID": "CVE-2011-1586"
    }
  ],
  "Criteria": {
    "Operator": "OR",
    "Criterias": [
      {
        "Operator": "AND",
        "Criterias": [
          {
            "Operator": "OR",
            "Criterias": [
              {
                "Operator": "AND",
                "Criterias": [

                ],
                "Criterions": [
                  {
                    "Comment": "kdenetwork is earlier than 7:4.3.4-11.el6_0.1"
                  },
                  {
                    "Comment": "kdenetwork is signed with Red Hat redhatrelease2 key"
                  }
                ]
              },
              {
                "Operator": "AND",
                "Criterias": [

                ],
                "Criterions": [
                  {
                    "Comment": "kdenetwork-devel is earlier than 7:4.3.4-11.el6_0.1"
                  },
                  {
                    "Comment": "kdenetwork-devel is signed with Red Hat redhatrelease2 key"
                  }
                ]
              },
              {
                "Operator": "AND",
                "Criterias": [

                ],
                "Criterions": [
                  {
                    "Comment": "kdenetwork-libs is earlier than 7:4.3.4-11.el6_0.1"
                  },
                  {
                    "Comment": "kdenetwork-libs is signed with Red Hat redhatrelease2 key"
                  }
                ]
              }
            ],
            "Criterions": [

            ]
          }
        ],
        "Criterions": [
          {
            "Comment": "Oracle Linux 6 is installed"
          }
        ]
      }
    ],
    "Criterions": [
      {
        "Comment": "Oracle Linux 6 is installed"
      }
    ]
  },
  "Severity": "Important",
  "Cves": [
    {
      "Impact": "",
      "Href": "",
      "ID": "CVE-2011-1586"
    }
  ],
  "Issued": {
    "Date": "2011-04-21"
  }
}