{
  "Title": "RHSA-2011:0475: thunderbird security update (Critical)",
  "Description": "Mozilla Thunderbird is a standalone mail and newsgroup client.\nSeveral flaws were found in the processing of malformed HTML content. An\nHTML mail message containing malicious content could possibly lead to\narbitrary code execution with the privileges of the user running\nThunderbird. (CVE-2011-0080, CVE-2011-0081)\nAn arbitrary memory write flaw was found in the way Thunderbird handled\nout-of-memory conditions. If all memory was consumed when a user viewed a\nmalicious HTML mail message, it could possibly lead to arbitrary code\nexecution with the privileges of the user running Thunderbird.\n(CVE-2011-0078)\nAn integer overflow flaw was found in the way Thunderbird handled the HTML\nframeset tag. An HTML mail message with a frameset tag containing large\nvalues for the \"rows\" and \"cols\" attributes could trigger this flaw,\npossibly leading to arbitrary code execution with the privileges of the\nuser running Thunderbird. (CVE-2011-0077)\nA flaw was found in the way Thunderbird handled the HTML iframe tag. An\nHTML mail message with an iframe tag containing a specially-crafted source\naddress could trigger this flaw, possibly leading to arbitrary code\nexecution with the privileges of the user running Thunderbird.\n(CVE-2011-0075)\nA flaw was found in the way Thunderbird displayed multiple marquee\nelements. A malformed HTML mail message could cause Thunderbird to execute\narbitrary code with the privileges of the user running Thunderbird.\n(CVE-2011-0074)\nA flaw was found in the way Thunderbird handled the nsTreeSelection\nelement. Malformed content could cause Thunderbird to execute arbitrary\ncode with the privileges of the user running Thunderbird. (CVE-2011-0073)\nA directory traversal flaw was found in the Thunderbird resource://\nprotocol handler. Malicious content could cause Thunderbird to access\narbitrary files accessible to the user running Thunderbird. (CVE-2011-0071)\nA double free flaw was found in the way Thunderbird handled\n\"application/http-index-format\" documents. A malformed HTTP response could\ncause Thunderbird to execute arbitrary code with the privileges of the user\nrunning Thunderbird. (CVE-2011-0070)\nAll Thunderbird users should upgrade to this updated package, which\nresolves these issues. All running instances of Thunderbird must be\nrestarted for the update to take effect.",
  "Platform": [
    "Red Hat Enterprise Linux 6"
  ],
  "References": [
    {
      "Source": "RHSA",
      "URI": "https://access.redhat.com/errata/RHSA-2011:0475",
      "ID": "RHSA-2011:0475"
    },
    {
      "Source": "CVE",
      "URI": "https://access.redhat.com/security/cve/CVE-2011-0070",
      "ID": "CVE-2011-0070"
    },
    {
      "Source": "CVE",
      "URI": "https://access.redhat.com/security/cve/CVE-2011-0071",
      "ID": "CVE-2011-0071"
    },
    {
      "Source": "CVE",
      "URI": "https://access.redhat.com/security/cve/CVE-2011-0073",
      "ID": "CVE-2011-0073"
    },
    {
      "Source": "CVE",
      "URI": "https://access.redhat.com/security/cve/CVE-2011-0074",
      "ID": "CVE-2011-0074"
    },
    {
      "Source": "CVE",
      "URI": "https://access.redhat.com/security/cve/CVE-2011-0075",
      "ID": "CVE-2011-0075"
    },
    {
      "Source": "CVE",
      "URI": "https://access.redhat.com/security/cve/CVE-2011-0077",
      "ID": "CVE-2011-0077"
    },
    {
      "Source": "CVE",
      "URI": "https://access.redhat.com/security/cve/CVE-2011-0078",
      "ID": "CVE-2011-0078"
    },
    {
      "Source": "CVE",
      "URI": "https://access.redhat.com/security/cve/CVE-2011-0080",
      "ID": "CVE-2011-0080"
    },
    {
      "Source": "CVE",
      "URI": "https://access.redhat.com/security/cve/CVE-2011-0081",
      "ID": "CVE-2011-0081"
    }
  ],
  "Criteria": {
    "Operator": "OR",
    "Criterias": [
      {
        "Operator": "AND",
        "Criterias": [

        ],
        "Criterions": [
          {
            "Comment": "Oracle Linux 6 is installed"
          },
          {
            "Comment": "thunderbird is earlier than 0:3.1.10-1.el6_0"
          },
          {
            "Comment": "thunderbird is signed with Red Hat redhatrelease2 key"
          }
        ]
      }
    ],
    "Criterions": [
      {
        "Comment": "Oracle Linux 6 is installed"
      }
    ]
  },
  "Severity": "Critical",
  "Cves": [
    {
      "Impact": "",
      "Href": "",
      "ID": "CVE-2011-0070"
    },
    {
      "Impact": "",
      "Href": "",
      "ID": "CVE-2011-0071"
    },
    {
      "Impact": "",
      "Href": "",
      "ID": "CVE-2011-0073"
    },
    {
      "Impact": "",
      "Href": "",
      "ID": "CVE-2011-0074"
    },
    {
      "Impact": "",
      "Href": "",
      "ID": "CVE-2011-0075"
    },
    {
      "Impact": "",
      "Href": "",
      "ID": "CVE-2011-0077"
    },
    {
      "Impact": "",
      "Href": "",
      "ID": "CVE-2011-0078"
    },
    {
      "Impact": "",
      "Href": "",
      "ID": "CVE-2011-0080"
    },
    {
      "Impact": "",
      "Href": "",
      "ID": "CVE-2011-0081"
    }
  ],
  "Issued": {
    "Date": "2011-04-29"
  }
}